#quest dark_q1|daily
    #task t0|hidden|unlocked
        #set RaiseFlag|zaglooshka|Dark.txt,reset_dark_q2
    #task t1
        #set GotoLocation|5990,10805,6190,11045,0|true
        #action UnlockTask|dark_q1|t2
        #action SetFlag|dark_q1_flag|true
    #task t2
        #set GotoLocation|9170,4880,2|building|false
        #action UnlockTask|dark_q1|t3
    #task t3
        #set GotoLocation|9162,4870,9188,4889,2|false
        #action RunScript|Dark.txt,q1_choosecont
        #action UnlockTask|dark_q1|t14
    #task t4|hidden
        #set LootContainer|counter|9180,4878,2|NHM.QuestUtopiaSeed,false
    #task t5|hidden
        #set LootContainer|counter|9183,4888,2|NHM.QuestUtopiaSeed,false
    #task t6|hidden
        #set LootContainer|counter|9186,4889,2|NHM.QuestUtopiaSeed,false
    #task t7|hidden
        #set LootContainer|fridge|9198,4886,2|NHM.QuestUtopiaSeed,false
    #task t8|hidden
        #set LootContainer|fridge|9194,4888,2|NHM.QuestUtopiaSeed,false
    #task t9|hidden
        #set LootContainer|metal_shelves|9195,4874,2|NHM.QuestUtopiaSeed,false
    #task t10|hidden
        #set LootContainer|metal_shelves|9193,4872,2|NHM.QuestUtopiaSeed,false
    #task t11|hidden
        #set LootContainer|counter|9188,4871,2|NHM.QuestUtopiaSeed,false
    #task t12|hidden
        #set LootContainer|metal_shelves|9198,4882,2|NHM.QuestUtopiaSeed,false
    #task t13|hidden
        #set LootContainer|locker|9184,4882,2|NHM.QuestUtopiaSeed,false
    #task t14
        #set TaskCondition|dark_q1|t4/t5/t6/t7/t8/t9/t10/t11/t12/t13
        #action SetFlag|dark_q1_flag|true
        #action UnlockTask|dark_q1|t15
        #action UnlockTask|dark_q1|t16
    #task t15|hidden
        #set WaitUntil|time|false|120
        #action RunScript|Dark.txt,fail_dark_q1
    #task t16
        #set RaiseFlag|dark_q1_completed
        #action SetFlag|dark_q1_completed|false
        #action SetFlag|dark_q1_flag|false
        #action CompleteQuest|dark_q1

#quest dark_q2|daily
    #task t0|hidden|unlocked
        #set RaiseFlag|zaglooshka|Dark.txt,reset_dark_q2
    #task t1
        #set GotoLocation|11900,1000,15000,3450,0|true
        #action UnlockTask|dark_q2|t20
        #action RunScript|Dark.txt,q2_choosepath
    #task t2
        #set GotoLocation|12805,3243,0|building|true
        #action UnlockTask|dark_q2|t3
    #task t3
        #set Secure|12805,3243,0|building
        #action UnlockTask|dark_q2|t4
    #task t4
        #set ContextAction|Осмотреть место|12805,3243,0|4|Dark.txt,quest2_path1|q2_p1_flag
        #action UnlockTask|dark_q2|t5
    #task t5
        #set GotoLocation|12608,3382,0|building|true
        #action UnlockTask|dark_q2|t11
        #action RunScript|Dark.txt,q2_choosecont
    #task t6|hidden
        #set LootContainer|metal_shelves|12602,3371,0|NHM.QuestSpiderNote,false
    #task t7|hidden
        #set LootContainer|filingcabinet|12609,3373,0|NHM.QuestSpiderNote,false
    #task t8|hidden
        #set LootContainer|counter|12610,3377,0|NHM.QuestSpiderNote,false
    #task t9|hidden
        #set LootContainer|metal_shelves|12612,3370,0|NHM.QuestSpiderNote,false
    #task t10|hidden
        #set LootContainer|counter|12610,3352,0|NHM.QuestSpiderNote,false
    #task t11
        #set TaskCondition|dark_q1|t6/t7/t8/t9/t10
    #task t12
        #set GotoLocation|12840,2534,0|building|true
        #action UnlockTask|dark_q2|t13
    #task t13
        #set Secure|12840,2534,0|building
        #action UnlockTask|dark_q2|t14
    #task t14
        #set ContextAction|Вскрыть тайник|12840,2534,0|4|Dark.txt,quest2_path2|q2_p2_flag
    #task t15
        #set GotoLocation|12319,2544,0|building|true
        #action UnlockTask|dark_q2|t16
    #task t16
        #set Secure|12319,2544,0|building
        #action UnlockTask|dark_q2|t17
    #task t17
        #set ContextAction|Связаться с Дарком|12314,2542,0|4|Dark.txt,quest2_path3|q2_p3_flag
        #action UnlockTask|dark_q2|t18
    #task t18
        #set GotoLocation|12381,2537,0|building|true
        #action UnlockTask|dark_q2|t19
    #task t19
        #set Secure|12381,2537,0|building
        #action UnlockTask|dark_q2|t20
    #task t20
        #set ContextAction|Подобрать записку|12381,2537,0|4|Dark.txt,quest2_note|q2_note_flag
    #task t21|hidden
        #set TaskCondition|dark_q2|t11/t14/t20
        #action SetFlag|dark_q2_flag|true
        #action UnlockTask|dark_q2|t22
    #task t22
        #set RaiseFlag|dark_q2_completed
        #action SetFlag|dark_q2_completed|false
        #action SetFlag|dark_q2_flag|false
        #action CompleteQuest|dark_q2
