module camping
{
	imports
	{
		Base
	}

/*************** Изменён крафт костра и палатки ************/

  
  item CampfireKit
	{
		Type				=		Normal,
		DisplayName			=	 Campfire Materials,
		Icon				=		TZ_CampfireKitWood,
		Weight				=		2.0,
		WorldStaticModel = CampfireMaterials,
	}
  
  item Stone
	{
		DisplayCategory     =       Material,
		Type				=		Normal,
		DisplayName			=		Stone,
		Icon				=		TZ_Stone,
		Weight				=		1.5,
		OBSOLETE = TRUE,
	}
  
	item Flint
	{
		Type				=		Normal,
		DisplayName			=		Flint,
		Icon				=		TZ_Flint,
		Weight				=		0.2,
		WorldStaticModel = Flint_Ground,
	}
	
	item SteelKnuckle
	{
		Type				=		Normal,
		DisplayName			=		Steel Knuckle,
		Icon				=		TZ_SteelKnuckle,
		Weight				=		0.2,
		WorldStaticModel = SteelKnuckle,
	}
	
	item SteelAndFlint
	{
		Type				=		Normal,
		DisplayName			=		Flint and Steel,
		Icon				=		TZ_SteelAndFlint,
		Weight				=		0.4,
		WorldStaticModel = FlintAndSteel,
	}
  
    item CampingTent
	{
		Type				=		Normal,
		DisplayName			=	 Tent,
		Icon				=		TZ_Tent,
		Weight				=		3.0,		
	}
  
    item CampingTentKit
	{
		Type				=		Normal,
		DisplayName			=	 Tent Kit,
		Icon				=		TZ_TentKit,
		Weight				=		3.0,
	}
  
  item TentPeg
	{
		Type				=		Normal,
		DisplayName			=	 Tent Peg,
		Icon				=		TZ_TentPeg,
		Weight				=		0.2,
		WorldStaticModel  = TentPegs_Ground,		
	}
  
/***** NHM ******/

    recipe Make Campfire Kit
    {
        Plank = 2,
		Stone = 2,
        RippedSheets/RippedSheetsDirty/Twigs,

        Result:CampfireKit,
        Time:50.0,
        Category:Survivalist,
    }
  
    recipe Make Tent Kit
    {
        Tarp,
        TentPeg,
        Stake = 4,
        WoodenStick = 2,

        Result:CampingTentKit,
        Time:120.0,
        Category:Survivalist,
    }

}
