module NHM
{
	imports
	{
		Base
	}

/*************** Красители ************/

  
  item DyeTurquoise
	{
		Type				=		Normal,
		DisplayName			=	 	DyeTurquoise,
		DisplayCategory		=		Dyes,
		Icon				=		DyeTurquoise,
		Weight				=		0.05,
		WorldStaticModel	=		DyeTurquoise,
	}
  
  item DyeCyan
	{
		Type				=		Normal,
		DisplayName			=	 	DyeCyan,
		DisplayCategory		=		Dyes,
		Icon				=		DyeCyan,
		Weight				=		0.05,
		WorldStaticModel	=		DyeCyan,
	}
  
	item DyeLightBlue
	{
		Type				=		Normal,
		DisplayName			=	 	DyeLightBlue,
		DisplayCategory		=		Dyes,
		Icon				=		DyeLightBlue,
		Weight				=		0.05,
		WorldStaticModel	=		DyeLightBlue,
	}
	
	item DyeYellow
	{
		Type				=		Normal,
		DisplayName			=	 	DyeYellow,
		DisplayCategory		=		Dyes,
		Icon				=		DyeYellow,
		Weight				=		0.05,
		WorldStaticModel	=		DyeYellow,
	}
	
	item DyeGreen
	{
		Type				=		Normal,
		DisplayName			=	 	DyeGreen,
		DisplayCategory		=		Dyes,
		Icon				=		DyeGreen,
		Weight				=		0.05,
		WorldStaticModel	=		DyeGreen,
	}
  
    item DyeBrown
	{
		Type				=		Normal,
		DisplayName			=	 	DyeBrown,
		DisplayCategory		=		Dyes,
		Icon				=		DyeBrown,
		Weight				=		0.05,
		WorldStaticModel	=		DyeBrown,
	}
  
    item DyeRed
	{
		Type				=		Normal,
		DisplayName			=	 	DyeRed,
		DisplayCategory		=		Dyes,
		Icon				=		DyeRed,
		Weight				=		0.05,
		WorldStaticModel	=		DyeRed,
	}
  
	item DyeOrange
	{
		Type				=		Normal,
		DisplayName			=	 	DyeOrange,
		DisplayCategory		=		Dyes,
		Icon				=		DyeOrange,
		Weight				=		0.05,
		WorldStaticModel	=		DyeOrange,
	}
  
	item DyePink
	{
		Type				=		Normal,
		DisplayName			=	 	DyePink,
		DisplayCategory		=		Dyes,
		Icon				=		DyePink,
		Weight				=		0.05,
		WorldStaticModel	=		DyePink,
	}

	item DyeLightBrown
	{
		Type				=		Normal,
		DisplayName			=	 	DyeLightBrown,
		DisplayCategory		=		Dyes,
		Icon				=		DyeLightBrown,
		Weight				=		0.05,
		WorldStaticModel	=		DyeLightBrown,
	}

	item DyeGrey
	{
		Type				=		Normal,
		DisplayName			=	 	DyeGrey,
		DisplayCategory		=		Dyes,
		Icon				=		DyeGrey,
		Weight				=		0.05,
		WorldStaticModel	=		DyeGrey,
	}

	item DyeBlue
	{
		Type				=		Normal,
		DisplayName			=	 	DyeBlue,
		DisplayCategory		=		Dyes,
		Icon				=		DyeBlue,
		Weight				=		0.05,
		WorldStaticModel	=		DyeBlue,
	}

	item DyePurple
	{
		Type				=		Normal,
		DisplayName			=	 	DyePurple,
		DisplayCategory		=		Dyes,
		Icon				=		DyePurple,
		Weight				=		0.05,
		WorldStaticModel	=		DyePurple,
	}

	item DyeBlack
	{
		Type				=		Normal,
		DisplayName			=	 	DyeBlack,
		DisplayCategory		=		Dyes,
		Icon				=		DyeBlack,
		Weight				=		0.05,
		WorldStaticModel	=		DyeBlack,
	}

	item DyeMagenta
	{
		Type				=		Normal,
		DisplayName			=	 	DyeMagenta,
		DisplayCategory		=		Dyes,
		Icon				=		DyeMagenta,
		Weight				=		0.05,
		WorldStaticModel	=		DyeMagenta,
	}

	recipe Make DyeTurquoise
	{
		keep MortarPestle,
		Rosehips=1,
		GrapeLeaves=4,
		Violets=3,

		Result:DyeTurquoise,
		Time:100.0,
		Category:Dyes,
	}

	recipe Make DyeCyan
	{
		keep MortarPestle,
		GrapeLeaves=4,
		Violets=4,
		
		Result:DyeCyan,
		Time:100.0,
		Category:Dyes,
	}

	recipe Make DyeLightBlue
	{
		keep MortarPestle,
		Rosehips=3,
		GrapeLeaves=4,
		Violets=4,
		
		Result:DyeLightBlue,
		Time:100.0,
		Category:Dyes,
	}

	recipe Make DyeYellow
	{
		keep MortarPestle,
		Rosehips=4,
		GrapeLeaves=4,
		
		Result:DyeYellow,
		Time:100.0,
		Category:Dyes,
	}

	recipe Make DyeGreen
	{
		GrapeLeaves=4,
		
		Result:DyeGreen,
		Time:100.0,
		Category:Dyes,
	}

	recipe Make DyeBrown
	{
		keep MortarPestle,
		Rosehips=2,
		GrapeLeaves=1,
		Violets=1,
		
		Result:DyeBrown,
		Time:100.0,
		Category:Dyes,
	}

	recipe Make DyeRed
	{
		keep MortarPestle,
		Rosehips=4,
		
		Result:DyeRed,
		Time:100.0,
		Category:Dyes,
	}

	recipe Make DyeOrange
	{
		keep MortarPestle,
		Rosehips=4,
		GrapeLeaves=2,
		
		Result:DyeOrange,
		Time:100.0,
		Category:Dyes,
	}

	recipe Make DyePink
	{
		keep MortarPestle,
		Rosehips=4,
		GrapeLeaves=3,
		Violets=3,
		
		Result:DyePink,
		Time:100.0,
		Category:Dyes,
	}

	recipe Make DyeLightBrown
	{
		keep MortarPestle,
		Rosehips=4,
		GrapeLeaves=2,
		Violets=1,
		
		Result:DyeLightBrown,
		Time:100.0,
		Category:Dyes,
	}

	recipe Make DyeGrey
	{
		keep MortarPestle,
		Rosehips=2,
		GrapeLeaves=2,
		Violets=2,
		
		Result:DyeGrey,
		Time:100.0,
		Category:Dyes,
	}

	recipe Make DyeBlue
	{
		keep MortarPestle,
		Violets=4,
		
		Result:DyeBlue,
		Time:100.0,
		Category:Dyes,
	}

	recipe Make DyePurple
	{
		keep MortarPestle,
		Rosehips=4,
		GrapeLeaves=2,
		Violets=4,
		
		Result:DyePurple,
		Time:100.0,
		Category:Dyes,
	}

	recipe Make DyeBlack
	{
		keep MortarPestle,
		Rosehips=1,
		GrapeLeaves=1,
		Violets=1,
		
		Result:DyeBlack,
		Time:100.0,
		Category:Dyes,
	}

	recipe Make DyeMagenta
	{
		keep MortarPestle,
		Rosehips=4,
		Violets=4,
		
		Result:DyeMagenta,
		Time:100.0,
		Category:Dyes,
	}

}
