xof 0303txt 0032

Frame Root {
  FrameTransformMatrix {
     1.000000, 0.000000, 0.000000, 0.000000,
     0.000000,-0.000000, 1.000000, 0.000000,
     0.000000, 1.000000, 0.000000, 0.000000,
     0.000000, 0.000000, 0.000000, 1.000000;;
  }
  Frame Cube {
    FrameTransformMatrix {
       1.000000, 0.000000, 0.000000, 0.000000,
       0.000000, 1.000000, 0.000000, 0.000000,
       0.000000, 0.000000, 1.000000, 0.000000,
       0.000000, 0.000000, 0.000000, 1.000000;;
    }
    Mesh { // Cube mesh
      56;
       0.007622; 0.003897;-0.041195;,
       0.011308; 0.070384;-0.011089;,
       0.018765; 0.058989;-0.020865;,
       0.016493; 0.018009;-0.039421;,
       0.049051; 0.001179;-0.040266;,
       0.007622; 0.003897;-0.041195;,
       0.016493; 0.018009;-0.039421;,
       0.042028; 0.016334;-0.038848;,
       0.011308; 0.070384;-0.011089;,
       0.052738; 0.067666;-0.010159;,
       0.044301; 0.057314;-0.020292;,
       0.018765; 0.058989;-0.020865;,
       0.044301; 0.057314;-0.020292;,
       0.042028; 0.016334;-0.038848;,
       0.016493; 0.018009;-0.039421;,
       0.018765; 0.058989;-0.020865;,
       0.002562;-0.039922; 0.056193;,
       0.043991;-0.042640; 0.057122;,
       0.040322;-0.038317; 0.064195;,
       0.006446;-0.036094; 0.063435;,
       0.043991;-0.042640; 0.057122;,
       0.047678; 0.023847; 0.087229;,
       0.043336; 0.016048; 0.088813;,
       0.040322;-0.038317; 0.064195;,
       0.006249; 0.026565; 0.086299;,
       0.002562;-0.039922; 0.056193;,
       0.006446;-0.036094; 0.063435;,
       0.009460; 0.018271; 0.088053;,
       0.040322;-0.038317; 0.064195;,
       0.043336; 0.016048; 0.088813;,
       0.009460; 0.018271; 0.088053;,
       0.006446;-0.036094; 0.063435;,
       0.052738; 0.067666;-0.010159;,
       0.049051; 0.001179;-0.040266;,
       0.042028; 0.016334;-0.038848;,
       0.044301; 0.057314;-0.020292;,
       0.047678; 0.023847; 0.087229;,
       0.006249; 0.026565; 0.086299;,
       0.009460; 0.018271; 0.088053;,
       0.043336; 0.016048; 0.088813;,
       0.006249; 0.026565; 0.086299;,
       0.011308; 0.070384;-0.011089;,
       0.007622; 0.003897;-0.041195;,
       0.002562;-0.039922; 0.056193;,
       0.047678; 0.023847; 0.087229;,
       0.052738; 0.067666;-0.010159;,
       0.011308; 0.070384;-0.011089;,
       0.006249; 0.026565; 0.086299;,
       0.043991;-0.042640; 0.057122;,
       0.049051; 0.001179;-0.040266;,
       0.052738; 0.067666;-0.010159;,
       0.047678; 0.023847; 0.087229;,
       0.002562;-0.039922; 0.056193;,
       0.007622; 0.003897;-0.041195;,
       0.049051; 0.001179;-0.040266;,
       0.043991;-0.042640; 0.057122;;
      14;
      4;3,2,1,0;,
      4;7,6,5,4;,
      4;11,10,9,8;,
      4;15,14,13,12;,
      4;19,18,17,16;,
      4;23,22,21,20;,
      4;27,26,25,24;,
      4;31,30,29,28;,
      4;35,34,33,32;,
      4;39,38,37,36;,
      4;43,42,41,40;,
      4;47,46,45,44;,
      4;51,50,49,48;,
      4;55,54,53,52;;
      MeshNormals { // Cube normals
        14;
        -0.456872; 0.387830;-0.800535;,
         0.029282; 0.106533;-0.993878;,
         0.060668; 0.672516;-0.737591;,
         0.047323; 0.409856;-0.910922;,
        -0.067945;-0.866580; 0.494391;,
         0.756947;-0.303928; 0.578497;,
        -0.815222;-0.200778; 0.543233;,
        -0.047323;-0.409856; 0.910922;,
         0.538887; 0.322499;-0.778200;,
        -0.008598; 0.203647; 0.979007;,
        -0.997605; 0.065453;-0.022376;,
         0.050451; 0.909799; 0.411972;,
         0.997605;-0.065453; 0.022376;,
        -0.050451;-0.909799;-0.411972;;
        14;
        4;0,0,0,0;,
        4;1,1,1,1;,
        4;2,2,2,2;,
        4;3,3,3,3;,
        4;4,4,4,4;,
        4;5,5,5,5;,
        4;6,6,6,6;,
        4;7,7,7,7;,
        4;8,8,8,8;,
        4;9,9,9,9;,
        4;10,10,10,10;,
        4;11,11,11,11;,
        4;12,12,12,12;,
        4;13,13,13,13;;
      } // End of Cube normals
      MeshTextureCoords { // Cube UV coordinates
        56;
         0.221267; 0.177124;,
         0.221267; 0.500000;,
         0.263710; 0.441298;,
         0.263710; 0.242291;,
         0.442533; 0.177124;,
         0.221267; 0.177124;,
         0.263710; 0.242291;,
         0.400090; 0.242291;,
         0.221267; 0.500000;,
         0.442533; 0.500000;,
         0.400090; 0.441298;,
         0.263710; 0.441298;,
         0.400090; 0.441298;,
         0.400090; 0.242291;,
         0.263710; 0.242291;,
         0.263710; 0.441298;,
         0.778733; 0.718666;,
         1.000000; 0.718666;,
         0.979830; 0.681812;,
         0.798904; 0.681812;,
         0.778733; 0.978324;,
         0.389367; 0.978324;,
         0.424861; 1.000000;,
         0.743239; 1.000000;,
         0.000000; 0.521676;,
         0.389367; 0.521676;,
         0.353873; 0.500000;,
         0.035494; 0.500000;,
         0.979830; 0.681812;,
         0.979830; 0.465599;,
         0.798904; 0.465599;,
         0.798904; 0.681812;,
         0.442533; 0.500000;,
         0.442533; 0.177124;,
         0.400090; 0.242291;,
         0.400090; 0.441298;,
         0.000000; 0.021676;,
         0.221267; 0.021676;,
         0.201096; 0.000000;,
         0.020170; 0.000000;,
         0.000000; 0.521676;,
         0.000000; 1.000000;,
         0.389367; 1.000000;,
         0.389367; 0.521676;,
         0.000000; 0.021676;,
         0.000000; 0.500000;,
         0.221267; 0.500000;,
         0.221267; 0.021676;,
         0.778733; 0.978324;,
         0.778733; 0.500000;,
         0.389367; 0.500000;,
         0.389367; 0.978324;,
         0.778733; 0.718666;,
         0.778733; 1.000000;,
         1.000000; 1.000000;,
         1.000000; 0.718666;;
      } // End of Cube UV coordinates
      MeshMaterialList { // Cube material list
        1;
        14;
        0,
        0,
        0,
        0,
        0,
        0,
        0,
        0,
        0,
        0,
        0,
        0,
        0,
        0;
        Material Material_001 {
           0.640000; 0.640000; 0.640000; 1.000000;;
           96.078431;
           0.500000; 0.500000; 0.500000;;
           0.000000; 0.000000; 0.000000;;
        }
      } // End of Cube material list
    } // End of Cube mesh
  } // End of Cube
} // End of Root
