xof 0303txt 0032

Frame Root {
  FrameTransformMatrix {
     1.000000, 0.000000, 0.000000, 0.000000,
     0.000000,-0.000000, 1.000000, 0.000000,
     0.000000, 1.000000, 0.000000, 0.000000,
     0.000000, 0.000000, 0.000000, 1.000000;;
  }
  Frame Cube_001 {
    FrameTransformMatrix {
       1.000000, 0.000000, 0.000000, 0.000000,
       0.000000, 1.000000, 0.000000, 0.000000,
       0.000000, 0.000000, 1.000000, 0.000000,
       0.000000, 0.000000, 0.000000, 1.000000;;
    }
    Mesh { // Cube_001 mesh
      412;
       0.023495; 0.000000; 0.278097;,
       0.000000; 0.000000; 0.278097;,
       0.000000;-0.025276; 0.278097;,
       0.016955;-0.017074; 0.278097;,
       0.016955;-0.017074; 0.211115;,
       0.016955;-0.017074; 0.278097;,
       0.000000;-0.025276; 0.278097;,
       0.000000;-0.025276; 0.211115;,
       0.000000;-0.000000; 0.211115;,
       0.000000; 0.000000; 0.278097;,
       0.000000; 0.024328; 0.278097;,
       0.000000; 0.024328; 0.211115;,
       0.023495;-0.000000; 0.211115;,
       0.026716;-0.000000; 0.211115;,
       0.019280;-0.015949; 0.211115;,
       0.016955;-0.017074; 0.211115;,
       0.026716;-0.000000; 0.211115;,
       0.026716; 0.000000; 0.278097;,
       0.019280;-0.015949; 0.278097;,
       0.019280;-0.015949; 0.211115;,
       0.016955; 0.016960; 0.211115;,
       0.016955; 0.016960; 0.278097;,
       0.019280; 0.015949; 0.278097;,
       0.019280; 0.015949; 0.211115;,
       0.019280; 0.015949; 0.211115;,
       0.019280; 0.015949; 0.278097;,
       0.026716; 0.000000; 0.278097;,
       0.026716;-0.000000; 0.211115;,
       0.016955; 0.016960; 0.211115;,
       0.019280; 0.015949; 0.211115;,
       0.026716;-0.000000; 0.211115;,
       0.023495;-0.000000; 0.211115;,
       0.000000;-0.025276; 0.211115;,
       0.000000;-0.025276; 0.278097;,
       0.000000; 0.000000; 0.278097;,
       0.000000;-0.000000; 0.211115;,
       0.016955; 0.016960; 0.278097;,
       0.000000; 0.024328; 0.278097;,
       0.000000; 0.000000; 0.278097;,
       0.023495; 0.000000; 0.278097;,
       0.019280;-0.015949; 0.278097;,
       0.026716; 0.000000; 0.278097;,
       0.025008; 0.000000; 0.285039;,
       0.019598;-0.015949; 0.279937;,
       0.000000; 0.024328; 0.211115;,
       0.016955; 0.016960; 0.211115;,
       0.023495;-0.000000; 0.211115;,
       0.000000;-0.000000; 0.211115;,
       0.000000; 0.024328; 0.211115;,
       0.000000; 0.024328; 0.278097;,
       0.016955; 0.016960; 0.278097;,
       0.016955; 0.016960; 0.211115;,
       0.000000;-0.000000; 0.211115;,
       0.023495;-0.000000; 0.211115;,
       0.016955;-0.017074; 0.211115;,
       0.000000;-0.025276; 0.211115;,
       0.019280;-0.015949; 0.211115;,
       0.019280;-0.015949; 0.278097;,
       0.016955;-0.017074; 0.278097;,
       0.016955;-0.017074; 0.211115;,
       0.023495; 0.000000; 0.278097;,
       0.016955;-0.017074; 0.278097;,
       0.017907;-0.017074; 0.278342;,
       0.022664; 0.000000; 0.282829;,
      -0.023495; 0.000000; 0.278097;,
      -0.016955;-0.017074; 0.278097;,
       0.000000;-0.025276; 0.278097;,
       0.000000; 0.000000; 0.278097;,
      -0.016955;-0.017074; 0.211115;,
       0.000000;-0.025276; 0.211115;,
       0.000000;-0.025276; 0.278097;,
      -0.016955;-0.017074; 0.278097;,
      -0.023495;-0.000000; 0.211115;,
      -0.016955;-0.017074; 0.211115;,
      -0.019280;-0.015949; 0.211115;,
      -0.026716;-0.000000; 0.211115;,
      -0.026716;-0.000000; 0.211115;,
      -0.019280;-0.015949; 0.211115;,
      -0.019280;-0.015949; 0.278097;,
      -0.026716; 0.000000; 0.278097;,
      -0.016955; 0.016960; 0.211115;,
      -0.019280; 0.015949; 0.211115;,
      -0.019280; 0.015949; 0.278097;,
      -0.016955; 0.016960; 0.278097;,
      -0.019280; 0.015949; 0.211115;,
      -0.026716;-0.000000; 0.211115;,
      -0.026716; 0.000000; 0.278097;,
      -0.019280; 0.015949; 0.278097;,
      -0.016955; 0.016960; 0.211115;,
      -0.023495;-0.000000; 0.211115;,
      -0.026716;-0.000000; 0.211115;,
      -0.019280; 0.015949; 0.211115;,
      -0.016955; 0.016960; 0.278097;,
      -0.023495; 0.000000; 0.278097;,
       0.000000; 0.000000; 0.278097;,
       0.000000; 0.024328; 0.278097;,
      -0.019280; 0.015949; 0.278097;,
      -0.026716; 0.000000; 0.278097;,
      -0.023495; 0.000000; 0.278097;,
      -0.016955; 0.016960; 0.278097;,
       0.000000; 0.024328; 0.211115;,
       0.000000;-0.000000; 0.211115;,
      -0.023495;-0.000000; 0.211115;,
      -0.016955; 0.016960; 0.211115;,
       0.000000; 0.024328; 0.211115;,
      -0.016955; 0.016960; 0.211115;,
      -0.016955; 0.016960; 0.278097;,
       0.000000; 0.024328; 0.278097;,
       0.000000;-0.000000; 0.211115;,
       0.000000;-0.025276; 0.211115;,
      -0.016955;-0.017074; 0.211115;,
      -0.023495;-0.000000; 0.211115;,
      -0.019280;-0.015949; 0.211115;,
      -0.016955;-0.017074; 0.211115;,
      -0.016955;-0.017074; 0.278097;,
      -0.019280;-0.015949; 0.278097;,
      -0.026716; 0.000000; 0.278097;,
      -0.019280;-0.015949; 0.278097;,
      -0.016955;-0.017074; 0.278097;,
      -0.023495; 0.000000; 0.278097;,
       0.019598; 0.015949; 0.279937;,
       0.017907; 0.016960; 0.278342;,
       0.011032; 0.016960; 0.285766;,
       0.012315; 0.015949; 0.287705;,
       0.017907; 0.016960; 0.278342;,
       0.022664; 0.000000; 0.282829;,
       0.012861; 0.000000; 0.287868;,
       0.011032; 0.016960; 0.285766;,
       0.019280; 0.015949; 0.278097;,
       0.016955; 0.016960; 0.278097;,
       0.017907; 0.016960; 0.278342;,
       0.019598; 0.015949; 0.279937;,
       0.016955;-0.017074; 0.278097;,
       0.019280;-0.015949; 0.278097;,
       0.019598;-0.015949; 0.279937;,
       0.017907;-0.017074; 0.278342;,
       0.016955; 0.016960; 0.278097;,
       0.023495; 0.000000; 0.278097;,
       0.022664; 0.000000; 0.282829;,
       0.017907; 0.016960; 0.278342;,
       0.026716; 0.000000; 0.278097;,
       0.019280; 0.015949; 0.278097;,
       0.019598; 0.015949; 0.279937;,
       0.025008; 0.000000; 0.285039;,
       0.014638; 0.000000; 0.290555;,
       0.012315; 0.015949; 0.287705;,
       0.001195; 0.022512; 0.294486;,
       0.005204; 0.000008; 0.299884;,
       0.011032;-0.017074; 0.285766;,
       0.012315;-0.015949; 0.287705;,
       0.001195;-0.022496; 0.294486;,
      -0.000615;-0.024083; 0.291750;,
       0.022664; 0.000000; 0.282829;,
       0.017907;-0.017074; 0.278342;,
       0.011032;-0.017074; 0.285766;,
       0.012861; 0.000000; 0.287868;,
       0.017907;-0.017074; 0.278342;,
       0.019598;-0.015949; 0.279937;,
       0.012315;-0.015949; 0.287705;,
       0.011032;-0.017074; 0.285766;,
       0.025008; 0.000000; 0.285039;,
       0.019598; 0.015949; 0.279937;,
       0.012315; 0.015949; 0.287705;,
       0.014638; 0.000000; 0.290555;,
       0.019598;-0.015949; 0.279937;,
       0.025008; 0.000000; 0.285039;,
       0.014638; 0.000000; 0.290555;,
       0.012315;-0.015949; 0.287705;,
       0.002696; 0.000008; 0.296094;,
      -0.000615;-0.024083; 0.291750;,
      -0.010802;-0.024083; 0.298489;,
      -0.007491; 0.000008; 0.302832;,
       0.001195; 0.022512; 0.294486;,
      -0.000615; 0.023937; 0.291750;,
      -0.010802; 0.023937; 0.298489;,
      -0.008993; 0.022512; 0.301225;,
       0.012315;-0.015949; 0.287705;,
       0.014638; 0.000000; 0.290555;,
       0.005204; 0.000008; 0.299884;,
       0.001195;-0.022496; 0.294486;,
       0.011032; 0.016960; 0.285766;,
       0.012861; 0.000000; 0.287868;,
       0.002696; 0.000008; 0.296094;,
      -0.000615; 0.023937; 0.291750;,
       0.012315; 0.015949; 0.287705;,
       0.011032; 0.016960; 0.285766;,
      -0.000615; 0.023937; 0.291750;,
       0.001195; 0.022512; 0.294486;,
       0.012861; 0.000000; 0.287868;,
       0.011032;-0.017074; 0.285766;,
      -0.000615;-0.024083; 0.291750;,
       0.002696; 0.000008; 0.296094;,
      -0.008993;-0.022496; 0.301225;,
      -0.004983; 0.000008; 0.306623;,
      -0.011437; 0.000001; 0.308218;,
      -0.013987;-0.016828; 0.305027;,
      -0.004983; 0.000008; 0.306623;,
      -0.008993; 0.022512; 0.301225;,
      -0.013987; 0.016830; 0.305027;,
      -0.011437; 0.000001; 0.308218;,
      -0.000615;-0.024083; 0.291750;,
       0.001195;-0.022496; 0.294486;,
      -0.008993;-0.022496; 0.301225;,
      -0.010802;-0.024083; 0.298489;,
       0.005204; 0.000008; 0.299884;,
       0.001195; 0.022512; 0.294486;,
      -0.008993; 0.022512; 0.301225;,
      -0.004983; 0.000008; 0.306623;,
       0.001195;-0.022496; 0.294486;,
       0.005204; 0.000008; 0.299884;,
      -0.004983; 0.000008; 0.306623;,
      -0.008993;-0.022496; 0.301225;,
      -0.000615; 0.023937; 0.291750;,
       0.002696; 0.000008; 0.296094;,
      -0.007491; 0.000008; 0.302832;,
      -0.010802; 0.023937; 0.298489;,
      -0.013312; 0.000001; 0.305383;,
      -0.015340;-0.018015; 0.302981;,
      -0.017119;-0.011068; 0.305863;,
      -0.019913;-0.000007; 0.307449;,
      -0.013987; 0.016830; 0.305027;,
      -0.015340; 0.017896; 0.302981;,
      -0.017119; 0.010980; 0.305863;,
      -0.016288; 0.010326; 0.307119;,
      -0.010802; 0.023937; 0.298489;,
      -0.007491; 0.000008; 0.302832;,
      -0.013312; 0.000001; 0.305383;,
      -0.015340; 0.017896; 0.302981;,
      -0.008993; 0.022512; 0.301225;,
      -0.010802; 0.023937; 0.298489;,
      -0.015340; 0.017896; 0.302981;,
      -0.013987; 0.016830; 0.305027;,
      -0.007491; 0.000008; 0.302832;,
      -0.010802;-0.024083; 0.298489;,
      -0.015340;-0.018015; 0.302981;,
      -0.013312; 0.000001; 0.305383;,
      -0.010802;-0.024083; 0.298489;,
      -0.008993;-0.022496; 0.301225;,
      -0.013987;-0.016828; 0.305027;,
      -0.015340;-0.018015; 0.302981;,
      -0.016288; 0.010326; 0.307119;,
      -0.017119; 0.010980; 0.305863;,
      -0.019913;-0.000007; 0.307449;,
      -0.018761;-0.000007; 0.309190;,
      -0.018761;-0.000007; 0.309190;,
      -0.019913;-0.000007; 0.307449;,
      -0.017119;-0.011068; 0.305863;,
      -0.016288;-0.010339; 0.307119;,
      -0.015340;-0.018015; 0.302981;,
      -0.013987;-0.016828; 0.305027;,
      -0.016288;-0.010339; 0.307119;,
      -0.017119;-0.011068; 0.305863;,
      -0.011437; 0.000001; 0.308218;,
      -0.013987; 0.016830; 0.305027;,
      -0.016288; 0.010326; 0.307119;,
      -0.018761;-0.000007; 0.309190;,
      -0.013987;-0.016828; 0.305027;,
      -0.011437; 0.000001; 0.308218;,
      -0.018761;-0.000007; 0.309190;,
      -0.016288;-0.010339; 0.307119;,
      -0.015340; 0.017896; 0.302981;,
      -0.013312; 0.000001; 0.305383;,
      -0.019913;-0.000007; 0.307449;,
      -0.017119; 0.010980; 0.305863;,
      -0.009098;-0.009098;-0.030703;,
      -0.009098;-0.009098; 0.296705;,
      -0.009098; 0.009098; 0.296705;,
      -0.009098; 0.009098;-0.030703;,
      -0.009098; 0.009098;-0.030703;,
      -0.009098; 0.009098; 0.296705;,
       0.009098; 0.009098; 0.296705;,
       0.009098; 0.009098;-0.030703;,
       0.009098; 0.009098;-0.030703;,
       0.009098; 0.009098; 0.296705;,
       0.009098;-0.009098; 0.296705;,
       0.009098;-0.009098;-0.030703;,
       0.009098;-0.009098;-0.030703;,
       0.009098;-0.009098; 0.296705;,
      -0.009098;-0.009098; 0.296705;,
      -0.009098;-0.009098;-0.030703;,
       0.009098; 0.009098;-0.030703;,
       0.009098;-0.009098;-0.030703;,
       0.004787;-0.004787;-0.042278;,
       0.004787; 0.004787;-0.042278;,
       0.009098; 0.009098; 0.296705;,
      -0.009098; 0.009098; 0.296705;,
      -0.005115; 0.005115; 0.323002;,
       0.005115; 0.005115; 0.323002;,
      -0.004787; 0.004787;-0.042278;,
       0.004787; 0.004787;-0.042278;,
       0.004787;-0.004787;-0.042278;,
      -0.004787;-0.004787;-0.042278;,
       0.009098;-0.009098;-0.030703;,
      -0.009098;-0.009098;-0.030703;,
      -0.004787;-0.004787;-0.042278;,
       0.004787;-0.004787;-0.042278;,
      -0.009098; 0.009098;-0.030703;,
       0.009098; 0.009098;-0.030703;,
       0.004787; 0.004787;-0.042278;,
      -0.004787; 0.004787;-0.042278;,
      -0.009098;-0.009098;-0.030703;,
      -0.009098; 0.009098;-0.030703;,
      -0.004787; 0.004787;-0.042278;,
      -0.004787;-0.004787;-0.042278;,
       0.005115; 0.005115; 0.323002;,
      -0.005115; 0.005115; 0.323002;,
      -0.005115;-0.005115; 0.323002;,
       0.005115;-0.005115; 0.323002;,
       0.009098;-0.009098; 0.296705;,
       0.009098; 0.009098; 0.296705;,
       0.005115; 0.005115; 0.323002;,
       0.005115;-0.005115; 0.323002;,
      -0.009098; 0.009098; 0.296705;,
      -0.009098;-0.009098; 0.296705;,
      -0.005115;-0.005115; 0.323002;,
      -0.005115; 0.005115; 0.323002;,
      -0.009098;-0.009098; 0.296705;,
       0.009098;-0.009098; 0.296705;,
       0.005115;-0.005115; 0.323002;,
      -0.005115;-0.005115; 0.323002;,
      -0.006329;-0.027578; 0.233383;,
      -0.006329;-0.026843; 0.220747;,
       0.006329;-0.021583; 0.220747;,
       0.006329;-0.022318; 0.233383;,
      -0.006329;-0.027578; 0.233383;,
      -0.024147;-0.012236; 0.239142;,
      -0.024147;-0.011500; 0.226506;,
      -0.006329;-0.026843; 0.220747;,
      -0.024147;-0.012236; 0.239142;,
      -0.026622; 0.004536; 0.235423;,
      -0.026622; 0.005272; 0.222786;,
      -0.024147;-0.011500; 0.226506;,
      -0.026622; 0.004536; 0.235423;,
      -0.012342; 0.024541; 0.245908;,
      -0.012342; 0.025277; 0.233272;,
      -0.026622; 0.005272; 0.222786;,
      -0.012342; 0.024541; 0.245908;,
       0.008747; 0.025069; 0.248987;,
       0.008747; 0.025805; 0.236351;,
      -0.012342; 0.025277; 0.233272;,
       0.008747; 0.025069; 0.248987;,
       0.023958; 0.011141; 0.245641;,
       0.023958; 0.011876; 0.233005;,
       0.008747; 0.025805; 0.236351;,
       0.023958; 0.011141; 0.245641;,
       0.029254;-0.004422; 0.248891;,
       0.029254;-0.003686; 0.236255;,
       0.023958; 0.011876; 0.233005;,
       0.029254;-0.004422; 0.248891;,
       0.016483;-0.024424; 0.252707;,
       0.016483;-0.023689; 0.240071;,
       0.029254;-0.003686; 0.236255;,
       0.016483;-0.024424; 0.252707;,
       0.006087;-0.024964; 0.249612;,
       0.006087;-0.024228; 0.236976;,
       0.016483;-0.023689; 0.240071;,
       0.006087;-0.024964; 0.249612;,
      -0.008013;-0.029646; 0.251233;,
      -0.008013;-0.028910; 0.238597;,
       0.006087;-0.024228; 0.236976;,
      -0.008013;-0.029646; 0.251233;,
      -0.018940;-0.021580; 0.256658;,
      -0.018940;-0.020844; 0.244021;,
      -0.008013;-0.028910; 0.238597;,
      -0.018940;-0.021580; 0.256658;,
      -0.029444; 0.002856; 0.257447;,
      -0.029444; 0.003592; 0.244810;,
      -0.018940;-0.020844; 0.244021;,
      -0.029444; 0.002856; 0.257447;,
      -0.019077; 0.019230; 0.259832;,
      -0.019077; 0.019966; 0.247195;,
      -0.029444; 0.003592; 0.244810;,
      -0.019077; 0.019230; 0.259832;,
      -0.003686; 0.027217; 0.267699;,
      -0.003686; 0.027952; 0.255062;,
      -0.019077; 0.019966; 0.247195;,
      -0.003686; 0.027217; 0.267699;,
       0.004014; 0.024091; 0.267467;,
       0.004014; 0.024827; 0.254830;,
      -0.003686; 0.027952; 0.255062;,
       0.004014; 0.024091; 0.267467;,
       0.020033; 0.014410; 0.270827;,
       0.020033; 0.015146; 0.258191;,
       0.004014; 0.024827; 0.254830;,
       0.020033; 0.014410; 0.270827;,
       0.027961;-0.000911; 0.272954;,
       0.027961;-0.000175; 0.260317;,
       0.020033; 0.015146; 0.258191;,
       0.027961;-0.000911; 0.272954;,
       0.017810;-0.020665; 0.278035;,
       0.017810;-0.019930; 0.265399;,
       0.027961;-0.000175; 0.260317;,
       0.017810;-0.020665; 0.278035;,
       0.005576;-0.026129; 0.280052;,
       0.005576;-0.025393; 0.267415;,
       0.017810;-0.019930; 0.265399;,
       0.005576;-0.026129; 0.280052;,
      -0.018841;-0.018166; 0.277773;,
      -0.018841;-0.017430; 0.265136;,
       0.005576;-0.025393; 0.267415;,
      -0.018841;-0.018166; 0.277773;,
      -0.023466;-0.011551; 0.270830;,
      -0.023466;-0.010815; 0.258194;,
      -0.018841;-0.017430; 0.265136;,
      -0.023466;-0.011551; 0.270830;,
      -0.027787; 0.001796; 0.274020;,
      -0.027787; 0.002532; 0.261383;,
      -0.023466;-0.010815; 0.258194;,
      -0.027787; 0.001796; 0.274020;,
      -0.018434; 0.013460; 0.276642;,
      -0.018434; 0.014195; 0.264006;,
      -0.027787; 0.002532; 0.261383;;
      103;
      4;3,2,1,0;,
      4;7,6,5,4;,
      4;11,10,9,8;,
      4;15,14,13,12;,
      4;19,18,17,16;,
      4;23,22,21,20;,
      4;27,26,25,24;,
      4;31,30,29,28;,
      4;35,34,33,32;,
      4;39,38,37,36;,
      4;43,42,41,40;,
      4;47,46,45,44;,
      4;51,50,49,48;,
      4;55,54,53,52;,
      4;59,58,57,56;,
      4;63,62,61,60;,
      4;67,66,65,64;,
      4;71,70,69,68;,
      4;75,74,73,72;,
      4;79,78,77,76;,
      4;83,82,81,80;,
      4;87,86,85,84;,
      4;91,90,89,88;,
      4;95,94,93,92;,
      4;99,98,97,96;,
      4;103,102,101,100;,
      4;107,106,105,104;,
      4;111,110,109,108;,
      4;115,114,113,112;,
      4;119,118,117,116;,
      4;123,122,121,120;,
      4;127,126,125,124;,
      4;131,130,129,128;,
      4;135,134,133,132;,
      4;139,138,137,136;,
      4;143,142,141,140;,
      4;147,146,145,144;,
      4;151,150,149,148;,
      4;155,154,153,152;,
      4;159,158,157,156;,
      4;163,162,161,160;,
      4;167,166,165,164;,
      4;171,170,169,168;,
      4;175,174,173,172;,
      4;179,178,177,176;,
      4;183,182,181,180;,
      4;187,186,185,184;,
      4;191,190,189,188;,
      4;195,194,193,192;,
      4;199,198,197,196;,
      4;203,202,201,200;,
      4;207,206,205,204;,
      4;211,210,209,208;,
      4;215,214,213,212;,
      4;219,218,217,216;,
      4;223,222,221,220;,
      4;227,226,225,224;,
      4;231,230,229,228;,
      4;235,234,233,232;,
      4;239,238,237,236;,
      4;243,242,241,240;,
      4;247,246,245,244;,
      4;251,250,249,248;,
      4;255,254,253,252;,
      4;259,258,257,256;,
      4;263,262,261,260;,
      4;267,266,265,264;,
      4;271,270,269,268;,
      4;275,274,273,272;,
      4;279,278,277,276;,
      4;283,282,281,280;,
      4;287,286,285,284;,
      4;291,290,289,288;,
      4;295,294,293,292;,
      4;299,298,297,296;,
      4;303,302,301,300;,
      4;307,306,305,304;,
      4;311,310,309,308;,
      4;315,314,313,312;,
      4;319,318,317,316;,
      4;323,322,321,320;,
      4;327,326,325,324;,
      4;331,330,329,328;,
      4;335,334,333,332;,
      4;339,338,337,336;,
      4;343,342,341,340;,
      4;347,346,345,344;,
      4;351,350,349,348;,
      4;355,354,353,352;,
      4;359,358,357,356;,
      4;363,362,361,360;,
      4;367,366,365,364;,
      4;371,370,369,368;,
      4;375,374,373,372;,
      4;379,378,377,376;,
      4;383,382,381,380;,
      4;387,386,385,384;,
      4;391,390,389,388;,
      4;395,394,393,392;,
      4;399,398,397,396;,
      4;403,402,401,400;,
      4;407,406,405,404;,
      4;411,410,409,408;;
      MeshNormals { // Cube_001 normals
        412;
        -0.756493;-0.000702; 0.653981;,
        -0.447188; 0.000000; 0.894406;,
        -0.399152;-0.718650; 0.569323;,
         0.136448;-0.777337; 0.614093;,
         0.307901;-0.636525;-0.707083;,
         0.136448;-0.777337; 0.614093;,
        -0.399152;-0.718650; 0.569323;,
        -0.399152;-0.718650;-0.569323;,
        -0.447188; 0.000000;-0.894406;,
        -0.447188; 0.000000; 0.894406;,
        -0.390728; 0.716758; 0.577532;,
        -0.390728; 0.716727;-0.577532;,
         0.000000; 0.000000;-1.000000;,
         0.782037; 0.000000;-0.623188;,
         0.547868;-0.540086;-0.638813;,
         0.307901;-0.636525;-0.707083;,
         0.782037; 0.000000;-0.623188;,
         0.997070; 0.000000; 0.076418;,
         0.743950;-0.665334;-0.062105;,
         0.547868;-0.540086;-0.638813;,
         0.281808; 0.648488;-0.707083;,
         0.095462; 0.787591; 0.608722;,
         0.728019; 0.683187;-0.056429;,
         0.538804; 0.553148;-0.635334;,
         0.538804; 0.553148;-0.635334;,
         0.728019; 0.683187;-0.056429;,
         0.997070; 0.000000; 0.076418;,
         0.782037; 0.000000;-0.623188;,
         0.281808; 0.648488;-0.707083;,
         0.538804; 0.553148;-0.635334;,
         0.782037; 0.000000;-0.623188;,
         0.000000; 0.000000;-1.000000;,
        -0.399152;-0.718650;-0.569323;,
        -0.399152;-0.718650; 0.569323;,
        -0.447188; 0.000000; 0.894406;,
        -0.447188; 0.000000;-0.894406;,
         0.095462; 0.787591; 0.608722;,
        -0.390728; 0.716758; 0.577532;,
        -0.447188; 0.000000; 0.894406;,
        -0.756493;-0.000702; 0.653981;,
         0.743950;-0.665334;-0.062105;,
         0.997070; 0.000000; 0.076418;,
         0.848689; 0.000000; 0.528886;,
         0.698660;-0.636097; 0.327433;,
        -0.390728; 0.716727;-0.577532;,
         0.281808; 0.648488;-0.707083;,
         0.000000; 0.000000;-1.000000;,
        -0.447188; 0.000000;-0.894406;,
        -0.390728; 0.716727;-0.577532;,
        -0.390728; 0.716758; 0.577532;,
         0.095462; 0.787591; 0.608722;,
         0.281808; 0.648488;-0.707083;,
        -0.447188; 0.000000;-0.894406;,
         0.000000; 0.000000;-1.000000;,
         0.307901;-0.636525;-0.707083;,
        -0.399152;-0.718650;-0.569323;,
         0.547868;-0.540086;-0.638813;,
         0.743950;-0.665334;-0.062105;,
         0.136448;-0.777337; 0.614093;,
         0.307901;-0.636525;-0.707083;,
        -0.756493;-0.000702; 0.653981;,
         0.136448;-0.777337; 0.614093;,
        -0.282907;-0.794671;-0.537065;,
        -0.891171;-0.000916;-0.453627;,
         0.000000; 0.000000; 1.000000;,
        -0.307901;-0.636525; 0.707083;,
        -0.399152;-0.718650; 0.569323;,
        -0.447188; 0.000000; 0.894406;,
        -0.307901;-0.636525;-0.707083;,
        -0.399152;-0.718650;-0.569323;,
        -0.399152;-0.718650; 0.569323;,
        -0.307901;-0.636525; 0.707083;,
         0.000000; 0.000000;-1.000000;,
        -0.307901;-0.636525;-0.707083;,
        -0.547868;-0.540086;-0.638813;,
        -0.782037; 0.000000;-0.623218;,
        -0.782037; 0.000000;-0.623218;,
        -0.547868;-0.540086;-0.638813;,
        -0.547868;-0.540086; 0.638813;,
        -0.782037; 0.000000; 0.623218;,
        -0.281808; 0.648488;-0.707083;,
        -0.538804; 0.553148;-0.635334;,
        -0.538804; 0.553178; 0.635334;,
        -0.281808; 0.648488; 0.707083;,
        -0.538804; 0.553148;-0.635334;,
        -0.782037; 0.000000;-0.623218;,
        -0.782037; 0.000000; 0.623218;,
        -0.538804; 0.553178; 0.635334;,
        -0.281808; 0.648488;-0.707083;,
         0.000000; 0.000000;-1.000000;,
        -0.782037; 0.000000;-0.623218;,
        -0.538804; 0.553148;-0.635334;,
        -0.281808; 0.648488; 0.707083;,
         0.000000; 0.000000; 1.000000;,
        -0.447188; 0.000000; 0.894406;,
        -0.390728; 0.716758; 0.577532;,
        -0.538804; 0.553178; 0.635334;,
        -0.782037; 0.000000; 0.623218;,
         0.000000; 0.000000; 1.000000;,
        -0.281808; 0.648488; 0.707083;,
        -0.390728; 0.716727;-0.577532;,
        -0.447188; 0.000000;-0.894406;,
         0.000000; 0.000000;-1.000000;,
        -0.281808; 0.648488;-0.707083;,
        -0.390728; 0.716727;-0.577532;,
        -0.281808; 0.648488;-0.707083;,
        -0.281808; 0.648488; 0.707083;,
        -0.390728; 0.716758; 0.577532;,
        -0.447188; 0.000000;-0.894406;,
        -0.399152;-0.718650;-0.569323;,
        -0.307901;-0.636525;-0.707083;,
         0.000000; 0.000000;-1.000000;,
        -0.547868;-0.540086;-0.638813;,
        -0.307901;-0.636525;-0.707083;,
        -0.307901;-0.636525; 0.707083;,
        -0.547868;-0.540086; 0.638813;,
        -0.782037; 0.000000; 0.623218;,
        -0.547868;-0.540086; 0.638813;,
        -0.307901;-0.636525; 0.707083;,
         0.000000; 0.000000; 1.000000;,
         0.688070; 0.648061; 0.326395;,
        -0.309397; 0.801202;-0.512162;,
        -0.180639; 0.711936;-0.678579;,
         0.585498; 0.596484; 0.548967;,
        -0.309397; 0.801202;-0.512162;,
        -0.891171;-0.000916;-0.453627;,
        -0.594440;-0.000702;-0.804102;,
        -0.180639; 0.711936;-0.678579;,
         0.728019; 0.683187;-0.056429;,
         0.095462; 0.787591; 0.608722;,
        -0.309397; 0.801202;-0.512162;,
         0.688070; 0.648061; 0.326395;,
         0.136448;-0.777337; 0.614093;,
         0.743950;-0.665334;-0.062105;,
         0.698660;-0.636097; 0.327433;,
        -0.282907;-0.794671;-0.537065;,
         0.095462; 0.787591; 0.608722;,
        -0.756493;-0.000702; 0.653981;,
        -0.891171;-0.000916;-0.453627;,
        -0.309397; 0.801202;-0.512162;,
         0.997070; 0.000000; 0.076418;,
         0.728019; 0.683187;-0.056429;,
         0.688070; 0.648061; 0.326395;,
         0.848689; 0.000000; 0.528886;,
         0.635731;-0.000031; 0.771905;,
         0.585498; 0.596484; 0.548967;,
         0.530473; 0.681356; 0.504318;,
         0.611652; 0.000031; 0.791101;,
        -0.162420;-0.725120;-0.669179;,
         0.589099;-0.583636; 0.558824;,
         0.535508;-0.666555; 0.518540;,
        -0.157994;-0.794061;-0.586901;,
        -0.891171;-0.000916;-0.453627;,
        -0.282907;-0.794671;-0.537065;,
        -0.162420;-0.725120;-0.669179;,
        -0.594440;-0.000702;-0.804102;,
        -0.282907;-0.794671;-0.537065;,
         0.698660;-0.636097; 0.327433;,
         0.589099;-0.583636; 0.558824;,
        -0.162420;-0.725120;-0.669179;,
         0.848689; 0.000000; 0.528886;,
         0.688070; 0.648061; 0.326395;,
         0.585498; 0.596484; 0.548967;,
         0.635731;-0.000031; 0.771905;,
         0.698660;-0.636097; 0.327433;,
         0.848689; 0.000000; 0.528886;,
         0.635731;-0.000031; 0.771905;,
         0.589099;-0.583636; 0.558824;,
        -0.571215;-0.000702;-0.820765;,
        -0.157994;-0.794061;-0.586901;,
        -0.548112;-0.777062;-0.309275;,
        -0.516373;-0.000732;-0.856349;,
         0.530473; 0.681356; 0.504318;,
        -0.167333; 0.782708;-0.599414;,
        -0.556108; 0.766167;-0.322001;,
         0.150304; 0.674001; 0.723258;,
         0.589099;-0.583636; 0.558824;,
         0.635731;-0.000031; 0.771905;,
         0.611652; 0.000031; 0.791101;,
         0.535508;-0.666555; 0.518540;,
        -0.180639; 0.711936;-0.678579;,
        -0.594440;-0.000702;-0.804102;,
        -0.571215;-0.000702;-0.820765;,
        -0.167333; 0.782708;-0.599414;,
         0.585498; 0.596484; 0.548967;,
        -0.180639; 0.711936;-0.678579;,
        -0.167333; 0.782708;-0.599414;,
         0.530473; 0.681356; 0.504318;,
        -0.594440;-0.000702;-0.804102;,
        -0.162420;-0.725120;-0.669179;,
        -0.157994;-0.794061;-0.586901;,
        -0.571215;-0.000702;-0.820765;,
         0.162175;-0.660360; 0.733207;,
         0.442854; 0.000061; 0.896573;,
         0.255837; 0.000000; 0.966704;,
        -0.163335;-0.452773; 0.876522;,
         0.442854; 0.000061; 0.896573;,
         0.150304; 0.674001; 0.723258;,
        -0.174352; 0.458327; 0.871487;,
         0.255837; 0.000000; 0.966704;,
        -0.157994;-0.794061;-0.586901;,
         0.535508;-0.666555; 0.518540;,
         0.162175;-0.660360; 0.733207;,
        -0.548112;-0.777062;-0.309275;,
         0.611652; 0.000031; 0.791101;,
         0.530473; 0.681356; 0.504318;,
         0.150304; 0.674001; 0.723258;,
         0.442854; 0.000061; 0.896573;,
         0.535508;-0.666555; 0.518540;,
         0.611652; 0.000031; 0.791101;,
         0.442854; 0.000061; 0.896573;,
         0.162175;-0.660360; 0.733207;,
        -0.167333; 0.782708;-0.599414;,
        -0.571215;-0.000702;-0.820765;,
        -0.516373;-0.000732;-0.856349;,
        -0.556108; 0.766167;-0.322001;,
        -0.459120;-0.000488;-0.888363;,
        -0.872555;-0.459365;-0.166082;,
        -0.956175;-0.258736;-0.136814;,
        -0.988708; 0.000244;-0.149724;,
        -0.174352; 0.458327; 0.871487;,
        -0.875393; 0.449202;-0.178442;,
        -0.956175; 0.253975;-0.145482;,
        -0.321909; 0.305826; 0.895993;,
        -0.556108; 0.766167;-0.322001;,
        -0.516373;-0.000732;-0.856349;,
        -0.459120;-0.000488;-0.888363;,
        -0.875393; 0.449202;-0.178442;,
         0.150304; 0.674001; 0.723258;,
        -0.556108; 0.766167;-0.322001;,
        -0.875393; 0.449202;-0.178442;,
        -0.174352; 0.458327; 0.871487;,
        -0.516373;-0.000732;-0.856349;,
        -0.548112;-0.777062;-0.309275;,
        -0.872555;-0.459365;-0.166082;,
        -0.459120;-0.000488;-0.888363;,
        -0.548112;-0.777062;-0.309275;,
         0.162175;-0.660360; 0.733207;,
        -0.163335;-0.452773; 0.876522;,
        -0.872555;-0.459365;-0.166082;,
        -0.321909; 0.305826; 0.895993;,
        -0.956175; 0.253975;-0.145482;,
        -0.988708; 0.000244;-0.149724;,
        -0.400555; 0.000214; 0.916257;,
        -0.400555; 0.000214; 0.916257;,
        -0.988708; 0.000244;-0.149724;,
        -0.956175;-0.258736;-0.136814;,
        -0.317576;-0.303873; 0.898190;,
        -0.872555;-0.459365;-0.166082;,
        -0.163335;-0.452773; 0.876522;,
        -0.317576;-0.303873; 0.898190;,
        -0.956175;-0.258736;-0.136814;,
         0.255837; 0.000000; 0.966704;,
        -0.174352; 0.458327; 0.871487;,
        -0.321909; 0.305826; 0.895993;,
        -0.400555; 0.000214; 0.916257;,
        -0.163335;-0.452773; 0.876522;,
         0.255837; 0.000000; 0.966704;,
        -0.400555; 0.000214; 0.916257;,
        -0.317576;-0.303873; 0.898190;,
        -0.875393; 0.449202;-0.178442;,
        -0.459120;-0.000488;-0.888363;,
        -0.988708; 0.000244;-0.149724;,
        -0.956175; 0.253975;-0.145482;,
        -0.690085;-0.690085;-0.218024;,
        -0.703513;-0.703513; 0.100650;,
        -0.703513; 0.703513; 0.100650;,
        -0.690085; 0.690085;-0.218024;,
        -0.690085; 0.690085;-0.218024;,
        -0.703513; 0.703513; 0.100650;,
         0.703513; 0.703513; 0.100650;,
         0.690085; 0.690085;-0.218024;,
         0.690085; 0.690085;-0.218024;,
         0.703513; 0.703513; 0.100650;,
         0.703513;-0.703513; 0.100650;,
         0.690085;-0.690085;-0.218024;,
         0.690085;-0.690085;-0.218024;,
         0.703513;-0.703513; 0.100650;,
        -0.703513;-0.703513; 0.100650;,
        -0.690085;-0.690085;-0.218024;,
         0.690085; 0.690085;-0.218024;,
         0.690085;-0.690085;-0.218024;,
         0.464370;-0.464370;-0.754112;,
         0.464370; 0.464370;-0.754112;,
         0.703513; 0.703513; 0.100650;,
        -0.703513; 0.703513; 0.100650;,
        -0.534104; 0.534104; 0.655293;,
         0.534104; 0.534104; 0.655293;,
        -0.464370; 0.464370;-0.754112;,
         0.464370; 0.464370;-0.754112;,
         0.464370;-0.464370;-0.754112;,
        -0.464370;-0.464370;-0.754112;,
         0.690085;-0.690085;-0.218024;,
        -0.690085;-0.690085;-0.218024;,
        -0.464370;-0.464370;-0.754112;,
         0.464370;-0.464370;-0.754112;,
        -0.690085; 0.690085;-0.218024;,
         0.690085; 0.690085;-0.218024;,
         0.464370; 0.464370;-0.754112;,
        -0.464370; 0.464370;-0.754112;,
        -0.690085;-0.690085;-0.218024;,
        -0.690085; 0.690085;-0.218024;,
        -0.464370; 0.464370;-0.754112;,
        -0.464370;-0.464370;-0.754112;,
         0.534104; 0.534104; 0.655293;,
        -0.534104; 0.534104; 0.655293;,
        -0.534104;-0.534104; 0.655293;,
         0.534104;-0.534104; 0.655293;,
         0.703513;-0.703513; 0.100650;,
         0.703513; 0.703513; 0.100650;,
         0.534104; 0.534104; 0.655293;,
         0.534104;-0.534104; 0.655293;,
        -0.703513; 0.703513; 0.100650;,
        -0.703513;-0.703513; 0.100650;,
        -0.534104;-0.534104; 0.655293;,
        -0.534104; 0.534104; 0.655293;,
        -0.703513;-0.703513; 0.100650;,
         0.703513;-0.703513; 0.100650;,
         0.534104;-0.534104; 0.655293;,
        -0.534104;-0.534104; 0.655293;,
        -0.204321;-0.977233;-0.056887;,
        -0.116337;-0.991516;-0.057711;,
         0.383160;-0.922086;-0.053682;,
         0.383160;-0.922086;-0.053682;,
        -0.204321;-0.977233;-0.056887;,
        -0.873135;-0.486618;-0.028321;,
        -0.881314;-0.471694;-0.027436;,
        -0.116337;-0.991516;-0.057711;,
        -0.873135;-0.486618;-0.028321;,
        -0.971892; 0.234962; 0.013672;,
        -0.976745; 0.213935; 0.012452;,
        -0.881314;-0.471694;-0.027436;,
        -0.971892; 0.234962; 0.013672;,
        -0.401807; 0.914151; 0.053224;,
        -0.542467; 0.838649; 0.048830;,
        -0.976745; 0.213935; 0.012452;,
        -0.401807; 0.914151; 0.053224;,
         0.352397; 0.934263; 0.054384;,
         0.346995; 0.936247; 0.054506;,
        -0.542467; 0.838649; 0.048830;,
         0.352397; 0.934263; 0.054384;,
         0.842647; 0.537522; 0.031281;,
         0.831233; 0.554949; 0.032289;,
         0.346995; 0.936247; 0.054506;,
         0.842647; 0.537522; 0.031281;,
         0.981445;-0.191290;-0.011109;,
         0.998688;-0.050752;-0.002930;,
         0.831233; 0.554949; 0.032289;,
         0.981445;-0.191290;-0.011109;,
         0.520463;-0.852412;-0.049623;,
         0.498825;-0.865230;-0.050356;,
         0.998688;-0.050752;-0.002930;,
         0.520463;-0.852412;-0.049623;,
         0.184942;-0.981079;-0.057100;,
         0.197363;-0.978668;-0.056978;,
         0.498825;-0.865230;-0.050356;,
         0.184942;-0.981079;-0.057100;,
        -0.240974;-0.968871;-0.056398;,
        -0.084994;-0.994690;-0.057894;,
         0.197363;-0.978668;-0.056978;,
        -0.240974;-0.968871;-0.056398;,
        -0.807245;-0.589190;-0.034303;,
        -0.774071;-0.631977;-0.036775;,
        -0.084994;-0.994690;-0.057894;,
        -0.807245;-0.589190;-0.034303;,
        -0.996307; 0.085482; 0.004975;,
        -0.997589; 0.069002; 0.003998;,
        -0.774071;-0.631977;-0.036775;,
        -0.996307; 0.085482; 0.004975;,
        -0.659322; 0.750572; 0.043703;,
        -0.716483; 0.696402; 0.040529;,
        -0.997589; 0.069002; 0.003998;,
        -0.659322; 0.750572; 0.043703;,
         0.010743; 0.998230; 0.058107;,
        -0.109653; 0.992279; 0.057772;,
        -0.716483; 0.696402; 0.040529;,
         0.010743; 0.998230; 0.058107;,
         0.448073; 0.892453; 0.051943;,
         0.439528; 0.896695; 0.052187;,
        -0.109653; 0.992279; 0.057772;,
         0.448073; 0.892453; 0.051943;,
         0.748985; 0.661428; 0.038484;,
         0.701346; 0.711600; 0.041414;,
         0.439528; 0.896695; 0.052187;,
         0.748985; 0.661428; 0.038484;,
         0.997345;-0.072298;-0.004181;,
         0.997009; 0.077120; 0.004486;,
         0.701346; 0.711600; 0.041414;,
         0.997345;-0.072298;-0.004181;,
         0.642811;-0.764702;-0.044496;,
         0.716727;-0.696158;-0.040529;,
         0.997009; 0.077120; 0.004486;,
         0.642811;-0.764702;-0.044496;,
         0.041993;-0.997406;-0.058046;,
         0.058046;-0.996612;-0.058016;,
         0.716727;-0.696158;-0.040529;,
         0.041993;-0.997406;-0.058046;,
        -0.487472;-0.871639;-0.050752;,
        -0.638630;-0.768181;-0.044710;,
         0.058046;-0.996612;-0.058016;,
        -0.487472;-0.871639;-0.050752;,
        -0.877834;-0.478103;-0.027833;,
        -0.908628;-0.416852;-0.024262;,
        -0.638630;-0.768181;-0.044710;,
        -0.877834;-0.478103;-0.027833;,
        -0.973357; 0.228858; 0.013306;,
        -0.991455; 0.130161; 0.007569;,
        -0.908628;-0.416852;-0.024262;,
        -0.973357; 0.228858; 0.013306;,
        -0.783563; 0.620228; 0.036103;,
        -0.783563; 0.620228; 0.036103;,
        -0.991455; 0.130161; 0.007569;;
        103;
        4;3,2,1,0;,
        4;7,6,5,4;,
        4;11,10,9,8;,
        4;15,14,13,12;,
        4;19,18,17,16;,
        4;23,22,21,20;,
        4;27,26,25,24;,
        4;31,30,29,28;,
        4;35,34,33,32;,
        4;39,38,37,36;,
        4;43,42,41,40;,
        4;47,46,45,44;,
        4;51,50,49,48;,
        4;55,54,53,52;,
        4;59,58,57,56;,
        4;63,62,61,60;,
        4;67,66,65,64;,
        4;71,70,69,68;,
        4;75,74,73,72;,
        4;79,78,77,76;,
        4;83,82,81,80;,
        4;87,86,85,84;,
        4;91,90,89,88;,
        4;95,94,93,92;,
        4;99,98,97,96;,
        4;103,102,101,100;,
        4;107,106,105,104;,
        4;111,110,109,108;,
        4;115,114,113,112;,
        4;119,118,117,116;,
        4;123,122,121,120;,
        4;127,126,125,124;,
        4;131,130,129,128;,
        4;135,134,133,132;,
        4;139,138,137,136;,
        4;143,142,141,140;,
        4;147,146,145,144;,
        4;151,150,149,148;,
        4;155,154,153,152;,
        4;159,158,157,156;,
        4;163,162,161,160;,
        4;167,166,165,164;,
        4;171,170,169,168;,
        4;175,174,173,172;,
        4;179,178,177,176;,
        4;183,182,181,180;,
        4;187,186,185,184;,
        4;191,190,189,188;,
        4;195,194,193,192;,
        4;199,198,197,196;,
        4;203,202,201,200;,
        4;207,206,205,204;,
        4;211,210,209,208;,
        4;215,214,213,212;,
        4;219,218,217,216;,
        4;223,222,221,220;,
        4;227,226,225,224;,
        4;231,230,229,228;,
        4;235,234,233,232;,
        4;239,238,237,236;,
        4;243,242,241,240;,
        4;247,246,245,244;,
        4;251,250,249,248;,
        4;255,254,253,252;,
        4;259,258,257,256;,
        4;263,262,261,260;,
        4;267,266,265,264;,
        4;271,270,269,268;,
        4;275,274,273,272;,
        4;279,278,277,276;,
        4;283,282,281,280;,
        4;287,286,285,284;,
        4;291,290,289,288;,
        4;295,294,293,292;,
        4;299,298,297,296;,
        4;303,302,301,300;,
        4;307,306,305,304;,
        4;311,310,309,308;,
        4;315,314,313,312;,
        4;319,318,317,316;,
        4;323,322,321,320;,
        4;327,326,325,324;,
        4;331,330,329,328;,
        4;335,334,333,332;,
        4;339,338,337,336;,
        4;343,342,341,340;,
        4;347,346,345,344;,
        4;351,350,349,348;,
        4;355,354,353,352;,
        4;359,358,357,356;,
        4;363,362,361,360;,
        4;367,366,365,364;,
        4;371,370,369,368;,
        4;375,374,373,372;,
        4;379,378,377,376;,
        4;383,382,381,380;,
        4;387,386,385,384;,
        4;391,390,389,388;,
        4;395,394,393,392;,
        4;399,398,397,396;,
        4;403,402,401,400;,
        4;407,406,405,404;,
        4;411,410,409,408;;
      } // End of Cube_001 normals
      MeshTextureCoords { // Cube_001 UV coordinates
        412;
         0.608005; 0.555783;,
         0.566447; 0.497683;,
         0.469760; 0.526825;,
         0.531127; 0.559297;,
         0.622472; 0.999528;,
         0.621174; 0.816175;,
         0.546351; 0.816646;,
         0.547649; 1.000000;,
         0.572328; 0.742679;,
         0.572328; 0.559322;,
         0.469760; 0.559345;,
         0.469760; 0.742702;,
         0.734599; 0.619174;,
         0.728966; 0.611249;,
         0.680893; 0.647837;,
         0.680652; 0.654846;,
         0.374218; 0.742217;,
         0.374190; 0.558848;,
         0.306269; 0.558706;,
         0.306297; 0.742075;,
         0.459671; 0.743293;,
         0.458370; 0.926425;,
         0.468459; 0.926573;,
         0.469760; 0.743441;,
         0.440797; 0.742052;,
         0.440769; 0.558683;,
         0.374190; 0.558848;,
         0.374218; 0.742217;,
         0.810982; 0.615809;,
         0.803047; 0.611249;,
         0.728966; 0.611249;,
         0.734599; 0.619174;,
         0.678894; 0.742654;,
         0.678894; 0.559297;,
         0.572328; 0.559322;,
         0.572328; 0.742679;,
         0.661313; 0.520059;,
         0.659507; 0.469635;,
         0.566447; 0.497683;,
         0.608005; 0.555783;,
         0.306269; 0.558706;,
         0.374190; 0.558848;,
         0.374033; 0.539806;,
         0.306297; 0.553673;,
         0.868850; 0.649072;,
         0.810982; 0.615809;,
         0.734599; 0.619174;,
         0.775688; 0.676976;,
         0.386087; 0.742217;,
         0.384786; 0.925349;,
         0.458370; 0.926425;,
         0.459671; 0.743293;,
         0.775688; 0.676976;,
         0.734599; 0.619174;,
         0.680652; 0.654846;,
         0.678894; 0.705967;,
         0.632731; 0.999464;,
         0.631433; 0.816110;,
         0.621174; 0.816175;,
         0.622472; 0.999528;,
         0.460802; 0.597061;,
         0.460041; 0.550794;,
         0.459060; 0.550731;,
         0.440797; 0.597184;,
         0.524889; 0.439582;,
         0.471145; 0.475439;,
         0.469760; 0.526825;,
         0.566447; 0.497683;,
         0.480293; 0.999808;,
         0.547649; 1.000000;,
         0.546351; 0.816646;,
         0.478995; 0.816455;,
         0.816776; 0.734777;,
         0.739956; 0.738273;,
         0.748328; 0.742702;,
         0.822410; 0.742702;,
         0.745333; 0.610951;,
         0.813381; 0.611218;,
         0.813381; 0.427861;,
         0.745333; 0.427594;,
         0.317038; 0.743214;,
         0.307571; 0.743351;,
         0.306269; 0.926483;,
         0.315736; 0.926346;,
         0.678894; 0.611249;,
         0.745333; 0.610951;,
         0.745333; 0.427594;,
         0.678894; 0.427892;,
         0.870286; 0.699236;,
         0.816776; 0.734777;,
         0.822410; 0.742702;,
         0.870483; 0.706114;,
         0.601331; 0.436200;,
         0.524889; 0.439582;,
         0.566447; 0.497683;,
         0.659507; 0.469635;,
         0.593354; 0.431616;,
         0.519191; 0.431616;,
         0.524889; 0.439582;,
         0.601331; 0.436200;,
         0.868850; 0.649072;,
         0.775688; 0.676976;,
         0.816776; 0.734777;,
         0.870286; 0.699236;,
         0.386087; 0.742217;,
         0.317038; 0.743214;,
         0.315736; 0.926346;,
         0.384786; 0.925349;,
         0.775688; 0.676976;,
         0.678894; 0.705967;,
         0.739956; 0.738273;,
         0.816776; 0.734777;,
         0.471058; 0.999782;,
         0.480293; 0.999808;,
         0.478995; 0.816455;,
         0.469760; 0.816428;,
         0.519191; 0.431616;,
         0.471334; 0.468393;,
         0.471145; 0.475439;,
         0.524889; 0.439582;,
         0.469760; 0.931607;,
         0.462367; 0.927100;,
         0.433307; 0.947381;,
         0.438975; 0.952827;,
         0.820014; 0.961455;,
         0.820014; 0.913707;,
         0.777264; 0.920358;,
         0.787751; 0.966473;,
         0.468459; 0.926573;,
         0.458370; 0.926425;,
         0.462367; 0.927100;,
         0.469760; 0.931607;,
         0.621174; 0.816175;,
         0.631433; 0.816110;,
         0.632731; 0.811068;,
         0.625159; 0.815494;,
         0.460802; 0.643936;,
         0.460802; 0.597061;,
         0.440797; 0.597184;,
         0.459821; 0.643872;,
         0.374190; 0.558848;,
         0.440769; 0.558683;,
         0.440797; 0.553650;,
         0.374033; 0.539806;,
         0.956377; 0.532611;,
         0.928239; 0.492553;,
         0.872975; 0.484830;,
         0.915110; 0.540863;,
         0.596191; 0.795229;,
         0.602043; 0.789865;,
         0.552308; 0.771659;,
         0.544051; 0.779227;,
         0.820014; 0.913707;,
         0.786551; 0.870849;,
         0.754287; 0.875867;,
         0.777264; 0.920358;,
         0.625159; 0.815494;,
         0.632731; 0.811068;,
         0.602043; 0.789865;,
         0.596191; 0.795229;,
         1.000000; 0.523864;,
         0.960296; 0.486125;,
         0.928239; 0.492553;,
         0.956377; 0.532611;,
         1.000000; 0.569564;,
         1.000000; 0.523864;,
         0.956377; 0.532611;,
         0.967943; 0.575992;,
         0.731184; 0.927548;,
         0.696606; 0.865110;,
         0.651298; 0.872159;,
         0.685876; 0.934597;,
         0.390051; 0.970418;,
         0.382054; 0.962734;,
         0.339073; 0.981135;,
         0.347070; 0.988819;,
         0.967943; 0.575992;,
         0.956377; 0.532611;,
         0.915110; 0.540863;,
         0.928995; 0.602559;,
         0.787751; 0.966473;,
         0.777264; 0.920358;,
         0.731184; 0.927548;,
         0.743821; 0.992951;,
         0.438975; 0.952827;,
         0.433307; 0.947381;,
         0.382054; 0.962734;,
         0.390051; 0.970418;,
         0.777264; 0.920358;,
         0.754287; 0.875867;,
         0.696606; 0.865110;,
         0.731184; 0.927548;,
         0.885658; 0.611249;,
         0.871773; 0.549552;,
         0.845301; 0.554880;,
         0.857177; 0.600719;,
         0.871773; 0.549552;,
         0.829638; 0.493520;,
         0.815284; 0.512677;,
         0.845301; 0.554880;,
         0.544051; 0.779227;,
         0.552308; 0.771659;,
         0.509465; 0.753296;,
         0.501208; 0.760864;,
         0.915110; 0.540863;,
         0.872975; 0.484830;,
         0.829638; 0.493520;,
         0.871773; 0.549552;,
         0.928995; 0.602559;,
         0.915110; 0.540863;,
         0.871773; 0.549552;,
         0.885658; 0.611249;,
         0.743821; 0.992951;,
         0.731184; 0.927548;,
         0.685876; 0.934597;,
         0.698514; 1.000000;,
         0.660742; 0.938489;,
         0.636209; 0.891589;,
         0.634125; 0.911470;,
         0.632731; 0.942826;,
         0.458634; 0.739203;,
         0.467182; 0.742217;,
         0.454923; 0.723411;,
         0.449675; 0.721560;,
         0.698514; 1.000000;,
         0.685876; 0.934597;,
         0.660742; 0.938489;,
         0.671518; 0.987193;,
         0.347070; 0.988819;,
         0.339073; 0.981135;,
         0.321758; 0.994253;,
         0.327738; 1.000000;,
         0.685876; 0.934597;,
         0.651298; 0.872159;,
         0.636209; 0.891589;,
         0.660742; 0.938489;,
         0.501208; 0.760864;,
         0.509465; 0.753296;,
         0.491032; 0.742702;,
         0.484857; 0.748362;,
         0.449675; 0.721560;,
         0.454923; 0.723411;,
         0.448070; 0.693537;,
         0.440797; 0.693455;,
         0.440797; 0.693455;,
         0.448070; 0.693537;,
         0.454924; 0.663071;,
         0.449675; 0.665005;,
         0.467182; 0.643936;,
         0.458634; 0.647087;,
         0.449675; 0.665005;,
         0.454924; 0.663071;,
         0.845301; 0.554880;,
         0.815284; 0.512677;,
         0.813381; 0.531696;,
         0.815563; 0.560864;,
         0.857177; 0.600719;,
         0.845301; 0.554880;,
         0.815563; 0.560864;,
         0.839102; 0.585750;,
         0.671518; 0.987193;,
         0.660742; 0.938489;,
         0.632731; 0.942826;,
         0.655803; 0.970167;,
         0.153440; 0.968135;,
         0.153440; 0.071877;,
         0.076724; 0.071895;,
         0.076724; 0.968153;,
         0.229976; 0.968811;,
         0.229976; 0.073642;,
         0.153440; 0.073828;,
         0.153440; 0.968997;,
         0.076724; 0.968393;,
         0.076724; 0.072074;,
         0.000000; 0.072082;,
         0.000000; 0.968401;,
         0.306269; 0.968499;,
         0.306269; 0.072247;,
         0.229976; 0.072170;,
         0.229976; 0.968422;,
         0.076724; 0.968393;,
         0.000000; 0.968401;,
         0.017787; 1.000000;,
         0.058159; 0.999996;,
         0.153440; 0.073828;,
         0.229976; 0.073642;,
         0.211992; 0.001225;,
         0.168965; 0.001330;,
         0.853347; 0.458618;,
         0.813382; 0.458618;,
         0.813381; 0.484830;,
         0.853346; 0.484830;,
         0.306269; 0.968499;,
         0.229976; 0.968422;,
         0.250014; 0.999959;,
         0.290158; 1.000000;,
         0.229976; 0.968811;,
         0.153440; 0.968997;,
         0.170241; 1.000000;,
         0.210514; 0.999902;,
         0.153440; 0.968135;,
         0.076724; 0.968153;,
         0.095365; 1.000000;,
         0.135732; 0.999991;,
         0.750430; 0.778914;,
         0.793396; 0.778914;,
         0.793396; 0.750909;,
         0.750430; 0.750909;,
         0.000000; 0.072082;,
         0.076724; 0.072074;,
         0.059569; 0.000000;,
         0.016436; 0.000005;,
         0.076724; 0.071895;,
         0.153440; 0.071877;,
         0.137077; 0.000044;,
         0.093949; 0.000054;,
         0.229976; 0.072170;,
         0.306269; 0.072247;,
         0.291382; 0.000087;,
         0.248491; 0.000043;,
         0.750430; 0.742836;,
         0.697184; 0.742908;,
         0.697184; 0.778914;,
         0.750430; 0.778843;,
         0.887887; 0.995830;,
         0.900946; 0.950358;,
         0.847953; 0.954528;,
         0.834895; 1.000000;,
         0.900946; 0.950358;,
         0.873007; 0.906813;,
         0.820014; 0.910982;,
         0.847953; 0.954528;,
         0.873007; 0.906813;,
         0.900946; 0.848919;,
         0.847953; 0.853088;,
         0.820014; 0.910982;,
         0.389396; 0.438005;,
         0.377545; 0.495541;,
         0.430924; 0.495132;,
         0.442776; 0.437596;,
         0.377545; 0.495541;,
         0.389396; 0.539806;,
         0.442776; 0.539397;,
         0.430924; 0.495132;,
         0.901484; 0.793212;,
         0.900946; 0.836399;,
         0.952604; 0.827665;,
         0.953142; 0.784477;,
         0.900946; 0.836399;,
         0.901484; 0.892916;,
         0.953142; 0.884181;,
         0.952604; 0.827665;,
         0.377545; 0.535612;,
         0.359569; 0.508320;,
         0.306717; 0.512515;,
         0.324693; 0.539806;,
         0.359569; 0.508320;,
         0.359121; 0.468327;,
         0.306269; 0.472521;,
         0.306717; 0.512515;,
         0.359121; 0.468327;,
         0.377545; 0.439403;,
         0.324693; 0.443598;,
         0.306269; 0.472521;,
         0.928006; 0.742038;,
         0.923853; 0.674430;,
         0.870483; 0.675094;,
         0.874636; 0.742702;,
         0.923853; 0.674430;,
         0.928006; 0.630004;,
         0.874635; 0.630669;,
         0.870483; 0.675094;,
         0.645861; 0.753172;,
         0.632731; 0.797566;,
         0.684054; 0.788033;,
         0.697184; 0.743639;,
         0.632731; 0.797566;,
         0.642178; 0.818330;,
         0.693501; 0.808798;,
         0.684054; 0.788033;,
         0.642178; 0.818330;,
         0.645861; 0.865110;,
         0.697184; 0.855578;,
         0.693501; 0.808798;,
         0.956858; 0.991061;,
         0.952522; 0.949302;,
         0.900946; 0.958240;,
         0.905282; 1.000000;,
         0.952522; 0.949302;,
         0.956858; 0.892916;,
         0.905282; 0.901855;,
         0.900946; 0.958240;,
         0.828523; 0.749904;,
         0.820014; 0.784791;,
         0.873259; 0.784736;,
         0.881768; 0.749849;,
         0.820014; 0.784791;,
         0.828523; 0.848919;,
         0.881768; 0.848863;,
         0.873259; 0.784736;,
         0.781181; 0.865110;,
         0.750565; 0.847807;,
         0.697184; 0.847807;,
         0.727801; 0.865110;,
         0.750565; 0.847807;,
         0.760928; 0.810522;,
         0.707548; 0.810522;,
         0.697184; 0.847807;,
         0.760928; 0.810522;,
         0.768606; 0.778914;,
         0.715225; 0.778914;,
         0.707548; 0.810522;;
      } // End of Cube_001 UV coordinates
      MeshMaterialList { // Cube_001 material list
        1;
        103;
        0,
        0,
        0,
        0,
        0,
        0,
        0,
        0,
        0,
        0,
        0,
        0,
        0,
        0,
        0,
        0,
        0,
        0,
        0,
        0,
        0,
        0,
        0,
        0,
        0,
        0,
        0,
        0,
        0,
        0,
        0,
        0,
        0,
        0,
        0,
        0,
        0,
        0,
        0,
        0,
        0,
        0,
        0,
        0,
        0,
        0,
        0,
        0,
        0,
        0,
        0,
        0,
        0,
        0,
        0,
        0,
        0,
        0,
        0,
        0,
        0,
        0,
        0,
        0,
        0,
        0,
        0,
        0,
        0,
        0,
        0,
        0,
        0,
        0,
        0,
        0,
        0,
        0,
        0,
        0,
        0,
        0,
        0,
        0,
        0,
        0,
        0,
        0,
        0,
        0,
        0,
        0,
        0,
        0,
        0,
        0,
        0,
        0,
        0,
        0,
        0,
        0,
        0;
        Material Material_004 {
           0.640000; 0.640000; 0.640000; 1.000000;;
           96.078431;
           0.500000; 0.500000; 0.500000;;
           0.000000; 0.000000; 0.000000;;
        }
      } // End of Cube_001 material list
    } // End of Cube_001 mesh
  } // End of Cube_001
} // End of Root
