xof 0303txt 0032

Frame Root {
  FrameTransformMatrix {
     1.000000, 0.000000, 0.000000, 0.000000,
     0.000000,-0.000000, 1.000000, 0.000000,
     0.000000, 1.000000, 0.000000, 0.000000,
     0.000000, 0.000000, 0.000000, 1.000000;;
  }
  Frame Cube_001 {
    FrameTransformMatrix {
       1.000000, 0.000000, 0.000000, 0.000000,
       0.000000, 1.000000, 0.000000, 0.000000,
       0.000000, 0.000000, 1.000000, 0.000000,
       0.000000, 0.000000, 0.000000, 1.000000;;
    }
    Mesh { // Cube_001 mesh
      608;
      -0.003560;-0.008534; 0.070462;,
      -0.003560; 0.026110; 0.090328;,
      -0.003560; 0.019433; 0.096994;,
      -0.003560;-0.015211; 0.077128;,
      -0.003560; 0.026110; 0.090328;,
       0.005875; 0.026110; 0.090328;,
       0.005875; 0.019433; 0.096994;,
      -0.003560; 0.019433; 0.096994;,
       0.005875; 0.026110; 0.090328;,
       0.005875;-0.008534; 0.070462;,
       0.005875;-0.015211; 0.077128;,
       0.005875; 0.019433; 0.096994;,
       0.005875;-0.008534; 0.070462;,
      -0.003560;-0.008534; 0.070462;,
      -0.003560;-0.015211; 0.077128;,
       0.005875;-0.015211; 0.077128;,
      -0.003560; 0.026110; 0.090328;,
      -0.003560;-0.008534; 0.070462;,
       0.005875;-0.008534; 0.070462;,
       0.005875; 0.026110; 0.090328;,
       0.005875; 0.019433; 0.096994;,
       0.005875;-0.015211; 0.077128;,
      -0.003560;-0.015211; 0.077128;,
      -0.003560; 0.019433; 0.096994;,
      -0.002513;-0.009517;-0.013875;,
      -0.002513; 0.017797;-0.013875;,
      -0.002513; 0.017797; 0.077459;,
      -0.002513;-0.009517; 0.077459;,
      -0.002513; 0.017797;-0.013875;,
       0.004586; 0.017797;-0.013875;,
       0.004586; 0.017797; 0.077459;,
      -0.002513; 0.017797; 0.077459;,
       0.004586; 0.017797;-0.013875;,
       0.004586;-0.009517;-0.013875;,
       0.004586;-0.009517; 0.077459;,
       0.004586; 0.017797; 0.077459;,
       0.004586;-0.009517;-0.013875;,
      -0.002513;-0.009517;-0.013875;,
      -0.002513;-0.009517; 0.077459;,
       0.004586;-0.009517; 0.077459;,
       0.004586; 0.017797;-0.013875;,
       0.004586; 0.017797;-0.025905;,
       0.004586;-0.003166;-0.025905;,
       0.004586;-0.009517;-0.013875;,
       0.004586; 0.017797; 0.077459;,
       0.004586; 0.040586; 0.077538;,
      -0.002513; 0.040586; 0.077538;,
      -0.002513; 0.017797; 0.077459;,
       0.004586; 0.017797; 0.089362;,
       0.004586;-0.009144; 0.089362;,
      -0.002513;-0.009144; 0.089362;,
      -0.002513; 0.017797; 0.089362;,
       0.004586;-0.009517; 0.077459;,
       0.004586;-0.009144; 0.089362;,
       0.004586; 0.017797; 0.089362;,
       0.004586; 0.017797; 0.077459;,
      -0.002513; 0.017797; 0.077459;,
      -0.002513; 0.017797; 0.089362;,
      -0.002513;-0.009144; 0.089362;,
      -0.002513;-0.009517; 0.077459;,
       0.004586;-0.009517; 0.077459;,
       0.004586;-0.029125; 0.077459;,
       0.004586;-0.029125; 0.090715;,
       0.004586;-0.009144; 0.089362;,
       0.004586; 0.040586; 0.090326;,
       0.004586; 0.045829; 0.090326;,
       0.004586; 0.045829; 0.077538;,
       0.004586; 0.040586; 0.077538;,
      -0.002513; 0.017797; 0.077459;,
      -0.002513; 0.040586; 0.077538;,
      -0.002513; 0.040586; 0.090326;,
      -0.002513; 0.017797; 0.089362;,
       0.004586; 0.017797; 0.089362;,
       0.004586; 0.040586; 0.090326;,
       0.004586; 0.040586; 0.077538;,
       0.004586; 0.017797; 0.077459;,
      -0.002513; 0.017797; 0.089362;,
      -0.002513; 0.040586; 0.090326;,
       0.004586; 0.040586; 0.090326;,
       0.004586; 0.017797; 0.089362;,
       0.004586;-0.029125; 0.090715;,
       0.004586;-0.034745; 0.090715;,
      -0.002513;-0.034745; 0.090715;,
      -0.002513;-0.029125; 0.090715;,
      -0.002513;-0.009144; 0.089362;,
      -0.002513;-0.029125; 0.090715;,
      -0.002513;-0.029125; 0.077459;,
      -0.002513;-0.009517; 0.077459;,
       0.004586;-0.009144; 0.089362;,
       0.004586;-0.029125; 0.090715;,
      -0.002513;-0.029125; 0.090715;,
      -0.002513;-0.009144; 0.089362;,
      -0.002513;-0.009517; 0.077459;,
      -0.002513;-0.029125; 0.077459;,
       0.004586;-0.029125; 0.077459;,
       0.004586;-0.009517; 0.077459;,
      -0.002513; 0.017797;-0.025905;,
      -0.002513;-0.003166;-0.025905;,
       0.004586;-0.003166;-0.025905;,
       0.004586; 0.017797;-0.025905;,
       0.004586;-0.003166;-0.025905;,
       0.004586;-0.015733;-0.030046;,
       0.004586;-0.015545;-0.013875;,
       0.004586;-0.009517;-0.013875;,
      -0.002513; 0.017797;-0.025905;,
      -0.002513; 0.028679;-0.029382;,
      -0.002513; 0.028679;-0.017352;,
      -0.002513; 0.017797;-0.013875;,
      -0.002513;-0.009517;-0.013875;,
      -0.002513;-0.003166;-0.025905;,
      -0.002513; 0.017797;-0.025905;,
      -0.002513; 0.017797;-0.013875;,
      -0.002513;-0.015545;-0.013875;,
      -0.002513;-0.023492;-0.018113;,
      -0.002513;-0.026769;-0.025905;,
      -0.002513;-0.015733;-0.030046;,
       0.004586;-0.009517;-0.013875;,
       0.004586;-0.015545;-0.013875;,
      -0.002513;-0.015545;-0.013875;,
      -0.002513;-0.009517;-0.013875;,
      -0.002513;-0.003166;-0.025905;,
      -0.002513;-0.015733;-0.030046;,
       0.004586;-0.015733;-0.030046;,
       0.004586;-0.003166;-0.025905;,
      -0.002513;-0.009517;-0.013875;,
      -0.002513;-0.015545;-0.013875;,
      -0.002513;-0.015733;-0.030046;,
      -0.002513;-0.003166;-0.025905;,
       0.004586; 0.028679;-0.017352;,
       0.004586; 0.036282;-0.021240;,
       0.004586; 0.038491;-0.027621;,
       0.004586; 0.028679;-0.029382;,
       0.004586; 0.017797;-0.013875;,
       0.004586; 0.028679;-0.017352;,
       0.004586; 0.028679;-0.029382;,
       0.004586; 0.017797;-0.025905;,
      -0.002513; 0.017797;-0.013875;,
      -0.002513; 0.028679;-0.017352;,
       0.004586; 0.028679;-0.017352;,
       0.004586; 0.017797;-0.013875;,
       0.004586; 0.017797;-0.025905;,
       0.004586; 0.028679;-0.029382;,
      -0.002513; 0.028679;-0.029382;,
      -0.002513; 0.017797;-0.025905;,
      -0.002513; 0.036282;-0.021240;,
      -0.002513; 0.038491;-0.027621;,
       0.004586; 0.038491;-0.027621;,
       0.004586; 0.036282;-0.021240;,
      -0.002513; 0.028679;-0.017352;,
      -0.002513; 0.036282;-0.021240;,
       0.004586; 0.036282;-0.021240;,
       0.004586; 0.028679;-0.017352;,
      -0.002513; 0.028679;-0.029382;,
      -0.002513; 0.038491;-0.027621;,
      -0.002513; 0.036282;-0.021240;,
      -0.002513; 0.028679;-0.017352;,
      -0.002513; 0.028679;-0.029382;,
      -0.002513; 0.028679;-0.038648;,
      -0.002513; 0.038491;-0.043163;,
      -0.002513; 0.038491;-0.027621;,
      -0.002513; 0.028679;-0.038648;,
      -0.001494; 0.026253;-0.047632;,
      -0.001494; 0.033246;-0.050850;,
      -0.002513; 0.038491;-0.043163;,
      -0.002513; 0.038491;-0.027621;,
      -0.002513; 0.038491;-0.043163;,
       0.004586; 0.038491;-0.043163;,
       0.004586; 0.038491;-0.027621;,
       0.004586; 0.028679;-0.029382;,
       0.004586; 0.028679;-0.038648;,
      -0.002513; 0.028679;-0.038648;,
      -0.002513; 0.028679;-0.029382;,
       0.004586; 0.038491;-0.027621;,
       0.004586; 0.038491;-0.043163;,
       0.004586; 0.028679;-0.038648;,
       0.004586; 0.028679;-0.029382;,
       0.004586;-0.023492;-0.018113;,
       0.004586;-0.026769;-0.025905;,
      -0.002513;-0.026769;-0.025905;,
      -0.002513;-0.023492;-0.018113;,
       0.004586;-0.015733;-0.030046;,
       0.004586;-0.018244;-0.042019;,
       0.004586;-0.029280;-0.042019;,
       0.004586;-0.026769;-0.025905;,
       0.004586;-0.015733;-0.030046;,
       0.004586;-0.026769;-0.025905;,
       0.004586;-0.023492;-0.018113;,
       0.004586;-0.015545;-0.013875;,
       0.004586;-0.015545;-0.013875;,
       0.004586;-0.023492;-0.018113;,
      -0.002513;-0.023492;-0.018113;,
      -0.002513;-0.015545;-0.013875;,
      -0.002513;-0.018244;-0.042019;,
      -0.002513;-0.016706;-0.050339;,
       0.004586;-0.016706;-0.050339;,
       0.004586;-0.018244;-0.042019;,
      -0.002513;-0.026769;-0.025905;,
      -0.002513;-0.029280;-0.042019;,
      -0.002513;-0.018244;-0.042019;,
      -0.002513;-0.015733;-0.030046;,
      -0.002513;-0.015733;-0.030046;,
      -0.002513;-0.018244;-0.042019;,
       0.004586;-0.018244;-0.042019;,
       0.004586;-0.015733;-0.030046;,
       0.004586;-0.026769;-0.025905;,
       0.004586;-0.029280;-0.042019;,
      -0.002513;-0.029280;-0.042019;,
      -0.002513;-0.026769;-0.025905;,
       0.003566; 0.026253;-0.047632;,
       0.003566; 0.033246;-0.050850;,
      -0.001494; 0.033246;-0.050850;,
      -0.001494; 0.026253;-0.047632;,
      -0.002513; 0.038491;-0.043163;,
      -0.001494; 0.033246;-0.050850;,
       0.003566; 0.033246;-0.050850;,
       0.004586; 0.038491;-0.043163;,
       0.004586; 0.038491;-0.043163;,
       0.003566; 0.033246;-0.050850;,
       0.003566; 0.026253;-0.047632;,
       0.004586; 0.028679;-0.038648;,
       0.004586; 0.028679;-0.038648;,
       0.003566; 0.026253;-0.047632;,
      -0.001494; 0.026253;-0.047632;,
      -0.002513; 0.028679;-0.038648;,
      -0.002513;-0.025469;-0.055034;,
      -0.001404;-0.019272;-0.063312;,
      -0.001404;-0.013246;-0.060083;,
      -0.002513;-0.016706;-0.050339;,
       0.004586;-0.018244;-0.042019;,
       0.004586;-0.016706;-0.050339;,
       0.004586;-0.025469;-0.055034;,
       0.004586;-0.029280;-0.042019;,
       0.004586;-0.029280;-0.042019;,
       0.004586;-0.025469;-0.055034;,
      -0.002513;-0.025469;-0.055034;,
      -0.002513;-0.029280;-0.042019;,
      -0.002513;-0.029280;-0.042019;,
      -0.002513;-0.025469;-0.055034;,
      -0.002513;-0.016706;-0.050339;,
      -0.002513;-0.018244;-0.042019;,
      -0.001404;-0.013246;-0.060083;,
      -0.001404;-0.019272;-0.063312;,
       0.003477;-0.019272;-0.063312;,
       0.003477;-0.013246;-0.060083;,
      -0.002513;-0.016706;-0.050339;,
      -0.001404;-0.013246;-0.060083;,
       0.003477;-0.013246;-0.060083;,
       0.004586;-0.016706;-0.050339;,
       0.004586;-0.016706;-0.050339;,
       0.003477;-0.013246;-0.060083;,
       0.003477;-0.019272;-0.063312;,
       0.004586;-0.025469;-0.055034;,
       0.004586;-0.025469;-0.055034;,
       0.003477;-0.019272;-0.063312;,
      -0.001404;-0.019272;-0.063312;,
      -0.002513;-0.025469;-0.055034;,
      -0.002513;-0.034745; 0.077459;,
      -0.002513;-0.034745; 0.090715;,
       0.004586;-0.034745; 0.090715;,
       0.004586;-0.034745; 0.077459;,
       0.004586;-0.029125; 0.077459;,
       0.004586;-0.034745; 0.077459;,
       0.004586;-0.034745; 0.090715;,
       0.004586;-0.029125; 0.090715;,
      -0.002513;-0.029125; 0.077459;,
      -0.002513;-0.034745; 0.077459;,
       0.004586;-0.034745; 0.077459;,
       0.004586;-0.029125; 0.077459;,
      -0.002513;-0.029125; 0.090715;,
      -0.002513;-0.034745; 0.090715;,
      -0.002513;-0.034745; 0.077459;,
      -0.002513;-0.029125; 0.077459;,
       0.004586; 0.045829; 0.077538;,
       0.004586; 0.045829; 0.090326;,
      -0.002513; 0.045829; 0.090326;,
      -0.002513; 0.045829; 0.077538;,
      -0.002513; 0.040586; 0.090326;,
      -0.002513; 0.045829; 0.090326;,
       0.004586; 0.045829; 0.090326;,
       0.004586; 0.040586; 0.090326;,
      -0.002513; 0.040586; 0.077538;,
      -0.002513; 0.045829; 0.077538;,
      -0.002513; 0.045829; 0.090326;,
      -0.002513; 0.040586; 0.090326;,
       0.004586; 0.040586; 0.077538;,
       0.004586; 0.045829; 0.077538;,
      -0.002513; 0.045829; 0.077538;,
      -0.002513; 0.040586; 0.077538;,
       0.000132;-0.008495; 0.088421;,
       0.000132; 0.017521; 0.088421;,
       0.000132; 0.017521; 0.262422;,
       0.000132;-0.008495; 0.262422;,
       0.000132; 0.017521; 0.088421;,
       0.002352; 0.017521; 0.088421;,
       0.002352; 0.017521; 0.262422;,
       0.000132; 0.017521; 0.262422;,
       0.002352; 0.017521; 0.088421;,
       0.002352;-0.008495; 0.088421;,
       0.002352;-0.008495; 0.262422;,
       0.002352; 0.017521; 0.262422;,
       0.002352;-0.008495; 0.088421;,
       0.000132;-0.008495; 0.088421;,
       0.000132;-0.008495; 0.262422;,
       0.002352;-0.008495; 0.262422;,
       0.000132; 0.017521; 0.088421;,
       0.000132;-0.008495; 0.088421;,
       0.002352;-0.008495; 0.088421;,
       0.002352; 0.017521; 0.088421;,
       0.002352; 0.017521; 0.262422;,
       0.002283; 0.016710; 0.270682;,
       0.000201; 0.016710; 0.270682;,
       0.000132; 0.017521; 0.262422;,
       0.002283;-0.007684; 0.270682;,
       0.002192;-0.006621; 0.277069;,
       0.002192; 0.015647; 0.277069;,
       0.002283; 0.016710; 0.270682;,
       0.002352;-0.008495; 0.262422;,
       0.002283;-0.007684; 0.270682;,
       0.002283; 0.016710; 0.270682;,
       0.002352; 0.017521; 0.262422;,
       0.000132; 0.017521; 0.262422;,
       0.000201; 0.016710; 0.270682;,
       0.000201;-0.007684; 0.270682;,
       0.000132;-0.008495; 0.262422;,
       0.000132;-0.008495; 0.262422;,
       0.000201;-0.007684; 0.270682;,
       0.002283;-0.007684; 0.270682;,
       0.002352;-0.008495; 0.262422;,
       0.000292;-0.006621; 0.277069;,
       0.000449;-0.004780; 0.282803;,
       0.002035;-0.004780; 0.282803;,
       0.002192;-0.006621; 0.277069;,
       0.000201; 0.016710; 0.270682;,
       0.000292; 0.015647; 0.277069;,
       0.000292;-0.006621; 0.277069;,
       0.000201;-0.007684; 0.270682;,
       0.000201;-0.007684; 0.270682;,
       0.000292;-0.006621; 0.277069;,
       0.002192;-0.006621; 0.277069;,
       0.002283;-0.007684; 0.270682;,
       0.002283; 0.016710; 0.270682;,
       0.002192; 0.015647; 0.277069;,
       0.000292; 0.015647; 0.277069;,
       0.000201; 0.016710; 0.270682;,
       0.002035; 0.013806; 0.282803;,
       0.001850; 0.011641; 0.287337;,
       0.000634; 0.011641; 0.287337;,
       0.000449; 0.013806; 0.282803;,
       0.002192; 0.015647; 0.277069;,
       0.002035; 0.013806; 0.282803;,
       0.000449; 0.013806; 0.282803;,
       0.000292; 0.015647; 0.277069;,
       0.002192;-0.006621; 0.277069;,
       0.002035;-0.004780; 0.282803;,
       0.002035; 0.013806; 0.282803;,
       0.002192; 0.015647; 0.277069;,
       0.000292; 0.015647; 0.277069;,
       0.000449; 0.013806; 0.282803;,
       0.000449;-0.004780; 0.282803;,
       0.000292;-0.006621; 0.277069;,
       0.001850;-0.002615; 0.287337;,
       0.001730;-0.001202; 0.290403;,
       0.001730; 0.010228; 0.290403;,
       0.001850; 0.011641; 0.287337;,
       0.002035;-0.004780; 0.282803;,
       0.001850;-0.002615; 0.287337;,
       0.001850; 0.011641; 0.287337;,
       0.002035; 0.013806; 0.282803;,
       0.000449; 0.013806; 0.282803;,
       0.000634; 0.011641; 0.287337;,
       0.000634;-0.002615; 0.287337;,
       0.000449;-0.004780; 0.282803;,
       0.000449;-0.004780; 0.282803;,
       0.000634;-0.002615; 0.287337;,
       0.001850;-0.002615; 0.287337;,
       0.002035;-0.004780; 0.282803;,
       0.000754;-0.001202; 0.290403;,
       0.000901; 0.000516; 0.292917;,
       0.001583; 0.000516; 0.292917;,
       0.001730;-0.001202; 0.290403;,
       0.000634; 0.011641; 0.287337;,
       0.000754; 0.010228; 0.290403;,
       0.000754;-0.001202; 0.290403;,
       0.000634;-0.002615; 0.287337;,
       0.000634;-0.002615; 0.287337;,
       0.000754;-0.001202; 0.290403;,
       0.001730;-0.001202; 0.290403;,
       0.001850;-0.002615; 0.287337;,
       0.001850; 0.011641; 0.287337;,
       0.001730; 0.010228; 0.290403;,
       0.000754; 0.010228; 0.290403;,
       0.000634; 0.011641; 0.287337;,
       0.001583; 0.000516; 0.292917;,
       0.001454; 0.002026; 0.295158;,
       0.001454; 0.007000; 0.295158;,
       0.001583; 0.008510; 0.292917;,
       0.001730; 0.010228; 0.290403;,
       0.001583; 0.008510; 0.292917;,
       0.000901; 0.008510; 0.292917;,
       0.000754; 0.010228; 0.290403;,
       0.001730;-0.001202; 0.290403;,
       0.001583; 0.000516; 0.292917;,
       0.001583; 0.008510; 0.292917;,
       0.001730; 0.010228; 0.290403;,
       0.000754; 0.010228; 0.290403;,
       0.000901; 0.008510; 0.292917;,
       0.000901; 0.000516; 0.292917;,
       0.000754;-0.001202; 0.290403;,
       0.001454; 0.002026; 0.295158;,
       0.001378; 0.002924; 0.296389;,
       0.001378; 0.006102; 0.296389;,
       0.001454; 0.007000; 0.295158;,
       0.000901; 0.008510; 0.292917;,
       0.001030; 0.007000; 0.295158;,
       0.001030; 0.002026; 0.295158;,
       0.000901; 0.000516; 0.292917;,
       0.000901; 0.000516; 0.292917;,
       0.001030; 0.002026; 0.295158;,
       0.001454; 0.002026; 0.295158;,
       0.001583; 0.000516; 0.292917;,
       0.001583; 0.008510; 0.292917;,
       0.001454; 0.007000; 0.295158;,
       0.001030; 0.007000; 0.295158;,
       0.000901; 0.008510; 0.292917;,
       0.001378; 0.006102; 0.296389;,
       0.001378; 0.002924; 0.296389;,
       0.001106; 0.002924; 0.296389;,
       0.001106; 0.006102; 0.296389;,
       0.001030; 0.007000; 0.295158;,
       0.001106; 0.006102; 0.296389;,
       0.001106; 0.002924; 0.296389;,
       0.001030; 0.002026; 0.295158;,
       0.001030; 0.002026; 0.295158;,
       0.001106; 0.002924; 0.296389;,
       0.001378; 0.002924; 0.296389;,
       0.001454; 0.002026; 0.295158;,
       0.001454; 0.007000; 0.295158;,
       0.001378; 0.006102; 0.296389;,
       0.001106; 0.006102; 0.296389;,
       0.001030; 0.007000; 0.295158;,
      -0.003560;-0.011713;-0.003276;,
      -0.003560; 0.019425;-0.003276;,
      -0.003560; 0.019425; 0.006159;,
      -0.003560;-0.011713; 0.006159;,
      -0.003560; 0.019425;-0.003276;,
       0.005875; 0.019425;-0.003276;,
       0.005875; 0.019425; 0.006159;,
      -0.003560; 0.019425; 0.006159;,
       0.005875; 0.019425;-0.003276;,
       0.005875;-0.011713;-0.003276;,
       0.005875;-0.011713; 0.006159;,
       0.005875; 0.019425; 0.006159;,
       0.005875;-0.011713;-0.003276;,
      -0.003560;-0.011713;-0.003276;,
      -0.003560;-0.011713; 0.006159;,
       0.005875;-0.011713; 0.006159;,
      -0.003560; 0.019425;-0.003276;,
      -0.003560;-0.011713;-0.003276;,
       0.005875;-0.011713;-0.003276;,
       0.005875; 0.019425;-0.003276;,
       0.005875; 0.019425; 0.006159;,
       0.005875;-0.011713; 0.006159;,
      -0.003560;-0.011713; 0.006159;,
      -0.003560; 0.019425; 0.006159;,
      -0.003560;-0.011713; 0.010801;,
      -0.003560; 0.019425; 0.010801;,
      -0.003560; 0.019425; 0.020236;,
      -0.003560;-0.011713; 0.020236;,
      -0.003560; 0.019425; 0.010801;,
       0.005875; 0.019425; 0.010801;,
       0.005875; 0.019425; 0.020236;,
      -0.003560; 0.019425; 0.020236;,
       0.005875; 0.019425; 0.010801;,
       0.005875;-0.011713; 0.010801;,
       0.005875;-0.011713; 0.020236;,
       0.005875; 0.019425; 0.020236;,
       0.005875;-0.011713; 0.010801;,
      -0.003560;-0.011713; 0.010801;,
      -0.003560;-0.011713; 0.020236;,
       0.005875;-0.011713; 0.020236;,
      -0.003560; 0.019425; 0.010801;,
      -0.003560;-0.011713; 0.010801;,
       0.005875;-0.011713; 0.010801;,
       0.005875; 0.019425; 0.010801;,
       0.005875; 0.019425; 0.020236;,
       0.005875;-0.011713; 0.020236;,
      -0.003560;-0.011713; 0.020236;,
      -0.003560; 0.019425; 0.020236;,
      -0.003560;-0.011713; 0.024838;,
      -0.003560; 0.019425; 0.024838;,
      -0.003560; 0.019425; 0.034273;,
      -0.003560;-0.011713; 0.034273;,
      -0.003560; 0.019425; 0.024838;,
       0.005875; 0.019425; 0.024838;,
       0.005875; 0.019425; 0.034273;,
      -0.003560; 0.019425; 0.034273;,
       0.005875; 0.019425; 0.024838;,
       0.005875;-0.011713; 0.024838;,
       0.005875;-0.011713; 0.034273;,
       0.005875; 0.019425; 0.034273;,
       0.005875;-0.011713; 0.024838;,
      -0.003560;-0.011713; 0.024838;,
      -0.003560;-0.011713; 0.034273;,
       0.005875;-0.011713; 0.034273;,
      -0.003560; 0.019425; 0.024838;,
      -0.003560;-0.011713; 0.024838;,
       0.005875;-0.011713; 0.024838;,
       0.005875; 0.019425; 0.024838;,
       0.005875; 0.019425; 0.034273;,
       0.005875;-0.011713; 0.034273;,
      -0.003560;-0.011713; 0.034273;,
      -0.003560; 0.019425; 0.034273;,
      -0.003560;-0.011713; 0.038416;,
      -0.003560; 0.019425; 0.038416;,
      -0.003560; 0.019425; 0.047850;,
      -0.003560;-0.011713; 0.047850;,
      -0.003560; 0.019425; 0.038416;,
       0.005875; 0.019425; 0.038416;,
       0.005875; 0.019425; 0.047850;,
      -0.003560; 0.019425; 0.047850;,
       0.005875; 0.019425; 0.038416;,
       0.005875;-0.011713; 0.038416;,
       0.005875;-0.011713; 0.047850;,
       0.005875; 0.019425; 0.047850;,
       0.005875;-0.011713; 0.038416;,
      -0.003560;-0.011713; 0.038416;,
      -0.003560;-0.011713; 0.047850;,
       0.005875;-0.011713; 0.047850;,
      -0.003560; 0.019425; 0.038416;,
      -0.003560;-0.011713; 0.038416;,
       0.005875;-0.011713; 0.038416;,
       0.005875; 0.019425; 0.038416;,
       0.005875; 0.019425; 0.047850;,
       0.005875;-0.011713; 0.047850;,
      -0.003560;-0.011713; 0.047850;,
      -0.003560; 0.019425; 0.047850;,
      -0.003560;-0.011353; 0.051958;,
      -0.003560; 0.019425; 0.051958;,
      -0.003560; 0.019425; 0.061393;,
      -0.003560;-0.011353; 0.061393;,
      -0.003560; 0.019425; 0.051958;,
       0.005875; 0.019425; 0.051958;,
       0.005875; 0.019425; 0.061393;,
      -0.003560; 0.019425; 0.061393;,
       0.005875; 0.019425; 0.051958;,
       0.005875;-0.011353; 0.051958;,
       0.005875;-0.011353; 0.061393;,
       0.005875; 0.019425; 0.061393;,
       0.005875;-0.011353; 0.051958;,
      -0.003560;-0.011353; 0.051958;,
      -0.003560;-0.011353; 0.061393;,
       0.005875;-0.011353; 0.061393;,
      -0.003560; 0.019425; 0.051958;,
      -0.003560;-0.011353; 0.051958;,
       0.005875;-0.011353; 0.051958;,
       0.005875; 0.019425; 0.051958;,
       0.005875; 0.019425; 0.061393;,
       0.005875;-0.011353; 0.061393;,
      -0.003560;-0.011353; 0.061393;,
      -0.003560; 0.019425; 0.061393;,
      -0.003560;-0.010809; 0.064602;,
      -0.003560; 0.019425; 0.064602;,
      -0.003560; 0.019425; 0.074037;,
      -0.003560;-0.010809; 0.074037;,
      -0.003560; 0.019425; 0.064602;,
       0.005875; 0.019425; 0.064602;,
       0.005875; 0.019425; 0.074037;,
      -0.003560; 0.019425; 0.074037;,
       0.005875; 0.019425; 0.064602;,
       0.005875;-0.010809; 0.064602;,
       0.005875;-0.010809; 0.074037;,
       0.005875; 0.019425; 0.074037;,
       0.005875;-0.010809; 0.064602;,
      -0.003560;-0.010809; 0.064602;,
      -0.003560;-0.010809; 0.074037;,
       0.005875;-0.010809; 0.074037;,
      -0.003560; 0.019425; 0.064602;,
      -0.003560;-0.010809; 0.064602;,
       0.005875;-0.010809; 0.064602;,
       0.005875; 0.019425; 0.064602;,
       0.005875; 0.019425; 0.074037;,
       0.005875;-0.010809; 0.074037;,
      -0.003560;-0.010809; 0.074037;,
      -0.003560; 0.019425; 0.074037;,
      -0.003560; 0.016493; 0.069738;,
      -0.003560; 0.023159; 0.076415;,
      -0.003560;-0.009192; 0.096994;,
      -0.003560;-0.015858; 0.090317;,
      -0.003560; 0.023159; 0.076415;,
       0.005875; 0.023159; 0.076415;,
       0.005875;-0.009192; 0.096994;,
      -0.003560;-0.009192; 0.096994;,
       0.005875; 0.023159; 0.076415;,
       0.005875; 0.016493; 0.069738;,
       0.005875;-0.015858; 0.090317;,
       0.005875;-0.009192; 0.096994;,
       0.005875; 0.016493; 0.069738;,
      -0.003560; 0.016493; 0.069738;,
      -0.003560;-0.015858; 0.090317;,
       0.005875;-0.015858; 0.090317;,
      -0.003560; 0.023159; 0.076415;,
      -0.003560; 0.016493; 0.069738;,
       0.005875; 0.016493; 0.069738;,
       0.005875; 0.023159; 0.076415;,
       0.005875;-0.009192; 0.096994;,
       0.005875;-0.015858; 0.090317;,
      -0.003560;-0.015858; 0.090317;,
      -0.003560;-0.009192; 0.096994;;
      152;
      4;3,2,1,0;,
      4;7,6,5,4;,
      4;11,10,9,8;,
      4;15,14,13,12;,
      4;19,18,17,16;,
      4;23,22,21,20;,
      4;27,26,25,24;,
      4;31,30,29,28;,
      4;35,34,33,32;,
      4;39,38,37,36;,
      4;43,42,41,40;,
      4;47,46,45,44;,
      4;51,50,49,48;,
      4;55,54,53,52;,
      4;59,58,57,56;,
      4;63,62,61,60;,
      4;67,66,65,64;,
      4;71,70,69,68;,
      4;75,74,73,72;,
      4;79,78,77,76;,
      4;83,82,81,80;,
      4;87,86,85,84;,
      4;91,90,89,88;,
      4;95,94,93,92;,
      4;99,98,97,96;,
      4;103,102,101,100;,
      4;107,106,105,104;,
      4;111,110,109,108;,
      4;115,114,113,112;,
      4;119,118,117,116;,
      4;123,122,121,120;,
      4;127,126,125,124;,
      4;131,130,129,128;,
      4;135,134,133,132;,
      4;139,138,137,136;,
      4;143,142,141,140;,
      4;147,146,145,144;,
      4;151,150,149,148;,
      4;155,154,153,152;,
      4;159,158,157,156;,
      4;163,162,161,160;,
      4;167,166,165,164;,
      4;171,170,169,168;,
      4;175,174,173,172;,
      4;179,178,177,176;,
      4;183,182,181,180;,
      4;187,186,185,184;,
      4;191,190,189,188;,
      4;195,194,193,192;,
      4;199,198,197,196;,
      4;203,202,201,200;,
      4;207,206,205,204;,
      4;211,210,209,208;,
      4;215,214,213,212;,
      4;219,218,217,216;,
      4;223,222,221,220;,
      4;227,226,225,224;,
      4;231,230,229,228;,
      4;235,234,233,232;,
      4;239,238,237,236;,
      4;243,242,241,240;,
      4;247,246,245,244;,
      4;251,250,249,248;,
      4;255,254,253,252;,
      4;259,258,257,256;,
      4;263,262,261,260;,
      4;267,266,265,264;,
      4;271,270,269,268;,
      4;275,274,273,272;,
      4;279,278,277,276;,
      4;283,282,281,280;,
      4;287,286,285,284;,
      4;291,290,289,288;,
      4;295,294,293,292;,
      4;299,298,297,296;,
      4;303,302,301,300;,
      4;307,306,305,304;,
      4;311,310,309,308;,
      4;315,314,313,312;,
      4;319,318,317,316;,
      4;323,322,321,320;,
      4;327,326,325,324;,
      4;331,330,329,328;,
      4;335,334,333,332;,
      4;339,338,337,336;,
      4;343,342,341,340;,
      4;347,346,345,344;,
      4;351,350,349,348;,
      4;355,354,353,352;,
      4;359,358,357,356;,
      4;363,362,361,360;,
      4;367,366,365,364;,
      4;371,370,369,368;,
      4;375,374,373,372;,
      4;379,378,377,376;,
      4;383,382,381,380;,
      4;387,386,385,384;,
      4;391,390,389,388;,
      4;395,394,393,392;,
      4;399,398,397,396;,
      4;403,402,401,400;,
      4;407,406,405,404;,
      4;411,410,409,408;,
      4;415,414,413,412;,
      4;419,418,417,416;,
      4;423,422,421,420;,
      4;427,426,425,424;,
      4;431,430,429,428;,
      4;435,434,433,432;,
      4;439,438,437,436;,
      4;443,442,441,440;,
      4;447,446,445,444;,
      4;451,450,449,448;,
      4;455,454,453,452;,
      4;459,458,457,456;,
      4;463,462,461,460;,
      4;467,466,465,464;,
      4;471,470,469,468;,
      4;475,474,473,472;,
      4;479,478,477,476;,
      4;483,482,481,480;,
      4;487,486,485,484;,
      4;491,490,489,488;,
      4;495,494,493,492;,
      4;499,498,497,496;,
      4;503,502,501,500;,
      4;507,506,505,504;,
      4;511,510,509,508;,
      4;515,514,513,512;,
      4;519,518,517,516;,
      4;523,522,521,520;,
      4;527,526,525,524;,
      4;531,530,529,528;,
      4;535,534,533,532;,
      4;539,538,537,536;,
      4;543,542,541,540;,
      4;547,546,545,544;,
      4;551,550,549,548;,
      4;555,554,553,552;,
      4;559,558,557,556;,
      4;563,562,561,560;,
      4;567,566,565,564;,
      4;571,570,569,568;,
      4;575,574,573,572;,
      4;579,578,577,576;,
      4;583,582,581,580;,
      4;587,586,585,584;,
      4;591,590,589,588;,
      4;595,594,593,592;,
      4;599,598,597,596;,
      4;603,602,601,600;,
      4;607,606,605,604;;
      MeshNormals { // Cube_001 normals
        152;
         1.000000;-0.000000; 0.000000;,
         0.000000;-0.706514;-0.707699;,
        -1.000000; 0.000000;-0.000000;,
         0.000000; 0.706513; 0.707700;,
         0.000000;-0.497455; 0.867490;,
         0.000000; 0.497455;-0.867490;,
         1.000000; 0.000000; 0.000000;,
         0.000000;-1.000000;-0.000000;,
        -1.000000; 0.000000;-0.000000;,
         0.000000; 1.000000; 0.000000;,
        -1.000000; 0.000000; 0.000000;,
         0.000000;-0.003459; 0.999994;,
         0.000000; 0.000000;-1.000000;,
        -1.000000;-0.000000; 0.000000;,
         1.000000;-0.000000; 0.000000;,
        -1.000000; 0.000000;-0.000000;,
        -1.000000; 0.000000; 0.000000;,
         1.000000; 0.000000; 0.000000;,
        -1.000000;-0.000000; 0.000000;,
         0.000000; 0.042279;-0.999106;,
         0.000000; 0.000000;-1.000000;,
         1.000000; 0.000000;-0.000000;,
         0.000000;-0.067573;-0.997714;,
         0.000000;-0.000000; 1.000000;,
         0.000000;-0.000000; 1.000000;,
        -1.000000; 0.000000;-0.000000;,
         1.000000; 0.000000; 0.000000;,
         1.000000; 0.000000; 0.000000;,
         1.000000; 0.000000;-0.000000;,
         0.000000; 0.000001;-1.000000;,
         0.000000;-0.313000; 0.949753;,
         1.000000; 0.000000;-0.000000;,
        -1.000000; 0.000000; 0.000000;,
        -1.000000;-0.000000; 0.000000;,
         0.000000;-0.304383;-0.952550;,
         0.000000; 0.304383; 0.952550;,
         0.000000;-0.944975;-0.327143;,
         0.000000;-0.455285;-0.890345;,
         1.000000; 0.000000; 0.000000;,
         1.000000; 0.000000; 0.000000;,
         0.993882; 0.046171; 0.100333;,
        -0.000000;-1.000000; 0.000000;,
        -0.000000; 1.000000; 0.000000;,
        -1.000000; 0.000000; 0.000000;,
         0.000000; 0.921800;-0.387666;,
        -1.000000; 0.000000; 0.000000;,
        -1.000000; 0.000000;-0.000000;,
         0.000000; 0.470601;-0.882346;,
         0.000000;-0.983342;-0.181766;,
         1.000000; 0.000000; 0.000000;,
         0.000000;-0.978704; 0.205276;,
         0.000000; 0.988074;-0.153978;,
         0.000000; 0.418036; 0.908431;,
         0.000000;-0.826020; 0.563641;,
        -0.993882; 0.046171; 0.100333;,
         0.000000; 0.965412;-0.260729;,
         0.994170;-0.050928; 0.095041;,
        -1.000000; 0.000000; 0.000000;,
         0.000000; 0.959706; 0.281005;,
         1.000000; 0.000000; 0.000000;,
         0.000000;-0.472319; 0.881428;,
         0.000000;-0.942360;-0.334601;,
        -0.994170;-0.050928; 0.095041;,
         0.000000; 0.800507; 0.599324;,
         0.000000; 1.000000;-0.000000;,
        -1.000000; 0.000000;-0.000000;,
         0.000000; 0.000001; 1.000000;,
         1.000000; 0.000000;-0.000000;,
         0.000000;-1.000000; 0.000000;,
        -0.000000; 0.000000;-1.000000;,
         1.000000; 0.000000; 0.000000;,
        -0.000000; 0.000000; 1.000000;,
         1.000000; 0.000000; 0.000000;,
         0.000000;-1.000000; 0.000000;,
        -1.000000; 0.000000;-0.000000;,
         0.000000; 1.000000;-0.000000;,
         0.000000;-0.000000; 1.000000;,
         0.000000;-0.995210;-0.097757;,
        -0.999899; 0.000000;-0.014202;,
        -0.999965; 0.000000;-0.008382;,
         0.999965; 0.000000;-0.008382;,
         0.000000; 0.995211;-0.097754;,
         0.000000; 0.952107;-0.305765;,
         0.999899; 0.000000;-0.014202;,
         0.000000; 0.986431;-0.164174;,
         0.000000;-0.986432;-0.164171;,
         0.000000;-0.902423;-0.430851;,
         0.000000;-0.952105;-0.305770;,
        -0.999625; 0.000000;-0.027397;,
         0.999625; 0.000000;-0.027397;,
        -0.999228; 0.000000;-0.039294;,
        -0.999171; 0.000000;-0.040711;,
         0.999171; 0.000000;-0.040711;,
         0.000000; 0.902421;-0.430855;,
         0.000000; 0.825587;-0.564275;,
         0.999228; 0.000000;-0.039294;,
         0.000000; 0.908220;-0.418492;,
         0.000000;-0.908220;-0.418494;,
        -0.998351; 0.000000;-0.057406;,
         0.000000;-0.825593;-0.564266;,
        -0.998303; 0.000000;-0.058230;,
         0.998303; 0.000000;-0.058230;,
        -0.998069; 0.000000;-0.062121;,
         0.998351; 0.000000;-0.057406;,
         0.000000; 0.829324;-0.558768;,
         0.000000;-0.829318;-0.558777;,
         0.000000; 0.000000;-1.000000;,
         0.998069; 0.000000;-0.062121;,
         0.000000; 0.807952;-0.589248;,
         0.000000;-0.807943;-0.589261;,
         1.000000; 0.000000; 0.000000;,
         0.000000;-1.000000;-0.000000;,
        -1.000000; 0.000000;-0.000000;,
         0.000000; 1.000000; 0.000000;,
         0.000000; 0.000000; 1.000000;,
         0.000000; 0.000000;-1.000000;,
         1.000000; 0.000000; 0.000000;,
         0.000000;-1.000000; 0.000001;,
        -1.000000; 0.000000;-0.000000;,
         0.000000; 1.000000;-0.000001;,
         0.000000; 0.000000; 1.000000;,
         0.000000; 0.000000;-1.000000;,
         1.000000; 0.000000; 0.000000;,
         0.000000;-1.000000; 0.000000;,
        -1.000000; 0.000000;-0.000000;,
         0.000000; 1.000000; 0.000000;,
         0.000000; 0.000000; 1.000000;,
         0.000000; 0.000000;-1.000000;,
         1.000000; 0.000000; 0.000000;,
         0.000000;-1.000000;-0.000000;,
        -1.000000; 0.000000;-0.000000;,
         0.000000; 1.000000; 0.000000;,
         0.000000; 0.000000; 1.000000;,
         0.000000;-0.000000;-1.000000;,
         1.000000; 0.000000; 0.000000;,
         0.000000;-1.000000;-0.000000;,
        -1.000000; 0.000000;-0.000000;,
         0.000000; 1.000000;-0.000000;,
         0.000000; 0.000000; 1.000000;,
         0.000000; 0.000000;-1.000000;,
         1.000000; 0.000000; 0.000000;,
         0.000000;-1.000000; 0.000001;,
        -1.000000; 0.000000;-0.000000;,
         0.000000; 1.000000;-0.000000;,
         0.000000;-0.000000; 1.000000;,
         0.000000;-0.000000;-1.000000;,
         1.000000; 0.000000; 0.000000;,
         0.000000;-0.536739;-0.843748;,
        -1.000000; 0.000000; 0.000000;,
         0.000000; 0.536739; 0.843748;,
         0.000000;-0.707699; 0.706514;,
         0.000000; 0.707699;-0.706514;;
        152;
        4;0,0,0,0;,
        4;1,1,1,1;,
        4;2,2,2,2;,
        4;3,3,3,3;,
        4;4,4,4,4;,
        4;5,5,5,5;,
        4;6,6,6,6;,
        4;7,7,7,7;,
        4;8,8,8,8;,
        4;9,9,9,9;,
        4;10,10,10,10;,
        4;11,11,11,11;,
        4;12,12,12,12;,
        4;13,13,13,13;,
        4;14,14,14,14;,
        4;15,15,15,15;,
        4;16,16,16,16;,
        4;17,17,17,17;,
        4;18,18,18,18;,
        4;19,19,19,19;,
        4;20,20,20,20;,
        4;21,21,21,21;,
        4;22,22,22,22;,
        4;23,23,23,23;,
        4;24,24,24,24;,
        4;25,25,25,25;,
        4;26,26,26,26;,
        4;27,27,27,27;,
        4;28,28,28,28;,
        4;29,29,29,29;,
        4;30,30,30,30;,
        4;31,31,31,31;,
        4;32,32,32,32;,
        4;33,33,33,33;,
        4;34,34,34,34;,
        4;35,35,35,35;,
        4;36,36,36,36;,
        4;37,37,37,37;,
        4;38,38,38,38;,
        4;39,39,39,39;,
        4;40,40,40,40;,
        4;41,41,41,41;,
        4;42,42,42,42;,
        4;43,43,43,43;,
        4;44,44,44,44;,
        4;45,45,45,45;,
        4;46,46,46,46;,
        4;47,47,47,47;,
        4;48,48,48,48;,
        4;49,49,49,49;,
        4;50,50,50,50;,
        4;51,51,51,51;,
        4;52,52,52,52;,
        4;53,53,53,53;,
        4;54,54,54,54;,
        4;55,55,55,55;,
        4;56,56,56,56;,
        4;57,57,57,57;,
        4;58,58,58,58;,
        4;59,59,59,59;,
        4;60,60,60,60;,
        4;61,61,61,61;,
        4;62,62,62,62;,
        4;63,63,63,63;,
        4;64,64,64,64;,
        4;65,65,65,65;,
        4;66,66,66,66;,
        4;67,67,67,67;,
        4;68,68,68,68;,
        4;69,69,69,69;,
        4;70,70,70,70;,
        4;71,71,71,71;,
        4;72,72,72,72;,
        4;73,73,73,73;,
        4;74,74,74,74;,
        4;75,75,75,75;,
        4;76,76,76,76;,
        4;77,77,77,77;,
        4;78,78,78,78;,
        4;79,79,79,79;,
        4;80,80,80,80;,
        4;81,81,81,81;,
        4;82,82,82,82;,
        4;83,83,83,83;,
        4;84,84,84,84;,
        4;85,85,85,85;,
        4;86,86,86,86;,
        4;87,87,87,87;,
        4;88,88,88,88;,
        4;89,89,89,89;,
        4;90,90,90,90;,
        4;91,91,91,91;,
        4;92,92,92,92;,
        4;93,93,93,93;,
        4;94,94,94,94;,
        4;95,95,95,95;,
        4;96,96,96,96;,
        4;97,97,97,97;,
        4;98,98,98,98;,
        4;99,99,99,99;,
        4;100,100,100,100;,
        4;101,101,101,101;,
        4;102,102,102,102;,
        4;103,103,103,103;,
        4;104,104,104,104;,
        4;105,105,105,105;,
        4;106,106,106,106;,
        4;107,107,107,107;,
        4;108,108,108,108;,
        4;109,109,109,109;,
        4;110,110,110,110;,
        4;111,111,111,111;,
        4;112,112,112,112;,
        4;113,113,113,113;,
        4;114,114,114,114;,
        4;115,115,115,115;,
        4;116,116,116,116;,
        4;117,117,117,117;,
        4;118,118,118,118;,
        4;119,119,119,119;,
        4;120,120,120,120;,
        4;121,121,121,121;,
        4;122,122,122,122;,
        4;123,123,123,123;,
        4;124,124,124,124;,
        4;125,125,125,125;,
        4;126,126,126,126;,
        4;127,127,127,127;,
        4;128,128,128,128;,
        4;129,129,129,129;,
        4;130,130,130,130;,
        4;131,131,131,131;,
        4;132,132,132,132;,
        4;133,133,133,133;,
        4;134,134,134,134;,
        4;135,135,135,135;,
        4;136,136,136,136;,
        4;137,137,137,137;,
        4;138,138,138,138;,
        4;139,139,139,139;,
        4;140,140,140,140;,
        4;141,141,141,141;,
        4;142,142,142,142;,
        4;143,143,143,143;,
        4;144,144,144,144;,
        4;145,145,145,145;,
        4;146,146,146,146;,
        4;147,147,147,147;,
        4;148,148,148,148;,
        4;149,149,149,149;,
        4;150,150,150,150;,
        4;151,151,151,151;;
      } // End of Cube_001 normals
      MeshTextureCoords { // Cube_001 UV coordinates
        608;
         0.654443; 0.185747;,
         0.654443; 0.353402;,
         0.615170; 0.343006;,
         0.615170; 0.175351;,
         0.455728; 0.060492;,
         0.455728; 0.020884;,
         0.489106; 0.020884;,
         0.489106; 0.060492;,
         0.575898; 0.353402;,
         0.575898; 0.185747;,
         0.615170; 0.175351;,
         0.615170; 0.343006;,
         0.654443; 0.325415;,
         0.695142; 0.325415;,
         0.695142; 0.353402;,
         0.654443; 0.353402;,
         0.695142; 0.179845;,
         0.695142; 0.325415;,
         0.654443; 0.325415;,
         0.654443; 0.179845;,
         0.415028; 0.353402;,
         0.415028; 0.207051;,
         0.455728; 0.207051;,
         0.455728; 0.353402;,
         0.586314; 0.792475;,
         0.468492; 0.792475;,
         0.468492; 0.409053;,
         0.586314; 0.409053;,
         0.919600; 0.241215;,
         0.950222; 0.241215;,
         0.950222; 0.618645;,
         0.919600; 0.618645;,
         0.226650; 0.792475;,
         0.108828; 0.792475;,
         0.108828; 0.409053;,
         0.226650; 0.409053;,
         0.919600; 0.618645;,
         0.950222; 0.618645;,
         0.950222; 1.000000;,
         0.919600; 1.000000;,
         0.226650; 0.792475;,
         0.226650; 0.842978;,
         0.136224; 0.842978;,
         0.108828; 0.792475;,
         0.950222; 0.618645;,
         0.950222; 0.522972;,
         0.980844; 0.522972;,
         0.980844; 0.618645;,
         0.950222; 0.882283;,
         0.950222; 0.769191;,
         0.980844; 0.769191;,
         0.980844; 0.882283;,
         0.108828; 0.409053;,
         0.110436; 0.359083;,
         0.226650; 0.359083;,
         0.226650; 0.409053;,
         0.468492; 0.409053;,
         0.468492; 0.359083;,
         0.584706; 0.359083;,
         0.586314; 0.409053;,
         0.108828; 0.409053;,
         0.024246; 0.409053;,
         0.024246; 0.353402;,
         0.110436; 0.359083;,
         0.324958; 0.355035;,
         0.347571; 0.355035;,
         0.347571; 0.408722;,
         0.324958; 0.408722;,
         0.468492; 0.409053;,
         0.370184; 0.408722;,
         0.370184; 0.355035;,
         0.468492; 0.359083;,
         0.226650; 0.359083;,
         0.324958; 0.355035;,
         0.324958; 0.408722;,
         0.226650; 0.409053;,
         0.980844; 0.882283;,
         0.980844; 0.977995;,
         0.950222; 0.977995;,
         0.950222; 0.882283;,
         0.950222; 0.685379;,
         0.950222; 0.661784;,
         0.980844; 0.661784;,
         0.980844; 0.685379;,
         0.584706; 0.359083;,
         0.670896; 0.353402;,
         0.670896; 0.409053;,
         0.586314; 0.409053;,
         0.950222; 0.769191;,
         0.950222; 0.685379;,
         0.980844; 0.685379;,
         0.980844; 0.769191;,
         0.980844; 0.395055;,
         0.980844; 0.477369;,
         0.950222; 0.477369;,
         0.950222; 0.395055;,
         0.353784; 0.307741;,
         0.353784; 0.219739;,
         0.384406; 0.219739;,
         0.384406; 0.307741;,
         0.136224; 0.842978;,
         0.082013; 0.860365;,
         0.082826; 0.792475;,
         0.108828; 0.792475;,
         0.468492; 0.842978;,
         0.421549; 0.857577;,
         0.421549; 0.807074;,
         0.468492; 0.792475;,
         0.586314; 0.792475;,
         0.558918; 0.842978;,
         0.468492; 0.842978;,
         0.468492; 0.792475;,
         0.612316; 0.792475;,
         0.646599; 0.810270;,
         0.660734; 0.842978;,
         0.613129; 0.860365;,
         0.746334; 0.126926;,
         0.746334; 0.101623;,
         0.776957; 0.101623;,
         0.776957; 0.126926;,
         0.353784; 0.219739;,
         0.353784; 0.166953;,
         0.384406; 0.166953;,
         0.384406; 0.219739;,
         0.586314; 0.792475;,
         0.612316; 0.792475;,
         0.613129; 0.860365;,
         0.558918; 0.842978;,
         0.273593; 0.807074;,
         0.306391; 0.823396;,
         0.315921; 0.850184;,
         0.273593; 0.857577;,
         0.226650; 0.792475;,
         0.273593; 0.807074;,
         0.273593; 0.857577;,
         0.226650; 0.842978;,
         0.807579; 0.049668;,
         0.807579; 0.095189;,
         0.776957; 0.095189;,
         0.776957; 0.049668;,
         0.384406; 0.307741;,
         0.384406; 0.353402;,
         0.353784; 0.353402;,
         0.353784; 0.307741;,
         0.575898; 0.175351;,
         0.575898; 0.147348;,
         0.606521; 0.147348;,
         0.606521; 0.175351;,
         0.807579; 0.095189;,
         0.807579; 0.126926;,
         0.776957; 0.126926;,
         0.776957; 0.095189;,
         0.421549; 0.857577;,
         0.379221; 0.850184;,
         0.388750; 0.823396;,
         0.421549; 0.807074;,
         0.421549; 0.857577;,
         0.421549; 0.896476;,
         0.379221; 0.915432;,
         0.379221; 0.850184;,
         0.421549; 0.896476;,
         0.432015; 0.934177;,
         0.401847; 0.947687;,
         0.379221; 0.915432;,
         0.575898; 0.147348;,
         0.575898; 0.083120;,
         0.606521; 0.083120;,
         0.606521; 0.147348;,
         0.807579; 0.126926;,
         0.807579; 0.088237;,
         0.838201; 0.088237;,
         0.838201; 0.126926;,
         0.315921; 0.850184;,
         0.315921; 0.915432;,
         0.273593; 0.896476;,
         0.273593; 0.857577;,
         0.415028; 0.166518;,
         0.415028; 0.200477;,
         0.384406; 0.200477;,
         0.384406; 0.166518;,
         0.082013; 0.860365;,
         0.071180; 0.910628;,
         0.023575; 0.910628;,
         0.034408; 0.842978;,
         0.082013; 0.860365;,
         0.034408; 0.842978;,
         0.048543; 0.810270;,
         0.082826; 0.792475;,
         0.746334; 0.101623;,
         0.746334; 0.068064;,
         0.776957; 0.068064;,
         0.776957; 0.101623;,
         0.496427; 0.136256;,
         0.496427; 0.100740;,
         0.527049; 0.100740;,
         0.527049; 0.136256;,
         0.660734; 0.842978;,
         0.671566; 0.910628;,
         0.623962; 0.910628;,
         0.613129; 0.860365;,
         0.496427; 0.183877;,
         0.496427; 0.136256;,
         0.527049; 0.136256;,
         0.527049; 0.183877;,
         0.415028; 0.200477;,
         0.415028; 0.268856;,
         0.384406; 0.268856;,
         0.384406; 0.200477;,
         0.028191; 0.214844;,
         0.028191; 0.244182;,
         0.006366; 0.244182;,
         0.006366; 0.214844;,
         0.575898; 0.083120;,
         0.580297; 0.055232;,
         0.602122; 0.055232;,
         0.606521; 0.083120;,
         0.315921; 0.915432;,
         0.293295; 0.947687;,
         0.263127; 0.934177;,
         0.273593; 0.896476;,
         0.807579; 0.088237;,
         0.811978; 0.049668;,
         0.833803; 0.049668;,
         0.838201; 0.088237;,
         0.655128; 0.965265;,
         0.628393; 1.000000;,
         0.602402; 0.986446;,
         0.617328; 0.945553;,
         0.071180; 0.910628;,
         0.077814; 0.945553;,
         0.040014; 0.965265;,
         0.023575; 0.910628;,
         0.415028; 0.268856;,
         0.415028; 0.321539;,
         0.384406; 0.321539;,
         0.384406; 0.268856;,
         0.671566; 0.910628;,
         0.655128; 0.965265;,
         0.617328; 0.945553;,
         0.623962; 0.910628;,
         0.006366; 0.214843;,
         0.006366; 0.189528;,
         0.027422; 0.189528;,
         0.027422; 0.214843;,
         0.496427; 0.100740;,
         0.501210; 0.057912;,
         0.522266; 0.057912;,
         0.527049; 0.100740;,
         0.077814; 0.945553;,
         0.092740; 0.986446;,
         0.066748; 1.000000;,
         0.040014; 0.965265;,
         0.415028; 0.321539;,
         0.410245; 0.353402;,
         0.389189; 0.353402;,
         0.384406; 0.321539;,
         0.746334; 0.071575;,
         0.746334; 0.126926;,
         0.715712; 0.126926;,
         0.715712; 0.071575;,
         0.024246; 0.409053;,
         0.000000; 0.409053;,
         0.000000; 0.353402;,
         0.024246; 0.353402;,
         0.980844; 0.477369;,
         0.980844; 0.500965;,
         0.950222; 0.500965;,
         0.950222; 0.477369;,
         0.670896; 0.353402;,
         0.695142; 0.353402;,
         0.695142; 0.409053;,
         0.670896; 0.409053;,
         0.950222; 0.059157;,
         0.950222; 0.112006;,
         0.919600; 0.112006;,
         0.919600; 0.059157;,
         0.980844; 0.977995;,
         0.980844; 1.000000;,
         0.950222; 1.000000;,
         0.950222; 0.977995;,
         0.370184; 0.408722;,
         0.347571; 0.408722;,
         0.347571; 0.355035;,
         0.370184; 0.355035;,
         0.950222; 0.522972;,
         0.950222; 0.500965;,
         0.980844; 0.500965;,
         0.980844; 0.522972;,
         0.919600; 1.000000;,
         0.807371; 1.000000;,
         0.807371; 0.269537;,
         0.919600; 0.269537;,
         1.000000; 1.000000;,
         0.990422; 1.000000;,
         0.990422; 0.280952;,
         1.000000; 0.280952;,
         0.695142; 0.126926;,
         0.807371; 0.126926;,
         0.807371; 0.857389;,
         0.695142; 0.857389;,
         0.980844; 0.126674;,
         0.990422; 0.126674;,
         0.990422; 0.853198;,
         0.980844; 0.853198;,
         0.018613; 0.353402;,
         0.018613; 0.244182;,
         0.028191; 0.244182;,
         0.028191; 0.353402;,
         0.990422; 0.280952;,
         0.990721; 0.246216;,
         0.999701; 0.246216;,
         1.000000; 0.280952;,
         0.803871; 0.892068;,
         0.799285; 0.918884;,
         0.703228; 0.918884;,
         0.698642; 0.892068;,
         0.807371; 0.857389;,
         0.803871; 0.892068;,
         0.698642; 0.892068;,
         0.695142; 0.857389;,
         0.807371; 0.269537;,
         0.810871; 0.234858;,
         0.916100; 0.234858;,
         0.919600; 0.269537;,
         0.990422; 0.853198;,
         0.990123; 0.888042;,
         0.981143; 0.888042;,
         0.980844; 0.853198;,
         0.989732; 0.915175;,
         0.989054; 0.939917;,
         0.982212; 0.939917;,
         0.981534; 0.915175;,
         0.810871; 0.234858;,
         0.815457; 0.208042;,
         0.911514; 0.208042;,
         0.916100; 0.234858;,
         0.990123; 0.888042;,
         0.989732; 0.915175;,
         0.981534; 0.915175;,
         0.981143; 0.888042;,
         0.990721; 0.246216;,
         0.991112; 0.219034;,
         0.999310; 0.219034;,
         0.999701; 0.246216;,
         0.991790; 0.193979;,
         0.992587; 0.173641;,
         0.997835; 0.173641;,
         0.998632; 0.193979;,
         0.991112; 0.219034;,
         0.991790; 0.193979;,
         0.998632; 0.193979;,
         0.999310; 0.219034;,
         0.799285; 0.918884;,
         0.791342; 0.942956;,
         0.711170; 0.942956;,
         0.703228; 0.918884;,
         0.815457; 0.208042;,
         0.823399; 0.183970;,
         0.903571; 0.183970;,
         0.911514; 0.208042;,
         0.782003; 0.961994;,
         0.775910; 0.974865;,
         0.726602; 0.974865;,
         0.720509; 0.961994;,
         0.791342; 0.942956;,
         0.782003; 0.961994;,
         0.720509; 0.961994;,
         0.711170; 0.942956;,
         0.823399; 0.183970;,
         0.832738; 0.164932;,
         0.894232; 0.164932;,
         0.903571; 0.183970;,
         0.989054; 0.939917;,
         0.988257; 0.959793;,
         0.983009; 0.959793;,
         0.982212; 0.939917;,
         0.987737; 0.973208;,
         0.987105; 0.984455;,
         0.984162; 0.984455;,
         0.983529; 0.973208;,
         0.832738; 0.164932;,
         0.838831; 0.152061;,
         0.888139; 0.152061;,
         0.894232; 0.164932;,
         0.988257; 0.959793;,
         0.987737; 0.973208;,
         0.983529; 0.973208;,
         0.983009; 0.959793;,
         0.992587; 0.173641;,
         0.993107; 0.159928;,
         0.997315; 0.159928;,
         0.997835; 0.173641;,
         0.768497; 0.985422;,
         0.761983; 0.994832;,
         0.740528; 0.994832;,
         0.734015; 0.985422;,
         0.993107; 0.159928;,
         0.993740; 0.148268;,
         0.996683; 0.148268;,
         0.997315; 0.159928;,
         0.775910; 0.974865;,
         0.768497; 0.985422;,
         0.734015; 0.985422;,
         0.726602; 0.974865;,
         0.838831; 0.152061;,
         0.846244; 0.141504;,
         0.880726; 0.141504;,
         0.888139; 0.152061;,
         0.761983; 0.994832;,
         0.758111; 1.000000;,
         0.744400; 1.000000;,
         0.740528; 0.994832;,
         0.846244; 0.141504;,
         0.852757; 0.132094;,
         0.874212; 0.132094;,
         0.880726; 0.141504;,
         0.987105; 0.984455;,
         0.986549; 0.994470;,
         0.984718; 0.994470;,
         0.984162; 0.984455;,
         0.993740; 0.148268;,
         0.994296; 0.137890;,
         0.996127; 0.137890;,
         0.996683; 0.148268;,
         0.017443; 0.353402;,
         0.017443; 0.340060;,
         0.018613; 0.340060;,
         0.018613; 0.353402;,
         0.852757; 0.132094;,
         0.856629; 0.126926;,
         0.870340; 0.126926;,
         0.874212; 0.132094;,
         0.986549; 0.994470;,
         0.986218; 1.000000;,
         0.985048; 1.000000;,
         0.984718; 0.994470;,
         0.994296; 0.137890;,
         0.994626; 0.132140;,
         0.995796; 0.132140;,
         0.996127; 0.137890;,
         0.068890; 0.091959;,
         0.068890; 0.222680;,
         0.028191; 0.222680;,
         0.028191; 0.091959;,
         0.353784; 0.048232;,
         0.353784; 0.087841;,
         0.313721; 0.087840;,
         0.313721; 0.048232;,
         0.068890; 0.222680;,
         0.068890; 0.091959;,
         0.109589; 0.091959;,
         0.109589; 0.222680;,
         0.190109; 0.091959;,
         0.190109; 0.052350;,
         0.230588; 0.052350;,
         0.230588; 0.091959;,
         0.231686; 0.353402;,
         0.231686; 0.222680;,
         0.272385; 0.222680;,
         0.272385; 0.353402;,
         0.313084; 0.218554;,
         0.313084; 0.087840;,
         0.353784; 0.087840;,
         0.353784; 0.218554;,
         0.109589; 0.222680;,
         0.109589; 0.353402;,
         0.068890; 0.353402;,
         0.068890; 0.222680;,
         0.230588; 0.091959;,
         0.230588; 0.052350;,
         0.270651; 0.052350;,
         0.270651; 0.091959;,
         0.109589; 0.353402;,
         0.109589; 0.222680;,
         0.150288; 0.222680;,
         0.150288; 0.353402;,
         0.272385; 0.091967;,
         0.272385; 0.052358;,
         0.312865; 0.052358;,
         0.312865; 0.091967;,
         0.150288; 0.353402;,
         0.150288; 0.222680;,
         0.190987; 0.222680;,
         0.190987; 0.353402;,
         0.272385; 0.222680;,
         0.272385; 0.091967;,
         0.313084; 0.091967;,
         0.313084; 0.222680;,
         0.231686; 0.222680;,
         0.231686; 0.091959;,
         0.272385; 0.091959;,
         0.272385; 0.222680;,
         0.415028; 0.076338;,
         0.415028; 0.036729;,
         0.455091; 0.036729;,
         0.455091; 0.076338;,
         0.150288; 0.091959;,
         0.150288; 0.222680;,
         0.109589; 0.222680;,
         0.109589; 0.091959;,
         0.068670; 0.091959;,
         0.068670; 0.052350;,
         0.109150; 0.052350;,
         0.109150; 0.091959;,
         0.272385; 0.353402;,
         0.272385; 0.222680;,
         0.313084; 0.222680;,
         0.313084; 0.353402;,
         0.190987; 0.222680;,
         0.190987; 0.091967;,
         0.231686; 0.091967;,
         0.231686; 0.222680;,
         0.150288; 0.222680;,
         0.150288; 0.091959;,
         0.190987; 0.091959;,
         0.190987; 0.222680;,
         0.950222; 0.072397;,
         0.950222; 0.032789;,
         0.990285; 0.032789;,
         0.990285; 0.072397;,
         0.068890; 0.222680;,
         0.068890; 0.353402;,
         0.028191; 0.353402;,
         0.028191; 0.222680;,
         0.028191; 0.091959;,
         0.028191; 0.052350;,
         0.068670; 0.052350;,
         0.068670; 0.091959;,
         0.190987; 0.353402;,
         0.190987; 0.222680;,
         0.231686; 0.222680;,
         0.231686; 0.353402;,
         0.415028; 0.207051;,
         0.415028; 0.076338;,
         0.455728; 0.076338;,
         0.455728; 0.207051;,
         0.496426; 0.060492;,
         0.496427; 0.189701;,
         0.455728; 0.189701;,
         0.455728; 0.060492;,
         0.950222; 0.112006;,
         0.950222; 0.072397;,
         0.990285; 0.072397;,
         0.990285; 0.112006;,
         0.575898; 0.054668;,
         0.575898; 0.183877;,
         0.535199; 0.183877;,
         0.535199; 0.054668;,
         0.149629; 0.091959;,
         0.149629; 0.052350;,
         0.190109; 0.052350;,
         0.190109; 0.091959;,
         0.919600; 0.241215;,
         0.919600; 0.112006;,
         0.960299; 0.112006;,
         0.960299; 0.241215;,
         0.654443; 0.179845;,
         0.654443; 0.050644;,
         0.695142; 0.050644;,
         0.695142; 0.179845;,
         0.919600; 0.000000;,
         0.919600; 0.126926;,
         0.878901; 0.126926;,
         0.878901; 0.000000;,
         0.746334; 0.031967;,
         0.746334; 0.071575;,
         0.706272; 0.071575;,
         0.706272; 0.031967;,
         0.415028; 0.039592;,
         0.415028; 0.166518;,
         0.374329; 0.166518;,
         0.374330; 0.039592;,
         0.109150; 0.091959;,
         0.109150; 0.052350;,
         0.149629; 0.052350;,
         0.149629; 0.091959;,
         0.613743; 0.175351;,
         0.613743; 0.048425;,
         0.654443; 0.048425;,
         0.654443; 0.175351;,
         0.838201; 0.126926;,
         0.838201; 0.000008;,
         0.878901; 0.000008;,
         0.878901; 0.126926;,
         0.536162; 0.344836;,
         0.496427; 0.353402;,
         0.496427; 0.192443;,
         0.536162; 0.183877;,
         0.353784; 0.353402;,
         0.313084; 0.353402;,
         0.313084; 0.218554;,
         0.353784; 0.218554;,
         0.575898; 0.353402;,
         0.536162; 0.344836;,
         0.536162; 0.183877;,
         0.575898; 0.192443;,
         0.496427; 0.325374;,
         0.455728; 0.325374;,
         0.455728; 0.189701;,
         0.496427; 0.189701;,
         0.455728; 0.353402;,
         0.455728; 0.325374;,
         0.496427; 0.325374;,
         0.496427; 0.353402;,
         0.528058; 0.057912;,
         0.496427; 0.057912;,
         0.496427; 0.018304;,
         0.528058; 0.018304;;
      } // End of Cube_001 UV coordinates
      MeshMaterialList { // Cube_001 material list
        1;
        152;
        0,
        0,
        0,
        0,
        0,
        0,
        0,
        0,
        0,
        0,
        0,
        0,
        0,
        0,
        0,
        0,
        0,
        0,
        0,
        0,
        0,
        0,
        0,
        0,
        0,
        0,
        0,
        0,
        0,
        0,
        0,
        0,
        0,
        0,
        0,
        0,
        0,
        0,
        0,
        0,
        0,
        0,
        0,
        0,
        0,
        0,
        0,
        0,
        0,
        0,
        0,
        0,
        0,
        0,
        0,
        0,
        0,
        0,
        0,
        0,
        0,
        0,
        0,
        0,
        0,
        0,
        0,
        0,
        0,
        0,
        0,
        0,
        0,
        0,
        0,
        0,
        0,
        0,
        0,
        0,
        0,
        0,
        0,
        0,
        0,
        0,
        0,
        0,
        0,
        0,
        0,
        0,
        0,
        0,
        0,
        0,
        0,
        0,
        0,
        0,
        0,
        0,
        0,
        0,
        0,
        0,
        0,
        0,
        0,
        0,
        0,
        0,
        0,
        0,
        0,
        0,
        0,
        0,
        0,
        0,
        0,
        0,
        0,
        0,
        0,
        0,
        0,
        0,
        0,
        0,
        0,
        0,
        0,
        0,
        0,
        0,
        0,
        0,
        0,
        0,
        0,
        0,
        0,
        0,
        0,
        0,
        0,
        0,
        0,
        0,
        0,
        0;
        Material Material_001 {
           0.640000; 0.640000; 0.640000; 1.000000;;
           96.078431;
           0.500000; 0.500000; 0.500000;;
           0.000000; 0.000000; 0.000000;;
        }
      } // End of Cube_001 material list
    } // End of Cube_001 mesh
  } // End of Cube_001
} // End of Root
