xof 0303txt 0032

Frame Root {
  FrameTransformMatrix {
     1.000000, 0.000000, 0.000000, 0.000000,
     0.000000,-0.000000, 1.000000, 0.000000,
     0.000000, 1.000000, 0.000000, 0.000000,
     0.000000, 0.000000, 0.000000, 1.000000;;
  }
  Frame Foregrip1_x_Root_Handle1 {
    FrameTransformMatrix {
       1.000000, 0.000000, 0.000000, 0.000000,
       0.000000, 1.000000, 0.000000, 0.000000,
       0.000000, 0.000000, 1.000000, 0.000000,
       0.000000, 0.000000, 0.000000, 1.000000;;
    }
    Mesh {
      664;
      -0.000000;-0.014109; 0.017902;,
      -0.002500;-0.014109; 0.017902;,
      -0.002822;-0.014752; 0.021251;,
      -0.000000;-0.014752; 0.021251;,
       0.007446;-0.011058;-0.036789;,
       0.007444;-0.011784;-0.036595;,
       0.007442;-0.011930;-0.036448;,
       0.007439;-0.011994;-0.036210;,
       0.006910;-0.011989; 0.003284;,
       0.006910; 0.011989; 0.003284;,
       0.007439; 0.011994;-0.036210;,
       0.007442; 0.011930;-0.036448;,
       0.007444; 0.011784;-0.036595;,
       0.007446; 0.011058;-0.036789;,
      -0.003432;-0.016117;-0.036248;,
      -0.002899;-0.016117; 0.003284;,
       0.000000;-0.016117; 0.003284;,
       0.000000;-0.016117;-0.036248;,
       0.003432; 0.016117;-0.036248;,
       0.002899; 0.016117; 0.003284;,
       0.000000; 0.016117; 0.003284;,
       0.000000; 0.016117;-0.036248;,
      -0.002899;-0.016117; 0.003284;,
      -0.002366;-0.014251; 0.010610;,
       0.000000;-0.014251; 0.010610;,
       0.000000;-0.016117; 0.003284;,
      -0.008800; 0.014618; 0.034483;,
      -0.008800;-0.014618; 0.034483;,
      -0.008800;-0.014606; 0.026147;,
      -0.008800; 0.014606; 0.026147;,
       0.000000;-0.018911; 0.034483;,
       0.004744;-0.018911; 0.034483;,
       0.004742;-0.018911; 0.026147;,
       0.000000;-0.018911; 0.026147;,
      -0.002822;-0.014752; 0.021251;,
      -0.003445;-0.016117; 0.024458;,
       0.000000;-0.016117; 0.024458;,
      -0.000000;-0.014752; 0.021251;,
      -0.008800; 0.014606; 0.026147;,
      -0.008800;-0.014606; 0.026147;,
      -0.007500;-0.011836; 0.024458;,
      -0.007500; 0.011836; 0.024458;,
       0.006864;-0.010523; 0.021251;,
       0.007500;-0.011836; 0.024458;,
       0.007500; 0.011836; 0.024458;,
       0.006864; 0.010523; 0.021251;,
      -0.007446; 0.011058;-0.036789;,
      -0.007444; 0.011784;-0.036595;,
      -0.007442; 0.011930;-0.036448;,
      -0.007439; 0.011994;-0.036210;,
      -0.006910; 0.011989; 0.003284;,
      -0.006910;-0.011989; 0.003284;,
      -0.007439;-0.011994;-0.036210;,
      -0.007442;-0.011930;-0.036448;,
      -0.007444;-0.011784;-0.036595;,
      -0.007446;-0.011058;-0.036789;,
       0.000000; 0.018911; 0.034483;,
      -0.004744; 0.018911; 0.034483;,
      -0.004742; 0.018911; 0.026147;,
       0.000000; 0.018911; 0.026147;,
       0.008800;-0.014618; 0.034483;,
       0.008800; 0.014618; 0.034483;,
       0.008800; 0.014606; 0.026147;,
       0.008800;-0.014606; 0.026147;,
      -0.004744;-0.018911; 0.034483;,
      -0.007612;-0.017654; 0.034483;,
      -0.008800;-0.014618; 0.034483;,
       0.000000; 0.018911; 0.026147;,
      -0.004742; 0.018911; 0.026147;,
      -0.003445; 0.016117; 0.024458;,
       0.000000; 0.016117; 0.024458;,
       0.008800;-0.014606; 0.026147;,
       0.008800; 0.014606; 0.026147;,
       0.007500; 0.011836; 0.024458;,
       0.007500;-0.011836; 0.024458;,
       0.000000;-0.018911; 0.026147;,
       0.004742;-0.018911; 0.026147;,
       0.003445;-0.016117; 0.024458;,
       0.000000;-0.016117; 0.024458;,
       0.000000;-0.016117;-0.036248;,
       0.003432;-0.016117;-0.036248;,
       0.003465;-0.015510;-0.038514;,
      -0.000000;-0.015510;-0.038514;,
       0.006910;-0.011989; 0.003284;,
       0.006382;-0.010111; 0.010610;,
       0.006382; 0.010111; 0.010610;,
       0.006910; 0.011989; 0.003284;,
       0.002899; 0.016117; 0.003284;,
       0.002366; 0.014251; 0.010610;,
       0.000000; 0.014251; 0.010610;,
       0.000000; 0.016117; 0.003284;,
      -0.006532;-0.009923; 0.017902;,
      -0.006532; 0.009923; 0.017902;,
      -0.006864; 0.010523; 0.021251;,
      -0.006864;-0.010523; 0.021251;,
      -0.006355;-0.009768; 0.014007;,
      -0.006355; 0.009768; 0.014007;,
      -0.006532; 0.009923; 0.017902;,
      -0.006532;-0.009923; 0.017902;,
       0.000000;-0.013925; 0.014007;,
      -0.002332;-0.013925; 0.014007;,
      -0.002500;-0.014109; 0.017902;,
      -0.000000;-0.014109; 0.017902;,
       0.006355; 0.009768; 0.014007;,
       0.006355;-0.009768; 0.014007;,
       0.006532;-0.009923; 0.017902;,
       0.006532; 0.009923; 0.017902;,
       0.000000;-0.013850;-0.040174;,
       0.003489;-0.013850;-0.040174;,
       0.003497;-0.011584;-0.040781;,
       0.000000;-0.011584;-0.040781;,
       0.006532; 0.009923; 0.017902;,
       0.006532;-0.009923; 0.017902;,
       0.006864;-0.010523; 0.021251;,
       0.006864; 0.010523; 0.021251;,
       0.000000; 0.013925; 0.014007;,
       0.002332; 0.013925; 0.014007;,
       0.002500; 0.014109; 0.017902;,
       0.000000; 0.014109; 0.017902;,
       0.006382; 0.010111; 0.010610;,
       0.006382;-0.010111; 0.010610;,
       0.006355;-0.009768; 0.014007;,
       0.006355; 0.009768; 0.014007;,
       0.000000; 0.014109; 0.017902;,
       0.002500; 0.014109; 0.017902;,
       0.002822; 0.014752; 0.021251;,
       0.000000; 0.014752; 0.021251;,
      -0.006382;-0.010111; 0.010610;,
      -0.006382; 0.010111; 0.010610;,
      -0.006355; 0.009768; 0.014007;,
      -0.006355;-0.009768; 0.014007;,
       0.000000; 0.014251; 0.010610;,
       0.002366; 0.014251; 0.010610;,
       0.002332; 0.013925; 0.014007;,
       0.000000; 0.013925; 0.014007;,
       0.000000;-0.014251; 0.010610;,
      -0.002366;-0.014251; 0.010610;,
      -0.002332;-0.013925; 0.014007;,
       0.000000;-0.013925; 0.014007;,
       0.002822; 0.014752; 0.021251;,
       0.003445; 0.016117; 0.024458;,
       0.000000; 0.016117; 0.024458;,
       0.000000; 0.014752; 0.021251;,
       0.000000; 0.015510;-0.038514;,
      -0.003465; 0.015510;-0.038514;,
      -0.003489; 0.013850;-0.040174;,
       0.000000; 0.013850;-0.040174;,
       0.000000; 0.013850;-0.040174;,
      -0.003489; 0.013850;-0.040174;,
      -0.003497; 0.011584;-0.040781;,
      -0.000000; 0.011584;-0.040781;,
       0.000000;-0.011584;-0.040781;,
       0.003497;-0.011584;-0.040781;,
       0.003497; 0.011584;-0.040781;,
      -0.000000; 0.011584;-0.040781;,
       0.000000; 0.016117;-0.036248;,
      -0.003432; 0.016117;-0.036248;,
      -0.003465; 0.015510;-0.038514;,
       0.000000; 0.015510;-0.038514;,
      -0.000000;-0.015510;-0.038514;,
       0.003465;-0.015510;-0.038514;,
       0.003489;-0.013850;-0.040174;,
       0.000000;-0.013850;-0.040174;,
      -0.006910; 0.011989; 0.003284;,
      -0.006382; 0.010111; 0.010610;,
      -0.006382;-0.010111; 0.010610;,
      -0.006910;-0.011989; 0.003284;,
       0.006312; 0.014863; 0.024458;,
       0.007611; 0.017650; 0.026147;,
       0.004742; 0.018911; 0.026147;,
       0.003445; 0.016117; 0.024458;,
       0.007500; 0.011836; 0.024458;,
       0.008800; 0.014606; 0.026147;,
       0.007611; 0.017650; 0.026147;,
       0.006312; 0.014863; 0.024458;,
       0.007611;-0.017650; 0.026147;,
       0.006312;-0.014863; 0.024458;,
       0.003445;-0.016117; 0.024458;,
       0.004742;-0.018911; 0.026147;,
       0.008800;-0.014606; 0.026147;,
       0.007500;-0.011836; 0.024458;,
       0.006312;-0.014863; 0.024458;,
       0.007611;-0.017650; 0.026147;,
      -0.006312;-0.014863; 0.024458;,
      -0.007611;-0.017650; 0.026147;,
      -0.004742;-0.018911; 0.026147;,
      -0.003445;-0.016117; 0.024458;,
      -0.007500;-0.011836; 0.024458;,
      -0.008800;-0.014606; 0.026147;,
      -0.007611;-0.017650; 0.026147;,
      -0.006312;-0.014863; 0.024458;,
      -0.007611; 0.017650; 0.026147;,
      -0.006312; 0.014863; 0.024458;,
      -0.003445; 0.016117; 0.024458;,
      -0.004742; 0.018911; 0.026147;,
      -0.008800; 0.014606; 0.026147;,
      -0.007500; 0.011836; 0.024458;,
      -0.006312; 0.014863; 0.024458;,
      -0.007611; 0.017650; 0.026147;,
      -0.007611;-0.017650; 0.026147;,
      -0.007612;-0.017654; 0.034483;,
      -0.004744;-0.018911; 0.034483;,
      -0.004742;-0.018911; 0.026147;,
      -0.008800;-0.014606; 0.026147;,
      -0.008800;-0.014618; 0.034483;,
      -0.007612;-0.017654; 0.034483;,
      -0.007611;-0.017650; 0.026147;,
      -0.007612; 0.017654; 0.034483;,
      -0.007611; 0.017650; 0.026147;,
      -0.004742; 0.018911; 0.026147;,
      -0.004744; 0.018911; 0.034483;,
      -0.008800; 0.014618; 0.034483;,
      -0.008800; 0.014606; 0.026147;,
      -0.007611; 0.017650; 0.026147;,
      -0.007612; 0.017654; 0.034483;,
       0.007611;-0.017650; 0.026147;,
       0.007612;-0.017654; 0.034483;,
       0.008800;-0.014618; 0.034483;,
       0.008800;-0.014606; 0.026147;,
       0.004742;-0.018911; 0.026147;,
       0.004744;-0.018911; 0.034483;,
       0.007612;-0.017654; 0.034483;,
       0.007611;-0.017650; 0.026147;,
       0.007612; 0.017654; 0.034483;,
       0.007611; 0.017650; 0.026147;,
       0.008800; 0.014606; 0.026147;,
       0.008800; 0.014618; 0.034483;,
       0.004744; 0.018911; 0.034483;,
       0.004742; 0.018911; 0.026147;,
       0.007611; 0.017650; 0.026147;,
       0.007612; 0.017654; 0.034483;,
       0.005351;-0.012882; 0.017902;,
       0.005680;-0.013513; 0.021251;,
       0.006864;-0.010523; 0.021251;,
       0.006532;-0.009923; 0.017902;,
       0.002500;-0.014109; 0.017902;,
       0.002822;-0.014752; 0.021251;,
       0.005680;-0.013513; 0.021251;,
       0.005351;-0.012882; 0.017902;,
      -0.005680;-0.013513; 0.021251;,
      -0.005351;-0.012882; 0.017902;,
      -0.006532;-0.009923; 0.017902;,
      -0.006864;-0.010523; 0.021251;,
      -0.002822;-0.014752; 0.021251;,
      -0.002500;-0.014109; 0.017902;,
      -0.005351;-0.012882; 0.017902;,
      -0.005680;-0.013513; 0.021251;,
       0.005177;-0.012708; 0.014007;,
       0.005351;-0.012882; 0.017902;,
       0.006532;-0.009923; 0.017902;,
       0.006355;-0.009768; 0.014007;,
       0.002332;-0.013925; 0.014007;,
       0.002500;-0.014109; 0.017902;,
       0.005351;-0.012882; 0.017902;,
       0.005177;-0.012708; 0.014007;,
      -0.005351;-0.012882; 0.017902;,
      -0.005177;-0.012708; 0.014007;,
      -0.006355;-0.009768; 0.014007;,
      -0.006532;-0.009923; 0.017902;,
      -0.002500;-0.014109; 0.017902;,
      -0.002332;-0.013925; 0.014007;,
      -0.005177;-0.012708; 0.014007;,
      -0.005351;-0.012882; 0.017902;,
       0.005205;-0.013039; 0.010610;,
       0.005177;-0.012708; 0.014007;,
       0.006355;-0.009768; 0.014007;,
       0.006382;-0.010111; 0.010610;,
       0.002366;-0.014251; 0.010610;,
       0.002332;-0.013925; 0.014007;,
       0.005177;-0.012708; 0.014007;,
       0.005205;-0.013039; 0.010610;,
      -0.005177;-0.012708; 0.014007;,
      -0.005205;-0.013039; 0.010610;,
      -0.006382;-0.010111; 0.010610;,
      -0.006355;-0.009768; 0.014007;,
      -0.002332;-0.013925; 0.014007;,
      -0.002366;-0.014251; 0.010610;,
      -0.005205;-0.013039; 0.010610;,
      -0.005177;-0.012708; 0.014007;,
       0.005351; 0.012882; 0.017902;,
       0.005680; 0.013513; 0.021251;,
       0.002822; 0.014752; 0.021251;,
       0.002500; 0.014109; 0.017902;,
       0.006532; 0.009923; 0.017902;,
       0.006864; 0.010523; 0.021251;,
       0.005680; 0.013513; 0.021251;,
       0.005351; 0.012882; 0.017902;,
       0.005177; 0.012708; 0.014007;,
       0.005351; 0.012882; 0.017902;,
       0.002500; 0.014109; 0.017902;,
       0.002332; 0.013925; 0.014007;,
       0.006355; 0.009768; 0.014007;,
       0.006532; 0.009923; 0.017902;,
       0.005351; 0.012882; 0.017902;,
       0.005177; 0.012708; 0.014007;,
       0.005205; 0.013039; 0.010610;,
       0.005177; 0.012708; 0.014007;,
       0.002332; 0.013925; 0.014007;,
       0.002366; 0.014251; 0.010610;,
       0.006382; 0.010111; 0.010610;,
       0.006355; 0.009768; 0.014007;,
       0.005177; 0.012708; 0.014007;,
       0.005205; 0.013039; 0.010610;,
      -0.005351; 0.012882; 0.017902;,
      -0.005680; 0.013513; 0.021251;,
      -0.006864; 0.010523; 0.021251;,
      -0.006532; 0.009923; 0.017902;,
      -0.002500; 0.014109; 0.017902;,
      -0.002822; 0.014752; 0.021251;,
      -0.005680; 0.013513; 0.021251;,
      -0.005351; 0.012882; 0.017902;,
      -0.005177; 0.012708; 0.014007;,
      -0.005351; 0.012882; 0.017902;,
      -0.006532; 0.009923; 0.017902;,
      -0.006355; 0.009768; 0.014007;,
      -0.002332; 0.013925; 0.014007;,
      -0.002500; 0.014109; 0.017902;,
      -0.005351; 0.012882; 0.017902;,
      -0.005177; 0.012708; 0.014007;,
      -0.005205; 0.013039; 0.010610;,
      -0.005177; 0.012708; 0.014007;,
      -0.006355; 0.009768; 0.014007;,
      -0.006382; 0.010111; 0.010610;,
      -0.002366; 0.014251; 0.010610;,
      -0.002332; 0.013925; 0.014007;,
      -0.005177; 0.012708; 0.014007;,
      -0.005205; 0.013039; 0.010610;,
       0.005680;-0.013513; 0.021251;,
       0.006312;-0.014863; 0.024458;,
       0.007500;-0.011836; 0.024458;,
       0.006864;-0.010523; 0.021251;,
       0.002822;-0.014752; 0.021251;,
       0.003445;-0.016117; 0.024458;,
       0.006312;-0.014863; 0.024458;,
       0.005680;-0.013513; 0.021251;,
      -0.006312;-0.014863; 0.024458;,
      -0.005680;-0.013513; 0.021251;,
      -0.006864;-0.010523; 0.021251;,
      -0.007500;-0.011836; 0.024458;,
      -0.003445;-0.016117; 0.024458;,
      -0.002822;-0.014752; 0.021251;,
      -0.005680;-0.013513; 0.021251;,
      -0.006312;-0.014863; 0.024458;,
      -0.005735;-0.014908; 0.003284;,
      -0.005205;-0.013039; 0.010610;,
      -0.002366;-0.014251; 0.010610;,
      -0.002899;-0.016117; 0.003284;,
      -0.006910;-0.011989; 0.003284;,
      -0.006382;-0.010111; 0.010610;,
      -0.005205;-0.013039; 0.010610;,
      -0.005735;-0.014908; 0.003284;,
      -0.005205; 0.013039; 0.010610;,
      -0.005735; 0.014908; 0.003284;,
      -0.002899; 0.016117; 0.003284;,
      -0.002366; 0.014251; 0.010610;,
      -0.006382; 0.010111; 0.010610;,
      -0.006910; 0.011989; 0.003284;,
      -0.005735; 0.014908; 0.003284;,
      -0.005205; 0.013039; 0.010610;,
      -0.006312; 0.014863; 0.024458;,
      -0.005680; 0.013513; 0.021251;,
      -0.002822; 0.014752; 0.021251;,
      -0.003445; 0.016117; 0.024458;,
      -0.007500; 0.011836; 0.024458;,
      -0.006864; 0.010523; 0.021251;,
      -0.005680; 0.013513; 0.021251;,
      -0.006312; 0.014863; 0.024458;,
       0.005735;-0.014908; 0.003284;,
       0.005205;-0.013039; 0.010610;,
       0.006382;-0.010111; 0.010610;,
       0.006910;-0.011989; 0.003284;,
       0.002899;-0.016117; 0.003284;,
       0.002366;-0.014251; 0.010610;,
       0.005205;-0.013039; 0.010610;,
       0.005735;-0.014908; 0.003284;,
       0.006312; 0.014863; 0.024458;,
       0.005680; 0.013513; 0.021251;,
       0.006864; 0.010523; 0.021251;,
       0.007500; 0.011836; 0.024458;,
       0.003445; 0.016117; 0.024458;,
       0.002822; 0.014752; 0.021251;,
       0.005680; 0.013513; 0.021251;,
       0.006312; 0.014863; 0.024458;,
       0.005205; 0.013039; 0.010610;,
       0.005735; 0.014908; 0.003284;,
       0.006910; 0.011989; 0.003284;,
       0.006382; 0.010111; 0.010610;,
       0.002366; 0.014251; 0.010610;,
       0.002899; 0.016117; 0.003284;,
       0.005735; 0.014908; 0.003284;,
       0.005205; 0.013039; 0.010610;,
       0.006305; 0.013245;-0.039125;,
       0.006312; 0.011430;-0.039612;,
       0.007446; 0.011058;-0.036789;,
       0.007444; 0.011784;-0.036595;,
       0.003489; 0.013850;-0.040174;,
       0.003497; 0.011584;-0.040781;,
       0.006312; 0.011430;-0.039612;,
       0.006305; 0.013245;-0.039125;,
      -0.006312; 0.011430;-0.039612;,
      -0.006305; 0.013245;-0.039125;,
      -0.007444; 0.011784;-0.036595;,
      -0.007446; 0.011058;-0.036789;,
      -0.003497; 0.011584;-0.040781;,
      -0.003489; 0.013850;-0.040174;,
      -0.006305; 0.013245;-0.039125;,
      -0.006312; 0.011430;-0.039612;,
       0.006288; 0.014461;-0.037909;,
       0.006305; 0.013245;-0.039125;,
       0.007444; 0.011784;-0.036595;,
       0.007442; 0.011930;-0.036448;,
       0.003465; 0.015510;-0.038514;,
       0.003489; 0.013850;-0.040174;,
       0.006305; 0.013245;-0.039125;,
       0.006288; 0.014461;-0.037909;,
      -0.006305; 0.013245;-0.039125;,
      -0.006288; 0.014461;-0.037909;,
      -0.007442; 0.011930;-0.036448;,
      -0.007444; 0.011784;-0.036595;,
      -0.003489; 0.013850;-0.040174;,
      -0.003465; 0.015510;-0.038514;,
      -0.006288; 0.014461;-0.037909;,
      -0.006305; 0.013245;-0.039125;,
       0.006265; 0.014909;-0.036236;,
       0.006288; 0.014461;-0.037909;,
       0.007442; 0.011930;-0.036448;,
       0.007439; 0.011994;-0.036210;,
       0.003432; 0.016117;-0.036248;,
       0.003465; 0.015510;-0.038514;,
       0.006288; 0.014461;-0.037909;,
       0.006265; 0.014909;-0.036236;,
      -0.006288; 0.014461;-0.037909;,
      -0.006265; 0.014909;-0.036236;,
      -0.007439; 0.011994;-0.036210;,
      -0.007442; 0.011930;-0.036448;,
      -0.003465; 0.015510;-0.038514;,
      -0.003432; 0.016117;-0.036248;,
      -0.006265; 0.014909;-0.036236;,
      -0.006288; 0.014461;-0.037909;,
      -0.006305;-0.013245;-0.039125;,
      -0.006312;-0.011430;-0.039612;,
      -0.007446;-0.011058;-0.036789;,
      -0.007444;-0.011784;-0.036595;,
      -0.003489;-0.013850;-0.040174;,
      -0.003497;-0.011584;-0.040781;,
      -0.006312;-0.011430;-0.039612;,
      -0.006305;-0.013245;-0.039125;,
       0.006312;-0.011430;-0.039612;,
       0.006305;-0.013245;-0.039125;,
       0.007444;-0.011784;-0.036595;,
       0.007446;-0.011058;-0.036789;,
       0.003497;-0.011584;-0.040781;,
       0.003489;-0.013850;-0.040174;,
       0.006305;-0.013245;-0.039125;,
       0.006312;-0.011430;-0.039612;,
      -0.006288;-0.014461;-0.037909;,
      -0.006305;-0.013245;-0.039125;,
      -0.007444;-0.011784;-0.036595;,
      -0.007442;-0.011930;-0.036448;,
      -0.003465;-0.015510;-0.038514;,
      -0.003489;-0.013850;-0.040174;,
      -0.006305;-0.013245;-0.039125;,
      -0.006288;-0.014461;-0.037909;,
       0.006305;-0.013245;-0.039125;,
       0.006288;-0.014461;-0.037909;,
       0.007442;-0.011930;-0.036448;,
       0.007444;-0.011784;-0.036595;,
       0.003489;-0.013850;-0.040174;,
       0.003465;-0.015510;-0.038514;,
       0.006288;-0.014461;-0.037909;,
       0.006305;-0.013245;-0.039125;,
      -0.006265;-0.014909;-0.036236;,
      -0.006288;-0.014461;-0.037909;,
      -0.007442;-0.011930;-0.036448;,
      -0.007439;-0.011994;-0.036210;,
      -0.003432;-0.016117;-0.036248;,
      -0.003465;-0.015510;-0.038514;,
      -0.006288;-0.014461;-0.037909;,
      -0.006265;-0.014909;-0.036236;,
       0.006288;-0.014461;-0.037909;,
       0.006265;-0.014909;-0.036236;,
       0.007439;-0.011994;-0.036210;,
       0.007442;-0.011930;-0.036448;,
       0.003465;-0.015510;-0.038514;,
       0.003432;-0.016117;-0.036248;,
       0.006265;-0.014909;-0.036236;,
       0.006288;-0.014461;-0.037909;,
      -0.006312; 0.011430;-0.039612;,
      -0.006312;-0.011430;-0.039612;,
      -0.003497;-0.011584;-0.040781;,
      -0.003497; 0.011584;-0.040781;,
      -0.007446; 0.011058;-0.036789;,
      -0.007446;-0.011058;-0.036789;,
      -0.006312;-0.011430;-0.039612;,
      -0.006312; 0.011430;-0.039612;,
      -0.006265;-0.014909;-0.036236;,
      -0.005735;-0.014908; 0.003284;,
      -0.002899;-0.016117; 0.003284;,
      -0.003432;-0.016117;-0.036248;,
      -0.007439;-0.011994;-0.036210;,
      -0.006910;-0.011989; 0.003284;,
      -0.005735;-0.014908; 0.003284;,
      -0.006265;-0.014909;-0.036236;,
      -0.005735; 0.014908; 0.003284;,
      -0.006265; 0.014909;-0.036236;,
      -0.003432; 0.016117;-0.036248;,
      -0.002899; 0.016117; 0.003284;,
      -0.006910; 0.011989; 0.003284;,
      -0.007439; 0.011994;-0.036210;,
      -0.006265; 0.014909;-0.036236;,
      -0.005735; 0.014908; 0.003284;,
       0.006312; 0.011430;-0.039612;,
       0.006312;-0.011430;-0.039612;,
       0.007446;-0.011058;-0.036789;,
       0.007446; 0.011058;-0.036789;,
       0.003497; 0.011584;-0.040781;,
       0.003497;-0.011584;-0.040781;,
       0.006312;-0.011430;-0.039612;,
       0.006312; 0.011430;-0.039612;,
       0.006265;-0.014909;-0.036236;,
       0.005735;-0.014908; 0.003284;,
       0.006910;-0.011989; 0.003284;,
       0.007439;-0.011994;-0.036210;,
       0.003432;-0.016117;-0.036248;,
       0.002899;-0.016117; 0.003284;,
       0.005735;-0.014908; 0.003284;,
       0.006265;-0.014909;-0.036236;,
       0.005735; 0.014908; 0.003284;,
       0.006265; 0.014909;-0.036236;,
       0.007439; 0.011994;-0.036210;,
       0.006910; 0.011989; 0.003284;,
       0.002899; 0.016117; 0.003284;,
       0.003432; 0.016117;-0.036248;,
       0.006265; 0.014909;-0.036236;,
       0.005735; 0.014908; 0.003284;,
      -0.006864; 0.010523; 0.021251;,
      -0.007500; 0.011836; 0.024458;,
      -0.007500;-0.011836; 0.024458;,
      -0.006864;-0.010523; 0.021251;,
      -0.003465;-0.015510;-0.038514;,
      -0.000000;-0.015510;-0.038514;,
       0.000000;-0.013850;-0.040174;,
      -0.003489;-0.013850;-0.040174;,
       0.003432; 0.016117;-0.036248;,
       0.000000; 0.016117;-0.036248;,
       0.000000; 0.015510;-0.038514;,
       0.003465; 0.015510;-0.038514;,
      -0.003497;-0.011584;-0.040781;,
       0.000000;-0.011584;-0.040781;,
      -0.000000; 0.011584;-0.040781;,
      -0.003497; 0.011584;-0.040781;,
       0.003489; 0.013850;-0.040174;,
       0.000000; 0.013850;-0.040174;,
      -0.000000; 0.011584;-0.040781;,
       0.003497; 0.011584;-0.040781;,
       0.003465; 0.015510;-0.038514;,
       0.000000; 0.015510;-0.038514;,
       0.000000; 0.013850;-0.040174;,
       0.003489; 0.013850;-0.040174;,
       0.000000; 0.014752; 0.021251;,
       0.000000; 0.016117; 0.024458;,
      -0.003445; 0.016117; 0.024458;,
      -0.002822; 0.014752; 0.021251;,
       0.002366;-0.014251; 0.010610;,
       0.000000;-0.014251; 0.010610;,
       0.000000;-0.013925; 0.014007;,
       0.002332;-0.013925; 0.014007;,
      -0.002366; 0.014251; 0.010610;,
       0.000000; 0.014251; 0.010610;,
       0.000000; 0.013925; 0.014007;,
      -0.002332; 0.013925; 0.014007;,
      -0.002500; 0.014109; 0.017902;,
       0.000000; 0.014109; 0.017902;,
       0.000000; 0.014752; 0.021251;,
      -0.002822; 0.014752; 0.021251;,
      -0.002332; 0.013925; 0.014007;,
       0.000000; 0.013925; 0.014007;,
       0.000000; 0.014109; 0.017902;,
      -0.002500; 0.014109; 0.017902;,
      -0.003489;-0.013850;-0.040174;,
       0.000000;-0.013850;-0.040174;,
       0.000000;-0.011584;-0.040781;,
      -0.003497;-0.011584;-0.040781;,
       0.002332;-0.013925; 0.014007;,
       0.000000;-0.013925; 0.014007;,
      -0.000000;-0.014109; 0.017902;,
       0.002500;-0.014109; 0.017902;,
       0.000000; 0.016117; 0.003284;,
       0.000000; 0.014251; 0.010610;,
      -0.002366; 0.014251; 0.010610;,
      -0.002899; 0.016117; 0.003284;,
      -0.003432;-0.016117;-0.036248;,
       0.000000;-0.016117;-0.036248;,
      -0.000000;-0.015510;-0.038514;,
      -0.003465;-0.015510;-0.038514;,
      -0.004742;-0.018911; 0.026147;,
       0.000000;-0.018911; 0.026147;,
       0.000000;-0.016117; 0.024458;,
      -0.003445;-0.016117; 0.024458;,
       0.004742; 0.018911; 0.026147;,
       0.000000; 0.018911; 0.026147;,
       0.000000; 0.016117; 0.024458;,
       0.003445; 0.016117; 0.024458;,
       0.008800;-0.014618; 0.034483;,
       0.007612;-0.017654; 0.034483;,
       0.004744;-0.018911; 0.034483;,
       0.004744; 0.018911; 0.034483;,
       0.000000; 0.018911; 0.034483;,
       0.000000; 0.018911; 0.026147;,
       0.004742; 0.018911; 0.026147;,
      -0.000000;-0.014752; 0.021251;,
       0.000000;-0.016117; 0.024458;,
       0.003445;-0.016117; 0.024458;,
       0.002822;-0.014752; 0.021251;,
      -0.004744;-0.018911; 0.034483;,
       0.000000;-0.018911; 0.034483;,
       0.000000;-0.018911; 0.026147;,
      -0.004742;-0.018911; 0.026147;,
       0.000000;-0.016117; 0.003284;,
       0.000000;-0.014251; 0.010610;,
       0.002366;-0.014251; 0.010610;,
       0.002899;-0.016117; 0.003284;,
       0.000000; 0.016117;-0.036248;,
       0.000000; 0.016117; 0.003284;,
      -0.002899; 0.016117; 0.003284;,
      -0.003432; 0.016117;-0.036248;,
       0.000000;-0.016117;-0.036248;,
       0.000000;-0.016117; 0.003284;,
       0.002899;-0.016117; 0.003284;,
       0.003432;-0.016117;-0.036248;,
       0.002500;-0.014109; 0.017902;,
      -0.000000;-0.014109; 0.017902;,
      -0.000000;-0.014752; 0.021251;,
       0.002822;-0.014752; 0.021251;,
      -0.008800;-0.014618; 0.034483;,
       0.000000;-0.018911; 0.034483;,
      -0.004744;-0.018911; 0.034483;,
      -0.008800;-0.014618; 0.034483;,
       0.000000; 0.018911; 0.034483;,
       0.000000;-0.018911; 0.034483;,
      -0.008800; 0.014618; 0.034483;,
      -0.004744; 0.018911; 0.034483;,
       0.000000; 0.018911; 0.034483;,
      -0.008800; 0.014618; 0.034483;,
      -0.007612; 0.017654; 0.034483;,
      -0.004744; 0.018911; 0.034483;,
       0.000000; 0.018911; 0.034483;,
      -0.008800;-0.014618; 0.034483;,
      -0.008800; 0.014618; 0.034483;,
       0.000000; 0.018911; 0.034483;,
       0.008800; 0.014618; 0.034483;,
       0.008800;-0.014618; 0.034483;,
       0.004744; 0.018911; 0.034483;,
       0.007612; 0.017654; 0.034483;,
       0.008800; 0.014618; 0.034483;,
       0.004744; 0.018911; 0.034483;,
       0.008800; 0.014618; 0.034483;,
       0.000000; 0.018911; 0.034483;,
       0.008800;-0.014618; 0.034483;,
       0.000000;-0.018911; 0.034483;,
       0.000000; 0.018911; 0.034483;,
       0.008800;-0.014618; 0.034483;,
       0.004744;-0.018911; 0.034483;,
       0.000000;-0.018911; 0.034483;;
      166;
      4;3,2,1,0;,
      10;13,12,11,10,9,8,7,6,5,4;,
      4;17,16,15,14;,
      4;21,20,19,18;,
      4;25,24,23,22;,
      4;29,28,27,26;,
      4;33,32,31,30;,
      4;37,36,35,34;,
      4;41,40,39,38;,
      4;45,44,43,42;,
      10;55,54,53,52,51,50,49,48,47,46;,
      4;59,58,57,56;,
      4;63,62,61,60;,
      3;66,65,64;,
      4;70,69,68,67;,
      4;74,73,72,71;,
      4;78,77,76,75;,
      4;82,81,80,79;,
      4;86,85,84,83;,
      4;90,89,88,87;,
      4;94,93,92,91;,
      4;98,97,96,95;,
      4;102,101,100,99;,
      4;106,105,104,103;,
      4;110,109,108,107;,
      4;114,113,112,111;,
      4;118,117,116,115;,
      4;122,121,120,119;,
      4;126,125,124,123;,
      4;130,129,128,127;,
      4;134,133,132,131;,
      4;138,137,136,135;,
      4;142,141,140,139;,
      4;146,145,144,143;,
      4;150,149,148,147;,
      4;154,153,152,151;,
      4;158,157,156,155;,
      4;162,161,160,159;,
      4;166,165,164,163;,
      4;170,169,168,167;,
      4;174,173,172,171;,
      4;178,177,176,175;,
      4;182,181,180,179;,
      4;186,185,184,183;,
      4;190,189,188,187;,
      4;194,193,192,191;,
      4;198,197,196,195;,
      4;202,201,200,199;,
      4;206,205,204,203;,
      4;210,209,208,207;,
      4;214,213,212,211;,
      4;218,217,216,215;,
      4;222,221,220,219;,
      4;226,225,224,223;,
      4;230,229,228,227;,
      4;234,233,232,231;,
      4;238,237,236,235;,
      4;242,241,240,239;,
      4;246,245,244,243;,
      4;250,249,248,247;,
      4;254,253,252,251;,
      4;258,257,256,255;,
      4;262,261,260,259;,
      4;266,265,264,263;,
      4;270,269,268,267;,
      4;274,273,272,271;,
      4;278,277,276,275;,
      4;282,281,280,279;,
      4;286,285,284,283;,
      4;290,289,288,287;,
      4;294,293,292,291;,
      4;298,297,296,295;,
      4;302,301,300,299;,
      4;306,305,304,303;,
      4;310,309,308,307;,
      4;314,313,312,311;,
      4;318,317,316,315;,
      4;322,321,320,319;,
      4;326,325,324,323;,
      4;330,329,328,327;,
      4;334,333,332,331;,
      4;338,337,336,335;,
      4;342,341,340,339;,
      4;346,345,344,343;,
      4;350,349,348,347;,
      4;354,353,352,351;,
      4;358,357,356,355;,
      4;362,361,360,359;,
      4;366,365,364,363;,
      4;370,369,368,367;,
      4;374,373,372,371;,
      4;378,377,376,375;,
      4;382,381,380,379;,
      4;386,385,384,383;,
      4;390,389,388,387;,
      4;394,393,392,391;,
      4;398,397,396,395;,
      4;402,401,400,399;,
      4;406,405,404,403;,
      4;410,409,408,407;,
      4;414,413,412,411;,
      4;418,417,416,415;,
      4;422,421,420,419;,
      4;426,425,424,423;,
      4;430,429,428,427;,
      4;434,433,432,431;,
      4;438,437,436,435;,
      4;442,441,440,439;,
      4;446,445,444,443;,
      4;450,449,448,447;,
      4;454,453,452,451;,
      4;458,457,456,455;,
      4;462,461,460,459;,
      4;466,465,464,463;,
      4;470,469,468,467;,
      4;474,473,472,471;,
      4;478,477,476,475;,
      4;482,481,480,479;,
      4;486,485,484,483;,
      4;490,489,488,487;,
      4;494,493,492,491;,
      4;498,497,496,495;,
      4;502,501,500,499;,
      4;506,505,504,503;,
      4;510,509,508,507;,
      4;514,513,512,511;,
      4;518,517,516,515;,
      4;522,521,520,519;,
      4;526,525,524,523;,
      4;530,529,528,527;,
      4;534,533,532,531;,
      4;538,537,536,535;,
      4;542,541,540,539;,
      4;546,545,544,543;,
      4;550,549,548,547;,
      4;554,553,552,551;,
      4;558,557,556,555;,
      4;562,561,560,559;,
      4;566,565,564,563;,
      4;570,569,568,567;,
      4;574,573,572,571;,
      4;578,577,576,575;,
      4;582,581,580,579;,
      4;586,585,584,583;,
      4;590,589,588,587;,
      4;594,593,592,591;,
      4;598,597,596,595;,
      4;602,601,600,599;,
      3;605,604,603;,
      4;609,608,607,606;,
      4;613,612,611,610;,
      4;617,616,615,614;,
      4;621,620,619,618;,
      4;625,624,623,622;,
      4;629,628,627,626;,
      4;633,632,631,630;,
      3;636,635,634;,
      3;639,638,637;,
      3;642,641,640;,
      3;645,644,643;,
      3;648,647,646;,
      3;651,650,649;,
      3;654,653,652;,
      3;657,656,655;,
      3;660,659,658;,
      3;663,662,661;;
      MeshNormals {
        664;
         0.000000; 0.982063; 0.188554;,
         0.000000; 0.982063; 0.188554;,
         0.000000; 0.982063; 0.188554;,
         0.000000; 0.982063; 0.188554;,
        -0.999911;-0.000000;-0.013375;,
        -0.999911;-0.000000;-0.013375;,
        -0.999911;-0.000000;-0.013375;,
        -0.999911;-0.000000;-0.013375;,
        -0.999911;-0.000000;-0.013375;,
        -0.999911;-0.000000;-0.013375;,
        -0.999911;-0.000000;-0.013375;,
        -0.999911;-0.000000;-0.013375;,
        -0.999911;-0.000000;-0.013375;,
        -0.999911;-0.000000;-0.013375;,
         0.000000; 1.000000; 0.000000;,
         0.000000; 1.000000; 0.000000;,
         0.000000; 1.000000; 0.000000;,
         0.000000; 1.000000; 0.000000;,
         0.000000;-1.000000; 0.000000;,
         0.000000;-1.000000; 0.000000;,
         0.000000;-1.000000; 0.000000;,
         0.000000;-1.000000; 0.000000;,
         0.000000; 0.969059;-0.246828;,
         0.000000; 0.969059;-0.246828;,
         0.000000; 0.969059;-0.246828;,
         0.000000; 0.969059;-0.246828;,
         1.000000; 0.000000; 0.000000;,
         1.000000; 0.000000; 0.000000;,
         1.000000; 0.000000; 0.000000;,
         1.000000; 0.000000; 0.000000;,
         0.000000; 1.000000; 0.000000;,
         0.000000; 1.000000; 0.000000;,
         0.000000; 1.000000; 0.000000;,
         0.000000; 1.000000; 0.000000;,
         0.000000; 0.920122; 0.391633;,
         0.000000; 0.920122; 0.391633;,
         0.000000; 0.920122; 0.391633;,
         0.000000; 0.920122; 0.391633;,
         0.792450; 0.000000; 0.609937;,
         0.792450; 0.000000; 0.609937;,
         0.792450; 0.000000; 0.609937;,
         0.792450; 0.000000; 0.609937;,
        -0.980897; 0.000000; 0.194528;,
        -0.980897; 0.000000; 0.194528;,
        -0.980897; 0.000000; 0.194528;,
        -0.980897; 0.000000; 0.194528;,
         0.999911; 0.000000;-0.013375;,
         0.999911; 0.000000;-0.013375;,
         0.999911; 0.000000;-0.013375;,
         0.999911; 0.000000;-0.013375;,
         0.999911; 0.000000;-0.013375;,
         0.999911; 0.000000;-0.013375;,
         0.999911; 0.000000;-0.013375;,
         0.999911; 0.000000;-0.013375;,
         0.999911; 0.000000;-0.013375;,
         0.999911; 0.000000;-0.013375;,
         0.000000;-1.000000; 0.000000;,
         0.000000;-1.000000; 0.000000;,
         0.000000;-1.000000; 0.000000;,
         0.000000;-1.000000; 0.000000;,
        -1.000000; 0.000000; 0.000000;,
        -1.000000; 0.000000; 0.000000;,
        -1.000000; 0.000000; 0.000000;,
        -1.000000; 0.000000; 0.000000;,
        -0.000002; 0.000000;-1.000000;,
        -0.000002; 0.000000;-1.000000;,
        -0.000002; 0.000000;-1.000000;,
         0.000000;-0.517331; 0.855786;,
         0.000000;-0.517331; 0.855786;,
         0.000000;-0.517331; 0.855786;,
         0.000000;-0.517331; 0.855786;,
        -0.792450; 0.000000; 0.609937;,
        -0.792450; 0.000000; 0.609937;,
        -0.792450; 0.000000; 0.609937;,
        -0.792450; 0.000000; 0.609937;,
         0.000000; 0.517331; 0.855786;,
         0.000000; 0.517331; 0.855786;,
         0.000000; 0.517331; 0.855786;,
         0.000000; 0.517331; 0.855786;,
         0.000000; 0.965944; 0.258750;,
         0.000000; 0.965944; 0.258750;,
         0.000000; 0.965944; 0.258750;,
         0.000000; 0.965944; 0.258750;,
        -0.997413; 0.000000;-0.071886;,
        -0.997413; 0.000000;-0.071886;,
        -0.997413; 0.000000;-0.071886;,
        -0.997413; 0.000000;-0.071886;,
         0.000000;-0.969059;-0.246828;,
         0.000000;-0.969059;-0.246828;,
         0.000000;-0.969059;-0.246828;,
         0.000000;-0.969059;-0.246828;,
         0.995122; 0.000000; 0.098651;,
         0.995122; 0.000000; 0.098651;,
         0.995122; 0.000000; 0.098651;,
         0.995122; 0.000000; 0.098651;,
         0.998969; 0.000000; 0.045396;,
         0.998969; 0.000000; 0.045396;,
         0.998969; 0.000000; 0.045396;,
         0.998969; 0.000000; 0.045396;,
         0.000000; 0.998886; 0.047188;,
         0.000000; 0.998886; 0.047188;,
         0.000000; 0.998886; 0.047188;,
         0.000000; 0.998886; 0.047188;,
        -0.998969; 0.000000; 0.045396;,
        -0.998969; 0.000000; 0.045396;,
        -0.998969; 0.000000; 0.045396;,
        -0.998969; 0.000000; 0.045396;,
         0.000000; 0.258750; 0.965944;,
         0.000000; 0.258750; 0.965944;,
         0.000000; 0.258750; 0.965944;,
         0.000000; 0.258750; 0.965944;,
        -0.995122; 0.000000; 0.098651;,
        -0.995122; 0.000000; 0.098651;,
        -0.995122; 0.000000; 0.098651;,
        -0.995122; 0.000000; 0.098651;,
         0.000000;-0.998886; 0.047188;,
         0.000000;-0.998886; 0.047188;,
         0.000000;-0.998886; 0.047188;,
         0.000000;-0.998886; 0.047188;,
        -0.999968; 0.000000;-0.007948;,
        -0.999968; 0.000000;-0.007948;,
        -0.999968; 0.000000;-0.007948;,
        -0.999968; 0.000000;-0.007948;,
         0.000000;-0.982063; 0.188554;,
         0.000000;-0.982063; 0.188554;,
         0.000000;-0.982063; 0.188554;,
         0.000000;-0.982063; 0.188554;,
         0.999968; 0.000000;-0.007948;,
         0.999968; 0.000000;-0.007948;,
         0.999968; 0.000000;-0.007948;,
         0.999968; 0.000000;-0.007948;,
         0.000000;-0.995427;-0.095528;,
         0.000000;-0.995427;-0.095528;,
         0.000000;-0.995427;-0.095528;,
         0.000000;-0.995427;-0.095528;,
         0.000000; 0.995427;-0.095528;,
         0.000000; 0.995427;-0.095528;,
         0.000000; 0.995427;-0.095528;,
         0.000000; 0.995427;-0.095528;,
         0.000000;-0.920122; 0.391633;,
         0.000000;-0.920122; 0.391633;,
         0.000000;-0.920122; 0.391633;,
         0.000000;-0.920122; 0.391633;,
         0.000000;-0.707107; 0.707107;,
         0.000000;-0.707107; 0.707107;,
         0.000000;-0.707107; 0.707107;,
         0.000000;-0.707107; 0.707107;,
         0.000000;-0.258750; 0.965944;,
         0.000000;-0.258750; 0.965944;,
         0.000000;-0.258750; 0.965944;,
         0.000000;-0.258750; 0.965944;,
         0.000000; 0.000000; 1.000000;,
         0.000000; 0.000000; 1.000000;,
         0.000000; 0.000000; 1.000000;,
         0.000000; 0.000000; 1.000000;,
         0.000000;-0.965944; 0.258750;,
         0.000000;-0.965944; 0.258750;,
         0.000000;-0.965944; 0.258750;,
         0.000000;-0.965944; 0.258750;,
         0.000000; 0.707107; 0.707107;,
         0.000000; 0.707107; 0.707107;,
         0.000000; 0.707107; 0.707107;,
         0.000000; 0.707107; 0.707107;,
         0.997413; 0.000000;-0.071886;,
         0.997413; 0.000000;-0.071886;,
         0.997413; 0.000000;-0.071886;,
         0.997413; 0.000000;-0.071886;,
        -0.193230;-0.440702; 0.876609;,
        -0.193230;-0.440702; 0.876609;,
        -0.193230;-0.440702; 0.876609;,
        -0.193230;-0.440702; 0.876609;,
        -0.563325;-0.220561; 0.796252;,
        -0.563325;-0.220561; 0.796252;,
        -0.563325;-0.220561; 0.796252;,
        -0.563325;-0.220561; 0.796252;,
        -0.193230; 0.440702; 0.876609;,
        -0.193230; 0.440702; 0.876609;,
        -0.193230; 0.440702; 0.876609;,
        -0.193230; 0.440702; 0.876609;,
        -0.563325; 0.220561; 0.796252;,
        -0.563325; 0.220561; 0.796252;,
        -0.563325; 0.220561; 0.796252;,
        -0.563325; 0.220561; 0.796252;,
         0.193230; 0.440702; 0.876609;,
         0.193230; 0.440702; 0.876609;,
         0.193230; 0.440702; 0.876609;,
         0.193230; 0.440702; 0.876609;,
         0.563325; 0.220561; 0.796252;,
         0.563325; 0.220561; 0.796252;,
         0.563325; 0.220561; 0.796252;,
         0.563325; 0.220561; 0.796252;,
         0.193230;-0.440702; 0.876609;,
         0.193230;-0.440702; 0.876609;,
         0.193230;-0.440702; 0.876609;,
         0.193230;-0.440702; 0.876609;,
         0.563325;-0.220561; 0.796252;,
         0.563325;-0.220561; 0.796252;,
         0.563325;-0.220561; 0.796252;,
         0.563325;-0.220561; 0.796252;,
         0.401899; 0.915684; 0.000292;,
         0.401899; 0.915684; 0.000292;,
         0.401899; 0.915684; 0.000292;,
         0.401899; 0.915684; 0.000292;,
         0.931353; 0.364116; 0.000405;,
         0.931353; 0.364116; 0.000405;,
         0.931353; 0.364116; 0.000405;,
         0.931353; 0.364116; 0.000405;,
         0.401899;-0.915684; 0.000292;,
         0.401899;-0.915684; 0.000292;,
         0.401899;-0.915684; 0.000292;,
         0.401899;-0.915684; 0.000292;,
         0.931353;-0.364116; 0.000405;,
         0.931353;-0.364116; 0.000405;,
         0.931353;-0.364116; 0.000405;,
         0.931353;-0.364116; 0.000405;,
        -0.931353; 0.364116; 0.000405;,
        -0.931353; 0.364116; 0.000405;,
        -0.931353; 0.364116; 0.000405;,
        -0.931353; 0.364116; 0.000405;,
        -0.401899; 0.915684; 0.000292;,
        -0.401899; 0.915684; 0.000292;,
        -0.401899; 0.915684; 0.000292;,
        -0.401899; 0.915684; 0.000292;,
        -0.931353;-0.364116; 0.000405;,
        -0.931353;-0.364116; 0.000405;,
        -0.931353;-0.364116; 0.000405;,
        -0.931353;-0.364116; 0.000405;,
        -0.401899;-0.915684; 0.000292;,
        -0.401899;-0.915684; 0.000292;,
        -0.401899;-0.915684; 0.000292;,
        -0.401899;-0.915684; 0.000292;,
        -0.917647; 0.364807; 0.157606;,
        -0.917647; 0.364807; 0.157606;,
        -0.917647; 0.364807; 0.157606;,
        -0.917647; 0.364807; 0.157606;,
        -0.387825; 0.897848; 0.208470;,
        -0.387825; 0.897848; 0.208470;,
        -0.387825; 0.897848; 0.208470;,
        -0.387825; 0.897848; 0.208470;,
         0.917647; 0.364807; 0.157606;,
         0.917647; 0.364807; 0.157606;,
         0.917647; 0.364807; 0.157606;,
         0.917647; 0.364807; 0.157606;,
         0.387825; 0.897848; 0.208470;,
         0.387825; 0.897848; 0.208470;,
         0.387825; 0.897848; 0.208470;,
         0.387825; 0.897848; 0.208470;,
        -0.926977; 0.370697; 0.057423;,
        -0.926977; 0.370697; 0.057423;,
        -0.926977; 0.370697; 0.057423;,
        -0.926977; 0.370697; 0.057423;,
        -0.393611; 0.917353; 0.059438;,
        -0.393611; 0.917353; 0.059438;,
        -0.393611; 0.917353; 0.059438;,
        -0.393611; 0.917353; 0.059438;,
         0.926977; 0.370697; 0.057423;,
         0.926977; 0.370697; 0.057423;,
         0.926977; 0.370697; 0.057423;,
         0.926977; 0.370697; 0.057423;,
         0.393611; 0.917353; 0.059438;,
         0.393611; 0.917353; 0.059438;,
         0.393611; 0.917353; 0.059438;,
         0.393611; 0.917353; 0.059438;,
        -0.927135; 0.372086;-0.044418;,
        -0.927135; 0.372086;-0.044418;,
        -0.927135; 0.372086;-0.044418;,
        -0.927135; 0.372086;-0.044418;,
        -0.391292; 0.915645;-0.092117;,
        -0.391292; 0.915645;-0.092117;,
        -0.391292; 0.915645;-0.092117;,
        -0.391292; 0.915645;-0.092117;,
         0.927135; 0.372086;-0.044418;,
         0.927135; 0.372086;-0.044418;,
         0.927135; 0.372086;-0.044418;,
         0.927135; 0.372086;-0.044418;,
         0.391292; 0.915645;-0.092117;,
         0.391292; 0.915645;-0.092117;,
         0.391292; 0.915645;-0.092117;,
         0.391292; 0.915645;-0.092117;,
        -0.387825;-0.897848; 0.208470;,
        -0.387825;-0.897848; 0.208470;,
        -0.387825;-0.897848; 0.208470;,
        -0.387825;-0.897848; 0.208470;,
        -0.917647;-0.364807; 0.157606;,
        -0.917647;-0.364807; 0.157606;,
        -0.917647;-0.364807; 0.157606;,
        -0.917647;-0.364807; 0.157606;,
        -0.393611;-0.917353; 0.059438;,
        -0.393612;-0.917353; 0.059438;,
        -0.393611;-0.917353; 0.059438;,
        -0.393611;-0.917353; 0.059438;,
        -0.926977;-0.370697; 0.057423;,
        -0.926977;-0.370697; 0.057423;,
        -0.926977;-0.370697; 0.057423;,
        -0.926977;-0.370697; 0.057423;,
        -0.391292;-0.915645;-0.092117;,
        -0.391292;-0.915645;-0.092117;,
        -0.391292;-0.915645;-0.092117;,
        -0.391292;-0.915645;-0.092117;,
        -0.927135;-0.372086;-0.044418;,
        -0.927135;-0.372086;-0.044418;,
        -0.927135;-0.372086;-0.044418;,
        -0.927135;-0.372086;-0.044418;,
         0.917647;-0.364807; 0.157606;,
         0.917647;-0.364807; 0.157606;,
         0.917647;-0.364807; 0.157606;,
         0.917647;-0.364807; 0.157606;,
         0.387825;-0.897848; 0.208470;,
         0.387825;-0.897848; 0.208470;,
         0.387825;-0.897848; 0.208470;,
         0.387825;-0.897848; 0.208470;,
         0.926977;-0.370697; 0.057423;,
         0.926977;-0.370697; 0.057423;,
         0.926977;-0.370697; 0.057423;,
         0.926977;-0.370697; 0.057423;,
         0.393611;-0.917353; 0.059438;,
         0.393611;-0.917353; 0.059438;,
         0.393611;-0.917353; 0.059438;,
         0.393611;-0.917353; 0.059438;,
         0.927135;-0.372086;-0.044418;,
         0.927135;-0.372086;-0.044418;,
         0.927135;-0.372086;-0.044418;,
         0.927135;-0.372086;-0.044418;,
         0.391292;-0.915645;-0.092117;,
         0.391292;-0.915645;-0.092117;,
         0.391292;-0.915645;-0.092117;,
         0.391292;-0.915645;-0.092117;,
        -0.881822; 0.347628; 0.318660;,
        -0.881822; 0.347628; 0.318660;,
        -0.881822; 0.347628; 0.318660;,
        -0.881822; 0.347628; 0.318660;,
        -0.361854; 0.830973; 0.422547;,
        -0.361854; 0.830973; 0.422547;,
        -0.361854; 0.830973; 0.422547;,
        -0.361854; 0.830973; 0.422547;,
         0.881822; 0.347629; 0.318660;,
         0.881822; 0.347629; 0.318660;,
         0.881822; 0.347629; 0.318660;,
         0.881822; 0.347629; 0.318660;,
         0.361854; 0.830973; 0.422547;,
         0.361854; 0.830973; 0.422547;,
         0.361854; 0.830973; 0.422547;,
         0.361854; 0.830973; 0.422547;,
         0.379494; 0.889561;-0.254294;,
         0.379494; 0.889561;-0.254294;,
         0.379494; 0.889561;-0.254294;,
         0.379494; 0.889561;-0.254294;,
         0.915751; 0.368368;-0.160329;,
         0.915751; 0.368368;-0.160329;,
         0.915751; 0.368368;-0.160329;,
         0.915751; 0.368368;-0.160329;,
         0.379494;-0.889561;-0.254294;,
         0.379494;-0.889561;-0.254294;,
         0.379494;-0.889561;-0.254294;,
         0.379494;-0.889561;-0.254294;,
         0.915751;-0.368368;-0.160329;,
         0.915751;-0.368368;-0.160329;,
         0.915751;-0.368368;-0.160329;,
         0.915751;-0.368368;-0.160329;,
         0.361854;-0.830973; 0.422547;,
         0.361854;-0.830973; 0.422547;,
         0.361854;-0.830973; 0.422547;,
         0.361854;-0.830973; 0.422547;,
         0.881822;-0.347629; 0.318660;,
         0.881822;-0.347629; 0.318660;,
         0.881822;-0.347629; 0.318660;,
         0.881822;-0.347629; 0.318660;,
        -0.915751; 0.368368;-0.160329;,
        -0.915751; 0.368368;-0.160329;,
        -0.915751; 0.368368;-0.160329;,
        -0.915751; 0.368368;-0.160329;,
        -0.379494; 0.889561;-0.254294;,
        -0.379494; 0.889561;-0.254294;,
        -0.379494; 0.889561;-0.254294;,
        -0.379494; 0.889561;-0.254294;,
        -0.881822;-0.347629; 0.318660;,
        -0.881822;-0.347629; 0.318660;,
        -0.881822;-0.347629; 0.318660;,
        -0.881822;-0.347629; 0.318660;,
        -0.361854;-0.830973; 0.422547;,
        -0.361854;-0.830973; 0.422547;,
        -0.361854;-0.830973; 0.422547;,
        -0.361854;-0.830973; 0.422547;,
        -0.915751;-0.368368;-0.160329;,
        -0.915751;-0.368368;-0.160329;,
        -0.915751;-0.368368;-0.160329;,
        -0.915751;-0.368368;-0.160329;,
        -0.379494;-0.889561;-0.254294;,
        -0.379494;-0.889561;-0.254294;,
        -0.379494;-0.889561;-0.254294;,
        -0.379494;-0.889561;-0.254294;,
        -0.927695;-0.099707; 0.359777;,
        -0.927695;-0.099707; 0.359778;,
        -0.927695;-0.099707; 0.359778;,
        -0.927695;-0.099707; 0.359777;,
        -0.383618;-0.240434; 0.891644;,
        -0.383618;-0.240434; 0.891644;,
        -0.383618;-0.240434; 0.891644;,
        -0.383618;-0.240434; 0.891644;,
         0.927695;-0.099707; 0.359778;,
         0.927695;-0.099707; 0.359777;,
         0.927695;-0.099707; 0.359777;,
         0.927695;-0.099707; 0.359778;,
         0.383618;-0.240434; 0.891644;,
         0.383618;-0.240434; 0.891644;,
         0.383618;-0.240434; 0.891644;,
         0.383618;-0.240434; 0.891644;,
        -0.926439;-0.272663; 0.259548;,
        -0.926439;-0.272663; 0.259548;,
        -0.926439;-0.272663; 0.259548;,
        -0.926439;-0.272663; 0.259548;,
        -0.383150;-0.655870; 0.650408;,
        -0.383150;-0.655870; 0.650408;,
        -0.383150;-0.655870; 0.650408;,
        -0.383150;-0.655870; 0.650408;,
         0.926439;-0.272663; 0.259548;,
         0.926439;-0.272663; 0.259548;,
         0.926439;-0.272663; 0.259548;,
         0.926439;-0.272663; 0.259548;,
         0.383149;-0.655870; 0.650409;,
         0.383149;-0.655870; 0.650409;,
         0.383149;-0.655870; 0.650409;,
         0.383149;-0.655870; 0.650409;,
        -0.924389;-0.371412; 0.086933;,
        -0.924389;-0.371412; 0.086933;,
        -0.924389;-0.371412; 0.086933;,
        -0.924389;-0.371412; 0.086933;,
        -0.382249;-0.893942; 0.233994;,
        -0.382249;-0.893942; 0.233994;,
        -0.382249;-0.893942; 0.233994;,
        -0.382249;-0.893942; 0.233994;,
         0.924389;-0.371412; 0.086933;,
         0.924389;-0.371412; 0.086933;,
         0.924389;-0.371412; 0.086933;,
         0.924389;-0.371412; 0.086933;,
         0.382249;-0.893942; 0.233994;,
         0.382249;-0.893942; 0.233994;,
         0.382249;-0.893942; 0.233994;,
         0.382249;-0.893942; 0.233994;,
         0.927695; 0.099707; 0.359777;,
         0.927695; 0.099707; 0.359778;,
         0.927695; 0.099707; 0.359778;,
         0.927695; 0.099707; 0.359777;,
         0.383618; 0.240434; 0.891644;,
         0.383618; 0.240434; 0.891644;,
         0.383618; 0.240434; 0.891644;,
         0.383618; 0.240434; 0.891644;,
        -0.927695; 0.099707; 0.359778;,
        -0.927695; 0.099707; 0.359777;,
        -0.927695; 0.099707; 0.359777;,
        -0.927695; 0.099707; 0.359778;,
        -0.383618; 0.240434; 0.891644;,
        -0.383618; 0.240434; 0.891644;,
        -0.383618; 0.240434; 0.891644;,
        -0.383618; 0.240434; 0.891644;,
         0.926439; 0.272663; 0.259548;,
         0.926439; 0.272663; 0.259548;,
         0.926439; 0.272663; 0.259548;,
         0.926439; 0.272663; 0.259548;,
         0.383150; 0.655870; 0.650408;,
         0.383150; 0.655870; 0.650408;,
         0.383150; 0.655870; 0.650408;,
         0.383150; 0.655870; 0.650408;,
        -0.926439; 0.272663; 0.259548;,
        -0.926439; 0.272663; 0.259548;,
        -0.926439; 0.272663; 0.259548;,
        -0.926439; 0.272663; 0.259548;,
        -0.383149; 0.655870; 0.650409;,
        -0.383149; 0.655870; 0.650409;,
        -0.383149; 0.655870; 0.650409;,
        -0.383149; 0.655870; 0.650409;,
         0.924389; 0.371412; 0.086933;,
         0.924389; 0.371412; 0.086933;,
         0.924389; 0.371412; 0.086933;,
         0.924389; 0.371412; 0.086933;,
         0.382249; 0.893942; 0.233994;,
         0.382249; 0.893942; 0.233994;,
         0.382249; 0.893942; 0.233994;,
         0.382249; 0.893942; 0.233994;,
        -0.924389; 0.371412; 0.086933;,
        -0.924389; 0.371412; 0.086933;,
        -0.924389; 0.371412; 0.086933;,
        -0.924389; 0.371412; 0.086933;,
        -0.382249; 0.893942; 0.233994;,
        -0.382249; 0.893942; 0.233994;,
        -0.382249; 0.893942; 0.233994;,
        -0.382249; 0.893942; 0.233994;,
         0.383520; 0.000000; 0.923533;,
         0.383520; 0.000000; 0.923533;,
         0.383520; 0.000000; 0.923533;,
         0.383520; 0.000000; 0.923533;,
         0.927932; 0.000000; 0.372750;,
         0.927932; 0.000000; 0.372750;,
         0.927932; 0.000000; 0.372750;,
         0.927932; 0.000000; 0.372750;,
         0.392180; 0.919873;-0.005285;,
         0.392180; 0.919873;-0.005285;,
         0.392180; 0.919873;-0.005285;,
         0.392180; 0.919873;-0.005285;,
         0.927539; 0.373519;-0.012460;,
         0.927539; 0.373519;-0.012460;,
         0.927539; 0.373520;-0.012460;,
         0.927539; 0.373519;-0.012460;,
         0.392180;-0.919873;-0.005285;,
         0.392180;-0.919873;-0.005285;,
         0.392180;-0.919873;-0.005285;,
         0.392180;-0.919873;-0.005285;,
         0.927539;-0.373519;-0.012460;,
         0.927539;-0.373519;-0.012460;,
         0.927539;-0.373519;-0.012460;,
         0.927539;-0.373520;-0.012460;,
        -0.927932; 0.000000; 0.372750;,
        -0.927932; 0.000000; 0.372750;,
        -0.927932; 0.000000; 0.372750;,
        -0.927932; 0.000000; 0.372750;,
        -0.383520; 0.000000; 0.923533;,
        -0.383520; 0.000000; 0.923533;,
        -0.383520; 0.000000; 0.923533;,
        -0.383520; 0.000000; 0.923533;,
        -0.927539; 0.373519;-0.012460;,
        -0.927539; 0.373520;-0.012460;,
        -0.927539; 0.373519;-0.012460;,
        -0.927539; 0.373519;-0.012460;,
        -0.392180; 0.919873;-0.005285;,
        -0.392180; 0.919873;-0.005285;,
        -0.392180; 0.919873;-0.005285;,
        -0.392180; 0.919873;-0.005285;,
        -0.927539;-0.373520;-0.012460;,
        -0.927539;-0.373519;-0.012460;,
        -0.927539;-0.373519;-0.012460;,
        -0.927539;-0.373519;-0.012460;,
        -0.392180;-0.919873;-0.005285;,
        -0.392180;-0.919873;-0.005285;,
        -0.392180;-0.919873;-0.005285;,
        -0.392180;-0.919873;-0.005285;,
         0.980897; 0.000000; 0.194528;,
         0.980897; 0.000000; 0.194528;,
         0.980897; 0.000000; 0.194528;,
         0.980897; 0.000000; 0.194528;,
         0.000000; 0.707107; 0.707107;,
         0.000000; 0.707107; 0.707107;,
         0.000000; 0.707107; 0.707107;,
         0.000000; 0.707107; 0.707107;,
         0.000000;-0.965944; 0.258750;,
         0.000000;-0.965944; 0.258750;,
         0.000000;-0.965944; 0.258750;,
         0.000000;-0.965944; 0.258750;,
         0.000000; 0.000000; 1.000000;,
         0.000000; 0.000000; 1.000000;,
         0.000000; 0.000000; 1.000000;,
         0.000000; 0.000000; 1.000000;,
         0.000000;-0.258750; 0.965944;,
         0.000000;-0.258750; 0.965944;,
         0.000000;-0.258750; 0.965944;,
         0.000000;-0.258750; 0.965944;,
         0.000000;-0.707107; 0.707107;,
         0.000000;-0.707107; 0.707107;,
         0.000000;-0.707107; 0.707107;,
         0.000000;-0.707107; 0.707107;,
         0.000000;-0.920122; 0.391633;,
         0.000000;-0.920122; 0.391633;,
         0.000000;-0.920122; 0.391633;,
         0.000000;-0.920122; 0.391633;,
         0.000000; 0.995427;-0.095528;,
         0.000000; 0.995427;-0.095528;,
         0.000000; 0.995427;-0.095528;,
         0.000000; 0.995427;-0.095528;,
         0.000000;-0.995427;-0.095528;,
         0.000000;-0.995427;-0.095528;,
         0.000000;-0.995427;-0.095528;,
         0.000000;-0.995427;-0.095528;,
         0.000000;-0.982063; 0.188554;,
         0.000000;-0.982063; 0.188554;,
         0.000000;-0.982063; 0.188554;,
         0.000000;-0.982063; 0.188554;,
         0.000000;-0.998886; 0.047188;,
         0.000000;-0.998886; 0.047188;,
         0.000000;-0.998886; 0.047188;,
         0.000000;-0.998886; 0.047188;,
         0.000000; 0.258750; 0.965944;,
         0.000000; 0.258750; 0.965944;,
         0.000000; 0.258750; 0.965944;,
         0.000000; 0.258750; 0.965944;,
         0.000000; 0.998886; 0.047188;,
         0.000000; 0.998886; 0.047188;,
         0.000000; 0.998886; 0.047188;,
         0.000000; 0.998886; 0.047188;,
         0.000000;-0.969059;-0.246828;,
         0.000000;-0.969059;-0.246828;,
         0.000000;-0.969059;-0.246828;,
         0.000000;-0.969059;-0.246828;,
         0.000000; 0.965944; 0.258750;,
         0.000000; 0.965944; 0.258750;,
         0.000000; 0.965944; 0.258750;,
         0.000000; 0.965944; 0.258750;,
         0.000000; 0.517331; 0.855786;,
         0.000000; 0.517331; 0.855786;,
         0.000000; 0.517331; 0.855786;,
         0.000000; 0.517331; 0.855786;,
         0.000000;-0.517331; 0.855786;,
         0.000000;-0.517331; 0.855786;,
         0.000000;-0.517331; 0.855786;,
         0.000000;-0.517331; 0.855786;,
         0.000002; 0.000000;-1.000000;,
         0.000002; 0.000000;-1.000000;,
         0.000002; 0.000000;-1.000000;,
         0.000000;-1.000000; 0.000000;,
         0.000000;-1.000000; 0.000000;,
         0.000000;-1.000000; 0.000000;,
         0.000000;-1.000000; 0.000000;,
         0.000000; 0.920122; 0.391633;,
         0.000000; 0.920122; 0.391633;,
         0.000000; 0.920122; 0.391633;,
         0.000000; 0.920122; 0.391633;,
         0.000000; 1.000000; 0.000000;,
         0.000000; 1.000000; 0.000000;,
         0.000000; 1.000000; 0.000000;,
         0.000000; 1.000000; 0.000000;,
         0.000000; 0.969059;-0.246828;,
         0.000000; 0.969059;-0.246828;,
         0.000000; 0.969059;-0.246828;,
         0.000000; 0.969059;-0.246828;,
         0.000000;-1.000000;-0.000000;,
         0.000000;-1.000000;-0.000000;,
         0.000000;-1.000000;-0.000000;,
         0.000000;-1.000000;-0.000000;,
         0.000000; 1.000000;-0.000000;,
         0.000000; 1.000000;-0.000000;,
         0.000000; 1.000000;-0.000000;,
         0.000000; 1.000000;-0.000000;,
         0.000000; 0.982063; 0.188554;,
         0.000000; 0.982063; 0.188554;,
         0.000000; 0.982063; 0.188554;,
         0.000000; 0.982063; 0.188554;,
         0.000000; 0.000000;-1.000000;,
         0.000000; 0.000000;-1.000000;,
         0.000000; 0.000000;-1.000000;,
         0.000001; 0.000000;-1.000000;,
         0.000001; 0.000000;-1.000000;,
         0.000001; 0.000000;-1.000000;,
         0.000000; 0.000000;-1.000000;,
         0.000000; 0.000000;-1.000000;,
         0.000000; 0.000000;-1.000000;,
        -0.000002; 0.000000;-1.000000;,
        -0.000002; 0.000000;-1.000000;,
        -0.000002; 0.000000;-1.000000;,
         0.000000; 0.000000;-1.000000;,
         0.000000; 0.000000;-1.000000;,
         0.000000; 0.000000;-1.000000;,
         0.000000; 0.000000;-1.000000;,
         0.000000; 0.000000;-1.000000;,
         0.000000; 0.000000;-1.000000;,
         0.000002; 0.000000;-1.000000;,
         0.000002; 0.000000;-1.000000;,
         0.000002; 0.000000;-1.000000;,
         0.000000; 0.000000;-1.000000;,
         0.000000; 0.000000;-1.000000;,
         0.000000; 0.000000;-1.000000;,
        -0.000001; 0.000000;-1.000000;,
        -0.000001; 0.000000;-1.000000;,
        -0.000001; 0.000000;-1.000000;,
         0.000000; 0.000000;-1.000000;,
         0.000000; 0.000000;-1.000000;,
         0.000000; 0.000000;-1.000000;;
        166;
        4;3,2,1,0;,
        10;13,12,11,10,9,8,7,6,5,4;,
        4;17,16,15,14;,
        4;21,20,19,18;,
        4;25,24,23,22;,
        4;29,28,27,26;,
        4;33,32,31,30;,
        4;37,36,35,34;,
        4;41,40,39,38;,
        4;45,44,43,42;,
        10;55,54,53,52,51,50,49,48,47,46;,
        4;59,58,57,56;,
        4;63,62,61,60;,
        3;66,65,64;,
        4;70,69,68,67;,
        4;74,73,72,71;,
        4;78,77,76,75;,
        4;82,81,80,79;,
        4;86,85,84,83;,
        4;90,89,88,87;,
        4;94,93,92,91;,
        4;98,97,96,95;,
        4;102,101,100,99;,
        4;106,105,104,103;,
        4;110,109,108,107;,
        4;114,113,112,111;,
        4;118,117,116,115;,
        4;122,121,120,119;,
        4;126,125,124,123;,
        4;130,129,128,127;,
        4;134,133,132,131;,
        4;138,137,136,135;,
        4;142,141,140,139;,
        4;146,145,144,143;,
        4;150,149,148,147;,
        4;154,153,152,151;,
        4;158,157,156,155;,
        4;162,161,160,159;,
        4;166,165,164,163;,
        4;170,169,168,167;,
        4;174,173,172,171;,
        4;178,177,176,175;,
        4;182,181,180,179;,
        4;186,185,184,183;,
        4;190,189,188,187;,
        4;194,193,192,191;,
        4;198,197,196,195;,
        4;202,201,200,199;,
        4;206,205,204,203;,
        4;210,209,208,207;,
        4;214,213,212,211;,
        4;218,217,216,215;,
        4;222,221,220,219;,
        4;226,225,224,223;,
        4;230,229,228,227;,
        4;234,233,232,231;,
        4;238,237,236,235;,
        4;242,241,240,239;,
        4;246,245,244,243;,
        4;250,249,248,247;,
        4;254,253,252,251;,
        4;258,257,256,255;,
        4;262,261,260,259;,
        4;266,265,264,263;,
        4;270,269,268,267;,
        4;274,273,272,271;,
        4;278,277,276,275;,
        4;282,281,280,279;,
        4;286,285,284,283;,
        4;290,289,288,287;,
        4;294,293,292,291;,
        4;298,297,296,295;,
        4;302,301,300,299;,
        4;306,305,304,303;,
        4;310,309,308,307;,
        4;314,313,312,311;,
        4;318,317,316,315;,
        4;322,321,320,319;,
        4;326,325,324,323;,
        4;330,329,328,327;,
        4;334,333,332,331;,
        4;338,337,336,335;,
        4;342,341,340,339;,
        4;346,345,344,343;,
        4;350,349,348,347;,
        4;354,353,352,351;,
        4;358,357,356,355;,
        4;362,361,360,359;,
        4;366,365,364,363;,
        4;370,369,368,367;,
        4;374,373,372,371;,
        4;378,377,376,375;,
        4;382,381,380,379;,
        4;386,385,384,383;,
        4;390,389,388,387;,
        4;394,393,392,391;,
        4;398,397,396,395;,
        4;402,401,400,399;,
        4;406,405,404,403;,
        4;410,409,408,407;,
        4;414,413,412,411;,
        4;418,417,416,415;,
        4;422,421,420,419;,
        4;426,425,424,423;,
        4;430,429,428,427;,
        4;434,433,432,431;,
        4;438,437,436,435;,
        4;442,441,440,439;,
        4;446,445,444,443;,
        4;450,449,448,447;,
        4;454,453,452,451;,
        4;458,457,456,455;,
        4;462,461,460,459;,
        4;466,465,464,463;,
        4;470,469,468,467;,
        4;474,473,472,471;,
        4;478,477,476,475;,
        4;482,481,480,479;,
        4;486,485,484,483;,
        4;490,489,488,487;,
        4;494,493,492,491;,
        4;498,497,496,495;,
        4;502,501,500,499;,
        4;506,505,504,503;,
        4;510,509,508,507;,
        4;514,513,512,511;,
        4;518,517,516,515;,
        4;522,521,520,519;,
        4;526,525,524,523;,
        4;530,529,528,527;,
        4;534,533,532,531;,
        4;538,537,536,535;,
        4;542,541,540,539;,
        4;546,545,544,543;,
        4;550,549,548,547;,
        4;554,553,552,551;,
        4;558,557,556,555;,
        4;562,561,560,559;,
        4;566,565,564,563;,
        4;570,569,568,567;,
        4;574,573,572,571;,
        4;578,577,576,575;,
        4;582,581,580,579;,
        4;586,585,584,583;,
        4;590,589,588,587;,
        4;594,593,592,591;,
        4;598,597,596,595;,
        4;602,601,600,599;,
        3;605,604,603;,
        4;609,608,607,606;,
        4;613,612,611,610;,
        4;617,616,615,614;,
        4;621,620,619,618;,
        4;625,624,623,622;,
        4;629,628,627,626;,
        4;633,632,631,630;,
        3;636,635,634;,
        3;639,638,637;,
        3;642,641,640;,
        3;645,644,643;,
        3;648,647,646;,
        3;651,650,649;,
        3;654,653,652;,
        3;657,656,655;,
        3;660,659,658;,
        3;663,662,661;;
      }
      MeshTextureCoords {
        664;
         0.128292; 1.515157;,
         0.121391; 1.540815;,
         0.084310; 1.531304;,
         0.096316; 1.504327;,
         0.282895; 1.249702;,
         0.284356; 1.243799;,
         0.285512; 1.242559;,
         0.287488; 1.241956;,
         0.641270; 1.211599;,
         0.639664; 1.463651;,
         0.289510; 1.434246;,
         0.287526; 1.433677;,
         0.286354; 1.432463;,
         0.284783; 1.426630;,
         0.636734; 1.587438;,
         0.279500; 1.550904;,
         0.279779; 1.522826;,
         0.652737; 1.555530;,
         0.277834; 1.486056;,
         0.635066; 1.522590;,
         0.634788; 1.550669;,
         0.261832; 1.517964;,
         0.279500; 1.550904;,
         0.201743; 1.549625;,
         0.202436; 1.524874;,
         0.279779; 1.522826;,
         0.998398; 1.600000;,
         0.998398; 1.888484;,
         0.916148; 1.888365;,
         0.916148; 1.600119;,
         0.509879; 1.131810;,
         0.463064; 1.131828;,
         0.463056; 1.049578;,
         0.509846; 1.049559;,
         0.084310; 1.531304;,
         0.047668; 1.517716;,
         0.066849; 1.488643;,
         0.096316; 1.504327;,
         0.003220; 1.908758;,
         0.003267; 1.561200;,
         0.029185; 1.589511;,
         0.028406; 1.880424;,
         0.846243; 1.209290;,
         0.886161; 1.193070;,
         0.885383; 1.483984;,
         0.845304; 1.467683;,
         0.631672; 1.823794;,
         0.630211; 1.829697;,
         0.629055; 1.830937;,
         0.627079; 1.831540;,
         0.273298; 1.861896;,
         0.274903; 1.609843;,
         0.625058; 1.639248;,
         0.627042; 1.639817;,
         0.628214; 1.641031;,
         0.629785; 1.646865;,
         0.998365; 1.490121;,
         0.998383; 1.536936;,
         0.916133; 1.536944;,
         0.916114; 1.490154;,
         0.400000; 1.131843;,
         0.111516; 1.131843;,
         0.111635; 1.049592;,
         0.399881; 1.049592;,
         0.855988; 1.625158;,
         0.884285; 1.637566;,
         0.896006; 1.667521;,
         0.041854; 1.997755;,
         0.014988; 1.964227;,
         0.046947; 1.951553;,
         0.065730; 1.980325;,
         0.911347; 1.164736;,
         0.911300; 1.512295;,
         0.885383; 1.483984;,
         0.886161; 1.193070;,
         0.872713; 1.075740;,
         0.899579; 1.109267;,
         0.867620; 1.121941;,
         0.848838; 1.093170;,
         0.259093; 1.157411;,
         0.275416; 1.189783;,
         0.256890; 1.201512;,
         0.233636; 1.172309;,
         0.641270; 1.211599;,
         0.719186; 1.221296;,
         0.718760; 1.454909;,
         0.639664; 1.463651;,
         0.635066; 1.522590;,
         0.712824; 1.523869;,
         0.712132; 1.548620;,
         0.634788; 1.550669;,
         0.110184; 1.614733;,
         0.109372; 1.855370;,
         0.068325; 1.864205;,
         0.069264; 1.605811;,
         0.156790; 1.619366;,
         0.156123; 1.851036;,
         0.109372; 1.855370;,
         0.110184; 1.614733;,
         0.167530; 1.522250;,
         0.164394; 1.547176;,
         0.121391; 1.540815;,
         0.128292; 1.515157;,
         0.757778; 1.454128;,
         0.758445; 1.222459;,
         0.805196; 1.218125;,
         0.804384; 1.458761;,
         0.211624; 1.193801;,
         0.242389; 1.217408;,
         0.232262; 1.237579;,
         0.195493; 1.220923;,
         0.804384; 1.458761;,
         0.805196; 1.218125;,
         0.846243; 1.209290;,
         0.845304; 1.467683;,
         0.747037; 1.551245;,
         0.750174; 1.526318;,
         0.793176; 1.532680;,
         0.786275; 1.558337;,
         0.718760; 1.454909;,
         0.719186; 1.221296;,
         0.758445; 1.222459;,
         0.757778; 1.454128;,
         0.786275; 1.558337;,
         0.793176; 1.532680;,
         0.830258; 1.542191;,
         0.818252; 1.569168;,
         0.195807; 1.618586;,
         0.195382; 1.852198;,
         0.156123; 1.851036;,
         0.156790; 1.619366;,
         0.712132; 1.548620;,
         0.712824; 1.523869;,
         0.750174; 1.526318;,
         0.747037; 1.551245;,
         0.202436; 1.524874;,
         0.201743; 1.549625;,
         0.164394; 1.547176;,
         0.167530; 1.522250;,
         0.830258; 1.542191;,
         0.866899; 1.555779;,
         0.847719; 1.584852;,
         0.818252; 1.569168;,
         0.680930; 1.901187;,
         0.657677; 1.871984;,
         0.672178; 1.856087;,
         0.702943; 1.879695;,
         0.702943; 1.879695;,
         0.672178; 1.856087;,
         0.682304; 1.835917;,
         0.719074; 1.852573;,
         0.195493; 1.220923;,
         0.232262; 1.237579;,
         0.234538; 1.439334;,
         0.199540; 1.456051;,
         0.655473; 1.916085;,
         0.639150; 1.883712;,
         0.657677; 1.871984;,
         0.680930; 1.901187;,
         0.233636; 1.172309;,
         0.256890; 1.201512;,
         0.242389; 1.217408;,
         0.211624; 1.193801;,
         0.273298; 1.861896;,
         0.195382; 1.852198;,
         0.195807; 1.618586;,
         0.274903; 1.609843;,
         0.880747; 1.523321;,
         0.912908; 1.542900;,
         0.899321; 1.568725;,
         0.866899; 1.555779;,
         0.885383; 1.483984;,
         0.911300; 1.512295;,
         0.912908; 1.542900;,
         0.880747; 1.523321;,
         0.912908; 1.134696;,
         0.881251; 1.154024;,
         0.867620; 1.121941;,
         0.899579; 1.109267;,
         0.911347; 1.164736;,
         0.886161; 1.193070;,
         0.881251; 1.154024;,
         0.912908; 1.134696;,
         0.033821; 1.550174;,
         0.001660; 1.530595;,
         0.015247; 1.504770;,
         0.047668; 1.517716;,
         0.029185; 1.589511;,
         0.003267; 1.561200;,
         0.001660; 1.530595;,
         0.033821; 1.550174;,
         0.001660; 1.938799;,
         0.033316; 1.919470;,
         0.046947; 1.951553;,
         0.014988; 1.964227;,
         0.003220; 1.908758;,
         0.028406; 1.880424;,
         0.033316; 1.919470;,
         0.001660; 1.938799;,
         0.916144; 1.920612;,
         0.998395; 1.920650;,
         0.998383; 1.951548;,
         0.916133; 1.951540;,
         0.916148; 1.888365;,
         0.998398; 1.888484;,
         0.998395; 1.920650;,
         0.916144; 1.920612;,
         0.998395; 1.567834;,
         0.916144; 1.567872;,
         0.916133; 1.536944;,
         0.998383; 1.536936;,
         0.998398; 1.600000;,
         0.916148; 1.600119;,
         0.916144; 1.567872;,
         0.998395; 1.567834;,
         0.432128; 1.049589;,
         0.432166; 1.131840;,
         0.400000; 1.131843;,
         0.399881; 1.049592;,
         0.463056; 1.049578;,
         0.463064; 1.131828;,
         0.432166; 1.131840;,
         0.432128; 1.049589;,
         0.079350; 1.131840;,
         0.079388; 1.049589;,
         0.111635; 1.049592;,
         0.111516; 1.131843;,
         0.048452; 1.131828;,
         0.048460; 1.049578;,
         0.079388; 1.049589;,
         0.079350; 1.131840;,
         0.801604; 1.179668;,
         0.842075; 1.169882;,
         0.846243; 1.209290;,
         0.805196; 1.218125;,
         0.794493; 1.144400;,
         0.831365; 1.135222;,
         0.842075; 1.169882;,
         0.801604; 1.179668;,
         0.073406; 1.566205;,
         0.113994; 1.576205;,
         0.110184; 1.614733;,
         0.069264; 1.605811;,
         0.084310; 1.531304;,
         0.121391; 1.540815;,
         0.113994; 1.576205;,
         0.073406; 1.566205;,
         0.755302; 1.185264;,
         0.801604; 1.179668;,
         0.805196; 1.218125;,
         0.758445; 1.222459;,
         0.751602; 1.150301;,
         0.794493; 1.144400;,
         0.801604; 1.179668;,
         0.755302; 1.185264;,
         0.113994; 1.576205;,
         0.160294; 1.582171;,
         0.156790; 1.619366;,
         0.110184; 1.614733;,
         0.121391; 1.540815;,
         0.164394; 1.547176;,
         0.160294; 1.582171;,
         0.113994; 1.576205;,
         0.715849; 1.186374;,
         0.755302; 1.185264;,
         0.758445; 1.222459;,
         0.719186; 1.221296;,
         0.714321; 1.152279;,
         0.751602; 1.150301;,
         0.755302; 1.185264;,
         0.715849; 1.186374;,
         0.160294; 1.582171;,
         0.199750; 1.583736;,
         0.195807; 1.618586;,
         0.156790; 1.619366;,
         0.164394; 1.547176;,
         0.201743; 1.549625;,
         0.199750; 1.583736;,
         0.160294; 1.582171;,
         0.800574; 1.497289;,
         0.841162; 1.507289;,
         0.830258; 1.542191;,
         0.793176; 1.532680;,
         0.804384; 1.458761;,
         0.845304; 1.467683;,
         0.841162; 1.507289;,
         0.800574; 1.497289;,
         0.754274; 1.491324;,
         0.800574; 1.497289;,
         0.793176; 1.532680;,
         0.750174; 1.526318;,
         0.757778; 1.454128;,
         0.804384; 1.458761;,
         0.800574; 1.497289;,
         0.754274; 1.491324;,
         0.714817; 1.489759;,
         0.754274; 1.491324;,
         0.750174; 1.526318;,
         0.712824; 1.523869;,
         0.718760; 1.454909;,
         0.757778; 1.454128;,
         0.754274; 1.491324;,
         0.714817; 1.489759;,
         0.112963; 1.893826;,
         0.072493; 1.903612;,
         0.068325; 1.864205;,
         0.109372; 1.855370;,
         0.120074; 1.929094;,
         0.083202; 1.938273;,
         0.072493; 1.903612;,
         0.112963; 1.893826;,
         0.159265; 1.888230;,
         0.112963; 1.893826;,
         0.109372; 1.855370;,
         0.156123; 1.851036;,
         0.162965; 1.923194;,
         0.120074; 1.929094;,
         0.112963; 1.893826;,
         0.159265; 1.888230;,
         0.198719; 1.887120;,
         0.159265; 1.888230;,
         0.156123; 1.851036;,
         0.195382; 1.852198;,
         0.200246; 1.921215;,
         0.162965; 1.923194;,
         0.159265; 1.888230;,
         0.198719; 1.887120;,
         0.842075; 1.169882;,
         0.881251; 1.154024;,
         0.886161; 1.193070;,
         0.846243; 1.209290;,
         0.831365; 1.135222;,
         0.867620; 1.121941;,
         0.881251; 1.154024;,
         0.842075; 1.169882;,
         0.033821; 1.550174;,
         0.073406; 1.566205;,
         0.069264; 1.605811;,
         0.029185; 1.589511;,
         0.047668; 1.517716;,
         0.084310; 1.531304;,
         0.073406; 1.566205;,
         0.033821; 1.550174;,
         0.278057; 1.580155;,
         0.199750; 1.583736;,
         0.201743; 1.549625;,
         0.279500; 1.550904;,
         0.274903; 1.609843;,
         0.195807; 1.618586;,
         0.199750; 1.583736;,
         0.278057; 1.580155;,
         0.198719; 1.887120;,
         0.276447; 1.891538;,
         0.277781; 1.920845;,
         0.200246; 1.921215;,
         0.195382; 1.852198;,
         0.273298; 1.861896;,
         0.276447; 1.891538;,
         0.198719; 1.887120;,
         0.033316; 1.919470;,
         0.072493; 1.903612;,
         0.083202; 1.938273;,
         0.046947; 1.951553;,
         0.028406; 1.880424;,
         0.068325; 1.864205;,
         0.072493; 1.903612;,
         0.033316; 1.919470;,
         0.638121; 1.181957;,
         0.715849; 1.186374;,
         0.719186; 1.221296;,
         0.641270; 1.211599;,
         0.636786; 1.152650;,
         0.714321; 1.152279;,
         0.715849; 1.186374;,
         0.638121; 1.181957;,
         0.880747; 1.523321;,
         0.841162; 1.507289;,
         0.845304; 1.467683;,
         0.885383; 1.483984;,
         0.866899; 1.555779;,
         0.830258; 1.542191;,
         0.841162; 1.507289;,
         0.880747; 1.523321;,
         0.714817; 1.489759;,
         0.636510; 1.493340;,
         0.639664; 1.463651;,
         0.718760; 1.454909;,
         0.712824; 1.523869;,
         0.635066; 1.522590;,
         0.636510; 1.493340;,
         0.714817; 1.489759;,
         0.265346; 1.444594;,
         0.260544; 1.430748;,
         0.284783; 1.426630;,
         0.286354; 1.432463;,
         0.245015; 1.459090;,
         0.234538; 1.439334;,
         0.260544; 1.430748;,
         0.265346; 1.444594;,
         0.656284; 1.827640;,
         0.651527; 1.841672;,
         0.630211; 1.829697;,
         0.631672; 1.823794;,
         0.682304; 1.835917;,
         0.672178; 1.856087;,
         0.651527; 1.841672;,
         0.656284; 1.827640;,
         0.274094; 1.454282;,
         0.265346; 1.444594;,
         0.286354; 1.432463;,
         0.287526; 1.433677;,
         0.259494; 1.474603;,
         0.245015; 1.459090;,
         0.265346; 1.444594;,
         0.274094; 1.454282;,
         0.651527; 1.841672;,
         0.642778; 1.851540;,
         0.629055; 1.830937;,
         0.630211; 1.829697;,
         0.672178; 1.856087;,
         0.657677; 1.871984;,
         0.642778; 1.851540;,
         0.651527; 1.841672;,
         0.286558; 1.460188;,
         0.274094; 1.454282;,
         0.287526; 1.433677;,
         0.289510; 1.434246;,
         0.277834; 1.486056;,
         0.259494; 1.474603;,
         0.274094; 1.454282;,
         0.286558; 1.460188;,
         0.642778; 1.851540;,
         0.630236; 1.857602;,
         0.627079; 1.831540;,
         0.629055; 1.830937;,
         0.657677; 1.871984;,
         0.639150; 1.883712;,
         0.630236; 1.857602;,
         0.642778; 1.851540;,
         0.649222; 1.628901;,
         0.654024; 1.642747;,
         0.629785; 1.646865;,
         0.628214; 1.641031;,
         0.669554; 1.614404;,
         0.680030; 1.634160;,
         0.654024; 1.642747;,
         0.649222; 1.628901;,
         0.258283; 1.245856;,
         0.263040; 1.231823;,
         0.284356; 1.243799;,
         0.282895; 1.249702;,
         0.232262; 1.237579;,
         0.242389; 1.217408;,
         0.263040; 1.231823;,
         0.258283; 1.245856;,
         0.640474; 1.619213;,
         0.649222; 1.628901;,
         0.628214; 1.641031;,
         0.627042; 1.639817;,
         0.655074; 1.598891;,
         0.669554; 1.614404;,
         0.649222; 1.628901;,
         0.640474; 1.619213;,
         0.263040; 1.231823;,
         0.271789; 1.221956;,
         0.285512; 1.242559;,
         0.284356; 1.243799;,
         0.242389; 1.217408;,
         0.256890; 1.201512;,
         0.271789; 1.221956;,
         0.263040; 1.231823;,
         0.628010; 1.613306;,
         0.640474; 1.619213;,
         0.627042; 1.639817;,
         0.625058; 1.639248;,
         0.636734; 1.587438;,
         0.655074; 1.598891;,
         0.640474; 1.619213;,
         0.628010; 1.613306;,
         0.271789; 1.221956;,
         0.284331; 1.215893;,
         0.287488; 1.241956;,
         0.285512; 1.242559;,
         0.256890; 1.201512;,
         0.275416; 1.189783;,
         0.284331; 1.215893;,
         0.271789; 1.221956;,
         0.656284; 1.827640;,
         0.654024; 1.642747;,
         0.680030; 1.634160;,
         0.682304; 1.835917;,
         0.631672; 1.823794;,
         0.629785; 1.646865;,
         0.654024; 1.642747;,
         0.656284; 1.827640;,
         0.628010; 1.613306;,
         0.278057; 1.580155;,
         0.279500; 1.550904;,
         0.636734; 1.587438;,
         0.625058; 1.639248;,
         0.274903; 1.609843;,
         0.278057; 1.580155;,
         0.628010; 1.613306;,
         0.276447; 1.891538;,
         0.630236; 1.857602;,
         0.639150; 1.883712;,
         0.277781; 1.920845;,
         0.273298; 1.861896;,
         0.627079; 1.831540;,
         0.630236; 1.857602;,
         0.276447; 1.891538;,
         0.260544; 1.430748;,
         0.258283; 1.245856;,
         0.282895; 1.249702;,
         0.284783; 1.426630;,
         0.234538; 1.439334;,
         0.232262; 1.237579;,
         0.258283; 1.245856;,
         0.260544; 1.430748;,
         0.284331; 1.215893;,
         0.638121; 1.181957;,
         0.641270; 1.211599;,
         0.287488; 1.241956;,
         0.275416; 1.189783;,
         0.636786; 1.152650;,
         0.638121; 1.181957;,
         0.284331; 1.215893;,
         0.636510; 1.493340;,
         0.286558; 1.460188;,
         0.289510; 1.434246;,
         0.639664; 1.463651;,
         0.635066; 1.522590;,
         0.277834; 1.486056;,
         0.286558; 1.460188;,
         0.636510; 1.493340;,
         0.068325; 1.864205;,
         0.028406; 1.880424;,
         0.029185; 1.589511;,
         0.069264; 1.605811;,
         0.655074; 1.598891;,
         0.677765; 1.570153;,
         0.699333; 1.591159;,
         0.669554; 1.614404;,
         0.277834; 1.486056;,
         0.261832; 1.517964;,
         0.236803; 1.503342;,
         0.259494; 1.474603;,
         0.680030; 1.634160;,
         0.715029; 1.617444;,
         0.719074; 1.852573;,
         0.682304; 1.835917;,
         0.245015; 1.459090;,
         0.215235; 1.482336;,
         0.199540; 1.456051;,
         0.234538; 1.439334;,
         0.259494; 1.474603;,
         0.236803; 1.503342;,
         0.215235; 1.482336;,
         0.245015; 1.459090;,
         0.094898; 1.965056;,
         0.065730; 1.980325;,
         0.046947; 1.951553;,
         0.083202; 1.938273;,
         0.714321; 1.152279;,
         0.713961; 1.127563;,
         0.748790; 1.125425;,
         0.751602; 1.150301;,
         0.200246; 1.921215;,
         0.200607; 1.945932;,
         0.165777; 1.948069;,
         0.162965; 1.923194;,
         0.120074; 1.929094;,
         0.126674; 1.954644;,
         0.094898; 1.965056;,
         0.083202; 1.938273;,
         0.162965; 1.923194;,
         0.165777; 1.948069;,
         0.126674; 1.954644;,
         0.120074; 1.929094;,
         0.669554; 1.614404;,
         0.699333; 1.591159;,
         0.715029; 1.617444;,
         0.680030; 1.634160;,
         0.751602; 1.150301;,
         0.748790; 1.125425;,
         0.787893; 1.118851;,
         0.794493; 1.144400;,
         0.277887; 1.949086;,
         0.200607; 1.945932;,
         0.200246; 1.921215;,
         0.277781; 1.920845;,
         0.636734; 1.587438;,
         0.652737; 1.555530;,
         0.677765; 1.570153;,
         0.655074; 1.598891;,
         0.015247; 1.504770;,
         0.042679; 1.470826;,
         0.066849; 1.488643;,
         0.047668; 1.517716;,
         0.899321; 1.568725;,
         0.871889; 1.602669;,
         0.847719; 1.584852;,
         0.866899; 1.555779;,
         0.722339; 1.667521;,
         0.734060; 1.637566;,
         0.762357; 1.625158;,
         0.048452; 1.131828;,
         0.001637; 1.131810;,
         0.001670; 1.049559;,
         0.048460; 1.049578;,
         0.819670; 1.108438;,
         0.848838; 1.093170;,
         0.867620; 1.121941;,
         0.831365; 1.135222;,
         0.998383; 1.951548;,
         0.998365; 1.998363;,
         0.916114; 1.998331;,
         0.916133; 1.951540;,
         0.636680; 1.124408;,
         0.713961; 1.127563;,
         0.714321; 1.152279;,
         0.636786; 1.152650;,
         0.655473; 1.916085;,
         0.277887; 1.949086;,
         0.277781; 1.920845;,
         0.639150; 1.883712;,
         0.259093; 1.157411;,
         0.636680; 1.124408;,
         0.636786; 1.152650;,
         0.275416; 1.189783;,
         0.794493; 1.144400;,
         0.787893; 1.118851;,
         0.819670; 1.108438;,
         0.831365; 1.135222;,
         0.896006; 1.667521;,
         0.809172; 1.625158;,
         0.855988; 1.625158;,
         0.896006; 1.667521;,
         0.809172; 1.998367;,
         0.809172; 1.625158;,
         0.896006; 1.956004;,
         0.855988; 1.998367;,
         0.809172; 1.998367;,
         0.896006; 1.956004;,
         0.884285; 1.985959;,
         0.855988; 1.998367;,
         0.809172; 1.998367;,
         0.896006; 1.667521;,
         0.896006; 1.956004;,
         0.809172; 1.998367;,
         0.722339; 1.956004;,
         0.722339; 1.667521;,
         0.762357; 1.998367;,
         0.734060; 1.985959;,
         0.722339; 1.956004;,
         0.762357; 1.998367;,
         0.722339; 1.956004;,
         0.809172; 1.998367;,
         0.722339; 1.667521;,
         0.809172; 1.625158;,
         0.809172; 1.998367;,
         0.722339; 1.667521;,
         0.762357; 1.625158;,
         0.809172; 1.625158;;
      }
      MeshMaterialList {
        1;
        166;
        0,
        0,
        0,
        0,
        0,
        0,
        0,
        0,
        0,
        0,
        0,
        0,
        0,
        0,
        0,
        0,
        0,
        0,
        0,
        0,
        0,
        0,
        0,
        0,
        0,
        0,
        0,
        0,
        0,
        0,
        0,
        0,
        0,
        0,
        0,
        0,
        0,
        0,
        0,
        0,
        0,
        0,
        0,
        0,
        0,
        0,
        0,
        0,
        0,
        0,
        0,
        0,
        0,
        0,
        0,
        0,
        0,
        0,
        0,
        0,
        0,
        0,
        0,
        0,
        0,
        0,
        0,
        0,
        0,
        0,
        0,
        0,
        0,
        0,
        0,
        0,
        0,
        0,
        0,
        0,
        0,
        0,
        0,
        0,
        0,
        0,
        0,
        0,
        0,
        0,
        0,
        0,
        0,
        0,
        0,
        0,
        0,
        0,
        0,
        0,
        0,
        0,
        0,
        0,
        0,
        0,
        0,
        0,
        0,
        0,
        0,
        0,
        0,
        0,
        0,
        0,
        0,
        0,
        0,
        0,
        0,
        0,
        0,
        0,
        0,
        0,
        0,
        0,
        0,
        0,
        0,
        0,
        0,
        0,
        0,
        0,
        0,
        0,
        0,
        0,
        0,
        0,
        0,
        0,
        0,
        0,
        0,
        0,
        0,
        0,
        0,
        0,
        0,
        0,
        0,
        0,
        0,
        0,
        0,
        0,
        0,
        0,
        0,
        0,
        0,
        0;
        Material Handle1_0001 {
           0.800000; 0.800000; 0.800000; 1.000000;;
           323.999994;
           0.250000; 0.250000; 0.250000;;
           0.000000; 0.000000; 0.000000;;
        }
      }
    }
  }
}
