xof 0303txt 0032

Frame Root {
  FrameTransformMatrix {
     1.000000, 0.000000, 0.000000, 0.000000,
     0.000000,-0.000000, 1.000000, 0.000000,
     0.000000, 1.000000, 0.000000, 0.000000,
     0.000000, 0.000000, 0.000000, 1.000000;;
  }
  Frame Cube {
    FrameTransformMatrix {
       1.000000, 0.000000, 0.000000, 0.000000,
       0.000000, 1.000000, 0.000000, 0.000000,
       0.000000, 0.000000, 1.000000, 0.000000,
       0.000000, 0.000000, 0.000000, 1.000000;;
    }
    Mesh {
      380;
       0.000000;-0.081256; 0.026824;,
       0.000000;-0.088978; 0.026244;,
      -0.007738;-0.085396; 0.026082;,
      -0.012210;-0.081256; 0.026824;,
      -0.012210; 0.002708; 0.029161;,
      -0.005860; 0.026286; 0.028802;,
      -0.000000; 0.032090; 0.028513;,
      -0.000000; 0.003375; 0.028276;,
       0.000000;-0.025382;-0.001052;,
      -0.000000; 0.002878; 0.008778;,
      -0.012210; 0.002708; 0.011554;,
      -0.008220;-0.023942; 0.000834;,
      -0.012210;-0.081256; 0.026824;,
      -0.012210; 0.002708; 0.029161;,
      -0.000000; 0.003375; 0.028276;,
       0.000000;-0.081256; 0.026824;,
      -0.005860; 0.020770; 0.020642;,
      -0.003957; 0.051309; 0.020021;,
      -0.003957; 0.052614; 0.028181;,
      -0.005860; 0.026286; 0.028802;,
      -0.012210; 0.002708; 0.011554;,
      -0.005860; 0.020770; 0.020642;,
      -0.005860; 0.026286; 0.028802;,
      -0.012210; 0.002708; 0.029161;,
      -0.000000; 0.002878; 0.008778;,
      -0.000000; 0.024062; 0.019617;,
      -0.005860; 0.020770; 0.020642;,
      -0.012210; 0.002708; 0.011554;,
       0.000000;-0.088431; 0.003994;,
      -0.007738;-0.085396; 0.003914;,
      -0.007738;-0.085396; 0.026082;,
       0.000000;-0.088978; 0.026244;,
      -0.012210;-0.081256; 0.002546;,
      -0.007738;-0.085396; 0.003914;,
      -0.007738;-0.082975;-0.023773;,
      -0.012210;-0.078835;-0.027250;,
      -0.012210;-0.078835;-0.027250;,
      -0.007738;-0.082975;-0.023773;,
       0.000000;-0.085464;-0.023773;,
       0.000000;-0.078835;-0.032241;,
      -0.012210;-0.075869; 0.003432;,
      -0.012210;-0.081256; 0.002546;,
      -0.012210;-0.078835;-0.027250;,
      -0.010562;-0.068900;-0.017693;,
      -0.006903;-0.028810; 0.003892;,
      -0.008220;-0.023942; 0.000834;,
      -0.012210; 0.002708; 0.011554;,
      -0.006903;-0.007493; 0.013282;,
      -0.009620;-0.010442; 0.023527;,
      -0.012210; 0.002708; 0.029161;,
      -0.012210;-0.081256; 0.026824;,
      -0.009620;-0.068106; 0.021685;,
      -0.006903;-0.007493; 0.013282;,
      -0.012210; 0.002708; 0.011554;,
      -0.012210; 0.002708; 0.029161;,
      -0.009620;-0.010442; 0.023527;,
      -0.003957; 0.052614; 0.028181;,
      -0.005136; 0.060870; 0.028436;,
      -0.000000; 0.061154; 0.028436;,
      -0.000000; 0.052820; 0.028181;,
      -0.000000; 0.024062; 0.019617;,
      -0.000000; 0.051419; 0.019786;,
      -0.003957; 0.051309; 0.020021;,
      -0.005860; 0.020770; 0.020642;,
      -0.005860; 0.026286; 0.028802;,
      -0.003957; 0.052614; 0.028181;,
      -0.000000; 0.052820; 0.028181;,
      -0.000000; 0.032090; 0.028513;,
      -0.010562;-0.068900;-0.017693;,
      -0.012210;-0.078835;-0.027250;,
      -0.008220;-0.051678;-0.012031;,
      -0.006903;-0.051070;-0.007359;,
       0.000000;-0.078835;-0.032241;,
       0.000000;-0.051051;-0.014184;,
      -0.008220;-0.051678;-0.012031;,
      -0.012210;-0.078835;-0.027250;,
      -0.009620;-0.068106; 0.021685;,
      -0.012210;-0.081256; 0.026824;,
      -0.012210;-0.081256; 0.002546;,
      -0.012210;-0.075869; 0.003432;,
      -0.012210;-0.081256; 0.026824;,
      -0.007738;-0.085396; 0.026082;,
      -0.007738;-0.085396; 0.003914;,
      -0.012210;-0.081256; 0.002546;,
       0.000000;-0.085464;-0.023773;,
      -0.007738;-0.082975;-0.023773;,
      -0.007738;-0.085396; 0.003914;,
       0.000000;-0.088431; 0.003994;,
      -0.006903;-0.051070;-0.007359;,
      -0.008220;-0.051678;-0.012031;,
      -0.008220;-0.023942; 0.000834;,
      -0.006903;-0.028810; 0.003892;,
       0.000000;-0.051051;-0.014184;,
       0.000000;-0.025382;-0.001052;,
      -0.008220;-0.023942; 0.000834;,
      -0.008220;-0.051678;-0.012031;,
      -0.005136; 0.060870; 0.028436;,
      -0.003315; 0.063901; 0.025916;,
      -0.000000; 0.064087; 0.025916;,
      -0.000000; 0.061154; 0.028436;,
      -0.003957; 0.051309; 0.020021;,
      -0.005136; 0.059069; 0.017182;,
      -0.005136; 0.060870; 0.028436;,
      -0.003957; 0.052614; 0.028181;,
      -0.000000; 0.051419; 0.019786;,
      -0.000000; 0.059221; 0.016857;,
      -0.005136; 0.059069; 0.017182;,
      -0.003957; 0.051309; 0.020021;,
      -0.003315; 0.062725; 0.018565;,
      -0.000000; 0.062824; 0.018353;,
      -0.000000; 0.064087; 0.025916;,
      -0.003315; 0.063901; 0.025916;,
      -0.005136; 0.059069; 0.017182;,
      -0.003315; 0.062725; 0.018565;,
      -0.003315; 0.063901; 0.025916;,
      -0.005136; 0.060870; 0.028436;,
      -0.000000; 0.059221; 0.016857;,
      -0.000000; 0.062824; 0.018353;,
      -0.003315; 0.062725; 0.018565;,
      -0.005136; 0.059069; 0.017182;,
       0.000000;-0.081256; 0.026824;,
       0.012210;-0.081256; 0.026824;,
       0.007738;-0.085396; 0.026082;,
       0.000000;-0.088978; 0.026244;,
       0.012210; 0.002708; 0.029161;,
      -0.000000; 0.003375; 0.028276;,
      -0.000000; 0.032090; 0.028513;,
       0.005860; 0.026286; 0.028802;,
       0.000000;-0.025382;-0.001052;,
       0.008220;-0.023942; 0.000834;,
       0.012210; 0.002708; 0.011554;,
      -0.000000; 0.002878; 0.008778;,
       0.012210;-0.081256; 0.026824;,
       0.000000;-0.081256; 0.026824;,
      -0.000000; 0.003375; 0.028276;,
       0.012210; 0.002708; 0.029161;,
       0.005860; 0.020770; 0.020642;,
       0.005860; 0.026286; 0.028802;,
       0.003957; 0.052614; 0.028181;,
       0.003957; 0.051309; 0.020021;,
       0.012210; 0.002708; 0.011554;,
       0.012210; 0.002708; 0.029161;,
       0.005860; 0.026286; 0.028802;,
       0.005860; 0.020770; 0.020642;,
      -0.000000; 0.002878; 0.008778;,
       0.012210; 0.002708; 0.011554;,
       0.005860; 0.020770; 0.020642;,
      -0.000000; 0.024062; 0.019617;,
       0.000000;-0.088431; 0.003994;,
       0.000000;-0.088978; 0.026244;,
       0.007738;-0.085396; 0.026082;,
       0.007738;-0.085396; 0.003914;,
       0.012210;-0.081256; 0.002546;,
       0.012210;-0.078835;-0.027250;,
       0.007738;-0.082975;-0.023773;,
       0.007738;-0.085396; 0.003914;,
       0.012210;-0.078835;-0.027250;,
       0.000000;-0.078835;-0.032241;,
       0.000000;-0.085464;-0.023773;,
       0.007738;-0.082975;-0.023773;,
       0.012210;-0.075869; 0.003432;,
       0.010562;-0.068900;-0.017693;,
       0.012210;-0.078835;-0.027250;,
       0.012210;-0.081256; 0.002546;,
       0.006903;-0.028810; 0.003892;,
       0.006903;-0.007493; 0.013282;,
       0.012210; 0.002708; 0.011554;,
       0.008220;-0.023942; 0.000834;,
       0.009620;-0.010442; 0.023527;,
       0.009620;-0.068106; 0.021685;,
       0.012210;-0.081256; 0.026824;,
       0.012210; 0.002708; 0.029161;,
       0.006903;-0.007493; 0.013282;,
       0.009620;-0.010442; 0.023527;,
       0.012210; 0.002708; 0.029161;,
       0.012210; 0.002708; 0.011554;,
       0.003957; 0.052614; 0.028181;,
      -0.000000; 0.052820; 0.028181;,
      -0.000000; 0.061154; 0.028436;,
       0.005136; 0.060870; 0.028436;,
      -0.000000; 0.024062; 0.019617;,
       0.005860; 0.020770; 0.020642;,
       0.003957; 0.051309; 0.020021;,
      -0.000000; 0.051419; 0.019786;,
       0.005860; 0.026286; 0.028802;,
      -0.000000; 0.032090; 0.028513;,
      -0.000000; 0.052820; 0.028181;,
       0.003957; 0.052614; 0.028181;,
       0.010562;-0.068900;-0.017693;,
       0.006903;-0.051070;-0.007359;,
       0.008220;-0.051678;-0.012031;,
       0.012210;-0.078835;-0.027250;,
       0.000000;-0.078835;-0.032241;,
       0.012210;-0.078835;-0.027250;,
       0.008220;-0.051678;-0.012031;,
       0.000000;-0.051051;-0.014184;,
       0.009620;-0.068106; 0.021685;,
       0.012210;-0.075869; 0.003432;,
       0.012210;-0.081256; 0.002546;,
       0.012210;-0.081256; 0.026824;,
       0.012210;-0.081256; 0.026824;,
       0.012210;-0.081256; 0.002546;,
       0.007738;-0.085396; 0.003914;,
       0.007738;-0.085396; 0.026082;,
       0.000000;-0.085464;-0.023773;,
       0.000000;-0.088431; 0.003994;,
       0.007738;-0.085396; 0.003914;,
       0.007738;-0.082975;-0.023773;,
       0.006903;-0.051070;-0.007359;,
       0.006903;-0.028810; 0.003892;,
       0.008220;-0.023942; 0.000834;,
       0.008220;-0.051678;-0.012031;,
       0.000000;-0.051051;-0.014184;,
       0.008220;-0.051678;-0.012031;,
       0.008220;-0.023942; 0.000834;,
       0.000000;-0.025382;-0.001052;,
       0.005136; 0.060870; 0.028436;,
      -0.000000; 0.061154; 0.028436;,
      -0.000000; 0.064087; 0.025916;,
       0.003315; 0.063901; 0.025916;,
       0.003957; 0.051309; 0.020021;,
       0.003957; 0.052614; 0.028181;,
       0.005136; 0.060870; 0.028436;,
       0.005136; 0.059069; 0.017182;,
      -0.000000; 0.051419; 0.019786;,
       0.003957; 0.051309; 0.020021;,
       0.005136; 0.059069; 0.017182;,
      -0.000000; 0.059221; 0.016857;,
       0.003315; 0.062725; 0.018565;,
       0.003315; 0.063901; 0.025916;,
      -0.000000; 0.064087; 0.025916;,
      -0.000000; 0.062824; 0.018353;,
       0.005136; 0.059069; 0.017182;,
       0.005136; 0.060870; 0.028436;,
       0.003315; 0.063901; 0.025916;,
       0.003315; 0.062725; 0.018565;,
      -0.000000; 0.059221; 0.016857;,
       0.005136; 0.059069; 0.017182;,
       0.003315; 0.062725; 0.018565;,
      -0.000000; 0.062824; 0.018353;,
      -0.006903;-0.028810; 0.003892;,
      -0.006903;-0.007493; 0.013282;,
       0.006903;-0.007493; 0.013282;,
       0.006903;-0.028810; 0.003892;,
      -0.006903;-0.051070;-0.007359;,
      -0.006903;-0.028810; 0.003892;,
       0.006903;-0.028810; 0.003892;,
       0.006903;-0.051070;-0.007359;,
      -0.010562;-0.068900;-0.017693;,
      -0.006903;-0.051070;-0.007359;,
       0.006903;-0.051070;-0.007359;,
       0.010562;-0.068900;-0.017693;,
      -0.010562;-0.068900;-0.017693;,
       0.010562;-0.068900;-0.017693;,
       0.012210;-0.075869; 0.003432;,
      -0.012210;-0.075869; 0.003432;,
      -0.012210;-0.075869; 0.003432;,
       0.012210;-0.075869; 0.003432;,
       0.009620;-0.068106; 0.021685;,
      -0.009620;-0.068106; 0.021685;,
      -0.009620;-0.010442; 0.023527;,
      -0.009620;-0.068106; 0.021685;,
       0.009620;-0.068106; 0.021685;,
       0.009620;-0.010442; 0.023527;,
      -0.006903;-0.007493; 0.013282;,
      -0.009620;-0.010442; 0.023527;,
       0.009620;-0.010442; 0.023527;,
       0.006903;-0.007493; 0.013282;,
      -0.000000; 0.043297;-0.007335;,
      -0.003571; 0.044776;-0.007335;,
      -0.003571; 0.044776;-0.003159;,
      -0.000000; 0.043297;-0.003159;,
      -0.003571; 0.044776;-0.007335;,
      -0.005050; 0.048347;-0.007335;,
      -0.005050; 0.048347;-0.003159;,
      -0.003571; 0.044776;-0.003159;,
      -0.005050; 0.048347;-0.007335;,
      -0.003571; 0.051919;-0.007335;,
      -0.003571; 0.051919;-0.003159;,
      -0.005050; 0.048347;-0.003159;,
      -0.003571; 0.051919;-0.007335;,
      -0.000000; 0.053398;-0.007335;,
      -0.000000; 0.053398;-0.003159;,
      -0.003571; 0.051919;-0.003159;,
      -0.000000; 0.053398;-0.007335;,
       0.003571; 0.051919;-0.007335;,
       0.003571; 0.051919;-0.003159;,
      -0.000000; 0.053398;-0.003159;,
       0.003571; 0.051919;-0.007335;,
       0.005050; 0.048347;-0.007335;,
       0.005050; 0.048347;-0.003159;,
       0.003571; 0.051919;-0.003159;,
      -0.000000; 0.052173;-0.003159;,
      -0.000000; 0.052173; 0.021123;,
      -0.002705; 0.051053; 0.021123;,
      -0.002705; 0.051053;-0.003159;,
       0.005050; 0.048347;-0.007335;,
       0.003571; 0.044776;-0.007335;,
       0.003571; 0.044776;-0.003159;,
       0.005050; 0.048347;-0.003159;,
       0.003571; 0.044776;-0.007335;,
      -0.000000; 0.043297;-0.007335;,
      -0.000000; 0.043297;-0.003159;,
       0.003571; 0.044776;-0.003159;,
      -0.000000; 0.043297;-0.007335;,
       0.003571; 0.044776;-0.007335;,
       0.005050; 0.048347;-0.007335;,
       0.003571; 0.051919;-0.007335;,
      -0.000000; 0.053398;-0.007335;,
      -0.003571; 0.051919;-0.007335;,
      -0.005050; 0.048347;-0.007335;,
      -0.003571; 0.044776;-0.007335;,
      -0.000000; 0.044522;-0.003159;,
      -0.000000; 0.043297;-0.003159;,
      -0.003571; 0.044776;-0.003159;,
      -0.002705; 0.045642;-0.003159;,
      -0.002705; 0.045642;-0.003159;,
      -0.003571; 0.044776;-0.003159;,
      -0.005050; 0.048347;-0.003159;,
      -0.003826; 0.048347;-0.003159;,
      -0.003826; 0.048347;-0.003159;,
      -0.005050; 0.048347;-0.003159;,
      -0.003571; 0.051919;-0.003159;,
      -0.002705; 0.051053;-0.003159;,
      -0.002705; 0.051053;-0.003159;,
      -0.003571; 0.051919;-0.003159;,
      -0.000000; 0.053398;-0.003159;,
      -0.000000; 0.052173;-0.003159;,
      -0.000000; 0.052173;-0.003159;,
      -0.000000; 0.053398;-0.003159;,
       0.003571; 0.051919;-0.003159;,
       0.002705; 0.051053;-0.003159;,
       0.002705; 0.051053;-0.003159;,
       0.003571; 0.051919;-0.003159;,
       0.005050; 0.048347;-0.003159;,
       0.003826; 0.048347;-0.003159;,
       0.003826; 0.048347;-0.003159;,
       0.005050; 0.048347;-0.003159;,
       0.003571; 0.044776;-0.003159;,
       0.002705; 0.045642;-0.003159;,
       0.002705; 0.045642;-0.003159;,
       0.003571; 0.044776;-0.003159;,
      -0.000000; 0.043297;-0.003159;,
      -0.000000; 0.044522;-0.003159;,
      -0.002705; 0.045642; 0.021123;,
      -0.003826; 0.048347; 0.021123;,
      -0.002705; 0.051053; 0.021123;,
      -0.000000; 0.052173; 0.021123;,
       0.002705; 0.051053; 0.021123;,
       0.003826; 0.048347; 0.021123;,
       0.002705; 0.045642; 0.021123;,
      -0.000000; 0.044522; 0.021123;,
      -0.003826; 0.048347;-0.003159;,
      -0.003826; 0.048347; 0.021123;,
      -0.002705; 0.045642; 0.021123;,
      -0.002705; 0.045642;-0.003159;,
       0.002705; 0.045642;-0.003159;,
       0.002705; 0.045642; 0.021123;,
       0.003826; 0.048347; 0.021123;,
       0.003826; 0.048347;-0.003159;,
       0.002705; 0.051053;-0.003159;,
       0.002705; 0.051053; 0.021123;,
      -0.000000; 0.052173; 0.021123;,
      -0.000000; 0.052173;-0.003159;,
      -0.002705; 0.051053;-0.003159;,
      -0.002705; 0.051053; 0.021123;,
      -0.003826; 0.048347; 0.021123;,
      -0.003826; 0.048347;-0.003159;,
      -0.002705; 0.045642;-0.003159;,
      -0.002705; 0.045642; 0.021123;,
      -0.000000; 0.044522; 0.021123;,
      -0.000000; 0.044522;-0.003159;,
      -0.000000; 0.044522;-0.003159;,
      -0.000000; 0.044522; 0.021123;,
       0.002705; 0.045642; 0.021123;,
       0.002705; 0.045642;-0.003159;,
       0.003826; 0.048347;-0.003159;,
       0.003826; 0.048347; 0.021123;,
       0.002705; 0.051053; 0.021123;,
       0.002705; 0.051053;-0.003159;;
      93;
      4;3,2,1,0;,
      4;7,6,5,4;,
      4;11,10,9,8;,
      4;15,14,13,12;,
      4;19,18,17,16;,
      4;23,22,21,20;,
      4;27,26,25,24;,
      4;31,30,29,28;,
      4;35,34,33,32;,
      4;39,38,37,36;,
      4;43,42,41,40;,
      4;47,46,45,44;,
      4;51,50,49,48;,
      4;55,54,53,52;,
      4;59,58,57,56;,
      4;63,62,61,60;,
      4;67,66,65,64;,
      4;71,70,69,68;,
      4;75,74,73,72;,
      4;79,78,77,76;,
      4;83,82,81,80;,
      4;87,86,85,84;,
      4;91,90,89,88;,
      4;95,94,93,92;,
      4;99,98,97,96;,
      4;103,102,101,100;,
      4;107,106,105,104;,
      4;111,110,109,108;,
      4;115,114,113,112;,
      4;119,118,117,116;,
      4;123,122,121,120;,
      4;127,126,125,124;,
      4;131,130,129,128;,
      4;135,134,133,132;,
      4;139,138,137,136;,
      4;143,142,141,140;,
      4;147,146,145,144;,
      4;151,150,149,148;,
      4;155,154,153,152;,
      4;159,158,157,156;,
      4;163,162,161,160;,
      4;167,166,165,164;,
      4;171,170,169,168;,
      4;175,174,173,172;,
      4;179,178,177,176;,
      4;183,182,181,180;,
      4;187,186,185,184;,
      4;191,190,189,188;,
      4;195,194,193,192;,
      4;199,198,197,196;,
      4;203,202,201,200;,
      4;207,206,205,204;,
      4;211,210,209,208;,
      4;215,214,213,212;,
      4;219,218,217,216;,
      4;223,222,221,220;,
      4;227,226,225,224;,
      4;231,230,229,228;,
      4;235,234,233,232;,
      4;239,238,237,236;,
      4;243,242,241,240;,
      4;247,246,245,244;,
      4;251,250,249,248;,
      4;255,254,253,252;,
      4;259,258,257,256;,
      4;263,262,261,260;,
      4;267,266,265,264;,
      4;271,270,269,268;,
      4;275,274,273,272;,
      4;279,278,277,276;,
      4;283,282,281,280;,
      4;287,286,285,284;,
      4;291,290,289,288;,
      4;295,294,293,292;,
      4;299,298,297,296;,
      4;303,302,301,300;,
      8;311,310,309,308,307,306,305,304;,
      4;315,314,313,312;,
      4;319,318,317,316;,
      4;323,322,321,320;,
      4;327,326,325,324;,
      4;331,330,329,328;,
      4;335,334,333,332;,
      4;339,338,337,336;,
      4;343,342,341,340;,
      8;351,350,349,348,347,346,345,344;,
      4;355,354,353,352;,
      4;359,358,357,356;,
      4;363,362,361,360;,
      4;367,366,365,364;,
      4;371,370,369,368;,
      4;375,374,373,372;,
      4;379,378,377,376;;
      MeshNormals {
        380;
        -0.000000; 0.072288;-0.997384;,
        -0.000000; 0.813230;-0.581942;,
         0.412030; 0.675171;-0.611863;,
         0.727234; 0.289698;-0.622258;,
         0.755302;-0.022238;-0.654999;,
         0.669229;-0.103046;-0.735876;,
        -0.000000;-0.013168;-0.999913;,
         0.000000; 0.013858;-0.999904;,
         0.000000;-0.396114; 0.918201;,
         0.000000;-0.410165; 0.912011;,
         0.815298;-0.194838; 0.545278;,
         0.885257;-0.134908; 0.445107;,
         0.727234; 0.289698;-0.622258;,
         0.755302;-0.022238;-0.654999;,
         0.000000; 0.013858;-0.999904;,
        -0.000000; 0.072288;-0.997384;,
         0.755835;-0.343491; 0.557430;,
         0.749932; 0.145847; 0.645238;,
         0.682941; 0.037521;-0.729509;,
         0.669229;-0.103046;-0.735876;,
         0.815298;-0.194838; 0.545278;,
         0.755835;-0.343491; 0.557430;,
         0.669229;-0.103046;-0.735876;,
         0.755302;-0.022238;-0.654999;,
         0.000000;-0.410165; 0.912011;,
        -0.000000;-0.178587; 0.983924;,
         0.755835;-0.343491; 0.557430;,
         0.815298;-0.194838; 0.545278;,
        -0.000000; 0.998532; 0.054170;,
         0.523992; 0.850782; 0.040038;,
         0.412030; 0.675171;-0.611863;,
        -0.000000; 0.813230;-0.581942;,
         0.933723; 0.357648; 0.015807;,
         0.523992; 0.850782; 0.040038;,
         0.435158; 0.848569; 0.300945;,
         0.765447; 0.200619; 0.611427;,
         0.765447; 0.200619; 0.611427;,
         0.435158; 0.848569; 0.300945;,
         0.000000; 0.934995; 0.354661;,
         0.000000; 0.145618; 0.989341;,
         0.761154;-0.648515; 0.008472;,
         0.933723; 0.357648; 0.015807;,
         0.765447; 0.200619; 0.611427;,
         0.888750;-0.246874;-0.386235;,
         0.562522; 0.362026;-0.743307;,
         0.885257;-0.134908; 0.445107;,
         0.815298;-0.194838; 0.545278;,
         0.698479; 0.643253;-0.313612;,
         0.738534; 0.306818; 0.600359;,
         0.755302;-0.022238;-0.654999;,
         0.727234; 0.289698;-0.622258;,
         0.715580;-0.340277; 0.610047;,
         0.698479; 0.643253;-0.313612;,
         0.815298;-0.194838; 0.545278;,
         0.755302;-0.022238;-0.654999;,
         0.738534; 0.306818; 0.600359;,
         0.682941; 0.037521;-0.729509;,
         0.692130;-0.286966;-0.662274;,
         0.000000;-0.344410;-0.938819;,
         0.000000; 0.006386;-0.999980;,
        -0.000000;-0.178587; 0.983924;,
        -0.000000; 0.184720; 0.982791;,
         0.749932; 0.145847; 0.645238;,
         0.755835;-0.343491; 0.557430;,
         0.669229;-0.103046;-0.735876;,
         0.682941; 0.037521;-0.729509;,
         0.000000; 0.006386;-0.999980;,
        -0.000000;-0.013168;-0.999913;,
         0.888750;-0.246874;-0.386235;,
         0.765447; 0.200619; 0.611427;,
         0.828909;-0.331810; 0.450346;,
         0.591408; 0.356815;-0.723132;,
         0.000000; 0.145618; 0.989341;,
         0.000000;-0.488130; 0.872771;,
         0.828909;-0.331810; 0.450346;,
         0.765447; 0.200619; 0.611427;,
         0.715580;-0.340277; 0.610047;,
         0.727234; 0.289698;-0.622258;,
         0.933723; 0.357648; 0.015807;,
         0.761154;-0.648515; 0.008472;,
         0.727234; 0.289698;-0.622258;,
         0.412030; 0.675171;-0.611863;,
         0.523992; 0.850782; 0.040038;,
         0.933723; 0.357648; 0.015807;,
         0.000000; 0.934995; 0.354661;,
         0.435158; 0.848569; 0.300945;,
         0.523992; 0.850782; 0.040038;,
        -0.000000; 0.998532; 0.054170;,
         0.591408; 0.356815;-0.723132;,
         0.828909;-0.331810; 0.450346;,
         0.885257;-0.134908; 0.445107;,
         0.562522; 0.362026;-0.743307;,
         0.000000;-0.488130; 0.872771;,
         0.000000;-0.396114; 0.918201;,
         0.885257;-0.134908; 0.445107;,
         0.828909;-0.331810; 0.450346;,
         0.692130;-0.286966;-0.662274;,
         0.438143;-0.861718;-0.255877;,
         0.000000;-0.941595;-0.336748;,
         0.000000;-0.344410;-0.938819;,
         0.749932; 0.145847; 0.645238;,
         0.707234;-0.066564; 0.703839;,
         0.692130;-0.286966;-0.662274;,
         0.682941; 0.037521;-0.729509;,
        -0.000000; 0.184720; 0.982791;,
         0.000000;-0.024254; 0.999706;,
         0.707234;-0.066564; 0.703839;,
         0.749932; 0.145847; 0.645238;,
         0.447258;-0.739132; 0.503631;,
         0.000000;-0.778150; 0.628078;,
         0.000000;-0.941595;-0.336748;,
         0.438143;-0.861718;-0.255877;,
         0.707234;-0.066564; 0.703839;,
         0.447258;-0.739132; 0.503631;,
         0.438143;-0.861718;-0.255877;,
         0.692130;-0.286966;-0.662274;,
         0.000000;-0.024254; 0.999706;,
         0.000000;-0.778150; 0.628078;,
         0.447258;-0.739132; 0.503631;,
         0.707234;-0.066564; 0.703839;,
        -0.000000; 0.072288;-0.997384;,
        -0.727235; 0.289698;-0.622258;,
        -0.412030; 0.675171;-0.611863;,
        -0.000000; 0.813230;-0.581942;,
        -0.755302;-0.022238;-0.654999;,
         0.000000; 0.013858;-0.999904;,
        -0.000000;-0.013168;-0.999913;,
        -0.669229;-0.103046;-0.735876;,
         0.000000;-0.396114; 0.918201;,
        -0.885257;-0.134908; 0.445107;,
        -0.815297;-0.194838; 0.545278;,
         0.000000;-0.410165; 0.912011;,
        -0.727235; 0.289698;-0.622258;,
        -0.000000; 0.072288;-0.997384;,
         0.000000; 0.013858;-0.999904;,
        -0.755302;-0.022238;-0.654999;,
        -0.755835;-0.343491; 0.557430;,
        -0.669229;-0.103046;-0.735876;,
        -0.682941; 0.037521;-0.729509;,
        -0.749932; 0.145847; 0.645238;,
        -0.815297;-0.194838; 0.545278;,
        -0.755302;-0.022238;-0.654999;,
        -0.669229;-0.103046;-0.735876;,
        -0.755835;-0.343491; 0.557430;,
         0.000000;-0.410165; 0.912011;,
        -0.815297;-0.194838; 0.545278;,
        -0.755835;-0.343491; 0.557430;,
        -0.000000;-0.178587; 0.983924;,
        -0.000000; 0.998532; 0.054170;,
        -0.000000; 0.813230;-0.581942;,
        -0.412030; 0.675171;-0.611863;,
        -0.523992; 0.850782; 0.040038;,
        -0.933723; 0.357648; 0.015807;,
        -0.765447; 0.200619; 0.611427;,
        -0.435158; 0.848569; 0.300946;,
        -0.523992; 0.850782; 0.040038;,
        -0.765447; 0.200619; 0.611427;,
         0.000000; 0.145618; 0.989341;,
         0.000000; 0.934995; 0.354661;,
        -0.435158; 0.848569; 0.300946;,
        -0.761154;-0.648515; 0.008472;,
        -0.888750;-0.246874;-0.386234;,
        -0.765447; 0.200619; 0.611427;,
        -0.933723; 0.357648; 0.015807;,
        -0.562522; 0.362026;-0.743307;,
        -0.698480; 0.643253;-0.313612;,
        -0.815297;-0.194838; 0.545278;,
        -0.885257;-0.134908; 0.445107;,
        -0.738534; 0.306817; 0.600359;,
        -0.715580;-0.340277; 0.610046;,
        -0.727235; 0.289698;-0.622258;,
        -0.755302;-0.022238;-0.654999;,
        -0.698480; 0.643253;-0.313612;,
        -0.738534; 0.306817; 0.600359;,
        -0.755302;-0.022238;-0.654999;,
        -0.815297;-0.194838; 0.545278;,
        -0.682941; 0.037521;-0.729509;,
         0.000000; 0.006386;-0.999980;,
         0.000000;-0.344410;-0.938819;,
        -0.692130;-0.286966;-0.662274;,
        -0.000000;-0.178587; 0.983924;,
        -0.755835;-0.343491; 0.557430;,
        -0.749932; 0.145847; 0.645238;,
        -0.000000; 0.184720; 0.982791;,
        -0.669229;-0.103046;-0.735876;,
        -0.000000;-0.013168;-0.999913;,
         0.000000; 0.006386;-0.999980;,
        -0.682941; 0.037521;-0.729509;,
        -0.888750;-0.246874;-0.386234;,
        -0.591408; 0.356815;-0.723132;,
        -0.828909;-0.331811; 0.450346;,
        -0.765447; 0.200619; 0.611427;,
         0.000000; 0.145618; 0.989341;,
        -0.765447; 0.200619; 0.611427;,
        -0.828909;-0.331811; 0.450346;,
         0.000000;-0.488130; 0.872771;,
        -0.715580;-0.340277; 0.610046;,
        -0.761154;-0.648515; 0.008472;,
        -0.933723; 0.357648; 0.015807;,
        -0.727235; 0.289698;-0.622258;,
        -0.727235; 0.289698;-0.622258;,
        -0.933723; 0.357648; 0.015807;,
        -0.523992; 0.850782; 0.040038;,
        -0.412030; 0.675171;-0.611863;,
         0.000000; 0.934995; 0.354661;,
        -0.000000; 0.998532; 0.054170;,
        -0.523992; 0.850782; 0.040038;,
        -0.435158; 0.848569; 0.300946;,
        -0.591408; 0.356815;-0.723132;,
        -0.562522; 0.362026;-0.743307;,
        -0.885257;-0.134908; 0.445107;,
        -0.828909;-0.331811; 0.450346;,
         0.000000;-0.488130; 0.872771;,
        -0.828909;-0.331811; 0.450346;,
        -0.885257;-0.134908; 0.445107;,
         0.000000;-0.396114; 0.918201;,
        -0.692130;-0.286966;-0.662274;,
         0.000000;-0.344410;-0.938819;,
         0.000000;-0.941595;-0.336748;,
        -0.438142;-0.861718;-0.255877;,
        -0.749932; 0.145847; 0.645238;,
        -0.682941; 0.037521;-0.729509;,
        -0.692130;-0.286966;-0.662274;,
        -0.707234;-0.066564; 0.703839;,
        -0.000000; 0.184720; 0.982791;,
        -0.749932; 0.145847; 0.645238;,
        -0.707234;-0.066564; 0.703839;,
         0.000000;-0.024254; 0.999706;,
        -0.447258;-0.739132; 0.503632;,
        -0.438142;-0.861718;-0.255877;,
         0.000000;-0.941595;-0.336748;,
         0.000000;-0.778150; 0.628078;,
        -0.707234;-0.066564; 0.703839;,
        -0.692130;-0.286966;-0.662274;,
        -0.438142;-0.861718;-0.255877;,
        -0.447258;-0.739132; 0.503632;,
         0.000000;-0.024254; 0.999706;,
        -0.707234;-0.066564; 0.703839;,
        -0.447258;-0.739132; 0.503632;,
         0.000000;-0.778150; 0.628078;,
         0.562522; 0.362026;-0.743307;,
         0.698479; 0.643253;-0.313612;,
        -0.698480; 0.643253;-0.313612;,
        -0.562522; 0.362026;-0.743307;,
         0.591408; 0.356815;-0.723132;,
         0.562522; 0.362026;-0.743307;,
        -0.562522; 0.362026;-0.743307;,
        -0.591408; 0.356815;-0.723132;,
         0.888750;-0.246874;-0.386235;,
         0.591408; 0.356815;-0.723132;,
        -0.591408; 0.356815;-0.723132;,
        -0.888750;-0.246874;-0.386234;,
         0.888750;-0.246874;-0.386235;,
        -0.888750;-0.246874;-0.386234;,
        -0.761154;-0.648515; 0.008472;,
         0.761154;-0.648515; 0.008472;,
         0.761154;-0.648515; 0.008472;,
        -0.761154;-0.648515; 0.008472;,
        -0.715580;-0.340277; 0.610046;,
         0.715580;-0.340277; 0.610047;,
         0.738534; 0.306818; 0.600359;,
         0.715580;-0.340277; 0.610047;,
        -0.715580;-0.340277; 0.610046;,
        -0.738534; 0.306817; 0.600359;,
         0.698479; 0.643253;-0.313612;,
         0.738534; 0.306818; 0.600359;,
        -0.738534; 0.306817; 0.600359;,
        -0.698480; 0.643253;-0.313612;,
         0.000000; 0.776382; 0.630262;,
         0.548985; 0.548985; 0.630263;,
         0.548985; 0.548985;-0.630263;,
         0.000000; 0.776382;-0.630262;,
         0.548985; 0.548985; 0.630263;,
         0.776382; 0.000000; 0.630262;,
         0.776382; 0.000000;-0.630262;,
         0.548985; 0.548985;-0.630263;,
         0.776382; 0.000000; 0.630262;,
         0.548985;-0.548985; 0.630262;,
         0.548985;-0.548985;-0.630262;,
         0.776382; 0.000000;-0.630262;,
         0.548985;-0.548985; 0.630262;,
        -0.000000;-0.776382; 0.630262;,
        -0.000000;-0.776382;-0.630262;,
         0.548985;-0.548985;-0.630262;,
        -0.000000;-0.776382; 0.630262;,
        -0.548985;-0.548985; 0.630262;,
        -0.548985;-0.548985;-0.630262;,
        -0.000000;-0.776382;-0.630262;,
        -0.548985;-0.548985; 0.630262;,
        -0.776382; 0.000000; 0.630262;,
        -0.776382; 0.000000;-0.630262;,
        -0.548985;-0.548985;-0.630262;,
        -0.000000;-0.594377;-0.804187;,
        -0.000000;-0.776382;-0.630262;,
         0.548985;-0.548985;-0.630262;,
         0.420288;-0.420288;-0.804187;,
        -0.776382; 0.000000; 0.630262;,
        -0.548985; 0.548985; 0.630263;,
        -0.548985; 0.548985;-0.630263;,
        -0.776382; 0.000000;-0.630262;,
        -0.548985; 0.548985; 0.630263;,
         0.000000; 0.776382; 0.630262;,
         0.000000; 0.776382;-0.630262;,
        -0.548985; 0.548985;-0.630263;,
         0.000000; 0.776382; 0.630262;,
        -0.548985; 0.548985; 0.630263;,
        -0.776382; 0.000000; 0.630262;,
        -0.548985;-0.548985; 0.630262;,
        -0.000000;-0.776382; 0.630262;,
         0.548985;-0.548985; 0.630262;,
         0.776382; 0.000000; 0.630262;,
         0.548985; 0.548985; 0.630263;,
         0.000000; 0.594378;-0.804186;,
         0.000000; 0.776382;-0.630262;,
         0.548985; 0.548985;-0.630263;,
         0.420287; 0.420288;-0.804187;,
         0.420287; 0.420288;-0.804187;,
         0.548985; 0.548985;-0.630263;,
         0.776382; 0.000000;-0.630262;,
         0.594377; 0.000000;-0.804186;,
         0.594377; 0.000000;-0.804186;,
         0.776382; 0.000000;-0.630262;,
         0.548985;-0.548985;-0.630262;,
         0.420288;-0.420288;-0.804187;,
         0.420288;-0.420288;-0.804187;,
         0.548985;-0.548985;-0.630262;,
        -0.000000;-0.776382;-0.630262;,
        -0.000000;-0.594377;-0.804187;,
        -0.000000;-0.594377;-0.804187;,
        -0.000000;-0.776382;-0.630262;,
        -0.548985;-0.548985;-0.630262;,
        -0.420288;-0.420288;-0.804187;,
        -0.420288;-0.420288;-0.804187;,
        -0.548985;-0.548985;-0.630262;,
        -0.776382; 0.000000;-0.630262;,
        -0.594378;-0.000000;-0.804186;,
        -0.594378;-0.000000;-0.804186;,
        -0.776382; 0.000000;-0.630262;,
        -0.548985; 0.548985;-0.630263;,
        -0.420287; 0.420288;-0.804187;,
        -0.420287; 0.420288;-0.804187;,
        -0.548985; 0.548985;-0.630263;,
         0.000000; 0.776382;-0.630262;,
         0.000000; 0.594378;-0.804186;,
         0.548985; 0.548986;-0.630262;,
         0.776382; 0.000000;-0.630262;,
         0.548985;-0.548985;-0.630262;,
        -0.000000;-0.776382;-0.630262;,
        -0.548985;-0.548985;-0.630262;,
        -0.776382;-0.000000;-0.630263;,
        -0.548985; 0.548985;-0.630262;,
         0.000000; 0.776382;-0.630263;,
         0.594377; 0.000000;-0.804186;,
         0.776382; 0.000000;-0.630262;,
         0.548985; 0.548986;-0.630262;,
         0.420287; 0.420288;-0.804187;,
        -0.420287; 0.420288;-0.804187;,
        -0.548985; 0.548985;-0.630262;,
        -0.776382;-0.000000;-0.630263;,
        -0.594378;-0.000000;-0.804186;,
        -0.420288;-0.420288;-0.804187;,
        -0.548985;-0.548985;-0.630262;,
        -0.000000;-0.776382;-0.630262;,
        -0.000000;-0.594377;-0.804187;,
         0.420288;-0.420288;-0.804187;,
         0.548985;-0.548985;-0.630262;,
         0.776382; 0.000000;-0.630262;,
         0.594377; 0.000000;-0.804186;,
         0.420287; 0.420288;-0.804187;,
         0.548985; 0.548986;-0.630262;,
         0.000000; 0.776382;-0.630263;,
         0.000000; 0.594378;-0.804186;,
         0.000000; 0.594378;-0.804186;,
         0.000000; 0.776382;-0.630263;,
        -0.548985; 0.548985;-0.630262;,
        -0.420287; 0.420288;-0.804187;,
        -0.594378;-0.000000;-0.804186;,
        -0.776382;-0.000000;-0.630263;,
        -0.548985;-0.548985;-0.630262;,
        -0.420288;-0.420288;-0.804187;;
        93;
        4;3,2,1,0;,
        4;7,6,5,4;,
        4;11,10,9,8;,
        4;15,14,13,12;,
        4;19,18,17,16;,
        4;23,22,21,20;,
        4;27,26,25,24;,
        4;31,30,29,28;,
        4;35,34,33,32;,
        4;39,38,37,36;,
        4;43,42,41,40;,
        4;47,46,45,44;,
        4;51,50,49,48;,
        4;55,54,53,52;,
        4;59,58,57,56;,
        4;63,62,61,60;,
        4;67,66,65,64;,
        4;71,70,69,68;,
        4;75,74,73,72;,
        4;79,78,77,76;,
        4;83,82,81,80;,
        4;87,86,85,84;,
        4;91,90,89,88;,
        4;95,94,93,92;,
        4;99,98,97,96;,
        4;103,102,101,100;,
        4;107,106,105,104;,
        4;111,110,109,108;,
        4;115,114,113,112;,
        4;119,118,117,116;,
        4;123,122,121,120;,
        4;127,126,125,124;,
        4;131,130,129,128;,
        4;135,134,133,132;,
        4;139,138,137,136;,
        4;143,142,141,140;,
        4;147,146,145,144;,
        4;151,150,149,148;,
        4;155,154,153,152;,
        4;159,158,157,156;,
        4;163,162,161,160;,
        4;167,166,165,164;,
        4;171,170,169,168;,
        4;175,174,173,172;,
        4;179,178,177,176;,
        4;183,182,181,180;,
        4;187,186,185,184;,
        4;191,190,189,188;,
        4;195,194,193,192;,
        4;199,198,197,196;,
        4;203,202,201,200;,
        4;207,206,205,204;,
        4;211,210,209,208;,
        4;215,214,213,212;,
        4;219,218,217,216;,
        4;223,222,221,220;,
        4;227,226,225,224;,
        4;231,230,229,228;,
        4;235,234,233,232;,
        4;239,238,237,236;,
        4;243,242,241,240;,
        4;247,246,245,244;,
        4;251,250,249,248;,
        4;255,254,253,252;,
        4;259,258,257,256;,
        4;263,262,261,260;,
        4;267,266,265,264;,
        4;271,270,269,268;,
        4;275,274,273,272;,
        4;279,278,277,276;,
        4;283,282,281,280;,
        4;287,286,285,284;,
        4;291,290,289,288;,
        4;295,294,293,292;,
        4;299,298,297,296;,
        4;303,302,301,300;,
        8;311,310,309,308,307,306,305,304;,
        4;315,314,313,312;,
        4;319,318,317,316;,
        4;323,322,321,320;,
        4;327,326,325,324;,
        4;331,330,329,328;,
        4;335,334,333,332;,
        4;339,338,337,336;,
        4;343,342,341,340;,
        8;351,350,349,348,347,346,345,344;,
        4;355,354,353,352;,
        4;359,358,357,356;,
        4;363,362,361,360;,
        4;367,366,365,364;,
        4;371,370,369,368;,
        4;375,374,373,372;,
        4;379,378,377,376;;
      }
      MeshTextureCoords {
        380;
         0.866315; 0.960323;,
         0.866455; 0.999625;,
         0.827057; 0.981695;,
         0.804346; 0.960367;,
         0.804041; 0.534065;,
         0.836428; 0.414428;,
         0.866227; 0.384994;,
         0.866176; 0.530737;,
         0.929168; 0.727047;,
         0.932891; 0.878855;,
         0.869564; 0.884255;,
         0.887183; 0.738126;,
         0.804346; 0.960367;,
         0.804041; 0.534065;,
         0.866176; 0.530737;,
         0.866315; 0.960323;,
         0.514504; 0.464741;,
         0.514691; 0.309419;,
         0.556240; 0.303690;,
         0.556545; 0.437697;,
         0.469023; 0.562214;,
         0.514504; 0.464741;,
         0.556545; 0.437697;,
         0.558382; 0.561627;,
         0.932891; 0.878855;,
         0.933040; 0.999625;,
         0.900865; 0.987162;,
         0.869564; 0.884255;,
         0.000375; 0.340048;,
         0.042500; 0.338933;,
         0.044988; 0.451190;,
         0.001744; 0.452981;,
         0.073168; 0.331101;,
         0.042500; 0.338933;,
         0.045766; 0.198023;,
         0.076084; 0.179297;,
         0.566658; 0.178003;,
         0.597437; 0.195908;,
         0.612729; 0.234224;,
         0.559132; 0.244525;,
         0.154896; 0.952844;,
         0.143400; 0.978054;,
         0.000375; 0.927434;,
         0.060390; 0.890517;,
         0.215358; 0.717175;,
         0.204792; 0.689170;,
         0.280529; 0.562963;,
         0.285203; 0.621792;,
         0.340087; 0.632040;,
         0.369875; 0.564531;,
         0.369875; 0.990833;,
         0.339006; 0.924847;,
         0.285203; 0.621792;,
         0.280529; 0.562963;,
         0.369875; 0.564531;,
         0.340087; 0.632040;,
         0.846305; 0.280786;,
         0.840386; 0.238859;,
         0.866455; 0.237458;,
         0.866390; 0.279772;,
         0.613479; 0.286073;,
         0.616930; 0.147268;,
         0.637030; 0.148320;,
         0.643249; 0.303518;,
         0.836428; 0.414428;,
         0.846305; 0.280786;,
         0.866390; 0.279772;,
         0.866227; 0.384994;,
         0.060390; 0.890517;,
         0.000375; 0.927434;,
         0.110795; 0.812631;,
         0.135470; 0.815364;,
         0.933040; 0.412593;,
         0.928809; 0.580712;,
         0.885623; 0.582962;,
         0.867205; 0.424743;,
         0.339006; 0.924847;,
         0.369875; 0.990833;,
         0.246973; 0.999625;,
         0.249099; 0.971999;,
         0.076084; 0.454250;,
         0.044988; 0.451190;,
         0.042500; 0.338933;,
         0.073168; 0.331101;,
         0.004338; 0.198204;,
         0.045766; 0.198023;,
         0.042500; 0.338933;,
         0.000375; 0.340048;,
         0.135470; 0.815364;,
         0.110795; 0.812631;,
         0.204792; 0.689170;,
         0.215358; 0.717175;,
         0.928809; 0.580712;,
         0.929168; 0.727047;,
         0.887183; 0.738126;,
         0.885623; 0.582962;,
         0.840386; 0.238859;,
         0.849398; 0.218747;,
         0.866224; 0.217834;,
         0.866455; 0.237458;,
         0.514691; 0.309419;,
         0.501079; 0.269303;,
         0.558382; 0.261402;,
         0.556240; 0.303690;,
         0.616930; 0.147268;,
         0.617158; 0.104974;,
         0.643249; 0.106417;,
         0.637030; 0.148320;,
         0.185237; 0.268380;,
         0.168400; 0.269364;,
         0.168387; 0.230445;,
         0.185237; 0.230594;,
         0.242154; 0.269364;,
         0.222616; 0.259504;,
         0.222616; 0.221717;,
         0.242154; 0.211519;,
         0.282991; 0.269302;,
         0.263192; 0.269364;,
         0.263193; 0.252498;,
         0.282991; 0.243172;,
         0.803151; 0.257136;,
         0.741181; 0.257092;,
         0.763893; 0.235764;,
         0.803291; 0.217834;,
         0.740876; 0.683392;,
         0.803011; 0.686720;,
         0.803063; 0.832464;,
         0.773263; 0.803030;,
         0.995753; 0.685171;,
         0.953767; 0.674092;,
         0.936149; 0.527963;,
         0.999476; 0.533363;,
         0.741181; 0.257092;,
         0.803151; 0.257136;,
         0.803011; 0.686720;,
         0.740876; 0.683392;,
         0.605420; 0.401515;,
         0.647685; 0.428209;,
         0.648492; 0.562214;,
         0.606897; 0.556830;,
         0.559132; 0.304423;,
         0.648492; 0.304268;,
         0.647685; 0.428209;,
         0.605420; 0.401515;,
         0.999476; 0.533363;,
         0.936149; 0.527963;,
         0.967450; 0.425056;,
         0.999625; 0.412593;,
         0.649242; 0.401463;,
         0.650611; 0.288530;,
         0.693855; 0.290321;,
         0.691367; 0.402578;,
         0.722035; 0.410410;,
         0.724951; 0.562214;,
         0.694633; 0.543488;,
         0.691367; 0.402578;,
         0.590781; 0.303518;,
         0.559132; 0.244525;,
         0.612729; 0.234224;,
         0.612729; 0.275479;,
         0.525148; 0.609744;,
         0.430641; 0.672071;,
         0.370625; 0.635153;,
         0.513651; 0.584534;,
         0.585609; 0.845413;,
         0.655454; 0.940796;,
         0.650779; 0.999625;,
         0.575043; 0.873418;,
         0.710338; 0.930549;,
         0.709256; 0.637742;,
         0.740125; 0.571756;,
         0.740125; 0.998057;,
         0.655454; 0.940796;,
         0.710338; 0.930549;,
         0.740125; 0.998057;,
         0.650779; 0.999625;,
         0.783140; 0.936673;,
         0.803226; 0.937687;,
         0.803291; 0.980001;,
         0.777221; 0.978600;,
         0.324814; 0.148462;,
         0.354583; 0.131017;,
         0.348364; 0.286215;,
         0.328265; 0.287267;,
         0.773263; 0.803030;,
         0.803063; 0.832464;,
         0.803226; 0.937687;,
         0.783140; 0.936673;,
         0.430641; 0.672071;,
         0.505721; 0.747224;,
         0.481045; 0.749957;,
         0.370625; 0.635153;,
         0.999625; 0.999625;,
         0.933790; 0.987475;,
         0.952207; 0.829256;,
         0.995394; 0.831506;,
         0.709256; 0.637742;,
         0.619350; 0.590590;,
         0.617223; 0.562964;,
         0.740125; 0.571756;,
         0.724951; 0.287261;,
         0.722035; 0.410410;,
         0.691367; 0.402578;,
         0.693855; 0.290321;,
         0.653205; 0.543307;,
         0.649242; 0.401463;,
         0.691367; 0.402578;,
         0.694633; 0.543488;,
         0.505721; 0.747224;,
         0.585609; 0.845413;,
         0.575043; 0.873418;,
         0.481045; 0.749957;,
         0.995394; 0.831506;,
         0.952207; 0.829256;,
         0.953767; 0.674092;,
         0.995753; 0.685171;,
         0.777221; 0.978600;,
         0.803291; 0.980001;,
         0.803059; 0.999625;,
         0.786234; 0.998712;,
         0.649242; 0.278506;,
         0.649242; 0.236565;,
         0.690841; 0.228666;,
         0.690841; 0.286511;,
         0.328265; 0.287267;,
         0.348364; 0.286215;,
         0.354583; 0.328118;,
         0.328493; 0.329561;,
         0.151562; 0.268391;,
         0.151538; 0.230604;,
         0.168387; 0.230445;,
         0.168400; 0.269364;,
         0.262442; 0.211519;,
         0.262442; 0.269364;,
         0.242904; 0.259166;,
         0.242904; 0.221380;,
         0.366552; 0.348901;,
         0.366552; 0.375032;,
         0.346753; 0.365705;,
         0.346753; 0.348839;,
         0.118596; 0.543640;,
         0.000375; 0.543640;,
         0.000375; 0.473573;,
         0.118596; 0.473573;,
         0.245180; 0.543640;,
         0.118596; 0.543640;,
         0.118596; 0.473573;,
         0.245180; 0.473573;,
         0.349774; 0.562213;,
         0.245180; 0.543640;,
         0.245180; 0.473573;,
         0.349774; 0.455000;,
         0.076834; 0.445887;,
         0.076834; 0.338674;,
         0.189733; 0.330311;,
         0.189733; 0.454250;,
         0.291150; 0.330311;,
         0.291150; 0.454250;,
         0.190483; 0.441105;,
         0.190483; 0.343457;,
         0.468273; 0.269407;,
         0.468273; 0.562214;,
         0.370625; 0.562214;,
         0.370625; 0.269407;,
         0.346003; 0.440460;,
         0.291900; 0.454250;,
         0.291900; 0.356602;,
         0.346003; 0.370392;,
         0.098026; 0.190896;,
         0.098026; 0.210513;,
         0.076834; 0.210513;,
         0.076834; 0.190896;,
         0.098026; 0.210513;,
         0.098026; 0.230130;,
         0.076834; 0.230130;,
         0.076834; 0.210513;,
         0.098026; 0.230130;,
         0.098026; 0.249747;,
         0.076834; 0.249747;,
         0.076834; 0.230130;,
         0.098026; 0.249747;,
         0.098026; 0.269364;,
         0.076834; 0.269364;,
         0.076834; 0.249747;,
         0.346753; 0.454250;,
         0.346753; 0.434633;,
         0.367945; 0.434633;,
         0.367945; 0.454250;,
         0.346753; 0.434633;,
         0.346753; 0.415016;,
         0.367945; 0.415016;,
         0.367945; 0.434633;,
         0.200074; 0.329561;,
         0.076834; 0.329561;,
         0.076834; 0.314699;,
         0.200074; 0.314699;,
         0.346753; 0.415016;,
         0.346753; 0.395399;,
         0.367945; 0.395399;,
         0.367945; 0.415016;,
         0.346753; 0.395399;,
         0.346753; 0.375782;,
         0.367945; 0.375782;,
         0.367945; 0.395399;,
         0.705463; 0.239151;,
         0.725080; 0.239151;,
         0.738951; 0.253022;,
         0.738951; 0.272640;,
         0.725080; 0.286511;,
         0.705463; 0.286511;,
         0.691591; 0.272640;,
         0.691591; 0.253022;,
         0.124407; 0.263151;,
         0.124407; 0.269364;,
         0.106283; 0.261857;,
         0.110677; 0.257464;,
         0.110677; 0.257464;,
         0.106283; 0.261857;,
         0.098776; 0.243733;,
         0.104989; 0.243733;,
         0.104989; 0.243733;,
         0.098776; 0.243733;,
         0.106283; 0.225610;,
         0.110677; 0.230003;,
         0.110677; 0.230003;,
         0.106283; 0.225610;,
         0.124407; 0.218102;,
         0.124407; 0.224316;,
         0.150788; 0.263151;,
         0.150788; 0.269364;,
         0.132664; 0.261857;,
         0.137057; 0.257464;,
         0.137057; 0.257464;,
         0.132664; 0.261857;,
         0.125157; 0.243733;,
         0.131370; 0.243733;,
         0.131370; 0.243733;,
         0.125157; 0.243733;,
         0.132664; 0.225610;,
         0.137057; 0.230003;,
         0.137057; 0.230003;,
         0.132664; 0.225610;,
         0.150788; 0.218103;,
         0.150788; 0.224316;,
         0.185987; 0.243994;,
         0.196496; 0.233485;,
         0.211357; 0.233485;,
         0.221866; 0.243994;,
         0.221866; 0.258855;,
         0.211357; 0.269364;,
         0.196496; 0.269364;,
         0.185987; 0.258855;,
         0.200074; 0.299838;,
         0.076834; 0.299838;,
         0.076834; 0.284976;,
         0.200074; 0.284976;,
         0.324064; 0.314699;,
         0.200824; 0.314699;,
         0.200824; 0.299838;,
         0.324064; 0.299838;,
         0.324064; 0.284976;,
         0.200824; 0.284976;,
         0.200824; 0.270114;,
         0.324064; 0.270114;,
         0.200074; 0.314699;,
         0.076834; 0.314699;,
         0.076834; 0.299838;,
         0.200074; 0.299838;,
         0.200074; 0.284976;,
         0.076834; 0.284976;,
         0.076834; 0.270114;,
         0.200074; 0.270114;,
         0.324064; 0.329561;,
         0.200824; 0.329561;,
         0.200824; 0.314699;,
         0.324064; 0.314699;,
         0.324064; 0.299838;,
         0.200824; 0.299838;,
         0.200824; 0.284976;,
         0.324064; 0.284976;;
      }
    }
  }
}
