xof 0303txt 0032

Frame Root {
  FrameTransformMatrix {
     1.000000, 0.000000, 0.000000, 0.000000,
     0.000000,-0.000000, 1.000000, 0.000000,
     0.000000, 1.000000, 0.000000, 0.000000,
     0.000000, 0.000000, 0.000000, 1.000000;;
  }
  Frame FOREGRIP2_Cube_008 {
    FrameTransformMatrix {
       1.000000, 0.000000, 0.000000, 0.000000,
       0.000000, 1.000000, 0.000000, 0.000000,
       0.000000, 0.000000, 1.000000, 0.000000,
       0.000000, 0.000000, 0.000000, 1.000000;;
    }
    Mesh {
      238;
       0.011488;-0.043659;-0.026396;,
       0.011488;-0.048097;-0.022548;,
       0.011488;-0.041826;-0.019568;,
       0.011488;-0.040296;-0.024450;,
      -0.001010;-0.040296;-0.024450;,
      -0.001010;-0.043659;-0.026396;,
       0.002483;-0.046727;-0.028170;,
       0.007995;-0.046727;-0.028170;,
       0.011488;-0.043659;-0.026396;,
       0.011488;-0.040296;-0.024450;,
      -0.001010;-0.041826;-0.019568;,
       0.011488;-0.041826;-0.019568;,
       0.011491;-0.043877;-0.013466;,
       0.010005;-0.042704;-0.016953;,
       0.006420;-0.042220;-0.018395;,
       0.004058;-0.042220;-0.018395;,
       0.000474;-0.042704;-0.016953;,
      -0.001012;-0.043877;-0.013466;,
       0.011488;-0.040296;-0.024450;,
       0.011488;-0.041826;-0.019568;,
      -0.001010;-0.041826;-0.019568;,
      -0.001010;-0.040296;-0.024450;,
      -0.001010;-0.041826;-0.019568;,
      -0.001012;-0.043877;-0.013466;,
      -0.001017;-0.046703;-0.005057;,
      -0.001010;-0.053264; 0.014463;,
      -0.001010;-0.060443; 0.013392;,
      -0.001010;-0.048097;-0.022548;,
       0.007995;-0.051394;-0.024114;,
       0.007995;-0.046727;-0.028170;,
       0.002483;-0.046727;-0.028170;,
       0.002483;-0.051394;-0.024114;,
       0.011488;-0.048097;-0.022548;,
       0.011488;-0.060433; 0.013394;,
       0.011488;-0.053264; 0.014463;,
       0.011496;-0.046703;-0.005057;,
       0.011491;-0.043877;-0.013466;,
       0.011488;-0.041826;-0.019568;,
      -0.001010;-0.048097;-0.022548;,
       0.002483;-0.051394;-0.024114;,
       0.002483;-0.046727;-0.028170;,
      -0.001010;-0.043659;-0.026396;,
       0.007995;-0.051394;-0.024114;,
       0.011488;-0.048097;-0.022548;,
       0.011488;-0.043659;-0.026396;,
       0.007995;-0.046727;-0.028170;,
      -0.001010;-0.040296;-0.024450;,
      -0.001010;-0.041826;-0.019568;,
      -0.001010;-0.048097;-0.022548;,
      -0.001010;-0.043659;-0.026396;,
       0.004058; 0.008039; 0.012150;,
       0.004058;-0.042220;-0.018395;,
       0.006420;-0.042220;-0.018395;,
       0.006420; 0.008039; 0.012150;,
       0.011861; 0.047259; 0.024210;,
       0.011861; 0.043387; 0.001760;,
       0.011861; 0.035623; 0.015363;,
       0.011861; 0.035623; 0.024210;,
       0.007995;-0.064832; 0.012410;,
       0.007995;-0.063926; 0.012410;,
       0.002483;-0.063926; 0.012410;,
       0.002483;-0.064832; 0.012410;,
       0.001571; 0.035623; 0.012410;,
      -0.001383; 0.035623; 0.001760;,
      -0.001383; 0.035623; 0.015363;,
      -0.000518; 0.035623; 0.013274;,
      -0.001383; 0.043387; 0.001760;,
       0.011861; 0.043387; 0.001760;,
       0.011861; 0.047259; 0.024210;,
      -0.001383; 0.047259; 0.024210;,
      -0.001383; 0.035623; 0.024210;,
      -0.001383;-0.054861; 0.024210;,
      -0.001383;-0.053264; 0.015363;,
      -0.001383; 0.035623; 0.015363;,
      -0.001383;-0.054861; 0.024210;,
      -0.001383; 0.035623; 0.024210;,
       0.011861; 0.035623; 0.024210;,
       0.011861;-0.054861; 0.024210;,
       0.011861;-0.053264; 0.015363;,
       0.011861;-0.066325; 0.015363;,
       0.011861;-0.069867; 0.024210;,
       0.011861;-0.054861; 0.024210;,
       0.011861; 0.035623; 0.001760;,
      -0.001383; 0.035623; 0.001760;,
       0.001571; 0.035623; 0.012410;,
       0.008908; 0.035623; 0.012410;,
       0.011861; 0.035623; 0.001760;,
       0.011861; 0.043387; 0.001760;,
      -0.001383; 0.043387; 0.001760;,
      -0.001383; 0.035623; 0.001760;,
       0.011861; 0.043387; 0.001760;,
       0.011861; 0.035623; 0.001760;,
       0.011861; 0.035623; 0.015363;,
       0.011861; 0.035623; 0.015363;,
       0.011861; 0.035623; 0.001760;,
       0.008908; 0.035623; 0.012410;,
       0.010996; 0.035623; 0.013274;,
       0.001571; 0.035623; 0.012410;,
      -0.000518; 0.035623; 0.013274;,
      -0.000518; 0.002420; 0.013274;,
       0.001022; 0.006420; 0.012637;,
      -0.001383;-0.053264; 0.015363;,
      -0.001383;-0.066325; 0.015363;,
      -0.000518;-0.065269; 0.013274;,
      -0.001010;-0.060443; 0.013392;,
      -0.001010;-0.053264; 0.014463;,
       0.007995;-0.064832; 0.012410;,
       0.010996;-0.065269; 0.013274;,
       0.011488;-0.060433; 0.013394;,
       0.007995;-0.063926; 0.012410;,
       0.011861;-0.053264; 0.015363;,
       0.011861; 0.035623; 0.015363;,
       0.010996; 0.035623; 0.013274;,
       0.010996; 0.002420; 0.013274;,
       0.010996;-0.018842; 0.013274;,
       0.010996;-0.052865; 0.013274;,
       0.011488;-0.053264; 0.014463;,
       0.007995;-0.064832; 0.012410;,
       0.002483;-0.064832; 0.012410;,
      -0.000518;-0.065269; 0.013274;,
      -0.001383;-0.066325; 0.015363;,
      -0.001383;-0.069867; 0.024210;,
       0.011861;-0.069867; 0.024210;,
       0.011861;-0.066325; 0.015363;,
       0.010996;-0.065269; 0.013274;,
       0.006420; 0.008039; 0.012150;,
       0.006420;-0.042220;-0.018395;,
       0.010005;-0.042704;-0.016953;,
       0.009456; 0.006420; 0.012637;,
       0.010996; 0.002420; 0.013274;,
       0.010996; 0.035623; 0.013274;,
       0.008908; 0.035623; 0.012410;,
       0.009456; 0.006420; 0.012637;,
      -0.000518;-0.018842; 0.013274;,
      -0.000518;-0.052865; 0.013274;,
       0.001571;-0.052574; 0.012410;,
       0.001571;-0.020156; 0.012410;,
       0.010996;-0.018842; 0.013274;,
       0.011496;-0.046703;-0.005057;,
      -0.001017;-0.046703;-0.005057;,
      -0.000518;-0.018842; 0.013274;,
       0.001571;-0.020156; 0.012410;,
       0.008908;-0.020156; 0.012410;,
       0.004058; 0.008039; 0.012150;,
       0.001571; 0.035623; 0.012410;,
       0.001022; 0.006420; 0.012637;,
      -0.000518;-0.018842; 0.013274;,
      -0.001017;-0.046703;-0.005057;,
      -0.001012;-0.043877;-0.013466;,
      -0.000518; 0.002420; 0.013274;,
       0.009456; 0.006420; 0.012637;,
       0.010005;-0.042704;-0.016953;,
       0.011491;-0.043877;-0.013466;,
       0.010996; 0.002420; 0.013274;,
       0.002483;-0.063926; 0.012410;,
       0.002483;-0.051394;-0.024114;,
      -0.001010;-0.048097;-0.022548;,
      -0.001010;-0.060443; 0.013392;,
      -0.001010;-0.060443; 0.013392;,
      -0.000518;-0.065269; 0.013274;,
       0.002483;-0.064832; 0.012410;,
       0.002483;-0.063926; 0.012410;,
       0.004058;-0.042220;-0.018395;,
       0.004058; 0.008039; 0.012150;,
       0.001022; 0.006420; 0.012637;,
       0.000474;-0.042704;-0.016953;,
       0.000474;-0.042704;-0.016953;,
       0.001022; 0.006420; 0.012637;,
      -0.000518; 0.002420; 0.013274;,
      -0.001012;-0.043877;-0.013466;,
       0.011488;-0.060433; 0.013394;,
       0.011488;-0.048097;-0.022548;,
       0.007995;-0.051394;-0.024114;,
       0.007995;-0.063926; 0.012410;,
       0.008908;-0.052574; 0.012410;,
       0.008908;-0.020156; 0.012410;,
       0.001571;-0.020156; 0.012410;,
       0.001571;-0.052574; 0.012410;,
       0.010996;-0.052865; 0.013274;,
       0.010996;-0.018842; 0.013274;,
       0.008908;-0.020156; 0.012410;,
       0.008908;-0.052574; 0.012410;,
       0.011496;-0.046703;-0.005057;,
       0.010996;-0.018842; 0.013274;,
       0.010996; 0.002420; 0.013274;,
       0.011491;-0.043877;-0.013466;,
       0.007995;-0.063926; 0.012410;,
       0.007995;-0.051394;-0.024114;,
       0.002483;-0.051394;-0.024114;,
       0.002483;-0.063926; 0.012410;,
       0.001571;-0.052574; 0.012410;,
      -0.000518;-0.052865; 0.013274;,
      -0.001010;-0.053264; 0.014463;,
      -0.001017;-0.046703;-0.005057;,
       0.011496;-0.046703;-0.005057;,
       0.011488;-0.053264; 0.014463;,
       0.010996;-0.052865; 0.013274;,
       0.008908;-0.052574; 0.012410;,
       0.011861; 0.035623; 0.015363;,
       0.011861;-0.053264; 0.015363;,
       0.011861;-0.054861; 0.024210;,
       0.011861; 0.035623; 0.024210;,
      -0.001383;-0.069867; 0.024210;,
      -0.001383;-0.054861; 0.024210;,
       0.011861;-0.054861; 0.024210;,
       0.011861;-0.069867; 0.024210;,
      -0.001383;-0.066325; 0.015363;,
      -0.001383;-0.053264; 0.015363;,
      -0.001383;-0.054861; 0.024210;,
      -0.001383;-0.069867; 0.024210;,
       0.010996;-0.065269; 0.013274;,
       0.011861;-0.066325; 0.015363;,
       0.011861;-0.053264; 0.015363;,
       0.011488;-0.053264; 0.014463;,
       0.011488;-0.060433; 0.013394;,
      -0.000518; 0.035623; 0.013274;,
      -0.001383; 0.035623; 0.015363;,
      -0.001383;-0.053264; 0.015363;,
      -0.001010;-0.053264; 0.014463;,
      -0.000518;-0.052865; 0.013274;,
      -0.000518;-0.018842; 0.013274;,
      -0.000518; 0.002420; 0.013274;,
       0.009456; 0.006420; 0.012637;,
       0.008908; 0.035623; 0.012410;,
       0.006420; 0.008039; 0.012150;,
       0.006420; 0.008039; 0.012150;,
       0.008908; 0.035623; 0.012410;,
       0.001571; 0.035623; 0.012410;,
       0.004058; 0.008039; 0.012150;,
      -0.001383; 0.035623; 0.001760;,
      -0.001383; 0.043387; 0.001760;,
      -0.001383; 0.047259; 0.024210;,
      -0.001383; 0.035623; 0.024210;,
      -0.001383; 0.035623; 0.015363;,
      -0.001383; 0.035623; 0.024210;,
      -0.001383; 0.047259; 0.024210;,
       0.011861; 0.047259; 0.024210;,
       0.011861; 0.035623; 0.024210;;
      53;
      4;3,2,1,0;,
      6;9,8,7,6,5,4;,
      8;17,16,15,14,13,12,11,10;,
      4;21,20,19,18;,
      6;27,26,25,24,23,22;,
      4;31,30,29,28;,
      6;37,36,35,34,33,32;,
      4;41,40,39,38;,
      4;45,44,43,42;,
      4;49,48,47,46;,
      4;53,52,51,50;,
      4;57,56,55,54;,
      4;61,60,59,58;,
      4;65,64,63,62;,
      4;69,68,67,66;,
      4;73,72,71,70;,
      4;77,76,75,74;,
      4;81,80,79,78;,
      4;85,84,83,82;,
      4;89,88,87,86;,
      3;92,91,90;,
      4;96,95,94,93;,
      4;100,99,98,97;,
      5;105,104,103,102,101;,
      4;109,108,107,106;,
      7;116,115,114,113,112,111,110;,
      8;124,123,122,121,120,119,118,117;,
      4;128,127,126,125;,
      4;132,131,130,129;,
      4;136,135,134,133;,
      6;142,141,140,139,138,137;,
      3;145,144,143;,
      4;149,148,147,146;,
      4;153,152,151,150;,
      4;157,156,155,154;,
      4;161,160,159,158;,
      4;165,164,163,162;,
      4;169,168,167,166;,
      4;173,172,171,170;,
      4;177,176,175,174;,
      4;181,180,179,178;,
      4;185,184,183,182;,
      4;189,188,187,186;,
      8;197,196,195,194,193,192,191,190;,
      4;201,200,199,198;,
      4;205,204,203,202;,
      4;209,208,207,206;,
      5;214,213,212,211,210;,
      7;221,220,219,218,217,216,215;,
      3;224,223,222;,
      4;228,227,226,225;,
      5;233,232,231,230,229;,
      4;237,236,235,234;;
      MeshNormals {
        238;
        -0.706989;-0.137716; 0.693686;,
        -0.904098; 0.349097; 0.246450;,
        -0.704854;-0.674695;-0.219014;,
        -0.589842;-0.752476; 0.293030;,
         0.589842;-0.752476; 0.293030;,
         0.706989;-0.137716; 0.693686;,
         0.281118; 0.159462; 0.946332;,
        -0.281118; 0.159462; 0.946332;,
        -0.706989;-0.137716; 0.693686;,
        -0.589842;-0.752476; 0.293030;,
         0.704854;-0.674695;-0.219014;,
        -0.704854;-0.674695;-0.219014;,
        -0.988651;-0.125201; 0.083036;,
        -0.469844;-0.841318; 0.267265;,
        -0.126861;-0.921616; 0.366784;,
         0.126861;-0.921616; 0.366784;,
         0.469844;-0.841318; 0.267265;,
         0.988651;-0.125201; 0.083035;,
        -0.589842;-0.752476; 0.293030;,
        -0.704854;-0.674695;-0.219014;,
         0.704854;-0.674695;-0.219014;,
         0.589842;-0.752476; 0.293030;,
         0.704854;-0.674695;-0.219014;,
         0.988651;-0.125201; 0.083035;,
         0.931890;-0.120238;-0.342235;,
         0.971036;-0.053881; 0.232779;,
         0.932925; 0.182572; 0.310353;,
         0.904029; 0.349221; 0.246527;,
        -0.369315; 0.773646; 0.514857;,
        -0.281118; 0.159462; 0.946332;,
         0.281118; 0.159462; 0.946332;,
         0.369152; 0.773706; 0.514884;,
        -0.904098; 0.349097; 0.246450;,
        -0.933024; 0.182427; 0.310140;,
        -0.971027;-0.053885; 0.232815;,
        -0.931890;-0.120238;-0.342235;,
        -0.988651;-0.125201; 0.083036;,
        -0.704854;-0.674695;-0.219014;,
         0.904029; 0.349221; 0.246527;,
         0.369152; 0.773706; 0.514884;,
         0.281118; 0.159462; 0.946332;,
         0.706989;-0.137716; 0.693686;,
        -0.369315; 0.773646; 0.514857;,
        -0.904098; 0.349097; 0.246450;,
        -0.706989;-0.137716; 0.693686;,
        -0.281118; 0.159462; 0.946332;,
         0.589842;-0.752476; 0.293030;,
         0.704854;-0.674695;-0.219014;,
         0.904029; 0.349221; 0.246527;,
         0.706989;-0.137716; 0.693686;,
         0.127118;-0.230767; 0.964670;,
         0.126861;-0.921616; 0.366784;,
        -0.126861;-0.921616; 0.366784;,
        -0.127118;-0.230767; 0.964670;,
        -0.568897;-0.629012;-0.529812;,
        -0.586867;-0.521614; 0.619279;,
        -0.993287; 0.063263; 0.096841;,
        -0.707107;-0.000000;-0.707107;,
        -0.092906; 0.515285; 0.851968;,
        -0.312948; 0.447925; 0.837512;,
         0.312782; 0.448205; 0.837424;,
         0.092872; 0.515335; 0.851942;,
         0.130408; 0.752322; 0.645759;,
         0.577350; 0.577350; 0.577350;,
         0.993286; 0.063267; 0.096846;,
         0.548991; 0.630243; 0.549001;,
         0.586867;-0.521614; 0.619279;,
        -0.586867;-0.521614; 0.619279;,
        -0.568897;-0.629012;-0.529812;,
         0.568897;-0.629011;-0.529812;,
         0.707107;-0.000000;-0.707107;,
         0.707107;-0.000000;-0.707107;,
         0.985874; 0.003028; 0.167460;,
         0.993286; 0.063267; 0.096846;,
         0.707107;-0.000000;-0.707107;,
         0.707107;-0.000000;-0.707107;,
        -0.707107;-0.000000;-0.707107;,
        -0.707107;-0.000000;-0.707107;,
        -0.985869; 0.003024; 0.167491;,
        -0.720542; 0.609205; 0.331193;,
        -0.565617; 0.687496;-0.455440;,
        -0.707107;-0.000000;-0.707107;,
        -0.577350; 0.577350; 0.577350;,
         0.577350; 0.577350; 0.577350;,
         0.130408; 0.752322; 0.645759;,
        -0.130409; 0.752322; 0.645759;,
        -0.577350; 0.577350; 0.577350;,
        -0.586867;-0.521614; 0.619279;,
         0.586867;-0.521614; 0.619279;,
         0.577350; 0.577350; 0.577350;,
        -0.586867;-0.521614; 0.619279;,
        -0.577350; 0.577350; 0.577350;,
        -0.993287; 0.063263; 0.096841;,
        -0.993287; 0.063263; 0.096841;,
        -0.577350; 0.577350; 0.577350;,
        -0.130409; 0.752322; 0.645759;,
        -0.548993; 0.630243; 0.549000;,
         0.130408; 0.752322; 0.645759;,
         0.548991; 0.630243; 0.549001;,
         0.915899;-0.088087; 0.391624;,
         0.432912;-0.178045; 0.883678;,
         0.985874; 0.003028; 0.167460;,
         0.720553; 0.609210; 0.331160;,
         0.540700; 0.492971; 0.681633;,
         0.932925; 0.182572; 0.310353;,
         0.971036;-0.053881; 0.232779;,
        -0.092906; 0.515285; 0.851968;,
        -0.540707; 0.492911; 0.681671;,
        -0.933024; 0.182427; 0.310140;,
        -0.312948; 0.447925; 0.837512;,
        -0.985869; 0.003024; 0.167491;,
        -0.993287; 0.063263; 0.096841;,
        -0.548993; 0.630243; 0.549000;,
        -0.915899;-0.088087; 0.391624;,
        -0.971233; 0.083508; 0.223010;,
        -0.661871;-0.648134; 0.376629;,
        -0.971027;-0.053885; 0.232815;,
        -0.092906; 0.515285; 0.851968;,
         0.092872; 0.515335; 0.851942;,
         0.540700; 0.492971; 0.681633;,
         0.720553; 0.609210; 0.331160;,
         0.565617; 0.687496;-0.455440;,
        -0.565617; 0.687496;-0.455440;,
        -0.720542; 0.609205; 0.331193;,
        -0.540707; 0.492911; 0.681671;,
        -0.127118;-0.230767; 0.964670;,
        -0.126861;-0.921616; 0.366784;,
        -0.469844;-0.841318; 0.267265;,
        -0.432912;-0.178045; 0.883678;,
        -0.915899;-0.088087; 0.391624;,
        -0.548993; 0.630243; 0.549000;,
        -0.130409; 0.752322; 0.645759;,
        -0.432912;-0.178045; 0.883678;,
         0.971233; 0.083508; 0.223010;,
         0.661871;-0.648134; 0.376629;,
         0.185522;-0.738557; 0.648164;,
         0.376069; 0.643016; 0.667160;,
        -0.971233; 0.083508; 0.223010;,
        -0.931890;-0.120238;-0.342235;,
         0.931890;-0.120238;-0.342235;,
         0.971233; 0.083508; 0.223010;,
         0.376069; 0.643016; 0.667160;,
        -0.376069; 0.643016; 0.667160;,
         0.127118;-0.230767; 0.964670;,
         0.130408; 0.752322; 0.645759;,
         0.432912;-0.178045; 0.883678;,
         0.971233; 0.083508; 0.223010;,
         0.931890;-0.120238;-0.342235;,
         0.988651;-0.125201; 0.083035;,
         0.915899;-0.088087; 0.391624;,
        -0.432912;-0.178045; 0.883678;,
        -0.469844;-0.841318; 0.267265;,
        -0.988651;-0.125201; 0.083036;,
        -0.915899;-0.088087; 0.391624;,
         0.312782; 0.448205; 0.837424;,
         0.369152; 0.773706; 0.514884;,
         0.904029; 0.349221; 0.246527;,
         0.932925; 0.182572; 0.310353;,
         0.932925; 0.182572; 0.310353;,
         0.540700; 0.492971; 0.681633;,
         0.092872; 0.515335; 0.851942;,
         0.312782; 0.448205; 0.837424;,
         0.126861;-0.921616; 0.366784;,
         0.127118;-0.230767; 0.964670;,
         0.432912;-0.178045; 0.883678;,
         0.469844;-0.841318; 0.267265;,
         0.469844;-0.841318; 0.267265;,
         0.432912;-0.178045; 0.883678;,
         0.915899;-0.088087; 0.391624;,
         0.988651;-0.125201; 0.083035;,
        -0.933024; 0.182427; 0.310140;,
        -0.904098; 0.349097; 0.246450;,
        -0.369315; 0.773646; 0.514857;,
        -0.312948; 0.447925; 0.837512;,
        -0.185522;-0.738557; 0.648164;,
        -0.376069; 0.643016; 0.667160;,
         0.376069; 0.643016; 0.667160;,
         0.185522;-0.738557; 0.648164;,
        -0.661871;-0.648134; 0.376629;,
        -0.971233; 0.083508; 0.223010;,
        -0.376069; 0.643016; 0.667160;,
        -0.185522;-0.738557; 0.648164;,
        -0.931890;-0.120238;-0.342235;,
        -0.971233; 0.083508; 0.223010;,
        -0.915899;-0.088087; 0.391624;,
        -0.988651;-0.125201; 0.083036;,
        -0.312948; 0.447925; 0.837512;,
        -0.369315; 0.773646; 0.514857;,
         0.369152; 0.773706; 0.514884;,
         0.312782; 0.448205; 0.837424;,
         0.185522;-0.738557; 0.648164;,
         0.661871;-0.648134; 0.376629;,
         0.971036;-0.053881; 0.232779;,
         0.931890;-0.120238;-0.342235;,
        -0.931890;-0.120238;-0.342235;,
        -0.971027;-0.053885; 0.232815;,
        -0.661871;-0.648134; 0.376629;,
        -0.185522;-0.738557; 0.648164;,
        -0.993287; 0.063263; 0.096841;,
        -0.985869; 0.003024; 0.167491;,
        -0.707107;-0.000000;-0.707107;,
        -0.707107;-0.000000;-0.707107;,
         0.565617; 0.687496;-0.455440;,
         0.707107;-0.000000;-0.707107;,
        -0.707107;-0.000000;-0.707107;,
        -0.565617; 0.687496;-0.455440;,
         0.720553; 0.609210; 0.331160;,
         0.985874; 0.003028; 0.167460;,
         0.707107;-0.000000;-0.707107;,
         0.565617; 0.687496;-0.455440;,
        -0.540707; 0.492911; 0.681671;,
        -0.720542; 0.609205; 0.331193;,
        -0.985869; 0.003024; 0.167491;,
        -0.971027;-0.053885; 0.232815;,
        -0.933024; 0.182427; 0.310140;,
         0.548991; 0.630243; 0.549001;,
         0.993286; 0.063267; 0.096846;,
         0.985874; 0.003028; 0.167460;,
         0.971036;-0.053881; 0.232779;,
         0.661871;-0.648134; 0.376629;,
         0.971233; 0.083508; 0.223010;,
         0.915899;-0.088087; 0.391624;,
        -0.432912;-0.178045; 0.883678;,
        -0.130409; 0.752322; 0.645759;,
        -0.127118;-0.230767; 0.964670;,
        -0.127118;-0.230767; 0.964670;,
        -0.130409; 0.752322; 0.645759;,
         0.130408; 0.752322; 0.645759;,
         0.127118;-0.230767; 0.964670;,
         0.577350; 0.577350; 0.577350;,
         0.586867;-0.521614; 0.619279;,
         0.568897;-0.629011;-0.529812;,
         0.707107;-0.000000;-0.707107;,
         0.993286; 0.063267; 0.096846;,
         0.707107;-0.000000;-0.707107;,
         0.568897;-0.629011;-0.529812;,
        -0.568897;-0.629012;-0.529812;,
        -0.707107;-0.000000;-0.707107;;
        53;
        4;3,2,1,0;,
        6;9,8,7,6,5,4;,
        8;17,16,15,14,13,12,11,10;,
        4;21,20,19,18;,
        6;27,26,25,24,23,22;,
        4;31,30,29,28;,
        6;37,36,35,34,33,32;,
        4;41,40,39,38;,
        4;45,44,43,42;,
        4;49,48,47,46;,
        4;53,52,51,50;,
        4;57,56,55,54;,
        4;61,60,59,58;,
        4;65,64,63,62;,
        4;69,68,67,66;,
        4;73,72,71,70;,
        4;77,76,75,74;,
        4;81,80,79,78;,
        4;85,84,83,82;,
        4;89,88,87,86;,
        3;92,91,90;,
        4;96,95,94,93;,
        4;100,99,98,97;,
        5;105,104,103,102,101;,
        4;109,108,107,106;,
        7;116,115,114,113,112,111,110;,
        8;124,123,122,121,120,119,118,117;,
        4;128,127,126,125;,
        4;132,131,130,129;,
        4;136,135,134,133;,
        6;142,141,140,139,138,137;,
        3;145,144,143;,
        4;149,148,147,146;,
        4;153,152,151,150;,
        4;157,156,155,154;,
        4;161,160,159,158;,
        4;165,164,163,162;,
        4;169,168,167,166;,
        4;173,172,171,170;,
        4;177,176,175,174;,
        4;181,180,179,178;,
        4;185,184,183,182;,
        4;189,188,187,186;,
        8;197,196,195,194,193,192,191,190;,
        4;201,200,199,198;,
        4;205,204,203,202;,
        4;209,208,207,206;,
        5;214,213,212,211,210;,
        7;221,220,219,218,217,216,215;,
        3;224,223,222;,
        4;228,227,226,225;,
        5;233,232,231,230,229;,
        4;237,236,235,234;;
      }
      MeshTextureCoords {
        238;
         0.666015; 0.472751;,
         0.616330; 0.488409;,
         0.615724; 0.430003;,
         0.663029; 0.436599;,
         0.683877; 0.998500;,
         0.683877; 0.965425;,
         0.713608; 0.935258;,
         0.760534; 0.935258;,
         0.790266; 0.965425;,
         0.790266; 0.998500;,
         0.483682; 0.180949;,
         0.377293; 0.180949;,
         0.377276; 0.126153;,
         0.389919; 0.157459;,
         0.420431; 0.170415;,
         0.440544; 0.170415;,
         0.471056; 0.157460;,
         0.483698; 0.126154;,
         0.377293; 0.224500;,
         0.377293; 0.180949;,
         0.483682; 0.180949;,
         0.483682; 0.224500;,
         0.621235; 0.668770;,
         0.564703; 0.673544;,
         0.489184; 0.678560;,
         0.312381; 0.686445;,
         0.298714; 0.625585;,
         0.619284; 0.611256;,
         0.614321; 0.528926;,
         0.668527; 0.522208;,
         0.668383; 0.576809;,
         0.616298; 0.571440;,
         0.616330; 0.488409;,
         0.295732; 0.487584;,
         0.306603; 0.426565;,
         0.482706; 0.426565;,
         0.558459; 0.428075;,
         0.615724; 0.430003;,
         0.619284; 0.611256;,
         0.616298; 0.571440;,
         0.668383; 0.576809;,
         0.668164; 0.624536;,
         0.614321; 0.528926;,
         0.616330; 0.488409;,
         0.666015; 0.472751;,
         0.668527; 0.522208;,
         0.667064; 0.659962;,
         0.621235; 0.668770;,
         0.619284; 0.611256;,
         0.668164; 0.624536;,
         0.794900; 0.849893;,
         0.294264; 0.849892;,
         0.294264; 0.829780;,
         0.794900; 0.829780;,
         0.294355; 0.213454;,
         0.485445; 0.246417;,
         0.369662; 0.312498;,
         0.294355; 0.312498;,
         0.169923; 0.140993;,
         0.169790; 0.148668;,
         0.123239; 0.148662;,
         0.123112; 0.140948;,
         0.579087; 0.226897;,
         0.488442; 0.201760;,
         0.604224; 0.201760;,
         0.596862; 0.219535;,
         0.666644; 0.248585;,
         0.779380; 0.248585;,
         0.779380; 0.442497;,
         0.666644; 0.442497;,
         0.001495; 0.998447;,
         0.001643; 0.226735;,
         0.077006; 0.240242;,
         0.076884; 0.998467;,
         0.797906; 0.870776;,
         0.797906; 0.100541;,
         0.910642; 0.100541;,
         0.910641; 0.870776;,
         0.215979; 0.240206;,
         0.216148; 0.129201;,
         0.291372; 0.099124;,
         0.291321; 0.226688;,
         0.488442; 0.314496;,
         0.488442; 0.201760;,
         0.579087; 0.226897;,
         0.579087; 0.289359;,
         0.913645; 0.885767;,
         0.979726; 0.885767;,
         0.979726; 0.998502;,
         0.913645; 0.998502;,
         0.485445; 0.246417;,
         0.485445; 0.312498;,
         0.369662; 0.312498;,
         0.604224; 0.314496;,
         0.488442; 0.314496;,
         0.579087; 0.289359;,
         0.596862; 0.296722;,
         0.115169; 0.998491;,
         0.095979; 0.998476;,
         0.096186; 0.715585;,
         0.110373; 0.750435;,
         0.077006; 0.240242;,
         0.076763; 0.129164;,
         0.096228; 0.138055;,
         0.093835; 0.179306;,
         0.085286; 0.240266;,
         0.169923; 0.140993;,
         0.196717; 0.138098;,
         0.199137; 0.179332;,
         0.169790; 0.148668;,
         0.215979; 0.240206;,
         0.215846; 0.998490;,
         0.196787; 0.998491;,
         0.196630; 0.715529;,
         0.196670; 0.532654;,
         0.196723; 0.243654;,
         0.207684; 0.240227;,
         0.716538; 0.164674;,
         0.716538; 0.211600;,
         0.708289; 0.237142;,
         0.688373; 0.244505;,
         0.607257; 0.244505;,
         0.607257; 0.131769;,
         0.688373; 0.131769;,
         0.708289; 0.139131;,
         0.794900; 0.829780;,
         0.294264; 0.829780;,
         0.297114; 0.796754;,
         0.785268; 0.801813;,
         0.196630; 0.715529;,
         0.196787; 0.998491;,
         0.177588; 0.998501;,
         0.182456; 0.750203;,
         0.096239; 0.533019;,
         0.096225; 0.243689;,
         0.115442; 0.246466;,
         0.115305; 0.521510;,
         0.690295; 0.730253;,
         0.686048; 0.446354;,
         0.792553; 0.446354;,
         0.788306; 0.730253;,
         0.770531; 0.716858;,
         0.708070; 0.716858;,
         0.136376; 0.764748;,
         0.115169; 0.998491;,
         0.110373; 0.750435;,
         0.604807; 0.998488;,
         0.321017; 0.989543;,
         0.304086; 0.915953;,
         0.759050; 0.903803;,
         0.785268; 0.801813;,
         0.297114; 0.796754;,
         0.304086; 0.763719;,
         0.759050; 0.775870;,
         0.295363; 0.581606;,
         0.616298; 0.571440;,
         0.619284; 0.611256;,
         0.298714; 0.625585;,
         0.093835; 0.179306;,
         0.096228; 0.138055;,
         0.123112; 0.140948;,
         0.123239; 0.148662;,
         0.294264; 0.849892;,
         0.794900; 0.849893;,
         0.785268; 0.877861;,
         0.297114; 0.882918;,
         0.297114; 0.882918;,
         0.785268; 0.877861;,
         0.759050; 0.903803;,
         0.304086; 0.915953;,
         0.295732; 0.487584;,
         0.616330; 0.488409;,
         0.614321; 0.528926;,
         0.294313; 0.531698;,
         0.177545; 0.246420;,
         0.177510; 0.521482;,
         0.115305; 0.521510;,
         0.115442; 0.246466;,
         0.196723; 0.243654;,
         0.196670; 0.532654;,
         0.177510; 0.521482;,
         0.177545; 0.246420;,
         0.321018; 0.690130;,
         0.604807; 0.681186;,
         0.759050; 0.775870;,
         0.304086; 0.763719;,
         0.294313; 0.531698;,
         0.614321; 0.528926;,
         0.616298; 0.571440;,
         0.295363; 0.581606;,
         0.451197; 0.400476;,
         0.458964; 0.418251;,
         0.469634; 0.422440;,
         0.294336; 0.422498;,
         0.294336; 0.315992;,
         0.469633; 0.316051;,
         0.458964; 0.320240;,
         0.451197; 0.338014;,
         0.215846; 0.998490;,
         0.215979; 0.240206;,
         0.291321; 0.226688;,
         0.291244; 0.998492;,
         0.797906; 0.998502;,
         0.797906; 0.870776;,
         0.910641; 0.870776;,
         0.910641; 0.998502;,
         0.076763; 0.129164;,
         0.077006; 0.240242;,
         0.001643; 0.226735;,
         0.001495; 0.099135;,
         0.196717; 0.138098;,
         0.216148; 0.129201;,
         0.215979; 0.240206;,
         0.207684; 0.240227;,
         0.199137; 0.179332;,
         0.095979; 0.998476;,
         0.076884; 0.998467;,
         0.077006; 0.240242;,
         0.085286; 0.240266;,
         0.096225; 0.243689;,
         0.096239; 0.533019;,
         0.096186; 0.715585;,
         0.182456; 0.750203;,
         0.177588; 0.998501;,
         0.156400; 0.764641;,
         0.156400; 0.764641;,
         0.177588; 0.998501;,
         0.115169; 0.998491;,
         0.136376; 0.764748;,
         0.661407; 0.319174;,
         0.661407; 0.385255;,
         0.470317; 0.418217;,
         0.470317; 0.319174;,
         0.545624; 0.319174;,
         0.797906; 0.100541;,
         0.797906; 0.001498;,
         0.910642; 0.001498;,
         0.910642; 0.100541;;
      }
      MeshMaterialList {
        1;
        53;
        0,
        0,
        0,
        0,
        0,
        0,
        0,
        0,
        0,
        0,
        0,
        0,
        0,
        0,
        0,
        0,
        0,
        0,
        0,
        0,
        0,
        0,
        0,
        0,
        0,
        0,
        0,
        0,
        0,
        0,
        0,
        0,
        0,
        0,
        0,
        0,
        0,
        0,
        0,
        0,
        0,
        0,
        0,
        0,
        0,
        0,
        0,
        0,
        0,
        0,
        0,
        0,
        0;
        Material FOREGRIP2 {
           0.800000; 0.800000; 0.800000; 1.000000;;
           225.000000;
           0.500000; 0.500000; 0.500000;;
           0.000000; 0.000000; 0.000000;;
        }
      }
    }
  }
}
