xof 0303txt 0032

Frame Root {
  FrameTransformMatrix {
     1.000000, 0.000000, 0.000000, 0.000000,
     0.000000,-0.000000, 1.000000, 0.000000,
     0.000000, 1.000000, 0.000000, 0.000000,
     0.000000, 0.000000, 0.000000, 1.000000;;
  }
  Frame Cylinder {
    FrameTransformMatrix {
       1.000000, 0.000000, 0.000000, 0.000000,
       0.000000, 1.000000, 0.000000, 0.000000,
       0.000000, 0.000000, 1.000000, 0.000000,
       0.000000, 0.000000, 0.000000, 1.000000;;
    }
    Mesh {
      1020;
      -0.011151;-0.013723;-0.384694;,
       0.005659;-0.009815;-0.384684;,
       0.005659;-0.009746;-0.410150;,
      -0.011151;-0.013655;-0.410161;,
       0.005659;-0.009815;-0.384684;,
       0.010476; 0.002264;-0.384651;,
       0.010476; 0.002333;-0.410118;,
       0.005659;-0.009746;-0.410150;,
       0.010476; 0.002264;-0.384651;,
       0.005659; 0.014343;-0.384619;,
       0.005659; 0.014412;-0.410085;,
       0.010476; 0.002333;-0.410118;,
       0.005659; 0.014343;-0.384619;,
      -0.011151; 0.018252;-0.384608;,
      -0.011151; 0.018320;-0.410075;,
       0.005659; 0.014412;-0.410085;,
      -0.011151; 0.018252;-0.384608;,
      -0.029855; 0.010816;-0.384628;,
      -0.029855; 0.010884;-0.410095;,
      -0.011151; 0.018320;-0.410075;,
      -0.029855; 0.010816;-0.384628;,
      -0.034910; 0.002264;-0.384651;,
      -0.034910; 0.002333;-0.410118;,
      -0.029855; 0.010884;-0.410095;,
      -0.011151; 0.018320;-0.410075;,
      -0.029855; 0.010884;-0.410095;,
      -0.034910; 0.002333;-0.410118;,
      -0.029855;-0.006219;-0.410141;,
      -0.011151;-0.013655;-0.410161;,
       0.005659;-0.009746;-0.410150;,
       0.010476; 0.002333;-0.410118;,
       0.005659; 0.014412;-0.410085;,
      -0.034910; 0.002264;-0.384651;,
      -0.029855;-0.006287;-0.384674;,
      -0.029855;-0.006219;-0.410141;,
      -0.034910; 0.002333;-0.410118;,
      -0.029855;-0.006287;-0.384674;,
      -0.011151;-0.013723;-0.384694;,
      -0.011151;-0.013655;-0.410161;,
      -0.029855;-0.006219;-0.410141;,
      -0.029855;-0.006287;-0.384674;,
      -0.034910; 0.002264;-0.384651;,
      -0.029855; 0.010816;-0.384628;,
      -0.011151; 0.018252;-0.384608;,
       0.005659; 0.014343;-0.384619;,
       0.010476; 0.002264;-0.384651;,
       0.005659;-0.009815;-0.384684;,
      -0.011151;-0.013723;-0.384694;,
      -0.011139; 0.014654;-0.120327;,
      -0.010154; 0.001552;-0.120363;,
      -0.021118; 0.001552;-0.120363;,
      -0.020202; 0.010772;-0.120338;,
      -0.012378; 0.002513;-0.477191;,
      -0.014154; 0.015616;-0.477155;,
      -0.020202; 0.011734;-0.477166;,
      -0.021118; 0.002513;-0.477191;,
      -0.012646; 0.015135;-0.298741;,
      -0.011139; 0.014654;-0.120327;,
      -0.020202; 0.010772;-0.120338;,
      -0.020202; 0.011253;-0.298752;,
       0.010818; 0.002033;-0.298777;,
       0.009588; 0.009865;-0.298756;,
       0.004804; 0.010346;-0.477169;,
       0.006035; 0.002513;-0.477191;,
      -0.021118; 0.002033;-0.298777;,
      -0.020202; 0.011253;-0.298752;,
      -0.020202; 0.010772;-0.120338;,
      -0.021118; 0.001552;-0.120363;,
       0.009588; 0.009865;-0.298756;,
       0.014371; 0.009385;-0.120342;,
       0.005980; 0.014654;-0.120327;,
       0.001196; 0.015135;-0.298741;,
       0.006035; 0.002513;-0.477191;,
       0.004804; 0.010346;-0.477169;,
      -0.003587; 0.015616;-0.477155;,
       0.002048; 0.002513;-0.477191;,
       0.010818; 0.002033;-0.298777;,
       0.006035; 0.002513;-0.477191;,
       0.002048; 0.002513;-0.477191;,
       0.005577; 0.002033;-0.298777;,
       0.014371; 0.009385;-0.120342;,
       0.015601; 0.001552;-0.120363;,
       0.009106; 0.001552;-0.120363;,
       0.005980; 0.014654;-0.120327;,
       0.001196; 0.015135;-0.298741;,
       0.005980; 0.014654;-0.120327;,
      -0.011139; 0.014654;-0.120327;,
      -0.012646; 0.015135;-0.298741;,
       0.002048; 0.002513;-0.477191;,
      -0.003587; 0.015616;-0.477155;,
      -0.014154; 0.015616;-0.477155;,
      -0.012378; 0.002513;-0.477191;,
       0.005980; 0.014654;-0.120327;,
       0.009106; 0.001552;-0.120363;,
      -0.010154; 0.001552;-0.120363;,
      -0.011139; 0.014654;-0.120327;,
      -0.003587; 0.015616;-0.477155;,
       0.001196; 0.015135;-0.298741;,
      -0.012646; 0.015135;-0.298741;,
      -0.014154; 0.015616;-0.477155;,
       0.015601; 0.001552;-0.120363;,
       0.010818; 0.002033;-0.298777;,
       0.005577; 0.002033;-0.298777;,
       0.009106; 0.001552;-0.120363;,
       0.004804; 0.010346;-0.477169;,
       0.009588; 0.009865;-0.298756;,
       0.001196; 0.015135;-0.298741;,
      -0.003587; 0.015616;-0.477155;,
      -0.021118; 0.002513;-0.477191;,
      -0.020202; 0.011734;-0.477166;,
      -0.020202; 0.011253;-0.298752;,
      -0.021118; 0.002033;-0.298777;,
       0.015601; 0.001552;-0.120363;,
       0.014371; 0.009385;-0.120342;,
       0.009588; 0.009865;-0.298756;,
       0.010818; 0.002033;-0.298777;,
      -0.014154; 0.015616;-0.477155;,
      -0.012646; 0.015135;-0.298741;,
      -0.020202; 0.011253;-0.298752;,
      -0.020202; 0.011734;-0.477166;,
      -0.011139;-0.011550;-0.120398;,
      -0.020202;-0.007668;-0.120388;,
      -0.021118; 0.001552;-0.120363;,
      -0.010154; 0.001552;-0.120363;,
      -0.012378; 0.002513;-0.477191;,
      -0.021118; 0.002513;-0.477191;,
      -0.020202;-0.006707;-0.477215;,
      -0.014154;-0.010589;-0.477226;,
      -0.012646;-0.011069;-0.298812;,
      -0.020202;-0.007187;-0.298801;,
      -0.020202;-0.007668;-0.120388;,
      -0.011139;-0.011550;-0.120398;,
       0.010818; 0.002033;-0.298777;,
       0.006035; 0.002513;-0.477191;,
       0.004804;-0.005319;-0.477212;,
       0.009588;-0.005800;-0.298798;,
      -0.021118; 0.002033;-0.298777;,
      -0.021118; 0.001552;-0.120363;,
      -0.020202;-0.007668;-0.120388;,
      -0.020202;-0.007187;-0.298801;,
       0.009588;-0.005800;-0.298798;,
       0.001196;-0.011069;-0.298812;,
       0.005980;-0.011550;-0.120398;,
       0.014371;-0.006281;-0.120384;,
       0.006035; 0.002513;-0.477191;,
       0.002048; 0.002513;-0.477191;,
      -0.003587;-0.010589;-0.477226;,
       0.004804;-0.005319;-0.477212;,
       0.014371;-0.006281;-0.120384;,
       0.005980;-0.011550;-0.120398;,
       0.009106; 0.001552;-0.120363;,
       0.015601; 0.001552;-0.120363;,
       0.001196;-0.011069;-0.298812;,
      -0.012646;-0.011069;-0.298812;,
      -0.011139;-0.011550;-0.120398;,
       0.005980;-0.011550;-0.120398;,
       0.002048; 0.002513;-0.477191;,
      -0.012378; 0.002513;-0.477191;,
      -0.014154;-0.010589;-0.477226;,
      -0.003587;-0.010589;-0.477226;,
       0.005980;-0.011550;-0.120398;,
      -0.011139;-0.011550;-0.120398;,
      -0.010154; 0.001552;-0.120363;,
       0.009106; 0.001552;-0.120363;,
      -0.003587;-0.010589;-0.477226;,
      -0.014154;-0.010589;-0.477226;,
      -0.012646;-0.011069;-0.298812;,
       0.001196;-0.011069;-0.298812;,
       0.004804;-0.005319;-0.477212;,
      -0.003587;-0.010589;-0.477226;,
       0.001196;-0.011069;-0.298812;,
       0.009588;-0.005800;-0.298798;,
      -0.021118; 0.002513;-0.477191;,
      -0.021118; 0.002033;-0.298777;,
      -0.020202;-0.007187;-0.298801;,
      -0.020202;-0.006707;-0.477215;,
       0.015601; 0.001552;-0.120363;,
       0.010818; 0.002033;-0.298777;,
       0.009588;-0.005800;-0.298798;,
       0.014371;-0.006281;-0.120384;,
      -0.014154;-0.010589;-0.477226;,
      -0.020202;-0.006707;-0.477215;,
      -0.020202;-0.007187;-0.298801;,
      -0.012646;-0.011069;-0.298812;,
       0.008535; 0.007504;-0.044745;,
       0.006576; 0.001342;-0.042447;,
      -0.002082; 0.001385;-0.058396;,
      -0.000493; 0.007541;-0.058380;,
       0.006258; 0.012370;-0.082640;,
       0.008535; 0.012277;-0.047793;,
       0.001711; 0.013188;-0.058364;,
      -0.010093; 0.013254;-0.082638;,
       0.056259; 0.012332;-0.068422;,
       0.075058; 0.012369;-0.082057;,
       0.069958; 0.012258;-0.041009;,
       0.055998; 0.012267;-0.044212;,
      -0.012297; 0.007606;-0.082653;,
      -0.010093; 0.013254;-0.082638;,
       0.001711; 0.013188;-0.058364;,
      -0.000493; 0.007541;-0.058380;,
       0.056259; 0.012332;-0.068422;,
       0.055998; 0.012267;-0.044212;,
       0.021221; 0.012267;-0.044418;,
       0.015691; 0.012363;-0.079906;,
       0.056259; 0.007864;-0.071398;,
       0.056259; 0.012332;-0.068422;,
       0.015691; 0.012363;-0.079906;,
       0.019990; 0.007895;-0.082883;,
       0.017582; 0.009522;-0.041364;,
       0.012491; 0.009450;-0.014646;,
       0.009298; 0.001267;-0.014668;,
       0.014389; 0.001335;-0.039795;,
       0.069226; 0.012374; 0.011554;,
       0.054654; 0.012447; 0.040474;,
       0.075998; 0.012442; 0.035280;,
       0.085814; 0.012541; 0.059746;,
       0.005543; 0.012523; 0.066389;,
       0.016131; 0.012187;-0.014638;,
       0.056041; 0.012203;-0.020674;,
       0.059678; 0.009522;-0.041364;,
       0.059721; 0.009467;-0.020682;,
       0.056041; 0.012203;-0.020674;,
       0.055998; 0.012267;-0.044212;,
       0.055998; 0.012267;-0.044212;,
       0.056041; 0.012203;-0.020674;,
       0.016131; 0.012187;-0.014638;,
       0.021221; 0.012267;-0.044418;,
      -0.007168; 0.009739;-0.121641;,
      -0.007168; 0.014788;-0.121628;,
      -0.016660; 0.015671;-0.121625;,
      -0.018863; 0.007711;-0.121647;,
      -0.012297; 0.007606;-0.082653;,
      -0.018863; 0.007711;-0.121647;,
      -0.016660; 0.015671;-0.121625;,
      -0.010093; 0.013254;-0.082638;,
       0.019990; 0.007895;-0.082883;,
       0.014670; 0.012051;-0.121635;,
       0.015560; 0.001556;-0.121663;,
       0.020880; 0.001455;-0.084296;,
       0.006258; 0.012370;-0.082640;,
      -0.007168; 0.014788;-0.121628;,
       0.009479; 0.014788;-0.121628;,
       0.015691; 0.012363;-0.079906;,
      -0.010093; 0.013254;-0.082638;,
      -0.016660; 0.015671;-0.121625;,
      -0.007168; 0.014788;-0.121628;,
       0.006258; 0.012370;-0.082640;,
       0.014670; 0.012051;-0.121635;,
       0.009479; 0.014788;-0.121628;,
      -0.007168; 0.014788;-0.121628;,
      -0.007168; 0.009739;-0.121641;,
       0.015691; 0.012363;-0.079906;,
       0.021221; 0.012267;-0.044418;,
       0.008535; 0.012277;-0.047793;,
       0.006258; 0.012370;-0.082640;,
       0.017582; 0.009522;-0.041364;,
       0.014389; 0.001335;-0.039795;,
       0.006576; 0.001342;-0.042447;,
       0.008535; 0.007504;-0.044745;,
       0.075058; 0.012369;-0.082057;,
       0.080482; 0.012050;-0.080025;,
       0.075731; 0.011947;-0.041787;,
       0.069958; 0.012258;-0.041009;,
       0.059678; 0.009522;-0.041364;,
       0.069958; 0.009514;-0.038160;,
       0.069958; 0.001324;-0.035586;,
       0.059678; 0.001332;-0.038789;,
       0.056259; 0.007864;-0.071398;,
       0.075058; 0.007900;-0.085034;,
       0.075058; 0.012369;-0.082057;,
       0.056259; 0.012332;-0.068422;,
       0.085814; 0.012541; 0.059746;,
       0.090427; 0.012557; 0.106048;,
       0.008305; 0.012539; 0.112828;,
       0.005543; 0.012523; 0.066389;,
       0.071575; 0.009547; 0.006885;,
       0.070437; 0.010955; 0.009146;,
       0.069226; 0.012374; 0.011554;,
       0.056041; 0.012203;-0.020674;,
       0.059721; 0.009467;-0.020682;,
       0.075998; 0.012442; 0.035280;,
       0.077014; 0.011633; 0.035030;,
       0.079439; 0.009588; 0.034435;,
       0.089494; 0.009640; 0.059738;,
       0.085814; 0.012541; 0.059746;,
       0.012491; 0.009450;-0.014646;,
       0.001903; 0.009622; 0.066381;,
      -0.001289; 0.000949; 0.066357;,
       0.009298; 0.001267;-0.014668;,
       0.094107; 0.009613; 0.109245;,
       0.094107; 0.000834; 0.109221;,
       0.001472; 0.000816; 0.116001;,
       0.004665; 0.009594; 0.116025;,
       0.089494; 0.009640; 0.059738;,
       0.094107; 0.009613; 0.109245;,
       0.090427; 0.012557; 0.106048;,
       0.085814; 0.012541; 0.059746;,
       0.001903; 0.009622; 0.066381;,
       0.004665; 0.009594; 0.116025;,
       0.001472; 0.000816; 0.116001;,
      -0.001289; 0.000949; 0.066357;,
       0.005543; 0.012523; 0.066389;,
       0.008305; 0.012539; 0.112828;,
       0.004665; 0.009594; 0.116025;,
       0.001903; 0.009622; 0.066381;,
       0.089494; 0.000967; 0.059715;,
       0.094107; 0.000834; 0.109221;,
       0.094107; 0.009613; 0.109245;,
       0.089494; 0.009640; 0.059738;,
       0.090427; 0.012557; 0.106048;,
       0.094107; 0.009613; 0.109245;,
       0.004665; 0.009594; 0.116025;,
       0.008305; 0.012539; 0.112828;,
       0.016131; 0.012187;-0.014638;,
       0.005543; 0.012523; 0.066389;,
       0.001903; 0.009622; 0.066381;,
       0.012491; 0.009450;-0.014646;,
       0.071575; 0.001136; 0.006862;,
       0.071575; 0.009547; 0.006885;,
       0.059721; 0.009467;-0.020682;,
       0.059721; 0.001283;-0.020704;,
       0.079439; 0.009588; 0.034435;,
       0.079439; 0.001062; 0.034412;,
       0.089494; 0.000967; 0.059715;,
       0.089494; 0.009640; 0.059738;,
       0.056259; 0.001424;-0.072812;,
       0.075058; 0.001461;-0.086447;,
       0.075058; 0.007900;-0.085034;,
       0.056259; 0.007864;-0.071398;,
       0.055998; 0.012267;-0.044212;,
       0.069958; 0.012258;-0.041009;,
       0.069958; 0.009514;-0.038160;,
       0.059678; 0.009522;-0.041364;,
       0.069958; 0.009514;-0.038160;,
       0.075731; 0.009391;-0.039134;,
       0.075731; 0.001327;-0.036737;,
       0.069958; 0.001324;-0.035586;,
       0.021221; 0.012267;-0.044418;,
       0.017582; 0.009522;-0.041364;,
       0.008535; 0.007504;-0.044745;,
       0.008535; 0.012277;-0.047793;,
       0.015560; 0.001556;-0.121663;,
       0.014670; 0.012051;-0.121635;,
      -0.007168; 0.009739;-0.121641;,
      -0.007168; 0.001556;-0.121663;,
       0.015691; 0.012363;-0.079906;,
       0.009479; 0.014788;-0.121628;,
       0.014670; 0.012051;-0.121635;,
       0.019990; 0.007895;-0.082883;,
      -0.013886; 0.001450;-0.082670;,
      -0.020452; 0.001556;-0.121663;,
      -0.018863; 0.007711;-0.121647;,
      -0.012297; 0.007606;-0.082653;,
      -0.007168; 0.001556;-0.121663;,
      -0.007168; 0.009739;-0.121641;,
      -0.018863; 0.007711;-0.121647;,
      -0.020452; 0.001556;-0.121663;,
       0.059678; 0.001332;-0.038789;,
       0.059721; 0.001283;-0.020704;,
       0.059721; 0.009467;-0.020682;,
       0.059678; 0.009522;-0.041364;,
       0.021221; 0.012267;-0.044418;,
       0.016131; 0.012187;-0.014638;,
       0.012491; 0.009450;-0.014646;,
       0.017582; 0.009522;-0.041364;,
       0.056259; 0.001424;-0.072812;,
       0.056259; 0.007864;-0.071398;,
       0.019990; 0.007895;-0.082883;,
       0.020880; 0.001455;-0.084296;,
      -0.013886; 0.001450;-0.082670;,
      -0.012297; 0.007606;-0.082653;,
      -0.000493; 0.007541;-0.058380;,
      -0.002082; 0.001385;-0.058396;,
       0.008535; 0.012277;-0.047793;,
       0.008535; 0.007504;-0.044745;,
      -0.000493; 0.007541;-0.058380;,
       0.001711; 0.013188;-0.058364;,
       0.075731; 0.009391;-0.039134;,
       0.075731; 0.011947;-0.041787;,
       0.080482; 0.012050;-0.080025;,
       0.080482; 0.007888;-0.082798;,
       0.075731; 0.001327;-0.036737;,
       0.075731; 0.009391;-0.039134;,
       0.080482; 0.007888;-0.082798;,
       0.080482; 0.001454;-0.084115;,
       0.075058; 0.007900;-0.085034;,
       0.080482; 0.007888;-0.082798;,
       0.080482; 0.012050;-0.080025;,
       0.075058; 0.012369;-0.082057;,
       0.075058; 0.001461;-0.086447;,
       0.080482; 0.001454;-0.084115;,
       0.080482; 0.007888;-0.082798;,
       0.075058; 0.007900;-0.085034;,
       0.069958; 0.012258;-0.041009;,
       0.075731; 0.011947;-0.041787;,
       0.075731; 0.009391;-0.039134;,
       0.069958; 0.009514;-0.038160;,
       0.008535;-0.004807;-0.044778;,
      -0.000493;-0.004771;-0.058413;,
      -0.002082; 0.001385;-0.058396;,
       0.006576; 0.001342;-0.042447;,
       0.006258;-0.009470;-0.082699;,
      -0.010093;-0.010353;-0.082701;,
       0.001711;-0.010418;-0.058428;,
       0.008535;-0.009563;-0.047852;,
       0.056259;-0.009508;-0.068481;,
       0.055998;-0.009573;-0.044271;,
       0.069958;-0.009582;-0.041068;,
       0.075058;-0.009471;-0.082116;,
      -0.012297;-0.004705;-0.082686;,
      -0.000493;-0.004771;-0.058413;,
       0.001711;-0.010418;-0.058428;,
      -0.010093;-0.010353;-0.082701;,
       0.056259;-0.009508;-0.068481;,
       0.015691;-0.009477;-0.079965;,
       0.021221;-0.009573;-0.044476;,
       0.055998;-0.009573;-0.044271;,
       0.056259;-0.005023;-0.071433;,
       0.019990;-0.004992;-0.082918;,
       0.015691;-0.009477;-0.079965;,
       0.056259;-0.009508;-0.068481;,
       0.017582;-0.006844;-0.041408;,
       0.014389; 0.001335;-0.039795;,
       0.009298; 0.001267;-0.014668;,
       0.012491;-0.006916;-0.014690;,
       0.085814;-0.010606; 0.059684;,
       0.075998;-0.010322; 0.035218;,
       0.054654;-0.010355; 0.040412;,
       0.069226;-0.010126; 0.011494;,
       0.056041;-0.009637;-0.020733;,
       0.016131;-0.009653;-0.014697;,
       0.005543;-0.010624; 0.066326;,
       0.059678;-0.006844;-0.041408;,
       0.055998;-0.009573;-0.044271;,
       0.056041;-0.009637;-0.020733;,
       0.059721;-0.006900;-0.020726;,
       0.055998;-0.009573;-0.044271;,
       0.021221;-0.009573;-0.044476;,
       0.016131;-0.009653;-0.014697;,
       0.056041;-0.009637;-0.020733;,
      -0.007168;-0.006628;-0.121685;,
      -0.018863;-0.004600;-0.121680;,
      -0.016660;-0.012560;-0.121701;,
      -0.007168;-0.011677;-0.121699;,
      -0.012297;-0.004705;-0.082686;,
      -0.010093;-0.010353;-0.082701;,
      -0.016660;-0.012560;-0.121701;,
      -0.018863;-0.004600;-0.121680;,
       0.019990;-0.004992;-0.082918;,
       0.020880; 0.001455;-0.084296;,
       0.015560; 0.001556;-0.121663;,
       0.014670;-0.008940;-0.121692;,
       0.006258;-0.009470;-0.082699;,
       0.015691;-0.009477;-0.079965;,
       0.009479;-0.011677;-0.121699;,
      -0.007168;-0.011677;-0.121699;,
      -0.010093;-0.010353;-0.082701;,
       0.006258;-0.009470;-0.082699;,
      -0.007168;-0.011677;-0.121699;,
      -0.016660;-0.012560;-0.121701;,
       0.014670;-0.008940;-0.121692;,
      -0.007168;-0.006628;-0.121685;,
      -0.007168;-0.011677;-0.121699;,
       0.009479;-0.011677;-0.121699;,
       0.015691;-0.009477;-0.079965;,
       0.006258;-0.009470;-0.082699;,
       0.008535;-0.009563;-0.047852;,
       0.021221;-0.009573;-0.044476;,
       0.017582;-0.006844;-0.041408;,
       0.008535;-0.004807;-0.044778;,
       0.006576; 0.001342;-0.042447;,
       0.014389; 0.001335;-0.039795;,
       0.075058;-0.009471;-0.082116;,
       0.069958;-0.009582;-0.041068;,
       0.075731;-0.009267;-0.041845;,
       0.080482;-0.009164;-0.080082;,
       0.059678;-0.006844;-0.041408;,
       0.059678; 0.001332;-0.038789;,
       0.069958; 0.001324;-0.035586;,
       0.069958;-0.006853;-0.038205;,
       0.056259;-0.005023;-0.071433;,
       0.056259;-0.009508;-0.068481;,
       0.075058;-0.009471;-0.082116;,
       0.075058;-0.004987;-0.085069;,
       0.085814;-0.010606; 0.059684;,
       0.005543;-0.010624; 0.066326;,
       0.008305;-0.010891; 0.112765;,
       0.090427;-0.010872; 0.105985;,
       0.089494;-0.007706; 0.059691;,
       0.079439;-0.007464; 0.034389;,
       0.077014;-0.009512; 0.034973;,
       0.075998;-0.010322; 0.035218;,
       0.085814;-0.010606; 0.059684;,
       0.069226;-0.010126; 0.011494;,
       0.070437;-0.008695; 0.009093;,
       0.071575;-0.007274; 0.006839;,
       0.059721;-0.006900;-0.020726;,
       0.056041;-0.009637;-0.020733;,
       0.012491;-0.006916;-0.014690;,
       0.009298; 0.001267;-0.014668;,
      -0.001289; 0.000949; 0.066357;,
       0.001903;-0.007723; 0.066334;,
       0.094107;-0.007945; 0.109197;,
       0.004665;-0.007963; 0.115977;,
       0.001472; 0.000816; 0.116001;,
       0.094107; 0.000834; 0.109221;,
       0.089494;-0.007706; 0.059691;,
       0.085814;-0.010606; 0.059684;,
       0.090427;-0.010872; 0.105985;,
       0.094107;-0.007945; 0.109197;,
       0.001903;-0.007723; 0.066334;,
      -0.001289; 0.000949; 0.066357;,
       0.001472; 0.000816; 0.116001;,
       0.004665;-0.007963; 0.115977;,
       0.005543;-0.010624; 0.066326;,
       0.001903;-0.007723; 0.066334;,
       0.004665;-0.007963; 0.115977;,
       0.008305;-0.010891; 0.112765;,
       0.089494; 0.000967; 0.059715;,
       0.089494;-0.007706; 0.059691;,
       0.094107;-0.007945; 0.109197;,
       0.094107; 0.000834; 0.109221;,
       0.090427;-0.010872; 0.105985;,
       0.008305;-0.010891; 0.112765;,
       0.004665;-0.007963; 0.115977;,
       0.094107;-0.007945; 0.109197;,
       0.016131;-0.009653;-0.014697;,
       0.012491;-0.006916;-0.014690;,
       0.001903;-0.007723; 0.066334;,
       0.005543;-0.010624; 0.066326;,
       0.071575;-0.007274; 0.006839;,
       0.071575; 0.001136; 0.006862;,
       0.059721; 0.001283;-0.020704;,
       0.059721;-0.006900;-0.020726;,
       0.079439; 0.001062; 0.034412;,
       0.079439;-0.007464; 0.034389;,
       0.089494;-0.007706; 0.059691;,
       0.089494; 0.000967; 0.059715;,
       0.056259; 0.001424;-0.072812;,
       0.056259;-0.005023;-0.071433;,
       0.075058;-0.004987;-0.085069;,
       0.075058; 0.001461;-0.086447;,
       0.055998;-0.009573;-0.044271;,
       0.059678;-0.006844;-0.041408;,
       0.069958;-0.006853;-0.038205;,
       0.069958;-0.009582;-0.041068;,
       0.069958;-0.006853;-0.038205;,
       0.069958; 0.001324;-0.035586;,
       0.075731; 0.001327;-0.036737;,
       0.075731;-0.006724;-0.039177;,
       0.021221;-0.009573;-0.044476;,
       0.008535;-0.009563;-0.047852;,
       0.008535;-0.004807;-0.044778;,
       0.017582;-0.006844;-0.041408;,
       0.015560; 0.001556;-0.121663;,
      -0.007168; 0.001556;-0.121663;,
      -0.007168;-0.006628;-0.121685;,
       0.014670;-0.008940;-0.121692;,
       0.015691;-0.009477;-0.079965;,
       0.019990;-0.004992;-0.082918;,
       0.014670;-0.008940;-0.121692;,
       0.009479;-0.011677;-0.121699;,
      -0.013886; 0.001450;-0.082670;,
      -0.012297;-0.004705;-0.082686;,
      -0.018863;-0.004600;-0.121680;,
      -0.020452; 0.001556;-0.121663;,
      -0.007168; 0.001556;-0.121663;,
      -0.020452; 0.001556;-0.121663;,
      -0.018863;-0.004600;-0.121680;,
      -0.007168;-0.006628;-0.121685;,
       0.059678; 0.001332;-0.038789;,
       0.059678;-0.006844;-0.041408;,
       0.059721;-0.006900;-0.020726;,
       0.059721; 0.001283;-0.020704;,
       0.021221;-0.009573;-0.044476;,
       0.017582;-0.006844;-0.041408;,
       0.012491;-0.006916;-0.014690;,
       0.016131;-0.009653;-0.014697;,
       0.056259; 0.001424;-0.072812;,
       0.020880; 0.001455;-0.084296;,
       0.019990;-0.004992;-0.082918;,
       0.056259;-0.005023;-0.071433;,
      -0.013886; 0.001450;-0.082670;,
      -0.002082; 0.001385;-0.058396;,
      -0.000493;-0.004771;-0.058413;,
      -0.012297;-0.004705;-0.082686;,
       0.008535;-0.009563;-0.047852;,
       0.001711;-0.010418;-0.058428;,
      -0.000493;-0.004771;-0.058413;,
       0.008535;-0.004807;-0.044778;,
       0.075731;-0.006724;-0.039177;,
       0.080482;-0.004986;-0.082832;,
       0.080482;-0.009164;-0.080082;,
       0.075731;-0.009267;-0.041845;,
       0.075731; 0.001327;-0.036737;,
       0.080482; 0.001454;-0.084115;,
       0.080482;-0.004986;-0.082832;,
       0.075731;-0.006724;-0.039177;,
       0.075058;-0.004987;-0.085069;,
       0.075058;-0.009471;-0.082116;,
       0.080482;-0.009164;-0.080082;,
       0.080482;-0.004986;-0.082832;,
       0.075058; 0.001461;-0.086447;,
       0.075058;-0.004987;-0.085069;,
       0.080482;-0.004986;-0.082832;,
       0.080482; 0.001454;-0.084115;,
       0.069958;-0.009582;-0.041068;,
       0.069958;-0.006853;-0.038205;,
       0.075731;-0.006724;-0.039177;,
       0.075731;-0.009267;-0.041845;,
       0.009253;-0.003627;-0.119740;,
       0.016828;-0.003619;-0.122456;,
       0.016828; 0.006734;-0.122429;,
       0.009253; 0.006727;-0.119712;,
       0.009253; 0.006727;-0.119712;,
       0.016828; 0.006734;-0.122429;,
       0.017844; 0.006722;-0.117845;,
       0.010268; 0.006715;-0.115129;,
       0.010268; 0.006715;-0.115129;,
       0.017844; 0.006722;-0.117845;,
       0.017844;-0.003632;-0.117873;,
       0.010268;-0.003639;-0.115157;,
       0.010268;-0.003639;-0.115157;,
       0.017844;-0.003632;-0.117873;,
       0.016828;-0.003619;-0.122456;,
       0.009253;-0.003627;-0.119740;,
       0.009253; 0.006727;-0.119712;,
       0.010268; 0.006715;-0.115129;,
       0.010268;-0.003639;-0.115157;,
       0.009253;-0.003627;-0.119740;,
       0.017844;-0.003632;-0.117873;,
       0.017844; 0.006722;-0.117845;,
       0.027066; 0.006725;-0.118890;,
       0.027066;-0.003629;-0.118918;,
       0.027066;-0.003629;-0.118918;,
       0.027066; 0.006725;-0.118890;,
       0.034372; 0.006719;-0.116638;,
       0.034372;-0.003635;-0.116666;,
       0.016828; 0.006734;-0.122429;,
       0.016828;-0.003619;-0.122456;,
       0.029751;-0.003617;-0.123463;,
       0.029751; 0.006737;-0.123435;,
       0.016828;-0.003619;-0.122456;,
       0.017844;-0.003632;-0.117873;,
       0.027066;-0.003629;-0.118918;,
       0.029751;-0.003617;-0.123463;,
       0.017844; 0.006722;-0.117845;,
       0.016828; 0.006734;-0.122429;,
       0.029751; 0.006737;-0.123435;,
       0.027066; 0.006725;-0.118890;,
       0.040126;-0.003631;-0.118090;,
       0.034372;-0.003635;-0.116666;,
       0.040118;-0.003677;-0.100976;,
       0.045956;-0.003676;-0.101215;,
       0.029751; 0.006737;-0.123435;,
       0.029751;-0.003617;-0.123463;,
       0.040126;-0.003631;-0.118090;,
       0.040126; 0.006723;-0.118062;,
       0.029751;-0.003617;-0.123463;,
       0.027066;-0.003629;-0.118918;,
       0.034372;-0.003635;-0.116666;,
       0.040126;-0.003631;-0.118090;,
       0.027066; 0.006725;-0.118890;,
       0.029751; 0.006737;-0.123435;,
       0.040126; 0.006723;-0.118062;,
       0.034372; 0.006719;-0.116638;,
       0.040118;-0.003677;-0.100976;,
       0.040118; 0.006677;-0.100948;,
       0.038566; 0.006652;-0.091746;,
       0.038566;-0.003702;-0.091774;,
       0.034372; 0.006719;-0.116638;,
       0.040126; 0.006723;-0.118062;,
       0.045956; 0.006677;-0.101187;,
       0.040118; 0.006677;-0.100948;,
       0.034372;-0.003635;-0.116666;,
       0.034372; 0.006719;-0.116638;,
       0.040118; 0.006677;-0.100948;,
       0.040118;-0.003677;-0.100976;,
       0.040126; 0.006723;-0.118062;,
       0.040126;-0.003631;-0.118090;,
       0.045956;-0.003676;-0.101215;,
       0.045956; 0.006677;-0.101187;,
       0.043880; 0.006649;-0.090771;,
       0.043880;-0.003705;-0.090799;,
       0.037503;-0.003729;-0.081740;,
       0.037503; 0.006625;-0.081712;,
       0.045956; 0.006677;-0.101187;,
       0.045956;-0.003676;-0.101215;,
       0.043880;-0.003705;-0.090799;,
       0.043880; 0.006649;-0.090771;,
       0.045956;-0.003676;-0.101215;,
       0.040118;-0.003677;-0.100976;,
       0.038566;-0.003702;-0.091774;,
       0.043880;-0.003705;-0.090799;,
       0.040118; 0.006677;-0.100948;,
       0.045956; 0.006677;-0.101187;,
       0.043880; 0.006649;-0.090771;,
       0.038566; 0.006652;-0.091746;,
       0.037503;-0.003729;-0.081740;,
       0.033124;-0.003724;-0.083695;,
       0.026025;-0.003739;-0.078116;,
       0.030404;-0.003744;-0.076160;,
       0.043880;-0.003705;-0.090799;,
       0.038566;-0.003702;-0.091774;,
       0.033124;-0.003724;-0.083695;,
       0.037503;-0.003729;-0.081740;,
       0.038566; 0.006652;-0.091746;,
       0.043880; 0.006649;-0.090771;,
       0.037503; 0.006625;-0.081712;,
       0.033124; 0.006630;-0.083668;,
       0.038566;-0.003702;-0.091774;,
       0.038566; 0.006652;-0.091746;,
       0.033124; 0.006630;-0.083668;,
       0.033124;-0.003724;-0.083695;,
       0.026025; 0.006615;-0.078088;,
       0.030404; 0.006610;-0.076132;,
       0.030404;-0.003744;-0.076160;,
       0.026025;-0.003739;-0.078116;,
       0.033124; 0.006630;-0.083668;,
       0.037503; 0.006625;-0.081712;,
       0.030404; 0.006610;-0.076132;,
       0.026025; 0.006615;-0.078088;,
       0.033124;-0.003724;-0.083695;,
       0.033124; 0.006630;-0.083668;,
       0.026025; 0.006615;-0.078088;,
       0.026025;-0.003739;-0.078116;,
       0.037503; 0.006625;-0.081712;,
       0.037503;-0.003729;-0.081740;,
       0.030404;-0.003744;-0.076160;,
       0.030404; 0.006610;-0.076132;,
       0.032143; 0.004148;-0.100340;,
       0.032143;-0.001152;-0.100354;,
       0.018917;-0.002315;-0.088431;,
       0.018917; 0.005247;-0.088411;,
       0.032143;-0.001152;-0.100354;,
       0.029342;-0.001140;-0.104853;,
       0.014920;-0.002298;-0.094850;,
       0.018917;-0.002315;-0.088431;,
       0.029342;-0.001140;-0.104853;,
       0.029342; 0.004160;-0.104839;,
       0.014920; 0.005264;-0.094830;,
       0.014920;-0.002298;-0.094850;,
       0.029342; 0.004160;-0.104839;,
       0.032143; 0.004148;-0.100340;,
       0.018917; 0.005247;-0.088411;,
       0.014920; 0.005264;-0.094830;,
       0.029342;-0.001140;-0.104853;,
       0.032221; 0.000191;-0.105076;,
       0.032221; 0.002830;-0.105069;,
       0.029342; 0.004160;-0.104839;,
       0.014920;-0.002298;-0.094850;,
       0.014920; 0.005264;-0.094830;,
       0.018917; 0.005247;-0.088411;,
       0.018917;-0.002315;-0.088431;,
       0.033616; 0.000185;-0.102835;,
       0.033616; 0.002824;-0.102828;,
       0.032221; 0.002830;-0.105069;,
       0.032221; 0.000191;-0.105076;,
       0.029342; 0.004160;-0.104839;,
       0.032221; 0.002830;-0.105069;,
       0.033616; 0.002824;-0.102828;,
       0.032143; 0.004148;-0.100340;,
       0.032143;-0.001152;-0.100354;,
       0.033616; 0.000185;-0.102835;,
       0.032221; 0.000191;-0.105076;,
       0.029342;-0.001140;-0.104853;,
       0.032143; 0.004148;-0.100340;,
       0.033616; 0.002824;-0.102828;,
       0.033616; 0.000185;-0.102835;,
       0.032143;-0.001152;-0.100354;,
       0.079439;-0.007464; 0.034389;,
       0.079439; 0.001062; 0.034412;,
       0.079439; 0.009588; 0.034435;,
       0.077014; 0.011633; 0.035030;,
       0.075998; 0.012442; 0.035280;,
       0.054654; 0.012447; 0.040474;,
       0.054654;-0.010355; 0.040412;,
       0.075998;-0.010322; 0.035218;,
       0.077014;-0.009512; 0.034973;,
       0.071575; 0.009547; 0.006885;,
       0.071575; 0.001136; 0.006862;,
       0.071575;-0.007274; 0.006839;,
       0.070437;-0.008695; 0.009093;,
       0.069226;-0.010126; 0.011494;,
       0.054654;-0.010355; 0.040412;,
       0.054654; 0.012447; 0.040474;,
       0.069226; 0.012374; 0.011554;,
       0.070437; 0.010955; 0.009146;,
      -0.001750;-0.003310;-0.039209;,
       0.001533;-0.001950;-0.039206;,
       0.001533;-0.001844;-0.078461;,
      -0.001750;-0.003204;-0.078465;,
       0.001533;-0.001950;-0.039206;,
       0.002893; 0.001333;-0.039197;,
       0.002893; 0.001439;-0.078452;,
       0.001533;-0.001844;-0.078461;,
       0.002893; 0.001333;-0.039197;,
       0.001533; 0.004616;-0.039188;,
       0.001533; 0.004722;-0.078443;,
       0.002893; 0.001439;-0.078452;,
       0.001533; 0.004616;-0.039188;,
      -0.001750; 0.005976;-0.039184;,
      -0.001750; 0.006082;-0.078440;,
       0.001533; 0.004722;-0.078443;,
      -0.001750; 0.005976;-0.039184;,
      -0.005034; 0.004616;-0.039188;,
      -0.005034; 0.004722;-0.078443;,
      -0.001750; 0.006082;-0.078440;,
      -0.005034; 0.004616;-0.039188;,
      -0.006393; 0.001333;-0.039197;,
      -0.006393; 0.001439;-0.078452;,
      -0.005034; 0.004722;-0.078443;,
       0.001533;-0.001844;-0.078461;,
       0.002893; 0.001439;-0.078452;,
       0.001533; 0.004722;-0.078443;,
      -0.001750; 0.006082;-0.078440;,
      -0.005034; 0.004722;-0.078443;,
      -0.006393; 0.001439;-0.078452;,
      -0.005034;-0.001844;-0.078461;,
      -0.001750;-0.003204;-0.078465;,
      -0.006393; 0.001333;-0.039197;,
      -0.005034;-0.001950;-0.039206;,
      -0.005034;-0.001844;-0.078461;,
      -0.006393; 0.001439;-0.078452;,
      -0.005034;-0.001950;-0.039206;,
      -0.001750;-0.003310;-0.039209;,
      -0.001750;-0.003204;-0.078465;,
      -0.005034;-0.001844;-0.078461;,
       0.001533;-0.002056; 0.000049;,
       0.001447;-0.002078; 0.008412;,
       0.002771; 0.001206; 0.008112;,
       0.002893; 0.001228; 0.000058;,
       0.002771; 0.001206; 0.008112;,
       0.004131; 0.001188; 0.014701;,
       0.002940; 0.004469; 0.015366;,
       0.001447; 0.004488; 0.008430;,
      -0.001750; 0.005871; 0.000071;,
      -0.001750; 0.005846; 0.009180;,
      -0.004948; 0.004484; 0.009923;,
      -0.005034; 0.004511; 0.000067;,
      -0.005034;-0.002056; 0.000049;,
      -0.004948;-0.002082; 0.009905;,
      -0.001750;-0.003440; 0.009155;,
      -0.001750;-0.003416; 0.000046;,
      -0.001750;-0.003416; 0.000046;,
      -0.001750;-0.003440; 0.009155;,
       0.001447;-0.002078; 0.008412;,
       0.001533;-0.002056; 0.000049;,
       0.002893; 0.001228; 0.000058;,
       0.002771; 0.001206; 0.008112;,
       0.001447; 0.004488; 0.008430;,
       0.001533; 0.004511; 0.000067;,
      -0.005034; 0.004511; 0.000067;,
      -0.004948; 0.004484; 0.009923;,
      -0.006272; 0.001200; 0.010223;,
      -0.006393; 0.001228; 0.000058;,
       0.001533; 0.004511; 0.000067;,
       0.001447; 0.004488; 0.008430;,
      -0.001750; 0.005846; 0.009180;,
      -0.001750; 0.005871; 0.000071;,
      -0.006393; 0.001228; 0.000058;,
      -0.006272; 0.001200; 0.010223;,
      -0.004948;-0.002082; 0.009905;,
      -0.005034;-0.002056; 0.000049;,
      -0.004001; 0.001176; 0.019184;,
       0.001569; 0.001150; 0.028651;,
       0.002446;-0.002130; 0.027603;,
      -0.002811;-0.002105; 0.018519;,
      -0.001750;-0.003440; 0.009155;,
       0.000065;-0.003461; 0.016930;,
       0.002940;-0.002097; 0.015348;,
       0.001447;-0.002078; 0.008412;,
      -0.004948;-0.002082; 0.009905;,
      -0.002811;-0.002105; 0.018519;,
       0.000065;-0.003461; 0.016930;,
      -0.001750;-0.003440; 0.009155;,
      -0.004948; 0.004484; 0.009923;,
      -0.002811; 0.004461; 0.018536;,
      -0.004001; 0.001176; 0.019184;,
      -0.006272; 0.001200; 0.010223;,
       0.001447; 0.004488; 0.008430;,
       0.002940; 0.004469; 0.015366;,
       0.000065; 0.005825; 0.016955;,
      -0.001750; 0.005846; 0.009180;,
       0.001447;-0.002078; 0.008412;,
       0.002940;-0.002097; 0.015348;,
       0.004131; 0.001188; 0.014701;,
       0.002771; 0.001206; 0.008112;,
      -0.006272; 0.001200; 0.010223;,
      -0.004001; 0.001176; 0.019184;,
      -0.002811;-0.002105; 0.018519;,
      -0.004948;-0.002082; 0.009905;,
      -0.001750; 0.005846; 0.009180;,
       0.000065; 0.005825; 0.016955;,
      -0.002811; 0.004461; 0.018536;,
      -0.004948; 0.004484; 0.009923;,
       0.006682; 0.004450; 0.022603;,
       0.014490; 0.004432; 0.029196;,
       0.012372; 0.005785; 0.031708;,
       0.004564; 0.005803; 0.025115;,
       0.000065; 0.005825; 0.016955;,
       0.004564; 0.005803; 0.025115;,
       0.002446; 0.004436; 0.027620;,
      -0.002811; 0.004461; 0.018536;,
       0.004131; 0.001188; 0.014701;,
       0.007559; 0.001170; 0.021555;,
       0.006682; 0.004450; 0.022603;,
       0.002940; 0.004469; 0.015366;,
       0.000065;-0.003461; 0.016930;,
       0.004564;-0.003483; 0.025090;,
       0.006682;-0.002116; 0.022585;,
       0.002940;-0.002097; 0.015348;,
      -0.002811;-0.002105; 0.018519;,
       0.002446;-0.002130; 0.027603;,
       0.004564;-0.003483; 0.025090;,
       0.000065;-0.003461; 0.016930;,
      -0.002811; 0.004461; 0.018536;,
       0.002446; 0.004436; 0.027620;,
       0.001569; 0.001150; 0.028651;,
      -0.004001; 0.001176; 0.019184;,
       0.002940; 0.004469; 0.015366;,
       0.006682; 0.004450; 0.022603;,
       0.004564; 0.005803; 0.025115;,
       0.000065; 0.005825; 0.016955;,
       0.002940;-0.002097; 0.015348;,
       0.006682;-0.002116; 0.022585;,
       0.007559; 0.001170; 0.021555;,
       0.004131; 0.001188; 0.014701;,
       0.012372;-0.003501; 0.031683;,
       0.010254;-0.002148; 0.034195;,
       0.009377; 0.001133; 0.035243;,
       0.010254; 0.004419; 0.034213;,
       0.012372; 0.005785; 0.031708;,
       0.014490; 0.004432; 0.029196;,
       0.015368; 0.001152; 0.028148;,
       0.014490;-0.002134; 0.029178;,
       0.006682;-0.002116; 0.022585;,
       0.014490;-0.002134; 0.029178;,
       0.015368; 0.001152; 0.028148;,
       0.007559; 0.001170; 0.021555;,
       0.001569; 0.001150; 0.028651;,
       0.009377; 0.001133; 0.035243;,
       0.010254;-0.002148; 0.034195;,
       0.002446;-0.002130; 0.027603;,
       0.004564; 0.005803; 0.025115;,
       0.012372; 0.005785; 0.031708;,
       0.010254; 0.004419; 0.034213;,
       0.002446; 0.004436; 0.027620;,
       0.007559; 0.001170; 0.021555;,
       0.015368; 0.001152; 0.028148;,
       0.014490; 0.004432; 0.029196;,
       0.006682; 0.004450; 0.022603;,
       0.004564;-0.003483; 0.025090;,
       0.012372;-0.003501; 0.031683;,
       0.014490;-0.002134; 0.029178;,
       0.006682;-0.002116; 0.022585;,
       0.002446;-0.002130; 0.027603;,
       0.010254;-0.002148; 0.034195;,
       0.012372;-0.003501; 0.031683;,
       0.004564;-0.003483; 0.025090;,
       0.002446; 0.004436; 0.027620;,
       0.010254; 0.004419; 0.034213;,
       0.009377; 0.001133; 0.035243;,
       0.001569; 0.001150; 0.028651;,
      -0.005034;-0.002056; 0.000049;,
      -0.001750;-0.003416; 0.000046;,
      -0.001750;-0.003310;-0.039209;,
      -0.005034;-0.001950;-0.039206;,
      -0.006393; 0.001228; 0.000058;,
      -0.005034;-0.002056; 0.000049;,
      -0.005034;-0.001950;-0.039206;,
      -0.006393; 0.001333;-0.039197;,
      -0.005034; 0.004511; 0.000067;,
      -0.006393; 0.001228; 0.000058;,
      -0.006393; 0.001333;-0.039197;,
      -0.005034; 0.004616;-0.039188;,
      -0.001750; 0.005871; 0.000071;,
      -0.005034; 0.004511; 0.000067;,
      -0.005034; 0.004616;-0.039188;,
      -0.001750; 0.005976;-0.039184;,
       0.001533; 0.004511; 0.000067;,
      -0.001750; 0.005871; 0.000071;,
      -0.001750; 0.005976;-0.039184;,
       0.001533; 0.004616;-0.039188;,
       0.002893; 0.001228; 0.000058;,
       0.001533; 0.004511; 0.000067;,
       0.001533; 0.004616;-0.039188;,
       0.002893; 0.001333;-0.039197;,
       0.001533;-0.002056; 0.000049;,
       0.002893; 0.001228; 0.000058;,
       0.002893; 0.001333;-0.039197;,
       0.001533;-0.001950;-0.039206;,
      -0.001750;-0.003416; 0.000046;,
       0.001533;-0.002056; 0.000049;,
       0.001533;-0.001950;-0.039206;,
      -0.001750;-0.003310;-0.039209;,
       0.048691; 0.007032;-0.161702;,
       0.048691;-0.003705;-0.161731;,
       0.010792;-0.003705;-0.161731;,
       0.010792; 0.007032;-0.161702;,
       0.048691;-0.003705;-0.161731;,
       0.048691;-0.003579;-0.208676;,
       0.010792;-0.003579;-0.208676;,
       0.010792;-0.003705;-0.161731;,
       0.048691;-0.003579;-0.208676;,
       0.048691; 0.007158;-0.208647;,
       0.010792; 0.007158;-0.208647;,
       0.010792;-0.003579;-0.208676;,
       0.048691; 0.007158;-0.208647;,
       0.048691; 0.007032;-0.161702;,
       0.010792; 0.007032;-0.161702;,
       0.010792; 0.007158;-0.208647;,
       0.048691;-0.003705;-0.161731;,
       0.048691; 0.007032;-0.161702;,
       0.048691; 0.007158;-0.208647;,
       0.048691;-0.003579;-0.208676;,
       0.010792;-0.003579;-0.208676;,
       0.010792; 0.007158;-0.208647;,
       0.010792; 0.007032;-0.161702;,
       0.010792;-0.003705;-0.161731;;
      246;
      4;3,2,1,0;,
      4;7,6,5,4;,
      4;11,10,9,8;,
      4;15,14,13,12;,
      4;19,18,17,16;,
      4;23,22,21,20;,
      8;31,30,29,28,27,26,25,24;,
      4;35,34,33,32;,
      4;39,38,37,36;,
      8;47,46,45,44,43,42,41,40;,
      4;51,50,49,48;,
      4;55,54,53,52;,
      4;59,58,57,56;,
      4;63,62,61,60;,
      4;67,66,65,64;,
      4;71,70,69,68;,
      4;75,74,73,72;,
      4;79,78,77,76;,
      4;83,82,81,80;,
      4;87,86,85,84;,
      4;91,90,89,88;,
      4;95,94,93,92;,
      4;99,98,97,96;,
      4;103,102,101,100;,
      4;107,106,105,104;,
      4;111,110,109,108;,
      4;115,114,113,112;,
      4;119,118,117,116;,
      4;123,122,121,120;,
      4;127,126,125,124;,
      4;131,130,129,128;,
      4;135,134,133,132;,
      4;139,138,137,136;,
      4;143,142,141,140;,
      4;147,146,145,144;,
      4;151,150,149,148;,
      4;155,154,153,152;,
      4;159,158,157,156;,
      4;163,162,161,160;,
      4;167,166,165,164;,
      4;171,170,169,168;,
      4;175,174,173,172;,
      4;179,178,177,176;,
      4;183,182,181,180;,
      4;187,186,185,184;,
      4;191,190,189,188;,
      4;195,194,193,192;,
      4;199,198,197,196;,
      4;203,202,201,200;,
      4;207,206,205,204;,
      4;211,210,209,208;,
      7;218,217,216,215,214,213,212;,
      4;222,221,220,219;,
      4;226,225,224,223;,
      4;230,229,228,227;,
      4;234,233,232,231;,
      4;238,237,236,235;,
      4;242,241,240,239;,
      4;246,245,244,243;,
      4;250,249,248,247;,
      4;254,253,252,251;,
      4;258,257,256,255;,
      4;262,261,260,259;,
      4;266,265,264,263;,
      4;270,269,268,267;,
      4;274,273,272,271;,
      5;279,278,277,276,275;,
      5;284,283,282,281,280;,
      4;288,287,286,285;,
      4;292,291,290,289;,
      4;296,295,294,293;,
      4;300,299,298,297;,
      4;304,303,302,301;,
      4;308,307,306,305;,
      4;312,311,310,309;,
      4;316,315,314,313;,
      4;320,319,318,317;,
      4;324,323,322,321;,
      4;328,327,326,325;,
      4;332,331,330,329;,
      4;336,335,334,333;,
      4;340,339,338,337;,
      4;344,343,342,341;,
      4;348,347,346,345;,
      4;352,351,350,349;,
      4;356,355,354,353;,
      4;360,359,358,357;,
      4;364,363,362,361;,
      4;368,367,366,365;,
      4;372,371,370,369;,
      4;376,375,374,373;,
      4;380,379,378,377;,
      4;384,383,382,381;,
      4;388,387,386,385;,
      4;392,391,390,389;,
      4;396,395,394,393;,
      4;400,399,398,397;,
      4;404,403,402,401;,
      4;408,407,406,405;,
      4;412,411,410,409;,
      4;416,415,414,413;,
      4;420,419,418,417;,
      4;424,423,422,421;,
      7;431,430,429,428,427,426,425;,
      4;435,434,433,432;,
      4;439,438,437,436;,
      4;443,442,441,440;,
      4;447,446,445,444;,
      4;451,450,449,448;,
      4;455,454,453,452;,
      4;459,458,457,456;,
      4;463,462,461,460;,
      4;467,466,465,464;,
      4;471,470,469,468;,
      4;475,474,473,472;,
      4;479,478,477,476;,
      4;483,482,481,480;,
      4;487,486,485,484;,
      5;492,491,490,489,488;,
      5;497,496,495,494,493;,
      4;501,500,499,498;,
      4;505,504,503,502;,
      4;509,508,507,506;,
      4;513,512,511,510;,
      4;517,516,515,514;,
      4;521,520,519,518;,
      4;525,524,523,522;,
      4;529,528,527,526;,
      4;533,532,531,530;,
      4;537,536,535,534;,
      4;541,540,539,538;,
      4;545,544,543,542;,
      4;549,548,547,546;,
      4;553,552,551,550;,
      4;557,556,555,554;,
      4;561,560,559,558;,
      4;565,564,563,562;,
      4;569,568,567,566;,
      4;573,572,571,570;,
      4;577,576,575,574;,
      4;581,580,579,578;,
      4;585,584,583,582;,
      4;589,588,587,586;,
      4;593,592,591,590;,
      4;597,596,595,594;,
      4;601,600,599,598;,
      4;605,604,603,602;,
      4;609,608,607,606;,
      4;613,612,611,610;,
      4;617,616,615,614;,
      4;621,620,619,618;,
      4;625,624,623,622;,
      4;629,628,627,626;,
      4;633,632,631,630;,
      4;637,636,635,634;,
      4;641,640,639,638;,
      4;645,644,643,642;,
      4;649,648,647,646;,
      4;653,652,651,650;,
      4;657,656,655,654;,
      4;661,660,659,658;,
      4;665,664,663,662;,
      4;669,668,667,666;,
      4;673,672,671,670;,
      4;677,676,675,674;,
      4;681,680,679,678;,
      4;685,684,683,682;,
      4;689,688,687,686;,
      4;693,692,691,690;,
      4;697,696,695,694;,
      4;701,700,699,698;,
      4;705,704,703,702;,
      4;709,708,707,706;,
      4;713,712,711,710;,
      4;717,716,715,714;,
      4;721,720,719,718;,
      4;725,724,723,722;,
      4;729,728,727,726;,
      4;733,732,731,730;,
      4;737,736,735,734;,
      4;741,740,739,738;,
      4;745,744,743,742;,
      4;749,748,747,746;,
      4;753,752,751,750;,
      4;757,756,755,754;,
      4;761,760,759,758;,
      4;765,764,763,762;,
      4;769,768,767,766;,
      9;778,777,776,775,774,773,772,771,770;,
      9;787,786,785,784,783,782,781,780,779;,
      4;791,790,789,788;,
      4;795,794,793,792;,
      4;799,798,797,796;,
      4;803,802,801,800;,
      4;807,806,805,804;,
      4;811,810,809,808;,
      8;819,818,817,816,815,814,813,812;,
      4;823,822,821,820;,
      4;827,826,825,824;,
      4;831,830,829,828;,
      4;835,834,833,832;,
      4;839,838,837,836;,
      4;843,842,841,840;,
      4;847,846,845,844;,
      4;851,850,849,848;,
      4;855,854,853,852;,
      4;859,858,857,856;,
      4;863,862,861,860;,
      4;867,866,865,864;,
      4;871,870,869,868;,
      4;875,874,873,872;,
      4;879,878,877,876;,
      4;883,882,881,880;,
      4;887,886,885,884;,
      4;891,890,889,888;,
      4;895,894,893,892;,
      4;899,898,897,896;,
      4;903,902,901,900;,
      4;907,906,905,904;,
      4;911,910,909,908;,
      4;915,914,913,912;,
      4;919,918,917,916;,
      4;923,922,921,920;,
      4;927,926,925,924;,
      8;935,934,933,932,931,930,929,928;,
      4;939,938,937,936;,
      4;943,942,941,940;,
      4;947,946,945,944;,
      4;951,950,949,948;,
      4;955,954,953,952;,
      4;959,958,957,956;,
      4;963,962,961,960;,
      4;967,966,965,964;,
      4;971,970,969,968;,
      4;975,974,973,972;,
      4;979,978,977,976;,
      4;983,982,981,980;,
      4;987,986,985,984;,
      4;991,990,989,988;,
      4;995,994,993,992;,
      4;999,998,997,996;,
      4;1003,1002,1001,1000;,
      4;1007,1006,1005,1004;,
      4;1011,1010,1009,1008;,
      4;1015,1014,1013,1012;,
      4;1019,1018,1017,1016;;
      MeshNormals {
        246;
        -0.226468; 0.974015; 0.002625;,
        -0.928859; 0.370432; 0.000998;,
        -0.928859;-0.370432;-0.000998;,
        -0.226468;-0.974015;-0.002625;,
         0.369438;-0.929252;-0.002504;,
         0.860845;-0.508865;-0.001371;,
        -0.000001;-0.002694; 0.999996;,
         0.860845; 0.508865; 0.001371;,
         0.369438; 0.929252; 0.002504;,
        -0.000000; 0.002694;-0.999996;,
        -0.000000; 0.002696;-0.999996;,
        -0.000000;-0.002693; 0.999996;,
         0.423247;-0.906004;-0.004229;,
        -0.987539;-0.155203; 0.026057;,
         0.995101;-0.098867;-0.000266;,
        -0.531763;-0.846809; 0.011975;,
        -0.000001;-0.002694; 0.999996;,
         0.000000; 0.999996; 0.002695;,
        -0.000001; 0.002695;-0.999996;,
         0.000000;-0.999996;-0.002695;,
         0.000000;-0.002693; 0.999996;,
         0.000000; 0.002695;-0.999996;,
         0.000000;-0.999996;-0.002695;,
         0.000000; 0.999996; 0.002695;,
        -0.531763;-0.846809; 0.011975;,
         0.995101;-0.098867;-0.000266;,
        -0.987539;-0.155202; 0.026057;,
         0.495654;-0.868509;-0.004434;,
         0.000000; 0.002696;-0.999996;,
        -0.000000;-0.002696; 0.999996;,
         0.423247; 0.906014; 0.000653;,
        -0.987539; 0.155060; 0.026893;,
         0.995101; 0.098866; 0.000266;,
        -0.531763; 0.846732; 0.016538;,
        -0.000001;-0.002694; 0.999996;,
         0.000001; 0.002695;-0.999996;,
         0.000000; 0.999996; 0.002695;,
         0.000000;-0.002695; 0.999996;,
         0.000000; 0.002695;-0.999996;,
         0.000000; 0.999996; 0.002695;,
        -0.531763; 0.846732; 0.016538;,
         0.995101; 0.098866; 0.000266;,
        -0.987539; 0.155060; 0.026893;,
         0.495654; 0.868520; 0.000246;,
         0.811674;-0.323860;-0.486106;,
        -0.085184;-0.996210; 0.017605;,
         0.000000;-0.999996;-0.002695;,
         0.848596;-0.329931;-0.413558;,
         0.000000;-0.999996;-0.002695;,
        -0.226712;-0.613134; 0.756749;,
         0.922030;-0.342650; 0.180143;,
         0.000958;-0.999991; 0.004079;,
        -0.597038;-0.802212;-0.001007;,
        -0.000000;-0.999996;-0.002695;,
         0.000001;-0.002692; 0.999996;,
         0.938013;-0.303288;-0.167775;,
        -0.984699;-0.114678; 0.131214;,
         0.006153;-0.998095;-0.061384;,
        -0.068136;-0.996690;-0.044336;,
        -0.000000;-0.002691; 0.999996;,
         0.000000;-0.999996;-0.002695;,
         0.352139;-0.359285;-0.864241;,
        -0.055048;-0.998438;-0.009530;,
         0.284700;-0.287417;-0.914515;,
         0.517463;-0.474395; 0.712167;,
         0.000251;-1.000000; 0.000337;,
        -0.553656;-0.798675; 0.235761;,
        -0.592963;-0.769083; 0.238549;,
         0.928165;-0.351961; 0.120969;,
        -0.074264; 0.016193;-0.997107;,
        -0.636875;-0.768531; 0.061242;,
         0.937842;-0.343032;-0.052733;,
         0.616256;-0.786744;-0.035521;,
        -0.995687;-0.000250; 0.092776;,
        -0.053306;-0.734611;-0.676391;,
         0.610156;-0.788006; 0.082198;,
        -0.918658;-0.001064; 0.395052;,
        -0.929314;-0.000995; 0.369290;,
         0.578303;-0.174884; 0.796857;,
         0.195922;-0.639882;-0.743078;,
        -0.176196;-0.287861;-0.941324;,
         0.273782;-0.682580;-0.677590;,
         0.000000;-0.002695; 0.999996;,
        -0.600446;-0.799399; 0.020666;,
         0.955632;-0.246288;-0.161582;,
         0.000000;-0.002696; 0.999996;,
        -0.999997; 0.000344; 0.002208;,
         0.627111;-0.770990; 0.110933;,
        -0.297681;-0.224230; 0.927959;,
         0.876002;-0.225014;-0.426603;,
         0.786779;-0.319997;-0.527808;,
        -0.993331; 0.002047;-0.115275;,
        -0.994580;-0.007716;-0.103684;,
        -0.325635;-0.524176; 0.786893;,
        -0.381172;-0.191858; 0.904377;,
        -0.131198;-0.713907;-0.687840;,
         0.811674; 0.326477;-0.484354;,
        -0.085184; 0.996100; 0.022973;,
         0.000000; 0.999996; 0.002695;,
         0.848597; 0.332152;-0.411774;,
        -0.000000; 0.999996; 0.002695;,
        -0.226711; 0.609052; 0.760038;,
         0.922030; 0.341674; 0.181987;,
         0.001660; 0.999928; 0.011890;,
        -0.597038; 0.802206; 0.003317;,
         0.000000; 0.999996; 0.002695;,
        -0.000001;-0.002692; 0.999996;,
         0.938013; 0.304187;-0.166138;,
        -0.984699; 0.113969; 0.131830;,
         0.006153; 0.998412;-0.056005;,
        -0.068136; 0.996915;-0.038964;,
         0.000000;-0.002691; 0.999996;,
         0.000000; 0.999996; 0.002695;,
         0.352140; 0.363939;-0.862291;,
        -0.055048; 0.998475;-0.004149;,
         0.284700; 0.292342;-0.912952;,
         0.517461; 0.470555; 0.714711;,
         0.000251; 0.999984; 0.005726;,
        -0.592617; 0.767575; 0.244200;,
        -0.551692; 0.797825; 0.243130;,
         0.928067; 0.351264; 0.123715;,
        -0.074264;-0.010817;-0.997180;,
        -0.636875; 0.768189; 0.065383;,
         0.937842; 0.343311;-0.050884;,
         0.616256; 0.786924;-0.031281;,
        -0.995687;-0.000250; 0.092776;,
        -0.053305; 0.738249;-0.672419;,
         0.610055; 0.787416; 0.088363;,
        -0.918658;-0.001064; 0.395052;,
        -0.929314;-0.000995; 0.369290;,
         0.578304; 0.170585; 0.797788;,
         0.195923; 0.643873;-0.739622;,
        -0.176197; 0.292931;-0.939758;,
         0.273784; 0.686218;-0.673904;,
        -0.000000;-0.002695; 0.999996;,
        -0.600446; 0.799276; 0.024974;,
         0.955632; 0.247156;-0.160252;,
        -0.000000;-0.002696; 0.999996;,
        -0.999997;-0.000356; 0.002206;,
         0.627111; 0.770381; 0.115086;,
        -0.297681; 0.219222; 0.929154;,
         0.876001; 0.227312;-0.425384;,
         0.786780; 0.322833;-0.526076;,
        -0.993331;-0.001426;-0.115284;,
        -0.994580; 0.008275;-0.103641;,
        -0.325635; 0.519930; 0.789705;,
        -0.381174; 0.186980; 0.905398;,
        -0.131201; 0.717600;-0.683986;,
         0.337526;-0.002536; 0.941313;,
         0.000000;-0.999996;-0.002695;,
        -0.337526; 0.002536;-0.941313;,
         0.000000; 0.999996; 0.002695;,
         0.976337; 0.000583;-0.216252;,
        -0.112561; 0.002677;-0.993641;,
         0.294516; 0.002575;-0.955643;,
         0.077664;-0.002686; 0.996976;,
         0.000000; 0.999996; 0.002695;,
        -0.000000;-0.999996;-0.002694;,
        -0.000000; 0.999996; 0.002695;,
        -0.459902;-0.002392; 0.887967;,
        -0.000000; 0.999996; 0.002694;,
        -0.000000;-0.999996;-0.002694;,
         0.986079;-0.000448; 0.166276;,
        -0.000000;-0.999996;-0.002694;,
         0.939012; 0.000926;-0.343884;,
        -0.945189;-0.000880; 0.326523;,
        -0.817722; 0.001551;-0.575611;,
        -0.980723; 0.000526;-0.195403;,
        -0.000000; 0.999996; 0.002695;,
         0.000000;-0.999996;-0.002695;,
         0.000000; 0.999996; 0.002695;,
         0.000000; 0.999996; 0.002695;,
         0.000000;-0.999996;-0.002694;,
         0.829374;-0.001505; 0.558692;,
         0.407787; 0.002460;-0.913074;,
         0.000000;-0.999996;-0.002695;,
         0.617942;-0.002118; 0.786221;,
        -0.617944; 0.002118;-0.786219;,
        -0.669692; 0.002003;-0.742637;,
        -0.054664; 0.997829; 0.036725;,
         0.570046;-0.002216; 0.821609;,
        -0.054664;-0.998013; 0.031348;,
         0.078300;-0.002687; 0.996926;,
         0.848896; 0.001425;-0.528558;,
        -0.848896;-0.001420; 0.528559;,
        -0.390892;-0.888327; 0.240995;,
        -0.390895; 0.887013; 0.245780;,
        -0.860083; 0.001375;-0.510152;,
         0.236447;-0.002618; 0.971641;,
        -0.893030; 0.001212;-0.449996;,
        -0.382683; 0.923876; 0.002489;,
        -0.923879; 0.382682; 0.001031;,
        -0.923879;-0.382682;-0.001031;,
        -0.382684;-0.923876;-0.002489;,
         0.382684;-0.923876;-0.002489;,
         0.923879;-0.382682;-0.001031;,
        -0.000000;-0.002696; 0.999996;,
         0.923880; 0.382682; 0.001031;,
         0.382683; 0.923876; 0.002489;,
        -0.925774; 0.377928;-0.010683;,
        -0.906872;-0.376021; 0.190242;,
         0.386831;-0.922141;-0.004238;,
         0.386831; 0.922150; 0.000731;,
        -0.387189; 0.922000; 0.000580;,
        -0.925774;-0.377864;-0.012719;,
         0.925443;-0.378738;-0.010613;,
        -0.387189;-0.921990;-0.004389;,
         0.925443; 0.378789;-0.008572;,
         0.801283; 0.374414;-0.466648;,
        -0.379792; 0.920888; 0.087879;,
         0.377739; 0.921662;-0.088606;,
         0.898303;-0.376620;-0.226295;,
        -0.379792;-0.921349; 0.082915;,
        -0.906872; 0.374990; 0.192266;,
         0.898303; 0.377834;-0.224262;,
         0.377740;-0.921172;-0.093572;,
        -0.246880;-0.924663; 0.289911;,
         0.342155;-0.918964;-0.196049;,
        -0.828107;-0.370795; 0.420415;,
        -0.347865; 0.918364; 0.188674;,
         0.342155; 0.920007;-0.191093;,
         0.801283;-0.371893;-0.468659;,
        -0.347865;-0.919367; 0.183722;,
        -0.828108; 0.368523; 0.422408;,
        -0.764077; 0.001739;-0.645123;,
        -0.596015; 0.380785; 0.706944;,
         0.596016; 0.384585;-0.704883;,
         0.246878;-0.923088;-0.294888;,
        -0.596014;-0.384591; 0.704881;,
        -0.246880; 0.923087; 0.294890;,
         0.246879; 0.924664;-0.289909;,
         0.596016;-0.380779;-0.706945;,
         0.382683; 0.923876; 0.002489;,
         0.923880; 0.382682; 0.001031;,
         0.923879;-0.382682;-0.001031;,
         0.382684;-0.923876;-0.002489;,
        -0.382683;-0.923876;-0.002489;,
        -0.923879;-0.382682;-0.001031;,
        -0.923879; 0.382682; 0.001031;,
        -0.382683; 0.923876; 0.002489;,
         0.000000; 0.002695;-0.999996;,
         0.000000; 0.999996; 0.002695;,
         0.000000;-0.002695; 0.999996;,
         0.000000;-0.999996;-0.002695;,
        -1.000000; 0.000000; 0.000000;,
         1.000000; 0.000000;-0.000000;;
        246;
        4;0,0,0,0;,
        4;1,1,1,1;,
        4;2,2,2,2;,
        4;3,3,3,3;,
        4;4,4,4,4;,
        4;5,5,5,5;,
        8;6,6,6,6,6,6,6,6;,
        4;7,7,7,7;,
        4;8,8,8,8;,
        8;9,9,9,9,9,9,9,9;,
        4;10,10,10,10;,
        4;11,11,11,11;,
        4;12,12,12,12;,
        4;13,13,13,13;,
        4;14,14,14,14;,
        4;15,15,15,15;,
        4;16,16,16,16;,
        4;17,17,17,17;,
        4;18,18,18,18;,
        4;19,19,19,19;,
        4;20,20,20,20;,
        4;21,21,21,21;,
        4;22,22,22,22;,
        4;23,23,23,23;,
        4;24,24,24,24;,
        4;25,25,25,25;,
        4;26,26,26,26;,
        4;27,27,27,27;,
        4;28,28,28,28;,
        4;29,29,29,29;,
        4;30,30,30,30;,
        4;31,31,31,31;,
        4;32,32,32,32;,
        4;33,33,33,33;,
        4;34,34,34,34;,
        4;35,35,35,35;,
        4;36,36,36,36;,
        4;37,37,37,37;,
        4;38,38,38,38;,
        4;39,39,39,39;,
        4;40,40,40,40;,
        4;41,41,41,41;,
        4;42,42,42,42;,
        4;43,43,43,43;,
        4;44,44,44,44;,
        4;45,45,45,45;,
        4;46,46,46,46;,
        4;47,47,47,47;,
        4;48,48,48,48;,
        4;49,49,49,49;,
        4;50,50,50,50;,
        7;51,51,51,51,51,51,51;,
        4;52,52,52,52;,
        4;53,53,53,53;,
        4;54,54,54,54;,
        4;55,55,55,55;,
        4;56,56,56,56;,
        4;57,57,57,57;,
        4;58,58,58,58;,
        4;59,59,59,59;,
        4;60,60,60,60;,
        4;61,61,61,61;,
        4;62,62,62,62;,
        4;63,63,63,63;,
        4;64,64,64,64;,
        4;65,65,65,65;,
        5;66,66,66,66,66;,
        5;67,67,67,67,67;,
        4;68,68,68,68;,
        4;69,69,69,69;,
        4;70,70,70,70;,
        4;71,71,71,71;,
        4;72,72,72,72;,
        4;73,73,73,73;,
        4;74,74,74,74;,
        4;75,75,75,75;,
        4;76,76,76,76;,
        4;77,77,77,77;,
        4;78,78,78,78;,
        4;79,79,79,79;,
        4;80,80,80,80;,
        4;81,81,81,81;,
        4;82,82,82,82;,
        4;83,83,83,83;,
        4;84,84,84,84;,
        4;85,85,85,85;,
        4;86,86,86,86;,
        4;87,87,87,87;,
        4;88,88,88,88;,
        4;89,89,89,89;,
        4;90,90,90,90;,
        4;91,91,91,91;,
        4;92,92,92,92;,
        4;93,93,93,93;,
        4;94,94,94,94;,
        4;95,95,95,95;,
        4;96,96,96,96;,
        4;97,97,97,97;,
        4;98,98,98,98;,
        4;99,99,99,99;,
        4;100,100,100,100;,
        4;101,101,101,101;,
        4;102,102,102,102;,
        7;103,103,103,103,103,103,103;,
        4;104,104,104,104;,
        4;105,105,105,105;,
        4;106,106,106,106;,
        4;107,107,107,107;,
        4;108,108,108,108;,
        4;109,109,109,109;,
        4;110,110,110,110;,
        4;111,111,111,111;,
        4;112,112,112,112;,
        4;113,113,113,113;,
        4;114,114,114,114;,
        4;115,115,115,115;,
        4;116,116,116,116;,
        4;117,117,117,117;,
        5;118,118,118,118,118;,
        5;119,119,119,119,119;,
        4;120,120,120,120;,
        4;121,121,121,121;,
        4;122,122,122,122;,
        4;123,123,123,123;,
        4;124,124,124,124;,
        4;125,125,125,125;,
        4;126,126,126,126;,
        4;127,127,127,127;,
        4;128,128,128,128;,
        4;129,129,129,129;,
        4;130,130,130,130;,
        4;131,131,131,131;,
        4;132,132,132,132;,
        4;133,133,133,133;,
        4;134,134,134,134;,
        4;135,135,135,135;,
        4;136,136,136,136;,
        4;137,137,137,137;,
        4;138,138,138,138;,
        4;139,139,139,139;,
        4;140,140,140,140;,
        4;141,141,141,141;,
        4;142,142,142,142;,
        4;143,143,143,143;,
        4;144,144,144,144;,
        4;145,145,145,145;,
        4;146,146,146,146;,
        4;147,147,147,147;,
        4;148,148,148,148;,
        4;149,149,149,149;,
        4;150,150,150,150;,
        4;151,151,151,151;,
        4;152,152,152,152;,
        4;153,153,153,153;,
        4;154,154,154,154;,
        4;155,155,155,155;,
        4;156,156,156,156;,
        4;157,157,157,157;,
        4;158,158,158,158;,
        4;159,159,159,159;,
        4;160,160,160,160;,
        4;161,161,161,161;,
        4;162,162,162,162;,
        4;163,163,163,163;,
        4;164,164,164,164;,
        4;165,165,165,165;,
        4;166,166,166,166;,
        4;167,167,167,167;,
        4;168,168,168,168;,
        4;169,169,169,169;,
        4;170,170,170,170;,
        4;171,171,171,171;,
        4;172,172,172,172;,
        4;173,173,173,173;,
        4;174,174,174,174;,
        4;175,175,175,175;,
        4;176,176,176,176;,
        4;177,177,177,177;,
        4;178,178,178,178;,
        4;179,179,179,179;,
        4;180,180,180,180;,
        4;181,181,181,181;,
        4;182,182,182,182;,
        4;183,183,183,183;,
        4;184,184,184,184;,
        4;185,185,185,185;,
        4;186,186,186,186;,
        4;187,187,187,187;,
        9;188,188,188,188,188,188,188,188,188;,
        9;189,189,189,189,189,189,189,189,189;,
        4;190,190,190,190;,
        4;191,191,191,191;,
        4;192,192,192,192;,
        4;193,193,193,193;,
        4;194,194,194,194;,
        4;195,195,195,195;,
        8;196,196,196,196,196,196,196,196;,
        4;197,197,197,197;,
        4;198,198,198,198;,
        4;199,199,199,199;,
        4;200,200,200,200;,
        4;201,201,201,201;,
        4;202,202,202,202;,
        4;203,203,203,203;,
        4;204,204,204,204;,
        4;205,205,205,205;,
        4;206,206,206,206;,
        4;207,207,207,207;,
        4;208,208,208,208;,
        4;209,209,209,209;,
        4;210,210,210,210;,
        4;211,211,211,211;,
        4;212,212,212,212;,
        4;213,213,213,213;,
        4;214,214,214,214;,
        4;215,215,215,215;,
        4;216,216,216,216;,
        4;217,217,217,217;,
        4;218,218,218,218;,
        4;219,219,219,219;,
        4;220,220,220,220;,
        4;221,221,221,221;,
        4;222,222,222,222;,
        4;223,223,223,223;,
        8;224,224,224,224,224,224,224,224;,
        4;225,225,225,225;,
        4;226,226,226,226;,
        4;227,227,227,227;,
        4;228,228,228,228;,
        4;229,229,229,229;,
        4;230,230,230,230;,
        4;231,231,231,231;,
        4;232,232,232,232;,
        4;233,233,233,233;,
        4;234,234,234,234;,
        4;235,235,235,235;,
        4;236,236,236,236;,
        4;237,237,237,237;,
        4;238,238,238,238;,
        4;239,239,239,239;,
        4;240,240,240,240;,
        4;241,241,241,241;,
        4;242,242,242,242;,
        4;243,243,243,243;,
        4;244,244,244,244;,
        4;245,245,245,245;;
      }
      MeshTextureCoords {
        1020;
         0.226697; 0.116692;,
         0.226697; 0.149090;,
         0.140093; 0.149090;,
         0.140093; 0.116692;,
         0.832027; 0.154919;,
         0.798155; 0.154919;,
         0.798155; 0.068315;,
         0.832027; 0.068315;,
         0.138532; 0.115218;,
         0.138532; 0.149090;,
         0.051928; 0.149090;,
         0.051928; 0.115218;,
         0.228258; 0.149090;,
         0.228258; 0.116692;,
         0.314863; 0.116692;,
         0.314863; 0.149090;,
         0.634737; 0.066733;,
         0.674313; 0.066733;,
         0.674313; 0.153338;,
         0.634737; 0.153338;,
         0.459543; 0.062486;,
         0.484468; 0.062486;,
         0.484468; 0.149090;,
         0.459543; 0.149090;,
         0.796594; 0.128169;,
         0.766427; 0.153786;,
         0.741528; 0.154919;,
         0.722646; 0.138649;,
         0.714744; 0.099870;,
         0.734755; 0.074391;,
         0.768542; 0.076789;,
         0.796594; 0.095771;,
         0.433058; 0.062486;,
         0.457982; 0.062486;,
         0.457982; 0.149090;,
         0.433058; 0.149090;,
         0.554485; 0.359022;,
         0.554485; 0.398598;,
         0.467880; 0.398598;,
         0.467880; 0.359022;,
         0.886275; 0.217103;,
         0.861376; 0.218237;,
         0.842494; 0.201966;,
         0.834591; 0.163187;,
         0.854602; 0.137708;,
         0.888389; 0.140106;,
         0.916442; 0.159089;,
         0.916442; 0.191487;,
         0.396010; 0.130913;,
         0.431497; 0.129118;,
         0.431497; 0.149090;,
         0.406524; 0.147422;,
         0.856587; 0.240283;,
         0.821100; 0.237048;,
         0.831615; 0.226032;,
         0.856587; 0.224363;,
         0.607668; 0.264675;,
         0.000926; 0.264781;,
         0.000997; 0.245208;,
         0.607729; 0.247356;,
         0.304549; 0.999220;,
         0.304378; 0.977886;,
         0.911146; 0.972110;,
         0.911317; 0.993442;,
         0.766362; 0.826542;,
         0.741333; 0.826542;,
         0.741333; 0.219803;,
         0.766362; 0.219803;,
         0.607548; 0.310801;,
         0.000780; 0.316872;,
         0.000791; 0.295962;,
         0.607558; 0.289889;,
         0.856587; 0.273821;,
         0.835373; 0.271580;,
         0.821100; 0.256296;,
         0.856587; 0.266560;,
         0.999220; 0.285883;,
         0.999220; 0.826430;,
         0.989787; 0.826542;,
         0.989787; 0.286020;,
         0.410282; 0.084449;,
         0.431497; 0.082208;,
         0.431497; 0.094038;,
         0.396010; 0.099733;,
         0.607558; 0.289889;,
         0.000791; 0.295962;,
         0.000926; 0.264781;,
         0.607668; 0.264675;,
         0.856587; 0.266560;,
         0.821100; 0.256296;,
         0.821100; 0.237048;,
         0.856587; 0.240283;,
         0.396010; 0.099733;,
         0.431497; 0.094038;,
         0.431497; 0.129118;,
         0.396010; 0.130913;,
         0.911166; 0.951199;,
         0.304399; 0.956976;,
         0.304521; 0.931761;,
         0.911259; 0.931952;,
         0.934723; 0.826542;,
         0.935935; 0.234037;,
         0.946275; 0.233921;,
         0.946275; 0.826400;,
         0.911146; 0.972110;,
         0.304378; 0.977886;,
         0.304399; 0.956976;,
         0.911166; 0.951199;,
         0.794511; 0.219803;,
         0.819540; 0.219803;,
         0.819540; 0.826542;,
         0.794511; 0.826542;,
         0.000962; 0.338205;,
         0.000780; 0.316872;,
         0.607548; 0.310801;,
         0.607729; 0.332132;,
         0.911259; 0.931952;,
         0.304521; 0.931761;,
         0.304589; 0.914441;,
         0.911317; 0.916723;,
         0.713183; 0.135167;,
         0.702669; 0.151675;,
         0.677696; 0.153344;,
         0.677696; 0.133372;,
         0.870078; 0.120227;,
         0.870078; 0.136148;,
         0.845106; 0.134479;,
         0.834591; 0.123462;,
         0.607670; 0.224180;,
         0.607731; 0.241499;,
         0.000998; 0.243647;,
         0.000926; 0.224074;,
         0.304549; 0.828103;,
         0.911315; 0.833877;,
         0.911144; 0.855210;,
         0.304378; 0.849435;,
         0.739773; 0.219797;,
         0.739773; 0.826542;,
         0.714745; 0.826542;,
         0.714744; 0.219797;,
         0.607550; 0.178053;,
         0.607560; 0.198966;,
         0.000791; 0.192893;,
         0.000780; 0.171982;,
         0.870078; 0.086690;,
         0.870078; 0.093951;,
         0.834591; 0.104215;,
         0.848864; 0.088931;,
         0.698911; 0.088703;,
         0.713183; 0.103987;,
         0.677696; 0.098292;,
         0.677696; 0.086462;,
         0.607560; 0.198966;,
         0.607670; 0.224180;,
         0.000926; 0.224074;,
         0.000791; 0.192893;,
         0.870078; 0.093951;,
         0.870078; 0.120227;,
         0.834591; 0.123462;,
         0.834591; 0.104215;,
         0.713183; 0.103987;,
         0.713183; 0.135167;,
         0.677696; 0.133372;,
         0.677696; 0.098292;,
         0.911165; 0.876121;,
         0.911258; 0.895369;,
         0.304521; 0.895560;,
         0.304399; 0.870345;,
         0.911144; 0.855210;,
         0.911165; 0.876121;,
         0.304399; 0.870345;,
         0.304378; 0.849435;,
         0.792951; 0.219803;,
         0.792951; 0.826542;,
         0.767922; 0.826542;,
         0.767922; 0.219803;,
         0.000962; 0.150651;,
         0.607731; 0.156723;,
         0.607550; 0.178053;,
         0.000780; 0.171982;,
         0.911258; 0.895369;,
         0.911315; 0.910599;,
         0.304589; 0.912880;,
         0.304521; 0.895560;,
         0.847236; 0.542715;,
         0.829982; 0.550182;,
         0.827067; 0.493709;,
         0.844009; 0.493592;,
         0.438254; 0.690501;,
         0.444889; 0.572111;,
         0.454258; 0.609078;,
         0.467997; 0.693269;,
         0.351941; 0.634081;,
         0.313624; 0.677153;,
         0.335560; 0.538967;,
         0.359896; 0.552126;,
         0.839868; 0.408477;,
         0.855683; 0.408670;,
         0.859819; 0.493864;,
         0.844009; 0.493592;,
         0.351941; 0.634081;,
         0.359896; 0.552126;,
         0.422920; 0.558578;,
         0.421984; 0.679694;,
         0.461374; 0.482054;,
         0.445559; 0.480993;,
         0.466265; 0.400159;,
         0.481567; 0.405985;,
         0.663504; 0.165579;,
         0.660007; 0.256871;,
         0.637073; 0.256762;,
         0.640396; 0.170707;,
         0.179872; 0.714188;,
         0.209531; 0.616736;,
         0.170111; 0.633153;,
         0.155964; 0.515698;,
         0.302818; 0.497775;,
         0.277549; 0.898295;,
         0.204239; 0.916496;,
         0.911711; 0.266565;,
         0.908768; 0.336993;,
         0.898784; 0.336337;,
         0.902151; 0.256444;,
         0.201768; 0.996504;,
         0.204239; 0.916496;,
         0.277549; 0.898295;,
         0.265057; 0.999220;,
         0.332492; 0.107693;,
         0.318816; 0.107693;,
         0.316423; 0.090404;,
         0.337984; 0.086391;,
         0.839868; 0.408477;,
         0.838021; 0.275406;,
         0.859950; 0.275455;,
         0.855683; 0.408670;,
         0.943195; 0.084629;,
         0.946421; 0.217224;,
         0.918002; 0.215449;,
         0.925394; 0.088219;,
         0.438254; 0.690501;,
         0.450626; 0.824879;,
         0.420424; 0.822140;,
         0.421984; 0.679694;,
         0.467997; 0.693269;,
         0.467997; 0.826542;,
         0.450626; 0.824879;,
         0.438254; 0.690501;,
         0.326228; 0.147469;,
         0.318816; 0.138013;,
         0.318816; 0.107693;,
         0.332492; 0.107693;,
         0.421984; 0.679694;,
         0.422920; 0.558578;,
         0.444889; 0.572111;,
         0.438254; 0.690501;,
         0.241247; 0.114727;,
         0.218430; 0.108920;,
         0.221016; 0.092271;,
         0.239718; 0.093963;,
         0.313624; 0.677153;,
         0.304378; 0.669363;,
         0.324813; 0.540639;,
         0.335560; 0.538967;,
         0.493241; 0.088156;,
         0.513163; 0.095186;,
         0.512423; 0.118449;,
         0.490644; 0.112697;,
         0.461374; 0.482054;,
         0.481670; 0.537406;,
         0.467207; 0.534735;,
         0.445559; 0.480993;,
         0.155964; 0.515698;,
         0.152579; 0.358050;,
         0.302818; 0.339766;,
         0.302818; 0.497775;,
         0.910679; 0.525513;,
         0.905760; 0.532874;,
         0.900687; 0.540713;,
         0.898784; 0.336337;,
         0.908768; 0.336993;,
         0.897223; 0.824000;,
         0.894274; 0.824615;,
         0.886994; 0.826086;,
         0.884947; 0.705255;,
         0.895214; 0.705887;,
         0.660007; 0.256871;,
         0.658915; 0.657263;,
         0.634737; 0.657449;,
         0.637073; 0.256762;,
         0.927050; 0.828922;,
         0.950828; 0.828924;,
         0.950828; 0.999220;,
         0.927037; 0.993458;,
         0.884947; 0.705255;,
         0.887230; 0.537132;,
         0.897223; 0.548564;,
         0.895214; 0.705887;,
         0.658915; 0.657263;,
         0.662809; 0.826203;,
         0.638215; 0.826542;,
         0.634737; 0.657449;,
         0.669205; 0.657172;,
         0.673180; 0.815234;,
         0.662809; 0.826203;,
         0.658915; 0.657263;,
         0.861511; 0.705386;,
         0.863239; 0.536865;,
         0.887230; 0.537132;,
         0.884947; 0.705255;,
         0.912877; 0.834027;,
         0.927050; 0.828922;,
         0.927037; 0.993458;,
         0.914370; 0.985366;,
         0.669939; 0.256645;,
         0.669205; 0.657172;,
         0.658915; 0.657263;,
         0.660007; 0.256871;,
         0.933163; 0.525237;,
         0.910679; 0.525513;,
         0.908768; 0.336993;,
         0.931063; 0.337283;,
         0.886994; 0.826086;,
         0.863907; 0.826542;,
         0.861511; 0.705386;,
         0.884947; 0.705255;,
         0.480096; 0.481896;,
         0.499242; 0.535056;,
         0.481670; 0.537406;,
         0.461374; 0.482054;,
         0.486029; 0.075978;,
         0.513149; 0.083314;,
         0.513163; 0.095186;,
         0.493241; 0.088156;,
         0.513163; 0.095186;,
         0.523756; 0.093502;,
         0.524065; 0.117086;,
         0.512423; 0.118449;,
         0.255638; 0.115132;,
         0.241247; 0.114727;,
         0.239718; 0.093963;,
         0.255638; 0.089331;,
         0.354656; 0.149090;,
         0.326228; 0.147469;,
         0.332492; 0.107693;,
         0.354656; 0.107693;,
         0.958394; 0.075744;,
         0.958394; 0.218237;,
         0.946421; 0.217224;,
         0.943195; 0.084629;,
         0.822956; 0.408508;,
         0.821100; 0.275382;,
         0.838021; 0.275406;,
         0.839868; 0.408477;,
         0.354656; 0.107693;,
         0.332492; 0.107693;,
         0.337984; 0.086391;,
         0.354656; 0.083496;,
         0.933163; 0.276109;,
         0.931063; 0.337283;,
         0.908768; 0.336993;,
         0.911711; 0.266565;,
         0.673180; 0.154899;,
         0.669939; 0.256645;,
         0.660007; 0.256871;,
         0.663504; 0.165579;,
         0.480096; 0.481896;,
         0.461374; 0.482054;,
         0.481567; 0.405985;,
         0.499242; 0.409560;,
         0.822956; 0.408508;,
         0.839868; 0.408477;,
         0.844009; 0.493592;,
         0.827067; 0.493709;,
         0.859950; 0.532026;,
         0.847236; 0.542715;,
         0.844009; 0.493592;,
         0.859819; 0.493864;,
         0.954765; 0.511363;,
         0.947835; 0.502336;,
         0.947849; 0.372012;,
         0.959157; 0.362637;,
         0.976594; 0.519575;,
         0.954765; 0.511363;,
         0.959157; 0.362637;,
         0.976594; 0.358222;,
         0.199300; 0.075316;,
         0.211343; 0.078540;,
         0.213361; 0.093089;,
         0.201467; 0.090934;,
         0.201143; 0.057323;,
         0.213361; 0.060667;,
         0.211343; 0.078540;,
         0.199300; 0.075316;,
         0.513149; 0.083314;,
         0.524065; 0.082001;,
         0.523756; 0.093502;,
         0.513163; 0.095186;,
         0.847236; 0.559209;,
         0.844009; 0.608332;,
         0.827068; 0.608215;,
         0.829983; 0.551742;,
         0.603433; 0.675008;,
         0.633176; 0.672240;,
         0.619437; 0.756431;,
         0.610069; 0.793398;,
         0.517121; 0.731428;,
         0.525075; 0.813383;,
         0.500740; 0.826542;,
         0.478803; 0.688356;,
         0.839868; 0.693447;,
         0.844009; 0.608332;,
         0.859819; 0.608060;,
         0.855683; 0.693254;,
         0.517121; 0.731428;,
         0.587164; 0.685815;,
         0.588099; 0.806931;,
         0.525075; 0.813383;,
         0.516617; 0.455511;,
         0.536810; 0.531580;,
         0.521509; 0.537406;,
         0.500802; 0.456572;,
         0.703507; 0.815862;,
         0.680399; 0.810733;,
         0.677076; 0.724677;,
         0.700010; 0.724568;,
         0.004165; 0.823288;,
         0.018312; 0.705832;,
         0.057732; 0.722249;,
         0.028072; 0.624797;,
         0.052440; 0.422489;,
         0.125750; 0.440690;,
         0.151019; 0.841211;,
         0.911711; 0.816422;,
         0.902151; 0.826542;,
         0.898784; 0.746650;,
         0.908768; 0.745994;,
         0.049969; 0.342481;,
         0.113258; 0.339766;,
         0.125750; 0.440690;,
         0.052440; 0.422489;,
         0.372285; 0.124894;,
         0.377777; 0.146195;,
         0.356217; 0.142182;,
         0.358609; 0.124894;,
         0.839868; 0.693447;,
         0.855683; 0.693254;,
         0.859950; 0.826469;,
         0.838021; 0.826518;,
         0.973028; 0.817657;,
         0.955227; 0.814068;,
         0.947835; 0.686837;,
         0.976254; 0.685063;,
         0.603433; 0.675008;,
         0.587164; 0.685815;,
         0.585603; 0.543369;,
         0.615805; 0.540630;,
         0.633176; 0.672240;,
         0.603433; 0.675008;,
         0.615805; 0.540630;,
         0.633176; 0.538967;,
         0.366022; 0.085118;,
         0.372285; 0.124894;,
         0.358609; 0.124894;,
         0.358609; 0.094574;,
         0.587164; 0.685815;,
         0.603433; 0.675008;,
         0.610069; 0.793398;,
         0.588099; 0.806931;,
         0.280016; 0.089736;,
         0.278487; 0.110499;,
         0.259785; 0.112192;,
         0.257199; 0.095543;,
         0.478803; 0.688356;,
         0.500740; 0.826542;,
         0.489992; 0.824869;,
         0.469558; 0.696146;,
         0.532838; 0.106271;,
         0.530241; 0.081730;,
         0.552020; 0.075978;,
         0.552760; 0.099241;,
         0.516617; 0.455511;,
         0.500802; 0.456572;,
         0.522451; 0.402830;,
         0.536913; 0.400159;,
         0.004165; 0.823288;,
         0.151019; 0.841211;,
         0.151019; 0.999220;,
         0.000780; 0.980936;,
         0.884947; 0.366916;,
         0.886994; 0.246084;,
         0.894274; 0.247555;,
         0.897223; 0.248171;,
         0.895214; 0.366283;,
         0.900687; 0.542274;,
         0.905759; 0.550111;,
         0.910679; 0.557474;,
         0.908768; 0.745994;,
         0.898784; 0.746650;,
         0.700010; 0.724568;,
         0.677076; 0.724677;,
         0.674740; 0.323999;,
         0.698918; 0.324185;,
         0.570218; 0.537406;,
         0.570205; 0.372871;,
         0.593996; 0.367109;,
         0.593996; 0.537404;,
         0.884947; 0.366916;,
         0.895214; 0.366283;,
         0.897223; 0.523606;,
         0.887230; 0.535038;,
         0.698918; 0.324185;,
         0.674740; 0.323999;,
         0.678219; 0.154904;,
         0.702812; 0.155244;,
         0.709208; 0.324275;,
         0.698918; 0.324185;,
         0.702812; 0.155244;,
         0.713183; 0.166213;,
         0.861511; 0.366785;,
         0.884947; 0.366916;,
         0.887230; 0.535038;,
         0.863239; 0.535305;,
         0.556045; 0.532301;,
         0.557538; 0.380962;,
         0.570205; 0.372871;,
         0.570218; 0.537406;,
         0.709943; 0.724793;,
         0.700010; 0.724568;,
         0.698918; 0.324185;,
         0.709208; 0.324275;,
         0.910679; 0.557474;,
         0.933163; 0.557750;,
         0.931063; 0.745703;,
         0.908768; 0.745994;,
         0.863907; 0.245628;,
         0.886994; 0.246084;,
         0.884947; 0.366916;,
         0.861511; 0.366785;,
         0.535339; 0.455668;,
         0.516617; 0.455511;,
         0.536913; 0.400159;,
         0.554485; 0.402509;,
         0.525625; 0.118449;,
         0.532838; 0.106271;,
         0.552760; 0.099241;,
         0.552746; 0.111113;,
         0.552760; 0.099241;,
         0.552020; 0.075978;,
         0.563661; 0.077341;,
         0.563353; 0.100925;,
         0.294407; 0.089331;,
         0.294407; 0.115132;,
         0.278487; 0.110499;,
         0.280016; 0.089736;,
         0.394449; 0.083496;,
         0.394449; 0.124894;,
         0.372285; 0.124894;,
         0.366022; 0.085118;,
         0.988226; 0.826542;,
         0.973028; 0.817657;,
         0.976254; 0.685063;,
         0.988226; 0.684050;,
         0.822956; 0.693416;,
         0.839868; 0.693447;,
         0.838021; 0.826518;,
         0.821100; 0.826542;,
         0.394449; 0.124894;,
         0.394449; 0.149090;,
         0.377777; 0.146195;,
         0.372285; 0.124894;,
         0.933163; 0.806878;,
         0.911711; 0.816422;,
         0.908768; 0.745994;,
         0.931063; 0.745703;,
         0.713183; 0.826542;,
         0.703507; 0.815862;,
         0.700010; 0.724568;,
         0.709943; 0.724793;,
         0.535339; 0.455668;,
         0.554485; 0.528005;,
         0.536810; 0.531580;,
         0.516617; 0.455511;,
         0.822956; 0.693416;,
         0.827068; 0.608215;,
         0.844009; 0.608332;,
         0.839868; 0.693447;,
         0.859950; 0.569898;,
         0.859819; 0.608060;,
         0.844009; 0.608332;,
         0.847236; 0.559209;,
         0.954765; 0.529348;,
         0.959157; 0.678075;,
         0.947849; 0.668700;,
         0.947835; 0.538376;,
         0.976594; 0.521136;,
         0.976594; 0.682489;,
         0.959157; 0.678075;,
         0.954765; 0.529348;,
         0.114515; 0.095665;,
         0.116681; 0.080046;,
         0.128576; 0.077891;,
         0.126557; 0.092440;,
         0.116357; 0.113658;,
         0.114515; 0.095665;,
         0.126557; 0.092440;,
         0.128576; 0.110314;,
         0.552746; 0.111113;,
         0.552760; 0.099241;,
         0.563353; 0.100925;,
         0.563661; 0.112426;,
         0.030384; 0.057730;,
         0.046990; 0.057730;,
         0.046990; 0.085773;,
         0.030384; 0.085773;,
         0.150958; 0.070812;,
         0.150958; 0.054206;,
         0.164939; 0.061340;,
         0.164939; 0.077946;,
         0.098137; 0.084054;,
         0.081531; 0.084054;,
         0.081531; 0.056011;,
         0.098137; 0.056011;,
         0.128495; 0.052591;,
         0.128495; 0.069196;,
         0.114515; 0.076331;,
         0.114515; 0.059725;,
         0.332119; 0.081936;,
         0.316423; 0.081936;,
         0.316423; 0.053893;,
         0.332119; 0.053893;,
         0.677696; 0.067731;,
         0.705739; 0.067731;,
         0.705739; 0.084901;,
         0.677696; 0.084901;,
         0.333680; 0.066583;,
         0.361723; 0.066583;,
         0.361723; 0.081936;,
         0.333680; 0.081936;,
         0.276077; 0.087770;,
         0.248034; 0.087770;,
         0.248034; 0.063984;,
         0.276077; 0.063984;,
         0.428952; 0.080234;,
         0.413261; 0.080647;,
         0.414359; 0.063513;,
         0.428952; 0.056448;,
         0.396010; 0.056448;,
         0.411701; 0.056861;,
         0.411701; 0.080647;,
         0.397108; 0.073582;,
         0.625007; 0.118449;,
         0.613821; 0.115595;,
         0.614404; 0.061224;,
         0.625007; 0.060089;,
         0.246473; 0.087770;,
         0.218430; 0.087770;,
         0.218430; 0.061483;,
         0.246473; 0.061483;,
         0.393868; 0.081936;,
         0.379356; 0.074707;,
         0.383102; 0.059818;,
         0.393868; 0.055649;,
         0.363283; 0.062878;,
         0.377795; 0.055649;,
         0.377795; 0.081936;,
         0.367030; 0.077767;,
         0.112954; 0.085614;,
         0.112954; 0.113658;,
         0.081531; 0.113657;,
         0.081531; 0.085614;,
         0.901242; 0.080641;,
         0.912429; 0.077788;,
         0.912429; 0.136148;,
         0.901826; 0.135012;,
         0.565222; 0.064075;,
         0.593265; 0.064075;,
         0.593265; 0.118448;,
         0.565222; 0.118449;,
         0.899682; 0.136148;,
         0.871639; 0.136148;,
         0.871639; 0.077788;,
         0.899682; 0.077788;,
         0.051928; 0.080733;,
         0.079971; 0.080733;,
         0.079971; 0.113658;,
         0.051928; 0.113657;,
         0.168136; 0.115132;,
         0.140093; 0.115132;,
         0.140093; 0.079507;,
         0.168136; 0.079507;,
         0.110184; 0.084054;,
         0.099697; 0.082118;,
         0.100208; 0.050699;,
         0.110184; 0.048429;,
         0.603359; 0.342509;,
         0.613846; 0.340573;,
         0.613846; 0.376198;,
         0.603870; 0.373928;,
         0.791286; 0.071826;,
         0.780950; 0.072830;,
         0.780950; 0.049867;,
         0.791286; 0.048863;,
         0.062154; 0.079173;,
         0.051928; 0.078861;,
         0.052345; 0.049658;,
         0.062154; 0.046248;,
         0.063715; 0.046560;,
         0.073941; 0.046249;,
         0.073941; 0.079173;,
         0.064132; 0.075763;,
         0.169696; 0.063883;,
         0.197739; 0.063883;,
         0.197739; 0.093089;,
         0.169696; 0.093089;,
         0.514072; 0.064032;,
         0.514072; 0.074418;,
         0.486029; 0.074418;,
         0.486029; 0.064032;,
         0.769053; 0.048863;,
         0.779389; 0.049867;,
         0.779389; 0.072830;,
         0.769052; 0.071826;,
         0.000780; 0.062810;,
         0.028823; 0.062810;,
         0.028823; 0.085773;,
         0.000780; 0.085773;,
         0.277637; 0.064807;,
         0.305680; 0.064807;,
         0.305680; 0.087770;,
         0.277637; 0.087770;,
         0.169696; 0.112068;,
         0.169696; 0.097714;,
         0.216869; 0.094650;,
         0.216869; 0.115132;,
         0.632841; 0.230614;,
         0.620623; 0.241140;,
         0.615407; 0.198362;,
         0.632841; 0.183342;,
         0.861511; 0.241004;,
         0.861511; 0.226650;,
         0.904497; 0.223586;,
         0.904497; 0.244068;,
         0.600042; 0.060650;,
         0.612260; 0.071176;,
         0.612260; 0.118449;,
         0.594825; 0.103429;,
         0.626198; 0.505365;,
         0.631499; 0.508967;,
         0.631499; 0.516116;,
         0.626198; 0.519718;,
         0.906058; 0.244068;,
         0.906058; 0.223586;,
         0.929070; 0.223586;,
         0.929070; 0.244067;,
         0.502958; 0.340846;,
         0.510106; 0.340846;,
         0.510106; 0.348878;,
         0.502958; 0.348878;,
         0.632540; 0.537406;,
         0.626198; 0.536476;,
         0.626198; 0.528444;,
         0.632540; 0.521279;,
         0.462326; 0.398598;,
         0.455984; 0.391433;,
         0.455984; 0.383401;,
         0.462326; 0.382471;,
         0.454424; 0.398598;,
         0.445559; 0.394996;,
         0.445559; 0.387847;,
         0.454424; 0.384245;,
         0.050367; 0.095119;,
         0.050367; 0.118212;,
         0.050367; 0.141304;,
         0.045514; 0.146848;,
         0.043483; 0.149040;,
         0.000780; 0.149090;,
         0.000780; 0.087333;,
         0.043482; 0.087384;,
         0.045514; 0.089575;,
         0.714744; 0.210139;,
         0.714744; 0.187359;,
         0.714744; 0.164578;,
         0.722697; 0.160748;,
         0.731166; 0.156888;,
         0.833031; 0.156480;,
         0.833031; 0.218237;,
         0.731166; 0.217829;,
         0.722697; 0.213970;,
         0.988561; 0.218237;,
         0.981537; 0.218237;,
         0.981537; 0.084740;,
         0.988561; 0.084740;,
         0.947835; 0.223165;,
         0.957066; 0.223165;,
         0.957066; 0.356662;,
         0.947835; 0.356662;,
         0.958627; 0.223165;,
         0.967858; 0.223165;,
         0.967858; 0.356662;,
         0.958627; 0.356662;,
         0.997145; 0.218237;,
         0.990121; 0.218237;,
         0.990121; 0.084740;,
         0.997145; 0.084740;,
         0.980210; 0.223165;,
         0.987233; 0.223165;,
         0.987233; 0.356662;,
         0.980210; 0.356662;,
         0.952388; 0.865723;,
         0.961619; 0.865723;,
         0.961619; 0.999220;,
         0.952388; 0.999220;,
         0.300740; 0.113188;,
         0.295968; 0.105286;,
         0.295968; 0.096056;,
         0.300740; 0.090903;,
         0.307489; 0.092846;,
         0.312262; 0.100748;,
         0.312262; 0.109979;,
         0.307489; 0.115132;,
         0.615407; 0.242701;,
         0.624638; 0.242701;,
         0.624638; 0.376198;,
         0.615407; 0.376198;,
         0.982556; 0.865723;,
         0.989579; 0.865723;,
         0.989579; 0.999220;,
         0.982556; 0.999220;,
         0.745792; 0.044389;,
         0.745792; 0.072830;,
         0.736580; 0.071765;,
         0.736561; 0.044375;,
         0.854074; 0.068852;,
         0.854103; 0.046310;,
         0.863316; 0.044340;,
         0.863316; 0.068083;,
         0.556478; 0.074390;,
         0.556601; 0.043411;,
         0.563501; 0.040900;,
         0.563501; 0.074418;,
         0.501397; 0.348878;,
         0.467880; 0.348745;,
         0.470418; 0.341854;,
         0.501397; 0.341854;,
         0.805178; 0.035776;,
         0.805178; 0.066754;,
         0.798288; 0.064216;,
         0.798155; 0.035775;,
         0.725770; 0.072830;,
         0.725788; 0.045440;,
         0.735001; 0.044375;,
         0.735001; 0.072816;,
         0.880870; 0.041670;,
         0.880870; 0.075187;,
         0.871655; 0.076227;,
         0.871639; 0.041658;,
         0.806739; 0.066754;,
         0.806872; 0.038313;,
         0.813763; 0.035775;,
         0.813763; 0.066754;,
         0.891661; 0.041658;,
         0.891661; 0.076227;,
         0.882446; 0.075191;,
         0.882430; 0.041674;,
         0.149398; 0.044192;,
         0.149398; 0.077946;,
         0.140137; 0.075056;,
         0.140093; 0.042714;,
         0.823989; 0.064900;,
         0.824207; 0.038255;,
         0.831094; 0.043011;,
         0.831094; 0.066754;,
         0.834591; 0.067056;,
         0.834786; 0.037506;,
         0.841711; 0.042206;,
         0.841711; 0.068852;,
         0.893222; 0.076227;,
         0.893244; 0.046677;,
         0.902468; 0.044756;,
         0.902468; 0.075510;,
         0.822428; 0.038255;,
         0.822428; 0.061998;,
         0.815541; 0.066754;,
         0.815323; 0.040109;,
         0.852514; 0.045108;,
         0.852514; 0.068852;,
         0.843300; 0.066882;,
         0.843272; 0.044340;,
         0.913274; 0.045473;,
         0.913274; 0.076227;,
         0.904051; 0.074306;,
         0.904029; 0.044756;,
         0.959508; 0.832816;,
         0.959508; 0.859462;,
         0.952583; 0.864162;,
         0.952388; 0.834612;,
         0.515632; 0.074418;,
         0.515632; 0.047867;,
         0.524283; 0.042730;,
         0.524283; 0.069280;,
         0.137650; 0.077631;,
         0.137650; 0.106568;,
         0.130512; 0.113658;,
         0.130136; 0.081318;,
         0.758203; 0.072830;,
         0.758259; 0.048697;,
         0.767492; 0.045718;,
         0.767492; 0.071256;,
         0.951080; 0.070386;,
         0.951503; 0.041453;,
         0.958538; 0.048645;,
         0.958538; 0.074184;,
         0.307241; 0.084083;,
         0.307616; 0.051744;,
         0.314755; 0.058833;,
         0.314755; 0.087770;,
         0.867927; 0.085129;,
         0.835993; 0.080012;,
         0.834591; 0.070412;,
         0.867927; 0.075708;,
         0.137595; 0.043340;,
         0.137595; 0.068878;,
         0.130560; 0.076071;,
         0.130136; 0.047137;,
         0.756642; 0.047292;,
         0.756642; 0.072830;,
         0.747409; 0.069851;,
         0.747353; 0.045718;,
         0.609436; 0.174063;,
         0.609436; 0.164002;,
         0.616291; 0.157137;,
         0.625986; 0.157491;,
         0.632841; 0.164855;,
         0.632841; 0.174916;,
         0.625986; 0.181781;,
         0.616291; 0.181427;,
         0.938493; 0.047633;,
         0.938493; 0.074184;,
         0.929028; 0.072055;,
         0.929028; 0.045505;,
         0.927467; 0.047633;,
         0.927467; 0.074184;,
         0.918002; 0.072056;,
         0.918002; 0.045505;,
         0.546267; 0.074418;,
         0.546267; 0.047867;,
         0.554917; 0.042730;,
         0.554917; 0.069280;,
         0.714744; 0.072830;,
         0.714744; 0.046280;,
         0.724209; 0.044152;,
         0.724209; 0.070702;,
         0.544706; 0.047867;,
         0.544706; 0.074418;,
         0.536055; 0.069280;,
         0.536055; 0.042730;,
         0.534495; 0.047867;,
         0.534495; 0.074418;,
         0.525844; 0.069280;,
         0.525844; 0.042730;,
         0.940054; 0.074184;,
         0.940054; 0.047633;,
         0.949519; 0.045505;,
         0.949519; 0.072056;,
         0.467880; 0.357462;,
         0.467880; 0.350438;,
         0.601377; 0.350438;,
         0.601377; 0.357462;,
         0.963180; 0.865723;,
         0.972411; 0.865723;,
         0.972411; 0.999220;,
         0.963180; 0.999220;,
         0.959954; 0.084740;,
         0.969185; 0.084740;,
         0.969185; 0.218237;,
         0.959954; 0.218237;,
         0.978155; 0.548992;,
         0.985178; 0.548992;,
         0.985178; 0.682489;,
         0.978155; 0.682489;,
         0.978155; 0.413934;,
         0.985178; 0.413934;,
         0.985178; 0.547431;,
         0.978155; 0.547431;,
         0.969418; 0.223165;,
         0.978649; 0.223165;,
         0.978649; 0.356662;,
         0.969418; 0.356662;,
         0.979977; 0.218237;,
         0.970746; 0.218237;,
         0.970746; 0.084740;,
         0.979977; 0.084740;,
         0.973972; 0.865722;,
         0.980995; 0.865722;,
         0.980995; 0.999220;,
         0.973972; 0.999220;,
         0.556619; 0.149090;,
         0.556619; 0.120009;,
         0.625649; 0.120009;,
         0.625649; 0.149090;,
         0.443998; 0.377759;,
         0.443998; 0.537406;,
         0.374969; 0.537406;,
         0.374969; 0.377759;,
         0.486029; 0.149090;,
         0.486029; 0.120009;,
         0.555058; 0.120009;,
         0.555058; 0.149090;,
         0.304378; 0.537406;,
         0.304379; 0.377758;,
         0.373408; 0.377758;,
         0.373408; 0.537406;,
         0.595557; 0.377758;,
         0.624638; 0.377758;,
         0.624638; 0.537406;,
         0.595557; 0.537406;,
         0.464026; 0.347117;,
         0.464026; 0.376198;,
         0.304378; 0.376198;,
         0.304378; 0.347117;;
      }
    }
  }
}
