xof 0303txt 0032

Frame Root {
  FrameTransformMatrix {
     1.000000, 0.000000, 0.000000, 0.000000,
     0.000000,-0.000000, 1.000000, 0.000000,
     0.000000, 1.000000, 0.000000, 0.000000,
     0.000000, 0.000000, 0.000000, 1.000000;;
  }
  Frame Cube_002 {
    FrameTransformMatrix {
       1.000000, 0.000000, 0.000000, 0.000000,
       0.000000, 1.000000, 0.000000, 0.000000,
       0.000000, 0.000000, 1.000000, 0.000000,
       0.000000, 0.000000, 0.000000, 1.000000;;
    }
    Mesh {
      928;
       0.009482; 0.017660;-0.093825;,
       0.009482;-0.008924;-0.093825;,
       0.000064;-0.011681;-0.093825;,
       0.000064; 0.020417;-0.093825;,
       0.009482;-0.008924;-0.093825;,
       0.006068;-0.008924;-0.301355;,
      -0.003350;-0.011681;-0.301355;,
       0.000064;-0.011681;-0.093825;,
       0.006068;-0.008924;-0.301355;,
       0.006068; 0.017660;-0.301355;,
      -0.003350; 0.020417;-0.301355;,
      -0.003350;-0.011681;-0.301355;,
       0.006068; 0.017660;-0.301355;,
       0.009482; 0.017660;-0.093825;,
       0.000064; 0.020417;-0.093825;,
      -0.003350; 0.020417;-0.301355;,
       0.018899;-0.000735;-0.093825;,
       0.018899; 0.009471;-0.093825;,
       0.015485; 0.009471;-0.301355;,
       0.015485;-0.000735;-0.301355;,
      -0.003350;-0.011681;-0.301355;,
      -0.003350; 0.020417;-0.301355;,
       0.000064; 0.020417;-0.093825;,
       0.000064;-0.011681;-0.093825;,
       0.015485; 0.009471;-0.301355;,
       0.018899; 0.009471;-0.093825;,
       0.009482; 0.017660;-0.093825;,
       0.006068; 0.017660;-0.301355;,
       0.015485;-0.000735;-0.301355;,
       0.015485; 0.009471;-0.301355;,
       0.006068; 0.017660;-0.301355;,
       0.006068;-0.008924;-0.301355;,
       0.018899;-0.000735;-0.093825;,
       0.015485;-0.000735;-0.301355;,
       0.006068;-0.008924;-0.301355;,
       0.009482;-0.008924;-0.093825;,
       0.018899; 0.009471;-0.093825;,
       0.018899;-0.000735;-0.093825;,
       0.009482;-0.008924;-0.093825;,
       0.009482; 0.017660;-0.093825;,
       0.067213; 0.011250;-0.041154;,
       0.067213; 0.004368;-0.038417;,
       0.025480; 0.004368;-0.038417;,
       0.025480; 0.011250;-0.041154;,
       0.067213; 0.011235;-0.075287;,
       0.067213; 0.015449;-0.069919;,
       0.025480; 0.015449;-0.072006;,
       0.025480; 0.011235;-0.077374;,
       0.067213; 0.015449;-0.069919;,
       0.067213; 0.015449;-0.046152;,
       0.025480; 0.015449;-0.046152;,
       0.025480; 0.015449;-0.072006;,
       0.025480; 0.011235;-0.077374;,
       0.020874; 0.011235;-0.078837;,
       0.020874; 0.004368;-0.082620;,
       0.025480; 0.004368;-0.081157;,
       0.012979; 0.011250;-0.041317;,
       0.003813; 0.011250;-0.045418;,
       0.003813; 0.015449;-0.050415;,
       0.012979; 0.015449;-0.046314;,
       0.025480; 0.011250;-0.041154;,
       0.012979; 0.011250;-0.041317;,
       0.012979; 0.015449;-0.046314;,
       0.025480; 0.015449;-0.046152;,
       0.025480; 0.015449;-0.046152;,
       0.012979; 0.015449;-0.046314;,
       0.020874; 0.015449;-0.074608;,
       0.025480; 0.015449;-0.072006;,
       0.014347; 0.011235;-0.087229;,
       0.012479; 0.012665;-0.093365;,
       0.012479; 0.004368;-0.093365;,
       0.014347; 0.004368;-0.091012;,
       0.012979; 0.015449;-0.046314;,
       0.003813; 0.015449;-0.050415;,
       0.014347; 0.015449;-0.083000;,
       0.020874; 0.015449;-0.074608;,
       0.020874; 0.011235;-0.078837;,
       0.014347; 0.011235;-0.087229;,
       0.014347; 0.004368;-0.091012;,
       0.020874; 0.004368;-0.082620;,
      -0.006288; 0.011250;-0.057461;,
      -0.020365; 0.011250;-0.071432;,
      -0.015601; 0.015449;-0.076430;,
      -0.006288; 0.015449;-0.062459;,
       0.003813; 0.011250;-0.045418;,
      -0.006288; 0.011250;-0.057461;,
      -0.006288; 0.015449;-0.062459;,
       0.003813; 0.015449;-0.050415;,
       0.003813; 0.015449;-0.050415;,
      -0.006288; 0.015449;-0.062459;,
       0.010218; 0.015449;-0.087986;,
       0.014347; 0.015449;-0.083000;,
      -0.015601; 0.015449;-0.076430;,
      -0.018836; 0.016697;-0.129674;,
       0.007627; 0.016697;-0.130081;,
       0.008579; 0.015449;-0.096113;,
      -0.006288; 0.015449;-0.062459;,
      -0.015601; 0.015449;-0.076430;,
       0.008579; 0.015449;-0.096113;,
       0.010218; 0.015449;-0.087986;,
       0.012479; 0.012665;-0.093365;,
       0.012331; 0.012665;-0.096113;,
       0.012331; 0.004368;-0.096113;,
       0.012479; 0.004368;-0.093365;,
       0.006113; 0.013599;-0.302871;,
       0.000848; 0.013599;-0.475661;,
       0.000848; 0.004368;-0.475661;,
       0.006113; 0.004368;-0.302871;,
       0.012331; 0.012665;-0.096113;,
       0.011379; 0.013599;-0.130081;,
       0.011379; 0.004368;-0.130081;,
       0.012331; 0.004368;-0.096113;,
      -0.020365; 0.011250;-0.071432;,
      -0.023600; 0.013599;-0.129674;,
      -0.018836; 0.016697;-0.129674;,
      -0.015601; 0.015449;-0.076430;,
       0.000848; 0.013599;-0.475661;,
      -0.002904; 0.016697;-0.475661;,
      -0.020255; 0.016697;-0.475254;,
      -0.025019; 0.013599;-0.475254;,
      -0.024309; 0.013599;-0.302464;,
      -0.025019; 0.013599;-0.475254;,
      -0.020255; 0.016697;-0.475254;,
      -0.019545; 0.016697;-0.302464;,
      -0.019545; 0.016697;-0.302464;,
      -0.020255; 0.016697;-0.475254;,
      -0.002904; 0.016697;-0.475661;,
       0.002361; 0.016697;-0.302871;,
      -0.024309; 0.004368;-0.302464;,
      -0.025019; 0.004368;-0.475254;,
      -0.025019; 0.013599;-0.475254;,
      -0.024309; 0.013599;-0.302464;,
       0.000848; 0.004368;-0.475661;,
       0.000848; 0.013599;-0.475661;,
      -0.025019; 0.013599;-0.475254;,
      -0.025019; 0.004368;-0.475254;,
      -0.020365; 0.004368;-0.070816;,
      -0.023600; 0.004368;-0.129674;,
      -0.023600; 0.013599;-0.129674;,
      -0.020365; 0.011250;-0.071432;,
       0.008579; 0.015449;-0.096113;,
       0.007627; 0.016697;-0.130081;,
       0.011379; 0.013599;-0.130081;,
       0.012331; 0.012665;-0.096113;,
       0.002361; 0.016697;-0.302871;,
      -0.002904; 0.016697;-0.475661;,
       0.000848; 0.013599;-0.475661;,
       0.006113; 0.013599;-0.302871;,
       0.010218; 0.015449;-0.087986;,
       0.008579; 0.015449;-0.096113;,
       0.012331; 0.012665;-0.096113;,
       0.012479; 0.012665;-0.093365;,
       0.003813; 0.004368;-0.042681;,
      -0.006288; 0.004368;-0.054725;,
      -0.006288; 0.011250;-0.057461;,
       0.003813; 0.011250;-0.045418;,
      -0.006288; 0.004368;-0.054725;,
      -0.020365; 0.004368;-0.070816;,
      -0.020365; 0.011250;-0.071432;,
      -0.006288; 0.011250;-0.057461;,
       0.020874; 0.015449;-0.074608;,
       0.014347; 0.015449;-0.083000;,
       0.014347; 0.011235;-0.087229;,
       0.020874; 0.011235;-0.078837;,
       0.014347; 0.015449;-0.083000;,
       0.010218; 0.015449;-0.087986;,
       0.012479; 0.012665;-0.093365;,
       0.014347; 0.011235;-0.087229;,
       0.025480; 0.004368;-0.038417;,
       0.012979; 0.004368;-0.038580;,
       0.012979; 0.011250;-0.041317;,
       0.025480; 0.011250;-0.041154;,
       0.012979; 0.004368;-0.038580;,
       0.003813; 0.004368;-0.042681;,
       0.003813; 0.011250;-0.045418;,
       0.012979; 0.011250;-0.041317;,
       0.025480; 0.015449;-0.072006;,
       0.020874; 0.015449;-0.074608;,
       0.020874; 0.011235;-0.078837;,
       0.025480; 0.011235;-0.077374;,
       0.067213; 0.015449;-0.069919;,
       0.074099; 0.014325;-0.067363;,
       0.074099; 0.014325;-0.048839;,
       0.067213; 0.015449;-0.046152;,
       0.067213; 0.004368;-0.079070;,
       0.067213; 0.011235;-0.075287;,
       0.025480; 0.011235;-0.077374;,
       0.025480; 0.004368;-0.081157;,
       0.067213; 0.015449;-0.046152;,
       0.067213; 0.011250;-0.041154;,
       0.025480; 0.011250;-0.041154;,
       0.025480; 0.015449;-0.046152;,
       0.074099; 0.011052;-0.044944;,
       0.074099; 0.014325;-0.048839;,
       0.074099; 0.014325;-0.067363;,
       0.074099; 0.011041;-0.071547;,
       0.074099; 0.004368;-0.042812;,
       0.074099; 0.011052;-0.044944;,
       0.074099; 0.011041;-0.071547;,
       0.074099; 0.004368;-0.074495;,
       0.067213; 0.015449;-0.046152;,
       0.074099; 0.014325;-0.048839;,
       0.074099; 0.011052;-0.044944;,
       0.067213; 0.011250;-0.041154;,
       0.067213; 0.011235;-0.075287;,
       0.074099; 0.011041;-0.071547;,
       0.074099; 0.014325;-0.067363;,
       0.067213; 0.015449;-0.069919;,
       0.067213; 0.004368;-0.079070;,
       0.074099; 0.004368;-0.074495;,
       0.074099; 0.011041;-0.071547;,
       0.067213; 0.011235;-0.075287;,
       0.067213; 0.011250;-0.041154;,
       0.074099; 0.011052;-0.044944;,
       0.074099; 0.004368;-0.042812;,
       0.067213; 0.004368;-0.038417;,
       0.007627; 0.016697;-0.130081;,
       0.002361; 0.016697;-0.302871;,
       0.006113; 0.013599;-0.302871;,
       0.011379; 0.013599;-0.130081;,
      -0.023600; 0.004368;-0.129674;,
      -0.024309; 0.004368;-0.302464;,
      -0.024309; 0.013599;-0.302464;,
      -0.023600; 0.013599;-0.129674;,
      -0.018836; 0.016697;-0.129674;,
      -0.019545; 0.016697;-0.302464;,
       0.002361; 0.016697;-0.302871;,
       0.007627; 0.016697;-0.130081;,
      -0.023600; 0.013599;-0.129674;,
      -0.024309; 0.013599;-0.302464;,
      -0.019545; 0.016697;-0.302464;,
      -0.018836; 0.016697;-0.129674;,
       0.011379; 0.013599;-0.130081;,
       0.006113; 0.013599;-0.302871;,
       0.006113; 0.004368;-0.302871;,
       0.011379; 0.004368;-0.130081;,
       0.067213;-0.002514;-0.041154;,
       0.025480;-0.002514;-0.041154;,
       0.025480; 0.004368;-0.038417;,
       0.067213; 0.004368;-0.038417;,
       0.067213;-0.002499;-0.075287;,
       0.025480;-0.002499;-0.077374;,
       0.025480;-0.006714;-0.072006;,
       0.067213;-0.006714;-0.069919;,
       0.067213;-0.006714;-0.069919;,
       0.025480;-0.006714;-0.072006;,
       0.025480;-0.006714;-0.046152;,
       0.067213;-0.006714;-0.046152;,
       0.025480;-0.002499;-0.077374;,
       0.025480; 0.004368;-0.081157;,
       0.020874; 0.004368;-0.082620;,
       0.020874;-0.002499;-0.078837;,
       0.012979;-0.002514;-0.041317;,
       0.012979;-0.006714;-0.046314;,
       0.003813;-0.006714;-0.050415;,
       0.003813;-0.002514;-0.045418;,
       0.025480;-0.002514;-0.041154;,
       0.025480;-0.006714;-0.046152;,
       0.012979;-0.006714;-0.046314;,
       0.012979;-0.002514;-0.041317;,
       0.025480;-0.006714;-0.046152;,
       0.025480;-0.006714;-0.072006;,
       0.020874;-0.006714;-0.074608;,
       0.012979;-0.006714;-0.046314;,
       0.014347;-0.002499;-0.087229;,
       0.014347; 0.004368;-0.091012;,
       0.012479; 0.004368;-0.093365;,
       0.012479;-0.003929;-0.093365;,
       0.012979;-0.006714;-0.046314;,
       0.020874;-0.006714;-0.074608;,
       0.014347;-0.006714;-0.083000;,
       0.003813;-0.006714;-0.050415;,
       0.020874;-0.002499;-0.078837;,
       0.020874; 0.004368;-0.082620;,
       0.014347; 0.004368;-0.091012;,
       0.014347;-0.002499;-0.087229;,
      -0.006288;-0.002514;-0.057461;,
      -0.006288;-0.006714;-0.062459;,
      -0.015601;-0.006714;-0.076430;,
      -0.020365;-0.002514;-0.071432;,
       0.003813;-0.002514;-0.045418;,
       0.003813;-0.006714;-0.050415;,
      -0.006288;-0.006714;-0.062459;,
      -0.006288;-0.002514;-0.057461;,
       0.003813;-0.006714;-0.050415;,
       0.014347;-0.006714;-0.083000;,
       0.010218;-0.006714;-0.087986;,
      -0.006288;-0.006714;-0.062459;,
      -0.015601;-0.006714;-0.076430;,
       0.008579;-0.006714;-0.096113;,
       0.007627;-0.007962;-0.130081;,
      -0.018836;-0.007962;-0.129674;,
      -0.006288;-0.006714;-0.062459;,
       0.010218;-0.006714;-0.087986;,
       0.008579;-0.006714;-0.096113;,
      -0.015601;-0.006714;-0.076430;,
       0.012479;-0.003929;-0.093365;,
       0.012479; 0.004368;-0.093365;,
       0.012331; 0.004368;-0.096113;,
       0.012331;-0.003929;-0.096113;,
       0.006113;-0.004864;-0.302871;,
       0.006113; 0.004368;-0.302871;,
       0.000848; 0.004368;-0.475661;,
       0.000848;-0.004864;-0.475661;,
       0.012331;-0.003929;-0.096113;,
       0.012331; 0.004368;-0.096113;,
       0.011379; 0.004368;-0.130081;,
       0.011379;-0.004864;-0.130081;,
      -0.020365;-0.002514;-0.071432;,
      -0.015601;-0.006714;-0.076430;,
      -0.018836;-0.007962;-0.129674;,
      -0.023600;-0.004864;-0.129674;,
       0.000848;-0.004864;-0.475661;,
      -0.025019;-0.004864;-0.475254;,
      -0.020255;-0.007962;-0.475254;,
      -0.002904;-0.007962;-0.475661;,
      -0.024309;-0.004864;-0.302464;,
      -0.019545;-0.007962;-0.302464;,
      -0.020255;-0.007962;-0.475254;,
      -0.025019;-0.004864;-0.475254;,
      -0.019545;-0.007962;-0.302464;,
       0.002361;-0.007962;-0.302871;,
      -0.002904;-0.007962;-0.475661;,
      -0.020255;-0.007962;-0.475254;,
      -0.024309; 0.004368;-0.302464;,
      -0.024309;-0.004864;-0.302464;,
      -0.025019;-0.004864;-0.475254;,
      -0.025019; 0.004368;-0.475254;,
       0.000848; 0.004368;-0.475661;,
      -0.025019; 0.004368;-0.475254;,
      -0.025019;-0.004864;-0.475254;,
       0.000848;-0.004864;-0.475661;,
      -0.020365; 0.004368;-0.070816;,
      -0.020365;-0.002514;-0.071432;,
      -0.023600;-0.004864;-0.129674;,
      -0.023600; 0.004368;-0.129674;,
       0.008579;-0.006714;-0.096113;,
       0.012331;-0.003929;-0.096113;,
       0.011379;-0.004864;-0.130081;,
       0.007627;-0.007962;-0.130081;,
       0.002361;-0.007962;-0.302871;,
       0.006113;-0.004864;-0.302871;,
       0.000848;-0.004864;-0.475661;,
      -0.002904;-0.007962;-0.475661;,
       0.010218;-0.006714;-0.087986;,
       0.012479;-0.003929;-0.093365;,
       0.012331;-0.003929;-0.096113;,
       0.008579;-0.006714;-0.096113;,
       0.003813; 0.004368;-0.042681;,
       0.003813;-0.002514;-0.045418;,
      -0.006288;-0.002514;-0.057461;,
      -0.006288; 0.004368;-0.054725;,
      -0.006288; 0.004368;-0.054725;,
      -0.006288;-0.002514;-0.057461;,
      -0.020365;-0.002514;-0.071432;,
      -0.020365; 0.004368;-0.070816;,
       0.020874;-0.006714;-0.074608;,
       0.020874;-0.002499;-0.078837;,
       0.014347;-0.002499;-0.087229;,
       0.014347;-0.006714;-0.083000;,
       0.014347;-0.006714;-0.083000;,
       0.014347;-0.002499;-0.087229;,
       0.012479;-0.003929;-0.093365;,
       0.010218;-0.006714;-0.087986;,
       0.025480; 0.004368;-0.038417;,
       0.025480;-0.002514;-0.041154;,
       0.012979;-0.002514;-0.041317;,
       0.012979; 0.004368;-0.038580;,
       0.012979; 0.004368;-0.038580;,
       0.012979;-0.002514;-0.041317;,
       0.003813;-0.002514;-0.045418;,
       0.003813; 0.004368;-0.042681;,
       0.025480;-0.006714;-0.072006;,
       0.025480;-0.002499;-0.077374;,
       0.020874;-0.002499;-0.078837;,
       0.020874;-0.006714;-0.074608;,
       0.067213;-0.006714;-0.069919;,
       0.067213;-0.006714;-0.046152;,
       0.074099;-0.005589;-0.048839;,
       0.074099;-0.005589;-0.067363;,
       0.067213; 0.004368;-0.079070;,
       0.025480; 0.004368;-0.081157;,
       0.025480;-0.002499;-0.077374;,
       0.067213;-0.002499;-0.075287;,
       0.067213;-0.006714;-0.046152;,
       0.025480;-0.006714;-0.046152;,
       0.025480;-0.002514;-0.041154;,
       0.067213;-0.002514;-0.041154;,
       0.074099;-0.002316;-0.044944;,
       0.074099;-0.002305;-0.071547;,
       0.074099;-0.005589;-0.067363;,
       0.074099;-0.005589;-0.048839;,
       0.074099; 0.004368;-0.042812;,
       0.074099; 0.004368;-0.074495;,
       0.074099;-0.002305;-0.071547;,
       0.074099;-0.002316;-0.044944;,
       0.067213;-0.006714;-0.046152;,
       0.067213;-0.002514;-0.041154;,
       0.074099;-0.002316;-0.044944;,
       0.074099;-0.005589;-0.048839;,
       0.067213;-0.002499;-0.075287;,
       0.067213;-0.006714;-0.069919;,
       0.074099;-0.005589;-0.067363;,
       0.074099;-0.002305;-0.071547;,
       0.067213; 0.004368;-0.079070;,
       0.067213;-0.002499;-0.075287;,
       0.074099;-0.002305;-0.071547;,
       0.074099; 0.004368;-0.074495;,
       0.067213;-0.002514;-0.041154;,
       0.067213; 0.004368;-0.038417;,
       0.074099; 0.004368;-0.042812;,
       0.074099;-0.002316;-0.044944;,
       0.007627;-0.007962;-0.130081;,
       0.011379;-0.004864;-0.130081;,
       0.006113;-0.004864;-0.302871;,
       0.002361;-0.007962;-0.302871;,
      -0.023600; 0.004368;-0.129674;,
      -0.023600;-0.004864;-0.129674;,
      -0.024309;-0.004864;-0.302464;,
      -0.024309; 0.004368;-0.302464;,
      -0.018836;-0.007962;-0.129674;,
       0.007627;-0.007962;-0.130081;,
       0.002361;-0.007962;-0.302871;,
      -0.019545;-0.007962;-0.302464;,
      -0.023600;-0.004864;-0.129674;,
      -0.018836;-0.007962;-0.129674;,
      -0.019545;-0.007962;-0.302464;,
      -0.024309;-0.004864;-0.302464;,
       0.011379;-0.004864;-0.130081;,
       0.011379; 0.004368;-0.130081;,
       0.006113; 0.004368;-0.302871;,
       0.006113;-0.004864;-0.302871;,
      -0.010192;-0.002862; 0.080901;,
      -0.005080;-0.000744; 0.080901;,
      -0.005080;-0.000744;-0.080445;,
      -0.010192;-0.002862;-0.080445;,
      -0.005080;-0.000744; 0.080901;,
      -0.002962; 0.004368; 0.080901;,
      -0.002962; 0.004368;-0.080445;,
      -0.005080;-0.000744;-0.080445;,
      -0.002962; 0.004368; 0.080901;,
      -0.005080; 0.009480; 0.080901;,
      -0.005080; 0.009480;-0.080445;,
      -0.002962; 0.004368;-0.080445;,
      -0.005080; 0.009480; 0.080901;,
      -0.010192; 0.011598; 0.080901;,
      -0.010192; 0.011598;-0.080445;,
      -0.005080; 0.009480;-0.080445;,
      -0.010192; 0.011598; 0.080901;,
      -0.015304; 0.009480; 0.080901;,
      -0.015304; 0.009480;-0.080445;,
      -0.010192; 0.011598;-0.080445;,
      -0.015304; 0.009480; 0.080901;,
      -0.017422; 0.004368; 0.080901;,
      -0.017422; 0.004368;-0.080445;,
      -0.015304; 0.009480;-0.080445;,
      -0.005080;-0.000744;-0.080445;,
      -0.002962; 0.004368;-0.080445;,
      -0.005080; 0.009480;-0.080445;,
      -0.010192; 0.011598;-0.080445;,
      -0.015304; 0.009480;-0.080445;,
      -0.017422; 0.004368;-0.080445;,
      -0.015304;-0.000744;-0.080445;,
      -0.010192;-0.002862;-0.080445;,
      -0.017422; 0.004368; 0.080901;,
      -0.015304;-0.000744; 0.080901;,
      -0.015304;-0.000744;-0.080445;,
      -0.017422; 0.004368;-0.080445;,
      -0.015304;-0.000744; 0.080901;,
      -0.010192;-0.002862; 0.080901;,
      -0.010192;-0.002862;-0.080445;,
      -0.015304;-0.000744;-0.080445;,
      -0.010192;-0.002862; 0.080901;,
      -0.015304;-0.000744; 0.080901;,
      -0.017422; 0.004368; 0.080901;,
      -0.015304; 0.009480; 0.080901;,
      -0.010192; 0.011598; 0.080901;,
      -0.005080; 0.009480; 0.080901;,
      -0.002962; 0.004368; 0.080901;,
      -0.005080;-0.000744; 0.080901;,
       0.026396;-0.002868; 0.089187;,
       0.031513;-0.000748; 0.089187;,
       0.031408;-0.000748;-0.052264;,
       0.026291;-0.002868;-0.052264;,
       0.031513;-0.000748; 0.089187;,
       0.033632; 0.004368; 0.089187;,
       0.033527; 0.004368;-0.052264;,
       0.031408;-0.000748;-0.052264;,
       0.033632; 0.004368; 0.089187;,
       0.031513; 0.009484; 0.089187;,
       0.031408; 0.009484;-0.052264;,
       0.033527; 0.004368;-0.052264;,
       0.031513; 0.009484; 0.089187;,
       0.026396; 0.011603; 0.089187;,
       0.026291; 0.011603;-0.052264;,
       0.031408; 0.009484;-0.052264;,
       0.026396; 0.011603; 0.089187;,
       0.021280; 0.009484; 0.089187;,
       0.021175; 0.009484;-0.052264;,
       0.026291; 0.011603;-0.052264;,
       0.021280; 0.009484; 0.089187;,
       0.019161; 0.004368; 0.089187;,
       0.019056; 0.004368;-0.052264;,
       0.021175; 0.009484;-0.052264;,
       0.031408;-0.000748;-0.052264;,
       0.033527; 0.004368;-0.052264;,
       0.031408; 0.009484;-0.052264;,
       0.026291; 0.011603;-0.052264;,
       0.021175; 0.009484;-0.052264;,
       0.019056; 0.004368;-0.052264;,
       0.021175;-0.000748;-0.052264;,
       0.026291;-0.002868;-0.052264;,
       0.019161; 0.004368; 0.089187;,
       0.021280;-0.000748; 0.089187;,
       0.021175;-0.000748;-0.052264;,
       0.019056; 0.004368;-0.052264;,
       0.021280;-0.000748; 0.089187;,
       0.026396;-0.002868; 0.089187;,
       0.026291;-0.002868;-0.052264;,
       0.021175;-0.000748;-0.052264;,
       0.026396;-0.002868; 0.089187;,
       0.021280;-0.000748; 0.089187;,
       0.019161; 0.004368; 0.089187;,
       0.021280; 0.009484; 0.089187;,
       0.026396; 0.011603; 0.089187;,
       0.031513; 0.009484; 0.089187;,
       0.033632; 0.004368; 0.089187;,
       0.031513;-0.000748; 0.089187;,
       0.028060; 0.013715; 0.098488;,
       0.028060;-0.004979; 0.098488;,
      -0.019761;-0.004979; 0.086627;,
      -0.019761; 0.013715; 0.086627;,
       0.028060;-0.004979; 0.098488;,
       0.030683;-0.004979; 0.084956;,
      -0.017137;-0.004979; 0.073095;,
      -0.019761;-0.004979; 0.086627;,
       0.030683;-0.004979; 0.084956;,
       0.030683; 0.013715; 0.084956;,
      -0.017137; 0.013715; 0.073095;,
      -0.017137;-0.004979; 0.073095;,
       0.030683; 0.013715; 0.084956;,
       0.028060; 0.013715; 0.098488;,
      -0.019761; 0.013715; 0.086627;,
      -0.017137; 0.013715; 0.073095;,
       0.030683; 0.013715; 0.084956;,
       0.053422; 0.011537; 0.090143;,
       0.056281; 0.011537; 0.100952;,
       0.028060; 0.013715; 0.098488;,
      -0.017137;-0.004979; 0.073095;,
      -0.037102;-0.002398; 0.074668;,
      -0.034660;-0.002398; 0.085124;,
      -0.019761;-0.004979; 0.086627;,
      -0.037102;-0.002398; 0.074668;,
      -0.037102; 0.011134; 0.074668;,
      -0.034660; 0.011134; 0.085124;,
      -0.034660;-0.002398; 0.085124;,
      -0.017137; 0.013715; 0.073095;,
      -0.037102; 0.011134; 0.074668;,
      -0.037102;-0.002398; 0.074668;,
      -0.017137;-0.004979; 0.073095;,
      -0.019761;-0.004979; 0.086627;,
      -0.034660;-0.002398; 0.085124;,
      -0.034660; 0.011134; 0.085124;,
      -0.019761; 0.013715; 0.086627;,
      -0.019761; 0.013715; 0.086627;,
      -0.034660; 0.011134; 0.085124;,
      -0.037102; 0.011134; 0.074668;,
      -0.017137; 0.013715; 0.073095;,
       0.056281;-0.002801; 0.100952;,
       0.056281; 0.011537; 0.100952;,
       0.053422; 0.011537; 0.090143;,
       0.053422;-0.002801; 0.090143;,
       0.028060;-0.004979; 0.098488;,
       0.056281;-0.002801; 0.100952;,
       0.053422;-0.002801; 0.090143;,
       0.030683;-0.004979; 0.084956;,
       0.028060; 0.013715; 0.098488;,
       0.056281; 0.011537; 0.100952;,
       0.056281;-0.002801; 0.100952;,
       0.028060;-0.004979; 0.098488;,
       0.030683;-0.004979; 0.084956;,
       0.053422;-0.002801; 0.090143;,
       0.053422; 0.011537; 0.090143;,
       0.030683; 0.013715; 0.084956;,
      -0.014610; 0.011935; 0.022068;,
      -0.018363; 0.003634; 0.022068;,
      -0.018363; 0.003634;-0.010058;,
      -0.014610; 0.011935;-0.010058;,
      -0.014610; 0.011935;-0.010058;,
      -0.005045; 0.013051;-0.009761;,
      -0.005045; 0.013051; 0.022366;,
      -0.014610; 0.011935; 0.022068;,
      -0.005045; 0.013051;-0.009761;,
       0.024785; 0.013051;-0.009657;,
       0.024785; 0.013051; 0.022470;,
      -0.005045; 0.013051; 0.022366;,
       0.024785; 0.013051;-0.009657;,
       0.033859; 0.009082;-0.009761;,
       0.033859; 0.009082; 0.022366;,
       0.024785; 0.013051; 0.022470;,
       0.033859; 0.009082;-0.009761;,
       0.034025; 0.003634;-0.009873;,
       0.034025; 0.003634; 0.022254;,
       0.033859; 0.009082; 0.022366;,
      -0.013379; 0.010027; 0.021160;,
      -0.013379; 0.010027;-0.009128;,
      -0.016918; 0.003634;-0.009128;,
      -0.016918; 0.003634; 0.021160;,
      -0.013379; 0.010027;-0.009128;,
      -0.013379; 0.010027; 0.021160;,
      -0.004361; 0.011079; 0.021441;,
      -0.004361; 0.011079;-0.008848;,
      -0.004361; 0.011079;-0.008848;,
      -0.004361; 0.011079; 0.021441;,
       0.023762; 0.011079; 0.021539;,
       0.023762; 0.011079;-0.008749;,
       0.023762; 0.011079;-0.008749;,
       0.023762; 0.011079; 0.021539;,
       0.032317; 0.007336; 0.021441;,
       0.032317; 0.007336;-0.008848;,
       0.032317; 0.007336;-0.008848;,
       0.032317; 0.007336; 0.021441;,
       0.032472; 0.003634; 0.021335;,
       0.032472; 0.003634;-0.008953;,
      -0.018363; 0.003634; 0.022068;,
      -0.014610; 0.011935; 0.022068;,
      -0.013379; 0.010027; 0.021160;,
      -0.016918; 0.003634; 0.021160;,
       0.034025; 0.003634;-0.009873;,
       0.033859; 0.009082;-0.009761;,
       0.032317; 0.007336;-0.008848;,
       0.032472; 0.003634;-0.008953;,
       0.033859; 0.009082;-0.009761;,
       0.024785; 0.013051;-0.009657;,
       0.023762; 0.011079;-0.008749;,
       0.032317; 0.007336;-0.008848;,
       0.024785; 0.013051;-0.009657;,
      -0.005045; 0.013051;-0.009761;,
      -0.004361; 0.011079;-0.008848;,
       0.023762; 0.011079;-0.008749;,
       0.033859; 0.009082; 0.022366;,
       0.034025; 0.003634; 0.022254;,
       0.032472; 0.003634; 0.021335;,
       0.032317; 0.007336; 0.021441;,
      -0.005045; 0.013051;-0.009761;,
      -0.014610; 0.011935;-0.010058;,
      -0.013379; 0.010027;-0.009128;,
      -0.004361; 0.011079;-0.008848;,
       0.024785; 0.013051; 0.022470;,
       0.033859; 0.009082; 0.022366;,
       0.032317; 0.007336; 0.021441;,
       0.023762; 0.011079; 0.021539;,
      -0.014610; 0.011935;-0.010058;,
      -0.018363; 0.003634;-0.010058;,
      -0.016918; 0.003634;-0.009128;,
      -0.013379; 0.010027;-0.009128;,
      -0.005045; 0.013051; 0.022366;,
       0.024785; 0.013051; 0.022470;,
       0.023762; 0.011079; 0.021539;,
      -0.004361; 0.011079; 0.021441;,
      -0.014610; 0.011935; 0.022068;,
      -0.005045; 0.013051; 0.022366;,
      -0.004361; 0.011079; 0.021441;,
      -0.013379; 0.010027; 0.021160;,
      -0.014610;-0.004667; 0.022068;,
      -0.014610;-0.004667;-0.010058;,
      -0.018363; 0.003634;-0.010058;,
      -0.018363; 0.003634; 0.022068;,
      -0.014610;-0.004667;-0.010058;,
      -0.014610;-0.004667; 0.022068;,
      -0.005045;-0.005784; 0.022366;,
      -0.005045;-0.005784;-0.009761;,
      -0.005045;-0.005784;-0.009761;,
      -0.005045;-0.005784; 0.022366;,
       0.024785;-0.005784; 0.022470;,
       0.024785;-0.005784;-0.009657;,
       0.024785;-0.005784;-0.009657;,
       0.024785;-0.005784; 0.022470;,
       0.033859;-0.001814; 0.022366;,
       0.033859;-0.001814;-0.009761;,
       0.033859;-0.001814;-0.009761;,
       0.033859;-0.001814; 0.022366;,
       0.034025; 0.003634; 0.022254;,
       0.034025; 0.003634;-0.009873;,
      -0.013379;-0.002759; 0.021160;,
      -0.016918; 0.003634; 0.021160;,
      -0.016918; 0.003634;-0.009128;,
      -0.013379;-0.002759;-0.009128;,
      -0.013379;-0.002759;-0.009128;,
      -0.004361;-0.003811;-0.008848;,
      -0.004361;-0.003811; 0.021441;,
      -0.013379;-0.002759; 0.021160;,
      -0.004361;-0.003811;-0.008848;,
       0.023762;-0.003811;-0.008749;,
       0.023762;-0.003811; 0.021539;,
      -0.004361;-0.003811; 0.021441;,
       0.023762;-0.003811;-0.008749;,
       0.032317;-0.000069;-0.008848;,
       0.032317;-0.000069; 0.021441;,
       0.023762;-0.003811; 0.021539;,
       0.032317;-0.000069;-0.008848;,
       0.032472; 0.003634;-0.008953;,
       0.032472; 0.003634; 0.021335;,
       0.032317;-0.000069; 0.021441;,
      -0.018363; 0.003634; 0.022068;,
      -0.016918; 0.003634; 0.021160;,
      -0.013379;-0.002759; 0.021160;,
      -0.014610;-0.004667; 0.022068;,
       0.034025; 0.003634;-0.009873;,
       0.032472; 0.003634;-0.008953;,
       0.032317;-0.000069;-0.008848;,
       0.033859;-0.001814;-0.009761;,
       0.033859;-0.001814;-0.009761;,
       0.032317;-0.000069;-0.008848;,
       0.023762;-0.003811;-0.008749;,
       0.024785;-0.005784;-0.009657;,
       0.024785;-0.005784;-0.009657;,
       0.023762;-0.003811;-0.008749;,
      -0.004361;-0.003811;-0.008848;,
      -0.005045;-0.005784;-0.009761;,
       0.033859;-0.001814; 0.022366;,
       0.032317;-0.000069; 0.021441;,
       0.032472; 0.003634; 0.021335;,
       0.034025; 0.003634; 0.022254;,
      -0.005045;-0.005784;-0.009761;,
      -0.004361;-0.003811;-0.008848;,
      -0.013379;-0.002759;-0.009128;,
      -0.014610;-0.004667;-0.010058;,
       0.024785;-0.005784; 0.022470;,
       0.023762;-0.003811; 0.021539;,
       0.032317;-0.000069; 0.021441;,
       0.033859;-0.001814; 0.022366;,
      -0.014610;-0.004667;-0.010058;,
      -0.013379;-0.002759;-0.009128;,
      -0.016918; 0.003634;-0.009128;,
      -0.018363; 0.003634;-0.010058;,
      -0.005045;-0.005784; 0.022366;,
      -0.004361;-0.003811; 0.021441;,
       0.023762;-0.003811; 0.021539;,
       0.024785;-0.005784; 0.022470;,
      -0.014610;-0.004667; 0.022068;,
      -0.013379;-0.002759; 0.021160;,
      -0.004361;-0.003811; 0.021441;,
      -0.005045;-0.005784; 0.022366;,
       0.017726; 0.007377;-0.080895;,
       0.017726; 0.001359;-0.080895;,
       0.013006; 0.001359;-0.084628;,
       0.013006; 0.007377;-0.084628;,
       0.025951; 0.001920;-0.086669;,
       0.030147; 0.002481;-0.098409;,
       0.027188; 0.002481;-0.100750;,
       0.022111; 0.001920;-0.089706;,
       0.030147; 0.002481;-0.098409;,
       0.030147; 0.006255;-0.098409;,
       0.027188; 0.006255;-0.100750;,
       0.027188; 0.002481;-0.100750;,
       0.025951; 0.006816;-0.086669;,
       0.017726; 0.007377;-0.080895;,
       0.013006; 0.007377;-0.084628;,
       0.022111; 0.006816;-0.089706;,
       0.025951; 0.001920;-0.086669;,
       0.025951; 0.006816;-0.086669;,
       0.030147; 0.006255;-0.098409;,
       0.030147; 0.002481;-0.098409;,
       0.022111; 0.001920;-0.089706;,
       0.022111; 0.006816;-0.089706;,
       0.013006; 0.007377;-0.084628;,
       0.013006; 0.001359;-0.084628;,
       0.027188; 0.002481;-0.100750;,
       0.027188; 0.006255;-0.100750;,
       0.022111; 0.006816;-0.089706;,
       0.022111; 0.001920;-0.089706;,
       0.017726; 0.001359;-0.080895;,
       0.017726; 0.007377;-0.080895;,
       0.025951; 0.006816;-0.086669;,
       0.025951; 0.001920;-0.086669;,
       0.030147; 0.006255;-0.098409;,
       0.025951; 0.006816;-0.086669;,
       0.022111; 0.006816;-0.089706;,
       0.027188; 0.006255;-0.100750;,
       0.017726; 0.001359;-0.080895;,
       0.025951; 0.001920;-0.086669;,
       0.022111; 0.001920;-0.089706;,
       0.013006; 0.001359;-0.084628;,
       0.023586; 0.007614;-0.121483;,
       0.023586; 0.001121;-0.121483;,
       0.011442; 0.001121;-0.124024;,
       0.011442; 0.007614;-0.124024;,
       0.023586; 0.001121;-0.121483;,
       0.025507; 0.001121;-0.126458;,
       0.013364; 0.001121;-0.128999;,
       0.011442; 0.001121;-0.124024;,
       0.025507; 0.001121;-0.126458;,
       0.025507; 0.007614;-0.126458;,
       0.013364; 0.007614;-0.128999;,
       0.013364; 0.001121;-0.128999;,
       0.025507; 0.007614;-0.126458;,
       0.023586; 0.007614;-0.121483;,
       0.011442; 0.007614;-0.124024;,
       0.013364; 0.007614;-0.128999;,
       0.034284; 0.007614;-0.115201;,
       0.036269; 0.007614;-0.110913;,
       0.036269; 0.001121;-0.110913;,
       0.034284; 0.001121;-0.115201;,
       0.013364; 0.001121;-0.128999;,
       0.013364; 0.007614;-0.128999;,
       0.011442; 0.007614;-0.124024;,
       0.011442; 0.001121;-0.124024;,
       0.036269; 0.001121;-0.110913;,
       0.039551; 0.001121;-0.103314;,
       0.043304; 0.001121;-0.104014;,
       0.039723; 0.001121;-0.112840;,
       0.036205; 0.001121;-0.120175;,
       0.039723; 0.001121;-0.112840;,
       0.039723; 0.007614;-0.112840;,
       0.036205; 0.007614;-0.120175;,
       0.036205; 0.007614;-0.120175;,
       0.039723; 0.007614;-0.112840;,
       0.036269; 0.007614;-0.110913;,
       0.034284; 0.007614;-0.115201;,
       0.034284; 0.001121;-0.115201;,
       0.036269; 0.001121;-0.110913;,
       0.039723; 0.001121;-0.112840;,
       0.036205; 0.001121;-0.120175;,
       0.043304; 0.001121;-0.104014;,
       0.044186; 0.001121;-0.093278;,
       0.044186; 0.007614;-0.093278;,
       0.043304; 0.007614;-0.104014;,
       0.039723; 0.001121;-0.112840;,
       0.043304; 0.001121;-0.104014;,
       0.043304; 0.007614;-0.104014;,
       0.039723; 0.007614;-0.112840;,
       0.036269; 0.007614;-0.110913;,
       0.039551; 0.007614;-0.103314;,
       0.039551; 0.001121;-0.103314;,
       0.036269; 0.001121;-0.110913;,
       0.039723; 0.007614;-0.112840;,
       0.043304; 0.007614;-0.104014;,
       0.039551; 0.007614;-0.103314;,
       0.036269; 0.007614;-0.110913;,
       0.044186; 0.007614;-0.093278;,
       0.042785; 0.007614;-0.085491;,
       0.039576; 0.007614;-0.087371;,
       0.040474; 0.007614;-0.093691;,
       0.039551; 0.007614;-0.103314;,
       0.040474; 0.007614;-0.093691;,
       0.040474; 0.001121;-0.093691;,
       0.039551; 0.001121;-0.103314;,
       0.043304; 0.007614;-0.104014;,
       0.044186; 0.007614;-0.093278;,
       0.040474; 0.007614;-0.093691;,
       0.039551; 0.007614;-0.103314;,
       0.039551; 0.001121;-0.103314;,
       0.040474; 0.001121;-0.093691;,
       0.044186; 0.001121;-0.093278;,
       0.043304; 0.001121;-0.104014;,
       0.042785; 0.001121;-0.085491;,
       0.036024; 0.001121;-0.076656;,
       0.036024; 0.007614;-0.076656;,
       0.042785; 0.007614;-0.085491;,
       0.040474; 0.001121;-0.093691;,
       0.039576; 0.001121;-0.087371;,
       0.042785; 0.001121;-0.085491;,
       0.044186; 0.001121;-0.093278;,
       0.044186; 0.001121;-0.093278;,
       0.042785; 0.001121;-0.085491;,
       0.042785; 0.007614;-0.085491;,
       0.044186; 0.007614;-0.093278;,
       0.040474; 0.007614;-0.093691;,
       0.039576; 0.007614;-0.087371;,
       0.039576; 0.001121;-0.087371;,
       0.040474; 0.001121;-0.093691;,
       0.032815; 0.001121;-0.078536;,
       0.032815; 0.007614;-0.078536;,
       0.036024; 0.007614;-0.076656;,
       0.036024; 0.001121;-0.076656;,
       0.039576; 0.007614;-0.087371;,
       0.032815; 0.007614;-0.078536;,
       0.032815; 0.001121;-0.078536;,
       0.039576; 0.001121;-0.087371;,
       0.042785; 0.007614;-0.085491;,
       0.036024; 0.007614;-0.076656;,
       0.032815; 0.007614;-0.078536;,
       0.039576; 0.007614;-0.087371;,
       0.039576; 0.001121;-0.087371;,
       0.032815; 0.001121;-0.078536;,
       0.036024; 0.001121;-0.076656;,
       0.042785; 0.001121;-0.085491;,
       0.036205; 0.007614;-0.120175;,
       0.034284; 0.007614;-0.115201;,
       0.023586; 0.007614;-0.121483;,
       0.025507; 0.007614;-0.126458;,
       0.036205; 0.001121;-0.120175;,
       0.036205; 0.007614;-0.120175;,
       0.025507; 0.007614;-0.126458;,
       0.025507; 0.001121;-0.126458;,
       0.034284; 0.001121;-0.115201;,
       0.036205; 0.001121;-0.120175;,
       0.025507; 0.001121;-0.126458;,
       0.023586; 0.001121;-0.121483;,
       0.034284; 0.007614;-0.115201;,
       0.034284; 0.001121;-0.115201;,
       0.023586; 0.001121;-0.121483;,
       0.023586; 0.007614;-0.121483;,
       0.048713; 0.009785;-0.161581;,
       0.048713;-0.001049;-0.161581;,
       0.010472;-0.001049;-0.161581;,
       0.010472; 0.009785;-0.161581;,
       0.048713;-0.001049;-0.161581;,
       0.048713;-0.001049;-0.208951;,
       0.010472;-0.001049;-0.208951;,
       0.010472;-0.001049;-0.161581;,
       0.048713;-0.001049;-0.208951;,
       0.048713; 0.009785;-0.208951;,
       0.010472; 0.009785;-0.208951;,
       0.010472;-0.001049;-0.208951;,
       0.048713; 0.009785;-0.208951;,
       0.048713; 0.009785;-0.161581;,
       0.010472; 0.009785;-0.161581;,
       0.010472; 0.009785;-0.208951;,
       0.048713;-0.001049;-0.161581;,
       0.048713; 0.009785;-0.161581;,
       0.048713; 0.009785;-0.208951;,
       0.048713;-0.001049;-0.208951;,
       0.010472;-0.001049;-0.208951;,
       0.010472; 0.009785;-0.208951;,
       0.010472; 0.009785;-0.161581;,
       0.010472;-0.001049;-0.161581;;
      228;
      4;3,2,1,0;,
      4;7,6,5,4;,
      4;11,10,9,8;,
      4;15,14,13,12;,
      4;19,18,17,16;,
      4;23,22,21,20;,
      4;27,26,25,24;,
      4;31,30,29,28;,
      4;35,34,33,32;,
      4;39,38,37,36;,
      4;43,42,41,40;,
      4;47,46,45,44;,
      4;51,50,49,48;,
      4;55,54,53,52;,
      4;59,58,57,56;,
      4;63,62,61,60;,
      4;67,66,65,64;,
      4;71,70,69,68;,
      4;75,74,73,72;,
      4;79,78,77,76;,
      4;83,82,81,80;,
      4;87,86,85,84;,
      4;91,90,89,88;,
      4;95,94,93,92;,
      4;99,98,97,96;,
      4;103,102,101,100;,
      4;107,106,105,104;,
      4;111,110,109,108;,
      4;115,114,113,112;,
      4;119,118,117,116;,
      4;123,122,121,120;,
      4;127,126,125,124;,
      4;131,130,129,128;,
      4;135,134,133,132;,
      4;139,138,137,136;,
      4;143,142,141,140;,
      4;147,146,145,144;,
      4;151,150,149,148;,
      4;155,154,153,152;,
      4;159,158,157,156;,
      4;163,162,161,160;,
      4;167,166,165,164;,
      4;171,170,169,168;,
      4;175,174,173,172;,
      4;179,178,177,176;,
      4;183,182,181,180;,
      4;187,186,185,184;,
      4;191,190,189,188;,
      4;195,194,193,192;,
      4;199,198,197,196;,
      4;203,202,201,200;,
      4;207,206,205,204;,
      4;211,210,209,208;,
      4;215,214,213,212;,
      4;219,218,217,216;,
      4;223,222,221,220;,
      4;227,226,225,224;,
      4;231,230,229,228;,
      4;235,234,233,232;,
      4;239,238,237,236;,
      4;243,242,241,240;,
      4;247,246,245,244;,
      4;251,250,249,248;,
      4;255,254,253,252;,
      4;259,258,257,256;,
      4;263,262,261,260;,
      4;267,266,265,264;,
      4;271,270,269,268;,
      4;275,274,273,272;,
      4;279,278,277,276;,
      4;283,282,281,280;,
      4;287,286,285,284;,
      4;291,290,289,288;,
      4;295,294,293,292;,
      4;299,298,297,296;,
      4;303,302,301,300;,
      4;307,306,305,304;,
      4;311,310,309,308;,
      4;315,314,313,312;,
      4;319,318,317,316;,
      4;323,322,321,320;,
      4;327,326,325,324;,
      4;331,330,329,328;,
      4;335,334,333,332;,
      4;339,338,337,336;,
      4;343,342,341,340;,
      4;347,346,345,344;,
      4;351,350,349,348;,
      4;355,354,353,352;,
      4;359,358,357,356;,
      4;363,362,361,360;,
      4;367,366,365,364;,
      4;371,370,369,368;,
      4;375,374,373,372;,
      4;379,378,377,376;,
      4;383,382,381,380;,
      4;387,386,385,384;,
      4;391,390,389,388;,
      4;395,394,393,392;,
      4;399,398,397,396;,
      4;403,402,401,400;,
      4;407,406,405,404;,
      4;411,410,409,408;,
      4;415,414,413,412;,
      4;419,418,417,416;,
      4;423,422,421,420;,
      4;427,426,425,424;,
      4;431,430,429,428;,
      4;435,434,433,432;,
      4;439,438,437,436;,
      4;443,442,441,440;,
      4;447,446,445,444;,
      4;451,450,449,448;,
      4;455,454,453,452;,
      8;463,462,461,460,459,458,457,456;,
      4;467,466,465,464;,
      4;471,470,469,468;,
      8;479,478,477,476,475,474,473,472;,
      4;483,482,481,480;,
      4;487,486,485,484;,
      4;491,490,489,488;,
      4;495,494,493,492;,
      4;499,498,497,496;,
      4;503,502,501,500;,
      8;511,510,509,508,507,506,505,504;,
      4;515,514,513,512;,
      4;519,518,517,516;,
      8;527,526,525,524,523,522,521,520;,
      4;531,530,529,528;,
      4;535,534,533,532;,
      4;539,538,537,536;,
      4;543,542,541,540;,
      4;547,546,545,544;,
      4;551,550,549,548;,
      4;555,554,553,552;,
      4;559,558,557,556;,
      4;563,562,561,560;,
      4;567,566,565,564;,
      4;571,570,569,568;,
      4;575,574,573,572;,
      4;579,578,577,576;,
      4;583,582,581,580;,
      4;587,586,585,584;,
      4;591,590,589,588;,
      4;595,594,593,592;,
      4;599,598,597,596;,
      4;603,602,601,600;,
      4;607,606,605,604;,
      4;611,610,609,608;,
      4;615,614,613,612;,
      4;619,618,617,616;,
      4;623,622,621,620;,
      4;627,626,625,624;,
      4;631,630,629,628;,
      4;635,634,633,632;,
      4;639,638,637,636;,
      4;643,642,641,640;,
      4;647,646,645,644;,
      4;651,650,649,648;,
      4;655,654,653,652;,
      4;659,658,657,656;,
      4;663,662,661,660;,
      4;667,666,665,664;,
      4;671,670,669,668;,
      4;675,674,673,672;,
      4;679,678,677,676;,
      4;683,682,681,680;,
      4;687,686,685,684;,
      4;691,690,689,688;,
      4;695,694,693,692;,
      4;699,698,697,696;,
      4;703,702,701,700;,
      4;707,706,705,704;,
      4;711,710,709,708;,
      4;715,714,713,712;,
      4;719,718,717,716;,
      4;723,722,721,720;,
      4;727,726,725,724;,
      4;731,730,729,728;,
      4;735,734,733,732;,
      4;739,738,737,736;,
      4;743,742,741,740;,
      4;747,746,745,744;,
      4;751,750,749,748;,
      4;755,754,753,752;,
      4;759,758,757,756;,
      4;763,762,761,760;,
      4;767,766,765,764;,
      4;771,770,769,768;,
      4;775,774,773,772;,
      4;779,778,777,776;,
      4;783,782,781,780;,
      4;787,786,785,784;,
      4;791,790,789,788;,
      4;795,794,793,792;,
      4;799,798,797,796;,
      4;803,802,801,800;,
      4;807,806,805,804;,
      4;811,810,809,808;,
      4;815,814,813,812;,
      4;819,818,817,816;,
      4;823,822,821,820;,
      4;827,826,825,824;,
      4;831,830,829,828;,
      4;835,834,833,832;,
      4;839,838,837,836;,
      4;843,842,841,840;,
      4;847,846,845,844;,
      4;851,850,849,848;,
      4;855,854,853,852;,
      4;859,858,857,856;,
      4;863,862,861,860;,
      4;867,866,865,864;,
      4;871,870,869,868;,
      4;875,874,873,872;,
      4;879,878,877,876;,
      4;883,882,881,880;,
      4;887,886,885,884;,
      4;891,890,889,888;,
      4;895,894,893,892;,
      4;899,898,897,896;,
      4;903,902,901,900;,
      4;907,906,905,904;,
      4;911,910,909,908;,
      4;915,914,913,912;,
      4;919,918,917,916;,
      4;923,922,921,920;,
      4;927,926,925,924;;
      MeshNormals {
        228;
         0.000000; 0.000000;-1.000000;,
        -0.280900; 0.959726; 0.004621;,
        -0.000003;-0.000000; 1.000000;,
        -0.280900;-0.959726; 0.004621;,
        -0.999865;-0.000000; 0.016449;,
         0.999865; 0.000000;-0.016449;,
        -0.656136;-0.754565; 0.010794;,
         0.000003; 0.000000; 1.000000;,
        -0.656136; 0.754565; 0.010794;,
         0.000000; 0.000000;-1.000000;,
         0.000000;-0.369535;-0.929217;,
        -0.030865;-0.786212; 0.617186;,
         0.000000;-1.000000;-0.000000;,
        -0.268013;-0.464826; 0.843864;,
         0.276616;-0.735702;-0.618244;,
         0.008374;-0.765548;-0.643324;,
         0.000000;-1.000000; 0.000000;,
        -0.916948;-0.096573; 0.387145;,
         0.000000;-1.000000; 0.000000;,
        -0.747755;-0.320353; 0.581581;,
         0.491193;-0.767893;-0.411180;,
         0.608637;-0.607444;-0.510463;,
         0.000000;-1.000000; 0.000000;,
        -0.011136;-0.999544;-0.028071;,
         0.000000;-1.000000; 0.000000;,
        -0.998554;-0.000000; 0.053760;,
        -0.999536;-0.000000; 0.030459;,
        -0.999607;-0.000000; 0.028039;,
         0.586894;-0.807429;-0.060116;,
         0.018850;-0.003079; 0.999817;,
         0.545155;-0.838333;-0.002239;,
         0.000000;-1.000000;-0.000000;,
         0.999992; 0.000000;-0.004108;,
         0.015748; 0.000000; 0.999876;,
         0.998473;-0.002111;-0.055210;,
        -0.616922;-0.786984;-0.007976;,
        -0.636582;-0.770965; 0.019398;,
        -0.624887;-0.773941; 0.102622;,
         0.742339;-0.247595;-0.622598;,
         0.719975;-0.164265;-0.674280;,
        -0.672040;-0.524551; 0.522693;,
        -0.707826;-0.639800; 0.299396;,
         0.012096;-0.369507;-0.929149;,
         0.383896;-0.341218;-0.858017;,
        -0.279559;-0.721430; 0.633549;,
        -0.161150;-0.986930; 0.000000;,
        -0.043762;-0.482015; 0.875069;,
         0.000000;-0.765575;-0.643346;,
        -1.000000; 0.000000; 0.000000;,
        -1.000000; 0.000000; 0.000000;,
        -0.352033;-0.716569;-0.602164;,
        -0.336766;-0.740640; 0.581413;,
        -0.479890;-0.390534; 0.785614;,
        -0.491376;-0.294259;-0.819732;,
        -0.636582;-0.770965; 0.019398;,
         0.999992; 0.000000;-0.004108;,
         0.000000;-1.000000;-0.000000;,
         0.545155;-0.838333;-0.002239;,
        -0.999536;-0.000000; 0.030459;,
        -0.000000; 0.369535;-0.929217;,
        -0.030866; 0.786212; 0.617186;,
        -0.000000; 1.000000; 0.000000;,
        -0.268013; 0.464826; 0.843864;,
         0.276616; 0.735702;-0.618244;,
         0.008374; 0.765548;-0.643324;,
        -0.000000; 1.000000;-0.000000;,
        -0.916948; 0.096572; 0.387145;,
        -0.000000; 1.000000;-0.000000;,
        -0.747755; 0.320352; 0.581581;,
         0.491193; 0.767894;-0.411180;,
         0.608637; 0.607444;-0.510463;,
        -0.000000; 1.000000;-0.000000;,
        -0.011137; 0.999544;-0.028071;,
        -0.000000; 1.000000;-0.000000;,
        -0.998554;-0.000000; 0.053761;,
        -0.999536;-0.000000; 0.030459;,
        -0.999607;-0.000000; 0.028039;,
         0.586894; 0.807429;-0.060116;,
         0.018850; 0.003079; 0.999818;,
         0.545155; 0.838333;-0.002239;,
        -0.000000; 1.000000;-0.000000;,
         0.999992; 0.000000;-0.004108;,
         0.015748; 0.000000; 0.999876;,
         0.998473; 0.002112;-0.055210;,
        -0.616923; 0.786983;-0.007976;,
        -0.636582; 0.770965; 0.019398;,
        -0.624888; 0.773941; 0.102622;,
         0.742339; 0.247596;-0.622598;,
         0.719975; 0.164265;-0.674280;,
        -0.672040; 0.524551; 0.522693;,
        -0.707826; 0.639800; 0.299396;,
         0.012096; 0.369507;-0.929149;,
         0.383896; 0.341218;-0.858017;,
        -0.279559; 0.721430; 0.633550;,
        -0.161150; 0.986930; 0.000000;,
        -0.043763; 0.482015; 0.875069;,
        -0.000000; 0.765575;-0.643346;,
        -1.000000; 0.000000; 0.000000;,
        -1.000000; 0.000000; 0.000000;,
        -0.352033; 0.716569;-0.602164;,
        -0.336766; 0.740640; 0.581413;,
        -0.479890; 0.390534; 0.785614;,
        -0.491376; 0.294259;-0.819732;,
        -0.636582; 0.770965; 0.019398;,
         0.999992; 0.000000;-0.004108;,
        -0.000000; 1.000000; 0.000000;,
         0.545155; 0.838332;-0.002239;,
        -0.999536;-0.000000; 0.030459;,
        -0.382684; 0.923879; 0.000000;,
        -0.923880; 0.382683; 0.000000;,
        -0.923879;-0.382684; 0.000000;,
        -0.382683;-0.923880; 0.000000;,
         0.382684;-0.923879;-0.000000;,
         0.923880;-0.382683;-0.000000;,
        -0.000000; 0.000000; 1.000000;,
         0.923880; 0.382683;-0.000000;,
         0.382683; 0.923880;-0.000000;,
        -0.000000; 0.000000;-1.000000;,
        -0.382683; 0.923880; 0.000284;,
        -0.923879; 0.382683; 0.000685;,
        -0.923879;-0.382684; 0.000685;,
        -0.382683;-0.923880; 0.000284;,
         0.382683;-0.923880;-0.000284;,
         0.923879;-0.382683;-0.000685;,
         0.000000; 0.000000; 1.000000;,
         0.923879; 0.382683;-0.000685;,
         0.382683; 0.923880;-0.000284;,
         0.000000; 0.000000;-1.000000;,
         0.240734; 0.000000;-0.970591;,
        -0.000000; 1.000000;-0.000000;,
        -0.240733;-0.000000; 0.970591;,
         0.000000;-1.000000; 0.000000;,
        -0.085286;-0.996356; 0.000826;,
         0.146452; 0.989217; 0.001109;,
         0.973805; 0.000000;-0.227383;,
         0.078555; 0.000000; 0.996910;,
         0.100322; 0.000000;-0.994955;,
         0.146452;-0.989217; 0.001109;,
        -0.966755;-0.000000; 0.255706;,
        -0.085287; 0.996356; 0.000826;,
         0.087000; 0.000000;-0.996208;,
        -0.222413;-0.000000; 0.974953;,
         0.911206;-0.411950;-0.000000;,
         0.115917;-0.993259;-0.000000;,
         0.000000;-1.000000;-0.000000;,
        -0.400795;-0.916168; 0.000000;,
        -0.999540;-0.030320; 0.000000;,
        -0.874927; 0.484255; 0.000000;,
        -0.115917; 0.993259; 0.000000;,
         0.000000; 1.000000;-0.000000;,
         0.400794; 0.916168; 0.000000;,
         0.999116; 0.042041;-0.000000;,
        -0.437362; 0.217020;-0.872707;,
         0.510702;-0.002526; 0.859754;,
         0.160511; 0.342587; 0.925673;,
        -0.003174; 0.419316; 0.907835;,
         0.495453; 0.038022;-0.867802;,
        -0.074816; 0.397585; 0.914510;,
         0.146464; 0.359021;-0.921766;,
        -0.445544; 0.221080; 0.867533;,
         0.003165; 0.425455;-0.904974;,
        -0.020640; 0.418602;-0.907935;,
         0.911206; 0.411951;-0.000000;,
         0.115917; 0.993259;-0.000000;,
        -0.000000; 1.000000; 0.000000;,
        -0.400795; 0.916168; 0.000000;,
        -0.999540; 0.030319; 0.000000;,
        -0.874927;-0.484255; 0.000000;,
        -0.115916;-0.993259; 0.000000;,
         0.000000;-1.000000; 0.000000;,
         0.400794;-0.916168; 0.000000;,
         0.999116;-0.042041;-0.000000;,
        -0.437362;-0.217020;-0.872706;,
         0.510702; 0.002526; 0.859754;,
         0.160510;-0.342587; 0.925673;,
        -0.003174;-0.419316; 0.907835;,
         0.495453;-0.038022;-0.867802;,
        -0.074816;-0.397585; 0.914510;,
         0.146464;-0.359021;-0.921766;,
        -0.445544;-0.221080; 0.867533;,
         0.003165;-0.425455;-0.904974;,
        -0.020640;-0.418603;-0.907935;,
         0.620316; 0.000000;-0.784352;,
        -0.029434; 0.998874; 0.037217;,
        -0.620317; 0.000000; 0.784351;,
        -0.036074;-0.998308; 0.045613;,
        -0.941658; 0.000000;-0.336571;,
         0.487130; 0.000000; 0.873329;,
         0.908612; 0.000000; 0.417641;,
        -0.574614;-0.000000;-0.818424;,
        -0.029434;-0.998874; 0.037217;,
        -0.036074; 0.998308; 0.045613;,
         0.204827; 0.000000;-0.978798;,
        -0.000000; 1.000000; 0.000000;,
        -0.204827; 0.000000; 0.978798;,
         0.000000;-1.000000; 0.000000;,
         0.907443; 0.000000;-0.420176;,
         0.932820; 0.000000; 0.360344;,
        -0.000000; 1.000000;-0.000000;,
        -0.901694; 0.000000; 0.432375;,
         0.000000;-1.000000;-0.000000;,
        -0.000000; 1.000000;-0.000000;,
        -0.996646; 0.000000; 0.081833;,
        -0.926626; 0.000000; 0.375985;,
         0.918056; 0.000000;-0.396450;,
         0.000000;-1.000000; 0.000000;,
         0.000000;-1.000000;-0.000000;,
         0.995427; 0.000000;-0.095527;,
         0.000000;-1.000000; 0.000000;,
         0.000000; 1.000000; 0.000000;,
        -0.794151; 0.000000;-0.607720;,
        -0.000000; 1.000000;-0.000000;,
        -0.984217; 0.000000;-0.176965;,
         0.990058; 0.000000; 0.140659;,
         0.505486; 0.000000;-0.862835;,
         0.794151; 0.000000; 0.607720;,
         0.000000;-1.000000; 0.000000;,
        -0.000000; 1.000000;-0.000000;,
         0.000000;-1.000000; 0.000000;,
        -0.506383; 0.000000; 0.862309;,
        -0.000000; 1.000000;-0.000000;,
         0.506383; 0.000000;-0.862309;,
         0.000000; 0.000000;-1.000000;,
        -0.000000; 1.000000; 0.000000;,
        -0.000000; 0.000000; 1.000000;,
         0.000000;-1.000000; 0.000000;,
        -1.000000;-0.000000; 0.000000;,
         1.000000; 0.000000;-0.000000;;
        228;
        4;0,0,0,0;,
        4;1,1,1,1;,
        4;2,2,2,2;,
        4;3,3,3,3;,
        4;4,4,4,4;,
        4;5,5,5,5;,
        4;6,6,6,6;,
        4;7,7,7,7;,
        4;8,8,8,8;,
        4;9,9,9,9;,
        4;10,10,10,10;,
        4;11,11,11,11;,
        4;12,12,12,12;,
        4;13,13,13,13;,
        4;14,14,14,14;,
        4;15,15,15,15;,
        4;16,16,16,16;,
        4;17,17,17,17;,
        4;18,18,18,18;,
        4;19,19,19,19;,
        4;20,20,20,20;,
        4;21,21,21,21;,
        4;22,22,22,22;,
        4;23,23,23,23;,
        4;24,24,24,24;,
        4;25,25,25,25;,
        4;26,26,26,26;,
        4;27,27,27,27;,
        4;28,28,28,28;,
        4;29,29,29,29;,
        4;30,30,30,30;,
        4;31,31,31,31;,
        4;32,32,32,32;,
        4;33,33,33,33;,
        4;34,34,34,34;,
        4;35,35,35,35;,
        4;36,36,36,36;,
        4;37,37,37,37;,
        4;38,38,38,38;,
        4;39,39,39,39;,
        4;40,40,40,40;,
        4;41,41,41,41;,
        4;42,42,42,42;,
        4;43,43,43,43;,
        4;44,44,44,44;,
        4;45,45,45,45;,
        4;46,46,46,46;,
        4;47,47,47,47;,
        4;48,48,48,48;,
        4;49,49,49,49;,
        4;50,50,50,50;,
        4;51,51,51,51;,
        4;52,52,52,52;,
        4;53,53,53,53;,
        4;54,54,54,54;,
        4;55,55,55,55;,
        4;56,56,56,56;,
        4;57,57,57,57;,
        4;58,58,58,58;,
        4;59,59,59,59;,
        4;60,60,60,60;,
        4;61,61,61,61;,
        4;62,62,62,62;,
        4;63,63,63,63;,
        4;64,64,64,64;,
        4;65,65,65,65;,
        4;66,66,66,66;,
        4;67,67,67,67;,
        4;68,68,68,68;,
        4;69,69,69,69;,
        4;70,70,70,70;,
        4;71,71,71,71;,
        4;72,72,72,72;,
        4;73,73,73,73;,
        4;74,74,74,74;,
        4;75,75,75,75;,
        4;76,76,76,76;,
        4;77,77,77,77;,
        4;78,78,78,78;,
        4;79,79,79,79;,
        4;80,80,80,80;,
        4;81,81,81,81;,
        4;82,82,82,82;,
        4;83,83,83,83;,
        4;84,84,84,84;,
        4;85,85,85,85;,
        4;86,86,86,86;,
        4;87,87,87,87;,
        4;88,88,88,88;,
        4;89,89,89,89;,
        4;90,90,90,90;,
        4;91,91,91,91;,
        4;92,92,92,92;,
        4;93,93,93,93;,
        4;94,94,94,94;,
        4;95,95,95,95;,
        4;96,96,96,96;,
        4;97,97,97,97;,
        4;98,98,98,98;,
        4;99,99,99,99;,
        4;100,100,100,100;,
        4;101,101,101,101;,
        4;102,102,102,102;,
        4;103,103,103,103;,
        4;104,104,104,104;,
        4;105,105,105,105;,
        4;106,106,106,106;,
        4;107,107,107,107;,
        4;108,108,108,108;,
        4;109,109,109,109;,
        4;110,110,110,110;,
        4;111,111,111,111;,
        4;112,112,112,112;,
        4;113,113,113,113;,
        8;114,114,114,114,114,114,114,114;,
        4;115,115,115,115;,
        4;116,116,116,116;,
        8;117,117,117,117,117,117,117,117;,
        4;118,118,118,118;,
        4;119,119,119,119;,
        4;120,120,120,120;,
        4;121,121,121,121;,
        4;122,122,122,122;,
        4;123,123,123,123;,
        8;124,124,124,124,124,124,124,124;,
        4;125,125,125,125;,
        4;126,126,126,126;,
        8;127,127,127,127,127,127,127,127;,
        4;128,128,128,128;,
        4;129,129,129,129;,
        4;130,130,130,130;,
        4;131,131,131,131;,
        4;132,132,132,132;,
        4;133,133,133,133;,
        4;134,134,134,134;,
        4;135,135,135,135;,
        4;136,136,136,136;,
        4;137,137,137,137;,
        4;138,138,138,138;,
        4;139,139,139,139;,
        4;140,140,140,140;,
        4;141,141,141,141;,
        4;142,142,142,142;,
        4;143,143,143,143;,
        4;144,144,144,144;,
        4;145,145,145,145;,
        4;146,146,146,146;,
        4;147,147,147,147;,
        4;148,148,148,148;,
        4;149,149,149,149;,
        4;150,150,150,150;,
        4;151,151,151,151;,
        4;152,152,152,152;,
        4;153,153,153,153;,
        4;154,154,154,154;,
        4;155,155,155,155;,
        4;156,156,156,156;,
        4;157,157,157,157;,
        4;158,158,158,158;,
        4;159,159,159,159;,
        4;160,160,160,160;,
        4;161,161,161,161;,
        4;162,162,162,162;,
        4;163,163,163,163;,
        4;164,164,164,164;,
        4;165,165,165,165;,
        4;166,166,166,166;,
        4;167,167,167,167;,
        4;168,168,168,168;,
        4;169,169,169,169;,
        4;170,170,170,170;,
        4;171,171,171,171;,
        4;172,172,172,172;,
        4;173,173,173,173;,
        4;174,174,174,174;,
        4;175,175,175,175;,
        4;176,176,176,176;,
        4;177,177,177,177;,
        4;178,178,178,178;,
        4;179,179,179,179;,
        4;180,180,180,180;,
        4;181,181,181,181;,
        4;182,182,182,182;,
        4;183,183,183,183;,
        4;184,184,184,184;,
        4;185,185,185,185;,
        4;186,186,186,186;,
        4;187,187,187,187;,
        4;188,188,188,188;,
        4;189,189,189,189;,
        4;190,190,190,190;,
        4;191,191,191,191;,
        4;192,192,192,192;,
        4;193,193,193,193;,
        4;194,194,194,194;,
        4;195,195,195,195;,
        4;196,196,196,196;,
        4;197,197,197,197;,
        4;198,198,198,198;,
        4;199,199,199,199;,
        4;200,200,200,200;,
        4;201,201,201,201;,
        4;202,202,202,202;,
        4;203,203,203,203;,
        4;204,204,204,204;,
        4;205,205,205,205;,
        4;206,206,206,206;,
        4;207,207,207,207;,
        4;208,208,208,208;,
        4;209,209,209,209;,
        4;210,210,210,210;,
        4;211,211,211,211;,
        4;212,212,212,212;,
        4;213,213,213,213;,
        4;214,214,214,214;,
        4;215,215,215,215;,
        4;216,216,216,216;,
        4;217,217,217,217;,
        4;218,218,218,218;,
        4;219,219,219,219;,
        4;220,220,220,220;,
        4;221,221,221,221;,
        4;222,222,222,222;,
        4;223,223,223,223;,
        4;224,224,224,224;,
        4;225,225,225,225;,
        4;226,226,226,226;,
        4;227,227,227,227;;
      }
      MeshTextureCoords {
        928;
         0.726532; 0.255740;,
         0.726532; 0.191560;,
         0.765276; 0.184906;,
         0.765276; 0.262394;,
         0.445828; 0.589801;,
         0.445828; 0.190253;,
         0.485116; 0.188891;,
         0.485116; 0.588439;,
         0.647420; 0.255740;,
         0.647420; 0.191560;,
         0.686164; 0.184906;,
         0.686164; 0.262394;,
         0.784915; 0.265380;,
         0.784915; 0.664928;,
         0.745627; 0.663566;,
         0.745627; 0.264018;,
         0.363353; 0.083819;,
         0.387993; 0.083819;,
         0.387993; 0.483370;,
         0.363353; 0.483370;,
         0.400361; 0.484993;,
         0.400361; 0.562481;,
         0.000812; 0.562482;,
         0.000812; 0.484993;,
         0.697250; 0.265379;,
         0.697250; 0.664928;,
         0.653775; 0.663566;,
         0.653774; 0.264017;,
         0.608676; 0.235970;,
         0.608676; 0.211330;,
         0.647420; 0.191560;,
         0.647420; 0.255740;,
         0.608676; 0.664928;,
         0.608676; 0.265379;,
         0.652151; 0.264017;,
         0.652151; 0.663566;,
         0.687787; 0.235970;,
         0.687787; 0.211330;,
         0.726532; 0.191560;,
         0.726532; 0.255740;,
         0.930516; 0.969669;,
         0.913088; 0.969553;,
         0.914231; 0.797867;,
         0.931659; 0.797983;,
         0.959510; 0.234355;,
         0.945017; 0.234732;,
         0.943418; 0.063003;,
         0.957911; 0.062626;,
         0.690991; 0.776351;,
         0.736720; 0.776072;,
         0.737765; 0.947759;,
         0.688021; 0.948062;,
         0.953731; 0.979509;,
         0.952992; 0.998652;,
         0.934890; 0.999024;,
         0.935629; 0.979880;,
         0.869235; 0.780223;,
         0.864978; 0.741934;,
         0.878509; 0.738448;,
         0.882767; 0.776737;,
         0.956290; 0.798369;,
         0.956786; 0.746942;,
         0.970759; 0.747019;,
         0.970264; 0.798446;,
         0.737765; 0.947759;,
         0.737765; 0.999188;,
         0.683130; 0.967042;,
         0.688021; 0.948062;,
         0.810552; 0.758226;,
         0.812113; 0.772644;,
         0.792258; 0.769997;,
         0.792674; 0.761090;,
         0.170405; 0.310488;,
         0.133980; 0.323032;,
         0.139073; 0.246988;,
         0.170405; 0.247097;,
         0.812113; 0.726932;,
         0.810552; 0.758226;,
         0.792674; 0.761090;,
         0.794235; 0.729796;,
         0.433820; 0.136658;,
         0.433820; 0.200504;,
         0.414049; 0.186775;,
         0.420357; 0.140400;,
         0.864978; 0.741934;,
         0.869235; 0.694545;,
         0.882767; 0.691059;,
         0.878509; 0.738448;,
         0.133980; 0.323032;,
         0.086420; 0.324422;,
         0.119570; 0.247454;,
         0.139073; 0.246988;,
         0.117730; 0.999188;,
         0.111121; 0.896051;,
         0.219808; 0.902347;,
         0.219466; 0.967888;,
         0.310755; 0.181315;,
         0.349508; 0.155073;,
         0.349508; 0.261515;,
         0.332495; 0.262250;,
         0.349505; 0.567180;,
         0.349505; 0.572503;,
         0.329474; 0.572503;,
         0.329474; 0.567180;,
         0.919509; 0.664928;,
         0.919508; 0.331765;,
         0.941795; 0.331765;,
         0.941795; 0.664928;,
         0.897855; 0.664928;,
         0.895599; 0.599455;,
         0.917885; 0.599455;,
         0.917885; 0.664928;,
         0.793242; 0.664928;,
         0.786538; 0.552136;,
         0.807505; 0.552815;,
         0.815536; 0.655852;,
         0.604922; 0.391049;,
         0.597441; 0.375614;,
         0.597441; 0.304228;,
         0.604922; 0.284629;,
         0.533493; 0.390877;,
         0.533494; 0.058403;,
         0.554471; 0.058575;,
         0.554471; 0.391049;,
         0.311559; 0.666559;,
         0.311559; 0.999031;,
         0.240173; 0.999188;,
         0.221431; 0.666551;,
         0.841068; 0.999024;,
         0.841068; 0.666552;,
         0.863354; 0.666552;,
         0.863354; 0.999024;,
         0.327851; 0.567515;,
         0.327851; 0.589801;,
         0.221431; 0.589801;,
         0.221431; 0.567515;,
         0.870066; 0.218431;,
         0.870066; 0.332456;,
         0.847780; 0.332456;,
         0.853452; 0.219608;,
         0.963636; 0.663922;,
         0.962742; 0.598386;,
         0.979863; 0.599419;,
         0.980442; 0.664928;,
         0.595818; 0.057888;,
         0.595817; 0.391049;,
         0.578694; 0.390045;,
         0.578695; 0.056884;,
         0.286083; 0.136421;,
         0.286083; 0.153450;,
         0.270378; 0.147382;,
         0.271765; 0.142243;,
         0.847780; 0.178326;,
         0.849605; 0.130781;,
         0.866929; 0.128880;,
         0.865104; 0.176424;,
         0.665615; 0.183283;,
         0.666240; 0.117616;,
         0.682888; 0.117117;,
         0.682888; 0.180964;,
         0.201753; 0.119890;,
         0.201566; 0.151223;,
         0.189207; 0.155342;,
         0.189394; 0.124010;,
         0.201566; 0.151223;,
         0.201753; 0.170730;,
         0.186341; 0.169558;,
         0.189207; 0.155342;,
         0.914231; 0.797867;,
         0.914668; 0.746439;,
         0.932096; 0.746556;,
         0.931659; 0.797983;,
         0.849605; 0.216807;,
         0.847780; 0.178326;,
         0.865104; 0.176424;,
         0.866929; 0.214906;,
         0.943418; 0.063003;,
         0.946483; 0.043644;,
         0.959510; 0.043536;,
         0.957911; 0.062626;,
         0.690991; 0.776351;,
         0.695736; 0.747861;,
         0.731376; 0.747644;,
         0.736720; 0.776072;,
         0.933719; 0.808155;,
         0.951821; 0.807783;,
         0.953731; 0.979509;,
         0.935629; 0.979880;,
         0.969328; 0.970133;,
         0.955354; 0.970057;,
         0.956290; 0.798369;,
         0.970264; 0.798446;,
         0.412425; 0.536993;,
         0.404519; 0.529503;,
         0.404501; 0.493863;,
         0.412425; 0.485809;,
         0.754601; 0.183283;,
         0.738465; 0.179179;,
         0.738492; 0.127995;,
         0.754601; 0.122322;,
         0.969328; 0.970133;,
         0.970759; 0.999024;,
         0.959869; 0.998964;,
         0.955354; 0.970057;,
         0.959510; 0.234355;,
         0.955463; 0.263308;,
         0.944167; 0.263601;,
         0.945017; 0.234732;,
         0.933719; 0.808155;,
         0.936653; 0.778634;,
         0.953731; 0.778612;,
         0.951821; 0.807783;,
         0.930516; 0.969669;,
         0.932096; 0.998884;,
         0.915447; 0.999024;,
         0.913088; 0.969553;,
         0.962742; 0.598386;,
         0.963321; 0.265223;,
         0.980442; 0.266257;,
         0.979863; 0.599419;,
         0.870066; 0.332456;,
         0.870066; 0.664928;,
         0.847780; 0.664928;,
         0.847780; 0.332456;,
         0.111121; 0.896051;,
         0.129824; 0.564105;,
         0.219808; 0.569182;,
         0.219808; 0.902347;,
         0.786538; 0.552136;,
         0.794569; 0.219760;,
         0.815536; 0.220439;,
         0.807505; 0.552815;,
         0.895599; 0.599455;,
         0.895600; 0.266289;,
         0.917885; 0.266289;,
         0.917885; 0.599455;,
         0.936936; 0.106913;,
         0.938079; 0.278599;,
         0.920651; 0.278715;,
         0.919508; 0.107029;,
         0.784915; 0.071574;,
         0.783316; 0.243304;,
         0.768822; 0.242927;,
         0.770422; 0.071198;,
         0.194202; 0.454664;,
         0.191232; 0.282952;,
         0.240977; 0.283255;,
         0.239931; 0.454942;,
         0.915611; 0.063769;,
         0.897509; 0.063397;,
         0.896770; 0.044254;,
         0.914872; 0.044625;,
         0.226168; 0.141038;,
         0.239700; 0.144525;,
         0.235443; 0.182814;,
         0.221911; 0.179327;,
         0.973319; 0.947597;,
         0.987292; 0.947521;,
         0.987788; 0.998947;,
         0.973814; 0.999024;,
         0.240977; 0.283255;,
         0.191232; 0.282952;,
         0.186341; 0.263972;,
         0.240977; 0.231826;,
         0.757683; 0.760497;,
         0.739805; 0.757634;,
         0.739389; 0.748726;,
         0.759244; 0.746080;,
         0.084797; 0.260922;,
         0.084797; 0.324314;,
         0.053464; 0.324422;,
         0.048371; 0.248379;,
         0.759244; 0.791791;,
         0.741366; 0.788927;,
         0.739805; 0.757634;,
         0.757683; 0.760497;,
         0.663991; 0.183283;,
         0.650528; 0.179540;,
         0.644220; 0.133165;,
         0.663991; 0.119436;,
         0.221911; 0.179327;,
         0.235443; 0.182814;,
         0.239700; 0.230203;,
         0.226168; 0.226716;,
         0.048371; 0.248379;,
         0.053464; 0.324422;,
         0.033961; 0.323957;,
         0.000812; 0.246988;,
         0.007420; 0.564105;,
         0.109156; 0.595405;,
         0.109498; 0.660947;,
         0.000812; 0.667243;,
         0.270378; 0.236008;,
         0.292118; 0.155073;,
         0.309131; 0.155807;,
         0.309131; 0.262250;,
         0.351128; 0.567180;,
         0.371158; 0.567180;,
         0.371158; 0.572503;,
         0.351128; 0.572503;,
         0.480060; 0.725309;,
         0.480060; 0.703022;,
         0.813223; 0.703022;,
         0.813223; 0.725308;,
         0.391872; 0.084731;,
         0.411902; 0.084731;,
         0.411902; 0.150203;,
         0.389616; 0.150203;,
         0.823862; 0.219758;,
         0.846156; 0.228834;,
         0.838126; 0.331870;,
         0.817159; 0.332548;,
         0.604922; 0.176586;,
         0.604922; 0.283006;,
         0.597441; 0.263407;,
         0.597441; 0.192021;,
         0.577071; 0.390877;,
         0.556094; 0.391049;,
         0.556094; 0.058573;,
         0.577071; 0.058401;,
         0.403309; 0.999181;,
         0.313182; 0.999188;,
         0.331923; 0.666552;,
         0.403309; 0.666708;,
         0.839445; 0.999024;,
         0.817159; 0.999024;,
         0.817159; 0.666551;,
         0.839445; 0.666551;,
         0.661662; 0.749218;,
         0.555243; 0.749218;,
         0.555243; 0.726932;,
         0.661662; 0.726932;,
         0.893976; 0.664928;,
         0.877362; 0.663751;,
         0.871689; 0.550903;,
         0.893975; 0.550903;,
         0.944313; 0.266231;,
         0.961118; 0.265224;,
         0.960539; 0.330734;,
         0.943418; 0.331767;,
         0.999188; 0.663925;,
         0.982065; 0.664928;,
         0.982065; 0.331770;,
         0.999188; 0.330767;,
         0.174461; 0.155813;,
         0.160143; 0.149991;,
         0.158756; 0.144852;,
         0.174461; 0.138785;,
         0.158756; 0.195919;,
         0.176080; 0.197820;,
         0.177905; 0.245365;,
         0.160581; 0.243463;,
         0.684511; 0.117117;,
         0.701784; 0.119436;,
         0.701784; 0.183283;,
         0.685136; 0.182783;,
         0.218788; 0.170730;,
         0.206429; 0.166611;,
         0.206242; 0.135278;,
         0.218601; 0.139398;,
         0.218601; 0.139398;,
         0.206242; 0.135278;,
         0.203376; 0.121063;,
         0.218788; 0.119890;,
         0.920651; 0.278715;,
         0.938079; 0.278599;,
         0.938516; 0.330026;,
         0.921088; 0.330142;,
         0.160581; 0.157437;,
         0.177905; 0.159338;,
         0.176080; 0.197820;,
         0.158756; 0.195919;,
         0.768822; 0.242927;,
         0.783316; 0.243304;,
         0.784915; 0.262394;,
         0.771888; 0.262286;,
         0.194202; 0.454664;,
         0.239931; 0.454942;,
         0.234587; 0.483370;,
         0.198947; 0.483153;,
         0.895599; 0.235123;,
         0.897509; 0.063397;,
         0.915611; 0.063769;,
         0.913701; 0.235494;,
         0.986356; 0.775833;,
         0.987292; 0.947521;,
         0.973319; 0.947597;,
         0.972383; 0.775909;,
         0.412425; 0.538617;,
         0.412425; 0.589801;,
         0.404501; 0.581747;,
         0.404519; 0.546107;,
         0.736842; 0.122322;,
         0.736842; 0.183283;,
         0.720733; 0.177610;,
         0.720706; 0.126426;,
         0.986356; 0.775833;,
         0.972383; 0.775909;,
         0.976897; 0.747002;,
         0.987788; 0.746943;,
         0.784915; 0.071574;,
         0.770422; 0.071198;,
         0.769572; 0.042329;,
         0.780867; 0.042622;,
         0.895599; 0.235123;,
         0.913701; 0.235494;,
         0.915611; 0.264666;,
         0.898533; 0.264644;,
         0.936936; 0.106913;,
         0.919508; 0.107029;,
         0.921867; 0.077558;,
         0.938516; 0.077698;,
         0.943418; 0.331767;,
         0.960539; 0.330734;,
         0.961118; 0.663895;,
         0.943997; 0.664928;,
         0.893975; 0.550903;,
         0.871689; 0.550903;,
         0.871690; 0.218431;,
         0.893976; 0.218431;,
         0.000812; 0.667243;,
         0.109498; 0.660947;,
         0.109498; 0.994111;,
         0.019514; 0.999188;,
         0.817159; 0.332548;,
         0.838126; 0.331870;,
         0.846156; 0.664249;,
         0.825190; 0.664928;,
         0.389616; 0.150203;,
         0.411902; 0.150203;,
         0.411902; 0.483370;,
         0.389616; 0.483370;,
         0.221431; 0.628176;,
         0.221431; 0.606532;,
         0.531870; 0.606532;,
         0.531870; 0.628176;,
         0.221431; 0.606532;,
         0.221431; 0.591424;,
         0.531870; 0.591425;,
         0.531870; 0.606532;,
         0.478436; 0.999188;,
         0.463329; 0.999188;,
         0.463330; 0.688750;,
         0.478437; 0.688750;,
         0.463329; 0.999188;,
         0.441685; 0.999188;,
         0.441685; 0.688750;,
         0.463330; 0.688750;,
         0.441685; 0.999188;,
         0.420040; 0.999188;,
         0.420040; 0.688750;,
         0.441685; 0.688750;,
         0.420040; 0.999188;,
         0.404933; 0.999188;,
         0.404933; 0.688750;,
         0.420040; 0.688750;,
         0.632662; 0.177732;,
         0.618611; 0.183283;,
         0.608676; 0.171902;,
         0.608676; 0.150257;,
         0.618611; 0.131028;,
         0.632662; 0.125477;,
         0.642597; 0.136858;,
         0.642597; 0.158502;,
         0.221431; 0.664928;,
         0.221431; 0.649821;,
         0.531870; 0.649821;,
         0.531870; 0.664928;,
         0.221431; 0.649821;,
         0.221431; 0.628176;,
         0.531870; 0.628176;,
         0.531870; 0.649821;,
         0.445828; 0.154242;,
         0.455763; 0.135013;,
         0.469814; 0.129462;,
         0.479749; 0.140843;,
         0.479749; 0.162487;,
         0.469814; 0.181717;,
         0.455763; 0.187267;,
         0.445828; 0.175887;,
         0.570273; 0.664881;,
         0.548612; 0.664914;,
         0.548612; 0.392753;,
         0.570273; 0.392719;,
         0.548612; 0.664914;,
         0.533493; 0.664928;,
         0.533493; 0.392767;,
         0.548612; 0.392753;,
         0.480060; 0.726932;,
         0.495179; 0.726946;,
         0.495179; 0.999108;,
         0.480060; 0.999094;,
         0.495179; 0.726946;,
         0.516840; 0.726979;,
         0.516840; 0.999141;,
         0.495179; 0.999108;,
         0.516840; 0.726979;,
         0.538501; 0.727013;,
         0.538501; 0.999175;,
         0.516840; 0.999141;,
         0.538501; 0.727013;,
         0.553619; 0.727026;,
         0.553619; 0.999188;,
         0.538501; 0.999175;,
         0.220287; 0.218813;,
         0.210345; 0.230203;,
         0.196284; 0.224648;,
         0.186341; 0.205404;,
         0.186341; 0.183743;,
         0.196284; 0.172354;,
         0.210345; 0.177908;,
         0.220287; 0.197152;,
         0.607053; 0.664834;,
         0.591934; 0.664848;,
         0.591934; 0.392686;,
         0.607053; 0.392672;,
         0.591934; 0.664848;,
         0.570273; 0.664881;,
         0.570273; 0.392719;,
         0.591934; 0.392686;,
         0.486739; 0.189055;,
         0.486739; 0.167394;,
         0.496682; 0.156005;,
         0.510743; 0.161559;,
         0.520686; 0.180804;,
         0.520686; 0.202465;,
         0.510743; 0.213854;,
         0.496682; 0.208299;,
         0.744004; 0.548729;,
         0.698873; 0.548729;,
         0.698873; 0.350675;,
         0.744004; 0.350675;,
         0.766495; 0.991468;,
         0.739389; 0.999188;,
         0.739389; 0.801135;,
         0.766495; 0.793415;,
         0.531870; 0.495722;,
         0.486739; 0.495722;,
         0.486739; 0.297668;,
         0.531870; 0.297668;,
         0.417226; 0.310097;,
         0.444205; 0.318250;,
         0.441027; 0.516278;,
         0.414049; 0.508124;,
         0.417226; 0.310097;,
         0.417914; 0.215873;,
         0.437458; 0.202128;,
         0.444205; 0.318250;,
         0.157133; 0.162938;,
         0.157133; 0.245365;,
         0.136636; 0.236116;,
         0.131496; 0.174648;,
         0.698873; 0.265199;,
         0.731543; 0.265199;,
         0.731543; 0.287685;,
         0.698873; 0.287685;,
         0.486739; 0.297668;,
         0.492970; 0.215477;,
         0.525640; 0.215477;,
         0.531870; 0.297668;,
         0.698873; 0.350675;,
         0.705103; 0.289309;,
         0.737773; 0.289309;,
         0.744004; 0.350675;,
         0.441027; 0.516278;,
         0.444205; 0.577878;,
         0.425139; 0.589801;,
         0.414049; 0.508124;,
         0.731772; 0.677506;,
         0.766387; 0.677506;,
         0.766387; 0.701399;,
         0.731772; 0.701399;,
         0.082897; 0.129047;,
         0.082897; 0.245365;,
         0.062589; 0.232777;,
         0.056437; 0.138752;,
         0.744004; 0.548729;,
         0.738746; 0.664928;,
         0.704131; 0.664928;,
         0.698873; 0.548729;,
         0.531870; 0.495722;,
         0.526612; 0.589801;,
         0.491997; 0.589801;,
         0.486739; 0.495722;,
         0.555749; 0.785311;,
         0.555707; 0.760013;,
         0.617521; 0.759910;,
         0.617563; 0.785208;,
         0.617563; 0.785208;,
         0.617057; 0.824653;,
         0.555243; 0.824756;,
         0.555749; 0.785311;,
         0.617057; 0.824653;,
         0.617061; 0.947375;,
         0.555246; 0.947478;,
         0.555243; 0.824756;,
         0.617061; 0.947375;,
         0.617325; 0.985916;,
         0.555511; 0.986019;,
         0.555246; 0.947478;,
         0.617325; 0.985916;,
         0.617563; 0.999085;,
         0.555749; 0.999188;,
         0.555511; 0.986019;,
         0.243076; 0.462057;,
         0.301353; 0.462156;,
         0.301317; 0.483370;,
         0.243040; 0.483271;,
         0.301353; 0.462156;,
         0.243076; 0.462057;,
         0.242600; 0.424869;,
         0.300877; 0.424968;,
         0.300877; 0.424968;,
         0.242600; 0.424869;,
         0.242607; 0.309170;,
         0.300884; 0.309269;,
         0.300884; 0.309269;,
         0.242607; 0.309170;,
         0.242858; 0.272834;,
         0.301135; 0.272933;,
         0.301135; 0.272933;,
         0.242858; 0.272834;,
         0.243076; 0.263873;,
         0.301353; 0.263972;,
         0.814539; 0.999188;,
         0.795094; 0.983005;,
         0.800024; 0.977943;,
         0.814964; 0.993004;,
         0.887050; 0.999024;,
         0.873956; 0.997597;,
         0.878521; 0.991250;,
         0.887410; 0.992407;,
         0.873956; 0.997597;,
         0.864978; 0.960115;,
         0.870057; 0.955913;,
         0.878521; 0.991250;,
         0.864978; 0.960115;,
         0.865115; 0.837393;,
         0.870186; 0.840213;,
         0.870057; 0.955913;,
         0.801499; 0.783485;,
         0.814605; 0.782177;,
         0.814964; 0.788793;,
         0.806062; 0.789840;,
         0.865115; 0.837393;,
         0.867526; 0.798018;,
         0.872459; 0.803092;,
         0.870186; 0.840213;,
         0.792353; 0.820925;,
         0.801499; 0.783485;,
         0.806062; 0.789840;,
         0.797439; 0.825138;,
         0.867526; 0.798018;,
         0.886979; 0.781846;,
         0.887410; 0.788042;,
         0.872459; 0.803092;,
         0.792382; 0.943649;,
         0.792353; 0.820925;,
         0.797439; 0.825138;,
         0.797466; 0.940839;,
         0.795094; 0.983005;,
         0.792382; 0.943649;,
         0.797466; 0.940839;,
         0.800024; 0.977943;,
         0.619692; 0.973787;,
         0.681506; 0.973890;,
         0.681464; 0.999188;,
         0.619650; 0.999085;,
         0.681506; 0.973890;,
         0.619692; 0.973787;,
         0.619186; 0.934342;,
         0.681000; 0.934445;,
         0.681000; 0.934445;,
         0.619186; 0.934342;,
         0.619190; 0.811620;,
         0.681004; 0.811723;,
         0.681004; 0.811723;,
         0.619190; 0.811620;,
         0.619455; 0.773079;,
         0.681269; 0.773182;,
         0.681269; 0.773182;,
         0.619455; 0.773079;,
         0.619692; 0.759910;,
         0.681506; 0.760013;,
         0.303452; 0.285186;,
         0.303416; 0.263972;,
         0.361693; 0.263873;,
         0.361729; 0.285087;,
         0.361729; 0.285087;,
         0.361253; 0.322275;,
         0.302976; 0.322374;,
         0.303452; 0.285186;,
         0.361253; 0.322275;,
         0.361260; 0.437974;,
         0.302983; 0.438073;,
         0.302976; 0.322374;,
         0.361260; 0.437974;,
         0.361511; 0.474310;,
         0.303234; 0.474409;,
         0.302983; 0.438073;,
         0.361511; 0.474310;,
         0.361729; 0.483271;,
         0.303452; 0.483370;,
         0.303234; 0.474409;,
         0.790305; 0.782176;,
         0.790730; 0.788360;,
         0.775789; 0.803421;,
         0.770860; 0.798359;,
         0.911105; 0.781845;,
         0.911465; 0.788462;,
         0.902576; 0.789619;,
         0.898011; 0.783272;,
         0.898011; 0.783272;,
         0.902576; 0.789619;,
         0.894112; 0.824955;,
         0.889033; 0.820753;,
         0.889033; 0.820753;,
         0.894112; 0.824955;,
         0.894240; 0.940655;,
         0.889169; 0.943475;,
         0.777265; 0.997880;,
         0.781828; 0.991525;,
         0.790730; 0.992572;,
         0.790371; 0.999188;,
         0.889169; 0.943475;,
         0.894240; 0.940655;,
         0.896513; 0.977777;,
         0.891580; 0.982851;,
         0.768119; 0.960440;,
         0.773205; 0.956227;,
         0.781828; 0.991525;,
         0.777265; 0.997880;,
         0.891580; 0.982851;,
         0.896513; 0.977777;,
         0.911465; 0.992828;,
         0.911034; 0.999024;,
         0.768147; 0.837715;,
         0.773232; 0.840525;,
         0.773205; 0.956227;,
         0.768119; 0.960440;,
         0.770860; 0.798359;,
         0.775789; 0.803421;,
         0.773232; 0.840525;,
         0.768147; 0.837715;,
         0.785735; 0.687957;,
         0.785735; 0.673429;,
         0.806439; 0.673429;,
         0.806439; 0.687957;,
         0.784112; 0.672938;,
         0.784112; 0.701399;,
         0.771701; 0.697588;,
         0.768010; 0.667994;,
         0.733166; 0.274703;,
         0.742276; 0.274703;,
         0.742276; 0.287685;,
         0.733166; 0.287685;,
         0.133709; 0.161315;,
         0.131496; 0.125744;,
         0.143362; 0.108778;,
         0.143362; 0.147513;,
         0.814164; 0.689580;,
         0.814164; 0.701399;,
         0.785735; 0.700045;,
         0.785735; 0.690935;,
         0.404933; 0.685772;,
         0.404933; 0.673953;,
         0.443644; 0.672599;,
         0.443644; 0.687126;,
         0.475060; 0.676662;,
         0.475060; 0.685772;,
         0.445267; 0.687126;,
         0.445267; 0.675308;,
         0.486739; 0.154382;,
         0.486739; 0.139854;,
         0.522354; 0.141208;,
         0.522354; 0.153027;,
         0.776968; 0.746080;,
         0.776968; 0.774541;,
         0.760867; 0.779485;,
         0.764557; 0.749891;,
         0.172029; 0.307457;,
         0.174241; 0.271885;,
         0.183895; 0.285687;,
         0.183895; 0.324422;,
         0.713482; 0.726932;,
         0.713482; 0.742607;,
         0.663286; 0.742607;,
         0.663286; 0.726932;,
         0.015347; 0.157718;,
         0.003722; 0.162074;,
         0.015376; 0.113249;,
         0.027001; 0.108893;,
         0.114198; 0.195168;,
         0.129873; 0.195168;,
         0.129873; 0.245365;,
         0.114198; 0.245365;,
         0.031535; 0.192184;,
         0.043160; 0.196540;,
         0.054813; 0.245365;,
         0.043188; 0.241009;,
         0.759124; 0.726932;,
         0.770733; 0.726932;,
         0.770733; 0.742607;,
         0.759124; 0.742607;,
         0.303381; 0.153450;,
         0.287706; 0.153450;,
         0.287706; 0.141035;,
         0.303381; 0.141035;,
         0.017575; 0.213676;,
         0.027001; 0.231205;,
         0.020697; 0.245365;,
         0.009441; 0.225902;,
         0.114198; 0.149526;,
         0.114198; 0.129312;,
         0.129873; 0.129312;,
         0.129873; 0.149526;,
         0.028624; 0.146635;,
         0.037253; 0.128355;,
         0.045388; 0.140581;,
         0.040249; 0.150991;,
         0.012437; 0.203267;,
         0.017575; 0.213676;,
         0.009441; 0.225902;,
         0.000812; 0.207623;,
         0.399097; 0.589801;,
         0.378126; 0.589801;,
         0.378126; 0.574126;,
         0.399097; 0.574126;,
         0.114198; 0.129312;,
         0.114198; 0.106829;,
         0.129873; 0.106829;,
         0.129873; 0.129312;,
         0.770733; 0.726932;,
         0.790635; 0.726932;,
         0.790635; 0.742607;,
         0.770733; 0.742607;,
         0.037253; 0.128355;,
         0.048509; 0.108893;,
         0.054813; 0.123053;,
         0.045388; 0.140581;,
         0.789087; 0.202101;,
         0.786538; 0.186253;,
         0.799770; 0.182746;,
         0.802687; 0.195115;,
         0.719082; 0.119075;,
         0.719082; 0.137975;,
         0.703408; 0.137975;,
         0.703408; 0.119075;,
         0.802603; 0.218137;,
         0.789087; 0.202101;,
         0.802687; 0.195115;,
         0.815276; 0.209212;,
         0.845896; 0.162992;,
         0.833308; 0.177090;,
         0.819708; 0.170104;,
         0.833223; 0.154068;,
         0.362074; 0.589801;,
         0.329474; 0.589801;,
         0.329474; 0.574126;,
         0.362074; 0.574126;,
         0.833308; 0.177090;,
         0.830391; 0.189459;,
         0.817159; 0.185952;,
         0.819708; 0.170104;,
         0.378126; 0.589801;,
         0.362074; 0.589801;,
         0.362074; 0.574126;,
         0.378126; 0.574126;,
         0.719082; 0.137975;,
         0.719082; 0.150683;,
         0.703408; 0.150683;,
         0.703408; 0.137975;,
         0.663286; 0.744230;,
         0.678960; 0.744230;,
         0.678960; 0.757919;,
         0.663286; 0.757919;,
         0.719082; 0.150683;,
         0.719082; 0.183283;,
         0.703408; 0.183283;,
         0.703408; 0.150683;,
         0.786538; 0.186253;,
         0.802044; 0.157577;,
         0.815276; 0.154070;,
         0.799770; 0.182746;,
         0.830391; 0.189459;,
         0.845896; 0.218135;,
         0.832665; 0.214628;,
         0.817159; 0.185952;,
         0.028624; 0.146635;,
         0.040249; 0.150991;,
         0.043160; 0.196540;,
         0.031535; 0.192184;,
         0.114198; 0.149526;,
         0.129873; 0.149526;,
         0.129873; 0.195168;,
         0.114198; 0.195168;,
         0.012437; 0.203267;,
         0.000812; 0.207623;,
         0.003722; 0.162074;,
         0.015347; 0.157718;,
         0.759124; 0.726932;,
         0.759124; 0.742607;,
         0.713482; 0.742607;,
         0.713482; 0.726932;,
         0.480060; 0.701399;,
         0.480060; 0.675244;,
         0.637384; 0.675244;,
         0.637384; 0.701399;,
         0.093576; 0.326046;,
         0.184718; 0.326046;,
         0.184718; 0.483370;,
         0.093576; 0.483370;,
         0.242600; 0.104925;,
         0.268755; 0.104925;,
         0.268755; 0.262250;,
         0.242600; 0.262250;,
         0.000812; 0.326046;,
         0.091953; 0.326046;,
         0.091953; 0.483370;,
         0.000812; 0.483370;,
         0.112575; 0.245365;,
         0.086420; 0.245365;,
         0.086420; 0.154223;,
         0.112575; 0.154223;,
         0.639007; 0.701399;,
         0.639007; 0.675244;,
         0.730149; 0.675244;,
         0.730149; 0.701399;;
      }
    }
  }
}
