xof 0303txt 0032

Frame Root {
  FrameTransformMatrix {
     1.000000, 0.000000, 0.000000, 0.000000,
     0.000000,-0.000000, 1.000000, 0.000000,
     0.000000, 1.000000, 0.000000, 0.000000,
     0.000000, 0.000000, 0.000000, 1.000000;;
  }
  Frame Cylinder_002 {
    FrameTransformMatrix {
       1.000000, 0.000000, 0.000000, 0.000000,
       0.000000, 1.000000, 0.000000, 0.000000,
       0.000000, 0.000000, 1.000000, 0.000000,
       0.000000, 0.000000, 0.000000, 1.000000;;
    }
    Mesh {
      562;
      -0.004073; 0.021066; 0.027560;,
      -0.003528; 0.022334; 0.029153;,
      -0.003528; 0.020364; 0.030721;,
      -0.004073; 0.019096; 0.029128;,
      -0.003528; 0.022334; 0.029153;,
      -0.002037; 0.023262; 0.030320;,
      -0.002037; 0.021292; 0.031888;,
      -0.003528; 0.020364; 0.030721;,
      -0.002037; 0.023262; 0.030320;,
      -0.000001; 0.023602; 0.030747;,
      -0.000001; 0.021632; 0.032315;,
      -0.002037; 0.021292; 0.031888;,
      -0.000001; 0.023602; 0.030747;,
       0.002036; 0.023262; 0.030320;,
       0.002036; 0.021292; 0.031888;,
      -0.000001; 0.021632; 0.032315;,
       0.002036; 0.023262; 0.030320;,
       0.003526; 0.022334; 0.029153;,
       0.003526; 0.020364; 0.030721;,
       0.002036; 0.021292; 0.031888;,
       0.003526; 0.022334; 0.029153;,
       0.004072; 0.021066; 0.027560;,
       0.004072; 0.019096; 0.029128;,
       0.003526; 0.020364; 0.030721;,
       0.004072; 0.021066; 0.027560;,
       0.003526; 0.019798; 0.025967;,
       0.003526; 0.017828; 0.027535;,
       0.004072; 0.019096; 0.029128;,
       0.003526; 0.019798; 0.025967;,
       0.002036; 0.018869; 0.024801;,
       0.002036; 0.016899; 0.026369;,
       0.003526; 0.017828; 0.027535;,
       0.002036; 0.018869; 0.024801;,
      -0.000001; 0.018529; 0.024374;,
      -0.000001; 0.016559; 0.025942;,
       0.002036; 0.016899; 0.026369;,
      -0.000001; 0.018529; 0.024374;,
      -0.002037; 0.018869; 0.024801;,
      -0.002037; 0.016899; 0.026369;,
      -0.000001; 0.016559; 0.025942;,
       0.002595; 0.019096; 0.029128;,
       0.002595; 0.012459; 0.034411;,
       0.002247; 0.013268; 0.035426;,
       0.002247; 0.019904; 0.030144;,
      -0.002037; 0.018869; 0.024801;,
      -0.003528; 0.019798; 0.025967;,
      -0.003528; 0.017828; 0.027535;,
      -0.002037; 0.016899; 0.026369;,
      -0.003528; 0.019798; 0.025967;,
      -0.004073; 0.021066; 0.027560;,
      -0.004073; 0.019096; 0.029128;,
      -0.003528; 0.017828; 0.027535;,
      -0.004073; 0.021066; 0.027560;,
      -0.003528; 0.019798; 0.025967;,
      -0.002037; 0.018869; 0.024801;,
      -0.000001; 0.018529; 0.024374;,
       0.002036; 0.018869; 0.024801;,
       0.003526; 0.019798; 0.025967;,
       0.004072; 0.021066; 0.027560;,
       0.003526; 0.022334; 0.029153;,
       0.002036; 0.023262; 0.030320;,
      -0.000001; 0.023602; 0.030747;,
      -0.002037; 0.023262; 0.030320;,
      -0.003528; 0.022334; 0.029153;,
      -0.002597; 0.019096; 0.029128;,
      -0.004073; 0.019096; 0.029128;,
      -0.003528; 0.020364; 0.030721;,
      -0.002249; 0.019904; 0.030144;,
      -0.002249; 0.019904; 0.030144;,
      -0.003528; 0.020364; 0.030721;,
      -0.002037; 0.021292; 0.031888;,
      -0.001299; 0.020496; 0.030887;,
      -0.001299; 0.020496; 0.030887;,
      -0.002037; 0.021292; 0.031888;,
      -0.000001; 0.021632; 0.032315;,
      -0.000001; 0.020712; 0.031159;,
      -0.000001; 0.020712; 0.031159;,
      -0.000001; 0.021632; 0.032315;,
       0.002036; 0.021292; 0.031888;,
       0.001297; 0.020496; 0.030887;,
       0.001297; 0.020496; 0.030887;,
       0.002036; 0.021292; 0.031888;,
       0.003526; 0.020364; 0.030721;,
       0.002247; 0.019904; 0.030144;,
       0.002247; 0.019904; 0.030144;,
       0.003526; 0.020364; 0.030721;,
       0.004072; 0.019096; 0.029128;,
       0.002595; 0.019096; 0.029128;,
       0.002595; 0.019096; 0.029128;,
       0.004072; 0.019096; 0.029128;,
       0.003526; 0.017828; 0.027535;,
       0.002247; 0.018287; 0.028113;,
       0.002247; 0.018287; 0.028113;,
       0.003526; 0.017828; 0.027535;,
       0.002036; 0.016899; 0.026369;,
       0.001297; 0.017696; 0.027369;,
       0.001297; 0.017696; 0.027369;,
       0.002036; 0.016899; 0.026369;,
      -0.000001; 0.016559; 0.025942;,
      -0.000001; 0.017479; 0.027097;,
      -0.000001; 0.017479; 0.027097;,
      -0.000001; 0.016559; 0.025942;,
      -0.002037; 0.016899; 0.026369;,
      -0.001299; 0.017696; 0.027369;,
      -0.001299; 0.017696; 0.027369;,
      -0.002037; 0.016899; 0.026369;,
      -0.003528; 0.017828; 0.027535;,
      -0.002249; 0.018287; 0.028113;,
      -0.002249; 0.018287; 0.028113;,
      -0.003528; 0.017828; 0.027535;,
      -0.004073; 0.019096; 0.029128;,
      -0.002597; 0.019096; 0.029128;,
       0.002595; 0.012459; 0.034411;,
       0.001922; 0.011614; 0.035084;,
       0.001665; 0.012213; 0.035836;,
       0.002247; 0.013268; 0.035426;,
      -0.000001; 0.020712; 0.031159;,
      -0.000001; 0.014076; 0.036442;,
      -0.001299; 0.013859; 0.036170;,
      -0.001299; 0.020496; 0.030887;,
      -0.001299; 0.017696; 0.027369;,
      -0.001299; 0.011059; 0.032652;,
      -0.000001; 0.010843; 0.032380;,
      -0.000001; 0.017479; 0.027097;,
       0.002247; 0.018287; 0.028113;,
       0.002247; 0.011651; 0.033395;,
       0.002595; 0.012459; 0.034411;,
       0.002595; 0.019096; 0.029128;,
       0.001297; 0.020496; 0.030887;,
       0.001297; 0.013859; 0.036170;,
      -0.000001; 0.014076; 0.036442;,
      -0.000001; 0.020712; 0.031159;,
      -0.002249; 0.018287; 0.028113;,
      -0.002249; 0.011651; 0.033395;,
      -0.001299; 0.011059; 0.032652;,
      -0.001299; 0.017696; 0.027369;,
      -0.002249; 0.019904; 0.030144;,
      -0.002249; 0.013268; 0.035426;,
      -0.002597; 0.012459; 0.034411;,
      -0.002597; 0.019096; 0.029128;,
       0.001297; 0.017696; 0.027369;,
       0.001297; 0.011059; 0.032652;,
       0.002247; 0.011651; 0.033395;,
       0.002247; 0.018287; 0.028113;,
       0.002247; 0.019904; 0.030144;,
       0.002247; 0.013268; 0.035426;,
       0.001297; 0.013859; 0.036170;,
       0.001297; 0.020496; 0.030887;,
      -0.002597; 0.019096; 0.029128;,
      -0.002597; 0.012459; 0.034411;,
      -0.002249; 0.011651; 0.033395;,
      -0.002249; 0.018287; 0.028113;,
      -0.001299; 0.020496; 0.030887;,
      -0.001299; 0.013859; 0.036170;,
      -0.002249; 0.013268; 0.035426;,
      -0.002249; 0.019904; 0.030144;,
      -0.000001; 0.017479; 0.027097;,
      -0.000001; 0.010843; 0.032380;,
       0.001297; 0.011059; 0.032652;,
       0.001297; 0.017696; 0.027369;,
      -0.001666; 0.012213; 0.035836;,
      -0.000962; 0.012651; 0.036387;,
      -0.000001; 0.012812; 0.036588;,
       0.000961; 0.012651; 0.036387;,
       0.001665; 0.012213; 0.035836;,
       0.001922; 0.011614; 0.035084;,
       0.001665; 0.011015; 0.034331;,
       0.000961; 0.010577; 0.033781;,
      -0.000001; 0.010416; 0.033579;,
      -0.000962; 0.010577; 0.033781;,
      -0.001666; 0.011015; 0.034331;,
      -0.001924; 0.011614; 0.035084;,
      -0.000001; 0.014076; 0.036442;,
      -0.000001; 0.012812; 0.036588;,
      -0.000962; 0.012651; 0.036387;,
      -0.001299; 0.013859; 0.036170;,
      -0.001299; 0.011059; 0.032652;,
      -0.000962; 0.010577; 0.033781;,
      -0.000001; 0.010416; 0.033579;,
      -0.000001; 0.010843; 0.032380;,
       0.002247; 0.011651; 0.033395;,
       0.001665; 0.011015; 0.034331;,
       0.001922; 0.011614; 0.035084;,
       0.002595; 0.012459; 0.034411;,
       0.001297; 0.013859; 0.036170;,
       0.000961; 0.012651; 0.036387;,
      -0.000001; 0.012812; 0.036588;,
      -0.000001; 0.014076; 0.036442;,
      -0.002249; 0.011651; 0.033395;,
      -0.001666; 0.011015; 0.034331;,
      -0.000962; 0.010577; 0.033781;,
      -0.001299; 0.011059; 0.032652;,
      -0.002249; 0.013268; 0.035426;,
      -0.001666; 0.012213; 0.035836;,
      -0.001924; 0.011614; 0.035084;,
      -0.002597; 0.012459; 0.034411;,
       0.001297; 0.011059; 0.032652;,
       0.000961; 0.010577; 0.033781;,
       0.001665; 0.011015; 0.034331;,
       0.002247; 0.011651; 0.033395;,
       0.002247; 0.013268; 0.035426;,
       0.001665; 0.012213; 0.035836;,
       0.000961; 0.012651; 0.036387;,
       0.001297; 0.013859; 0.036170;,
      -0.002597; 0.012459; 0.034411;,
      -0.001924; 0.011614; 0.035084;,
      -0.001666; 0.011015; 0.034331;,
      -0.002249; 0.011651; 0.033395;,
      -0.001299; 0.013859; 0.036170;,
      -0.000962; 0.012651; 0.036387;,
      -0.001666; 0.012213; 0.035836;,
      -0.002249; 0.013268; 0.035426;,
      -0.000001; 0.010843; 0.032380;,
      -0.000001; 0.010416; 0.033579;,
       0.000961; 0.010577; 0.033781;,
       0.001297; 0.011059; 0.032652;,
      -0.012910; 0.001873;-0.052181;,
      -0.009129; 0.011001;-0.052181;,
      -0.009129; 0.011001;-0.041490;,
      -0.012910; 0.001873;-0.041490;,
      -0.009129; 0.011001;-0.052181;,
      -0.000001; 0.014782;-0.052181;,
      -0.000001; 0.014782;-0.041490;,
      -0.009129; 0.011001;-0.041490;,
      -0.000001; 0.014782;-0.052181;,
       0.009127; 0.011001;-0.052181;,
       0.009127; 0.011001;-0.041490;,
      -0.000001; 0.014782;-0.041490;,
       0.009127; 0.011001;-0.052181;,
       0.012908; 0.001873;-0.052181;,
       0.012908; 0.001873;-0.041490;,
       0.009127; 0.011001;-0.041490;,
       0.012908; 0.001873;-0.052181;,
       0.009127;-0.007255;-0.052181;,
       0.009127;-0.007255;-0.041490;,
       0.012908; 0.001873;-0.041490;,
       0.009127;-0.007255;-0.052181;,
      -0.000001;-0.011036;-0.052181;,
      -0.000001;-0.011036;-0.041490;,
       0.009127;-0.007255;-0.041490;,
      -0.009129; 0.011001;-0.041490;,
      -0.000001; 0.014782;-0.041490;,
       0.009127; 0.011001;-0.041490;,
       0.012908; 0.001873;-0.041490;,
       0.009127;-0.007255;-0.041490;,
      -0.000001;-0.011036;-0.041490;,
      -0.009129;-0.007255;-0.041490;,
      -0.012910; 0.001873;-0.041490;,
      -0.000001;-0.011036;-0.052181;,
      -0.009129;-0.007255;-0.052181;,
      -0.009129;-0.007255;-0.041490;,
      -0.000001;-0.011036;-0.041490;,
      -0.009129;-0.007255;-0.052181;,
      -0.012910; 0.001873;-0.052181;,
      -0.012910; 0.001873;-0.041490;,
      -0.009129;-0.007255;-0.041490;,
      -0.012910; 0.001873;-0.052181;,
      -0.009129;-0.007255;-0.052181;,
      -0.000001;-0.011036;-0.052181;,
       0.009127;-0.007255;-0.052181;,
       0.012908; 0.001873;-0.052181;,
       0.009127; 0.011001;-0.052181;,
      -0.000001; 0.014782;-0.052181;,
      -0.009129; 0.011001;-0.052181;,
      -0.011868; 0.001873; 0.014803;,
      -0.010964; 0.006414; 0.014803;,
      -0.010964; 0.006414; 0.035938;,
      -0.011868; 0.001269; 0.038882;,
      -0.010964; 0.006414; 0.014803;,
      -0.008392; 0.010264; 0.014803;,
      -0.008392; 0.010264; 0.032644;,
      -0.010964; 0.006414; 0.035938;,
      -0.008392; 0.010264; 0.014803;,
      -0.004542; 0.012836; 0.014803;,
      -0.004542; 0.012836; 0.030666;,
      -0.008392; 0.010264; 0.032644;,
      -0.004542; 0.012836; 0.014803;,
      -0.000001; 0.013740; 0.014803;,
      -0.000001; 0.013740; 0.030666;,
      -0.004542; 0.012836; 0.030666;,
      -0.000001; 0.013740; 0.014803;,
       0.004541; 0.012836; 0.014803;,
       0.004541; 0.012836; 0.030666;,
      -0.000001; 0.013740; 0.030666;,
       0.004541; 0.012836; 0.014803;,
       0.008391; 0.010264; 0.014803;,
       0.008391; 0.010264; 0.032644;,
       0.004541; 0.012836; 0.030666;,
       0.008391; 0.010264; 0.014803;,
       0.010963; 0.006414; 0.014803;,
       0.010963; 0.006414; 0.035938;,
       0.008391; 0.010264; 0.032644;,
       0.010963; 0.006414; 0.014803;,
       0.011866; 0.001873; 0.014803;,
       0.011866; 0.001269; 0.038882;,
       0.010963; 0.006414; 0.035938;,
       0.011866; 0.001873; 0.014803;,
       0.010963;-0.002669; 0.014803;,
       0.010963;-0.002669; 0.038810;,
       0.011866; 0.001269; 0.038882;,
       0.010963;-0.002669; 0.014803;,
       0.008391;-0.006519; 0.014803;,
       0.008391;-0.006519; 0.038810;,
       0.010963;-0.002669; 0.038810;,
       0.008391;-0.006519; 0.014803;,
       0.004541;-0.009091; 0.014803;,
       0.004541;-0.009091; 0.038810;,
       0.008391;-0.006519; 0.038810;,
       0.004541;-0.009091; 0.014803;,
      -0.000001;-0.009995; 0.014803;,
      -0.000001;-0.009995; 0.038810;,
       0.004541;-0.009091; 0.038810;,
      -0.000001;-0.009995; 0.014803;,
      -0.004542;-0.009091; 0.014803;,
      -0.004542;-0.009091; 0.038810;,
      -0.000001;-0.009995; 0.038810;,
      -0.004542;-0.009091; 0.014803;,
      -0.008392;-0.006519; 0.014803;,
      -0.008392;-0.006519; 0.038810;,
      -0.004542;-0.009091; 0.038810;,
      -0.000001; 0.013740; 0.030666;,
      -0.000001; 0.018513; 0.035001;,
      -0.004542; 0.017676; 0.035339;,
      -0.004542; 0.012836; 0.030666;,
      -0.008392;-0.006519; 0.014803;,
      -0.010964;-0.002669; 0.014803;,
      -0.010964;-0.002669; 0.038810;,
      -0.008392;-0.006519; 0.038810;,
      -0.010964;-0.002669; 0.014803;,
      -0.011868; 0.001873; 0.014803;,
      -0.011868; 0.001269; 0.038882;,
      -0.010964;-0.002669; 0.038810;,
       0.003007;-0.005388; 0.014803;,
       0.003007;-0.005388;-0.042117;,
      -0.000001;-0.005986;-0.042117;,
      -0.000001;-0.005986; 0.014803;,
      -0.007261; 0.004880; 0.014803;,
      -0.010964; 0.006414; 0.014803;,
      -0.011868; 0.001873; 0.014803;,
      -0.007860; 0.001873; 0.014803;,
      -0.005558; 0.007430; 0.014803;,
      -0.008392; 0.010264; 0.014803;,
      -0.010964; 0.006414; 0.014803;,
      -0.007261; 0.004880; 0.014803;,
      -0.003008; 0.009133; 0.014803;,
      -0.004542; 0.012836; 0.014803;,
      -0.008392; 0.010264; 0.014803;,
      -0.005558; 0.007430; 0.014803;,
      -0.000001; 0.009731; 0.014803;,
      -0.000001; 0.013740; 0.014803;,
      -0.004542; 0.012836; 0.014803;,
      -0.003008; 0.009133; 0.014803;,
       0.003007; 0.009133; 0.014803;,
       0.004541; 0.012836; 0.014803;,
      -0.000001; 0.013740; 0.014803;,
      -0.000001; 0.009731; 0.014803;,
       0.005556; 0.007430; 0.014803;,
       0.008391; 0.010264; 0.014803;,
       0.004541; 0.012836; 0.014803;,
       0.003007; 0.009133; 0.014803;,
       0.007260; 0.004880; 0.014803;,
       0.010963; 0.006414; 0.014803;,
       0.008391; 0.010264; 0.014803;,
       0.005556; 0.007430; 0.014803;,
       0.007858; 0.001873; 0.014803;,
       0.011866; 0.001873; 0.014803;,
       0.010963; 0.006414; 0.014803;,
       0.007260; 0.004880; 0.014803;,
       0.007260;-0.001135; 0.014803;,
       0.010963;-0.002669; 0.014803;,
       0.011866; 0.001873; 0.014803;,
       0.007858; 0.001873; 0.014803;,
       0.005556;-0.003685; 0.014803;,
       0.008391;-0.006519; 0.014803;,
       0.010963;-0.002669; 0.014803;,
       0.007260;-0.001135; 0.014803;,
       0.003007;-0.005388; 0.014803;,
       0.004541;-0.009091; 0.014803;,
       0.008391;-0.006519; 0.014803;,
       0.005556;-0.003685; 0.014803;,
      -0.000001;-0.005986; 0.014803;,
      -0.000001;-0.009995; 0.014803;,
       0.004541;-0.009091; 0.014803;,
       0.003007;-0.005388; 0.014803;,
      -0.003008;-0.005388; 0.014803;,
      -0.004542;-0.009091; 0.014803;,
      -0.000001;-0.009995; 0.014803;,
      -0.000001;-0.005986; 0.014803;,
      -0.005558;-0.003685; 0.014803;,
      -0.008392;-0.006519; 0.014803;,
      -0.004542;-0.009091; 0.014803;,
      -0.003008;-0.005388; 0.014803;,
      -0.007261;-0.001135; 0.014803;,
      -0.010964;-0.002669; 0.014803;,
      -0.008392;-0.006519; 0.014803;,
      -0.005558;-0.003685; 0.014803;,
      -0.007860; 0.001873; 0.014803;,
      -0.011868; 0.001873; 0.014803;,
      -0.010964;-0.002669; 0.014803;,
      -0.007261;-0.001135; 0.014803;,
      -0.007860; 0.001873;-0.042117;,
      -0.007261;-0.001135;-0.042117;,
      -0.005558;-0.003685;-0.042117;,
      -0.003008;-0.005388;-0.042117;,
      -0.000001;-0.005986;-0.042117;,
       0.003007;-0.005388;-0.042117;,
       0.005556;-0.003685;-0.042117;,
       0.007260;-0.001135;-0.042117;,
       0.007858; 0.001873;-0.042117;,
       0.007260; 0.004880;-0.042117;,
       0.005556; 0.007430;-0.042117;,
       0.003007; 0.009133;-0.042117;,
      -0.000001; 0.009731;-0.042117;,
      -0.003008; 0.009133;-0.042117;,
      -0.005558; 0.007430;-0.042117;,
      -0.007261; 0.004880;-0.042117;,
      -0.000001; 0.009731; 0.014803;,
      -0.000001; 0.009731;-0.042117;,
       0.003007; 0.009133;-0.042117;,
       0.003007; 0.009133; 0.014803;,
      -0.000001;-0.005986; 0.014803;,
      -0.000001;-0.005986;-0.042117;,
      -0.003008;-0.005388;-0.042117;,
      -0.003008;-0.005388; 0.014803;,
       0.003007; 0.009133; 0.014803;,
       0.003007; 0.009133;-0.042117;,
       0.005556; 0.007430;-0.042117;,
       0.005556; 0.007430; 0.014803;,
      -0.003008;-0.005388; 0.014803;,
      -0.003008;-0.005388;-0.042117;,
      -0.005558;-0.003685;-0.042117;,
      -0.005558;-0.003685; 0.014803;,
       0.005556; 0.007430; 0.014803;,
       0.005556; 0.007430;-0.042117;,
       0.007260; 0.004880;-0.042117;,
       0.007260; 0.004880; 0.014803;,
      -0.005558;-0.003685; 0.014803;,
      -0.005558;-0.003685;-0.042117;,
      -0.007261;-0.001135;-0.042117;,
      -0.007261;-0.001135; 0.014803;,
       0.007260; 0.004880; 0.014803;,
       0.007260; 0.004880;-0.042117;,
       0.007858; 0.001873;-0.042117;,
       0.007858; 0.001873; 0.014803;,
      -0.007860; 0.001873; 0.014803;,
      -0.007860; 0.001873;-0.042117;,
      -0.007261; 0.004880;-0.042117;,
      -0.007261; 0.004880; 0.014803;,
      -0.007261;-0.001135; 0.014803;,
      -0.007261;-0.001135;-0.042117;,
      -0.007860; 0.001873;-0.042117;,
      -0.007860; 0.001873; 0.014803;,
       0.007858; 0.001873; 0.014803;,
       0.007858; 0.001873;-0.042117;,
       0.007260;-0.001135;-0.042117;,
       0.007260;-0.001135; 0.014803;,
      -0.007261; 0.004880; 0.014803;,
      -0.007261; 0.004880;-0.042117;,
      -0.005558; 0.007430;-0.042117;,
      -0.005558; 0.007430; 0.014803;,
       0.007260;-0.001135; 0.014803;,
       0.007260;-0.001135;-0.042117;,
       0.005556;-0.003685;-0.042117;,
       0.005556;-0.003685; 0.014803;,
      -0.005558; 0.007430; 0.014803;,
      -0.005558; 0.007430;-0.042117;,
      -0.003008; 0.009133;-0.042117;,
      -0.003008; 0.009133; 0.014803;,
       0.005556;-0.003685; 0.014803;,
       0.005556;-0.003685;-0.042117;,
       0.003007;-0.005388;-0.042117;,
       0.003007;-0.005388; 0.014803;,
      -0.003008; 0.009133; 0.014803;,
      -0.003008; 0.009133;-0.042117;,
      -0.000001; 0.009731;-0.042117;,
      -0.000001; 0.009731; 0.014803;,
      -0.010964; 0.011721; 0.037745;,
      -0.010964; 0.017797; 0.038802;,
      -0.011868; 0.013587; 0.039433;,
      -0.011868; 0.007510; 0.039377;,
       0.011866; 0.001269; 0.038882;,
       0.010963;-0.002669; 0.038810;,
       0.008391;-0.006519; 0.038810;,
       0.004541;-0.009091; 0.038810;,
      -0.000001;-0.009995; 0.038810;,
      -0.004542;-0.009091; 0.038810;,
      -0.008392;-0.006519; 0.038810;,
      -0.010964;-0.002669; 0.038810;,
      -0.011868; 0.001269; 0.038882;,
      -0.010964; 0.006414; 0.035938;,
      -0.010964; 0.011721; 0.037745;,
      -0.011868; 0.007510; 0.039377;,
      -0.011868; 0.001269; 0.038882;,
      -0.004542; 0.012836; 0.030666;,
      -0.004542; 0.017676; 0.035339;,
      -0.008392; 0.015291; 0.036303;,
      -0.008392; 0.010264; 0.032644;,
      -0.008392; 0.010264; 0.032644;,
      -0.008392; 0.015291; 0.036303;,
      -0.010964; 0.011721; 0.037745;,
      -0.010964; 0.006414; 0.035938;,
       0.011866; 0.001269; 0.038882;,
       0.011866; 0.007510; 0.039377;,
       0.010963; 0.011721; 0.037745;,
       0.010963; 0.006414; 0.035938;,
       0.010963; 0.006414; 0.035938;,
       0.010963; 0.011721; 0.037745;,
       0.008391; 0.015291; 0.036303;,
       0.008391; 0.010264; 0.032644;,
      -0.011868; 0.001269; 0.038882;,
      -0.011868; 0.007510; 0.039377;,
       0.011866; 0.007510; 0.039377;,
       0.011866; 0.001269; 0.038882;,
       0.008391; 0.010264; 0.032644;,
       0.008391; 0.015291; 0.036303;,
       0.004541; 0.017676; 0.035339;,
       0.004541; 0.012836; 0.030666;,
       0.004541; 0.012836; 0.030666;,
       0.004541; 0.017676; 0.035339;,
      -0.000001; 0.018513; 0.035001;,
      -0.000001; 0.013740; 0.030666;,
      -0.010964; 0.017797; 0.038802;,
      -0.008392; 0.021367; 0.038165;,
      -0.004542; 0.023752; 0.037202;,
      -0.000001; 0.024590; 0.036863;,
       0.004541; 0.023752; 0.037202;,
       0.008391; 0.021367; 0.038165;,
       0.010963; 0.017797; 0.038802;,
       0.011866; 0.013587; 0.039433;,
      -0.011868; 0.013587; 0.039433;,
       0.011866; 0.007510; 0.039377;,
       0.011866; 0.013587; 0.039433;,
       0.010963; 0.017797; 0.038802;,
       0.010963; 0.011721; 0.037745;,
       0.004541; 0.017676; 0.035339;,
       0.004541; 0.023752; 0.037202;,
      -0.000001; 0.024590; 0.036863;,
      -0.000001; 0.018513; 0.035001;,
      -0.008392; 0.015291; 0.036303;,
      -0.008392; 0.021367; 0.038165;,
      -0.010964; 0.017797; 0.038802;,
      -0.010964; 0.011721; 0.037745;,
      -0.011868; 0.007510; 0.039377;,
      -0.011868; 0.013587; 0.039433;,
       0.011866; 0.013587; 0.039433;,
       0.011866; 0.007510; 0.039377;,
       0.008391; 0.015291; 0.036303;,
       0.008391; 0.021367; 0.038165;,
       0.004541; 0.023752; 0.037202;,
       0.004541; 0.017676; 0.035339;,
      -0.004542; 0.017676; 0.035339;,
      -0.004542; 0.023752; 0.037202;,
      -0.008392; 0.021367; 0.038165;,
      -0.008392; 0.015291; 0.036303;,
       0.010963; 0.011721; 0.037745;,
       0.010963; 0.017797; 0.038802;,
       0.008391; 0.021367; 0.038165;,
       0.008391; 0.015291; 0.036303;,
      -0.000001; 0.018513; 0.035001;,
      -0.000001; 0.024590; 0.036863;,
      -0.004542; 0.023752; 0.037202;,
      -0.004542; 0.017676; 0.035339;;
      129;
      4;3,2,1,0;,
      4;7,6,5,4;,
      4;11,10,9,8;,
      4;15,14,13,12;,
      4;19,18,17,16;,
      4;23,22,21,20;,
      4;27,26,25,24;,
      4;31,30,29,28;,
      4;35,34,33,32;,
      4;39,38,37,36;,
      4;43,42,41,40;,
      4;47,46,45,44;,
      4;51,50,49,48;,
      12;63,62,61,60,59,58,57,56,55,54,53,52;,
      4;67,66,65,64;,
      4;71,70,69,68;,
      4;75,74,73,72;,
      4;79,78,77,76;,
      4;83,82,81,80;,
      4;87,86,85,84;,
      4;91,90,89,88;,
      4;95,94,93,92;,
      4;99,98,97,96;,
      4;103,102,101,100;,
      4;107,106,105,104;,
      4;111,110,109,108;,
      4;115,114,113,112;,
      4;119,118,117,116;,
      4;123,122,121,120;,
      4;127,126,125,124;,
      4;131,130,129,128;,
      4;135,134,133,132;,
      4;139,138,137,136;,
      4;143,142,141,140;,
      4;147,146,145,144;,
      4;151,150,149,148;,
      4;155,154,153,152;,
      4;159,158,157,156;,
      12;171,170,169,168,167,166,165,164,163,162,161,160;,
      4;175,174,173,172;,
      4;179,178,177,176;,
      4;183,182,181,180;,
      4;187,186,185,184;,
      4;191,190,189,188;,
      4;195,194,193,192;,
      4;199,198,197,196;,
      4;203,202,201,200;,
      4;207,206,205,204;,
      4;211,210,209,208;,
      4;215,214,213,212;,
      4;219,218,217,216;,
      4;223,222,221,220;,
      4;227,226,225,224;,
      4;231,230,229,228;,
      4;235,234,233,232;,
      4;239,238,237,236;,
      8;247,246,245,244,243,242,241,240;,
      4;251,250,249,248;,
      4;255,254,253,252;,
      8;263,262,261,260,259,258,257,256;,
      4;267,266,265,264;,
      4;271,270,269,268;,
      4;275,274,273,272;,
      4;279,278,277,276;,
      4;283,282,281,280;,
      4;287,286,285,284;,
      4;291,290,289,288;,
      4;295,294,293,292;,
      4;299,298,297,296;,
      4;303,302,301,300;,
      4;307,306,305,304;,
      4;311,310,309,308;,
      4;315,314,313,312;,
      4;319,318,317,316;,
      4;323,322,321,320;,
      4;327,326,325,324;,
      4;331,330,329,328;,
      4;335,334,333,332;,
      4;339,338,337,336;,
      4;343,342,341,340;,
      4;347,346,345,344;,
      4;351,350,349,348;,
      4;355,354,353,352;,
      4;359,358,357,356;,
      4;363,362,361,360;,
      4;367,366,365,364;,
      4;371,370,369,368;,
      4;375,374,373,372;,
      4;379,378,377,376;,
      4;383,382,381,380;,
      4;387,386,385,384;,
      4;391,390,389,388;,
      4;395,394,393,392;,
      4;399,398,397,396;,
      16;415,414,413,412,411,410,409,408,407,406,405,404,403,402,401,400;,
      4;419,418,417,416;,
      4;423,422,421,420;,
      4;427,426,425,424;,
      4;431,430,429,428;,
      4;435,434,433,432;,
      4;439,438,437,436;,
      4;443,442,441,440;,
      4;447,446,445,444;,
      4;451,450,449,448;,
      4;455,454,453,452;,
      4;459,458,457,456;,
      4;463,462,461,460;,
      4;467,466,465,464;,
      4;471,470,469,468;,
      4;475,474,473,472;,
      4;479,478,477,476;,
      9;488,487,486,485,484,483,482,481,480;,
      4;492,491,490,489;,
      4;496,495,494,493;,
      4;500,499,498,497;,
      4;504,503,502,501;,
      4;508,507,506,505;,
      4;512,511,510,509;,
      4;516,515,514,513;,
      4;520,519,518,517;,
      9;529,528,527,526,525,524,523,522,521;,
      4;533,532,531,530;,
      4;537,536,535,534;,
      4;541,540,539,538;,
      4;545,544,543,542;,
      4;549,548,547,546;,
      4;553,552,551,550;,
      4;557,556,555,554;,
      4;561,560,559,558;;
      MeshNormals {
        562;
         0.757162;-0.511085; 0.406814;,
         0.655721;-0.746856; 0.110611;,
         0.655721; 0.275313;-0.703017;,
         0.757162; 0.511085;-0.406814;,
         0.655721;-0.746856; 0.110611;,
         0.378581;-0.919453;-0.106222;,
         0.378582; 0.102718;-0.919850;,
         0.655721; 0.275313;-0.703017;,
         0.378581;-0.919453;-0.106222;,
        -0.000000;-0.982627;-0.185590;,
         0.000000; 0.039542;-0.999218;,
         0.378582; 0.102718;-0.919850;,
        -0.000000;-0.982627;-0.185590;,
        -0.378581;-0.919453;-0.106222;,
        -0.378583; 0.102718;-0.919850;,
         0.000000; 0.039542;-0.999218;,
        -0.378581;-0.919453;-0.106222;,
        -0.655722;-0.746856; 0.110611;,
        -0.655722; 0.275313;-0.703016;,
        -0.378583; 0.102718;-0.919850;,
        -0.655722;-0.746856; 0.110611;,
        -0.757162;-0.511085; 0.406814;,
        -0.757162; 0.511085;-0.406814;,
        -0.655722; 0.275313;-0.703016;,
        -0.757162;-0.511085; 0.406814;,
        -0.655722;-0.275314; 0.703016;,
        -0.655722; 0.746856;-0.110612;,
        -0.757162; 0.511085;-0.406814;,
        -0.655722;-0.275314; 0.703016;,
        -0.378581;-0.102716; 0.919851;,
        -0.378581; 0.919453; 0.106223;,
        -0.655722; 0.746856;-0.110612;,
        -0.378581;-0.102716; 0.919851;,
         0.000000;-0.039543; 0.999218;,
        -0.000000; 0.982627; 0.185590;,
        -0.378581; 0.919453; 0.106223;,
         0.000000;-0.039543; 0.999218;,
         0.378580;-0.102716; 0.919851;,
         0.378580; 0.919453; 0.106223;,
        -0.000000; 0.982627; 0.185590;,
        -0.637728; 0.602652;-0.479701;,
        -0.964629; 0.206248;-0.164171;,
        -0.835392;-0.094126;-0.541535;,
        -0.552288; 0.404071;-0.729181;,
         0.378580;-0.102716; 0.919851;,
         0.655721;-0.275313; 0.703016;,
         0.655722; 0.746856;-0.110611;,
         0.378580; 0.919453; 0.106223;,
         0.655721;-0.275313; 0.703016;,
         0.757162;-0.511085; 0.406814;,
         0.757162; 0.511085;-0.406814;,
         0.655722; 0.746856;-0.110611;,
         0.757162;-0.511085; 0.406814;,
         0.655721;-0.275313; 0.703016;,
         0.378580;-0.102716; 0.919851;,
         0.000000;-0.039543; 0.999218;,
        -0.378581;-0.102716; 0.919851;,
        -0.655722;-0.275314; 0.703016;,
        -0.757162;-0.511085; 0.406814;,
        -0.655722;-0.746856; 0.110611;,
        -0.378581;-0.919453;-0.106222;,
        -0.000000;-0.982627;-0.185590;,
         0.378581;-0.919453;-0.106222;,
         0.655721;-0.746856; 0.110611;,
         0.637728; 0.602653;-0.479701;,
         0.757162; 0.511085;-0.406814;,
         0.655721; 0.275313;-0.703017;,
         0.552288; 0.404072;-0.729180;,
         0.552288; 0.404072;-0.729180;,
         0.655721; 0.275313;-0.703017;,
         0.378582; 0.102718;-0.919850;,
         0.318866; 0.258702;-0.911810;,
         0.318866; 0.258702;-0.911810;,
         0.378582; 0.102718;-0.919850;,
         0.000000; 0.039542;-0.999218;,
         0.000000; 0.205493;-0.978659;,
         0.000000; 0.205493;-0.978659;,
         0.000000; 0.039542;-0.999218;,
        -0.378583; 0.102718;-0.919850;,
        -0.318866; 0.258701;-0.911810;,
        -0.318866; 0.258701;-0.911810;,
        -0.378583; 0.102718;-0.919850;,
        -0.655722; 0.275313;-0.703016;,
        -0.552288; 0.404071;-0.729181;,
        -0.552288; 0.404071;-0.729181;,
        -0.655722; 0.275313;-0.703016;,
        -0.757162; 0.511085;-0.406814;,
        -0.637728; 0.602652;-0.479701;,
        -0.637728; 0.602652;-0.479701;,
        -0.757162; 0.511085;-0.406814;,
        -0.655722; 0.746856;-0.110612;,
        -0.552290; 0.801233;-0.230223;,
        -0.552290; 0.801233;-0.230223;,
        -0.655722; 0.746856;-0.110612;,
        -0.378581; 0.919453; 0.106223;,
        -0.318864; 0.946605;-0.047592;,
        -0.318864; 0.946605;-0.047592;,
        -0.378581; 0.919453; 0.106223;,
        -0.000000; 0.982627; 0.185590;,
        -0.000000; 0.999815; 0.019258;,
        -0.000000; 0.999815; 0.019258;,
        -0.000000; 0.982627; 0.185590;,
         0.378580; 0.919453; 0.106223;,
         0.318864; 0.946605;-0.047591;,
         0.318864; 0.946605;-0.047591;,
         0.378580; 0.919453; 0.106223;,
         0.655722; 0.746856;-0.110611;,
         0.552289; 0.801233;-0.230222;,
         0.552289; 0.801233;-0.230222;,
         0.655722; 0.746856;-0.110611;,
         0.757162; 0.511085;-0.406814;,
         0.637728; 0.602653;-0.479701;,
        -0.964629; 0.206248;-0.164171;,
        -0.542477; 0.657271;-0.523176;,
        -0.469797; 0.488350;-0.735394;,
        -0.835392;-0.094126;-0.541535;,
         0.000000; 0.205493;-0.978659;,
        -0.000000;-0.394499;-0.918896;,
         0.482315;-0.314014;-0.817782;,
         0.318866; 0.258702;-0.911810;,
         0.318864; 0.946605;-0.047591;,
         0.482315; 0.726512; 0.489441;,
         0.000000; 0.806998; 0.590555;,
        -0.000000; 0.999815; 0.019258;,
        -0.552290; 0.801233;-0.230223;,
        -0.835394; 0.506622; 0.213191;,
        -0.964629; 0.206248;-0.164171;,
        -0.637728; 0.602652;-0.479701;,
        -0.318866; 0.258701;-0.911810;,
        -0.482315;-0.314014;-0.817782;,
        -0.000000;-0.394499;-0.918896;,
         0.000000; 0.205493;-0.978659;,
         0.552289; 0.801233;-0.230222;,
         0.835394; 0.506622; 0.213191;,
         0.482315; 0.726512; 0.489441;,
         0.318864; 0.946605;-0.047591;,
         0.552288; 0.404072;-0.729180;,
         0.835393;-0.094126;-0.541534;,
         0.964629; 0.206248;-0.164171;,
         0.637728; 0.602653;-0.479701;,
        -0.318864; 0.946605;-0.047592;,
        -0.482315; 0.726512; 0.489441;,
        -0.835394; 0.506622; 0.213191;,
        -0.552290; 0.801233;-0.230223;,
        -0.552288; 0.404071;-0.729181;,
        -0.835392;-0.094126;-0.541535;,
        -0.482315;-0.314014;-0.817782;,
        -0.318866; 0.258701;-0.911810;,
         0.637728; 0.602653;-0.479701;,
         0.964629; 0.206248;-0.164171;,
         0.835394; 0.506622; 0.213191;,
         0.552289; 0.801233;-0.230222;,
         0.318866; 0.258702;-0.911810;,
         0.482315;-0.314014;-0.817782;,
         0.835393;-0.094126;-0.541534;,
         0.552288; 0.404072;-0.729180;,
        -0.000000; 0.999815; 0.019258;,
         0.000000; 0.806998; 0.590555;,
        -0.482315; 0.726512; 0.489441;,
        -0.318864; 0.946605;-0.047592;,
         0.469798; 0.488350;-0.735394;,
         0.271238; 0.364692;-0.890746;,
        -0.000000; 0.319430;-0.947610;,
        -0.271238; 0.364692;-0.890747;,
        -0.469797; 0.488350;-0.735394;,
        -0.542477; 0.657271;-0.523176;,
        -0.469799; 0.826192;-0.310959;,
        -0.271238; 0.949851;-0.155606;,
        -0.000000; 0.995113;-0.098744;,
         0.271238; 0.949851;-0.155606;,
         0.469799; 0.826192;-0.310959;,
         0.542477; 0.657271;-0.523176;,
        -0.000000;-0.394499;-0.918896;,
        -0.000000; 0.319430;-0.947610;,
         0.271238; 0.364692;-0.890746;,
         0.482315;-0.314014;-0.817782;,
         0.482315; 0.726512; 0.489441;,
         0.271238; 0.949851;-0.155606;,
        -0.000000; 0.995113;-0.098744;,
         0.000000; 0.806998; 0.590555;,
        -0.835394; 0.506622; 0.213191;,
        -0.469799; 0.826192;-0.310959;,
        -0.542477; 0.657271;-0.523176;,
        -0.964629; 0.206248;-0.164171;,
        -0.482315;-0.314014;-0.817782;,
        -0.271238; 0.364692;-0.890747;,
        -0.000000; 0.319430;-0.947610;,
        -0.000000;-0.394499;-0.918896;,
         0.835394; 0.506622; 0.213191;,
         0.469799; 0.826192;-0.310959;,
         0.271238; 0.949851;-0.155606;,
         0.482315; 0.726512; 0.489441;,
         0.835393;-0.094126;-0.541534;,
         0.469798; 0.488350;-0.735394;,
         0.542477; 0.657271;-0.523176;,
         0.964629; 0.206248;-0.164171;,
        -0.482315; 0.726512; 0.489441;,
        -0.271238; 0.949851;-0.155606;,
        -0.469799; 0.826192;-0.310959;,
        -0.835394; 0.506622; 0.213191;,
        -0.835392;-0.094126;-0.541535;,
        -0.469797; 0.488350;-0.735394;,
        -0.271238; 0.364692;-0.890747;,
        -0.482315;-0.314014;-0.817782;,
         0.964629; 0.206248;-0.164171;,
         0.542477; 0.657271;-0.523176;,
         0.469799; 0.826192;-0.310959;,
         0.835394; 0.506622; 0.213191;,
         0.482315;-0.314014;-0.817782;,
         0.271238; 0.364692;-0.890746;,
         0.469798; 0.488350;-0.735394;,
         0.835393;-0.094126;-0.541534;,
         0.000000; 0.806998; 0.590555;,
        -0.000000; 0.995113;-0.098744;,
        -0.271238; 0.949851;-0.155606;,
        -0.482315; 0.726512; 0.489441;,
         0.776382; 0.000000; 0.630262;,
         0.548985;-0.548985; 0.630262;,
         0.548985;-0.548985;-0.630262;,
         0.776382; 0.000000;-0.630262;,
         0.548985;-0.548985; 0.630262;,
         0.000000;-0.776382; 0.630262;,
        -0.000000;-0.776382;-0.630262;,
         0.548985;-0.548985;-0.630262;,
         0.000000;-0.776382; 0.630262;,
        -0.548985;-0.548985; 0.630262;,
        -0.548985;-0.548985;-0.630262;,
        -0.000000;-0.776382;-0.630262;,
        -0.548985;-0.548985; 0.630262;,
        -0.776382;-0.000000; 0.630263;,
        -0.776382; 0.000000;-0.630262;,
        -0.548985;-0.548985;-0.630262;,
        -0.776382;-0.000000; 0.630263;,
        -0.548985; 0.548985; 0.630263;,
        -0.548985; 0.548985;-0.630262;,
        -0.776382; 0.000000;-0.630262;,
        -0.548985; 0.548985; 0.630263;,
         0.000000; 0.776382; 0.630263;,
        -0.000000; 0.776382;-0.630262;,
        -0.548985; 0.548985;-0.630262;,
         0.548985;-0.548985;-0.630262;,
        -0.000000;-0.776382;-0.630262;,
        -0.548985;-0.548985;-0.630262;,
        -0.776382; 0.000000;-0.630262;,
        -0.548985; 0.548985;-0.630262;,
        -0.000000; 0.776382;-0.630262;,
         0.548985; 0.548985;-0.630262;,
         0.776382; 0.000000;-0.630262;,
         0.000000; 0.776382; 0.630263;,
         0.548985; 0.548985; 0.630263;,
         0.548985; 0.548985;-0.630262;,
        -0.000000; 0.776382;-0.630262;,
         0.548985; 0.548985; 0.630263;,
         0.776382; 0.000000; 0.630262;,
         0.776382; 0.000000;-0.630262;,
         0.548985; 0.548985;-0.630262;,
         0.776382; 0.000000; 0.630262;,
         0.548985; 0.548985; 0.630263;,
         0.000000; 0.776382; 0.630263;,
        -0.548985; 0.548985; 0.630263;,
        -0.776382;-0.000000; 0.630263;,
        -0.548985;-0.548985; 0.630262;,
         0.000000;-0.776382; 0.630262;,
         0.548985;-0.548985; 0.630262;,
         0.746079; 0.006902; 0.665821;,
         0.691074;-0.281725; 0.665618;,
         0.959165;-0.213223; 0.185845;,
         0.752798; 0.057525;-0.655733;,
         0.691074;-0.281725; 0.665618;,
         0.527645;-0.527645; 0.665719;,
         0.780292;-0.555934; 0.286500;,
         0.959165;-0.213223; 0.185845;,
         0.527645;-0.527645; 0.665719;,
         0.285559;-0.689401; 0.665719;,
         0.430017;-0.834801; 0.343791;,
         0.780292;-0.555934; 0.286500;,
         0.285559;-0.689401; 0.665719;,
        -0.000000;-0.746203; 0.665719;,
         0.000000;-0.909141; 0.416488;,
         0.430017;-0.834801; 0.343791;,
        -0.000000;-0.746203; 0.665719;,
        -0.285559;-0.689401; 0.665719;,
        -0.430017;-0.834801; 0.343792;,
         0.000000;-0.909141; 0.416488;,
        -0.285559;-0.689401; 0.665719;,
        -0.527645;-0.527645; 0.665719;,
        -0.780292;-0.555934; 0.286500;,
        -0.430017;-0.834801; 0.343792;,
        -0.527645;-0.527645; 0.665719;,
        -0.691074;-0.281725; 0.665618;,
        -0.959165;-0.213223; 0.185845;,
        -0.780292;-0.555934; 0.286500;,
        -0.691074;-0.281725; 0.665618;,
        -0.746079; 0.006902; 0.665821;,
        -0.752798; 0.057525;-0.655733;,
        -0.959165;-0.213223; 0.185845;,
        -0.746079; 0.006902; 0.665821;,
        -0.687399; 0.290202; 0.665782;,
        -0.686103; 0.294214;-0.665358;,
        -0.752798; 0.057525;-0.655733;,
        -0.687399; 0.290202; 0.665782;,
        -0.527645; 0.527645; 0.665719;,
        -0.526140; 0.531553;-0.663798;,
        -0.686103; 0.294214;-0.665358;,
        -0.527645; 0.527645; 0.665719;,
        -0.285559; 0.689402; 0.665719;,
        -0.284497; 0.692244;-0.663220;,
        -0.526140; 0.531553;-0.663798;,
        -0.285559; 0.689402; 0.665719;,
         0.000000; 0.746203; 0.665719;,
         0.000000; 0.748605;-0.663017;,
        -0.284497; 0.692244;-0.663220;,
         0.000000; 0.746203; 0.665719;,
         0.285559; 0.689401; 0.665719;,
         0.284497; 0.692244;-0.663220;,
         0.000000; 0.748605;-0.663017;,
         0.285559; 0.689401; 0.665719;,
         0.527645; 0.527645; 0.665719;,
         0.526140; 0.531553;-0.663798;,
         0.284497; 0.692244;-0.663220;,
         0.000000;-0.909141; 0.416488;,
         0.000001;-0.485993; 0.873963;,
         0.322234;-0.449544; 0.833112;,
         0.430017;-0.834801; 0.343791;,
         0.527645; 0.527645; 0.665719;,
         0.687399; 0.290203; 0.665782;,
         0.686103; 0.294214;-0.665358;,
         0.526140; 0.531553;-0.663798;,
         0.687399; 0.290203; 0.665782;,
         0.746079; 0.006902; 0.665821;,
         0.752798; 0.057525;-0.655733;,
         0.686103; 0.294214;-0.665358;,
        -0.251477; 0.607120; 0.753767;,
        -0.285559; 0.689401; 0.665719;,
        -0.000000; 0.746202; 0.665719;,
         0.000000; 0.657141; 0.753767;,
         0.607119;-0.251477; 0.753767;,
         0.691074;-0.281725; 0.665618;,
         0.746079; 0.006902; 0.665821;,
         0.657141;-0.000000; 0.753768;,
         0.464668;-0.464669; 0.753768;,
         0.527645;-0.527645; 0.665719;,
         0.691074;-0.281725; 0.665618;,
         0.607119;-0.251477; 0.753767;,
         0.251477;-0.607120; 0.753767;,
         0.285559;-0.689401; 0.665719;,
         0.527645;-0.527645; 0.665719;,
         0.464668;-0.464669; 0.753768;,
        -0.000000;-0.657141; 0.753768;,
        -0.000000;-0.746203; 0.665719;,
         0.285559;-0.689401; 0.665719;,
         0.251477;-0.607120; 0.753767;,
        -0.251477;-0.607120; 0.753767;,
        -0.285559;-0.689401; 0.665719;,
        -0.000000;-0.746203; 0.665719;,
        -0.000000;-0.657141; 0.753768;,
        -0.464668;-0.464669; 0.753768;,
        -0.527645;-0.527645; 0.665719;,
        -0.285559;-0.689401; 0.665719;,
        -0.251477;-0.607120; 0.753767;,
        -0.607119;-0.251477; 0.753767;,
        -0.691074;-0.281725; 0.665618;,
        -0.527645;-0.527645; 0.665719;,
        -0.464668;-0.464669; 0.753768;,
        -0.657141;-0.000000; 0.753768;,
        -0.746079; 0.006902; 0.665821;,
        -0.691074;-0.281725; 0.665618;,
        -0.607119;-0.251477; 0.753767;,
        -0.607120; 0.251477; 0.753767;,
        -0.687399; 0.290202; 0.665782;,
        -0.746079; 0.006902; 0.665821;,
        -0.657141;-0.000000; 0.753768;,
        -0.464669; 0.464669; 0.753767;,
        -0.527645; 0.527645; 0.665719;,
        -0.687399; 0.290202; 0.665782;,
        -0.607120; 0.251477; 0.753767;,
        -0.251477; 0.607120; 0.753767;,
        -0.285559; 0.689402; 0.665719;,
        -0.527645; 0.527645; 0.665719;,
        -0.464669; 0.464669; 0.753767;,
         0.000000; 0.657141; 0.753767;,
         0.000000; 0.746203; 0.665719;,
        -0.285559; 0.689402; 0.665719;,
        -0.251477; 0.607120; 0.753767;,
         0.251477; 0.607120; 0.753767;,
         0.285559; 0.689401; 0.665719;,
         0.000000; 0.746203; 0.665719;,
         0.000000; 0.657141; 0.753767;,
         0.464669; 0.464669; 0.753768;,
         0.527645; 0.527645; 0.665719;,
         0.285559; 0.689401; 0.665719;,
         0.251477; 0.607120; 0.753767;,
         0.607120; 0.251477; 0.753767;,
         0.687399; 0.290203; 0.665782;,
         0.527645; 0.527645; 0.665719;,
         0.464669; 0.464669; 0.753768;,
         0.657141;-0.000000; 0.753768;,
         0.746079; 0.006902; 0.665821;,
         0.687399; 0.290203; 0.665782;,
         0.607120; 0.251477; 0.753767;,
         0.746203;-0.000000; 0.665719;,
         0.689401; 0.285559; 0.665719;,
         0.527644; 0.527645; 0.665719;,
         0.285559; 0.689401; 0.665719;,
        -0.000000; 0.746202; 0.665719;,
        -0.285559; 0.689401; 0.665719;,
        -0.527645; 0.527645; 0.665719;,
        -0.689401; 0.285559; 0.665719;,
        -0.746203;-0.000000; 0.665718;,
        -0.689401;-0.285560; 0.665719;,
        -0.527645;-0.527646; 0.665718;,
        -0.285559;-0.689402; 0.665719;,
        -0.000000;-0.746203; 0.665719;,
         0.285559;-0.689402; 0.665719;,
         0.527645;-0.527645; 0.665719;,
         0.689401;-0.285560; 0.665719;,
        -0.000000;-0.657141; 0.753768;,
        -0.000000;-0.746203; 0.665719;,
        -0.285559;-0.689402; 0.665719;,
        -0.251477;-0.607120; 0.753767;,
         0.000000; 0.657141; 0.753767;,
        -0.000000; 0.746202; 0.665719;,
         0.285559; 0.689401; 0.665719;,
         0.251477; 0.607120; 0.753767;,
        -0.251477;-0.607120; 0.753767;,
        -0.285559;-0.689402; 0.665719;,
        -0.527645;-0.527646; 0.665718;,
        -0.464668;-0.464669; 0.753768;,
         0.251477; 0.607120; 0.753767;,
         0.285559; 0.689401; 0.665719;,
         0.527644; 0.527645; 0.665719;,
         0.464669; 0.464669; 0.753768;,
        -0.464668;-0.464669; 0.753768;,
        -0.527645;-0.527646; 0.665718;,
        -0.689401;-0.285560; 0.665719;,
        -0.607119;-0.251477; 0.753767;,
         0.464669; 0.464669; 0.753768;,
         0.527644; 0.527645; 0.665719;,
         0.689401; 0.285559; 0.665719;,
         0.607120; 0.251477; 0.753767;,
        -0.607119;-0.251477; 0.753767;,
        -0.689401;-0.285560; 0.665719;,
        -0.746203;-0.000000; 0.665718;,
        -0.657141;-0.000000; 0.753768;,
         0.657141;-0.000000; 0.753768;,
         0.746203;-0.000000; 0.665719;,
         0.689401;-0.285560; 0.665719;,
         0.607119;-0.251477; 0.753767;,
         0.607120; 0.251477; 0.753767;,
         0.689401; 0.285559; 0.665719;,
         0.746203;-0.000000; 0.665719;,
         0.657141;-0.000000; 0.753768;,
        -0.657141;-0.000000; 0.753768;,
        -0.746203;-0.000000; 0.665718;,
        -0.689401; 0.285559; 0.665719;,
        -0.607120; 0.251477; 0.753767;,
         0.607119;-0.251477; 0.753767;,
         0.689401;-0.285560; 0.665719;,
         0.527645;-0.527645; 0.665719;,
         0.464668;-0.464669; 0.753768;,
        -0.607120; 0.251477; 0.753767;,
        -0.689401; 0.285559; 0.665719;,
        -0.527645; 0.527645; 0.665719;,
        -0.464669; 0.464669; 0.753767;,
         0.464668;-0.464669; 0.753768;,
         0.527645;-0.527645; 0.665719;,
         0.285559;-0.689402; 0.665719;,
         0.251477;-0.607120; 0.753767;,
        -0.464669; 0.464669; 0.753767;,
        -0.527645; 0.527645; 0.665719;,
        -0.285559; 0.689401; 0.665719;,
        -0.251477; 0.607120; 0.753767;,
         0.251477;-0.607120; 0.753767;,
         0.285559;-0.689402; 0.665719;,
        -0.000000;-0.746203; 0.665719;,
        -0.000000;-0.657141; 0.753768;,
         0.841077;-0.144165; 0.521350;,
         0.832338;-0.488360;-0.262142;,
         0.857075;-0.135979;-0.496923;,
         0.797824;-0.006507;-0.602855;,
        -0.752798; 0.057525;-0.655733;,
        -0.686103; 0.294214;-0.665358;,
        -0.526140; 0.531553;-0.663798;,
        -0.284497; 0.692244;-0.663220;,
         0.000000; 0.748605;-0.663017;,
         0.284497; 0.692244;-0.663220;,
         0.526140; 0.531553;-0.663798;,
         0.686103; 0.294214;-0.665358;,
         0.752798; 0.057525;-0.655733;,
         0.959165;-0.213223; 0.185845;,
         0.841077;-0.144165; 0.521350;,
         0.797824;-0.006507;-0.602855;,
         0.752798; 0.057525;-0.655733;,
         0.430017;-0.834801; 0.343791;,
         0.322234;-0.449544; 0.833112;,
         0.606886;-0.324054; 0.725726;,
         0.780292;-0.555934; 0.286500;,
         0.780292;-0.555934; 0.286500;,
         0.606886;-0.324054; 0.725726;,
         0.841077;-0.144165; 0.521350;,
         0.959165;-0.213223; 0.185845;,
        -0.752798; 0.057525;-0.655733;,
        -0.797824;-0.006508;-0.602855;,
        -0.841077;-0.144165; 0.521350;,
        -0.959165;-0.213223; 0.185845;,
        -0.959165;-0.213223; 0.185845;,
        -0.841077;-0.144165; 0.521350;,
        -0.606886;-0.324054; 0.725726;,
        -0.780292;-0.555934; 0.286500;,
         0.752798; 0.057525;-0.655733;,
         0.797824;-0.006507;-0.602855;,
        -0.797824;-0.006508;-0.602855;,
        -0.752798; 0.057525;-0.655733;,
        -0.780292;-0.555934; 0.286500;,
        -0.606886;-0.324054; 0.725726;,
        -0.322234;-0.449544; 0.833112;,
        -0.430017;-0.834801; 0.343792;,
        -0.430017;-0.834801; 0.343792;,
        -0.322234;-0.449544; 0.833112;,
         0.000001;-0.485993; 0.873963;,
         0.000000;-0.909141; 0.416488;,
         0.832338;-0.488360;-0.262142;,
         0.691738;-0.699429;-0.179717;,
         0.432642;-0.900432;-0.045193;,
         0.000002;-0.999999;-0.001267;,
        -0.432641;-0.900433;-0.045194;,
        -0.691739;-0.699428;-0.179717;,
        -0.832338;-0.488360;-0.262142;,
        -0.857075;-0.135979;-0.496923;,
         0.857075;-0.135979;-0.496923;,
        -0.797824;-0.006508;-0.602855;,
        -0.857075;-0.135979;-0.496923;,
        -0.832338;-0.488360;-0.262142;,
        -0.841077;-0.144165; 0.521350;,
        -0.322234;-0.449544; 0.833112;,
        -0.432641;-0.900433;-0.045194;,
         0.000002;-0.999999;-0.001267;,
         0.000001;-0.485993; 0.873963;,
         0.606886;-0.324054; 0.725726;,
         0.691738;-0.699429;-0.179717;,
         0.832338;-0.488360;-0.262142;,
         0.841077;-0.144165; 0.521350;,
         0.797824;-0.006507;-0.602855;,
         0.857075;-0.135979;-0.496923;,
        -0.857075;-0.135979;-0.496923;,
        -0.797824;-0.006508;-0.602855;,
        -0.606886;-0.324054; 0.725726;,
        -0.691739;-0.699428;-0.179717;,
        -0.432641;-0.900433;-0.045194;,
        -0.322234;-0.449544; 0.833112;,
         0.322234;-0.449544; 0.833112;,
         0.432642;-0.900432;-0.045193;,
         0.691738;-0.699429;-0.179717;,
         0.606886;-0.324054; 0.725726;,
        -0.841077;-0.144165; 0.521350;,
        -0.832338;-0.488360;-0.262142;,
        -0.691739;-0.699428;-0.179717;,
        -0.606886;-0.324054; 0.725726;,
         0.000001;-0.485993; 0.873963;,
         0.000002;-0.999999;-0.001267;,
         0.432642;-0.900432;-0.045193;,
         0.322234;-0.449544; 0.833112;;
        129;
        4;3,2,1,0;,
        4;7,6,5,4;,
        4;11,10,9,8;,
        4;15,14,13,12;,
        4;19,18,17,16;,
        4;23,22,21,20;,
        4;27,26,25,24;,
        4;31,30,29,28;,
        4;35,34,33,32;,
        4;39,38,37,36;,
        4;43,42,41,40;,
        4;47,46,45,44;,
        4;51,50,49,48;,
        12;63,62,61,60,59,58,57,56,55,54,53,52;,
        4;67,66,65,64;,
        4;71,70,69,68;,
        4;75,74,73,72;,
        4;79,78,77,76;,
        4;83,82,81,80;,
        4;87,86,85,84;,
        4;91,90,89,88;,
        4;95,94,93,92;,
        4;99,98,97,96;,
        4;103,102,101,100;,
        4;107,106,105,104;,
        4;111,110,109,108;,
        4;115,114,113,112;,
        4;119,118,117,116;,
        4;123,122,121,120;,
        4;127,126,125,124;,
        4;131,130,129,128;,
        4;135,134,133,132;,
        4;139,138,137,136;,
        4;143,142,141,140;,
        4;147,146,145,144;,
        4;151,150,149,148;,
        4;155,154,153,152;,
        4;159,158,157,156;,
        12;171,170,169,168,167,166,165,164,163,162,161,160;,
        4;175,174,173,172;,
        4;179,178,177,176;,
        4;183,182,181,180;,
        4;187,186,185,184;,
        4;191,190,189,188;,
        4;195,194,193,192;,
        4;199,198,197,196;,
        4;203,202,201,200;,
        4;207,206,205,204;,
        4;211,210,209,208;,
        4;215,214,213,212;,
        4;219,218,217,216;,
        4;223,222,221,220;,
        4;227,226,225,224;,
        4;231,230,229,228;,
        4;235,234,233,232;,
        4;239,238,237,236;,
        8;247,246,245,244,243,242,241,240;,
        4;251,250,249,248;,
        4;255,254,253,252;,
        8;263,262,261,260,259,258,257,256;,
        4;267,266,265,264;,
        4;271,270,269,268;,
        4;275,274,273,272;,
        4;279,278,277,276;,
        4;283,282,281,280;,
        4;287,286,285,284;,
        4;291,290,289,288;,
        4;295,294,293,292;,
        4;299,298,297,296;,
        4;303,302,301,300;,
        4;307,306,305,304;,
        4;311,310,309,308;,
        4;315,314,313,312;,
        4;319,318,317,316;,
        4;323,322,321,320;,
        4;327,326,325,324;,
        4;331,330,329,328;,
        4;335,334,333,332;,
        4;339,338,337,336;,
        4;343,342,341,340;,
        4;347,346,345,344;,
        4;351,350,349,348;,
        4;355,354,353,352;,
        4;359,358,357,356;,
        4;363,362,361,360;,
        4;367,366,365,364;,
        4;371,370,369,368;,
        4;375,374,373,372;,
        4;379,378,377,376;,
        4;383,382,381,380;,
        4;387,386,385,384;,
        4;391,390,389,388;,
        4;395,394,393,392;,
        4;399,398,397,396;,
        16;415,414,413,412,411,410,409,408,407,406,405,404,403,402,401,400;,
        4;419,418,417,416;,
        4;423,422,421,420;,
        4;427,426,425,424;,
        4;431,430,429,428;,
        4;435,434,433,432;,
        4;439,438,437,436;,
        4;443,442,441,440;,
        4;447,446,445,444;,
        4;451,450,449,448;,
        4;455,454,453,452;,
        4;459,458,457,456;,
        4;463,462,461,460;,
        4;467,466,465,464;,
        4;471,470,469,468;,
        4;475,474,473,472;,
        4;479,478,477,476;,
        9;488,487,486,485,484,483,482,481,480;,
        4;492,491,490,489;,
        4;496,495,494,493;,
        4;500,499,498,497;,
        4;504,503,502,501;,
        4;508,507,506,505;,
        4;512,511,510,509;,
        4;516,515,514,513;,
        4;520,519,518,517;,
        9;529,528,527,526,525,524,523,522,521;,
        4;533,532,531,530;,
        4;537,536,535,534;,
        4;541,540,539,538;,
        4;545,544,543,542;,
        4;549,548,547,546;,
        4;553,552,551,550;,
        4;557,556,555,554;,
        4;561,560,559,558;;
      }
      MeshTextureCoords {
        562;
         0.890605; 0.580245;,
         0.890605; 0.560184;,
         0.914564; 0.560184;,
         0.914564; 0.580245;,
         0.890605; 0.560184;,
         0.890605; 0.540123;,
         0.914564; 0.540123;,
         0.914564; 0.560184;,
         0.890605; 0.540123;,
         0.890605; 0.520062;,
         0.914564; 0.520062;,
         0.914564; 0.540123;,
         0.890605; 0.761528;,
         0.890605; 0.741467;,
         0.914564; 0.741467;,
         0.914564; 0.761528;,
         0.890605; 0.741467;,
         0.890605; 0.721406;,
         0.914564; 0.721406;,
         0.914564; 0.741467;,
         0.890605; 0.721406;,
         0.890605; 0.701345;,
         0.914564; 0.701345;,
         0.914564; 0.721406;,
         0.890605; 0.701345;,
         0.890605; 0.681284;,
         0.914564; 0.681284;,
         0.914564; 0.701345;,
         0.890605; 0.681284;,
         0.890605; 0.661223;,
         0.914564; 0.661223;,
         0.914564; 0.681284;,
         0.890605; 0.661223;,
         0.890605; 0.641162;,
         0.914564; 0.641162;,
         0.914564; 0.661223;,
         0.890605; 0.640428;,
         0.890605; 0.620367;,
         0.914564; 0.620367;,
         0.914564; 0.640428;,
         0.457969; 0.267479;,
         0.538687; 0.267479;,
         0.538687; 0.280266;,
         0.457969; 0.280266;,
         0.890605; 0.620367;,
         0.890605; 0.600306;,
         0.914564; 0.600306;,
         0.914564; 0.620367;,
         0.890605; 0.600306;,
         0.890605; 0.580245;,
         0.914564; 0.580245;,
         0.914564; 0.600306;,
         0.468000; 0.163545;,
         0.485373; 0.153515;,
         0.505434; 0.153515;,
         0.522807; 0.163546;,
         0.532838; 0.180919;,
         0.532838; 0.200980;,
         0.522807; 0.218353;,
         0.505434; 0.228384;,
         0.485373; 0.228384;,
         0.468000; 0.218353;,
         0.457969; 0.200980;,
         0.457969; 0.180919;,
         0.391735; 0.116822;,
         0.377682; 0.116822;,
         0.382875; 0.097444;,
         0.395044; 0.104471;,
         0.395044; 0.104471;,
         0.382875; 0.097444;,
         0.397060; 0.083259;,
         0.404086; 0.095429;,
         0.404086; 0.095429;,
         0.397060; 0.083259;,
         0.416437; 0.078067;,
         0.416437; 0.092119;,
         0.455926; 0.141525;,
         0.455926; 0.155577;,
         0.436549; 0.150385;,
         0.443575; 0.138215;,
         0.443575; 0.138215;,
         0.436549; 0.150385;,
         0.422363; 0.136199;,
         0.434533; 0.129173;,
         0.434533; 0.129173;,
         0.422363; 0.136199;,
         0.417171; 0.116822;,
         0.431224; 0.116822;,
         0.431224; 0.116822;,
         0.417171; 0.116822;,
         0.422363; 0.097444;,
         0.434533; 0.104471;,
         0.434533; 0.104471;,
         0.422363; 0.097444;,
         0.436549; 0.083259;,
         0.443575; 0.095429;,
         0.443575; 0.095429;,
         0.436549; 0.083259;,
         0.455926; 0.078067;,
         0.455926; 0.092119;,
         0.416437; 0.141525;,
         0.416437; 0.155577;,
         0.397060; 0.150385;,
         0.404086; 0.138215;,
         0.404086; 0.138215;,
         0.397060; 0.150385;,
         0.382875; 0.136199;,
         0.395044; 0.129173;,
         0.395044; 0.129173;,
         0.382875; 0.136199;,
         0.377682; 0.116822;,
         0.391735; 0.116822;,
         0.901279; 0.217195;,
         0.909512; 0.208310;,
         0.917276; 0.213738;,
         0.911760; 0.224521;,
         0.457969; 0.306574;,
         0.538687; 0.306574;,
         0.538687; 0.319361;,
         0.457969; 0.319361;,
         0.457969; 0.370510;,
         0.538687; 0.370509;,
         0.538687; 0.383296;,
         0.457969; 0.383297;,
         0.457969; 0.254692;,
         0.538687; 0.254692;,
         0.538687; 0.267479;,
         0.457969; 0.267479;,
         0.457969; 0.293053;,
         0.538687; 0.293053;,
         0.538687; 0.305840;,
         0.457969; 0.305840;,
         0.457969; 0.357722;,
         0.538687; 0.357722;,
         0.538687; 0.370509;,
         0.457969; 0.370510;,
         0.457969; 0.332148;,
         0.538687; 0.332148;,
         0.538687; 0.344935;,
         0.457969; 0.344935;,
         0.457969; 0.241905;,
         0.538687; 0.241905;,
         0.538687; 0.254692;,
         0.457969; 0.254692;,
         0.457969; 0.280266;,
         0.538687; 0.280266;,
         0.538687; 0.293053;,
         0.457969; 0.293053;,
         0.457969; 0.344935;,
         0.538687; 0.344935;,
         0.538687; 0.357722;,
         0.457969; 0.357722;,
         0.457969; 0.319361;,
         0.538687; 0.319361;,
         0.538687; 0.332148;,
         0.457969; 0.332148;,
         0.457969; 0.229118;,
         0.538687; 0.229118;,
         0.538687; 0.241905;,
         0.457969; 0.241905;,
         0.812294; 0.521995;,
         0.807558; 0.530199;,
         0.799354; 0.534936;,
         0.789881; 0.534935;,
         0.781678; 0.530199;,
         0.776941; 0.521995;,
         0.776941; 0.512523;,
         0.781678; 0.504319;,
         0.789881; 0.499582;,
         0.799354; 0.499582;,
         0.807558; 0.504319;,
         0.812294; 0.512523;,
         0.936596; 0.136320;,
         0.935675; 0.148397;,
         0.926220; 0.148976;,
         0.923833; 0.137101;,
         0.888060; 0.170250;,
         0.899719; 0.173533;,
         0.898423; 0.182917;,
         0.886311; 0.182917;,
         0.893177; 0.207302;,
         0.903510; 0.200982;,
         0.909512; 0.208310;,
         0.901279; 0.217195;,
         0.923833; 0.228733;,
         0.926220; 0.216858;,
         0.935675; 0.217436;,
         0.936596; 0.229514;,
         0.893177; 0.158532;,
         0.903510; 0.164852;,
         0.899719; 0.173533;,
         0.888060; 0.170250;,
         0.911760; 0.141312;,
         0.917276; 0.152096;,
         0.909512; 0.157523;,
         0.901279; 0.148639;,
         0.888060; 0.195584;,
         0.899719; 0.192301;,
         0.903510; 0.200982;,
         0.893177; 0.207302;,
         0.911760; 0.224521;,
         0.917276; 0.213738;,
         0.926220; 0.216858;,
         0.923833; 0.228733;,
         0.901279; 0.148639;,
         0.909512; 0.157523;,
         0.903510; 0.164852;,
         0.893177; 0.158532;,
         0.923833; 0.137101;,
         0.926220; 0.148976;,
         0.917276; 0.152096;,
         0.911760; 0.141312;,
         0.886311; 0.182917;,
         0.898423; 0.182917;,
         0.899719; 0.192301;,
         0.888060; 0.195584;,
         0.535941; 0.577413;,
         0.535941; 0.671434;,
         0.434203; 0.671434;,
         0.434203; 0.577413;,
         0.535941; 0.671434;,
         0.535941; 0.765454;,
         0.434203; 0.765454;,
         0.434203; 0.671434;,
         0.433469; 0.389372;,
         0.433469; 0.483393;,
         0.331732; 0.483393;,
         0.331732; 0.389372;,
         0.433469; 0.483393;,
         0.433469; 0.577413;,
         0.331732; 0.577413;,
         0.331732; 0.483393;,
         0.433469; 0.577413;,
         0.433469; 0.671434;,
         0.331732; 0.671434;,
         0.331732; 0.577413;,
         0.433469; 0.671434;,
         0.433469; 0.765454;,
         0.331732; 0.765454;,
         0.331732; 0.671434;,
         0.390753; 0.383297;,
         0.296732; 0.383297;,
         0.230249; 0.316814;,
         0.230249; 0.222793;,
         0.296732; 0.156311;,
         0.390752; 0.156311;,
         0.457235; 0.222793;,
         0.457235; 0.316814;,
         0.535941; 0.389372;,
         0.535941; 0.483392;,
         0.434203; 0.483392;,
         0.434203; 0.389372;,
         0.535941; 0.483392;,
         0.535941; 0.577413;,
         0.434203; 0.577413;,
         0.434203; 0.483392;,
         0.933150; 0.457234;,
         0.839130; 0.457234;,
         0.772647; 0.390751;,
         0.772647; 0.296730;,
         0.839130; 0.230248;,
         0.933150; 0.230248;,
         0.999633; 0.296730;,
         0.999633; 0.390751;,
         0.229506; 0.207037;,
         0.229509; 0.251100;,
         0.028390; 0.251110;,
         0.000367; 0.201408;,
         0.229509; 0.251100;,
         0.229511; 0.295163;,
         0.059736; 0.295172;,
         0.028390; 0.251110;,
         0.229511; 0.295163;,
         0.229513; 0.339226;,
         0.078558; 0.339234;,
         0.059736; 0.295172;,
         0.229513; 0.339226;,
         0.229515; 0.383289;,
         0.078560; 0.383297;,
         0.078558; 0.339234;,
         0.771913; 0.104715;,
         0.771911; 0.148778;,
         0.620955; 0.148770;,
         0.620958; 0.104707;,
         0.771911; 0.148778;,
         0.771909; 0.192841;,
         0.602134; 0.192832;,
         0.620955; 0.148770;,
         0.771909; 0.192841;,
         0.771906; 0.236903;,
         0.570787; 0.236893;,
         0.602134; 0.192832;,
         0.771906; 0.236903;,
         0.771904; 0.280966;,
         0.542765; 0.286596;,
         0.570787; 0.236893;,
         0.771904; 0.280966;,
         0.771904; 0.325029;,
         0.543453; 0.325045;,
         0.542765; 0.286596;,
         0.771904; 0.325029;,
         0.771907; 0.369092;,
         0.543456; 0.369108;,
         0.543453; 0.325045;,
         0.771907; 0.369092;,
         0.771910; 0.413155;,
         0.543459; 0.413171;,
         0.543456; 0.369108;,
         0.771910; 0.413155;,
         0.771913; 0.457218;,
         0.543462; 0.457234;,
         0.543459; 0.413171;,
         0.229515; 0.030786;,
         0.229512; 0.074849;,
         0.001062; 0.074833;,
         0.001065; 0.030770;,
         0.229512; 0.074849;,
         0.229509; 0.118912;,
         0.001059; 0.118896;,
         0.001062; 0.074833;,
         0.217533; 0.384031;,
         0.273303; 0.406000;,
         0.254878; 0.446365;,
         0.195740; 0.420792;,
         0.229509; 0.118912;,
         0.229506; 0.162974;,
         0.001056; 0.162959;,
         0.001059; 0.118896;,
         0.229506; 0.162974;,
         0.229506; 0.207037;,
         0.000367; 0.201408;,
         0.001056; 0.162959;,
         0.747027; 0.999633;,
         0.747027; 0.457968;,
         0.776207; 0.457968;,
         0.776207; 0.999633;,
         0.820777; 0.677219;,
         0.785537; 0.691815;,
         0.776941; 0.648599;,
         0.815084; 0.648599;,
         0.836989; 0.701481;,
         0.810018; 0.728452;,
         0.785537; 0.691815;,
         0.820777; 0.677219;,
         0.861251; 0.717693;,
         0.846654; 0.752932;,
         0.810018; 0.728452;,
         0.836989; 0.701481;,
         0.889871; 0.723386;,
         0.889871; 0.761528;,
         0.846654; 0.752932;,
         0.861251; 0.717693;,
         0.856957; 0.047491;,
         0.842360; 0.012251;,
         0.885577; 0.003655;,
         0.885577; 0.041798;,
         0.832695; 0.063702;,
         0.805723; 0.036731;,
         0.842360; 0.012251;,
         0.856957; 0.047491;,
         0.816483; 0.087965;,
         0.781243; 0.073368;,
         0.805723; 0.036731;,
         0.832695; 0.063702;,
         0.810790; 0.116584;,
         0.772647; 0.116584;,
         0.781243; 0.073368;,
         0.816483; 0.087965;,
         0.816483; 0.145204;,
         0.781243; 0.159801;,
         0.772647; 0.116584;,
         0.810790; 0.116584;,
         0.832695; 0.169466;,
         0.805723; 0.196438;,
         0.781243; 0.159801;,
         0.816483; 0.145204;,
         0.856957; 0.185678;,
         0.842360; 0.220918;,
         0.805723; 0.196438;,
         0.832695; 0.169466;,
         0.885577; 0.191371;,
         0.885577; 0.229514;,
         0.842360; 0.220918;,
         0.856957; 0.185678;,
         0.861251; 0.579505;,
         0.846654; 0.544266;,
         0.889871; 0.535670;,
         0.889871; 0.573812;,
         0.836989; 0.595717;,
         0.810017; 0.568746;,
         0.846654; 0.544266;,
         0.861251; 0.579505;,
         0.820777; 0.619979;,
         0.785537; 0.605383;,
         0.810017; 0.568746;,
         0.836989; 0.595717;,
         0.815084; 0.648599;,
         0.776941; 0.648599;,
         0.785537; 0.605383;,
         0.820777; 0.619979;,
         0.230249; 0.067637;,
         0.241416; 0.040678;,
         0.262050; 0.020045;,
         0.289009; 0.008878;,
         0.318189; 0.008878;,
         0.345148; 0.020045;,
         0.365782; 0.040678;,
         0.376948; 0.067637;,
         0.376948; 0.096817;,
         0.365782; 0.123777;,
         0.345148; 0.144410;,
         0.318189; 0.155577;,
         0.289009; 0.155577;,
         0.262050; 0.144410;,
         0.241416; 0.123776;,
         0.230249; 0.096817;,
         0.542765; 0.999633;,
         0.542765; 0.457968;,
         0.571945; 0.457968;,
         0.571945; 0.999633;,
         0.542031; 0.999632;,
         0.000367; 0.999633;,
         0.000367; 0.970452;,
         0.542031; 0.970451;,
         0.571945; 0.999633;,
         0.571945; 0.457968;,
         0.601125; 0.457968;,
         0.601126; 0.999633;,
         0.542031; 0.970451;,
         0.000367; 0.970452;,
         0.000367; 0.941273;,
         0.542031; 0.941271;,
         0.601126; 0.999633;,
         0.601125; 0.457968;,
         0.630306; 0.457968;,
         0.630306; 0.999633;,
         0.542031; 0.941271;,
         0.000367; 0.941273;,
         0.000367; 0.912091;,
         0.542031; 0.912091;,
         0.630306; 0.999633;,
         0.630306; 0.457968;,
         0.659487; 0.457968;,
         0.659486; 0.999633;,
         0.542031; 0.882911;,
         0.000367; 0.882910;,
         0.000367; 0.853730;,
         0.542031; 0.853731;,
         0.542031; 0.912091;,
         0.000367; 0.912091;,
         0.000367; 0.882910;,
         0.542031; 0.882911;,
         0.659486; 0.999633;,
         0.659487; 0.457968;,
         0.688667; 0.457968;,
         0.688666; 0.999633;,
         0.542031; 0.853731;,
         0.000367; 0.853730;,
         0.000367; 0.824549;,
         0.542031; 0.824550;,
         0.688666; 0.999633;,
         0.688667; 0.457968;,
         0.717847; 0.457968;,
         0.717847; 0.999633;,
         0.542031; 0.824550;,
         0.000367; 0.824549;,
         0.000367; 0.795369;,
         0.542031; 0.795370;,
         0.717847; 0.999633;,
         0.717847; 0.457968;,
         0.747027; 0.457968;,
         0.747027; 0.999633;,
         0.542031; 0.795370;,
         0.000367; 0.795369;,
         0.000367; 0.766188;,
         0.542031; 0.766190;,
         0.193494; 0.513023;,
         0.252606; 0.516671;,
         0.213302; 0.529638;,
         0.155622; 0.535689;,
         0.117435; 0.765454;,
         0.079333; 0.760333;,
         0.040616; 0.739322;,
         0.012887; 0.705094;,
         0.000367; 0.662860;,
         0.004962; 0.619050;,
         0.025974; 0.580333;,
         0.060202; 0.552604;,
         0.096728; 0.540610;,
         0.140398; 0.504199;,
         0.193494; 0.513023;,
         0.155622; 0.535689;,
         0.096728; 0.540610;,
         0.195740; 0.420792;,
         0.254878; 0.446365;,
         0.227555; 0.482843;,
         0.171661; 0.461008;,
         0.171661; 0.461008;,
         0.227555; 0.482843;,
         0.193494; 0.513023;,
         0.140398; 0.504199;,
         0.899900; 0.999633;,
         0.855942; 0.960594;,
         0.839773; 0.919258;,
         0.887115; 0.944799;,
         0.887115; 0.944799;,
         0.839773; 0.919258;,
         0.831447; 0.874563;,
         0.888882; 0.891601;,
         0.096728; 0.540610;,
         0.155622; 0.535689;,
         0.177127; 0.759886;,
         0.117435; 0.765454;,
         0.888882; 0.891601;,
         0.831447; 0.874563;,
         0.832282; 0.829073;,
         0.894545; 0.845162;,
         0.894545; 0.845162;,
         0.832282; 0.829073;,
         0.842504; 0.785985;,
         0.899900; 0.802850;,
         0.254467; 0.534104;,
         0.291237; 0.555002;,
         0.318479; 0.589617;,
         0.330998; 0.631850;,
         0.326664; 0.675686;,
         0.306434; 0.714815;,
         0.274262; 0.742269;,
         0.234677; 0.754414;,
         0.213302; 0.529638;,
         0.855942; 0.960594;,
         0.813967; 0.920173;,
         0.790975; 0.885841;,
         0.839773; 0.919258;,
         0.832282; 0.829073;,
         0.776941; 0.804126;,
         0.788009; 0.762262;,
         0.842504; 0.785985;,
         0.227555; 0.482843;,
         0.287335; 0.494143;,
         0.252606; 0.516671;,
         0.193494; 0.513023;,
         0.155622; 0.535689;,
         0.213302; 0.529638;,
         0.234677; 0.754414;,
         0.177127; 0.759886;,
         0.831447; 0.874563;,
         0.777435; 0.846812;,
         0.776941; 0.804126;,
         0.832282; 0.829073;,
         0.254878; 0.446365;,
         0.313993; 0.460688;,
         0.287335; 0.494143;,
         0.227555; 0.482843;,
         0.839773; 0.919258;,
         0.790975; 0.885841;,
         0.777435; 0.846812;,
         0.831447; 0.874563;,
         0.273303; 0.406000;,
         0.330998; 0.420769;,
         0.313993; 0.460688;,
         0.254878; 0.446365;;
      }
      MeshMaterialList {
        1;
        129;
        0,
        0,
        0,
        0,
        0,
        0,
        0,
        0,
        0,
        0,
        0,
        0,
        0,
        0,
        0,
        0,
        0,
        0,
        0,
        0,
        0,
        0,
        0,
        0,
        0,
        0,
        0,
        0,
        0,
        0,
        0,
        0,
        0,
        0,
        0,
        0,
        0,
        0,
        0,
        0,
        0,
        0,
        0,
        0,
        0,
        0,
        0,
        0,
        0,
        0,
        0,
        0,
        0,
        0,
        0,
        0,
        0,
        0,
        0,
        0,
        0,
        0,
        0,
        0,
        0,
        0,
        0,
        0,
        0,
        0,
        0,
        0,
        0,
        0,
        0,
        0,
        0,
        0,
        0,
        0,
        0,
        0,
        0,
        0,
        0,
        0,
        0,
        0,
        0,
        0,
        0,
        0,
        0,
        0,
        0,
        0,
        0,
        0,
        0,
        0,
        0,
        0,
        0,
        0,
        0,
        0,
        0,
        0,
        0,
        0,
        0,
        0,
        0,
        0,
        0,
        0,
        0,
        0,
        0,
        0,
        0,
        0,
        0,
        0,
        0,
        0,
        0,
        0,
        0;
        Material Material_001 {
           0.800000; 0.800000; 0.800000; 1.000000;;
           323.999994;
           0.500000; 0.500000; 0.500000;;
           0.000000; 0.000000; 0.000000;;
        }
      }
    }
  }
}
