xof 0303txt 0032

Frame Root {
  FrameTransformMatrix {
     1.000000, 0.000000, 0.000000, 0.000000,
     0.000000,-0.000000, 1.000000, 0.000000,
     0.000000, 1.000000, 0.000000, 0.000000,
     0.000000, 0.000000, 0.000000, 1.000000;;
  }
  Frame Cube_002 {
    FrameTransformMatrix {
       1.000000, 0.000000, 0.000000, 0.000000,
       0.000000, 1.000000, 0.000000, 0.000000,
       0.000000, 0.000000, 1.000000, 0.000000,
       0.000000, 0.000000, 0.000000, 1.000000;;
    }
    Mesh {
      489;
       0.011377; 0.080070; 0.011952;,
       0.009510; 0.082436; 0.011952;,
       0.004518; 0.082436;-0.002574;,
       0.006386; 0.080070;-0.002574;,
       0.013279;-0.018225; 0.011952;,
       0.013279;-0.116520; 0.011952;,
       0.007809;-0.116520; 0.027872;,
       0.007809;-0.018225; 0.027872;,
       0.000471;-0.116520;-0.001952;,
       0.000471;-0.122909;-0.000049;,
       0.005725;-0.122909;-0.000049;,
       0.005994;-0.116520;-0.001952;,
       0.000471;-0.018225;-0.003968;,
       0.000471;-0.116520;-0.003968;,
       0.007809;-0.116520;-0.003968;,
       0.007809;-0.018225;-0.003968;,
       0.000471;-0.112718; 0.027872;,
       0.000471;-0.109058; 0.030223;,
       0.005793;-0.109058; 0.030223;,
       0.005899;-0.112718; 0.027872;,
       0.007809;-0.018225;-0.003968;,
       0.007809;-0.116520;-0.003968;,
       0.013279;-0.116520; 0.011952;,
       0.013279;-0.018225; 0.011952;,
       0.006386; 0.080070; 0.026478;,
       0.004518; 0.082436; 0.026478;,
       0.009510; 0.082436; 0.011952;,
       0.011377; 0.080070; 0.011952;,
       0.000471;-0.116520; 0.011952;,
       0.000471;-0.116520; 0.011952;,
       0.000471;-0.116520; 0.027872;,
       0.000471;-0.116520; 0.025856;,
       0.010771;-0.116520; 0.011952;,
       0.013279;-0.116520; 0.011952;,
       0.007809;-0.116520;-0.003968;,
       0.005994;-0.116520;-0.001952;,
       0.005994;-0.116520;-0.001952;,
       0.007809;-0.116520;-0.003968;,
       0.000471;-0.116520;-0.003968;,
       0.000471;-0.116520;-0.001952;,
       0.000471;-0.116520; 0.025856;,
       0.000471;-0.116520; 0.027872;,
       0.007809;-0.116520; 0.027872;,
       0.005994;-0.116520; 0.025856;,
       0.000471;-0.116520;-0.001952;,
       0.000471;-0.116520;-0.003968;,
       0.000471;-0.116520; 0.011952;,
       0.000471;-0.116520; 0.011952;,
       0.005994;-0.116520; 0.025856;,
       0.007809;-0.116520; 0.027872;,
       0.013279;-0.116520; 0.011952;,
       0.010771;-0.116520; 0.011952;,
       0.003432;-0.122909; 0.002419;,
       0.003360;-0.121082; 0.003163;,
       0.006379;-0.121082; 0.011952;,
       0.006708;-0.122909; 0.011952;,
       0.003432;-0.122909; 0.021485;,
       0.003360;-0.121082; 0.020741;,
       0.000471;-0.121082; 0.020741;,
       0.000471;-0.122909; 0.021485;,
       0.010771;-0.116520; 0.011952;,
       0.009849;-0.122909; 0.011952;,
       0.005725;-0.122909; 0.023953;,
       0.005994;-0.116520; 0.025856;,
       0.005994;-0.116520; 0.025856;,
       0.005725;-0.122909; 0.023953;,
       0.000471;-0.122909; 0.023953;,
       0.000471;-0.116520; 0.025856;,
       0.005994;-0.116520;-0.001952;,
       0.005725;-0.122909;-0.000049;,
       0.009849;-0.122909; 0.011952;,
       0.010771;-0.116520; 0.011952;,
       0.000471;-0.112718; 0.027872;,
       0.000471;-0.116520; 0.027872;,
       0.000471; 0.080070; 0.027872;,
       0.000471; 0.074803; 0.027872;,
       0.000471; 0.074803; 0.027872;,
       0.000471; 0.080070; 0.027872;,
       0.007809; 0.080070; 0.027872;,
       0.005899; 0.074803; 0.027872;,
       0.005899;-0.018958; 0.027872;,
       0.007809;-0.018225; 0.027872;,
       0.007809;-0.116520; 0.027872;,
       0.005899;-0.112718; 0.027872;,
       0.005899;-0.112718; 0.027872;,
       0.007809;-0.116520; 0.027872;,
       0.000471;-0.116520; 0.027872;,
       0.000471;-0.112718; 0.027872;,
       0.005793; 0.071143; 0.030223;,
       0.005793;-0.018958; 0.030223;,
       0.000471;-0.018958; 0.030223;,
       0.000471; 0.071143; 0.030223;,
       0.005899; 0.074803; 0.027872;,
       0.005793; 0.071143; 0.030223;,
       0.000471; 0.071143; 0.030223;,
       0.000471; 0.074803; 0.027872;,
       0.000471; 0.074803; 0.027872;,
       0.000471; 0.071143; 0.030223;,
       0.000471;-0.018958; 0.030223;,
       0.000471;-0.109058; 0.030223;,
       0.000471;-0.112718; 0.027872;,
       0.005899;-0.018958; 0.027872;,
       0.005793;-0.018958; 0.030223;,
       0.005793; 0.071143; 0.030223;,
       0.005899; 0.074803; 0.027872;,
       0.000471; 0.080070; 0.011952;,
       0.000471; 0.080070; 0.011952;,
       0.000471; 0.080070;-0.003968;,
       0.000471; 0.080070;-0.002574;,
       0.000471; 0.080070;-0.002574;,
       0.000471; 0.080070;-0.003968;,
       0.007809; 0.080070;-0.003968;,
       0.006386; 0.080070;-0.002574;,
       0.006386; 0.080070; 0.026478;,
       0.007809; 0.080070; 0.027872;,
       0.000471; 0.080070; 0.027872;,
       0.000471; 0.080070; 0.026478;,
       0.006386; 0.080070;-0.002574;,
       0.007809; 0.080070;-0.003968;,
       0.013279; 0.080070; 0.011952;,
       0.011377; 0.080070; 0.011952;,
       0.000471; 0.080070; 0.026478;,
       0.000471; 0.080070; 0.027872;,
       0.000471; 0.080070; 0.011952;,
       0.000471; 0.080070; 0.011952;,
       0.011377; 0.080070; 0.011952;,
       0.013279; 0.080070; 0.011952;,
       0.007809; 0.080070; 0.027872;,
       0.006386; 0.080070; 0.026478;,
       0.000471; 0.082436; 0.026478;,
       0.000471; 0.084191; 0.027758;,
       0.004623; 0.084191; 0.027758;,
       0.004518; 0.082436; 0.026478;,
       0.004518; 0.082436; 0.026478;,
       0.004623; 0.084191; 0.027758;,
       0.010054; 0.084191; 0.011952;,
       0.009510; 0.082436; 0.011952;,
       0.006386; 0.080070;-0.002574;,
       0.004518; 0.082436;-0.002574;,
       0.000471; 0.082436;-0.002574;,
       0.000471; 0.080070;-0.002574;,
       0.000471; 0.080070; 0.011952;,
       0.000471; 0.082436; 0.011952;,
       0.000471; 0.082436; 0.026478;,
       0.000471; 0.080070; 0.026478;,
       0.000471; 0.080070; 0.026478;,
       0.000471; 0.082436; 0.026478;,
       0.004518; 0.082436; 0.026478;,
       0.006386; 0.080070; 0.026478;,
       0.000471; 0.080070;-0.002574;,
       0.000471; 0.082436;-0.002574;,
       0.000471; 0.082436; 0.011952;,
       0.000471; 0.080070; 0.011952;,
       0.000471; 0.084191; 0.011952;,
       0.010054; 0.084191; 0.011952;,
       0.004623; 0.084191; 0.027758;,
       0.000471; 0.084191; 0.027758;,
       0.000471; 0.084191;-0.003854;,
       0.004623; 0.084191;-0.003854;,
       0.010054; 0.084191; 0.011952;,
       0.000471; 0.084191; 0.011952;,
       0.000471; 0.082436;-0.002574;,
       0.000471; 0.084191;-0.003854;,
       0.000471; 0.084191; 0.011952;,
       0.000471; 0.082436; 0.011952;,
       0.009510; 0.082436; 0.011952;,
       0.010054; 0.084191; 0.011952;,
       0.004623; 0.084191;-0.003854;,
       0.004518; 0.082436;-0.002574;,
       0.004518; 0.082436;-0.002574;,
       0.004623; 0.084191;-0.003854;,
       0.000471; 0.084191;-0.003854;,
       0.000471; 0.082436;-0.002574;,
       0.000471; 0.082436; 0.011952;,
       0.000471; 0.084191; 0.011952;,
       0.000471; 0.084191; 0.027758;,
       0.000471; 0.082436; 0.026478;,
       0.006708;-0.122909; 0.011952;,
       0.009849;-0.122909; 0.011952;,
       0.005725;-0.122909;-0.000049;,
       0.003432;-0.122909; 0.002419;,
       0.003432;-0.122909; 0.002419;,
       0.005725;-0.122909;-0.000049;,
       0.000471;-0.122909;-0.000049;,
       0.000471;-0.122909; 0.002419;,
       0.000471;-0.122909; 0.021485;,
       0.000471;-0.122909; 0.023953;,
       0.005725;-0.122909; 0.023953;,
       0.003432;-0.122909; 0.021485;,
       0.003432;-0.122909; 0.021485;,
       0.005725;-0.122909; 0.023953;,
       0.009849;-0.122909; 0.011952;,
       0.006708;-0.122909; 0.011952;,
       0.006379;-0.121082; 0.011952;,
       0.000471;-0.121082; 0.011952;,
       0.000471;-0.121082; 0.020741;,
       0.003360;-0.121082; 0.020741;,
       0.003360;-0.121082; 0.003163;,
       0.000471;-0.121082; 0.003163;,
       0.000471;-0.121082; 0.011952;,
       0.006379;-0.121082; 0.011952;,
       0.000471;-0.122909; 0.002419;,
       0.000471;-0.121082; 0.003163;,
       0.003360;-0.121082; 0.003163;,
       0.003432;-0.122909; 0.002419;,
       0.006708;-0.122909; 0.011952;,
       0.006379;-0.121082; 0.011952;,
       0.003360;-0.121082; 0.020741;,
       0.003432;-0.122909; 0.021485;,
       0.011743; 0.078940; 0.009792;,
       0.017264; 0.072711; 0.010747;,
       0.017264; 0.072711; 0.014358;,
       0.011743; 0.078940; 0.015313;,
       0.017264;-0.015772; 0.010747;,
       0.017264;-0.104256; 0.010747;,
       0.017264;-0.104256; 0.014358;,
       0.017264;-0.015772; 0.014358;,
       0.017264;-0.104256; 0.010747;,
       0.011743;-0.110484; 0.009792;,
       0.011743;-0.110484; 0.015313;,
       0.017264;-0.104256; 0.014358;,
       0.011743;-0.015772; 0.009792;,
       0.011743;-0.110484; 0.009792;,
       0.017264;-0.104256; 0.010747;,
       0.017264;-0.015772; 0.010747;,
       0.017264;-0.015772; 0.014358;,
       0.017264;-0.104256; 0.014358;,
       0.011743;-0.110484; 0.015313;,
       0.011743;-0.015772; 0.015313;,
      -0.010436; 0.080070; 0.011952;,
      -0.005445; 0.080070;-0.002574;,
      -0.003577; 0.082436;-0.002574;,
      -0.008568; 0.082436; 0.011952;,
      -0.012338;-0.018225; 0.011952;,
      -0.006868;-0.018225; 0.027872;,
      -0.006868;-0.116520; 0.027872;,
      -0.012338;-0.116520; 0.011952;,
       0.000471;-0.116520;-0.001952;,
      -0.005053;-0.116520;-0.001952;,
      -0.004784;-0.122909;-0.000049;,
       0.000471;-0.122909;-0.000049;,
       0.000471;-0.018225;-0.003968;,
      -0.006868;-0.018225;-0.003968;,
      -0.006868;-0.116520;-0.003968;,
       0.000471;-0.116520;-0.003968;,
       0.000471;-0.112718; 0.027872;,
      -0.004958;-0.112718; 0.027872;,
      -0.004852;-0.109058; 0.030223;,
       0.000471;-0.109058; 0.030223;,
      -0.006868;-0.018225;-0.003968;,
      -0.012338;-0.018225; 0.011952;,
      -0.012338;-0.116520; 0.011952;,
      -0.006868;-0.116520;-0.003968;,
      -0.005445; 0.080070; 0.026478;,
      -0.010436; 0.080070; 0.011952;,
      -0.008568; 0.082436; 0.011952;,
      -0.003577; 0.082436; 0.026478;,
      -0.009830;-0.116520; 0.011952;,
      -0.005053;-0.116520;-0.001952;,
      -0.006868;-0.116520;-0.003968;,
      -0.012338;-0.116520; 0.011952;,
      -0.005053;-0.116520;-0.001952;,
       0.000471;-0.116520;-0.001952;,
       0.000471;-0.116520;-0.003968;,
      -0.006868;-0.116520;-0.003968;,
       0.000471;-0.116520; 0.025856;,
      -0.005053;-0.116520; 0.025856;,
      -0.006868;-0.116520; 0.027872;,
       0.000471;-0.116520; 0.027872;,
      -0.005053;-0.116520; 0.025856;,
      -0.009830;-0.116520; 0.011952;,
      -0.012338;-0.116520; 0.011952;,
      -0.006868;-0.116520; 0.027872;,
      -0.002491;-0.122909; 0.002419;,
      -0.005767;-0.122909; 0.011952;,
      -0.005438;-0.121082; 0.011952;,
      -0.002418;-0.121082; 0.003163;,
      -0.002491;-0.122909; 0.021485;,
       0.000471;-0.122909; 0.021485;,
       0.000471;-0.121082; 0.020741;,
      -0.002418;-0.121082; 0.020741;,
      -0.009830;-0.116520; 0.011952;,
      -0.005053;-0.116520; 0.025856;,
      -0.004784;-0.122909; 0.023953;,
      -0.008907;-0.122909; 0.011952;,
      -0.005053;-0.116520; 0.025856;,
       0.000471;-0.116520; 0.025856;,
       0.000471;-0.122909; 0.023953;,
      -0.004784;-0.122909; 0.023953;,
      -0.005053;-0.116520;-0.001952;,
      -0.009830;-0.116520; 0.011952;,
      -0.008907;-0.122909; 0.011952;,
      -0.004784;-0.122909;-0.000049;,
       0.000471; 0.074803; 0.027872;,
      -0.004958; 0.074803; 0.027872;,
      -0.006868; 0.080070; 0.027872;,
       0.000471; 0.080070; 0.027872;,
      -0.004958;-0.018958; 0.027872;,
      -0.004958;-0.112718; 0.027872;,
      -0.006868;-0.116520; 0.027872;,
      -0.006868;-0.018225; 0.027872;,
      -0.004958;-0.112718; 0.027872;,
       0.000471;-0.112718; 0.027872;,
       0.000471;-0.116520; 0.027872;,
      -0.006868;-0.116520; 0.027872;,
      -0.004852; 0.071143; 0.030223;,
       0.000471; 0.071143; 0.030223;,
       0.000471;-0.018958; 0.030223;,
      -0.004852;-0.018958; 0.030223;,
      -0.004958; 0.074803; 0.027872;,
       0.000471; 0.074803; 0.027872;,
       0.000471; 0.071143; 0.030223;,
      -0.004852; 0.071143; 0.030223;,
      -0.004958;-0.018958; 0.027872;,
      -0.004958; 0.074803; 0.027872;,
      -0.004852; 0.071143; 0.030223;,
      -0.004852;-0.018958; 0.030223;,
       0.000471; 0.080070;-0.002574;,
      -0.005445; 0.080070;-0.002574;,
      -0.006868; 0.080070;-0.003968;,
       0.000471; 0.080070;-0.003968;,
      -0.005445; 0.080070; 0.026478;,
       0.000471; 0.080070; 0.026478;,
       0.000471; 0.080070; 0.027872;,
      -0.006868; 0.080070; 0.027872;,
      -0.005445; 0.080070;-0.002574;,
      -0.010436; 0.080070; 0.011952;,
      -0.012338; 0.080070; 0.011952;,
      -0.006868; 0.080070;-0.003968;,
      -0.010436; 0.080070; 0.011952;,
      -0.005445; 0.080070; 0.026478;,
      -0.006868; 0.080070; 0.027872;,
      -0.012338; 0.080070; 0.011952;,
       0.000471; 0.082436; 0.026478;,
      -0.003577; 0.082436; 0.026478;,
      -0.003682; 0.084191; 0.027758;,
       0.000471; 0.084191; 0.027758;,
      -0.003577; 0.082436; 0.026478;,
      -0.008568; 0.082436; 0.011952;,
      -0.009113; 0.084191; 0.011952;,
      -0.003682; 0.084191; 0.027758;,
      -0.005445; 0.080070;-0.002574;,
       0.000471; 0.080070;-0.002574;,
       0.000471; 0.082436;-0.002574;,
      -0.003577; 0.082436;-0.002574;,
       0.000471; 0.080070; 0.026478;,
      -0.005445; 0.080070; 0.026478;,
      -0.003577; 0.082436; 0.026478;,
       0.000471; 0.082436; 0.026478;,
       0.000471; 0.084191; 0.011952;,
       0.000471; 0.084191; 0.027758;,
      -0.003682; 0.084191; 0.027758;,
      -0.009113; 0.084191; 0.011952;,
       0.000471; 0.084191;-0.003854;,
       0.000471; 0.084191; 0.011952;,
      -0.009113; 0.084191; 0.011952;,
      -0.003682; 0.084191;-0.003854;,
      -0.008568; 0.082436; 0.011952;,
      -0.003577; 0.082436;-0.002574;,
      -0.003682; 0.084191;-0.003854;,
      -0.009113; 0.084191; 0.011952;,
      -0.003577; 0.082436;-0.002574;,
       0.000471; 0.082436;-0.002574;,
       0.000471; 0.084191;-0.003854;,
      -0.003682; 0.084191;-0.003854;,
      -0.005767;-0.122909; 0.011952;,
      -0.002491;-0.122909; 0.002419;,
      -0.004784;-0.122909;-0.000049;,
      -0.008907;-0.122909; 0.011952;,
      -0.002491;-0.122909; 0.002419;,
       0.000471;-0.122909; 0.002419;,
       0.000471;-0.122909;-0.000049;,
      -0.004784;-0.122909;-0.000049;,
       0.000471;-0.122909; 0.021485;,
      -0.002491;-0.122909; 0.021485;,
      -0.004784;-0.122909; 0.023953;,
       0.000471;-0.122909; 0.023953;,
      -0.002491;-0.122909; 0.021485;,
      -0.005767;-0.122909; 0.011952;,
      -0.008907;-0.122909; 0.011952;,
      -0.004784;-0.122909; 0.023953;,
      -0.005438;-0.121082; 0.011952;,
      -0.002418;-0.121082; 0.020741;,
       0.000471;-0.121082; 0.020741;,
       0.000471;-0.121082; 0.011952;,
      -0.002418;-0.121082; 0.003163;,
      -0.005438;-0.121082; 0.011952;,
       0.000471;-0.121082; 0.011952;,
       0.000471;-0.121082; 0.003163;,
       0.000471;-0.122909; 0.002419;,
      -0.002491;-0.122909; 0.002419;,
      -0.002418;-0.121082; 0.003163;,
       0.000471;-0.121082; 0.003163;,
      -0.005767;-0.122909; 0.011952;,
      -0.002491;-0.122909; 0.021485;,
      -0.002418;-0.121082; 0.020741;,
      -0.005438;-0.121082; 0.011952;,
      -0.010802; 0.078940; 0.009792;,
      -0.010802; 0.078940; 0.015313;,
      -0.016323; 0.072711; 0.014358;,
      -0.016323; 0.072711; 0.010747;,
      -0.016323;-0.015772; 0.010747;,
      -0.016323;-0.015772; 0.014358;,
      -0.016323;-0.104256; 0.014358;,
      -0.016323;-0.104256; 0.010747;,
      -0.016323;-0.104256; 0.010747;,
      -0.016323;-0.104256; 0.014358;,
      -0.010802;-0.110484; 0.015313;,
      -0.010802;-0.110484; 0.009792;,
      -0.010802;-0.015772; 0.009792;,
      -0.016323;-0.015772; 0.010747;,
      -0.016323;-0.104256; 0.010747;,
      -0.010802;-0.110484; 0.009792;,
      -0.016323;-0.015772; 0.014358;,
      -0.010802;-0.015772; 0.015313;,
      -0.010802;-0.110484; 0.015313;,
      -0.016323;-0.104256; 0.014358;,
      -0.004958;-0.112718; 0.027872;,
      -0.004958;-0.018958; 0.027872;,
      -0.004852;-0.018958; 0.030223;,
      -0.004852;-0.109058; 0.030223;,
      -0.004958; 0.074803; 0.027872;,
      -0.004958;-0.018958; 0.027872;,
      -0.006868;-0.018225; 0.027872;,
      -0.006868; 0.080070; 0.027872;,
      -0.006868; 0.080070;-0.003968;,
      -0.012338; 0.080070; 0.011952;,
      -0.012338;-0.018225; 0.011952;,
      -0.006868;-0.018225;-0.003968;,
       0.000471; 0.080070;-0.003968;,
      -0.006868; 0.080070;-0.003968;,
      -0.006868;-0.018225;-0.003968;,
       0.000471;-0.018225;-0.003968;,
      -0.012338; 0.080070; 0.011952;,
      -0.006868; 0.080070; 0.027872;,
      -0.006868;-0.018225; 0.027872;,
      -0.012338;-0.018225; 0.011952;,
       0.005899;-0.112718; 0.027872;,
       0.005793;-0.109058; 0.030223;,
       0.005793;-0.018958; 0.030223;,
       0.005899;-0.018958; 0.027872;,
       0.005899; 0.074803; 0.027872;,
       0.007809; 0.080070; 0.027872;,
       0.007809;-0.018225; 0.027872;,
       0.005899;-0.018958; 0.027872;,
       0.007809; 0.080070;-0.003968;,
       0.007809;-0.018225;-0.003968;,
       0.013279;-0.018225; 0.011952;,
       0.013279; 0.080070; 0.011952;,
       0.000471; 0.080070;-0.003968;,
       0.000471;-0.018225;-0.003968;,
       0.007809;-0.018225;-0.003968;,
       0.007809; 0.080070;-0.003968;,
       0.013279; 0.080070; 0.011952;,
       0.013279;-0.018225; 0.011952;,
       0.007809;-0.018225; 0.027872;,
       0.007809; 0.080070; 0.027872;,
       0.017264; 0.072711; 0.014358;,
       0.017264;-0.015772; 0.014358;,
       0.011743;-0.015772; 0.015313;,
       0.011743; 0.078940; 0.015313;,
       0.000471;-0.018958; 0.030223;,
       0.000471;-0.109058; 0.030223;,
      -0.004852;-0.109058; 0.030223;,
      -0.004852;-0.018958; 0.030223;,
       0.005793;-0.018958; 0.030223;,
       0.005793;-0.109058; 0.030223;,
       0.000471;-0.109058; 0.030223;,
       0.000471;-0.018958; 0.030223;,
       0.011743; 0.078940; 0.009792;,
       0.011743;-0.015772; 0.009792;,
       0.017264;-0.015772; 0.010747;,
       0.017264; 0.072711; 0.010747;,
       0.017264; 0.072711; 0.010747;,
       0.017264;-0.015772; 0.010747;,
       0.017264;-0.015772; 0.014358;,
       0.017264; 0.072711; 0.014358;,
      -0.016323; 0.072711; 0.014358;,
      -0.010802; 0.078940; 0.015313;,
      -0.010802;-0.015772; 0.015313;,
      -0.016323;-0.015772; 0.014358;,
      -0.010802; 0.078940; 0.009792;,
      -0.016323; 0.072711; 0.010747;,
      -0.016323;-0.015772; 0.010747;,
      -0.010802;-0.015772; 0.009792;,
      -0.016323; 0.072711; 0.010747;,
      -0.016323; 0.072711; 0.014358;,
      -0.016323;-0.015772; 0.014358;,
      -0.016323;-0.015772; 0.010747;;
      122;
      4;3,2,1,0;,
      4;7,6,5,4;,
      4;11,10,9,8;,
      4;15,14,13,12;,
      4;19,18,17,16;,
      4;23,22,21,20;,
      4;27,26,25,24;,
      4;31,30,29,28;,
      4;35,34,33,32;,
      4;39,38,37,36;,
      4;43,42,41,40;,
      4;47,46,45,44;,
      4;51,50,49,48;,
      4;55,54,53,52;,
      4;59,58,57,56;,
      4;63,62,61,60;,
      4;67,66,65,64;,
      4;71,70,69,68;,
      4;75,74,73,72;,
      4;79,78,77,76;,
      4;83,82,81,80;,
      4;87,86,85,84;,
      4;91,90,89,88;,
      4;95,94,93,92;,
      5;100,99,98,97,96;,
      4;104,103,102,101;,
      4;108,107,106,105;,
      4;112,111,110,109;,
      4;116,115,114,113;,
      4;120,119,118,117;,
      4;124,123,122,121;,
      4;128,127,126,125;,
      4;132,131,130,129;,
      4;136,135,134,133;,
      4;140,139,138,137;,
      4;144,143,142,141;,
      4;148,147,146,145;,
      4;152,151,150,149;,
      4;156,155,154,153;,
      4;160,159,158,157;,
      4;164,163,162,161;,
      4;168,167,166,165;,
      4;172,171,170,169;,
      4;176,175,174,173;,
      4;180,179,178,177;,
      4;184,183,182,181;,
      4;188,187,186,185;,
      4;192,191,190,189;,
      4;196,195,194,193;,
      4;200,199,198,197;,
      4;204,203,202,201;,
      4;208,207,206,205;,
      4;212,211,210,209;,
      4;216,215,214,213;,
      4;220,219,218,217;,
      4;224,223,222,221;,
      4;228,227,226,225;,
      4;232,231,230,229;,
      4;236,235,234,233;,
      4;240,239,238,237;,
      4;244,243,242,241;,
      4;248,247,246,245;,
      4;252,251,250,249;,
      4;256,255,254,253;,
      4;260,259,258,257;,
      4;264,263,262,261;,
      4;268,267,266,265;,
      4;272,271,270,269;,
      4;276,275,274,273;,
      4;280,279,278,277;,
      4;284,283,282,281;,
      4;288,287,286,285;,
      4;292,291,290,289;,
      4;296,295,294,293;,
      4;300,299,298,297;,
      4;304,303,302,301;,
      4;308,307,306,305;,
      4;312,311,310,309;,
      4;316,315,314,313;,
      4;320,319,318,317;,
      4;324,323,322,321;,
      4;328,327,326,325;,
      4;332,331,330,329;,
      4;336,335,334,333;,
      4;340,339,338,337;,
      4;344,343,342,341;,
      4;348,347,346,345;,
      4;352,351,350,349;,
      4;356,355,354,353;,
      4;360,359,358,357;,
      4;364,363,362,361;,
      4;368,367,366,365;,
      4;372,371,370,369;,
      4;376,375,374,373;,
      4;380,379,378,377;,
      4;384,383,382,381;,
      4;388,387,386,385;,
      4;392,391,390,389;,
      4;396,395,394,393;,
      4;400,399,398,397;,
      4;404,403,402,401;,
      4;408,407,406,405;,
      4;412,411,410,409;,
      4;416,415,414,413;,
      4;420,419,418,417;,
      4;424,423,422,421;,
      4;428,427,426,425;,
      4;432,431,430,429;,
      4;436,435,434,433;,
      4;440,439,438,437;,
      4;444,443,442,441;,
      4;448,447,446,445;,
      4;452,451,450,449;,
      4;456,455,454,453;,
      4;460,459,458,457;,
      4;464,463,462,461;,
      4;468,467,466,465;,
      4;472,471,470,469;,
      4;476,475,474,473;,
      4;480,479,478,477;,
      4;484,483,482,481;,
      4;488,487,486,485;;
      MeshNormals {
        489;
        -0.356185;-0.934415;-0.000000;,
        -0.979267;-0.202576;-0.000000;,
        -0.541287; 0.134306; 0.830043;,
        -0.232969;-0.943290; 0.236496;,
        -1.000000; 0.000000; 0.000000;,
        -0.767743; 0.640759;-0.000000;,
        -0.466176; 0.596779;-0.653096;,
        -0.580972; 0.000000;-0.813923;,
         0.000000; 0.548762; 0.835979;,
         0.000000; 0.801709; 0.597714;,
        -0.453516; 0.689996; 0.564117;,
        -0.224189; 0.911563; 0.344663;,
         0.000000; 0.000000; 1.000000;,
         0.000000; 0.707108; 0.707105;,
        -0.466176; 0.596779; 0.653096;,
        -0.580972; 0.000000; 0.813923;,
         0.178799; 0.531688;-0.827852;,
         0.392220; 0.259055;-0.882640;,
        -0.631932; 0.212179;-0.745414;,
        -0.093223; 0.136486;-0.986246;,
        -0.580972; 0.000000; 0.813923;,
        -0.466176; 0.596779; 0.653096;,
        -0.767743; 0.640759;-0.000000;,
        -1.000000; 0.000000; 0.000000;,
        -0.232969;-0.943289;-0.236496;,
        -0.541287; 0.134305;-0.830043;,
        -0.979267;-0.202576;-0.000000;,
        -0.356185;-0.934415;-0.000000;,
         0.000000;-0.707107; 0.707107;,
         0.000000;-0.707107; 0.707107;,
         0.000000; 0.707147;-0.707066;,
         0.000000; 0.285571;-0.958357;,
        -0.560927; 0.827866;-0.000000;,
        -0.767743; 0.640759;-0.000000;,
        -0.466176; 0.596779; 0.653096;,
        -0.224189; 0.911563; 0.344663;,
        -0.224189; 0.911563; 0.344663;,
        -0.466176; 0.596779; 0.653096;,
         0.000000; 0.707108; 0.707105;,
         0.000000; 0.548762; 0.835979;,
         0.000000; 0.285571;-0.958357;,
         0.000000; 0.707147;-0.707066;,
        -0.466176; 0.596779;-0.653096;,
        -0.224189; 0.911563;-0.344663;,
         0.000000; 0.548762; 0.835979;,
         0.000000; 0.707108; 0.707105;,
         0.000000;-0.707107; 0.707107;,
         0.000000;-0.707107; 0.707107;,
        -0.224189; 0.911563;-0.344663;,
        -0.466176; 0.596779;-0.653096;,
        -0.767743; 0.640759;-0.000000;,
        -0.560927; 0.827866;-0.000000;,
         0.203365; 0.923931;-0.324027;,
         0.453006; 0.715375;-0.532001;,
         0.708342; 0.705869; 0.000000;,
         0.547662; 0.836700; 0.000000;,
         0.203366; 0.923932; 0.324026;,
         0.453006; 0.715375; 0.532001;,
         0.000000; 0.829796; 0.558068;,
         0.000000; 0.829795; 0.558068;,
        -0.560927; 0.827866;-0.000000;,
        -0.720452; 0.693505; 0.000000;,
        -0.453516; 0.689996;-0.564117;,
        -0.224189; 0.911563;-0.344663;,
        -0.224189; 0.911563;-0.344663;,
        -0.453516; 0.689996;-0.564117;,
         0.000000; 0.801708;-0.597716;,
         0.000000; 0.285571;-0.958357;,
        -0.224189; 0.911563; 0.344663;,
        -0.453516; 0.689996; 0.564117;,
        -0.720452; 0.693505; 0.000000;,
        -0.560927; 0.827866;-0.000000;,
         0.178799; 0.531688;-0.827852;,
         0.000000; 0.707147;-0.707066;,
         0.000000;-0.707146;-0.707068;,
         0.178798;-0.531685;-0.827854;,
         0.178798;-0.531685;-0.827854;,
         0.000000;-0.707146;-0.707068;,
        -0.466176;-0.596779;-0.653097;,
        -0.093222;-0.136485;-0.986246;,
        -0.691005; 0.000000;-0.722850;,
        -0.580972; 0.000000;-0.813923;,
        -0.466176; 0.596779;-0.653096;,
        -0.093223; 0.136486;-0.986246;,
        -0.093223; 0.136486;-0.986246;,
        -0.466176; 0.596779;-0.653096;,
         0.000000; 0.707147;-0.707066;,
         0.178799; 0.531688;-0.827852;,
        -0.631932;-0.212178;-0.745414;,
        -0.691005; 0.000000;-0.722850;,
         0.447214; 0.000000;-0.894427;,
         0.392220;-0.259054;-0.882641;,
        -0.093222;-0.136485;-0.986246;,
        -0.631932;-0.212178;-0.745414;,
         0.392220;-0.259054;-0.882641;,
         0.178798;-0.531685;-0.827854;,
         0.178798;-0.531685;-0.827854;,
         0.392220;-0.259054;-0.882641;,
         0.447214; 0.000000;-0.894427;,
         0.392220; 0.259055;-0.882640;,
         0.178799; 0.531688;-0.827852;,
        -0.691005; 0.000000;-0.722850;,
        -0.691005; 0.000000;-0.722850;,
        -0.631932;-0.212178;-0.745414;,
        -0.093222;-0.136485;-0.986246;,
         0.816497; 0.408248; 0.408248;,
         0.000000; 0.707107; 0.707107;,
         0.000000;-0.707107; 0.707107;,
         0.447214; 0.000000; 0.894427;,
         0.447214; 0.000000; 0.894427;,
         0.000000;-0.707107; 0.707107;,
        -0.466176;-0.596779; 0.653096;,
        -0.232969;-0.943290; 0.236496;,
        -0.232969;-0.943289;-0.236496;,
        -0.466176;-0.596779;-0.653097;,
         0.000000;-0.707146;-0.707068;,
         0.447214;-0.894427;-0.000098;,
        -0.232969;-0.943290; 0.236496;,
        -0.466176;-0.596779; 0.653096;,
        -0.767743;-0.640759;-0.000000;,
        -0.356185;-0.934415;-0.000000;,
         0.447214;-0.894427;-0.000098;,
         0.000000;-0.707146;-0.707068;,
         0.000000; 0.707107; 0.707107;,
         0.816497; 0.408248; 0.408248;,
        -0.356185;-0.934415;-0.000000;,
        -0.767743;-0.640759;-0.000000;,
        -0.466176;-0.596779;-0.653097;,
        -0.232969;-0.943289;-0.236496;,
         0.533891; 0.262083;-0.803912;,
         0.313678;-0.430243;-0.846461;,
        -0.470019;-0.374780;-0.799138;,
        -0.541287; 0.134305;-0.830043;,
        -0.541287; 0.134305;-0.830043;,
        -0.470019;-0.374780;-0.799138;,
        -0.851326;-0.524637;-0.000000;,
        -0.979267;-0.202576;-0.000000;,
        -0.232969;-0.943290; 0.236496;,
        -0.541287; 0.134306; 0.830043;,
         0.533890; 0.262083; 0.803911;,
         0.447214; 0.000000; 0.894427;,
         0.816497; 0.408248; 0.408248;,
         1.000000; 0.000000; 0.000000;,
         0.533891; 0.262083;-0.803912;,
         0.447214;-0.894427;-0.000098;,
         0.447214;-0.894427;-0.000098;,
         0.533891; 0.262083;-0.803912;,
        -0.541287; 0.134305;-0.830043;,
        -0.232969;-0.943289;-0.236496;,
         0.447214; 0.000000; 0.894427;,
         0.533890; 0.262083; 0.803911;,
         1.000000; 0.000000; 0.000000;,
         0.816497; 0.408248; 0.408248;,
         0.447214;-0.894427; 0.000000;,
        -0.851326;-0.524637;-0.000000;,
        -0.470019;-0.374780;-0.799138;,
         0.313678;-0.430243;-0.846461;,
         0.313679;-0.430243; 0.846461;,
        -0.470020;-0.374780; 0.799138;,
        -0.851326;-0.524637;-0.000000;,
         0.447214;-0.894427; 0.000000;,
         0.533890; 0.262083; 0.803911;,
         0.313679;-0.430243; 0.846461;,
         0.447214;-0.894427; 0.000000;,
         1.000000; 0.000000; 0.000000;,
        -0.979267;-0.202576;-0.000000;,
        -0.851326;-0.524637;-0.000000;,
        -0.470020;-0.374780; 0.799138;,
        -0.541287; 0.134306; 0.830043;,
        -0.541287; 0.134306; 0.830043;,
        -0.470020;-0.374780; 0.799138;,
         0.313679;-0.430243; 0.846461;,
         0.533890; 0.262083; 0.803911;,
         1.000000; 0.000000; 0.000000;,
         0.447214;-0.894427; 0.000000;,
         0.313678;-0.430243;-0.846461;,
         0.533891; 0.262083;-0.803912;,
         0.547662; 0.836700; 0.000000;,
        -0.720452; 0.693505; 0.000000;,
        -0.453516; 0.689996; 0.564117;,
         0.203365; 0.923931;-0.324027;,
         0.203365; 0.923931;-0.324027;,
        -0.453516; 0.689996; 0.564117;,
         0.000000; 0.801709; 0.597714;,
        -0.000000; 0.829794;-0.558070;,
         0.000000; 0.829795; 0.558068;,
         0.000000; 0.801708;-0.597716;,
        -0.453516; 0.689996;-0.564117;,
         0.203366; 0.923932; 0.324026;,
         0.203366; 0.923932; 0.324026;,
        -0.453516; 0.689996;-0.564117;,
        -0.720452; 0.693505; 0.000000;,
         0.547662; 0.836700; 0.000000;,
         0.708342; 0.705869; 0.000000;,
         0.000000; 1.000000; 0.000000;,
         0.000000; 0.829796; 0.558068;,
         0.453006; 0.715375; 0.532001;,
         0.453006; 0.715375;-0.532001;,
        -0.000000; 0.829796;-0.558067;,
         0.000000; 1.000000; 0.000000;,
         0.708342; 0.705869; 0.000000;,
        -0.000000; 0.829794;-0.558070;,
        -0.000000; 0.829796;-0.558067;,
         0.453006; 0.715375;-0.532001;,
         0.203365; 0.923931;-0.324027;,
         0.547662; 0.836700; 0.000000;,
         0.708342; 0.705869; 0.000000;,
         0.453006; 0.715375; 0.532001;,
         0.203366; 0.923932; 0.324026;,
        -0.709663;-0.564410; 0.421687;,
        -0.777358;-0.267981; 0.569123;,
        -0.777358;-0.267981;-0.569123;,
        -0.709663;-0.564410;-0.421687;,
        -0.764992; 0.000000; 0.644040;,
        -0.777358; 0.267981; 0.569123;,
        -0.777358; 0.267981;-0.569123;,
        -0.764992; 0.000000;-0.644040;,
        -0.777358; 0.267981; 0.569123;,
        -0.709663; 0.564410; 0.421687;,
        -0.709663; 0.564410;-0.421687;,
        -0.777358; 0.267981;-0.569123;,
        -0.170426; 0.000000; 0.985370;,
        -0.709663; 0.564410; 0.421687;,
        -0.777358; 0.267981; 0.569123;,
        -0.764992; 0.000000; 0.644040;,
        -0.764992; 0.000000;-0.644040;,
        -0.777358; 0.267981;-0.569123;,
        -0.709663; 0.564410;-0.421687;,
        -0.170426; 0.000000;-0.985371;,
         0.356185;-0.934415;-0.000000;,
         0.232969;-0.943290; 0.236496;,
         0.541287; 0.134305; 0.830043;,
         0.979267;-0.202576;-0.000000;,
         1.000000; 0.000000; 0.000000;,
         0.580972; 0.000000;-0.813923;,
         0.466176; 0.596779;-0.653096;,
         0.767743; 0.640759; 0.000000;,
         0.000000; 0.548762; 0.835979;,
         0.224189; 0.911563; 0.344663;,
         0.453516; 0.689997; 0.564117;,
         0.000000; 0.801709; 0.597714;,
         0.000000; 0.000000; 1.000000;,
         0.580972; 0.000000; 0.813923;,
         0.466176; 0.596779; 0.653096;,
         0.000000; 0.707108; 0.707105;,
         0.178799; 0.531688;-0.827852;,
         0.093223; 0.136486;-0.986246;,
         0.631932; 0.212180;-0.745414;,
         0.392220; 0.259055;-0.882640;,
         0.580972; 0.000000; 0.813923;,
         1.000000; 0.000000; 0.000000;,
         0.767743; 0.640759; 0.000000;,
         0.466176; 0.596779; 0.653096;,
         0.232969;-0.943289;-0.236497;,
         0.356185;-0.934415;-0.000000;,
         0.979267;-0.202576;-0.000000;,
         0.541287; 0.134306;-0.830043;,
         0.560927; 0.827865; 0.000000;,
         0.224189; 0.911563; 0.344663;,
         0.466176; 0.596779; 0.653096;,
         0.767743; 0.640759; 0.000000;,
         0.224189; 0.911563; 0.344663;,
         0.000000; 0.548762; 0.835979;,
         0.000000; 0.707108; 0.707105;,
         0.466176; 0.596779; 0.653096;,
         0.000000; 0.285571;-0.958357;,
         0.224189; 0.911563;-0.344663;,
         0.466176; 0.596779;-0.653096;,
         0.000000; 0.707147;-0.707066;,
         0.224189; 0.911563;-0.344663;,
         0.560927; 0.827865; 0.000000;,
         0.767743; 0.640759; 0.000000;,
         0.466176; 0.596779;-0.653096;,
        -0.203365; 0.923931;-0.324027;,
        -0.547662; 0.836700; 0.000000;,
        -0.708342; 0.705869; 0.000000;,
        -0.453006; 0.715375;-0.532001;,
        -0.203366; 0.923932; 0.324025;,
         0.000000; 0.829795; 0.558068;,
         0.000000; 0.829796; 0.558068;,
        -0.453006; 0.715375; 0.532000;,
         0.560927; 0.827865; 0.000000;,
         0.224189; 0.911563;-0.344663;,
         0.453516; 0.689996;-0.564118;,
         0.720452; 0.693505; 0.000000;,
         0.224189; 0.911563;-0.344663;,
         0.000000; 0.285571;-0.958357;,
         0.000000; 0.801708;-0.597716;,
         0.453516; 0.689996;-0.564118;,
         0.224189; 0.911563; 0.344663;,
         0.560927; 0.827865; 0.000000;,
         0.720452; 0.693505; 0.000000;,
         0.453516; 0.689997; 0.564117;,
         0.178798;-0.531685;-0.827854;,
         0.093222;-0.136485;-0.986246;,
         0.466175;-0.596779;-0.653097;,
         0.000000;-0.707146;-0.707068;,
         0.691005; 0.000000;-0.722850;,
         0.093223; 0.136486;-0.986246;,
         0.466176; 0.596779;-0.653096;,
         0.580972; 0.000000;-0.813923;,
         0.093223; 0.136486;-0.986246;,
         0.178799; 0.531688;-0.827852;,
         0.000000; 0.707147;-0.707066;,
         0.466176; 0.596779;-0.653096;,
         0.631932;-0.212178;-0.745414;,
         0.392220;-0.259054;-0.882641;,
         0.447214; 0.000000;-0.894427;,
         0.691005; 0.000000;-0.722850;,
         0.093222;-0.136485;-0.986246;,
         0.178798;-0.531685;-0.827854;,
         0.392220;-0.259054;-0.882641;,
         0.631932;-0.212178;-0.745414;,
         0.691005; 0.000000;-0.722850;,
         0.093222;-0.136485;-0.986246;,
         0.631932;-0.212178;-0.745414;,
         0.691005; 0.000000;-0.722850;,
         0.447214; 0.000000; 0.894427;,
         0.232969;-0.943290; 0.236496;,
         0.466176;-0.596779; 0.653097;,
         0.000000;-0.707107; 0.707107;,
         0.232969;-0.943289;-0.236497;,
         0.447214;-0.894427;-0.000098;,
         0.000000;-0.707146;-0.707068;,
         0.466175;-0.596779;-0.653097;,
         0.232969;-0.943290; 0.236496;,
         0.356185;-0.934415;-0.000000;,
         0.767743;-0.640759;-0.000000;,
         0.466176;-0.596779; 0.653097;,
         0.356185;-0.934415;-0.000000;,
         0.232969;-0.943289;-0.236497;,
         0.466175;-0.596779;-0.653097;,
         0.767743;-0.640759;-0.000000;,
         0.533891; 0.262083;-0.803912;,
         0.541287; 0.134306;-0.830043;,
         0.470020;-0.374780;-0.799138;,
         0.313678;-0.430243;-0.846461;,
         0.541287; 0.134306;-0.830043;,
         0.979267;-0.202576;-0.000000;,
         0.851326;-0.524637; 0.000000;,
         0.470020;-0.374780;-0.799138;,
         0.232969;-0.943290; 0.236496;,
         0.447214; 0.000000; 0.894427;,
         0.533890; 0.262083; 0.803911;,
         0.541287; 0.134305; 0.830043;,
         0.447214;-0.894427;-0.000098;,
         0.232969;-0.943289;-0.236497;,
         0.541287; 0.134306;-0.830043;,
         0.533891; 0.262083;-0.803912;,
         0.447214;-0.894427; 0.000000;,
         0.313678;-0.430243;-0.846461;,
         0.470020;-0.374780;-0.799138;,
         0.851326;-0.524637; 0.000000;,
         0.313679;-0.430243; 0.846461;,
         0.447214;-0.894427; 0.000000;,
         0.851326;-0.524637; 0.000000;,
         0.470020;-0.374780; 0.799138;,
         0.979267;-0.202576;-0.000000;,
         0.541287; 0.134305; 0.830043;,
         0.470020;-0.374780; 0.799138;,
         0.851326;-0.524637; 0.000000;,
         0.541287; 0.134305; 0.830043;,
         0.533890; 0.262083; 0.803911;,
         0.313679;-0.430243; 0.846461;,
         0.470020;-0.374780; 0.799138;,
        -0.547662; 0.836700; 0.000000;,
        -0.203365; 0.923931;-0.324027;,
         0.453516; 0.689997; 0.564117;,
         0.720452; 0.693505; 0.000000;,
        -0.203365; 0.923931;-0.324027;,
        -0.000000; 0.829794;-0.558070;,
         0.000000; 0.801709; 0.597714;,
         0.453516; 0.689997; 0.564117;,
         0.000000; 0.829795; 0.558068;,
        -0.203366; 0.923932; 0.324025;,
         0.453516; 0.689996;-0.564118;,
         0.000000; 0.801708;-0.597716;,
        -0.203366; 0.923932; 0.324025;,
        -0.547662; 0.836700; 0.000000;,
         0.720452; 0.693505; 0.000000;,
         0.453516; 0.689996;-0.564118;,
        -0.708342; 0.705869; 0.000000;,
        -0.453006; 0.715375; 0.532000;,
         0.000000; 0.829796; 0.558068;,
         0.000000; 1.000000; 0.000000;,
        -0.453006; 0.715375;-0.532001;,
        -0.708342; 0.705869; 0.000000;,
         0.000000; 1.000000; 0.000000;,
        -0.000000; 0.829796;-0.558067;,
        -0.000000; 0.829794;-0.558070;,
        -0.203365; 0.923931;-0.324027;,
        -0.453006; 0.715375;-0.532001;,
        -0.000000; 0.829796;-0.558067;,
        -0.547662; 0.836700; 0.000000;,
        -0.203366; 0.923932; 0.324025;,
        -0.453006; 0.715375; 0.532000;,
        -0.708342; 0.705869; 0.000000;,
         0.709663;-0.564410; 0.421687;,
         0.709663;-0.564410;-0.421687;,
         0.777358;-0.267981;-0.569123;,
         0.777358;-0.267981; 0.569123;,
         0.764992; 0.000000; 0.644040;,
         0.764992; 0.000000;-0.644040;,
         0.777358; 0.267981;-0.569123;,
         0.777358; 0.267981; 0.569123;,
         0.777358; 0.267981; 0.569123;,
         0.777358; 0.267981;-0.569123;,
         0.709663; 0.564410;-0.421687;,
         0.709663; 0.564410; 0.421687;,
         0.170426; 0.000000; 0.985371;,
         0.764992; 0.000000; 0.644040;,
         0.777358; 0.267981; 0.569123;,
         0.709663; 0.564410; 0.421687;,
         0.764992; 0.000000;-0.644040;,
         0.170426; 0.000000;-0.985371;,
         0.709663; 0.564410;-0.421687;,
         0.777358; 0.267981;-0.569123;,
         0.093223; 0.136486;-0.986246;,
         0.691005; 0.000000;-0.722850;,
         0.691005; 0.000000;-0.722850;,
         0.631932; 0.212180;-0.745414;,
         0.093222;-0.136485;-0.986246;,
         0.691005; 0.000000;-0.722850;,
         0.580972; 0.000000;-0.813923;,
         0.466175;-0.596779;-0.653097;,
         0.466176;-0.596779; 0.653097;,
         0.767743;-0.640759;-0.000000;,
         1.000000; 0.000000; 0.000000;,
         0.580972; 0.000000; 0.813923;,
         0.000000;-0.707107; 0.707107;,
         0.466176;-0.596779; 0.653097;,
         0.580972; 0.000000; 0.813923;,
         0.000000; 0.000000; 1.000000;,
         0.767743;-0.640759;-0.000000;,
         0.466175;-0.596779;-0.653097;,
         0.580972; 0.000000;-0.813923;,
         1.000000; 0.000000; 0.000000;,
        -0.093223; 0.136486;-0.986246;,
        -0.631932; 0.212179;-0.745414;,
        -0.691005; 0.000000;-0.722850;,
        -0.691005; 0.000000;-0.722850;,
        -0.093222;-0.136485;-0.986246;,
        -0.466176;-0.596779;-0.653097;,
        -0.580972; 0.000000;-0.813923;,
        -0.691005; 0.000000;-0.722850;,
        -0.466176;-0.596779; 0.653096;,
        -0.580972; 0.000000; 0.813923;,
        -1.000000; 0.000000; 0.000000;,
        -0.767743;-0.640759;-0.000000;,
         0.000000;-0.707107; 0.707107;,
         0.000000; 0.000000; 1.000000;,
        -0.580972; 0.000000; 0.813923;,
        -0.466176;-0.596779; 0.653096;,
        -0.767743;-0.640759;-0.000000;,
        -1.000000; 0.000000; 0.000000;,
        -0.580972; 0.000000;-0.813923;,
        -0.466176;-0.596779;-0.653097;,
        -0.777358;-0.267981;-0.569123;,
        -0.764992; 0.000000;-0.644040;,
        -0.170426; 0.000000;-0.985371;,
        -0.709663;-0.564410;-0.421687;,
         0.447214; 0.000000;-0.894427;,
         0.392220; 0.259055;-0.882640;,
         0.631932; 0.212180;-0.745414;,
         0.691005; 0.000000;-0.722850;,
        -0.691005; 0.000000;-0.722850;,
        -0.631932; 0.212179;-0.745414;,
         0.392220; 0.259055;-0.882640;,
         0.447214; 0.000000;-0.894427;,
        -0.709663;-0.564410; 0.421687;,
        -0.170426; 0.000000; 0.985370;,
        -0.764992; 0.000000; 0.644040;,
        -0.777358;-0.267981; 0.569123;,
        -0.777358;-0.267981; 0.569123;,
        -0.764992; 0.000000; 0.644040;,
        -0.764992; 0.000000;-0.644040;,
        -0.777358;-0.267981;-0.569123;,
         0.777358;-0.267981;-0.569123;,
         0.709663;-0.564410;-0.421687;,
         0.170426; 0.000000;-0.985371;,
         0.764992; 0.000000;-0.644040;,
         0.709663;-0.564410; 0.421687;,
         0.777358;-0.267981; 0.569123;,
         0.764992; 0.000000; 0.644040;,
         0.170426; 0.000000; 0.985371;,
         0.777358;-0.267981; 0.569123;,
         0.777358;-0.267981;-0.569123;,
         0.764992; 0.000000;-0.644040;,
         0.764992; 0.000000; 0.644040;;
        122;
        4;3,2,1,0;,
        4;7,6,5,4;,
        4;11,10,9,8;,
        4;15,14,13,12;,
        4;19,18,17,16;,
        4;23,22,21,20;,
        4;27,26,25,24;,
        4;31,30,29,28;,
        4;35,34,33,32;,
        4;39,38,37,36;,
        4;43,42,41,40;,
        4;47,46,45,44;,
        4;51,50,49,48;,
        4;55,54,53,52;,
        4;59,58,57,56;,
        4;63,62,61,60;,
        4;67,66,65,64;,
        4;71,70,69,68;,
        4;75,74,73,72;,
        4;79,78,77,76;,
        4;83,82,81,80;,
        4;87,86,85,84;,
        4;91,90,89,88;,
        4;95,94,93,92;,
        5;100,99,98,97,96;,
        4;104,103,102,101;,
        4;108,107,106,105;,
        4;112,111,110,109;,
        4;116,115,114,113;,
        4;120,119,118,117;,
        4;124,123,122,121;,
        4;128,127,126,125;,
        4;132,131,130,129;,
        4;136,135,134,133;,
        4;140,139,138,137;,
        4;144,143,142,141;,
        4;148,147,146,145;,
        4;152,151,150,149;,
        4;156,155,154,153;,
        4;160,159,158,157;,
        4;164,163,162,161;,
        4;168,167,166,165;,
        4;172,171,170,169;,
        4;176,175,174,173;,
        4;180,179,178,177;,
        4;184,183,182,181;,
        4;188,187,186,185;,
        4;192,191,190,189;,
        4;196,195,194,193;,
        4;200,199,198,197;,
        4;204,203,202,201;,
        4;208,207,206,205;,
        4;212,211,210,209;,
        4;216,215,214,213;,
        4;220,219,218,217;,
        4;224,223,222,221;,
        4;228,227,226,225;,
        4;232,231,230,229;,
        4;236,235,234,233;,
        4;240,239,238,237;,
        4;244,243,242,241;,
        4;248,247,246,245;,
        4;252,251,250,249;,
        4;256,255,254,253;,
        4;260,259,258,257;,
        4;264,263,262,261;,
        4;268,267,266,265;,
        4;272,271,270,269;,
        4;276,275,274,273;,
        4;280,279,278,277;,
        4;284,283,282,281;,
        4;288,287,286,285;,
        4;292,291,290,289;,
        4;296,295,294,293;,
        4;300,299,298,297;,
        4;304,303,302,301;,
        4;308,307,306,305;,
        4;312,311,310,309;,
        4;316,315,314,313;,
        4;320,319,318,317;,
        4;324,323,322,321;,
        4;328,327,326,325;,
        4;332,331,330,329;,
        4;336,335,334,333;,
        4;340,339,338,337;,
        4;344,343,342,341;,
        4;348,347,346,345;,
        4;352,351,350,349;,
        4;356,355,354,353;,
        4;360,359,358,357;,
        4;364,363,362,361;,
        4;368,367,366,365;,
        4;372,371,370,369;,
        4;376,375,374,373;,
        4;380,379,378,377;,
        4;384,383,382,381;,
        4;388,387,386,385;,
        4;392,391,390,389;,
        4;396,395,394,393;,
        4;400,399,398,397;,
        4;404,403,402,401;,
        4;408,407,406,405;,
        4;412,411,410,409;,
        4;416,415,414,413;,
        4;420,419,418,417;,
        4;424,423,422,421;,
        4;428,427,426,425;,
        4;432,431,430,429;,
        4;436,435,434,433;,
        4;440,439,438,437;,
        4;444,443,442,441;,
        4;448,447,446,445;,
        4;452,451,450,449;,
        4;456,455,454,453;,
        4;460,459,458,457;,
        4;464,463,462,461;,
        4;468,467,466,465;,
        4;472,471,470,469;,
        4;476,475,474,473;,
        4;480,479,478,477;,
        4;484,483,482,481;,
        4;488,487,486,485;;
      }
      MeshTextureCoords {
        489;
         0.629297; 0.257225;,
         0.644634; 0.257225;,
         0.660365; 0.333766;,
         0.645028; 0.333766;,
         0.000000; 0.400542;,
         0.500061; 0.400542;,
         0.500061; 0.486178;,
         0.000000; 0.486178;,
         0.534181; 0.195498;,
         0.534181; 0.229410;,
         0.507450; 0.229410;,
         0.506081; 0.195498;,
         0.500062; 0.363208;,
         0.000000; 0.363208;,
         0.000000; 0.325875;,
         0.500062; 0.325874;,
         0.221448; 0.194420;,
         0.221448; 0.216551;,
         0.194370; 0.216551;,
         0.193831; 0.194420;,
         0.000000; 0.486179;,
         0.500061; 0.486178;,
         0.500061; 0.571815;,
         0.000000; 0.571815;,
         0.645028; 0.180684;,
         0.660365; 0.180684;,
         0.644634; 0.257225;,
         0.629297; 0.257225;,
         0.610368; 0.418962;,
         0.609661; 0.418968;,
         0.609661; 0.337980;,
         0.610015; 0.378474;,
         0.548079; 0.423437;,
         0.535566; 0.425922;,
         0.547082; 0.341063;,
         0.558137; 0.349322;,
         0.558137; 0.349322;,
         0.547082; 0.341063;,
         0.583700; 0.333790;,
         0.585698; 0.343848;,
         0.320861; 0.206297;,
         0.320861; 0.216551;,
         0.283527; 0.216551;,
         0.292761; 0.206297;,
         0.610368; 0.459450;,
         0.610368; 0.499938;,
         0.609661; 0.418968;,
         0.610368; 0.418962;,
         0.585698; 0.488082;,
         0.578639; 0.499939;,
         0.535566; 0.425922;,
         0.548079; 0.423437;,
         0.122435; 0.128653;,
         0.131650; 0.132649;,
         0.128931; 0.179849;,
         0.119486; 0.179849;,
         0.122435; 0.231045;,
         0.131650; 0.227049;,
         0.137992; 0.240308;,
         0.128937; 0.244639;,
         0.814863; 0.294026;,
         0.847701; 0.294026;,
         0.850701; 0.358514;,
         0.818338; 0.368740;,
         0.379458; 0.244639;,
         0.380827; 0.210726;,
         0.407558; 0.210726;,
         0.407558; 0.244639;,
         0.818338; 0.219313;,
         0.850701; 0.229538;,
         0.847701; 0.294026;,
         0.814863; 0.294026;,
         0.984903; 0.750019;,
         0.980540; 1.000000;,
         0.980540; 0.000000;,
         0.984903; 0.500000;,
         0.379458; 0.244639;,
         0.352664; 0.244639;,
         0.352664; 0.207305;,
         0.379458; 0.217021;,
         0.941674; 0.026684;,
         0.951390; 0.022957;,
         0.951390; 0.523014;,
         0.941674; 0.503674;,
         0.166214; 0.216551;,
         0.156498; 0.197210;,
         0.193831; 0.197210;,
         0.193831; 0.216551;,
         0.000000; 0.244639;,
         0.458372; 0.244639;,
         0.458372; 0.271717;,
         0.000000; 0.271717;,
         0.249066; 0.216551;,
         0.249605; 0.194420;,
         0.276683; 0.194420;,
         0.276683; 0.216551;,
         0.927444; 1.000000;,
         0.915483; 0.981379;,
         0.915483; 0.523008;,
         0.915483; 0.064639;,
         0.927444; 0.046019;,
         0.802890; 0.041189;,
         0.814863; 0.041189;,
         0.814863; 0.499546;,
         0.802890; 0.518167;,
         0.610368; 0.418956;,
         0.611075; 0.418950;,
         0.611075; 0.499938;,
         0.610721; 0.459444;,
         0.660365; 0.492991;,
         0.658951; 0.499938;,
         0.622368; 0.492489;,
         0.630876; 0.486987;,
         0.542805; 0.333790;,
         0.535566; 0.326701;,
         0.572900; 0.326701;,
         0.572900; 0.333790;,
         0.630876; 0.486987;,
         0.622368; 0.492489;,
         0.611260; 0.407576;,
         0.620740; 0.409506;,
         0.610368; 0.378468;,
         0.610368; 0.337980;,
         0.611075; 0.418950;,
         0.610368; 0.418956;,
         0.620740; 0.409506;,
         0.611260; 0.407576;,
         0.654686; 0.333766;,
         0.660365; 0.342157;,
         0.077223; 0.214579;,
         0.066177; 0.214579;,
         0.066177; 0.193452;,
         0.077223; 0.193986;,
         0.602572; 0.493086;,
         0.593891; 0.499938;,
         0.585698; 0.415309;,
         0.595042; 0.415309;,
         0.446333; 0.214544;,
         0.458372; 0.224046;,
         0.458372; 0.244639;,
         0.446333; 0.244639;,
         0.885691; 0.291184;,
         0.873652; 0.291184;,
         0.873652; 0.217283;,
         0.885691; 0.217283;,
         0.042099; 0.214579;,
         0.030060; 0.214579;,
         0.030060; 0.193986;,
         0.042099; 0.184484;,
         0.885691; 0.365084;,
         0.873652; 0.365084;,
         0.873652; 0.291184;,
         0.885691; 0.291184;,
         0.538783; 0.277119;,
         0.538783; 0.325874;,
         0.458372; 0.298246;,
         0.458372; 0.277119;,
         0.619195; 0.277119;,
         0.619195; 0.298246;,
         0.538783; 0.325874;,
         0.538783; 0.277119;,
         0.735747; 0.363857;,
         0.744671; 0.357346;,
         0.744671; 0.437757;,
         0.735747; 0.437757;,
         0.595042; 0.415309;,
         0.585698; 0.415309;,
         0.593892; 0.330679;,
         0.602572; 0.337531;,
         0.099316; 0.214045;,
         0.088270; 0.214579;,
         0.088270; 0.193452;,
         0.099316; 0.193452;,
         0.735747; 0.437757;,
         0.744671; 0.437757;,
         0.744671; 0.518168;,
         0.735747; 0.511658;,
         0.474350; 0.216064;,
         0.458372; 0.216064;,
         0.479350; 0.155010;,
         0.491013; 0.167566;,
         0.491013; 0.167566;,
         0.479350; 0.155010;,
         0.506081; 0.155010;,
         0.506081; 0.167566;,
         0.506081; 0.264563;,
         0.506081; 0.277119;,
         0.479350; 0.277119;,
         0.491013; 0.264563;,
         0.491013; 0.264563;,
         0.479350; 0.277119;,
         0.458372; 0.216064;,
         0.474350; 0.216064;,
         0.000000; 0.199926;,
         0.030060; 0.199926;,
         0.030060; 0.244639;,
         0.015363; 0.244639;,
         0.015363; 0.155213;,
         0.030060; 0.155213;,
         0.030060; 0.199926;,
         0.000000; 0.199926;,
         0.128937; 0.115059;,
         0.137992; 0.119390;,
         0.131650; 0.132649;,
         0.122435; 0.128653;,
         0.119486; 0.179849;,
         0.128931; 0.179849;,
         0.131650; 0.227049;,
         0.122435; 0.231045;,
         0.283527; 0.244639;,
         0.241184; 0.239781;,
         0.241184; 0.221409;,
         0.283527; 0.216551;,
         0.792757; 0.068025;,
         0.792757; 0.518169;,
         0.774385; 0.518169;,
         0.774385; 0.068025;,
         0.156498; 0.221409;,
         0.198841; 0.216551;,
         0.198841; 0.244639;,
         0.156498; 0.239781;,
         0.717375; 0.518169;,
         0.717375; 1.000000;,
         0.688870; 0.968313;,
         0.688871; 0.518168;,
         0.717376; 1.000000;,
         0.717375; 0.549856;,
         0.745880; 0.518169;,
         0.745880; 1.000000;,
         0.850701; 0.441626;,
         0.866431; 0.365084;,
         0.881769; 0.365084;,
         0.866038; 0.441626;,
         0.000000; 0.743089;,
         0.000000; 0.657452;,
         0.500061; 0.657452;,
         0.500061; 0.743089;,
         0.441470; 0.216539;,
         0.441470; 0.244639;,
         0.407558; 0.243270;,
         0.407558; 0.216539;,
         0.660365; 1.000000;,
         0.623032; 1.000000;,
         0.623032; 0.499938;,
         0.660365; 0.499938;,
         0.627557; 0.201793;,
         0.627557; 0.229410;,
         0.605426; 0.228871;,
         0.605426; 0.201793;,
         0.000000; 0.914363;,
         0.000000; 0.828726;,
         0.500061; 0.828726;,
         0.500061; 0.914363;,
         0.866431; 0.518167;,
         0.850701; 0.441626;,
         0.866038; 0.441626;,
         0.881769; 0.518167;,
         0.672878; 0.428522;,
         0.682935; 0.502636;,
         0.671881; 0.510895;,
         0.660365; 0.426036;,
         0.682935; 0.502636;,
         0.710497; 0.508111;,
         0.708499; 0.518168;,
         0.671881; 0.510895;,
         0.444891; 0.216539;,
         0.416792; 0.216539;,
         0.407558; 0.206285;,
         0.444891; 0.206285;,
         0.710497; 0.363876;,
         0.672878; 0.428522;,
         0.660365; 0.426036;,
         0.703437; 0.352019;,
         0.140941; 0.231045;,
         0.137992; 0.179849;,
         0.147437; 0.179849;,
         0.150156; 0.227049;,
         0.140941; 0.128653;,
         0.147442; 0.115059;,
         0.156498; 0.119390;,
         0.150156; 0.132649;,
         0.814863; 0.443453;,
         0.818338; 0.368740;,
         0.850701; 0.378965;,
         0.847701; 0.443453;,
         0.568093; 0.201311;,
         0.568093; 0.229410;,
         0.534181; 0.229410;,
         0.534181; 0.202679;,
         0.818338; 0.518167;,
         0.814863; 0.443453;,
         0.847701; 0.443453;,
         0.850701; 0.507942;,
         0.352664; 0.207305;,
         0.352664; 0.234923;,
         0.325871; 0.244639;,
         0.325871; 0.207305;,
         0.970824; 0.996274;,
         0.970823; 0.519285;,
         0.980540; 0.499943;,
         0.980540; 1.000000;,
         0.577809; 0.210069;,
         0.605426; 0.210069;,
         0.605426; 0.229410;,
         0.568093; 0.229410;,
         0.915483; 1.000000;,
         0.888404; 1.000000;,
         0.888404; 0.541628;,
         0.915483; 0.541628;,
         0.221448; 0.194420;,
         0.249066; 0.194420;,
         0.249066; 0.216551;,
         0.221988; 0.216551;,
         0.951390; 0.523014;,
         0.951390; 1.000000;,
         0.939417; 0.981378;,
         0.939418; 0.523014;,
         0.609661; 0.425271;,
         0.609661; 0.455366;,
         0.602572; 0.462604;,
         0.602572; 0.425271;,
         0.609661; 0.469843;,
         0.609661; 0.499938;,
         0.602572; 0.499938;,
         0.602572; 0.462604;,
         0.535566; 0.345049;,
         0.510175; 0.418949;,
         0.500501; 0.418949;,
         0.528328; 0.337960;,
         0.510175; 0.418949;,
         0.535566; 0.492850;,
         0.528328; 0.499939;,
         0.500501; 0.418949;,
         0.088270; 0.193452;,
         0.088270; 0.214045;,
         0.077223; 0.214579;,
         0.077223; 0.193452;,
         0.873652; 0.186891;,
         0.860016; 0.263833;,
         0.850701; 0.263097;,
         0.865538; 0.179376;,
         0.054138; 0.184484;,
         0.054138; 0.214579;,
         0.042099; 0.214579;,
         0.042099; 0.193986;,
         0.066177; 0.184484;,
         0.066177; 0.214579;,
         0.054138; 0.205077;,
         0.054138; 0.184484;,
         0.709121; 0.271608;,
         0.709121; 0.352019;,
         0.687993; 0.352019;,
         0.660365; 0.271608;,
         0.709121; 0.191197;,
         0.709121; 0.271608;,
         0.660365; 0.271608;,
         0.687993; 0.191197;,
         0.860016; 0.263833;,
         0.861393; 0.341962;,
         0.852199; 0.348109;,
         0.850701; 0.263097;,
         0.861393; 0.341962;,
         0.873652; 0.358509;,
         0.864776; 0.365084;,
         0.852199; 0.348109;,
         0.567136; 0.261142;,
         0.615634; 0.244478;,
         0.628190; 0.256141;,
         0.567136; 0.277119;,
         0.615634; 0.244478;,
         0.615634; 0.229410;,
         0.628190; 0.229410;,
         0.628190; 0.256141;,
         0.518637; 0.229410;,
         0.518637; 0.244478;,
         0.506081; 0.256141;,
         0.506081; 0.229410;,
         0.518637; 0.244478;,
         0.567136; 0.261142;,
         0.567136; 0.277119;,
         0.506081; 0.256141;,
         0.074773; 0.214579;,
         0.119486; 0.229942;,
         0.119486; 0.244639;,
         0.074773; 0.244639;,
         0.030060; 0.229942;,
         0.074773; 0.214579;,
         0.074773; 0.244639;,
         0.030060; 0.244639;,
         0.147442; 0.244639;,
         0.140941; 0.231045;,
         0.150156; 0.227049;,
         0.156498; 0.240308;,
         0.137992; 0.179849;,
         0.140941; 0.128653;,
         0.150156; 0.132649;,
         0.147437; 0.179849;,
         0.325871; 0.216551;,
         0.325871; 0.244639;,
         0.283527; 0.239781;,
         0.283527; 0.221409;,
         0.888404; 0.091483;,
         0.906776; 0.091483;,
         0.906776; 0.541628;,
         0.888405; 0.541628;,
         0.241184; 0.221409;,
         0.241184; 0.239781;,
         0.198841; 0.244639;,
         0.198841; 0.216551;,
         0.774385; 1.000000;,
         0.745881; 1.000000;,
         0.745880; 0.549856;,
         0.774385; 0.518169;,
         0.831395; 0.518167;,
         0.859899; 0.518167;,
         0.859900; 1.000000;,
         0.831395; 0.968314;,
         0.927444; 1.000000;,
         0.927444; 0.523015;,
         0.939417; 0.523015;,
         0.939417; 0.981380;,
         0.961107; 0.523017;,
         0.961107; 1.000000;,
         0.951390; 0.996273;,
         0.951391; 0.496224;,
         0.000000; 0.828726;,
         0.000000; 0.743089;,
         0.500061; 0.743089;,
         0.500061; 0.828726;,
         0.500062; 0.363208;,
         0.500062; 0.400541;,
         0.000000; 0.400542;,
         0.000000; 0.363208;,
         0.000000; 0.657452;,
         0.000000; 0.571815;,
         0.500061; 0.571815;,
         0.500061; 0.657452;,
         0.939417; 0.523015;,
         0.927444; 0.504393;,
         0.927444; 0.046029;,
         0.939417; 0.046029;,
         0.961107; 0.523026;,
         0.970823; 0.496231;,
         0.970823; 0.996274;,
         0.961107; 1.000000;,
         0.585698; 0.499939;,
         0.585698; 1.000000;,
         0.500061; 1.000000;,
         0.500061; 0.499939;,
         0.623032; 0.499938;,
         0.623031; 1.000000;,
         0.585698; 1.000000;,
         0.585698; 0.499938;,
         0.000000; 0.914363;,
         0.500061; 0.914363;,
         0.500061; 1.000000;,
         0.000000; 1.000000;,
         0.802890; 0.968313;,
         0.802890; 0.518167;,
         0.831395; 0.518167;,
         0.831395; 1.000000;,
         0.000000; 0.298796;,
         0.458372; 0.298796;,
         0.458372; 0.325874;,
         0.000000; 0.325874;,
         0.000000; 0.271717;,
         0.458372; 0.271717;,
         0.458372; 0.298796;,
         0.000000; 0.298796;,
         0.888404; 0.518167;,
         0.888404; 1.000000;,
         0.859900; 1.000000;,
         0.859900; 0.549854;,
         0.745880; 0.518169;,
         0.745880; 0.068024;,
         0.764252; 0.068024;,
         0.764252; 0.518169;,
         0.774385; 0.549856;,
         0.802890; 0.518169;,
         0.802890; 1.000000;,
         0.774386; 1.000000;,
         0.688870; 1.000000;,
         0.660365; 0.968313;,
         0.660366; 0.518168;,
         0.688870; 0.518169;,
         0.717375; 0.068024;,
         0.735747; 0.068024;,
         0.735747; 0.518168;,
         0.717376; 0.518168;;
      }
    }
  }
}
