xof 0303txt 0032

Frame Root {
  FrameTransformMatrix {
     1.000000, 0.000000, 0.000000, 0.000000,
     0.000000,-0.000000, 1.000000, 0.000000,
     0.000000, 1.000000, 0.000000, 0.000000,
     0.000000, 0.000000, 0.000000, 1.000000;;
  }
  Frame HandguardSVD3_x_Root_ForeArmSVD1_Cube {
    FrameTransformMatrix {
       1.000000, 0.000000, 0.000000, 0.000000,
       0.000000, 1.000000, 0.000000, 0.000000,
       0.000000, 0.000000, 1.000000, 0.000000,
       0.000000, 0.000000, 0.000000, 1.000000;;
    }
    Mesh {
      544;
       0.001647;-0.067013; 0.018100;,
       0.005772;-0.067013; 0.016993;,
       0.008791;-0.067013; 0.013966;,
       0.009896;-0.067013; 0.009832;,
       0.009896;-0.067013;-0.012580;,
       0.008791;-0.067013;-0.016705;,
       0.005772;-0.067013;-0.019725;,
       0.001647;-0.067013;-0.020830;,
      -0.001647;-0.067013;-0.020830;,
      -0.005772;-0.067013;-0.019725;,
      -0.008791;-0.067013;-0.016705;,
      -0.009896;-0.067013;-0.012580;,
      -0.009896;-0.067013; 0.009832;,
      -0.008791;-0.067013; 0.013966;,
      -0.005772;-0.067013; 0.016993;,
      -0.001647;-0.067013; 0.018100;,
      -0.009896;-0.067013; 0.009832;,
      -0.009896;-0.067013;-0.012580;,
      -0.009896;-0.065522;-0.012580;,
      -0.009896;-0.065522; 0.009693;,
      -0.010387; 0.112181;-0.013134;,
      -0.010387; 0.112181; 0.007655;,
      -0.010387;-0.025194; 0.006481;,
      -0.010387;-0.025194;-0.013134;,
      -0.001647;-0.067013;-0.020830;,
       0.001647;-0.067013;-0.020830;,
       0.001647;-0.065522;-0.020830;,
      -0.001647;-0.065522;-0.020830;,
       0.010387;-0.025194; 0.006481;,
       0.010387;-0.025194;-0.013134;,
       0.010387;-0.064469;-0.013134;,
       0.010387;-0.064469; 0.010148;,
       0.010387; 0.112181; 0.007655;,
       0.010387; 0.112181;-0.013134;,
       0.010387;-0.025194;-0.013134;,
       0.010387;-0.025194; 0.006481;,
      -0.001728; 0.112181; 0.016332;,
       0.001728; 0.112181; 0.016332;,
       0.001728;-0.025194; 0.015159;,
      -0.001728;-0.025194; 0.015159;,
       0.006211; 0.122342;-0.012585;,
       0.005483; 0.122342;-0.015302;,
       0.005483; 0.112181;-0.015302;,
       0.006211; 0.112181;-0.012585;,
       0.001728; 0.112181;-0.021793;,
      -0.001728; 0.112181;-0.021793;,
      -0.001728;-0.025194;-0.021793;,
       0.001728;-0.025194;-0.021793;,
       0.005772;-0.065522; 0.016853;,
       0.005772;-0.067013; 0.016993;,
       0.001647;-0.067013; 0.018100;,
       0.001647;-0.065522; 0.017961;,
       0.008791;-0.065522; 0.013826;,
       0.008791;-0.067013; 0.013966;,
       0.005772;-0.067013; 0.016993;,
       0.005772;-0.065522; 0.016853;,
       0.009896;-0.065522; 0.009693;,
       0.009896;-0.067013; 0.009832;,
       0.008791;-0.067013; 0.013966;,
       0.008791;-0.065522; 0.013826;,
       0.006058;-0.064469;-0.020634;,
       0.006058;-0.025194;-0.020634;,
       0.001728;-0.025194;-0.021793;,
       0.001728;-0.064469;-0.021793;,
       0.009227;-0.064469;-0.017464;,
       0.009227;-0.025194;-0.017464;,
       0.006058;-0.025194;-0.020634;,
       0.006058;-0.064469;-0.020634;,
       0.010387;-0.064469;-0.013134;,
       0.010387;-0.025194;-0.013134;,
       0.009227;-0.025194;-0.017464;,
       0.009227;-0.064469;-0.017464;,
      -0.006058;-0.064469; 0.017663;,
      -0.006058;-0.025194; 0.013996;,
      -0.001728;-0.025194; 0.015159;,
      -0.001728;-0.064469; 0.018826;,
      -0.009227;-0.064469; 0.014487;,
      -0.009227;-0.025194; 0.010820;,
      -0.006058;-0.025194; 0.013996;,
      -0.006058;-0.064469; 0.017663;,
      -0.010387;-0.064469; 0.010148;,
      -0.010387;-0.025194; 0.006481;,
      -0.009227;-0.025194; 0.010820;,
      -0.009227;-0.064469; 0.014487;,
      -0.005772;-0.065522;-0.019725;,
      -0.005772;-0.067013;-0.019725;,
      -0.001647;-0.067013;-0.020830;,
      -0.001647;-0.065522;-0.020830;,
      -0.008791;-0.065522;-0.016705;,
      -0.008791;-0.067013;-0.016705;,
      -0.005772;-0.067013;-0.019725;,
      -0.005772;-0.065522;-0.019725;,
      -0.009896;-0.065522;-0.012580;,
      -0.009896;-0.067013;-0.012580;,
      -0.008791;-0.067013;-0.016705;,
      -0.008791;-0.065522;-0.016705;,
      -0.009227;-0.025194;-0.017464;,
      -0.009227; 0.112181;-0.017464;,
      -0.010387; 0.112181;-0.013134;,
      -0.010387;-0.025194;-0.013134;,
      -0.006058;-0.025194;-0.020634;,
      -0.006058; 0.112181;-0.020634;,
      -0.009227; 0.112181;-0.017464;,
      -0.009227;-0.025194;-0.017464;,
      -0.001728;-0.025194;-0.021793;,
      -0.001728; 0.112181;-0.021793;,
      -0.006058; 0.112181;-0.020634;,
      -0.006058;-0.025194;-0.020634;,
       0.009227; 0.112181;-0.017464;,
       0.009227;-0.025194;-0.017464;,
       0.010387;-0.025194;-0.013134;,
       0.010387; 0.112181;-0.013134;,
       0.006058; 0.112181;-0.020634;,
       0.006058;-0.025194;-0.020634;,
       0.009227;-0.025194;-0.017464;,
       0.009227; 0.112181;-0.017464;,
       0.001728; 0.112181;-0.021793;,
       0.001728;-0.025194;-0.021793;,
       0.006058;-0.025194;-0.020634;,
       0.006058; 0.112181;-0.020634;,
       0.006058; 0.112181; 0.015169;,
       0.006058;-0.025194; 0.013996;,
       0.001728;-0.025194; 0.015159;,
       0.001728; 0.112181; 0.016332;,
       0.009227; 0.112181; 0.011993;,
       0.009227;-0.025194; 0.010820;,
       0.006058;-0.025194; 0.013996;,
       0.006058; 0.112181; 0.015169;,
       0.010387; 0.112181; 0.007655;,
       0.010387;-0.025194; 0.006481;,
       0.009227;-0.025194; 0.010820;,
       0.009227; 0.112181; 0.011993;,
      -0.006058;-0.025194; 0.013996;,
      -0.006058; 0.112181; 0.015169;,
      -0.001728; 0.112181; 0.016332;,
      -0.001728;-0.025194; 0.015159;,
      -0.009227;-0.025194; 0.010820;,
      -0.009227; 0.112181; 0.011993;,
      -0.006058; 0.112181; 0.015169;,
      -0.006058;-0.025194; 0.013996;,
      -0.010387;-0.025194; 0.006481;,
      -0.010387; 0.112181; 0.007655;,
      -0.009227; 0.112181; 0.011993;,
      -0.009227;-0.025194; 0.010820;,
       0.001647;-0.067013; 0.018100;,
      -0.001647;-0.067013; 0.018100;,
      -0.001647;-0.065522; 0.017961;,
       0.001647;-0.065522; 0.017961;,
      -0.010387; 0.112181;-0.013134;,
      -0.009227; 0.112181;-0.017464;,
      -0.005483; 0.112181;-0.015302;,
      -0.006211; 0.112181;-0.012585;,
      -0.009227; 0.112181;-0.017464;,
      -0.006058; 0.112181;-0.020634;,
      -0.003896; 0.112181;-0.016889;,
      -0.005483; 0.112181;-0.015302;,
      -0.006058; 0.112181;-0.020634;,
      -0.001728; 0.112181;-0.021793;,
      -0.001178; 0.112181;-0.017617;,
      -0.003896; 0.112181;-0.016889;,
       0.009227; 0.112181;-0.017464;,
       0.010387; 0.112181;-0.013134;,
       0.006211; 0.112181;-0.012585;,
       0.005483; 0.112181;-0.015302;,
       0.006058; 0.112181;-0.020634;,
       0.009227; 0.112181;-0.017464;,
       0.005483; 0.112181;-0.015302;,
       0.003896; 0.112181;-0.016889;,
       0.001728; 0.112181;-0.021793;,
       0.006058; 0.112181;-0.020634;,
       0.003896; 0.112181;-0.016889;,
       0.001178; 0.112181;-0.017617;,
       0.006058; 0.112181; 0.015169;,
       0.001728; 0.112181; 0.016332;,
       0.001178; 0.112181; 0.012156;,
       0.003893; 0.112181; 0.011426;,
       0.009227; 0.112181; 0.011993;,
       0.006058; 0.112181; 0.015169;,
       0.003893; 0.112181; 0.011426;,
       0.005481; 0.112181; 0.009835;,
       0.010387; 0.112181; 0.007655;,
       0.009227; 0.112181; 0.011993;,
       0.005481; 0.112181; 0.009835;,
       0.006211; 0.112181; 0.007105;,
      -0.001728; 0.112181; 0.016332;,
      -0.006058; 0.112181; 0.015169;,
      -0.003893; 0.112181; 0.011426;,
      -0.001178; 0.112181; 0.012156;,
      -0.006058; 0.112181; 0.015169;,
      -0.009227; 0.112181; 0.011993;,
      -0.005481; 0.112181; 0.009835;,
      -0.003893; 0.112181; 0.011426;,
      -0.009227; 0.112181; 0.011993;,
      -0.010387; 0.112181; 0.007655;,
      -0.006211; 0.112181; 0.007105;,
      -0.005481; 0.112181; 0.009835;,
       0.010387; 0.112181;-0.013134;,
       0.010387; 0.112181; 0.007655;,
       0.006211; 0.112181; 0.007105;,
       0.006211; 0.112181;-0.012585;,
       0.001728; 0.112181; 0.016332;,
      -0.001728; 0.112181; 0.016332;,
      -0.001178; 0.112181; 0.012156;,
       0.001178; 0.112181; 0.012156;,
      -0.001728; 0.112181;-0.021793;,
       0.001728; 0.112181;-0.021793;,
       0.001178; 0.112181;-0.017617;,
      -0.001178; 0.112181;-0.017617;,
      -0.010387; 0.112181; 0.007655;,
      -0.010387; 0.112181;-0.013134;,
      -0.006211; 0.112181;-0.012585;,
      -0.006211; 0.112181; 0.007105;,
      -0.000964; 0.120808;-0.015988;,
      -0.003053; 0.120808;-0.015429;,
      -0.003053; 0.122342;-0.015429;,
      -0.000964; 0.122342;-0.015988;,
      -0.006211; 0.122342; 0.007105;,
      -0.005481; 0.122342; 0.009835;,
      -0.005481; 0.112181; 0.009835;,
      -0.006211; 0.112181; 0.007105;,
       0.005483; 0.122342;-0.015302;,
       0.003896; 0.122342;-0.016889;,
       0.003896; 0.112181;-0.016889;,
       0.005483; 0.112181;-0.015302;,
       0.006211; 0.122342; 0.007105;,
       0.006211; 0.122342;-0.012585;,
       0.006211; 0.112181;-0.012585;,
       0.006211; 0.112181; 0.007105;,
       0.003896; 0.122342;-0.016889;,
       0.001178; 0.122342;-0.017617;,
       0.001178; 0.112181;-0.017617;,
       0.003896; 0.112181;-0.016889;,
      -0.001178; 0.122342; 0.012156;,
       0.001178; 0.122342; 0.012156;,
       0.001178; 0.112181; 0.012156;,
      -0.001178; 0.112181; 0.012156;,
       0.001178; 0.122342; 0.012156;,
       0.003893; 0.122342; 0.011426;,
       0.003893; 0.112181; 0.011426;,
       0.001178; 0.112181; 0.012156;,
       0.001178; 0.122342;-0.017617;,
      -0.001178; 0.122342;-0.017617;,
      -0.001178; 0.112181;-0.017617;,
       0.001178; 0.112181;-0.017617;,
       0.003893; 0.122342; 0.011426;,
       0.005481; 0.122342; 0.009835;,
       0.005481; 0.112181; 0.009835;,
       0.003893; 0.112181; 0.011426;,
      -0.005483; 0.122342;-0.015302;,
      -0.006211; 0.122342;-0.012585;,
      -0.006211; 0.112181;-0.012585;,
      -0.005483; 0.112181;-0.015302;,
      -0.006211; 0.122342;-0.012585;,
      -0.006211; 0.122342; 0.007105;,
      -0.006211; 0.112181; 0.007105;,
      -0.006211; 0.112181;-0.012585;,
       0.005481; 0.122342; 0.009835;,
       0.006211; 0.122342; 0.007105;,
       0.006211; 0.112181; 0.007105;,
       0.005481; 0.112181; 0.009835;,
      -0.003896; 0.122342;-0.016889;,
      -0.005483; 0.122342;-0.015302;,
      -0.005483; 0.112181;-0.015302;,
      -0.003896; 0.112181;-0.016889;,
      -0.003893; 0.122342; 0.011426;,
      -0.001178; 0.122342; 0.012156;,
      -0.001178; 0.112181; 0.012156;,
      -0.003893; 0.112181; 0.011426;,
      -0.001178; 0.122342;-0.017617;,
      -0.003896; 0.122342;-0.016889;,
      -0.003896; 0.112181;-0.016889;,
      -0.001178; 0.112181;-0.017617;,
      -0.005481; 0.122342; 0.009835;,
      -0.003893; 0.122342; 0.011426;,
      -0.003893; 0.112181; 0.011426;,
      -0.005481; 0.112181; 0.009835;,
      -0.006211; 0.122342;-0.012585;,
      -0.005483; 0.122342;-0.015302;,
      -0.004023; 0.122342;-0.014459;,
      -0.004582; 0.122342;-0.012370;,
      -0.005483; 0.122342;-0.015302;,
      -0.003896; 0.122342;-0.016889;,
      -0.003053; 0.122342;-0.015429;,
      -0.004023; 0.122342;-0.014459;,
      -0.003896; 0.122342;-0.016889;,
      -0.001178; 0.122342;-0.017617;,
      -0.000964; 0.122342;-0.015988;,
      -0.003053; 0.122342;-0.015429;,
       0.005483; 0.122342;-0.015302;,
       0.006211; 0.122342;-0.012585;,
       0.004582; 0.122342;-0.012370;,
       0.004023; 0.122342;-0.014459;,
       0.003896; 0.122342;-0.016889;,
       0.005483; 0.122342;-0.015302;,
       0.004023; 0.122342;-0.014459;,
       0.003053; 0.122342;-0.015429;,
       0.001178; 0.122342;-0.017617;,
       0.003896; 0.122342;-0.016889;,
       0.003053; 0.122342;-0.015429;,
       0.000964; 0.122342;-0.015988;,
       0.003893; 0.122342; 0.011426;,
       0.001178; 0.122342; 0.012156;,
       0.000962; 0.122342; 0.010527;,
       0.003048; 0.122342; 0.009966;,
       0.005481; 0.122342; 0.009835;,
       0.003893; 0.122342; 0.011426;,
       0.003048; 0.122342; 0.009966;,
       0.004021; 0.122342; 0.008992;,
       0.006211; 0.122342; 0.007105;,
       0.005481; 0.122342; 0.009835;,
       0.004021; 0.122342; 0.008992;,
       0.004582; 0.122342; 0.006892;,
      -0.001178; 0.122342; 0.012156;,
      -0.003893; 0.122342; 0.011426;,
      -0.003048; 0.122342; 0.009966;,
      -0.000962; 0.122342; 0.010527;,
      -0.003893; 0.122342; 0.011426;,
      -0.005481; 0.122342; 0.009835;,
      -0.004021; 0.122342; 0.008992;,
      -0.003048; 0.122342; 0.009966;,
      -0.005481; 0.122342; 0.009835;,
      -0.006211; 0.122342; 0.007105;,
      -0.004582; 0.122342; 0.006892;,
      -0.004021; 0.122342; 0.008992;,
       0.006211; 0.122342;-0.012585;,
       0.006211; 0.122342; 0.007105;,
       0.004582; 0.122342; 0.006892;,
       0.004582; 0.122342;-0.012370;,
       0.001178; 0.122342; 0.012156;,
      -0.001178; 0.122342; 0.012156;,
      -0.000962; 0.122342; 0.010527;,
       0.000962; 0.122342; 0.010527;,
      -0.001178; 0.122342;-0.017617;,
       0.001178; 0.122342;-0.017617;,
       0.000964; 0.122342;-0.015988;,
      -0.000964; 0.122342;-0.015988;,
      -0.006211; 0.122342; 0.007105;,
      -0.006211; 0.122342;-0.012585;,
      -0.004582; 0.122342;-0.012370;,
      -0.004582; 0.122342; 0.006892;,
      -0.000962; 0.120808; 0.010527;,
      -0.003048; 0.120808; 0.009966;,
      -0.004021; 0.120808; 0.008992;,
      -0.004582; 0.120808; 0.006892;,
      -0.004582; 0.120808;-0.012370;,
      -0.004023; 0.120808;-0.014459;,
      -0.003053; 0.120808;-0.015429;,
      -0.000964; 0.120808;-0.015988;,
       0.000964; 0.120808;-0.015988;,
       0.003053; 0.120808;-0.015429;,
       0.004023; 0.120808;-0.014459;,
       0.004582; 0.120808;-0.012370;,
       0.004582; 0.120808; 0.006892;,
       0.004021; 0.120808; 0.008992;,
       0.003048; 0.120808; 0.009966;,
       0.000962; 0.120808; 0.010527;,
      -0.004021; 0.120808; 0.008992;,
      -0.003048; 0.120808; 0.009966;,
      -0.003048; 0.122342; 0.009966;,
      -0.004021; 0.122342; 0.008992;,
       0.004582; 0.120808;-0.012370;,
       0.004023; 0.120808;-0.014459;,
       0.004023; 0.122342;-0.014459;,
       0.004582; 0.122342;-0.012370;,
      -0.004582; 0.120808; 0.006892;,
      -0.004021; 0.120808; 0.008992;,
      -0.004021; 0.122342; 0.008992;,
      -0.004582; 0.122342; 0.006892;,
       0.004023; 0.120808;-0.014459;,
       0.003053; 0.120808;-0.015429;,
       0.003053; 0.122342;-0.015429;,
       0.004023; 0.122342;-0.014459;,
       0.004582; 0.120808; 0.006892;,
       0.004582; 0.120808;-0.012370;,
       0.004582; 0.122342;-0.012370;,
       0.004582; 0.122342; 0.006892;,
       0.003053; 0.120808;-0.015429;,
       0.000964; 0.120808;-0.015988;,
       0.000964; 0.122342;-0.015988;,
       0.003053; 0.122342;-0.015429;,
      -0.000962; 0.120808; 0.010527;,
       0.000962; 0.120808; 0.010527;,
       0.000962; 0.122342; 0.010527;,
      -0.000962; 0.122342; 0.010527;,
       0.000962; 0.120808; 0.010527;,
       0.003048; 0.120808; 0.009966;,
       0.003048; 0.122342; 0.009966;,
       0.000962; 0.122342; 0.010527;,
       0.000964; 0.120808;-0.015988;,
      -0.000964; 0.120808;-0.015988;,
      -0.000964; 0.122342;-0.015988;,
       0.000964; 0.122342;-0.015988;,
       0.003048; 0.120808; 0.009966;,
       0.004021; 0.120808; 0.008992;,
       0.004021; 0.122342; 0.008992;,
       0.003048; 0.122342; 0.009966;,
      -0.004023; 0.120808;-0.014459;,
      -0.004582; 0.120808;-0.012370;,
      -0.004582; 0.122342;-0.012370;,
      -0.004023; 0.122342;-0.014459;,
      -0.004582; 0.120808;-0.012370;,
      -0.004582; 0.120808; 0.006892;,
      -0.004582; 0.122342; 0.006892;,
      -0.004582; 0.122342;-0.012370;,
       0.004021; 0.120808; 0.008992;,
       0.004582; 0.120808; 0.006892;,
       0.004582; 0.122342; 0.006892;,
       0.004021; 0.122342; 0.008992;,
      -0.003053; 0.120808;-0.015429;,
      -0.004023; 0.120808;-0.014459;,
      -0.004023; 0.122342;-0.014459;,
      -0.003053; 0.122342;-0.015429;,
      -0.003048; 0.120808; 0.009966;,
      -0.000962; 0.120808; 0.010527;,
      -0.000962; 0.122342; 0.010527;,
      -0.003048; 0.122342; 0.009966;,
       0.001647;-0.065522; 0.017961;,
      -0.001647;-0.065522; 0.017961;,
      -0.001728;-0.064469; 0.018826;,
       0.001728;-0.064469; 0.018826;,
      -0.010387;-0.064469;-0.013134;,
      -0.009896;-0.065522;-0.012580;,
      -0.008791;-0.065522;-0.016705;,
      -0.009227;-0.064469;-0.017464;,
      -0.009227;-0.064469;-0.017464;,
      -0.008791;-0.065522;-0.016705;,
      -0.005772;-0.065522;-0.019725;,
      -0.006058;-0.064469;-0.020634;,
      -0.006058;-0.064469;-0.020634;,
      -0.005772;-0.065522;-0.019725;,
      -0.001647;-0.065522;-0.020830;,
      -0.001728;-0.064469;-0.021793;,
      -0.009896;-0.067013; 0.009832;,
      -0.009896;-0.065522; 0.009693;,
      -0.008791;-0.065522; 0.013826;,
      -0.008791;-0.067013; 0.013966;,
      -0.008791;-0.067013; 0.013966;,
      -0.008791;-0.065522; 0.013826;,
      -0.005772;-0.065522; 0.016853;,
      -0.005772;-0.067013; 0.016993;,
      -0.005772;-0.067013; 0.016993;,
      -0.005772;-0.065522; 0.016853;,
      -0.001647;-0.065522; 0.017961;,
      -0.001647;-0.067013; 0.018100;,
       0.009896;-0.067013;-0.012580;,
       0.009896;-0.065522;-0.012580;,
       0.008791;-0.065522;-0.016705;,
       0.008791;-0.067013;-0.016705;,
       0.008791;-0.067013;-0.016705;,
       0.008791;-0.065522;-0.016705;,
       0.005772;-0.065522;-0.019725;,
       0.005772;-0.067013;-0.019725;,
       0.005772;-0.067013;-0.019725;,
       0.005772;-0.065522;-0.019725;,
       0.001647;-0.065522;-0.020830;,
       0.001647;-0.067013;-0.020830;,
       0.010387;-0.064469; 0.010148;,
       0.009896;-0.065522; 0.009693;,
       0.008791;-0.065522; 0.013826;,
       0.009227;-0.064469; 0.014487;,
       0.009227;-0.064469; 0.014487;,
       0.008791;-0.065522; 0.013826;,
       0.005772;-0.065522; 0.016853;,
       0.006058;-0.064469; 0.017663;,
       0.006058;-0.064469; 0.017663;,
       0.005772;-0.065522; 0.016853;,
       0.001647;-0.065522; 0.017961;,
       0.001728;-0.064469; 0.018826;,
       0.009896;-0.065522; 0.009693;,
       0.009896;-0.065522;-0.012580;,
       0.009896;-0.067013;-0.012580;,
       0.009896;-0.067013; 0.009832;,
      -0.001647;-0.065522;-0.020830;,
       0.001647;-0.065522;-0.020830;,
       0.001728;-0.064469;-0.021793;,
      -0.001728;-0.064469;-0.021793;,
      -0.009896;-0.065522; 0.009693;,
      -0.009896;-0.065522;-0.012580;,
      -0.010387;-0.064469;-0.013134;,
      -0.010387;-0.064469; 0.010148;,
      -0.010387;-0.064469; 0.010148;,
      -0.010387;-0.064469;-0.013134;,
      -0.010387;-0.025194;-0.013134;,
      -0.010387;-0.025194; 0.006481;,
      -0.001728;-0.064469;-0.021793;,
       0.001728;-0.064469;-0.021793;,
       0.001728;-0.025194;-0.021793;,
      -0.001728;-0.025194;-0.021793;,
       0.006058;-0.025194; 0.013996;,
       0.006058;-0.064469; 0.017663;,
       0.001728;-0.064469; 0.018826;,
       0.001728;-0.025194; 0.015159;,
       0.009227;-0.025194; 0.010820;,
       0.009227;-0.064469; 0.014487;,
       0.006058;-0.064469; 0.017663;,
       0.006058;-0.025194; 0.013996;,
       0.010387;-0.025194; 0.006481;,
       0.010387;-0.064469; 0.010148;,
       0.009227;-0.064469; 0.014487;,
       0.009227;-0.025194; 0.010820;,
      -0.006058;-0.025194;-0.020634;,
      -0.006058;-0.064469;-0.020634;,
      -0.001728;-0.064469;-0.021793;,
      -0.001728;-0.025194;-0.021793;,
      -0.009227;-0.025194;-0.017464;,
      -0.009227;-0.064469;-0.017464;,
      -0.006058;-0.064469;-0.020634;,
      -0.006058;-0.025194;-0.020634;,
      -0.010387;-0.025194;-0.013134;,
      -0.010387;-0.064469;-0.013134;,
      -0.009227;-0.064469;-0.017464;,
      -0.009227;-0.025194;-0.017464;,
       0.001728;-0.064469; 0.018826;,
      -0.001728;-0.064469; 0.018826;,
      -0.001728;-0.025194; 0.015159;,
       0.001728;-0.025194; 0.015159;,
      -0.009896;-0.065522; 0.009693;,
      -0.010387;-0.064469; 0.010148;,
      -0.009227;-0.064469; 0.014487;,
      -0.008791;-0.065522; 0.013826;,
      -0.008791;-0.065522; 0.013826;,
      -0.009227;-0.064469; 0.014487;,
      -0.006058;-0.064469; 0.017663;,
      -0.005772;-0.065522; 0.016853;,
      -0.005772;-0.065522; 0.016853;,
      -0.006058;-0.064469; 0.017663;,
      -0.001728;-0.064469; 0.018826;,
      -0.001647;-0.065522; 0.017961;,
       0.009896;-0.065522;-0.012580;,
       0.010387;-0.064469;-0.013134;,
       0.009227;-0.064469;-0.017464;,
       0.008791;-0.065522;-0.016705;,
       0.008791;-0.065522;-0.016705;,
       0.009227;-0.064469;-0.017464;,
       0.006058;-0.064469;-0.020634;,
       0.005772;-0.065522;-0.019725;,
       0.005772;-0.065522;-0.019725;,
       0.006058;-0.064469;-0.020634;,
       0.001728;-0.064469;-0.021793;,
       0.001647;-0.065522;-0.020830;,
       0.010387;-0.064469; 0.010148;,
       0.010387;-0.064469;-0.013134;,
       0.009896;-0.065522;-0.012580;,
       0.009896;-0.065522; 0.009693;;
      130;
      16;15,14,13,12,11,10,9,8,7,6,5,4,3,2,1,0;,
      4;19,18,17,16;,
      4;23,22,21,20;,
      4;27,26,25,24;,
      4;31,30,29,28;,
      4;35,34,33,32;,
      4;39,38,37,36;,
      4;43,42,41,40;,
      4;47,46,45,44;,
      4;51,50,49,48;,
      4;55,54,53,52;,
      4;59,58,57,56;,
      4;63,62,61,60;,
      4;67,66,65,64;,
      4;71,70,69,68;,
      4;75,74,73,72;,
      4;79,78,77,76;,
      4;83,82,81,80;,
      4;87,86,85,84;,
      4;91,90,89,88;,
      4;95,94,93,92;,
      4;99,98,97,96;,
      4;103,102,101,100;,
      4;107,106,105,104;,
      4;111,110,109,108;,
      4;115,114,113,112;,
      4;119,118,117,116;,
      4;123,122,121,120;,
      4;127,126,125,124;,
      4;131,130,129,128;,
      4;135,134,133,132;,
      4;139,138,137,136;,
      4;143,142,141,140;,
      4;147,146,145,144;,
      4;151,150,149,148;,
      4;155,154,153,152;,
      4;159,158,157,156;,
      4;163,162,161,160;,
      4;167,166,165,164;,
      4;171,170,169,168;,
      4;175,174,173,172;,
      4;179,178,177,176;,
      4;183,182,181,180;,
      4;187,186,185,184;,
      4;191,190,189,188;,
      4;195,194,193,192;,
      4;199,198,197,196;,
      4;203,202,201,200;,
      4;207,206,205,204;,
      4;211,210,209,208;,
      4;215,214,213,212;,
      4;219,218,217,216;,
      4;223,222,221,220;,
      4;227,226,225,224;,
      4;231,230,229,228;,
      4;235,234,233,232;,
      4;239,238,237,236;,
      4;243,242,241,240;,
      4;247,246,245,244;,
      4;251,250,249,248;,
      4;255,254,253,252;,
      4;259,258,257,256;,
      4;263,262,261,260;,
      4;267,266,265,264;,
      4;271,270,269,268;,
      4;275,274,273,272;,
      4;279,278,277,276;,
      4;283,282,281,280;,
      4;287,286,285,284;,
      4;291,290,289,288;,
      4;295,294,293,292;,
      4;299,298,297,296;,
      4;303,302,301,300;,
      4;307,306,305,304;,
      4;311,310,309,308;,
      4;315,314,313,312;,
      4;319,318,317,316;,
      4;323,322,321,320;,
      4;327,326,325,324;,
      4;331,330,329,328;,
      4;335,334,333,332;,
      4;339,338,337,336;,
      16;355,354,353,352,351,350,349,348,347,346,345,344,343,342,341,340;,
      4;359,358,357,356;,
      4;363,362,361,360;,
      4;367,366,365,364;,
      4;371,370,369,368;,
      4;375,374,373,372;,
      4;379,378,377,376;,
      4;383,382,381,380;,
      4;387,386,385,384;,
      4;391,390,389,388;,
      4;395,394,393,392;,
      4;399,398,397,396;,
      4;403,402,401,400;,
      4;407,406,405,404;,
      4;411,410,409,408;,
      4;415,414,413,412;,
      4;419,418,417,416;,
      4;423,422,421,420;,
      4;427,426,425,424;,
      4;431,430,429,428;,
      4;435,434,433,432;,
      4;439,438,437,436;,
      4;443,442,441,440;,
      4;447,446,445,444;,
      4;451,450,449,448;,
      4;455,454,453,452;,
      4;459,458,457,456;,
      4;463,462,461,460;,
      4;467,466,465,464;,
      4;471,470,469,468;,
      4;475,474,473,472;,
      4;479,478,477,476;,
      4;483,482,481,480;,
      4;487,486,485,484;,
      4;491,490,489,488;,
      4;495,494,493,492;,
      4;499,498,497,496;,
      4;503,502,501,500;,
      4;507,506,505,504;,
      4;511,510,509,508;,
      4;515,514,513,512;,
      4;519,518,517,516;,
      4;523,522,521,520;,
      4;527,526,525,524;,
      4;531,530,529,528;,
      4;535,534,533,532;,
      4;539,538,537,536;,
      4;543,542,541,540;;
      MeshNormals {
        544;
         0.000000; 1.000000; 0.000000;,
         0.000000; 1.000000; 0.000000;,
         0.000000; 1.000000; 0.000000;,
         0.000000; 1.000000; 0.000000;,
         0.000000; 1.000000; 0.000000;,
         0.000000; 1.000000; 0.000000;,
         0.000000; 1.000000; 0.000000;,
         0.000000; 1.000000; 0.000000;,
         0.000000; 1.000000; 0.000000;,
         0.000000; 1.000000; 0.000000;,
         0.000000; 1.000000; 0.000000;,
         0.000000; 1.000000; 0.000000;,
         0.000000; 1.000000; 0.000000;,
         0.000000; 1.000000; 0.000000;,
         0.000000; 1.000000; 0.000000;,
         0.000000; 1.000000; 0.000000;,
         1.000000; 0.000000;-0.000000;,
         1.000000; 0.000000;-0.000000;,
         1.000000; 0.000000;-0.000000;,
         1.000000; 0.000000;-0.000000;,
         1.000000;-0.000000;-0.000000;,
         1.000000;-0.000000;-0.000000;,
         1.000000;-0.000000;-0.000000;,
         1.000000;-0.000000;-0.000000;,
         0.000000; 0.000000; 1.000000;,
         0.000000; 0.000000; 1.000000;,
         0.000000; 0.000000; 1.000000;,
         0.000000; 0.000000; 1.000000;,
        -1.000000; 0.000000; 0.000000;,
        -1.000000; 0.000000; 0.000000;,
        -1.000000; 0.000000; 0.000000;,
        -1.000000; 0.000000; 0.000000;,
        -1.000000;-0.000000; 0.000000;,
        -1.000000;-0.000000; 0.000000;,
        -1.000000;-0.000000; 0.000000;,
        -1.000000;-0.000000; 0.000000;,
         0.000000; 0.008537;-0.999964;,
         0.000000; 0.008537;-0.999964;,
         0.000000; 0.008537;-0.999964;,
         0.000000; 0.008537;-0.999964;,
        -0.965935; 0.000000; 0.258786;,
        -0.965935; 0.000000; 0.258786;,
        -0.965935; 0.000000; 0.258786;,
        -0.965935; 0.000000; 0.258786;,
         0.000000; 0.000000; 1.000000;,
         0.000000; 0.000000; 1.000000;,
         0.000000; 0.000000; 1.000000;,
         0.000000; 0.000000; 1.000000;,
        -0.258232;-0.090063;-0.961876;,
        -0.258232;-0.090063;-0.961876;,
        -0.258232;-0.090063;-0.961876;,
        -0.258232;-0.090063;-0.961876;,
        -0.706433;-0.066203;-0.704677;,
        -0.706433;-0.066202;-0.704677;,
        -0.706433;-0.066203;-0.704677;,
        -0.706433;-0.066203;-0.704677;,
        -0.965796;-0.024173;-0.258175;,
        -0.965796;-0.024173;-0.258175;,
        -0.965796;-0.024173;-0.258175;,
        -0.965796;-0.024173;-0.258175;,
        -0.258694; 0.000000; 0.965959;,
        -0.258694; 0.000000; 0.965959;,
        -0.258694; 0.000000; 0.965959;,
        -0.258694; 0.000000; 0.965959;,
        -0.707107; 0.000000; 0.707107;,
        -0.707107; 0.000000; 0.707107;,
        -0.707107; 0.000000; 0.707107;,
        -0.707107; 0.000000; 0.707107;,
        -0.965959; 0.000000; 0.258694;,
        -0.965959; 0.000000; 0.258694;,
        -0.965959; 0.000000; 0.258694;,
        -0.965959; 0.000000; 0.258694;,
         0.258233;-0.089809;-0.961899;,
         0.258233;-0.089809;-0.961899;,
         0.258233;-0.089809;-0.961899;,
         0.258233;-0.089809;-0.961899;,
         0.706305;-0.065809;-0.704842;,
         0.706306;-0.065809;-0.704842;,
         0.706305;-0.065809;-0.704842;,
         0.706306;-0.065809;-0.704842;,
         0.965819;-0.024098;-0.258096;,
         0.965819;-0.024098;-0.258096;,
         0.965819;-0.024098;-0.258096;,
         0.965819;-0.024098;-0.258096;,
         0.258773; 0.000000; 0.965938;,
         0.258773; 0.000000; 0.965938;,
         0.258773; 0.000000; 0.965938;,
         0.258773; 0.000000; 0.965938;,
         0.707217; 0.000000; 0.706996;,
         0.707217; 0.000000; 0.706996;,
         0.707217; 0.000000; 0.706996;,
         0.707217; 0.000000; 0.706996;,
         0.965938; 0.000000; 0.258772;,
         0.965938; 0.000000; 0.258772;,
         0.965938; 0.000000; 0.258772;,
         0.965938; 0.000000; 0.258772;,
         0.965959; 0.000000; 0.258694;,
         0.965959; 0.000000; 0.258694;,
         0.965959; 0.000000; 0.258694;,
         0.965959; 0.000000; 0.258694;,
         0.707107; 0.000000; 0.707107;,
         0.707107; 0.000000; 0.707107;,
         0.707107; 0.000000; 0.707107;,
         0.707107; 0.000000; 0.707107;,
         0.258694; 0.000000; 0.965959;,
         0.258694; 0.000000; 0.965959;,
         0.258694; 0.000000; 0.965959;,
         0.258694; 0.000000; 0.965959;,
        -0.965959; 0.000000; 0.258694;,
        -0.965959; 0.000000; 0.258694;,
        -0.965959; 0.000000; 0.258694;,
        -0.965959; 0.000000; 0.258694;,
        -0.707107; 0.000000; 0.707107;,
        -0.707107; 0.000000; 0.707107;,
        -0.707107; 0.000000; 0.707107;,
        -0.707107; 0.000000; 0.707107;,
        -0.258694; 0.000000; 0.965959;,
        -0.258694; 0.000000; 0.965959;,
        -0.258694; 0.000000; 0.965959;,
        -0.258694; 0.000000; 0.965959;,
        -0.259273; 0.008245;-0.965769;,
        -0.259273; 0.008245;-0.965769;,
        -0.259273; 0.008245;-0.965769;,
        -0.259273; 0.008245;-0.965769;,
        -0.707827; 0.006030;-0.706360;,
        -0.707827; 0.006030;-0.706360;,
        -0.707827; 0.006030;-0.706360;,
        -0.707827; 0.006030;-0.706360;,
        -0.966090; 0.002205;-0.258196;,
        -0.966090; 0.002205;-0.258196;,
        -0.966090; 0.002205;-0.258196;,
        -0.966090; 0.002205;-0.258196;,
         0.259272; 0.008245;-0.965769;,
         0.259272; 0.008245;-0.965769;,
         0.259272; 0.008245;-0.965769;,
         0.259272; 0.008245;-0.965769;,
         0.707827; 0.006030;-0.706360;,
         0.707827; 0.006030;-0.706360;,
         0.707827; 0.006030;-0.706360;,
         0.707827; 0.006030;-0.706360;,
         0.966090; 0.002205;-0.258196;,
         0.966090; 0.002205;-0.258196;,
         0.966090; 0.002205;-0.258196;,
         0.966090; 0.002205;-0.258196;,
         0.000000;-0.092913;-0.995674;,
         0.000000;-0.092913;-0.995674;,
         0.000000;-0.092913;-0.995674;,
         0.000000;-0.092913;-0.995674;,
         0.000000;-1.000000; 0.000001;,
         0.000000;-1.000000; 0.000001;,
         0.000000;-1.000000; 0.000001;,
         0.000000;-1.000000; 0.000001;,
         0.000000;-1.000000; 0.000000;,
         0.000000;-1.000000; 0.000000;,
         0.000000;-1.000000; 0.000000;,
         0.000000;-1.000000; 0.000000;,
         0.000000;-1.000000;-0.000002;,
         0.000000;-1.000000;-0.000002;,
         0.000000;-1.000000;-0.000002;,
         0.000000;-1.000000;-0.000002;,
         0.000000;-1.000000;-0.000001;,
         0.000000;-1.000000;-0.000001;,
         0.000000;-1.000000;-0.000001;,
         0.000000;-1.000000;-0.000001;,
         0.000000;-1.000000; 0.000000;,
         0.000000;-1.000000; 0.000000;,
         0.000000;-1.000000; 0.000000;,
         0.000000;-1.000000; 0.000000;,
         0.000000;-1.000000;-0.000004;,
         0.000000;-1.000000;-0.000004;,
         0.000000;-1.000000;-0.000004;,
         0.000000;-1.000000;-0.000004;,
         0.000000;-1.000000; 0.000002;,
         0.000000;-1.000000; 0.000002;,
         0.000000;-1.000000; 0.000002;,
         0.000000;-1.000000; 0.000002;,
         0.000000;-1.000000; 0.000000;,
         0.000000;-1.000000; 0.000000;,
         0.000000;-1.000000; 0.000000;,
         0.000000;-1.000000; 0.000000;,
         0.000000;-1.000000;-0.000000;,
         0.000000;-1.000000;-0.000000;,
         0.000000;-1.000000;-0.000000;,
         0.000000;-1.000000;-0.000000;,
         0.000000;-1.000000; 0.000000;,
         0.000000;-1.000000; 0.000000;,
         0.000000;-1.000000; 0.000000;,
         0.000000;-1.000000; 0.000000;,
         0.000000;-1.000000; 0.000001;,
         0.000000;-1.000000; 0.000001;,
         0.000000;-1.000000; 0.000001;,
         0.000000;-1.000000; 0.000001;,
         0.000000;-1.000000; 0.000002;,
         0.000000;-1.000000; 0.000002;,
         0.000000;-1.000000; 0.000002;,
         0.000000;-1.000000; 0.000002;,
         0.000000;-1.000000; 0.000000;,
         0.000000;-1.000000; 0.000000;,
         0.000000;-1.000000; 0.000000;,
         0.000000;-1.000000; 0.000000;,
         0.000000;-1.000000; 0.000002;,
         0.000000;-1.000000; 0.000002;,
         0.000000;-1.000000; 0.000002;,
         0.000000;-1.000000; 0.000002;,
         0.000000;-1.000000; 0.000000;,
         0.000000;-1.000000; 0.000000;,
         0.000000;-1.000000; 0.000000;,
         0.000000;-1.000000; 0.000000;,
         0.000000;-1.000000;-0.000000;,
         0.000000;-1.000000;-0.000000;,
         0.000000;-1.000000;-0.000000;,
         0.000000;-1.000000;-0.000000;,
        -0.258774; 0.000000;-0.965938;,
        -0.258774; 0.000000;-0.965938;,
        -0.258774; 0.000000;-0.965938;,
        -0.258774; 0.000000;-0.965938;,
         0.966058; 0.000000;-0.258326;,
         0.966058; 0.000000;-0.258326;,
         0.966058; 0.000000;-0.258326;,
         0.966058; 0.000000;-0.258326;,
        -0.707107; 0.000000; 0.707107;,
        -0.707107; 0.000000; 0.707107;,
        -0.707107; 0.000000; 0.707107;,
        -0.707107; 0.000000; 0.707107;,
        -1.000000; 0.000000; 0.000000;,
        -1.000000; 0.000000; 0.000000;,
        -1.000000; 0.000000; 0.000000;,
        -1.000000; 0.000000; 0.000000;,
        -0.258786; 0.000000; 0.965935;,
        -0.258786; 0.000000; 0.965935;,
        -0.258786; 0.000000; 0.965935;,
        -0.258786; 0.000000; 0.965935;,
         0.000000; 0.000000;-1.000000;,
         0.000000; 0.000000;-1.000000;,
         0.000000; 0.000000;-1.000000;,
         0.000000; 0.000000;-1.000000;,
        -0.259578; 0.000000;-0.965722;,
        -0.259578; 0.000000;-0.965722;,
        -0.259578; 0.000000;-0.965722;,
        -0.259578; 0.000000;-0.965722;,
         0.000000; 0.000000; 1.000000;,
         0.000000; 0.000000; 1.000000;,
         0.000000; 0.000000; 1.000000;,
         0.000000; 0.000000; 1.000000;,
        -0.707734; 0.000000;-0.706479;,
        -0.707734; 0.000000;-0.706479;,
        -0.707734; 0.000000;-0.706479;,
        -0.707734; 0.000000;-0.706479;,
         0.965935; 0.000000; 0.258786;,
         0.965935; 0.000000; 0.258786;,
         0.965935; 0.000000; 0.258786;,
         0.965935; 0.000000; 0.258786;,
         1.000000; 0.000000;-0.000000;,
         1.000000; 0.000000;-0.000000;,
         1.000000; 0.000000;-0.000000;,
         1.000000; 0.000000;-0.000000;,
        -0.966058; 0.000000;-0.258325;,
        -0.966058; 0.000000;-0.258325;,
        -0.966058; 0.000000;-0.258325;,
        -0.966058; 0.000000;-0.258325;,
         0.707107; 0.000000; 0.707106;,
         0.707107; 0.000000; 0.707106;,
         0.707107; 0.000000; 0.707106;,
         0.707107; 0.000000; 0.707106;,
         0.259578; 0.000000;-0.965722;,
         0.259578; 0.000000;-0.965722;,
         0.259578; 0.000000;-0.965722;,
         0.259578; 0.000000;-0.965722;,
         0.258786; 0.000000; 0.965935;,
         0.258786; 0.000000; 0.965935;,
         0.258786; 0.000000; 0.965935;,
         0.258786; 0.000000; 0.965935;,
         0.707734; 0.000000;-0.706479;,
         0.707734; 0.000000;-0.706479;,
         0.707734; 0.000000;-0.706479;,
         0.707734; 0.000000;-0.706479;,
         0.000000;-1.000000; 0.000000;,
         0.000000;-1.000000; 0.000000;,
         0.000000;-1.000000; 0.000000;,
         0.000000;-1.000000; 0.000000;,
         0.000000;-1.000000;-0.000002;,
         0.000000;-1.000000;-0.000002;,
         0.000000;-1.000000;-0.000002;,
         0.000000;-1.000000;-0.000002;,
         0.000000;-1.000000; 0.000000;,
         0.000000;-1.000000; 0.000000;,
         0.000000;-1.000000; 0.000000;,
         0.000000;-1.000000; 0.000000;,
         0.000000;-1.000000; 0.000002;,
         0.000000;-1.000000; 0.000002;,
         0.000000;-1.000000; 0.000002;,
         0.000000;-1.000000; 0.000002;,
         0.000000;-1.000000;-0.000002;,
         0.000000;-1.000000;-0.000002;,
         0.000000;-1.000000;-0.000002;,
         0.000000;-1.000000;-0.000002;,
         0.000000;-1.000000;-0.000007;,
         0.000000;-1.000000;-0.000007;,
         0.000000;-1.000000;-0.000007;,
         0.000000;-1.000000;-0.000007;,
         0.000000;-1.000000; 0.000000;,
         0.000000;-1.000000; 0.000000;,
         0.000000;-1.000000; 0.000000;,
         0.000000;-1.000000; 0.000000;,
         0.000000;-1.000000; 0.000000;,
         0.000000;-1.000000; 0.000000;,
         0.000000;-1.000000; 0.000000;,
         0.000000;-1.000000; 0.000000;,
         0.000000;-1.000000;-0.000002;,
         0.000000;-1.000000;-0.000002;,
         0.000000;-1.000000;-0.000002;,
         0.000000;-1.000000;-0.000002;,
         0.000000;-1.000000; 0.000000;,
         0.000000;-1.000000; 0.000000;,
         0.000000;-1.000000; 0.000000;,
         0.000000;-1.000000; 0.000000;,
         0.000000;-1.000000; 0.000000;,
         0.000000;-1.000000; 0.000000;,
         0.000000;-1.000000; 0.000000;,
         0.000000;-1.000000; 0.000000;,
         0.000000;-1.000000;-0.000004;,
         0.000000;-1.000000;-0.000004;,
         0.000000;-1.000000;-0.000004;,
         0.000000;-1.000000;-0.000004;,
         0.000000;-1.000000;-0.000000;,
         0.000000;-1.000000;-0.000000;,
         0.000000;-1.000000;-0.000000;,
         0.000000;-1.000000;-0.000000;,
         0.000000;-1.000000;-0.000004;,
         0.000000;-1.000000;-0.000004;,
         0.000000;-1.000000;-0.000004;,
         0.000000;-1.000000;-0.000004;,
         0.000000;-1.000000; 0.000000;,
         0.000000;-1.000000; 0.000000;,
         0.000000;-1.000000; 0.000000;,
         0.000000;-1.000000; 0.000000;,
         0.000000;-1.000000; 0.000000;,
         0.000000;-1.000000; 0.000000;,
         0.000000;-1.000000; 0.000000;,
         0.000000;-1.000000; 0.000000;,
         0.000000;-1.000000; 0.000000;,
         0.000000;-1.000000; 0.000000;,
         0.000000;-1.000000; 0.000000;,
         0.000000;-1.000000; 0.000000;,
         0.000000;-1.000000; 0.000000;,
         0.000000;-1.000000; 0.000000;,
         0.000000;-1.000000; 0.000000;,
         0.000000;-1.000000; 0.000000;,
         0.000000;-1.000000; 0.000000;,
         0.000000;-1.000000; 0.000000;,
         0.000000;-1.000000; 0.000000;,
         0.000000;-1.000000; 0.000000;,
         0.000000;-1.000000; 0.000000;,
         0.000000;-1.000000; 0.000000;,
         0.000000;-1.000000; 0.000000;,
         0.000000;-1.000000; 0.000000;,
        -0.707789; 0.000000; 0.706424;,
        -0.707789; 0.000000; 0.706424;,
        -0.707789; 0.000000; 0.706424;,
        -0.707789; 0.000000; 0.706424;,
         0.965938; 0.000000;-0.258773;,
         0.965938; 0.000000;-0.258773;,
         0.965938; 0.000000;-0.258773;,
         0.965938; 0.000000;-0.258773;,
        -0.966070; 0.000000; 0.258281;,
        -0.966070; 0.000000; 0.258281;,
        -0.966070; 0.000000; 0.258281;,
        -0.966070; 0.000000; 0.258281;,
         0.707107; 0.000000;-0.707106;,
         0.707107; 0.000000;-0.707106;,
         0.707107; 0.000000;-0.707106;,
         0.707107; 0.000000;-0.707106;,
         1.000000; 0.000000;-0.000000;,
         1.000000; 0.000000;-0.000000;,
         1.000000; 0.000000;-0.000000;,
         1.000000; 0.000000;-0.000000;,
         0.258774; 0.000000;-0.965938;,
         0.258774; 0.000000;-0.965938;,
         0.258774; 0.000000;-0.965938;,
         0.258774; 0.000000;-0.965938;,
         0.000000; 0.000000; 1.000000;,
         0.000000; 0.000000; 1.000000;,
         0.000000; 0.000000; 1.000000;,
         0.000000; 0.000000; 1.000000;,
         0.259506; 0.000000; 0.965741;,
         0.259506; 0.000000; 0.965741;,
         0.259506; 0.000000; 0.965741;,
         0.259506; 0.000000; 0.965741;,
         0.000000; 0.000000;-1.000000;,
         0.000000; 0.000000;-1.000000;,
         0.000000; 0.000000;-1.000000;,
         0.000000; 0.000000;-1.000000;,
         0.707789; 0.000000; 0.706424;,
         0.707789; 0.000000; 0.706424;,
         0.707789; 0.000000; 0.706424;,
         0.707789; 0.000000; 0.706424;,
        -0.965938; 0.000000;-0.258773;,
        -0.965938; 0.000000;-0.258773;,
        -0.965938; 0.000000;-0.258773;,
        -0.965938; 0.000000;-0.258773;,
        -1.000000; 0.000000; 0.000000;,
        -1.000000; 0.000000; 0.000000;,
        -1.000000; 0.000000; 0.000000;,
        -1.000000; 0.000000; 0.000000;,
         0.966069; 0.000000; 0.258283;,
         0.966069; 0.000000; 0.258283;,
         0.966069; 0.000000; 0.258283;,
         0.966069; 0.000000; 0.258283;,
        -0.707107; 0.000000;-0.707106;,
        -0.707107; 0.000000;-0.707106;,
        -0.707107; 0.000000;-0.707106;,
        -0.707107; 0.000000;-0.707106;,
        -0.259506; 0.000000; 0.965741;,
        -0.259506; 0.000000; 0.965741;,
        -0.259506; 0.000000; 0.965741;,
        -0.259506; 0.000000; 0.965741;,
         0.000000; 0.635078;-0.772448;,
         0.000000; 0.635078;-0.772448;,
         0.000000; 0.635078;-0.772448;,
         0.000000; 0.635078;-0.772448;,
         0.833048; 0.506202; 0.223135;,
         0.833049; 0.506202; 0.223135;,
         0.833049; 0.506202; 0.223135;,
         0.833049; 0.506202; 0.223135;,
         0.551441; 0.626033; 0.551358;,
         0.551441; 0.626033; 0.551358;,
         0.551441; 0.626033; 0.551358;,
         0.551441; 0.626033; 0.551358;,
         0.191933; 0.670602; 0.716558;,
         0.191933; 0.670602; 0.716558;,
         0.191933; 0.670602; 0.716558;,
         0.191933; 0.670602; 0.716558;,
         0.965796;-0.024173;-0.258176;,
         0.965796;-0.024173;-0.258176;,
         0.965796;-0.024173;-0.258176;,
         0.965796;-0.024173;-0.258176;,
         0.706433;-0.066202;-0.704677;,
         0.706433;-0.066202;-0.704677;,
         0.706433;-0.066202;-0.704677;,
         0.706433;-0.066202;-0.704677;,
         0.258233;-0.090063;-0.961875;,
         0.258233;-0.090063;-0.961875;,
         0.258233;-0.090063;-0.961875;,
         0.258233;-0.090063;-0.961875;,
        -0.965938; 0.000000; 0.258773;,
        -0.965938; 0.000000; 0.258773;,
        -0.965938; 0.000000; 0.258773;,
        -0.965938; 0.000000; 0.258773;,
        -0.707217; 0.000000; 0.706996;,
        -0.707217; 0.000000; 0.706996;,
        -0.707217; 0.000000; 0.706996;,
        -0.707217; 0.000000; 0.706996;,
        -0.258773; 0.000000; 0.965938;,
        -0.258773; 0.000000; 0.965938;,
        -0.258773; 0.000000; 0.965938;,
        -0.258773; 0.000000; 0.965938;,
        -0.841985; 0.490319;-0.225052;,
        -0.841985; 0.490319;-0.225052;,
        -0.841985; 0.490319;-0.225052;,
        -0.841985; 0.490319;-0.225052;,
        -0.569910; 0.593195;-0.568615;,
        -0.569910; 0.593195;-0.568615;,
        -0.569910; 0.593195;-0.568615;,
        -0.569910; 0.593195;-0.568615;,
        -0.201105; 0.631385;-0.748939;,
        -0.201105; 0.631385;-0.748939;,
        -0.201105; 0.631385;-0.748939;,
        -0.201105; 0.631384;-0.748939;,
        -1.000000; 0.000000; 0.000000;,
        -1.000000; 0.000000; 0.000000;,
        -1.000000; 0.000000; 0.000000;,
        -1.000000; 0.000000; 0.000000;,
         0.000000; 0.675099; 0.737728;,
         0.000000; 0.675099; 0.737728;,
         0.000000; 0.675099; 0.737728;,
         0.000000; 0.675099; 0.737728;,
         0.906245; 0.422752;-0.000000;,
         0.906245; 0.422752;-0.000000;,
         0.906245; 0.422752;-0.000000;,
         0.906245; 0.422752;-0.000000;,
         1.000000; 0.000000;-0.000000;,
         1.000000; 0.000000;-0.000000;,
         1.000000; 0.000000;-0.000000;,
         1.000000; 0.000000;-0.000000;,
         0.000000; 0.000000; 1.000000;,
         0.000000; 0.000000; 1.000000;,
         0.000000; 0.000000; 1.000000;,
         0.000000; 0.000000; 1.000000;,
        -0.258233;-0.089809;-0.961899;,
        -0.258233;-0.089809;-0.961899;,
        -0.258233;-0.089809;-0.961899;,
        -0.258233;-0.089809;-0.961899;,
        -0.706306;-0.065809;-0.704841;,
        -0.706306;-0.065809;-0.704841;,
        -0.706306;-0.065809;-0.704841;,
        -0.706306;-0.065809;-0.704841;,
        -0.965819;-0.024098;-0.258096;,
        -0.965819;-0.024098;-0.258096;,
        -0.965819;-0.024098;-0.258096;,
        -0.965819;-0.024098;-0.258096;,
         0.258694; 0.000000; 0.965959;,
         0.258694; 0.000000; 0.965959;,
         0.258694; 0.000000; 0.965959;,
         0.258694; 0.000000; 0.965959;,
         0.707107; 0.000000; 0.707107;,
         0.707107; 0.000000; 0.707107;,
         0.707107; 0.000000; 0.707107;,
         0.707107; 0.000000; 0.707107;,
         0.965959; 0.000000; 0.258694;,
         0.965959; 0.000000; 0.258694;,
         0.965959; 0.000000; 0.258694;,
         0.965959; 0.000000; 0.258694;,
         0.000000;-0.092963;-0.995670;,
         0.000000;-0.092963;-0.995670;,
         0.000000;-0.092963;-0.995670;,
         0.000000;-0.092963;-0.995670;,
         0.841985; 0.490319;-0.225052;,
         0.841985; 0.490319;-0.225052;,
         0.841985; 0.490319;-0.225052;,
         0.841985; 0.490319;-0.225052;,
         0.569909; 0.593195;-0.568615;,
         0.569910; 0.593195;-0.568615;,
         0.569910; 0.593195;-0.568615;,
         0.569910; 0.593195;-0.568615;,
         0.201106; 0.631386;-0.748938;,
         0.201106; 0.631386;-0.748938;,
         0.201106; 0.631386;-0.748938;,
         0.201106; 0.631386;-0.748938;,
        -0.833048; 0.506204; 0.223135;,
        -0.833048; 0.506204; 0.223135;,
        -0.833048; 0.506204; 0.223135;,
        -0.833048; 0.506204; 0.223135;,
        -0.551441; 0.626033; 0.551358;,
        -0.551441; 0.626033; 0.551358;,
        -0.551441; 0.626033; 0.551358;,
        -0.551441; 0.626033; 0.551358;,
        -0.191933; 0.670602; 0.716558;,
        -0.191933; 0.670602; 0.716558;,
        -0.191933; 0.670602; 0.716558;,
        -0.191933; 0.670602; 0.716558;,
        -0.906245; 0.422753; 0.000000;,
        -0.906245; 0.422752; 0.000000;,
        -0.906245; 0.422752; 0.000000;,
        -0.906245; 0.422752; 0.000000;;
        130;
        16;15,14,13,12,11,10,9,8,7,6,5,4,3,2,1,0;,
        4;19,18,17,16;,
        4;23,22,21,20;,
        4;27,26,25,24;,
        4;31,30,29,28;,
        4;35,34,33,32;,
        4;39,38,37,36;,
        4;43,42,41,40;,
        4;47,46,45,44;,
        4;51,50,49,48;,
        4;55,54,53,52;,
        4;59,58,57,56;,
        4;63,62,61,60;,
        4;67,66,65,64;,
        4;71,70,69,68;,
        4;75,74,73,72;,
        4;79,78,77,76;,
        4;83,82,81,80;,
        4;87,86,85,84;,
        4;91,90,89,88;,
        4;95,94,93,92;,
        4;99,98,97,96;,
        4;103,102,101,100;,
        4;107,106,105,104;,
        4;111,110,109,108;,
        4;115,114,113,112;,
        4;119,118,117,116;,
        4;123,122,121,120;,
        4;127,126,125,124;,
        4;131,130,129,128;,
        4;135,134,133,132;,
        4;139,138,137,136;,
        4;143,142,141,140;,
        4;147,146,145,144;,
        4;151,150,149,148;,
        4;155,154,153,152;,
        4;159,158,157,156;,
        4;163,162,161,160;,
        4;167,166,165,164;,
        4;171,170,169,168;,
        4;175,174,173,172;,
        4;179,178,177,176;,
        4;183,182,181,180;,
        4;187,186,185,184;,
        4;191,190,189,188;,
        4;195,194,193,192;,
        4;199,198,197,196;,
        4;203,202,201,200;,
        4;207,206,205,204;,
        4;211,210,209,208;,
        4;215,214,213,212;,
        4;219,218,217,216;,
        4;223,222,221,220;,
        4;227,226,225,224;,
        4;231,230,229,228;,
        4;235,234,233,232;,
        4;239,238,237,236;,
        4;243,242,241,240;,
        4;247,246,245,244;,
        4;251,250,249,248;,
        4;255,254,253,252;,
        4;259,258,257,256;,
        4;263,262,261,260;,
        4;267,266,265,264;,
        4;271,270,269,268;,
        4;275,274,273,272;,
        4;279,278,277,276;,
        4;283,282,281,280;,
        4;287,286,285,284;,
        4;291,290,289,288;,
        4;295,294,293,292;,
        4;299,298,297,296;,
        4;303,302,301,300;,
        4;307,306,305,304;,
        4;311,310,309,308;,
        4;315,314,313,312;,
        4;319,318,317,316;,
        4;323,322,321,320;,
        4;327,326,325,324;,
        4;331,330,329,328;,
        4;335,334,333,332;,
        4;339,338,337,336;,
        16;355,354,353,352,351,350,349,348,347,346,345,344,343,342,341,340;,
        4;359,358,357,356;,
        4;363,362,361,360;,
        4;367,366,365,364;,
        4;371,370,369,368;,
        4;375,374,373,372;,
        4;379,378,377,376;,
        4;383,382,381,380;,
        4;387,386,385,384;,
        4;391,390,389,388;,
        4;395,394,393,392;,
        4;399,398,397,396;,
        4;403,402,401,400;,
        4;407,406,405,404;,
        4;411,410,409,408;,
        4;415,414,413,412;,
        4;419,418,417,416;,
        4;423,422,421,420;,
        4;427,426,425,424;,
        4;431,430,429,428;,
        4;435,434,433,432;,
        4;439,438,437,436;,
        4;443,442,441,440;,
        4;447,446,445,444;,
        4;451,450,449,448;,
        4;455,454,453,452;,
        4;459,458,457,456;,
        4;463,462,461,460;,
        4;467,466,465,464;,
        4;471,470,469,468;,
        4;475,474,473,472;,
        4;479,478,477,476;,
        4;483,482,481,480;,
        4;487,486,485,484;,
        4;491,490,489,488;,
        4;495,494,493,492;,
        4;499,498,497,496;,
        4;503,502,501,500;,
        4;507,506,505,504;,
        4;511,510,509,508;,
        4;515,514,513,512;,
        4;519,518,517,516;,
        4;523,522,521,520;,
        4;527,526,525,524;,
        4;531,530,529,528;,
        4;535,534,533,532;,
        4;539,538,537,536;,
        4;543,542,541,540;;
      }
      MeshTextureCoords {
        544;
         0.659686; 1.779179;,
         0.682880; 1.785408;,
         0.699860; 1.802426;,
         0.706075; 1.825674;,
         0.706075; 1.951697;,
         0.699860; 1.974892;,
         0.682880; 1.991872;,
         0.659686; 1.998087;,
         0.641170; 1.998087;,
         0.617975; 1.991872;,
         0.600995; 1.974892;,
         0.594780; 1.951697;,
         0.594780; 1.825674;,
         0.600995; 1.802426;,
         0.617975; 1.785408;,
         0.641170; 1.779179;,
         0.982326; 1.907398;,
         0.984065; 1.781386;,
         0.992454; 1.781502;,
         0.990726; 1.906730;,
         0.096882; 1.002635;,
         0.213348; 1.002098;,
         0.210252; 1.776053;,
         0.099017; 1.775086;,
         0.985059; 1.709353;,
         0.985315; 1.690839;,
         0.993704; 1.690955;,
         0.993449; 1.709469;,
         0.510799; 1.224602;,
         0.399930; 1.225334;,
         0.397880; 1.004911;,
         0.527617; 1.003233;,
         0.515768; 1.998028;,
         0.399135; 1.997786;,
         0.399930; 1.225334;,
         0.510799; 1.224602;,
         0.288726; 1.001946;,
         0.308177; 1.002007;,
         0.305754; 1.775166;,
         0.286297; 1.775759;,
         0.764128; 1.768930;,
         0.764128; 1.753109;,
         0.821267; 1.753109;,
         0.821267; 1.768930;,
         0.001918; 1.002911;,
         0.021336; 1.002856;,
         0.023493; 1.774740;,
         0.004119; 1.774665;,
         0.674429; 1.756081;,
         0.682826; 1.756787;,
         0.681391; 1.780761;,
         0.672994; 1.780055;,
         0.674863; 1.732044;,
         0.683259; 1.732750;,
         0.682826; 1.756787;,
         0.674429; 1.756081;,
         0.674717; 1.707981;,
         0.683114; 1.708687;,
         0.683259; 1.732750;,
         0.674863; 1.732044;,
         0.347643; 1.005344;,
         0.349559; 1.225554;,
         0.324398; 1.225654;,
         0.322524; 1.005558;,
         0.372762; 1.005129;,
         0.374736; 1.225447;,
         0.349559; 1.225554;,
         0.347643; 1.005344;,
         0.397880; 1.004911;,
         0.399930; 1.225334;,
         0.374736; 1.225447;,
         0.372762; 1.005129;,
         0.275350; 1.998082;,
         0.260994; 1.776269;,
         0.286297; 1.775759;,
         0.300358; 1.997087;,
         0.250362; 1.998069;,
         0.235622; 1.776298;,
         0.260994; 1.776269;,
         0.275350; 1.998082;,
         0.225284; 1.997498;,
         0.210252; 1.776053;,
         0.235622; 1.776298;,
         0.250362; 1.998069;,
         0.993117; 1.733480;,
         0.984728; 1.733364;,
         0.985059; 1.709353;,
         0.993449; 1.709469;,
         0.992786; 1.757491;,
         0.984397; 1.757375;,
         0.984728; 1.733364;,
         0.993117; 1.733480;,
         0.992454; 1.781502;,
         0.984065; 1.781386;,
         0.984397; 1.757375;,
         0.992786; 1.757491;,
         0.073820; 1.774961;,
         0.071699; 1.002709;,
         0.096882; 1.002635;,
         0.099017; 1.775086;,
         0.048645; 1.774846;,
         0.046517; 1.002783;,
         0.071699; 1.002709;,
         0.073820; 1.774961;,
         0.023493; 1.774740;,
         0.021336; 1.002856;,
         0.046517; 1.002783;,
         0.048645; 1.774846;,
         0.373943; 1.997757;,
         0.374736; 1.225447;,
         0.399930; 1.225334;,
         0.399135; 1.997786;,
         0.348751; 1.997729;,
         0.349559; 1.225554;,
         0.374736; 1.225447;,
         0.373943; 1.997757;,
         0.323561; 1.997701;,
         0.324398; 1.225654;,
         0.349559; 1.225554;,
         0.348751; 1.997729;,
         0.566005; 1.998078;,
         0.561444; 1.224550;,
         0.586668; 1.225144;,
         0.591226; 1.997986;,
         0.540936; 1.998078;,
         0.536130; 1.224438;,
         0.561444; 1.224550;,
         0.566005; 1.998078;,
         0.515768; 1.998028;,
         0.510799; 1.224602;,
         0.536130; 1.224438;,
         0.540936; 1.998078;,
         0.260994; 1.776269;,
         0.263599; 1.001921;,
         0.288726; 1.001946;,
         0.286297; 1.775759;,
         0.235622; 1.776298;,
         0.238523; 1.001985;,
         0.263599; 1.001921;,
         0.260994; 1.776269;,
         0.210252; 1.776053;,
         0.213348; 1.002098;,
         0.238523; 1.001985;,
         0.235622; 1.776298;,
         0.985184; 1.997936;,
         0.983718; 1.979479;,
         0.992118; 1.978811;,
         0.993584; 1.997269;,
         0.868578; 1.929686;,
         0.892923; 1.936209;,
         0.880768; 1.957263;,
         0.865486; 1.953168;,
         0.892923; 1.936209;,
         0.910745; 1.954031;,
         0.889691; 1.966186;,
         0.880768; 1.957263;,
         0.910745; 1.954031;,
         0.917268; 1.978376;,
         0.893786; 1.981467;,
         0.889691; 1.966186;,
         0.865782; 1.911925;,
         0.859258; 1.887580;,
         0.882740; 1.884488;,
         0.886836; 1.899769;,
         0.883605; 1.929746;,
         0.865782; 1.911925;,
         0.886836; 1.899769;,
         0.895760; 1.908692;,
         0.907950; 1.936268;,
         0.883605; 1.929746;,
         0.895760; 1.908692;,
         0.911041; 1.912786;,
         0.883597; 1.728426;,
         0.907942; 1.721888;,
         0.911041; 1.745370;,
         0.895771; 1.749471;,
         0.865776; 1.746286;,
         0.883597; 1.728426;,
         0.895771; 1.749471;,
         0.886838; 1.758423;,
         0.859254; 1.770683;,
         0.865776; 1.746286;,
         0.886838; 1.758423;,
         0.882736; 1.773767;,
         0.702888; 1.978376;,
         0.709425; 1.954031;,
         0.730470; 1.966204;,
         0.726370; 1.981474;,
         0.709425; 1.954031;,
         0.727284; 1.936209;,
         0.739422; 1.957271;,
         0.730470; 1.966204;,
         0.727284; 1.936209;,
         0.751680; 1.929686;,
         0.754766; 1.953168;,
         0.739422; 1.957271;,
         0.859258; 1.887580;,
         0.859254; 1.770683;,
         0.882736; 1.773767;,
         0.882740; 1.884488;,
         0.702888; 1.997810;,
         0.702888; 1.978376;,
         0.726370; 1.981474;,
         0.726370; 1.994712;,
         0.917268; 1.978376;,
         0.917268; 1.997810;,
         0.893786; 1.994718;,
         0.893786; 1.981467;,
         0.751680; 1.929686;,
         0.868578; 1.929686;,
         0.865486; 1.953168;,
         0.754766; 1.953168;,
         0.854376; 1.707493;,
         0.854376; 1.719653;,
         0.845749; 1.719653;,
         0.845749; 1.707493;,
         0.978236; 1.940505;,
         0.978235; 1.956388;,
         0.921097; 1.956388;,
         0.921097; 1.940505;,
         0.764128; 1.753109;,
         0.764128; 1.740489;,
         0.821267; 1.740489;,
         0.821267; 1.753109;,
         0.764128; 1.879650;,
         0.764128; 1.768930;,
         0.821267; 1.768930;,
         0.821267; 1.879650;,
         0.764128; 1.740489;,
         0.764128; 1.724669;,
         0.821267; 1.724669;,
         0.821267; 1.740489;,
         0.978235; 1.984845;,
         0.978235; 1.998084;,
         0.921097; 1.998084;,
         0.921097; 1.984845;,
         0.764128; 1.923990;,
         0.764128; 1.908179;,
         0.821267; 1.908179;,
         0.821267; 1.923990;,
         0.978236; 1.772273;,
         0.978236; 1.785524;,
         0.921097; 1.785524;,
         0.921097; 1.772273;,
         0.764128; 1.908179;,
         0.764128; 1.895533;,
         0.821267; 1.895533;,
         0.821267; 1.908179;,
         0.978236; 1.813964;,
         0.978236; 1.829785;,
         0.921097; 1.829785;,
         0.921097; 1.813964;,
         0.978236; 1.829785;,
         0.978236; 1.940505;,
         0.921097; 1.940505;,
         0.921097; 1.829785;,
         0.764128; 1.895533;,
         0.764128; 1.879650;,
         0.821267; 1.879650;,
         0.821267; 1.895533;,
         0.978236; 1.801344;,
         0.978236; 1.813964;,
         0.921097; 1.813964;,
         0.921097; 1.801344;,
         0.978235; 1.969034;,
         0.978235; 1.984845;,
         0.921097; 1.984845;,
         0.921097; 1.969034;,
         0.978236; 1.785524;,
         0.978236; 1.801344;,
         0.921097; 1.801344;,
         0.921097; 1.785524;,
         0.978235; 1.956388;,
         0.978235; 1.969034;,
         0.921097; 1.969034;,
         0.921097; 1.956388;,
         0.689617; 1.664792;,
         0.693711; 1.649510;,
         0.701923; 1.654251;,
         0.698776; 1.665998;,
         0.693711; 1.649510;,
         0.702634; 1.640586;,
         0.707375; 1.648798;,
         0.701923; 1.654251;,
         0.702634; 1.640586;,
         0.717915; 1.636491;,
         0.719121; 1.645650;,
         0.707375; 1.648798;,
         0.740326; 1.753763;,
         0.744422; 1.769044;,
         0.735262; 1.770250;,
         0.732114; 1.758504;,
         0.731402; 1.744840;,
         0.740326; 1.753763;,
         0.732114; 1.758504;,
         0.726661; 1.753052;,
         0.716120; 1.740746;,
         0.731402; 1.744840;,
         0.726661; 1.753052;,
         0.714915; 1.749905;,
         0.731394; 1.904061;,
         0.716124; 1.908162;,
         0.714915; 1.899003;,
         0.726645; 1.895853;,
         0.740326; 1.895109;,
         0.731394; 1.904061;,
         0.726645; 1.895853;,
         0.732111; 1.890375;,
         0.744428; 1.879765;,
         0.740326; 1.895109;,
         0.732111; 1.890375;,
         0.735269; 1.878562;,
         0.717928; 1.803907;,
         0.702658; 1.799808;,
         0.707405; 1.791599;,
         0.719136; 1.794748;,
         0.702658; 1.799808;,
         0.693724; 1.790856;,
         0.701939; 1.786122;,
         0.707405; 1.791599;,
         0.693724; 1.790856;,
         0.689621; 1.775513;,
         0.698780; 1.774309;,
         0.701939; 1.786122;,
         0.744422; 1.769044;,
         0.744428; 1.879765;,
         0.735269; 1.878562;,
         0.735262; 1.770250;,
         0.731166; 1.803907;,
         0.717928; 1.803907;,
         0.719136; 1.794748;,
         0.729957; 1.794748;,
         0.717915; 1.636491;,
         0.731166; 1.636491;,
         0.729961; 1.645650;,
         0.719121; 1.645650;,
         0.689621; 1.775513;,
         0.689617; 1.664792;,
         0.698776; 1.665998;,
         0.698780; 1.774309;,
         0.624808; 1.629262;,
         0.636538; 1.632412;,
         0.642004; 1.637889;,
         0.645163; 1.649702;,
         0.645163; 1.758013;,
         0.642015; 1.769759;,
         0.636562; 1.775212;,
         0.624816; 1.778360;,
         0.613977; 1.778360;,
         0.602231; 1.775212;,
         0.596778; 1.769759;,
         0.593631; 1.758013;,
         0.593631; 1.649702;,
         0.596790; 1.637889;,
         0.602256; 1.632412;,
         0.613986; 1.629262;,
         0.854376; 1.860064;,
         0.854376; 1.867802;,
         0.845749; 1.867802;,
         0.845749; 1.860064;,
         0.311197; 1.658373;,
         0.311197; 1.646213;,
         0.319824; 1.646213;,
         0.319824; 1.658373;,
         0.854376; 1.847836;,
         0.854376; 1.860064;,
         0.845749; 1.860064;,
         0.845749; 1.847836;,
         0.311197; 1.646213;,
         0.311197; 1.638501;,
         0.319824; 1.638501;,
         0.319824; 1.646213;,
         0.311197; 1.766685;,
         0.311197; 1.658373;,
         0.319824; 1.658373;,
         0.319824; 1.766685;,
         0.311197; 1.638501;,
         0.311197; 1.626341;,
         0.319824; 1.626341;,
         0.319824; 1.638501;,
         0.854376; 1.879948;,
         0.854376; 1.890770;,
         0.845749; 1.890770;,
         0.845749; 1.879948;,
         0.311197; 1.798796;,
         0.311197; 1.786650;,
         0.319824; 1.786650;,
         0.319824; 1.798796;,
         0.854376; 1.696653;,
         0.854376; 1.707493;,
         0.845749; 1.707493;,
         0.845749; 1.696653;,
         0.311197; 1.786650;,
         0.311197; 1.778912;,
         0.319824; 1.778913;,
         0.319824; 1.786650;,
         0.854376; 1.727364;,
         0.854376; 1.739525;,
         0.845749; 1.739525;,
         0.845749; 1.727364;,
         0.854376; 1.739525;,
         0.854376; 1.847836;,
         0.845749; 1.847836;,
         0.845749; 1.739525;,
         0.311197; 1.778912;,
         0.311197; 1.766685;,
         0.319824; 1.766685;,
         0.319824; 1.778913;,
         0.854376; 1.719653;,
         0.854376; 1.727364;,
         0.845749; 1.727364;,
         0.845749; 1.719653;,
         0.854376; 1.867802;,
         0.854376; 1.879948;,
         0.845749; 1.879948;,
         0.845749; 1.867802;,
         0.709600; 1.934717;,
         0.724182; 1.923306;,
         0.729265; 1.929057;,
         0.713960; 1.941034;,
         0.760296; 1.731370;,
         0.753749; 1.734450;,
         0.750948; 1.710601;,
         0.757356; 1.706338;,
         0.757356; 1.706338;,
         0.750948; 1.710601;,
         0.741167; 1.688670;,
         0.747090; 1.683319;,
         0.747090; 1.683319;,
         0.741167; 1.688670;,
         0.724558; 1.671328;,
         0.729658; 1.665117;,
         0.982326; 1.907398;,
         0.990726; 1.906730;,
         0.990470; 1.930793;,
         0.982070; 1.931460;,
         0.982070; 1.931460;,
         0.990470; 1.930793;,
         0.990793; 1.954831;,
         0.982393; 1.955498;,
         0.982393; 1.955498;,
         0.990793; 1.954831;,
         0.992118; 1.978811;,
         0.983718; 1.979479;,
         0.681955; 1.582669;,
         0.673565; 1.582746;,
         0.673344; 1.558734;,
         0.681734; 1.558657;,
         0.681734; 1.558657;,
         0.673344; 1.558734;,
         0.673123; 1.534722;,
         0.681513; 1.534645;,
         0.681513; 1.534645;,
         0.673123; 1.534722;,
         0.672903; 1.510710;,
         0.681292; 1.510633;,
         0.825615; 1.856217;,
         0.832135; 1.853631;,
         0.835107; 1.877510;,
         0.828735; 1.881281;,
         0.828735; 1.881281;,
         0.835107; 1.877510;,
         0.844751; 1.899531;,
         0.838857; 1.904394;,
         0.838857; 1.904394;,
         0.844751; 1.899531;,
         0.860918; 1.917291;,
         0.855826; 1.923034;,
         0.674717; 1.707981;,
         0.673565; 1.582746;,
         0.681955; 1.582669;,
         0.683114; 1.708687;,
         0.724558; 1.671328;,
         0.709600; 1.660415;,
         0.713957; 1.653663;,
         0.729658; 1.665117;,
         0.753064; 1.859690;,
         0.753749; 1.734450;,
         0.760296; 1.731370;,
         0.759580; 1.862287;,
         0.225284; 1.997498;,
         0.096427; 1.995203;,
         0.099017; 1.775086;,
         0.210252; 1.776053;,
         0.021253; 1.994420;,
         0.001931; 1.994228;,
         0.004119; 1.774665;,
         0.023493; 1.774740;,
         0.561444; 1.224550;,
         0.577773; 1.003072;,
         0.602908; 1.004312;,
         0.586668; 1.225144;,
         0.536130; 1.224438;,
         0.552743; 1.002866;,
         0.577773; 1.003072;,
         0.561444; 1.224550;,
         0.510799; 1.224602;,
         0.527617; 1.003233;,
         0.552743; 1.002866;,
         0.536130; 1.224438;,
         0.048645; 1.774846;,
         0.046311; 1.994671;,
         0.021253; 1.994420;,
         0.023493; 1.774740;,
         0.073820; 1.774961;,
         0.071369; 1.994931;,
         0.046311; 1.994671;,
         0.048645; 1.774846;,
         0.099017; 1.775086;,
         0.096427; 1.995203;,
         0.071369; 1.994931;,
         0.073820; 1.774961;,
         0.319628; 1.995869;,
         0.300358; 1.997087;,
         0.286297; 1.775759;,
         0.305754; 1.775166;,
         0.753064; 1.859690;,
         0.759580; 1.862287;,
         0.756422; 1.887346;,
         0.750055; 1.883565;,
         0.750055; 1.883565;,
         0.756422; 1.887346;,
         0.746264; 1.910443;,
         0.740377; 1.905571;,
         0.740377; 1.905571;,
         0.746264; 1.910443;,
         0.729265; 1.929057;,
         0.724182; 1.923306;,
         0.831646; 1.728391;,
         0.825104; 1.725300;,
         0.828083; 1.700273;,
         0.834484; 1.704546;,
         0.834484; 1.704546;,
         0.828083; 1.700273;,
         0.838385; 1.677270;,
         0.844300; 1.682630;,
         0.844300; 1.682630;,
         0.838385; 1.677270;,
         0.855846; 1.659094;,
         0.860936; 1.665314;,
         0.825615; 1.856217;,
         0.825104; 1.725300;,
         0.831646; 1.728391;,
         0.832135; 1.853631;;
      }
      MeshMaterialList {
        1;
        130;
        0,
        0,
        0,
        0,
        0,
        0,
        0,
        0,
        0,
        0,
        0,
        0,
        0,
        0,
        0,
        0,
        0,
        0,
        0,
        0,
        0,
        0,
        0,
        0,
        0,
        0,
        0,
        0,
        0,
        0,
        0,
        0,
        0,
        0,
        0,
        0,
        0,
        0,
        0,
        0,
        0,
        0,
        0,
        0,
        0,
        0,
        0,
        0,
        0,
        0,
        0,
        0,
        0,
        0,
        0,
        0,
        0,
        0,
        0,
        0,
        0,
        0,
        0,
        0,
        0,
        0,
        0,
        0,
        0,
        0,
        0,
        0,
        0,
        0,
        0,
        0,
        0,
        0,
        0,
        0,
        0,
        0,
        0,
        0,
        0,
        0,
        0,
        0,
        0,
        0,
        0,
        0,
        0,
        0,
        0,
        0,
        0,
        0,
        0,
        0,
        0,
        0,
        0,
        0,
        0,
        0,
        0,
        0,
        0,
        0,
        0,
        0,
        0,
        0,
        0,
        0,
        0,
        0,
        0,
        0,
        0,
        0,
        0,
        0,
        0,
        0,
        0,
        0,
        0,
        0;
        Material ForeArmSVD1_002 {
           0.800000; 0.800000; 0.800000; 1.000000;;
           323.999994;
           0.250000; 0.250000; 0.250000;;
           0.000000; 0.000000; 0.000000;;
        }
      }
    }
  }
}
