xof 0303txt 0032

Frame Root {
  FrameTransformMatrix {
     1.000000, 0.000000, 0.000000, 0.000000,
     0.000000,-0.000000, 1.000000, 0.000000,
     0.000000, 1.000000, 0.000000, 0.000000,
     0.000000, 0.000000, 0.000000, 1.000000;;
  }
  Frame ForeArmDSA1_Cube_018 {
    FrameTransformMatrix {
       1.000000, 0.000000, 0.000000, 0.000000,
       0.000000, 1.000000, 0.000000, 0.000000,
       0.000000, 0.000000, 1.000000, 0.000000,
       0.000000, 0.000000, 0.000000, 1.000000;;
    }
    Mesh {
      120;
       0.015144; 0.037565; 0.000477;,
       0.015144;-0.095724; 0.000477;,
       0.009564;-0.095724; 0.025498;,
       0.009564; 0.037565; 0.025498;,
       0.015144;-0.095724; 0.000477;,
      -0.015144;-0.095724; 0.000477;,
      -0.009564;-0.095724; 0.025498;,
       0.009564;-0.095724; 0.025498;,
      -0.015144;-0.095724; 0.000477;,
      -0.015144; 0.037565; 0.000477;,
      -0.009564; 0.037565; 0.025498;,
      -0.009564;-0.095724; 0.025498;,
      -0.009564; 0.037565; 0.025498;,
      -0.006534; 0.043786; 0.015910;,
       0.006534; 0.043786; 0.015910;,
       0.009564; 0.037565; 0.025498;,
       0.011738; 0.037565;-0.007783;,
       0.008019; 0.043786;-0.006828;,
       0.008019; 0.043786;-0.011486;,
       0.011738; 0.037565;-0.014602;,
      -0.009564;-0.095724; 0.025498;,
      -0.009564; 0.037565; 0.025498;,
       0.009564; 0.037565; 0.025498;,
       0.009564;-0.095724; 0.025498;,
      -0.011738; 0.037565;-0.007783;,
      -0.008019; 0.043786;-0.006828;,
      -0.010346; 0.043786;-0.001185;,
      -0.015144; 0.037565; 0.000477;,
       0.015144;-0.095724; 0.000477;,
       0.011738;-0.095724;-0.007783;,
      -0.011738;-0.095724;-0.007783;,
      -0.015144;-0.095724; 0.000477;,
       0.015144; 0.037565; 0.000477;,
       0.011738; 0.037565;-0.007783;,
       0.011738;-0.095724;-0.007783;,
       0.015144;-0.095724; 0.000477;,
      -0.015144;-0.095724; 0.000477;,
      -0.011738;-0.095724;-0.007783;,
      -0.011738; 0.037565;-0.007783;,
      -0.015144; 0.037565; 0.000477;,
       0.011738;-0.095724;-0.014602;,
       0.011738; 0.037565;-0.014602;,
      -0.011738; 0.037565;-0.014602;,
      -0.011738;-0.095724;-0.014602;,
       0.011738;-0.095724;-0.007783;,
       0.011738;-0.095724;-0.014602;,
      -0.011738;-0.095724;-0.014602;,
      -0.011738;-0.095724;-0.007783;,
      -0.011738;-0.095724;-0.007783;,
      -0.011738;-0.095724;-0.014602;,
      -0.011738; 0.037565;-0.014602;,
      -0.011738; 0.037565;-0.007783;,
       0.011738; 0.037565;-0.007783;,
       0.011738; 0.037565;-0.014602;,
       0.011738;-0.095724;-0.014602;,
       0.011738;-0.095724;-0.007783;,
       0.008019; 0.043786;-0.011486;,
       0.008019; 0.063532;-0.011486;,
      -0.008019; 0.063532;-0.011486;,
      -0.008019; 0.043786;-0.011486;,
      -0.008019; 0.043786;-0.011486;,
      -0.008019; 0.063532;-0.011486;,
      -0.008019; 0.063532;-0.006828;,
      -0.008019; 0.043786;-0.006828;,
       0.006534; 0.043786; 0.015910;,
       0.006534; 0.063532; 0.015910;,
       0.010346; 0.063532;-0.001185;,
       0.010346; 0.043786;-0.001185;,
      -0.015144; 0.037565; 0.000477;,
      -0.010346; 0.043786;-0.001185;,
      -0.006534; 0.043786; 0.015910;,
      -0.009564; 0.037565; 0.025498;,
       0.015144; 0.037565; 0.000477;,
       0.010346; 0.043786;-0.001185;,
       0.008019; 0.043786;-0.006828;,
       0.011738; 0.037565;-0.007783;,
      -0.011738; 0.037565;-0.014602;,
      -0.008019; 0.043786;-0.011486;,
      -0.008019; 0.043786;-0.006828;,
      -0.011738; 0.037565;-0.007783;,
       0.011738; 0.037565;-0.014602;,
       0.008019; 0.043786;-0.011486;,
      -0.008019; 0.043786;-0.011486;,
      -0.011738; 0.037565;-0.014602;,
       0.009564; 0.037565; 0.025498;,
       0.006534; 0.043786; 0.015910;,
       0.010346; 0.043786;-0.001185;,
       0.015144; 0.037565; 0.000477;,
      -0.010346; 0.063532;-0.001185;,
       0.010346; 0.063532;-0.001185;,
       0.006534; 0.063532; 0.015910;,
      -0.006534; 0.063532; 0.015910;,
      -0.010346; 0.063532;-0.001185;,
      -0.008019; 0.063532;-0.006828;,
       0.008019; 0.063532;-0.006828;,
       0.010346; 0.063532;-0.001185;,
      -0.008019; 0.063532;-0.006828;,
      -0.008019; 0.063532;-0.011486;,
       0.008019; 0.063532;-0.011486;,
       0.008019; 0.063532;-0.006828;,
       0.010346; 0.043786;-0.001185;,
       0.010346; 0.063532;-0.001185;,
       0.008019; 0.063532;-0.006828;,
       0.008019; 0.043786;-0.006828;,
      -0.006534; 0.043786; 0.015910;,
      -0.006534; 0.063532; 0.015910;,
       0.006534; 0.063532; 0.015910;,
       0.006534; 0.043786; 0.015910;,
      -0.010346; 0.043786;-0.001185;,
      -0.010346; 0.063532;-0.001185;,
      -0.006534; 0.063532; 0.015910;,
      -0.006534; 0.043786; 0.015910;,
       0.008019; 0.043786;-0.006828;,
       0.008019; 0.063532;-0.006828;,
       0.008019; 0.063532;-0.011486;,
       0.008019; 0.043786;-0.011486;,
      -0.008019; 0.043786;-0.006828;,
      -0.008019; 0.063532;-0.006828;,
      -0.010346; 0.063532;-0.001185;,
      -0.010346; 0.043786;-0.001185;;
      30;
      4;3,2,1,0;,
      4;7,6,5,4;,
      4;11,10,9,8;,
      4;15,14,13,12;,
      4;19,18,17,16;,
      4;23,22,21,20;,
      4;27,26,25,24;,
      4;31,30,29,28;,
      4;35,34,33,32;,
      4;39,38,37,36;,
      4;43,42,41,40;,
      4;47,46,45,44;,
      4;51,50,49,48;,
      4;55,54,53,52;,
      4;59,58,57,56;,
      4;63,62,61,60;,
      4;67,66,65,64;,
      4;71,70,69,68;,
      4;75,74,73,72;,
      4;79,78,77,76;,
      4;83,82,81,80;,
      4;87,86,85,84;,
      4;91,90,89,88;,
      4;95,94,93,92;,
      4;99,98,97,96;,
      4;103,102,101,100;,
      4;107,106,105,104;,
      4;111,110,109,108;,
      4;115,114,113,112;,
      4;119,118,117,116;;
      MeshNormals {
        120;
        -0.951115;-0.301957; 0.064818;,
        -0.761111; 0.645305; 0.065506;,
        -0.505091; 0.589773;-0.630121;,
        -0.551998;-0.412946;-0.724412;,
        -0.761111; 0.645305; 0.065506;,
         0.761111; 0.645305; 0.065506;,
         0.505091; 0.589773;-0.630120;,
        -0.505091; 0.589773;-0.630121;,
         0.761111; 0.645305; 0.065506;,
         0.951115;-0.301957; 0.064818;,
         0.551998;-0.412946;-0.724412;,
         0.505091; 0.589773;-0.630120;,
         0.551998;-0.412946;-0.724412;,
         0.597183;-0.542699;-0.590635;,
        -0.597183;-0.542699;-0.590635;,
        -0.551998;-0.412946;-0.724412;,
        -0.941528;-0.281849; 0.184622;,
        -0.945809;-0.264202; 0.188790;,
        -0.639757;-0.379331; 0.668445;,
        -0.681911;-0.286825; 0.672851;,
         0.505091; 0.589773;-0.630120;,
         0.551998;-0.412946;-0.724412;,
        -0.551998;-0.412946;-0.724412;,
        -0.505091; 0.589773;-0.630121;,
         0.941528;-0.281849; 0.184622;,
         0.945809;-0.264202; 0.188790;,
         0.938716;-0.327387; 0.107846;,
         0.951115;-0.301957; 0.064818;,
        -0.761111; 0.645305; 0.065506;,
        -0.644841; 0.753568; 0.127731;,
         0.644840; 0.753569; 0.127731;,
         0.761111; 0.645305; 0.065506;,
        -0.951115;-0.301957; 0.064818;,
        -0.941528;-0.281849; 0.184622;,
        -0.644841; 0.753568; 0.127731;,
        -0.761111; 0.645305; 0.065506;,
         0.761111; 0.645305; 0.065506;,
         0.644840; 0.753569; 0.127731;,
         0.941528;-0.281849; 0.184622;,
         0.951115;-0.301957; 0.064818;,
        -0.577350; 0.577350; 0.577350;,
        -0.681911;-0.286825; 0.672851;,
         0.681911;-0.286825; 0.672851;,
         0.577350; 0.577350; 0.577350;,
        -0.644841; 0.753568; 0.127731;,
        -0.577350; 0.577350; 0.577350;,
         0.577350; 0.577350; 0.577350;,
         0.644840; 0.753569; 0.127731;,
         0.644840; 0.753569; 0.127731;,
         0.577350; 0.577350; 0.577350;,
         0.681911;-0.286825; 0.672851;,
         0.941528;-0.281849; 0.184622;,
        -0.941528;-0.281849; 0.184622;,
        -0.681911;-0.286825; 0.672851;,
        -0.577350; 0.577350; 0.577350;,
        -0.644841; 0.753568; 0.127731;,
        -0.639757;-0.379331; 0.668445;,
        -0.577350;-0.577350; 0.577350;,
         0.577350;-0.577350; 0.577350;,
         0.639757;-0.379331; 0.668445;,
         0.639757;-0.379331; 0.668445;,
         0.577350;-0.577350; 0.577350;,
         0.644846;-0.753565; 0.127723;,
         0.945809;-0.264202; 0.188790;,
        -0.597183;-0.542699;-0.590635;,
        -0.505091;-0.589773;-0.630120;,
        -0.761110;-0.645308; 0.065497;,
        -0.938715;-0.327387; 0.107846;,
         0.951115;-0.301957; 0.064818;,
         0.938716;-0.327387; 0.107846;,
         0.597183;-0.542699;-0.590635;,
         0.551998;-0.412946;-0.724412;,
        -0.951115;-0.301957; 0.064818;,
        -0.938715;-0.327387; 0.107846;,
        -0.945809;-0.264202; 0.188790;,
        -0.941528;-0.281849; 0.184622;,
         0.681911;-0.286825; 0.672851;,
         0.639757;-0.379331; 0.668445;,
         0.945809;-0.264202; 0.188790;,
         0.941528;-0.281849; 0.184622;,
        -0.681911;-0.286825; 0.672851;,
        -0.639757;-0.379331; 0.668445;,
         0.639757;-0.379331; 0.668445;,
         0.681911;-0.286825; 0.672851;,
        -0.551998;-0.412946;-0.724412;,
        -0.597183;-0.542699;-0.590635;,
        -0.938715;-0.327387; 0.107846;,
        -0.951115;-0.301957; 0.064818;,
         0.761110;-0.645308; 0.065497;,
        -0.761110;-0.645308; 0.065497;,
        -0.505091;-0.589773;-0.630120;,
         0.505091;-0.589773;-0.630120;,
         0.761110;-0.645308; 0.065497;,
         0.644846;-0.753565; 0.127723;,
        -0.644846;-0.753565; 0.127723;,
        -0.761110;-0.645308; 0.065497;,
         0.644846;-0.753565; 0.127723;,
         0.577350;-0.577350; 0.577350;,
        -0.577350;-0.577350; 0.577350;,
        -0.644846;-0.753565; 0.127723;,
        -0.938715;-0.327387; 0.107846;,
        -0.761110;-0.645308; 0.065497;,
        -0.644846;-0.753565; 0.127723;,
        -0.945809;-0.264202; 0.188790;,
         0.597183;-0.542699;-0.590635;,
         0.505091;-0.589773;-0.630120;,
        -0.505091;-0.589773;-0.630120;,
        -0.597183;-0.542699;-0.590635;,
         0.938716;-0.327387; 0.107846;,
         0.761110;-0.645308; 0.065497;,
         0.505091;-0.589773;-0.630120;,
         0.597183;-0.542699;-0.590635;,
        -0.945809;-0.264202; 0.188790;,
        -0.644846;-0.753565; 0.127723;,
        -0.577350;-0.577350; 0.577350;,
        -0.639757;-0.379331; 0.668445;,
         0.945809;-0.264202; 0.188790;,
         0.644846;-0.753565; 0.127723;,
         0.761110;-0.645308; 0.065497;,
         0.938716;-0.327387; 0.107846;;
        30;
        4;3,2,1,0;,
        4;7,6,5,4;,
        4;11,10,9,8;,
        4;15,14,13,12;,
        4;19,18,17,16;,
        4;23,22,21,20;,
        4;27,26,25,24;,
        4;31,30,29,28;,
        4;35,34,33,32;,
        4;39,38,37,36;,
        4;43,42,41,40;,
        4;47,46,45,44;,
        4;51,50,49,48;,
        4;55,54,53,52;,
        4;59,58,57,56;,
        4;63,62,61,60;,
        4;67,66,65,64;,
        4;71,70,69,68;,
        4;75,74,73,72;,
        4;79,78,77,76;,
        4;83,82,81,80;,
        4;87,86,85,84;,
        4;91,90,89,88;,
        4;95,94,93,92;,
        4;99,98,97,96;,
        4;103,102,101,100;,
        4;107,106,105,104;,
        4;111,110,109,108;,
        4;115,114,113,112;,
        4;119,118,117,116;;
      }
      MeshTextureCoords {
        120;
         0.001856; 0.655529;,
         0.881990; 0.655529;,
         0.881990; 0.824807;,
         0.001856; 0.824807;,
         0.202314; 0.195875;,
         0.002320; 0.195875;,
         0.039161; 0.030654;,
         0.165473; 0.030654;,
         0.001853; 0.828868;,
         0.881987; 0.828868;,
         0.881987; 0.998146;,
         0.001853; 0.998146;,
         0.763285; 0.008979;,
         0.743276; 0.084450;,
         0.656980; 0.084450;,
         0.636972; 0.008979;,
         0.535199; 0.029207;,
         0.583473; 0.029207;,
         0.579452; 0.059704;,
         0.529313; 0.073846;,
         0.001852; 0.364222;,
         0.881987; 0.364222;,
         0.881987; 0.490534;,
         0.001852; 0.490535;,
         0.948410; 0.078885;,
         0.996555; 0.075358;,
         0.996555; 0.115665;,
         0.948410; 0.137882;,
         0.535151; 0.020007;,
         0.512662; 0.074549;,
         0.357647; 0.074549;,
         0.335157; 0.020007;,
         0.944696; 0.998138;,
         0.885699; 0.998138;,
         0.885699; 0.118001;,
         0.944696; 0.118001;,
         0.881991; 0.300307;,
         0.881991; 0.359304;,
         0.001854; 0.359304;,
         0.001854; 0.300306;,
         0.001856; 0.496474;,
         0.881990; 0.496474;,
         0.881990; 0.651489;,
         0.001856; 0.651489;,
         0.948404; 0.843131;,
         0.993430; 0.843131;,
         0.993430; 0.998146;,
         0.948404; 0.998146;,
         0.881991; 0.249890;,
         0.881991; 0.294915;,
         0.001856; 0.294916;,
         0.001856; 0.249889;,
         0.881987; 0.200375;,
         0.881987; 0.245401;,
         0.001852; 0.245401;,
         0.001852; 0.200375;,
         0.785815; 0.195876;,
         0.655429; 0.195876;,
         0.655429; 0.089971;,
         0.785815; 0.089971;,
         0.948412; 0.411304;,
         0.948412; 0.280918;,
         0.979173; 0.280918;,
         0.979173; 0.411304;,
         0.517623; 0.195876;,
         0.387237; 0.195876;,
         0.387237; 0.080225;,
         0.517623; 0.080225;,
         0.309256; 0.001851;,
         0.313067; 0.054738;,
         0.197417; 0.054738;,
         0.139977; 0.001851;,
         0.942193; 0.066016;,
         0.919976; 0.114161;,
         0.879670; 0.114161;,
         0.883196; 0.066016;,
         0.587286; 0.029899;,
         0.637425; 0.044041;,
         0.641446; 0.074539;,
         0.593172; 0.074539;,
         0.998111; 0.840904;,
         0.952167; 0.816349;,
         0.952167; 0.710443;,
         0.998111; 0.685889;,
         0.936401; 0.006802;,
         0.878962; 0.059689;,
         0.763311; 0.059689;,
         0.767123; 0.006802;,
         0.270646; 0.195797;,
         0.270646; 0.059162;,
         0.383524; 0.084331;,
         0.383524; 0.170627;,
         0.270646; 0.195797;,
         0.233382; 0.180432;,
         0.233382; 0.074526;,
         0.270646; 0.059162;,
         0.233382; 0.180432;,
         0.202621; 0.180432;,
         0.202621; 0.074526;,
         0.233382; 0.074526;,
         0.988720; 0.553293;,
         0.988720; 0.683679;,
         0.948414; 0.683679;,
         0.948414; 0.553293;,
         0.875822; 0.065495;,
         0.875822; 0.195880;,
         0.789526; 0.195880;,
         0.789526; 0.065495;,
         0.521330; 0.080225;,
         0.651716; 0.080225;,
         0.651716; 0.195875;,
         0.521330; 0.195875;,
         0.948407; 0.275106;,
         0.948407; 0.144721;,
         0.979168; 0.144721;,
         0.979168; 0.275106;,
         0.948415; 0.547485;,
         0.948415; 0.417100;,
         0.988722; 0.417100;,
         0.988722; 0.547485;;
      }
      MeshMaterialList {
        1;
        30;
        0,
        0,
        0,
        0,
        0,
        0,
        0,
        0,
        0,
        0,
        0,
        0,
        0,
        0,
        0,
        0,
        0,
        0,
        0,
        0,
        0,
        0,
        0,
        0,
        0,
        0,
        0,
        0,
        0,
        0;
        Material ForeArmDSA1 {
           0.800000; 0.800000; 0.800000; 1.000000;;
           225.000000;
           0.500000; 0.500000; 0.500000;;
           0.000000; 0.000000; 0.000000;;
        }
      }
    }
  }
}
