xof 0303txt 0032

Frame Root {
  FrameTransformMatrix {
     1.000000, 0.000000, 0.000000, 0.000000,
     0.000000,-0.000000, 1.000000, 0.000000,
     0.000000, 1.000000, 0.000000, 0.000000,
     0.000000, 0.000000, 0.000000, 1.000000;;
  }
  Frame forearm1_Cylinder_006 {
    FrameTransformMatrix {
       1.000000, 0.000000, 0.000000, 0.000000,
       0.000000, 1.000000, 0.000000, 0.000000,
       0.000000, 0.000000, 1.000000, 0.000000,
       0.000000, 0.000000, 0.000000, 1.000000;;
    }
    Mesh {
      376;
       0.010601; 0.139789; 0.007017;,
       0.010601; 0.144121; 0.007017;,
       0.008297; 0.144121; 0.007017;,
       0.008297; 0.139789; 0.007017;,
      -0.005929; 0.139789; 0.007017;,
      -0.005929; 0.144121; 0.007017;,
      -0.008233; 0.144121; 0.007017;,
      -0.008233; 0.139789; 0.007017;,
       0.011575; 0.139789; 0.003380;,
       0.010601; 0.139789; 0.007017;,
       0.008297; 0.139789; 0.007017;,
       0.009272; 0.139789; 0.003380;,
      -0.006904; 0.139789; 0.003380;,
      -0.005929; 0.139789; 0.007017;,
      -0.008233; 0.139789; 0.007017;,
      -0.009207; 0.139789; 0.003380;,
      -0.008401; 0.139789; 0.000372;,
      -0.008401; 0.144121; 0.000372;,
      -0.006098; 0.144121; 0.000372;,
      -0.006098; 0.139789; 0.000372;,
       0.008466; 0.139789; 0.000372;,
       0.008466; 0.144121; 0.000372;,
       0.010769; 0.144121; 0.000372;,
       0.010769; 0.139789; 0.000372;,
       0.010769; 0.139789; 0.000372;,
       0.011575; 0.139789; 0.003380;,
       0.009272; 0.139789; 0.003380;,
       0.008466; 0.139789; 0.000372;,
      -0.006098; 0.139789; 0.000372;,
      -0.006904; 0.139789; 0.003380;,
      -0.009207; 0.139789; 0.003380;,
      -0.008401; 0.139789; 0.000372;,
       0.009309; 0.128487;-0.010693;,
       0.007113; 0.128487;-0.014738;,
       0.007113;-0.128723;-0.014738;,
       0.009309;-0.128723;-0.010693;,
      -0.006941;-0.128723; 0.017453;,
      -0.012889;-0.128723; 0.011505;,
      -0.012889; 0.128487; 0.011505;,
      -0.006941; 0.128487; 0.017453;,
      -0.012889;-0.128723; 0.011505;,
      -0.016654;-0.128723; 0.009768;,
      -0.016654; 0.128487; 0.009768;,
      -0.012889; 0.128487; 0.011505;,
       0.015257; 0.128487;-0.004745;,
       0.019022; 0.128487;-0.003008;,
       0.019022; 0.128487; 0.003380;,
      -0.012889;-0.128723;-0.004745;,
      -0.006941;-0.128723;-0.010693;,
      -0.006941; 0.128487;-0.010693;,
      -0.012889; 0.128487;-0.004745;,
      -0.006941; 0.128487;-0.010693;,
      -0.004745; 0.128487;-0.014738;,
       0.001184; 0.128487;-0.014738;,
       0.009309;-0.128723;-0.010693;,
       0.015257;-0.128723;-0.004745;,
       0.015257; 0.128487;-0.004745;,
       0.009309; 0.128487;-0.010693;,
      -0.012889; 0.128487;-0.004745;,
      -0.016654; 0.128487;-0.003008;,
      -0.016654;-0.128723;-0.003008;,
      -0.012889;-0.128723;-0.004745;,
       0.019022; 0.128487; 0.003380;,
       0.019022; 0.128487; 0.009768;,
       0.015257; 0.128487; 0.011505;,
       0.011575; 0.128487; 0.003380;,
       0.011575; 0.139789; 0.003380;,
       0.010769; 0.139789; 0.000372;,
       0.010769; 0.144121; 0.000372;,
       0.010183; 0.144121;-0.001816;,
       0.010183; 0.128487;-0.001816;,
       0.015257;-0.128723; 0.011505;,
       0.009309;-0.128723; 0.017453;,
       0.009309; 0.128487; 0.017453;,
       0.015257; 0.128487; 0.011505;,
      -0.016654;-0.128723; 0.009768;,
      -0.016654;-0.128723; 0.003380;,
      -0.016654; 0.128487; 0.003380;,
      -0.016654; 0.128487; 0.009768;,
      -0.016654;-0.128723; 0.003380;,
      -0.016654;-0.128723;-0.003008;,
      -0.016654; 0.128487;-0.003008;,
      -0.016654; 0.128487; 0.003380;,
       0.019022;-0.128723;-0.003008;,
       0.019022;-0.128723; 0.003380;,
       0.019022; 0.128487; 0.003380;,
       0.019022; 0.128487;-0.003008;,
       0.019022;-0.128723; 0.003380;,
       0.019022;-0.128723; 0.009768;,
       0.019022; 0.128487; 0.009768;,
       0.019022; 0.128487; 0.003380;,
       0.015257; 0.128487; 0.011505;,
       0.019022; 0.128487; 0.009768;,
       0.019022;-0.128723; 0.009768;,
       0.015257;-0.128723; 0.011505;,
       0.015257;-0.128723;-0.004745;,
       0.019022;-0.128723;-0.003008;,
       0.019022; 0.128487;-0.003008;,
       0.015257; 0.128487;-0.004745;,
      -0.016654; 0.128487; 0.003380;,
      -0.016654; 0.128487;-0.003008;,
      -0.012889; 0.128487;-0.004745;,
      -0.012889; 0.128487; 0.011505;,
      -0.016654; 0.128487; 0.009768;,
      -0.016654; 0.128487; 0.003380;,
       0.001184;-0.128723; 0.021498;,
      -0.004745;-0.128723; 0.021498;,
      -0.004745; 0.128487; 0.021498;,
       0.001184; 0.128487; 0.021498;,
      -0.004745;-0.128723;-0.014738;,
       0.001184;-0.128723;-0.014738;,
       0.001184; 0.128487;-0.014738;,
      -0.004745; 0.128487;-0.014738;,
       0.001184;-0.128723;-0.014738;,
       0.007113;-0.128723;-0.014738;,
       0.007113; 0.128487;-0.014738;,
       0.001184; 0.128487;-0.014738;,
       0.007113;-0.128723; 0.021498;,
       0.001184;-0.128723; 0.021498;,
       0.001184; 0.128487; 0.021498;,
       0.007113; 0.128487; 0.021498;,
       0.009309; 0.128487; 0.017453;,
       0.007113; 0.128487; 0.021498;,
       0.001184; 0.128487; 0.021498;,
       0.001184; 0.128487; 0.021498;,
      -0.004745; 0.128487; 0.021498;,
      -0.006941; 0.128487; 0.017453;,
      -0.006941;-0.128723;-0.010693;,
      -0.004745;-0.128723;-0.014738;,
      -0.004745; 0.128487;-0.014738;,
      -0.006941; 0.128487;-0.010693;,
       0.009309;-0.128723; 0.017453;,
       0.007113;-0.128723; 0.021498;,
       0.007113; 0.128487; 0.021498;,
       0.009309; 0.128487; 0.017453;,
      -0.006941; 0.128487; 0.017453;,
      -0.004745; 0.128487; 0.021498;,
      -0.004745;-0.128723; 0.021498;,
      -0.006941;-0.128723; 0.017453;,
       0.001184; 0.128487;-0.014738;,
       0.007113; 0.128487;-0.014738;,
       0.009309; 0.128487;-0.010693;,
       0.001184; 0.128487; 0.013771;,
       0.001184; 0.128487; 0.021498;,
      -0.006941; 0.128487; 0.017453;,
      -0.004012; 0.128487; 0.012379;,
      -0.004012; 0.128487; 0.012379;,
      -0.006941; 0.128487; 0.017453;,
      -0.012889; 0.128487; 0.011505;,
      -0.007815; 0.128487; 0.008576;,
      -0.007815; 0.128487; 0.008576;,
      -0.012889; 0.128487; 0.011505;,
      -0.016654; 0.128487; 0.003380;,
      -0.009207; 0.128487; 0.003380;,
      -0.009207; 0.128487; 0.003380;,
      -0.016654; 0.128487; 0.003380;,
      -0.012889; 0.128487;-0.004745;,
      -0.007815; 0.128487;-0.001816;,
      -0.007815; 0.128487;-0.001816;,
      -0.012889; 0.128487;-0.004745;,
      -0.006941; 0.128487;-0.010693;,
      -0.004012; 0.128487;-0.005619;,
      -0.004012; 0.128487;-0.005619;,
      -0.006941; 0.128487;-0.010693;,
       0.001184; 0.128487;-0.014738;,
       0.001184; 0.128487;-0.007011;,
       0.001184; 0.128487;-0.007011;,
       0.001184; 0.128487;-0.014738;,
       0.009309; 0.128487;-0.010693;,
       0.006380; 0.128487;-0.005619;,
       0.006380; 0.128487;-0.005619;,
       0.009309; 0.128487;-0.010693;,
       0.015257; 0.128487;-0.004745;,
       0.010183; 0.128487;-0.001816;,
       0.010183; 0.128487;-0.001816;,
       0.015257; 0.128487;-0.004745;,
       0.019022; 0.128487; 0.003380;,
       0.011575; 0.128487; 0.003380;,
       0.011575; 0.128487; 0.003380;,
       0.019022; 0.128487; 0.003380;,
       0.015257; 0.128487; 0.011505;,
       0.010183; 0.128487; 0.008576;,
       0.010183; 0.128487; 0.008576;,
       0.015257; 0.128487; 0.011505;,
       0.009309; 0.128487; 0.017453;,
       0.006380; 0.128487; 0.012379;,
       0.006380; 0.128487; 0.012379;,
       0.009309; 0.128487; 0.017453;,
       0.001184; 0.128487; 0.021498;,
       0.001184; 0.128487; 0.013771;,
      -0.005820; 0.144121; 0.007424;,
      -0.005820; 0.136795; 0.007424;,
      -0.002860; 0.136795; 0.010384;,
      -0.002860; 0.144121; 0.010384;,
       0.001184; 0.128487;-0.007011;,
       0.001184; 0.144121;-0.007011;,
      -0.004012; 0.144121;-0.005619;,
      -0.004012; 0.128487;-0.005619;,
      -0.009207; 0.128487; 0.003380;,
      -0.009207; 0.139789; 0.003380;,
      -0.008233; 0.139789; 0.007017;,
      -0.008233; 0.144121; 0.007017;,
      -0.007815; 0.144121; 0.008576;,
      -0.007815; 0.128487; 0.008576;,
       0.010183; 0.128487; 0.008576;,
       0.010183; 0.144121; 0.008576;,
       0.010601; 0.144121; 0.007017;,
       0.010601; 0.139789; 0.007017;,
       0.011575; 0.139789; 0.003380;,
       0.011575; 0.128487; 0.003380;,
       0.006380; 0.128487;-0.005619;,
       0.006380; 0.144121;-0.005619;,
       0.001184; 0.144121;-0.007011;,
       0.001184; 0.128487;-0.007011;,
      -0.007815; 0.128487;-0.001816;,
      -0.007815; 0.144121;-0.001816;,
      -0.008401; 0.144121; 0.000372;,
      -0.008401; 0.139789; 0.000372;,
      -0.009207; 0.139789; 0.003380;,
      -0.009207; 0.128487; 0.003380;,
       0.006380; 0.128487; 0.012379;,
       0.006380; 0.144121; 0.012379;,
       0.010183; 0.144121; 0.008576;,
       0.010183; 0.128487; 0.008576;,
      -0.004012; 0.128487; 0.012379;,
      -0.004012; 0.144121; 0.012379;,
       0.001184; 0.144121; 0.013771;,
       0.001184; 0.128487; 0.013771;,
       0.010183; 0.128487;-0.001816;,
       0.010183; 0.144121;-0.001816;,
       0.006380; 0.144121;-0.005619;,
       0.006380; 0.128487;-0.005619;,
      -0.004012; 0.128487;-0.005619;,
      -0.004012; 0.144121;-0.005619;,
      -0.007815; 0.144121;-0.001816;,
      -0.007815; 0.128487;-0.001816;,
       0.001184; 0.128487; 0.013771;,
       0.001184; 0.144121; 0.013771;,
       0.006380; 0.144121; 0.012379;,
       0.006380; 0.128487; 0.012379;,
      -0.007815; 0.128487; 0.008576;,
      -0.007815; 0.144121; 0.008576;,
      -0.004012; 0.144121; 0.012379;,
      -0.004012; 0.128487; 0.012379;,
       0.001184; 0.144121; 0.011468;,
       0.001184; 0.144121; 0.013771;,
      -0.004012; 0.144121; 0.012379;,
      -0.002860; 0.144121; 0.010384;,
      -0.002860; 0.144121; 0.010384;,
      -0.004012; 0.144121; 0.012379;,
      -0.007815; 0.144121; 0.008576;,
      -0.005820; 0.144121; 0.007424;,
      -0.005820; 0.144121; 0.007424;,
      -0.007815; 0.144121; 0.008576;,
      -0.008233; 0.144121; 0.007017;,
      -0.005929; 0.144121; 0.007017;,
      -0.005820; 0.144121;-0.000664;,
      -0.007815; 0.144121;-0.001816;,
      -0.004012; 0.144121;-0.005619;,
      -0.002860; 0.144121;-0.003624;,
      -0.002860; 0.144121;-0.003624;,
      -0.004012; 0.144121;-0.005619;,
       0.001184; 0.144121;-0.007011;,
       0.001184; 0.144121;-0.004708;,
       0.001184; 0.144121;-0.004708;,
       0.001184; 0.144121;-0.007011;,
       0.006380; 0.144121;-0.005619;,
       0.005228; 0.144121;-0.003624;,
       0.005228; 0.144121;-0.003624;,
       0.006380; 0.144121;-0.005619;,
       0.010183; 0.144121;-0.001816;,
       0.008188; 0.144121;-0.000664;,
       0.008188; 0.144121;-0.000664;,
       0.010183; 0.144121;-0.001816;,
       0.010769; 0.144121; 0.000372;,
       0.008466; 0.144121; 0.000372;,
       0.008188; 0.144121; 0.007424;,
       0.010183; 0.144121; 0.008576;,
       0.006380; 0.144121; 0.012379;,
       0.005228; 0.144121; 0.010384;,
       0.005228; 0.144121; 0.010384;,
       0.006380; 0.144121; 0.012379;,
       0.001184; 0.144121; 0.013771;,
       0.001184; 0.144121; 0.011468;,
      -0.002860; 0.136795; 0.010384;,
      -0.005820; 0.136795; 0.007424;,
      -0.006904; 0.136795; 0.003380;,
      -0.005820; 0.136795;-0.000664;,
      -0.002860; 0.136795;-0.003624;,
       0.001184; 0.136795;-0.004708;,
       0.005228; 0.136795;-0.003624;,
       0.008188; 0.136795;-0.000664;,
       0.009272; 0.136795; 0.003380;,
       0.008188; 0.136795; 0.007424;,
       0.005228; 0.136795; 0.010384;,
       0.001184; 0.136795; 0.011468;,
       0.001184; 0.144121;-0.004708;,
       0.001184; 0.136795;-0.004708;,
      -0.002860; 0.136795;-0.003624;,
      -0.002860; 0.144121;-0.003624;,
       0.008188; 0.144121; 0.007424;,
       0.008188; 0.136795; 0.007424;,
       0.009272; 0.136795; 0.003380;,
       0.009272; 0.139789; 0.003380;,
       0.008297; 0.139789; 0.007017;,
       0.008297; 0.144121; 0.007017;,
       0.005228; 0.144121;-0.003624;,
       0.005228; 0.136795;-0.003624;,
       0.001184; 0.136795;-0.004708;,
       0.001184; 0.144121;-0.004708;,
      -0.005820; 0.144121;-0.000664;,
      -0.005820; 0.136795;-0.000664;,
      -0.006904; 0.136795; 0.003380;,
      -0.006904; 0.139789; 0.003380;,
      -0.006098; 0.139789; 0.000372;,
      -0.006098; 0.144121; 0.000372;,
       0.005228; 0.144121; 0.010384;,
       0.005228; 0.136795; 0.010384;,
       0.008188; 0.136795; 0.007424;,
       0.008188; 0.144121; 0.007424;,
      -0.002860; 0.144121; 0.010384;,
      -0.002860; 0.136795; 0.010384;,
       0.001184; 0.136795; 0.011468;,
       0.001184; 0.144121; 0.011468;,
       0.008188; 0.144121;-0.000664;,
       0.008188; 0.136795;-0.000664;,
       0.005228; 0.136795;-0.003624;,
       0.005228; 0.144121;-0.003624;,
      -0.002860; 0.144121;-0.003624;,
      -0.002860; 0.136795;-0.003624;,
      -0.005820; 0.136795;-0.000664;,
      -0.005820; 0.144121;-0.000664;,
       0.001184; 0.144121; 0.011468;,
       0.001184; 0.136795; 0.011468;,
       0.005228; 0.136795; 0.010384;,
       0.005228; 0.144121; 0.010384;,
      -0.008401; 0.144121; 0.000372;,
      -0.007815; 0.144121;-0.001816;,
      -0.005820; 0.144121;-0.000664;,
      -0.006098; 0.144121; 0.000372;,
       0.009272; 0.139789; 0.003380;,
       0.009272; 0.136795; 0.003380;,
       0.008188; 0.136795;-0.000664;,
       0.008188; 0.144121;-0.000664;,
       0.008466; 0.144121; 0.000372;,
       0.008466; 0.139789; 0.000372;,
       0.010601; 0.144121; 0.007017;,
       0.010183; 0.144121; 0.008576;,
       0.008188; 0.144121; 0.007424;,
       0.008297; 0.144121; 0.007017;,
      -0.006904; 0.139789; 0.003380;,
      -0.006904; 0.136795; 0.003380;,
      -0.005820; 0.136795; 0.007424;,
      -0.005820; 0.144121; 0.007424;,
      -0.005929; 0.144121; 0.007017;,
      -0.005929; 0.139789; 0.007017;,
       0.009309;-0.128723;-0.010693;,
       0.007113;-0.128723;-0.014738;,
       0.001184;-0.128723;-0.014738;,
      -0.004745;-0.128723;-0.014738;,
      -0.006941;-0.128723;-0.010693;,
      -0.012889;-0.128723;-0.004745;,
      -0.016654;-0.128723;-0.003008;,
      -0.016654;-0.128723; 0.003380;,
      -0.016654;-0.128723; 0.009768;,
      -0.012889;-0.128723; 0.011505;,
      -0.006941;-0.128723; 0.017453;,
      -0.004745;-0.128723; 0.021498;,
       0.001184;-0.128723; 0.021498;,
       0.007113;-0.128723; 0.021498;,
       0.009309;-0.128723; 0.017453;,
       0.015257;-0.128723; 0.011505;,
       0.019022;-0.128723; 0.009768;,
       0.019022;-0.128723; 0.003380;,
       0.019022;-0.128723;-0.003008;,
       0.015257;-0.128723;-0.004745;;
      86;
      4;3,2,1,0;,
      4;7,6,5,4;,
      4;11,10,9,8;,
      4;15,14,13,12;,
      4;19,18,17,16;,
      4;23,22,21,20;,
      4;27,26,25,24;,
      4;31,30,29,28;,
      4;35,34,33,32;,
      4;39,38,37,36;,
      4;43,42,41,40;,
      3;46,45,44;,
      4;50,49,48,47;,
      3;53,52,51;,
      4;57,56,55,54;,
      4;61,60,59,58;,
      3;64,63,62;,
      6;70,69,68,67,66,65;,
      4;74,73,72,71;,
      4;78,77,76,75;,
      4;82,81,80,79;,
      4;86,85,84,83;,
      4;90,89,88,87;,
      4;94,93,92,91;,
      4;98,97,96,95;,
      3;101,100,99;,
      3;104,103,102;,
      4;108,107,106,105;,
      4;112,111,110,109;,
      4;116,115,114,113;,
      4;120,119,118,117;,
      3;123,122,121;,
      3;126,125,124;,
      4;130,129,128,127;,
      4;134,133,132,131;,
      4;138,137,136,135;,
      3;141,140,139;,
      4;145,144,143,142;,
      4;149,148,147,146;,
      4;153,152,151,150;,
      4;157,156,155,154;,
      4;161,160,159,158;,
      4;165,164,163,162;,
      4;169,168,167,166;,
      4;173,172,171,170;,
      4;177,176,175,174;,
      4;181,180,179,178;,
      4;185,184,183,182;,
      4;189,188,187,186;,
      4;193,192,191,190;,
      4;197,196,195,194;,
      6;203,202,201,200,199,198;,
      6;209,208,207,206,205,204;,
      4;213,212,211,210;,
      6;219,218,217,216,215,214;,
      4;223,222,221,220;,
      4;227,226,225,224;,
      4;231,230,229,228;,
      4;235,234,233,232;,
      4;239,238,237,236;,
      4;243,242,241,240;,
      4;247,246,245,244;,
      4;251,250,249,248;,
      4;255,254,253,252;,
      4;259,258,257,256;,
      4;263,262,261,260;,
      4;267,266,265,264;,
      4;271,270,269,268;,
      4;275,274,273,272;,
      4;279,278,277,276;,
      4;283,282,281,280;,
      12;295,294,293,292,291,290,289,288,287,286,285,284;,
      4;299,298,297,296;,
      6;305,304,303,302,301,300;,
      4;309,308,307,306;,
      6;315,314,313,312,311,310;,
      4;319,318,317,316;,
      4;323,322,321,320;,
      4;327,326,325,324;,
      4;331,330,329,328;,
      4;335,334,333,332;,
      4;339,338,337,336;,
      6;345,344,343,342,341,340;,
      4;349,348,347,346;,
      6;355,354,353,352,351,350;,
      20;375,374,373,372,371,370,369,368,367,366,365,364,363,362,361,360,359,358,357,356;;
      MeshNormals {
        376;
        -0.572844;-0.691829; 0.439570;,
        -0.654711;-0.564757; 0.502397;,
         0.490449;-0.592337; 0.639216;,
         0.538945;-0.464921; 0.702415;,
        -0.538945;-0.464922; 0.702414;,
        -0.490448;-0.592337; 0.639217;,
         0.654711;-0.564757; 0.502398;,
         0.572844;-0.691830; 0.439569;,
        -0.757151;-0.653240;-0.000011;,
        -0.572844;-0.691829; 0.439570;,
         0.538945;-0.464921; 0.702415;,
         0.637700;-0.770285;-0.000031;,
        -0.637700;-0.770285;-0.000033;,
        -0.538945;-0.464922; 0.702414;,
         0.572844;-0.691830; 0.439569;,
         0.757151;-0.653240;-0.000012;,
         0.572817;-0.691855;-0.439564;,
         0.654661;-0.564841;-0.502368;,
        -0.490372;-0.592444;-0.639176;,
        -0.538896;-0.464962;-0.702425;,
         0.538897;-0.464962;-0.702425;,
         0.490372;-0.592444;-0.639176;,
        -0.654661;-0.564841;-0.502368;,
        -0.572818;-0.691856;-0.439563;,
        -0.572818;-0.691856;-0.439563;,
        -0.757151;-0.653240;-0.000011;,
         0.637700;-0.770285;-0.000031;,
         0.538897;-0.464962;-0.702425;,
        -0.538896;-0.464962;-0.702425;,
        -0.637700;-0.770285;-0.000033;,
         0.757151;-0.653240;-0.000012;,
         0.572817;-0.691855;-0.439564;,
        -0.538160;-0.740882; 0.401844;,
        -0.405907;-0.608110; 0.682233;,
        -0.405908; 0.608111; 0.682232;,
        -0.590319; 0.676186; 0.440790;,
         0.590319; 0.676186;-0.440790;,
         0.424754; 0.669625;-0.609250;,
         0.379016;-0.748863;-0.543646;,
         0.538160;-0.740882;-0.401843;,
         0.424754; 0.669625;-0.609250;,
         0.671582; 0.603551;-0.429772;,
         0.671582;-0.603551;-0.429772;,
         0.379016;-0.748863;-0.543646;,
        -0.379016;-0.748863; 0.543646;,
        -0.671582;-0.603550; 0.429772;,
        -0.707107;-0.707107; 0.000000;,
         0.424754; 0.669625; 0.609251;,
         0.590319; 0.676186; 0.440790;,
         0.538160;-0.740882; 0.401844;,
         0.379016;-0.748863; 0.543646;,
         0.538160;-0.740882; 0.401844;,
         0.405907;-0.608110; 0.682233;,
         0.000000;-0.707106; 0.707107;,
        -0.590319; 0.676186; 0.440790;,
        -0.424754; 0.669625; 0.609251;,
        -0.379016;-0.748863; 0.543646;,
        -0.538160;-0.740882; 0.401844;,
         0.379016;-0.748863; 0.543646;,
         0.671582;-0.603550; 0.429772;,
         0.671582; 0.603551; 0.429772;,
         0.424754; 0.669625; 0.609251;,
        -0.707107;-0.707107; 0.000000;,
        -0.671582;-0.603551;-0.429772;,
        -0.379016;-0.748863;-0.543646;,
        -0.637743;-0.770249;-0.000009;,
        -0.757151;-0.653240;-0.000011;,
        -0.572818;-0.691856;-0.439563;,
        -0.654661;-0.564841;-0.502368;,
        -0.655742;-0.653215; 0.378567;,
        -0.552290;-0.770269; 0.318844;,
        -0.424754; 0.669625;-0.609250;,
        -0.590319; 0.676186;-0.440790;,
        -0.538160;-0.740882;-0.401844;,
        -0.379016;-0.748863;-0.543646;,
         0.671582; 0.603551;-0.429772;,
         0.707146; 0.707068; 0.000000;,
         0.707107;-0.707107;-0.000000;,
         0.671582;-0.603551;-0.429772;,
         0.707146; 0.707068; 0.000000;,
         0.671582; 0.603551; 0.429772;,
         0.671582;-0.603550; 0.429772;,
         0.707107;-0.707107;-0.000000;,
        -0.671582; 0.603551; 0.429772;,
        -0.707146; 0.707068; 0.000000;,
        -0.707107;-0.707107; 0.000000;,
        -0.671582;-0.603550; 0.429772;,
        -0.707146; 0.707068; 0.000000;,
        -0.671582; 0.603551;-0.429772;,
        -0.671582;-0.603551;-0.429772;,
        -0.707107;-0.707107; 0.000000;,
        -0.379016;-0.748863;-0.543646;,
        -0.671582;-0.603551;-0.429772;,
        -0.671582; 0.603551;-0.429772;,
        -0.424754; 0.669625;-0.609250;,
        -0.424754; 0.669625; 0.609251;,
        -0.671582; 0.603551; 0.429772;,
        -0.671582;-0.603550; 0.429772;,
        -0.379016;-0.748863; 0.543646;,
         0.707107;-0.707107;-0.000000;,
         0.671582;-0.603550; 0.429772;,
         0.379016;-0.748863; 0.543646;,
         0.379016;-0.748863;-0.543646;,
         0.671582;-0.603551;-0.429772;,
         0.707107;-0.707107;-0.000000;,
         0.000000; 0.707068;-0.707146;,
         0.405908; 0.608111;-0.682232;,
         0.405907;-0.608110;-0.682233;,
         0.000000;-0.707106;-0.707107;,
         0.405908; 0.608111; 0.682232;,
         0.000000; 0.707068; 0.707146;,
         0.000000;-0.707106; 0.707107;,
         0.405907;-0.608110; 0.682233;,
         0.000000; 0.707068; 0.707146;,
        -0.405908; 0.608111; 0.682232;,
        -0.405907;-0.608110; 0.682233;,
         0.000000;-0.707106; 0.707107;,
        -0.405908; 0.608111;-0.682232;,
         0.000000; 0.707068;-0.707146;,
         0.000000;-0.707106;-0.707107;,
        -0.405907;-0.608110;-0.682233;,
        -0.538160;-0.740882;-0.401844;,
        -0.405907;-0.608110;-0.682233;,
         0.000000;-0.707106;-0.707107;,
         0.000000;-0.707106;-0.707107;,
         0.405907;-0.608110;-0.682233;,
         0.538160;-0.740882;-0.401843;,
         0.590319; 0.676186; 0.440790;,
         0.405908; 0.608111; 0.682232;,
         0.405907;-0.608110; 0.682233;,
         0.538160;-0.740882; 0.401844;,
        -0.590319; 0.676186;-0.440790;,
        -0.405908; 0.608111;-0.682232;,
        -0.405907;-0.608110;-0.682233;,
        -0.538160;-0.740882;-0.401844;,
         0.538160;-0.740882;-0.401843;,
         0.405907;-0.608110;-0.682233;,
         0.405908; 0.608111;-0.682232;,
         0.590319; 0.676186;-0.440790;,
         0.000000;-0.707106; 0.707107;,
        -0.405907;-0.608110; 0.682233;,
        -0.538160;-0.740882; 0.401844;,
        -0.000000;-0.770250;-0.637742;,
         0.000000;-0.707106;-0.707107;,
         0.538160;-0.740882;-0.401843;,
         0.318847;-0.770268;-0.552290;,
         0.318847;-0.770268;-0.552290;,
         0.538160;-0.740882;-0.401843;,
         0.379016;-0.748863;-0.543646;,
         0.552289;-0.770265;-0.318855;,
         0.552289;-0.770265;-0.318855;,
         0.379016;-0.748863;-0.543646;,
         0.707107;-0.707107;-0.000000;,
         0.637743;-0.770249;-0.000010;,
         0.637743;-0.770249;-0.000010;,
         0.707107;-0.707107;-0.000000;,
         0.379016;-0.748863; 0.543646;,
         0.552290;-0.770269; 0.318844;,
         0.552290;-0.770269; 0.318844;,
         0.379016;-0.748863; 0.543646;,
         0.538160;-0.740882; 0.401844;,
         0.318847;-0.770267; 0.552290;,
         0.318847;-0.770267; 0.552290;,
         0.538160;-0.740882; 0.401844;,
         0.000000;-0.707106; 0.707107;,
        -0.000000;-0.770250; 0.637742;,
        -0.000000;-0.770250; 0.637742;,
         0.000000;-0.707106; 0.707107;,
        -0.538160;-0.740882; 0.401844;,
        -0.318847;-0.770268; 0.552290;,
        -0.318847;-0.770268; 0.552290;,
        -0.538160;-0.740882; 0.401844;,
        -0.379016;-0.748863; 0.543646;,
        -0.552290;-0.770269; 0.318844;,
        -0.552290;-0.770269; 0.318844;,
        -0.379016;-0.748863; 0.543646;,
        -0.707107;-0.707107; 0.000000;,
        -0.637743;-0.770249;-0.000009;,
        -0.637743;-0.770249;-0.000009;,
        -0.707107;-0.707107; 0.000000;,
        -0.379016;-0.748863;-0.543646;,
        -0.552289;-0.770265;-0.318855;,
        -0.552289;-0.770265;-0.318855;,
        -0.379016;-0.748863;-0.543646;,
        -0.538160;-0.740882;-0.401844;,
        -0.318847;-0.770268;-0.552290;,
        -0.318847;-0.770268;-0.552290;,
        -0.538160;-0.740882;-0.401844;,
         0.000000;-0.707106;-0.707107;,
        -0.000000;-0.770250;-0.637742;,
        -0.552270;-0.770267; 0.318883;,
        -0.655704;-0.653234; 0.378600;,
        -0.378608;-0.653235; 0.655697;,
        -0.318897;-0.770250; 0.552286;,
        -0.000000;-0.770250; 0.637742;,
        -0.000000;-0.653235; 0.757155;,
         0.378567;-0.653222; 0.655734;,
         0.318847;-0.770267; 0.552290;,
         0.637743;-0.770249;-0.000010;,
         0.757151;-0.653240;-0.000012;,
         0.572844;-0.691830; 0.439569;,
         0.654711;-0.564757; 0.502398;,
         0.655712;-0.653249;-0.378560;,
         0.552289;-0.770265;-0.318855;,
        -0.552289;-0.770265;-0.318855;,
        -0.655712;-0.653249;-0.378559;,
        -0.654711;-0.564757; 0.502397;,
        -0.572844;-0.691829; 0.439570;,
        -0.757151;-0.653240;-0.000011;,
        -0.637743;-0.770249;-0.000009;,
        -0.318847;-0.770268; 0.552290;,
        -0.378567;-0.653222; 0.655734;,
        -0.000000;-0.653235; 0.757155;,
        -0.000000;-0.770250; 0.637742;,
         0.552290;-0.770269; 0.318844;,
         0.655742;-0.653214; 0.378568;,
         0.654661;-0.564841;-0.502368;,
         0.572817;-0.691855;-0.439564;,
         0.757151;-0.653240;-0.000012;,
         0.637743;-0.770249;-0.000010;,
        -0.318847;-0.770268;-0.552290;,
        -0.378567;-0.653222;-0.655734;,
        -0.655712;-0.653249;-0.378559;,
        -0.552289;-0.770265;-0.318855;,
         0.318847;-0.770268;-0.552290;,
         0.378567;-0.653222;-0.655734;,
        -0.000000;-0.653235;-0.757155;,
        -0.000000;-0.770250;-0.637742;,
        -0.552290;-0.770269; 0.318844;,
        -0.655742;-0.653215; 0.378567;,
        -0.378567;-0.653222; 0.655734;,
        -0.318847;-0.770268; 0.552290;,
         0.318847;-0.770267; 0.552290;,
         0.378567;-0.653222; 0.655734;,
         0.655742;-0.653214; 0.378568;,
         0.552290;-0.770269; 0.318844;,
        -0.000000;-0.770250;-0.637742;,
        -0.000000;-0.653235;-0.757155;,
        -0.378567;-0.653222;-0.655734;,
        -0.318847;-0.770268;-0.552290;,
         0.552289;-0.770265;-0.318855;,
         0.655712;-0.653249;-0.378560;,
         0.378567;-0.653222;-0.655734;,
         0.318847;-0.770268;-0.552290;,
         0.000000;-0.770287; 0.637697;,
        -0.000000;-0.653235;-0.757155;,
         0.378567;-0.653222;-0.655734;,
        -0.318897;-0.770250; 0.552286;,
        -0.318897;-0.770250; 0.552286;,
         0.378567;-0.653222;-0.655734;,
         0.655712;-0.653249;-0.378560;,
        -0.552270;-0.770267; 0.318883;,
        -0.552270;-0.770267; 0.318883;,
         0.655712;-0.653249;-0.378560;,
         0.654711;-0.564757; 0.502398;,
        -0.490448;-0.592337; 0.639217;,
        -0.552297;-0.770228;-0.318930;,
         0.655742;-0.653214; 0.378568;,
         0.378567;-0.653222; 0.655734;,
        -0.318897;-0.770250;-0.552286;,
        -0.318897;-0.770250;-0.552286;,
         0.378567;-0.653222; 0.655734;,
        -0.000000;-0.653235; 0.757155;,
         0.000000;-0.770287;-0.637698;,
         0.000000;-0.770287;-0.637698;,
        -0.000000;-0.653235; 0.757155;,
        -0.378567;-0.653222; 0.655734;,
         0.318898;-0.770250;-0.552286;,
         0.318898;-0.770250;-0.552286;,
        -0.378567;-0.653222; 0.655734;,
        -0.655742;-0.653215; 0.378567;,
         0.552297;-0.770228;-0.318931;,
         0.552297;-0.770228;-0.318931;,
        -0.655742;-0.653215; 0.378567;,
        -0.654661;-0.564841;-0.502368;,
         0.490372;-0.592444;-0.639176;,
         0.552270;-0.770267; 0.318884;,
        -0.655712;-0.653249;-0.378559;,
        -0.378567;-0.653222;-0.655734;,
         0.318898;-0.770250; 0.552286;,
         0.318898;-0.770250; 0.552286;,
        -0.378567;-0.653222;-0.655734;,
        -0.000000;-0.653235;-0.757155;,
         0.000000;-0.770287; 0.637697;,
        -0.378608;-0.653235; 0.655697;,
        -0.655704;-0.653234; 0.378600;,
        -0.757172;-0.653216;-0.000038;,
        -0.655680;-0.653240;-0.378630;,
        -0.378608;-0.653236;-0.655697;,
         0.000000;-0.653209;-0.757177;,
         0.378609;-0.653236;-0.655697;,
         0.655680;-0.653240;-0.378630;,
         0.757172;-0.653216;-0.000038;,
         0.655704;-0.653234; 0.378600;,
         0.378609;-0.653235; 0.655697;,
         0.000000;-0.653209; 0.757178;,
         0.000000;-0.770287;-0.637698;,
         0.000000;-0.653209;-0.757177;,
        -0.378608;-0.653236;-0.655697;,
        -0.318897;-0.770250;-0.552286;,
         0.552270;-0.770267; 0.318884;,
         0.655704;-0.653234; 0.378600;,
         0.757172;-0.653216;-0.000038;,
         0.637700;-0.770285;-0.000031;,
         0.538945;-0.464921; 0.702415;,
         0.490449;-0.592337; 0.639216;,
         0.318898;-0.770250;-0.552286;,
         0.378609;-0.653236;-0.655697;,
         0.000000;-0.653209;-0.757177;,
         0.000000;-0.770287;-0.637698;,
        -0.552297;-0.770228;-0.318930;,
        -0.655680;-0.653240;-0.378630;,
        -0.757172;-0.653216;-0.000038;,
        -0.637700;-0.770285;-0.000033;,
        -0.538896;-0.464962;-0.702425;,
        -0.490372;-0.592444;-0.639176;,
         0.318898;-0.770250; 0.552286;,
         0.378609;-0.653235; 0.655697;,
         0.655704;-0.653234; 0.378600;,
         0.552270;-0.770267; 0.318884;,
        -0.318897;-0.770250; 0.552286;,
        -0.378608;-0.653235; 0.655697;,
         0.000000;-0.653209; 0.757178;,
         0.000000;-0.770287; 0.637697;,
         0.552297;-0.770228;-0.318931;,
         0.655680;-0.653240;-0.378630;,
         0.378609;-0.653236;-0.655697;,
         0.318898;-0.770250;-0.552286;,
        -0.318897;-0.770250;-0.552286;,
        -0.378608;-0.653236;-0.655697;,
        -0.655680;-0.653240;-0.378630;,
        -0.552297;-0.770228;-0.318930;,
         0.000000;-0.770287; 0.637697;,
         0.000000;-0.653209; 0.757178;,
         0.378609;-0.653235; 0.655697;,
         0.318898;-0.770250; 0.552286;,
         0.654661;-0.564841;-0.502368;,
         0.655742;-0.653214; 0.378568;,
        -0.552297;-0.770228;-0.318930;,
        -0.490372;-0.592444;-0.639176;,
         0.637700;-0.770285;-0.000031;,
         0.757172;-0.653216;-0.000038;,
         0.655680;-0.653240;-0.378630;,
         0.552297;-0.770228;-0.318931;,
         0.490372;-0.592444;-0.639176;,
         0.538897;-0.464962;-0.702425;,
        -0.654711;-0.564757; 0.502397;,
        -0.655712;-0.653249;-0.378559;,
         0.552270;-0.770267; 0.318884;,
         0.490449;-0.592337; 0.639216;,
        -0.637700;-0.770285;-0.000033;,
        -0.757172;-0.653216;-0.000038;,
        -0.655704;-0.653234; 0.378600;,
        -0.552270;-0.770267; 0.318883;,
        -0.490448;-0.592337; 0.639217;,
        -0.538945;-0.464922; 0.702414;,
        -0.590319; 0.676186; 0.440790;,
        -0.405908; 0.608111; 0.682232;,
         0.000000; 0.707068; 0.707146;,
         0.405908; 0.608111; 0.682232;,
         0.590319; 0.676186; 0.440790;,
         0.424754; 0.669625; 0.609251;,
         0.671582; 0.603551; 0.429772;,
         0.707146; 0.707068; 0.000000;,
         0.671582; 0.603551;-0.429772;,
         0.424754; 0.669625;-0.609250;,
         0.590319; 0.676186;-0.440790;,
         0.405908; 0.608111;-0.682232;,
         0.000000; 0.707068;-0.707146;,
        -0.405908; 0.608111;-0.682232;,
        -0.590319; 0.676186;-0.440790;,
        -0.424754; 0.669625;-0.609250;,
        -0.671582; 0.603551;-0.429772;,
        -0.707146; 0.707068; 0.000000;,
        -0.671582; 0.603551; 0.429772;,
        -0.424754; 0.669625; 0.609251;;
        86;
        4;3,2,1,0;,
        4;7,6,5,4;,
        4;11,10,9,8;,
        4;15,14,13,12;,
        4;19,18,17,16;,
        4;23,22,21,20;,
        4;27,26,25,24;,
        4;31,30,29,28;,
        4;35,34,33,32;,
        4;39,38,37,36;,
        4;43,42,41,40;,
        3;46,45,44;,
        4;50,49,48,47;,
        3;53,52,51;,
        4;57,56,55,54;,
        4;61,60,59,58;,
        3;64,63,62;,
        6;70,69,68,67,66,65;,
        4;74,73,72,71;,
        4;78,77,76,75;,
        4;82,81,80,79;,
        4;86,85,84,83;,
        4;90,89,88,87;,
        4;94,93,92,91;,
        4;98,97,96,95;,
        3;101,100,99;,
        3;104,103,102;,
        4;108,107,106,105;,
        4;112,111,110,109;,
        4;116,115,114,113;,
        4;120,119,118,117;,
        3;123,122,121;,
        3;126,125,124;,
        4;130,129,128,127;,
        4;134,133,132,131;,
        4;138,137,136,135;,
        3;141,140,139;,
        4;145,144,143,142;,
        4;149,148,147,146;,
        4;153,152,151,150;,
        4;157,156,155,154;,
        4;161,160,159,158;,
        4;165,164,163,162;,
        4;169,168,167,166;,
        4;173,172,171,170;,
        4;177,176,175,174;,
        4;181,180,179,178;,
        4;185,184,183,182;,
        4;189,188,187,186;,
        4;193,192,191,190;,
        4;197,196,195,194;,
        6;203,202,201,200,199,198;,
        6;209,208,207,206,205,204;,
        4;213,212,211,210;,
        6;219,218,217,216,215,214;,
        4;223,222,221,220;,
        4;227,226,225,224;,
        4;231,230,229,228;,
        4;235,234,233,232;,
        4;239,238,237,236;,
        4;243,242,241,240;,
        4;247,246,245,244;,
        4;251,250,249,248;,
        4;255,254,253,252;,
        4;259,258,257,256;,
        4;263,262,261,260;,
        4;267,266,265,264;,
        4;271,270,269,268;,
        4;275,274,273,272;,
        4;279,278,277,276;,
        4;283,282,281,280;,
        12;295,294,293,292,291,290,289,288,287,286,285,284;,
        4;299,298,297,296;,
        6;305,304,303,302,301,300;,
        4;309,308,307,306;,
        6;315,314,313,312,311,310;,
        4;319,318,317,316;,
        4;323,322,321,320;,
        4;327,326,325,324;,
        4;331,330,329,328;,
        4;335,334,333,332;,
        4;339,338,337,336;,
        6;345,344,343,342,341,340;,
        4;349,348,347,346;,
        6;355,354,353,352,351,350;,
        20;375,374,373,372,371,370,369,368,367,366,365,364,363,362,361,360,359,358,357,356;;
      }
      MeshTextureCoords {
        376;
         0.821842; 0.893340;,
         0.821842; 0.907203;,
         0.814470; 0.907203;,
         0.814470; 0.893340;,
         0.525072; 0.884976;,
         0.525072; 0.871113;,
         0.532444; 0.871113;,
         0.532444; 0.884976;,
         0.994866; 0.986418;,
         0.992004; 0.998122;,
         0.984634; 0.998284;,
         0.987496; 0.986580;,
         0.990448; 0.962134;,
         0.993311; 0.973838;,
         0.985940; 0.973676;,
         0.983078; 0.961972;,
         0.637017; 0.891117;,
         0.637017; 0.904979;,
         0.629645; 0.904979;,
         0.629645; 0.891117;,
         0.812815; 0.889420;,
         0.812815; 0.875557;,
         0.820187; 0.875557;,
         0.820187; 0.889420;,
         0.992077; 0.976851;,
         0.994866; 0.986418;,
         0.987496; 0.986580;,
         0.984706; 0.977012;,
         0.993238; 0.952566;,
         0.990448; 0.962134;,
         0.983078; 0.961972;,
         0.985868; 0.952405;,
         0.192646; 0.998315;,
         0.178061; 0.998315;,
         0.178061; 0.183296;,
         0.192646; 0.183296;,
         0.133854; 0.183297;,
         0.160507; 0.183297;,
         0.160508; 0.998316;,
         0.133854; 0.998316;,
         0.160507; 0.183297;,
         0.174733; 0.183315;,
         0.174734; 0.998334;,
         0.160508; 0.998316;,
         0.567939; 0.993590;,
         0.555449; 0.998074;,
         0.541117; 0.983498;,
         0.015895; 0.183318;,
         0.042548; 0.183318;,
         0.042549; 0.998337;,
         0.015895; 0.998337;,
         0.631936; 0.957356;,
         0.636000; 0.971514;,
         0.622472; 0.984817;,
         0.192646; 0.183296;,
         0.219300; 0.183296;,
         0.219300; 0.998315;,
         0.192646; 0.998315;,
         0.015895; 0.998337;,
         0.001669; 0.998318;,
         0.001669; 0.183299;,
         0.015895; 0.183318;,
         0.541117; 0.983498;,
         0.526784; 0.968922;,
         0.531478; 0.956510;,
         0.640412; 0.946695;,
         0.676580; 0.946695;,
         0.676580; 0.956660;,
         0.690443; 0.956660;,
         0.690443; 0.963908;,
         0.640412; 0.963908;,
         0.074701; 0.183318;,
         0.101354; 0.183318;,
         0.101354; 0.998336;,
         0.074700; 0.998336;,
         0.277746; 0.998334;,
         0.257305; 0.998334;,
         0.257304; 0.175206;,
         0.277746; 0.175206;,
         0.257305; 0.998334;,
         0.236864; 0.998334;,
         0.236862; 0.175206;,
         0.257304; 0.175206;,
         0.281077; 0.175209;,
         0.301518; 0.175209;,
         0.301518; 0.998337;,
         0.281076; 0.998337;,
         0.301518; 0.175209;,
         0.321959; 0.175209;,
         0.321961; 0.998337;,
         0.301518; 0.998337;,
         0.074700; 0.998336;,
         0.060475; 0.998318;,
         0.060475; 0.183299;,
         0.074701; 0.183318;,
         0.219300; 0.183296;,
         0.233525; 0.183314;,
         0.233526; 0.998333;,
         0.219300; 0.998315;,
         0.622524; 0.903451;,
         0.636857; 0.918027;,
         0.632163; 0.930439;,
         0.595703; 0.893359;,
         0.608192; 0.888875;,
         0.622524; 0.903451;,
         0.411180; 0.998329;,
         0.392207; 0.998329;,
         0.392207; 0.175209;,
         0.411179; 0.175209;,
         0.325286; 0.175209;,
         0.344258; 0.175209;,
         0.344258; 0.998329;,
         0.325286; 0.998329;,
         0.347594; 0.175209;,
         0.366567; 0.175209;,
         0.366567; 0.998329;,
         0.347594; 0.998329;,
         0.388877; 0.998329;,
         0.369904; 0.998329;,
         0.369904; 0.175209;,
         0.388877; 0.175209;,
         0.531705; 0.929592;,
         0.527641; 0.915434;,
         0.541169; 0.902132;,
         0.541169; 0.902132;,
         0.554697; 0.888830;,
         0.568785; 0.893132;,
         0.042548; 0.183318;,
         0.057134; 0.183318;,
         0.057134; 0.998337;,
         0.042549; 0.998337;,
         0.101354; 0.183318;,
         0.115939; 0.183318;,
         0.115939; 0.998336;,
         0.101354; 0.998336;,
         0.133854; 0.998316;,
         0.119269; 0.998316;,
         0.119269; 0.183297;,
         0.133854; 0.183297;,
         0.622472; 0.984817;,
         0.608944; 0.998119;,
         0.594856; 0.993817;,
         0.558505; 0.919763;,
         0.541169; 0.902132;,
         0.568785; 0.893132;,
         0.573485; 0.911282;,
         0.573485; 0.911282;,
         0.568785; 0.893132;,
         0.595703; 0.893359;,
         0.590698; 0.911427;,
         0.590698; 0.911427;,
         0.595703; 0.893359;,
         0.622524; 0.903451;,
         0.605532; 0.920159;,
         0.605532; 0.920159;,
         0.622524; 0.903451;,
         0.632163; 0.930439;,
         0.614013; 0.935138;,
         0.614013; 0.935138;,
         0.632163; 0.930439;,
         0.631936; 0.957356;,
         0.613868; 0.952351;,
         0.613868; 0.952351;,
         0.631936; 0.957356;,
         0.622472; 0.984817;,
         0.605136; 0.967186;,
         0.605136; 0.967186;,
         0.622472; 0.984817;,
         0.594856; 0.993817;,
         0.590156; 0.975667;,
         0.590156; 0.975667;,
         0.594856; 0.993817;,
         0.567939; 0.993590;,
         0.572943; 0.975522;,
         0.572943; 0.975522;,
         0.567939; 0.993590;,
         0.541117; 0.983498;,
         0.558109; 0.966790;,
         0.558109; 0.966790;,
         0.541117; 0.983498;,
         0.531478; 0.956510;,
         0.549628; 0.951810;,
         0.549628; 0.951810;,
         0.531478; 0.956510;,
         0.531705; 0.929592;,
         0.549773; 0.934597;,
         0.549773; 0.934597;,
         0.531705; 0.929592;,
         0.541169; 0.902132;,
         0.558505; 0.919763;,
         0.823836; 0.944742;,
         0.800393; 0.944742;,
         0.800393; 0.931344;,
         0.823836; 0.931344;,
         0.693777; 0.998335;,
         0.693777; 0.948305;,
         0.710990; 0.948305;,
         0.710990; 0.998336;,
         0.745418; 0.998335;,
         0.745418; 0.962168;,
         0.757467; 0.962168;,
         0.757467; 0.948305;,
         0.762631; 0.948305;,
         0.762631; 0.998335;,
         0.640412; 0.929481;,
         0.690443; 0.929481;,
         0.690443; 0.934645;,
         0.676580; 0.934645;,
         0.676580; 0.946695;,
         0.640412; 0.946695;,
         0.640412; 0.981122;,
         0.690443; 0.981122;,
         0.690443; 0.998336;,
         0.640412; 0.998336;,
         0.728204; 0.998335;,
         0.728204; 0.948305;,
         0.735452; 0.948305;,
         0.735452; 0.962168;,
         0.745418; 0.962168;,
         0.745418; 0.998335;,
         0.640412; 0.912268;,
         0.690443; 0.912268;,
         0.690443; 0.929481;,
         0.640412; 0.929481;,
         0.779845; 0.998335;,
         0.779845; 0.948305;,
         0.797059; 0.948305;,
         0.797059; 0.998335;,
         0.640412; 0.963908;,
         0.690443; 0.963908;,
         0.690443; 0.981122;,
         0.640412; 0.981122;,
         0.710990; 0.998336;,
         0.710990; 0.948305;,
         0.728204; 0.948305;,
         0.728204; 0.998335;,
         0.640412; 0.895054;,
         0.690443; 0.895054;,
         0.690443; 0.912268;,
         0.640412; 0.912268;,
         0.762631; 0.998335;,
         0.762631; 0.948305;,
         0.779845; 0.948305;,
         0.779845; 0.998335;,
         0.512657; 0.998028;,
         0.508718; 0.991797;,
         0.525154; 0.986680;,
         0.525449; 0.994046;,
         0.525449; 0.994046;,
         0.525154; 0.986680;,
         0.541946; 0.990465;,
         0.538518; 0.996992;,
         0.538518; 0.996992;,
         0.541946; 0.990465;,
         0.545741; 0.993968;,
         0.539509; 0.997907;,
         0.758761; 0.220522;,
         0.765447; 0.217417;,
         0.768410; 0.234374;,
         0.761067; 0.233720;,
         0.761067; 0.233720;,
         0.768410; 0.234374;,
         0.762497; 0.250540;,
         0.756465; 0.246302;,
         0.930944; 0.448566;,
         0.924912; 0.452804;,
         0.918999; 0.436638;,
         0.926342; 0.435984;,
         0.926342; 0.435984;,
         0.918999; 0.436638;,
         0.921961; 0.419681;,
         0.928648; 0.422786;,
         0.928648; 0.422786;,
         0.921961; 0.419681;,
         0.926612; 0.414121;,
         0.930850; 0.420153;,
         0.486562; 0.209994;,
         0.489989; 0.216521;,
         0.473197; 0.220307;,
         0.473492; 0.212941;,
         0.473492; 0.212941;,
         0.473197; 0.220307;,
         0.456761; 0.215190;,
         0.460700; 0.208958;,
         0.573201; 0.921662;,
         0.586599; 0.921662;,
         0.598201; 0.928361;,
         0.604900; 0.939964;,
         0.604900; 0.953361;,
         0.598201; 0.964964;,
         0.586599; 0.971663;,
         0.573201; 0.971663;,
         0.561599; 0.964964;,
         0.554900; 0.953361;,
         0.554900; 0.939964;,
         0.561599; 0.928361;,
         0.823836; 0.998332;,
         0.800393; 0.998332;,
         0.800393; 0.984935;,
         0.823836; 0.984935;,
         0.720571; 0.944984;,
         0.720571; 0.921541;,
         0.733968; 0.921541;,
         0.733968; 0.931121;,
         0.721918; 0.931121;,
         0.721918; 0.944984;,
         0.760763; 0.944984;,
         0.760763; 0.921541;,
         0.774161; 0.921541;,
         0.774161; 0.944984;,
         0.823836; 0.971537;,
         0.800393; 0.971537;,
         0.800393; 0.958140;,
         0.809973; 0.958140;,
         0.809973; 0.968105;,
         0.823836; 0.968105;,
         0.707173; 0.944984;,
         0.707173; 0.921541;,
         0.720571; 0.921541;,
         0.720571; 0.944984;,
         0.823836; 0.931344;,
         0.800393; 0.931344;,
         0.800393; 0.917947;,
         0.823836; 0.917947;,
         0.747366; 0.944984;,
         0.747366; 0.921541;,
         0.760763; 0.921541;,
         0.760763; 0.944984;,
         0.823836; 0.984935;,
         0.800393; 0.984935;,
         0.800393; 0.971537;,
         0.823836; 0.971537;,
         0.693775; 0.944984;,
         0.693775; 0.921541;,
         0.707173; 0.921541;,
         0.707173; 0.944984;,
         0.760797; 0.211858;,
         0.765447; 0.217417;,
         0.758761; 0.220522;,
         0.756559; 0.217890;,
         0.733968; 0.931121;,
         0.733968; 0.921541;,
         0.747366; 0.921541;,
         0.747366; 0.944984;,
         0.743934; 0.944984;,
         0.743934; 0.931121;,
         0.493784; 0.213018;,
         0.489989; 0.216521;,
         0.486562; 0.209994;,
         0.487552; 0.209080;,
         0.809973; 0.958140;,
         0.800393; 0.958140;,
         0.800393; 0.944742;,
         0.823836; 0.944742;,
         0.823836; 0.946090;,
         0.809973; 0.946090;,
         0.192646; 0.183296;,
         0.366567; 0.175209;,
         0.344258; 0.175209;,
         0.057134; 0.183318;,
         0.042548; 0.183318;,
         0.015895; 0.183318;,
         0.236864; 0.998334;,
         0.257305; 0.998334;,
         0.174733; 0.183315;,
         0.160507; 0.183297;,
         0.133854; 0.183297;,
         0.392207; 0.998329;,
         0.369904; 0.998329;,
         0.115939; 0.183318;,
         0.101354; 0.183318;,
         0.074701; 0.183318;,
         0.321959; 0.175209;,
         0.301518; 0.175209;,
         0.233525; 0.183314;,
         0.219300; 0.183296;;
      }
      MeshMaterialList {
        1;
        86;
        0,
        0,
        0,
        0,
        0,
        0,
        0,
        0,
        0,
        0,
        0,
        0,
        0,
        0,
        0,
        0,
        0,
        0,
        0,
        0,
        0,
        0,
        0,
        0,
        0,
        0,
        0,
        0,
        0,
        0,
        0,
        0,
        0,
        0,
        0,
        0,
        0,
        0,
        0,
        0,
        0,
        0,
        0,
        0,
        0,
        0,
        0,
        0,
        0,
        0,
        0,
        0,
        0,
        0,
        0,
        0,
        0,
        0,
        0,
        0,
        0,
        0,
        0,
        0,
        0,
        0,
        0,
        0,
        0,
        0,
        0,
        0,
        0,
        0,
        0,
        0,
        0,
        0,
        0,
        0,
        0,
        0,
        0,
        0,
        0,
        0;
        Material forearm1 {
           0.800000; 0.800000; 0.800000; 1.000000;;
           225.000000;
           0.500000; 0.500000; 0.500000;;
           0.000000; 0.000000; 0.000000;;
        }
      }
    }
  }
}
