xof 0303txt 0032

Frame Root {
  FrameTransformMatrix {
     1.000000, 0.000000, 0.000000, 0.000000,
     0.000000,-0.000000, 1.000000, 0.000000,
     0.000000, 1.000000, 0.000000, 0.000000,
     0.000000, 0.000000, 0.000000, 1.000000;;
  }
  Frame ForearmAK2_Cylinder_001 {
    FrameTransformMatrix {
       1.000000, 0.000000, 0.000000, 0.000000,
       0.000000, 1.000000, 0.000000, 0.000000,
       0.000000, 0.000000, 1.000000, 0.000000,
       0.000000, 0.000000, 0.000000, 1.000000;;
    }
    Mesh {
      348;
      -0.000000; 0.077347; 0.014529;,
      -0.006433; 0.077347; 0.019590;,
      -0.007429; 0.077347; 0.015876;,
       0.008548;-0.115289; 0.012239;,
       0.000000;-0.115289; 0.014529;,
       0.000000;-0.081757; 0.014529;,
       0.008548;-0.081757; 0.012239;,
       0.014806;-0.115289; 0.005981;,
       0.008548;-0.115289; 0.012239;,
       0.008548;-0.081757; 0.012239;,
      -0.014806;-0.115289; 0.005981;,
      -0.011230;-0.115289; 0.003426;,
      -0.012966;-0.115289;-0.005700;,
      -0.017096;-0.115289;-0.006050;,
       0.000000;-0.115289; 0.014529;,
      -0.008548;-0.115289; 0.012239;,
      -0.008548;-0.081757; 0.012239;,
       0.000000;-0.081757; 0.014529;,
       0.008548;-0.115289;-0.020856;,
       0.006484;-0.115289;-0.016928;,
       0.011230;-0.115289;-0.012182;,
       0.014806;-0.115289;-0.014598;,
      -0.008548;-0.115289; 0.012239;,
      -0.014806;-0.115289; 0.005981;,
      -0.008548;-0.081757; 0.012239;,
       0.014806; 0.089282; 0.005981;,
       0.008548;-0.000326; 0.012239;,
       0.008548; 0.089282; 0.012239;,
      -0.008548;-0.000326; 0.012239;,
      -0.014806; 0.089282; 0.005981;,
      -0.008548; 0.089282; 0.012239;,
       0.014806; 0.089282; 0.005981;,
       0.014806;-0.115289; 0.005981;,
       0.008548;-0.081757; 0.012239;,
       0.008548;-0.000326; 0.012239;,
       0.017096; 0.089282;-0.006050;,
       0.017096;-0.115289;-0.006050;,
       0.014806;-0.115289; 0.005981;,
       0.014806; 0.089282; 0.005981;,
       0.014806; 0.089282;-0.014598;,
       0.014806;-0.115289;-0.014598;,
       0.017096;-0.115289;-0.006050;,
       0.017096; 0.089282;-0.006050;,
       0.008548; 0.089282;-0.020856;,
       0.008548;-0.115289;-0.020856;,
       0.014806;-0.115289;-0.014598;,
       0.014806; 0.089282;-0.014598;,
      -0.000000; 0.089282;-0.023146;,
       0.000000;-0.115289;-0.023146;,
       0.008548;-0.115289;-0.020856;,
       0.008548; 0.089282;-0.020856;,
      -0.008548; 0.089282;-0.020856;,
      -0.008548;-0.115289;-0.020856;,
       0.000000;-0.115289;-0.023146;,
      -0.000000; 0.089282;-0.023146;,
      -0.014806; 0.089282;-0.014598;,
      -0.014806;-0.115289;-0.014598;,
      -0.008548;-0.115289;-0.020856;,
      -0.008548; 0.089282;-0.020856;,
      -0.017096; 0.089282;-0.006050;,
      -0.017096;-0.115289;-0.006050;,
      -0.014806;-0.115289;-0.014598;,
      -0.014806; 0.089282;-0.014598;,
      -0.014806; 0.089282; 0.005981;,
      -0.014806;-0.115289; 0.005981;,
      -0.017096;-0.115289;-0.006050;,
      -0.017096; 0.089282;-0.006050;,
      -0.008548;-0.000326; 0.012239;,
      -0.008548;-0.081757; 0.012239;,
      -0.014806;-0.115289; 0.005981;,
      -0.014806; 0.089282; 0.005981;,
       0.008548;-0.000326; 0.021067;,
       0.003714;-0.000326; 0.022309;,
       0.006433;-0.000326; 0.019590;,
       0.008548;-0.000326; 0.012239;,
       0.006594;-0.000326; 0.012762;,
       0.006594; 0.077347; 0.012762;,
      -0.000000; 0.077347; 0.014529;,
      -0.000000; 0.089282; 0.014529;,
       0.008548; 0.089282; 0.012239;,
       0.000000;-0.081757; 0.014529;,
       0.000000;-0.081757; 0.027224;,
       0.004813;-0.081757; 0.025935;,
       0.008548;-0.081757; 0.021067;,
       0.008548;-0.081757; 0.012239;,
      -0.008548;-0.081757; 0.012239;,
      -0.008548;-0.081757; 0.021067;,
      -0.004813;-0.081757; 0.025935;,
       0.000000;-0.081757; 0.027224;,
       0.000000;-0.081757; 0.014529;,
      -0.008548;-0.000326; 0.012239;,
      -0.008548;-0.000326; 0.021067;,
      -0.008548;-0.081757; 0.021067;,
      -0.008548;-0.081757; 0.012239;,
       0.004813;-0.000326; 0.025935;,
       0.004813;-0.081757; 0.025935;,
       0.000000;-0.081757; 0.027224;,
      -0.000000;-0.000326; 0.027224;,
      -0.000000;-0.000326; 0.027224;,
       0.000000;-0.081757; 0.027224;,
      -0.004813;-0.081757; 0.025935;,
      -0.004813;-0.000326; 0.025935;,
       0.008548;-0.081757; 0.021067;,
       0.004813;-0.081757; 0.025935;,
       0.004813;-0.000326; 0.025935;,
       0.008548;-0.000326; 0.021067;,
      -0.004813;-0.081757; 0.025935;,
      -0.008548;-0.081757; 0.021067;,
      -0.008548;-0.000326; 0.021067;,
      -0.004813;-0.000326; 0.025935;,
       0.008548;-0.081757; 0.012239;,
       0.008548;-0.081757; 0.021067;,
       0.008548;-0.000326; 0.021067;,
       0.008548;-0.000326; 0.012239;,
       0.017096;-0.115289;-0.006050;,
       0.012966;-0.115289;-0.005700;,
       0.011230;-0.115289; 0.003426;,
       0.014806;-0.115289; 0.005981;,
      -0.014806;-0.115289;-0.014598;,
      -0.011230;-0.115289;-0.012182;,
      -0.006484;-0.115289;-0.016928;,
      -0.008548;-0.115289;-0.020856;,
       0.008548;-0.115289; 0.012239;,
       0.006484;-0.115289; 0.008171;,
       0.000000;-0.115289; 0.009909;,
       0.000000;-0.115289; 0.014529;,
       0.000000;-0.115289;-0.023146;,
       0.000000;-0.115289;-0.018666;,
       0.006484;-0.115289;-0.016928;,
       0.008548;-0.115289;-0.020856;,
      -0.008548;-0.115289; 0.012239;,
      -0.006484;-0.115289; 0.008171;,
      -0.011230;-0.115289; 0.003426;,
      -0.014806;-0.115289; 0.005981;,
       0.014806;-0.115289;-0.014598;,
       0.011230;-0.115289;-0.012182;,
       0.012966;-0.115289;-0.005700;,
       0.017096;-0.115289;-0.006050;,
      -0.017096;-0.115289;-0.006050;,
      -0.012966;-0.115289;-0.005700;,
      -0.011230;-0.115289;-0.012182;,
      -0.014806;-0.115289;-0.014598;,
       0.014806;-0.115289; 0.005981;,
       0.011230;-0.115289; 0.003426;,
       0.006484;-0.115289; 0.008171;,
       0.008548;-0.115289; 0.012239;,
      -0.008548;-0.115289;-0.020856;,
      -0.006484;-0.115289;-0.016928;,
       0.000000;-0.115289;-0.018666;,
       0.000000;-0.115289;-0.023146;,
       0.000000;-0.115289; 0.014529;,
       0.000000;-0.115289; 0.009909;,
      -0.006484;-0.115289; 0.008171;,
      -0.008548;-0.115289; 0.012239;,
      -0.011230;-0.115289;-0.012182;,
      -0.010184; 0.089282;-0.011930;,
      -0.005880; 0.089282;-0.016234;,
      -0.006484;-0.115289;-0.016928;,
       0.006484;-0.115289; 0.008171;,
       0.005880; 0.089282; 0.007617;,
      -0.000000; 0.089282; 0.009192;,
       0.000000;-0.115289; 0.009909;,
      -0.006484;-0.115289; 0.008171;,
      -0.005880; 0.089282; 0.007617;,
      -0.010038; 0.089282; 0.003458;,
      -0.011230;-0.115289; 0.003426;,
       0.011230;-0.115289;-0.012182;,
       0.010184; 0.089282;-0.011930;,
       0.011811; 0.089282;-0.005855;,
       0.012966;-0.115289;-0.005700;,
      -0.006484;-0.115289;-0.016928;,
      -0.005880; 0.089282;-0.016234;,
      -0.000000; 0.089282;-0.017809;,
       0.000000;-0.115289;-0.018666;,
      -0.011230;-0.115289; 0.003426;,
      -0.010038; 0.089282; 0.003458;,
      -0.011811; 0.089282;-0.005855;,
      -0.012966;-0.115289;-0.005700;,
       0.012966;-0.115289;-0.005700;,
       0.011811; 0.089282;-0.005855;,
       0.010038; 0.089282; 0.003458;,
       0.011230;-0.115289; 0.003426;,
       0.000000;-0.115289;-0.018666;,
      -0.000000; 0.089282;-0.017809;,
       0.005880; 0.089282;-0.016234;,
       0.006484;-0.115289;-0.016928;,
      -0.012966;-0.115289;-0.005700;,
      -0.011811; 0.089282;-0.005855;,
      -0.010184; 0.089282;-0.011930;,
      -0.011230;-0.115289;-0.012182;,
       0.011230;-0.115289; 0.003426;,
       0.010038; 0.089282; 0.003458;,
       0.005880; 0.089282; 0.007617;,
       0.006484;-0.115289; 0.008171;,
       0.000000;-0.115289; 0.009909;,
      -0.000000; 0.089282; 0.009192;,
      -0.005880; 0.089282; 0.007617;,
      -0.006484;-0.115289; 0.008171;,
       0.006484;-0.115289;-0.016928;,
       0.005880; 0.089282;-0.016234;,
       0.010184; 0.089282;-0.011930;,
       0.011230;-0.115289;-0.012182;,
      -0.000000; 0.089282; 0.009192;,
      -0.000000; 0.089282; 0.014529;,
      -0.008548; 0.089282; 0.012239;,
      -0.005880; 0.089282; 0.007617;,
      -0.005880; 0.089282; 0.007617;,
      -0.008548; 0.089282; 0.012239;,
      -0.014806; 0.089282; 0.005981;,
      -0.010038; 0.089282; 0.003458;,
      -0.010038; 0.089282; 0.003458;,
      -0.014806; 0.089282; 0.005981;,
      -0.017096; 0.089282;-0.006050;,
      -0.011811; 0.089282;-0.005855;,
      -0.011811; 0.089282;-0.005855;,
      -0.017096; 0.089282;-0.006050;,
      -0.014806; 0.089282;-0.014598;,
      -0.010184; 0.089282;-0.011930;,
      -0.010184; 0.089282;-0.011930;,
      -0.014806; 0.089282;-0.014598;,
      -0.008548; 0.089282;-0.020856;,
      -0.005880; 0.089282;-0.016234;,
      -0.005880; 0.089282;-0.016234;,
      -0.008548; 0.089282;-0.020856;,
      -0.000000; 0.089282;-0.023146;,
      -0.000000; 0.089282;-0.017809;,
      -0.000000; 0.089282;-0.017809;,
      -0.000000; 0.089282;-0.023146;,
       0.008548; 0.089282;-0.020856;,
       0.005880; 0.089282;-0.016234;,
       0.005880; 0.089282;-0.016234;,
       0.008548; 0.089282;-0.020856;,
       0.014806; 0.089282;-0.014598;,
       0.010184; 0.089282;-0.011930;,
       0.010184; 0.089282;-0.011930;,
       0.014806; 0.089282;-0.014598;,
       0.017096; 0.089282;-0.006050;,
       0.011811; 0.089282;-0.005855;,
       0.011811; 0.089282;-0.005855;,
       0.017096; 0.089282;-0.006050;,
       0.014806; 0.089282; 0.005981;,
       0.010038; 0.089282; 0.003458;,
       0.010038; 0.089282; 0.003458;,
       0.014806; 0.089282; 0.005981;,
       0.008548; 0.089282; 0.012239;,
       0.005880; 0.089282; 0.007617;,
       0.005880; 0.089282; 0.007617;,
       0.008548; 0.089282; 0.012239;,
      -0.000000; 0.089282; 0.014529;,
      -0.000000; 0.089282; 0.009192;,
      -0.007429;-0.000326; 0.015876;,
      -0.007429; 0.077347; 0.015876;,
      -0.006433; 0.077347; 0.019590;,
      -0.006433;-0.000326; 0.019590;,
      -0.006594; 0.077347; 0.012762;,
      -0.007429; 0.077347; 0.015876;,
      -0.007429;-0.000326; 0.015876;,
      -0.006594;-0.000326; 0.012762;,
       0.007429;-0.000326; 0.015876;,
       0.007429; 0.077347; 0.015876;,
       0.006594; 0.077347; 0.012762;,
       0.006594;-0.000326; 0.012762;,
       0.006433;-0.000326; 0.019590;,
       0.006433; 0.077347; 0.019590;,
       0.007429; 0.077347; 0.015876;,
       0.007429;-0.000326; 0.015876;,
       0.003714;-0.000326; 0.022309;,
       0.003714; 0.077347; 0.022309;,
       0.006433; 0.077347; 0.019590;,
       0.006433;-0.000326; 0.019590;,
      -0.006594;-0.000326; 0.012762;,
      -0.008548;-0.000326; 0.012239;,
      -0.008548; 0.089282; 0.012239;,
      -0.000000; 0.089282; 0.014529;,
      -0.000000; 0.077347; 0.014529;,
      -0.006594; 0.077347; 0.012762;,
      -0.007429;-0.000326; 0.015876;,
      -0.008548;-0.000326; 0.021067;,
      -0.008548;-0.000326; 0.012239;,
      -0.003714;-0.000326; 0.022309;,
      -0.003714; 0.077347; 0.022309;,
      -0.000000; 0.077347; 0.023304;,
      -0.000000;-0.000326; 0.023304;,
      -0.000000;-0.000326; 0.023304;,
      -0.000000; 0.077347; 0.023304;,
       0.003714; 0.077347; 0.022309;,
       0.003714;-0.000326; 0.022309;,
      -0.006433;-0.000326; 0.019590;,
      -0.006433; 0.077347; 0.019590;,
      -0.003714; 0.077347; 0.022309;,
      -0.003714;-0.000326; 0.022309;,
      -0.006433; 0.077347; 0.019590;,
      -0.000000; 0.077347; 0.014529;,
      -0.003714; 0.077347; 0.022309;,
      -0.003714; 0.077347; 0.022309;,
      -0.000000; 0.077347; 0.014529;,
      -0.000000; 0.077347; 0.023304;,
      -0.000000; 0.077347; 0.023304;,
      -0.000000; 0.077347; 0.014529;,
       0.003714; 0.077347; 0.022309;,
       0.003714; 0.077347; 0.022309;,
      -0.000000; 0.077347; 0.014529;,
       0.006433; 0.077347; 0.019590;,
       0.006433; 0.077347; 0.019590;,
      -0.000000; 0.077347; 0.014529;,
       0.007429; 0.077347; 0.015876;,
       0.007429; 0.077347; 0.015876;,
      -0.000000; 0.077347; 0.014529;,
       0.006594; 0.077347; 0.012762;,
      -0.000000; 0.077347; 0.014529;,
      -0.007429; 0.077347; 0.015876;,
      -0.006594; 0.077347; 0.012762;,
       0.008548;-0.000326; 0.012239;,
       0.007429;-0.000326; 0.015876;,
       0.006594;-0.000326; 0.012762;,
       0.008548;-0.000326; 0.012239;,
       0.008548;-0.000326; 0.021067;,
       0.007429;-0.000326; 0.015876;,
       0.007429;-0.000326; 0.015876;,
       0.008548;-0.000326; 0.021067;,
       0.006433;-0.000326; 0.019590;,
       0.004813;-0.000326; 0.025935;,
       0.003714;-0.000326; 0.022309;,
       0.008548;-0.000326; 0.021067;,
      -0.000000;-0.000326; 0.023304;,
       0.004813;-0.000326; 0.025935;,
      -0.000000;-0.000326; 0.027224;,
       0.003714;-0.000326; 0.022309;,
       0.004813;-0.000326; 0.025935;,
      -0.000000;-0.000326; 0.023304;,
      -0.000000;-0.000326; 0.027224;,
      -0.004813;-0.000326; 0.025935;,
      -0.000000;-0.000326; 0.023304;,
      -0.000000;-0.000326; 0.023304;,
      -0.004813;-0.000326; 0.025935;,
      -0.003714;-0.000326; 0.022309;,
      -0.003714;-0.000326; 0.022309;,
      -0.008548;-0.000326; 0.021067;,
      -0.006433;-0.000326; 0.019590;,
      -0.008548;-0.000326; 0.021067;,
      -0.003714;-0.000326; 0.022309;,
      -0.004813;-0.000326; 0.025935;,
      -0.007429;-0.000326; 0.015876;,
      -0.008548;-0.000326; 0.012239;,
      -0.006594;-0.000326; 0.012762;,
      -0.006433;-0.000326; 0.019590;,
      -0.008548;-0.000326; 0.021067;,
      -0.007429;-0.000326; 0.015876;;
      92;
      3;2,1,0;,
      4;6,5,4,3;,
      3;9,8,7;,
      4;13,12,11,10;,
      4;17,16,15,14;,
      4;21,20,19,18;,
      3;24,23,22;,
      3;27,26,25;,
      3;30,29,28;,
      4;34,33,32,31;,
      4;38,37,36,35;,
      4;42,41,40,39;,
      4;46,45,44,43;,
      4;50,49,48,47;,
      4;54,53,52,51;,
      4;58,57,56,55;,
      4;62,61,60,59;,
      4;66,65,64,63;,
      4;70,69,68,67;,
      3;73,72,71;,
      6;79,78,77,76,75,74;,
      5;84,83,82,81,80;,
      5;89,88,87,86,85;,
      4;93,92,91,90;,
      4;97,96,95,94;,
      4;101,100,99,98;,
      4;105,104,103,102;,
      4;109,108,107,106;,
      4;113,112,111,110;,
      4;117,116,115,114;,
      4;121,120,119,118;,
      4;125,124,123,122;,
      4;129,128,127,126;,
      4;133,132,131,130;,
      4;137,136,135,134;,
      4;141,140,139,138;,
      4;145,144,143,142;,
      4;149,148,147,146;,
      4;153,152,151,150;,
      4;157,156,155,154;,
      4;161,160,159,158;,
      4;165,164,163,162;,
      4;169,168,167,166;,
      4;173,172,171,170;,
      4;177,176,175,174;,
      4;181,180,179,178;,
      4;185,184,183,182;,
      4;189,188,187,186;,
      4;193,192,191,190;,
      4;197,196,195,194;,
      4;201,200,199,198;,
      4;205,204,203,202;,
      4;209,208,207,206;,
      4;213,212,211,210;,
      4;217,216,215,214;,
      4;221,220,219,218;,
      4;225,224,223,222;,
      4;229,228,227,226;,
      4;233,232,231,230;,
      4;237,236,235,234;,
      4;241,240,239,238;,
      4;245,244,243,242;,
      4;249,248,247,246;,
      4;253,252,251,250;,
      4;257,256,255,254;,
      4;261,260,259,258;,
      4;265,264,263,262;,
      4;269,268,267,266;,
      6;275,274,273,272,271,270;,
      3;278,277,276;,
      4;282,281,280,279;,
      4;286,285,284,283;,
      4;290,289,288,287;,
      3;293,292,291;,
      3;296,295,294;,
      3;299,298,297;,
      3;302,301,300;,
      3;305,304,303;,
      3;308,307,306;,
      3;311,310,309;,
      3;314,313,312;,
      3;317,316,315;,
      3;320,319,318;,
      3;323,322,321;,
      3;326,325,324;,
      3;329,328,327;,
      3;332,331,330;,
      3;335,334,333;,
      3;338,337,336;,
      3;341,340,339;,
      3;344,343,342;,
      3;347,346,345;;
      MeshNormals {
        348;
        -0.000000;-0.770249;-0.637743;,
         0.655706;-0.653233;-0.378599;,
         0.757169;-0.653219;-0.000014;,
        -0.378569; 0.653223;-0.655733;,
        -0.000000; 0.653235;-0.757156;,
        -0.000000; 0.770251;-0.637741;,
        -0.727375; 0.226774;-0.647687;,
        -0.674317; 0.646488;-0.356860;,
        -0.378569; 0.653223;-0.655733;,
        -0.727375; 0.226774;-0.647687;,
         0.674317; 0.646488;-0.356860;,
        -0.551869; 0.781254; 0.291691;,
        -0.646318; 0.762699;-0.023729;,
         0.750596; 0.660182; 0.027657;,
        -0.000000; 0.653235;-0.757156;,
         0.378569; 0.653223;-0.655733;,
         0.727375; 0.226774;-0.647687;,
        -0.000000; 0.770251;-0.637741;,
        -0.378569; 0.653223; 0.655733;,
         0.318115; 0.771631;-0.550806;,
         0.550724; 0.771836;-0.317762;,
        -0.655733; 0.653223; 0.378569;,
         0.378569; 0.653223;-0.655733;,
         0.674317; 0.646488;-0.356860;,
         0.727375; 0.226774;-0.647687;,
        -0.674317;-0.646488;-0.356860;,
        -0.727347;-0.226815;-0.647705;,
        -0.378521;-0.653228;-0.655756;,
         0.727347;-0.226815;-0.647705;,
         0.674317;-0.646488;-0.356860;,
         0.378521;-0.653228;-0.655755;,
        -0.674317;-0.646488;-0.356860;,
        -0.674317; 0.646488;-0.356860;,
        -0.727375; 0.226774;-0.647687;,
        -0.727347;-0.226815;-0.647705;,
        -0.750596;-0.660182; 0.027657;,
        -0.750596; 0.660182; 0.027658;,
        -0.674317; 0.646488;-0.356860;,
        -0.674317;-0.646488;-0.356860;,
        -0.655733;-0.653223; 0.378569;,
        -0.655733; 0.653223; 0.378569;,
        -0.750596; 0.660182; 0.027658;,
        -0.750596;-0.660182; 0.027657;,
        -0.378569;-0.653223; 0.655733;,
        -0.378569; 0.653223; 0.655733;,
        -0.655733; 0.653223; 0.378569;,
        -0.655733;-0.653223; 0.378569;,
         0.000000;-0.653235; 0.757156;,
        -0.000000; 0.653235; 0.757155;,
        -0.378569; 0.653223; 0.655733;,
        -0.378569;-0.653223; 0.655733;,
         0.378569;-0.653223; 0.655733;,
         0.378569; 0.653223; 0.655733;,
        -0.000000; 0.653235; 0.757155;,
         0.000000;-0.653235; 0.757156;,
         0.655733;-0.653222; 0.378569;,
         0.655733; 0.653223; 0.378569;,
         0.378569; 0.653223; 0.655733;,
         0.378569;-0.653223; 0.655733;,
         0.750596;-0.660182; 0.027657;,
         0.750596; 0.660182; 0.027657;,
         0.655733; 0.653223; 0.378569;,
         0.655733;-0.653222; 0.378569;,
         0.674317;-0.646488;-0.356860;,
         0.674317; 0.646488;-0.356860;,
         0.750596; 0.660182; 0.027657;,
         0.750596;-0.660182; 0.027657;,
         0.727347;-0.226815;-0.647705;,
         0.727375; 0.226774;-0.647687;,
         0.674317; 0.646488;-0.356860;,
         0.674317;-0.646488;-0.356860;,
        -0.726486;-0.641408;-0.246605;,
        -0.318886;-0.770254;-0.552287;,
        -0.552287;-0.770254;-0.318886;,
        -0.727347;-0.226815;-0.647705;,
        -0.707097;-0.577314;-0.408317;,
        -0.707052;-0.577387;-0.408291;,
        -0.000000;-0.770249;-0.637743;,
         0.000000;-0.653217;-0.757171;,
        -0.378521;-0.653228;-0.655756;,
        -0.000000; 0.770251;-0.637741;,
         0.000000; 0.653229;-0.757160;,
        -0.426234; 0.641405;-0.637906;,
        -0.726486; 0.641408;-0.246605;,
        -0.727375; 0.226774;-0.647687;,
         0.727375; 0.226774;-0.647687;,
         0.726486; 0.641408;-0.246605;,
         0.426234; 0.641405;-0.637906;,
         0.000000; 0.653229;-0.757160;,
        -0.000000; 0.770251;-0.637741;,
         0.727347;-0.226815;-0.647705;,
         0.726486;-0.641408;-0.246605;,
         0.726486; 0.641408;-0.246605;,
         0.727375; 0.226774;-0.647687;,
        -0.426234;-0.641405;-0.637906;,
        -0.426234; 0.641405;-0.637906;,
         0.000000; 0.653229;-0.757160;,
         0.000000;-0.653229;-0.757160;,
         0.000000;-0.653229;-0.757160;,
         0.000000; 0.653229;-0.757160;,
         0.426234; 0.641405;-0.637906;,
         0.426234;-0.641405;-0.637906;,
        -0.726486; 0.641408;-0.246605;,
        -0.426234; 0.641405;-0.637906;,
        -0.426234;-0.641405;-0.637906;,
        -0.726486;-0.641408;-0.246605;,
         0.426234; 0.641405;-0.637906;,
         0.726486; 0.641408;-0.246605;,
         0.726486;-0.641408;-0.246605;,
         0.426234;-0.641405;-0.637906;,
        -0.727375; 0.226774;-0.647687;,
        -0.726486; 0.641408;-0.246605;,
        -0.726486;-0.641408;-0.246605;,
        -0.727347;-0.226815;-0.647705;,
        -0.750596; 0.660182; 0.027658;,
         0.646318; 0.762699;-0.023728;,
         0.551869; 0.781253; 0.291691;,
        -0.674317; 0.646488;-0.356860;,
         0.655733; 0.653223; 0.378569;,
        -0.550723; 0.771836;-0.317763;,
        -0.318115; 0.771631;-0.550806;,
         0.378569; 0.653223; 0.655733;,
        -0.378569; 0.653223;-0.655733;,
         0.318251; 0.771438; 0.550999;,
         0.000000; 0.771353; 0.636408;,
        -0.000000; 0.653235;-0.757156;,
        -0.000000; 0.653235; 0.757155;,
        -0.000000; 0.771565;-0.636150;,
         0.318115; 0.771631;-0.550806;,
        -0.378569; 0.653223; 0.655733;,
         0.378569; 0.653223;-0.655733;,
        -0.318251; 0.771438; 0.550998;,
        -0.551869; 0.781254; 0.291691;,
         0.674317; 0.646488;-0.356860;,
        -0.655733; 0.653223; 0.378569;,
         0.550724; 0.771836;-0.317762;,
         0.646318; 0.762699;-0.023728;,
        -0.750596; 0.660182; 0.027658;,
         0.750596; 0.660182; 0.027657;,
        -0.646318; 0.762699;-0.023729;,
        -0.550723; 0.771836;-0.317763;,
         0.655733; 0.653223; 0.378569;,
        -0.674317; 0.646488;-0.356860;,
         0.551869; 0.781253; 0.291691;,
         0.318251; 0.771438; 0.550999;,
        -0.378569; 0.653223;-0.655733;,
         0.378569; 0.653223; 0.655733;,
        -0.318115; 0.771631;-0.550806;,
        -0.000000; 0.771565;-0.636150;,
        -0.000000; 0.653235; 0.757155;,
        -0.000000; 0.653235;-0.757156;,
         0.000000; 0.771353; 0.636408;,
        -0.318251; 0.771438; 0.550998;,
         0.378569; 0.653223;-0.655733;,
        -0.550723; 0.771836;-0.317763;,
        -0.553853;-0.768695;-0.319929;,
        -0.319618;-0.768886;-0.553768;,
        -0.318115; 0.771631;-0.550806;,
         0.318251; 0.771438; 0.550999;,
         0.319463;-0.769069; 0.553603;,
        -0.000000;-0.769172; 0.639041;,
         0.000000; 0.771353; 0.636408;,
        -0.318251; 0.771438; 0.550998;,
        -0.319463;-0.769069; 0.553603;,
        -0.554949;-0.778170; 0.294081;,
        -0.551869; 0.781254; 0.291691;,
         0.550724; 0.771836;-0.317762;,
         0.553854;-0.768694;-0.319930;,
         0.650494;-0.759130;-0.024061;,
         0.646318; 0.762699;-0.023728;,
        -0.318115; 0.771631;-0.550806;,
        -0.319618;-0.768886;-0.553768;,
         0.000000;-0.768958;-0.639299;,
        -0.000000; 0.771565;-0.636150;,
        -0.551869; 0.781254; 0.291691;,
        -0.554949;-0.778170; 0.294081;,
        -0.650493;-0.759131;-0.024061;,
        -0.646318; 0.762699;-0.023729;,
         0.646318; 0.762699;-0.023728;,
         0.650494;-0.759130;-0.024061;,
         0.554949;-0.778170; 0.294081;,
         0.551869; 0.781253; 0.291691;,
        -0.000000; 0.771565;-0.636150;,
         0.000000;-0.768958;-0.639299;,
         0.319618;-0.768885;-0.553768;,
         0.318115; 0.771631;-0.550806;,
        -0.646318; 0.762699;-0.023729;,
        -0.650493;-0.759131;-0.024061;,
        -0.553853;-0.768695;-0.319929;,
        -0.550723; 0.771836;-0.317763;,
         0.551869; 0.781253; 0.291691;,
         0.554949;-0.778170; 0.294081;,
         0.319463;-0.769069; 0.553603;,
         0.318251; 0.771438; 0.550999;,
         0.000000; 0.771353; 0.636408;,
        -0.000000;-0.769172; 0.639041;,
        -0.319463;-0.769069; 0.553603;,
        -0.318251; 0.771438; 0.550998;,
         0.318115; 0.771631;-0.550806;,
         0.319618;-0.768885;-0.553768;,
         0.553854;-0.768694;-0.319930;,
         0.550724; 0.771836;-0.317762;,
        -0.000000;-0.769172; 0.639041;,
         0.000000;-0.653217;-0.757171;,
         0.378521;-0.653228;-0.655755;,
        -0.319463;-0.769069; 0.553603;,
        -0.319463;-0.769069; 0.553603;,
         0.378521;-0.653228;-0.655755;,
         0.674317;-0.646488;-0.356860;,
        -0.554949;-0.778170; 0.294081;,
        -0.554949;-0.778170; 0.294081;,
         0.674317;-0.646488;-0.356860;,
         0.750596;-0.660182; 0.027657;,
        -0.650493;-0.759131;-0.024061;,
        -0.650493;-0.759131;-0.024061;,
         0.750596;-0.660182; 0.027657;,
         0.655733;-0.653222; 0.378569;,
        -0.553853;-0.768695;-0.319929;,
        -0.553853;-0.768695;-0.319929;,
         0.655733;-0.653222; 0.378569;,
         0.378569;-0.653223; 0.655733;,
        -0.319618;-0.768886;-0.553768;,
        -0.319618;-0.768886;-0.553768;,
         0.378569;-0.653223; 0.655733;,
         0.000000;-0.653235; 0.757156;,
         0.000000;-0.768958;-0.639299;,
         0.000000;-0.768958;-0.639299;,
         0.000000;-0.653235; 0.757156;,
        -0.378569;-0.653223; 0.655733;,
         0.319618;-0.768885;-0.553768;,
         0.319618;-0.768885;-0.553768;,
        -0.378569;-0.653223; 0.655733;,
        -0.655733;-0.653223; 0.378569;,
         0.553854;-0.768694;-0.319930;,
         0.553854;-0.768694;-0.319930;,
        -0.655733;-0.653223; 0.378569;,
        -0.750596;-0.660182; 0.027657;,
         0.650494;-0.759130;-0.024061;,
         0.650494;-0.759130;-0.024061;,
        -0.750596;-0.660182; 0.027657;,
        -0.674317;-0.646488;-0.356860;,
         0.554949;-0.778170; 0.294081;,
         0.554949;-0.778170; 0.294081;,
        -0.674317;-0.646488;-0.356860;,
        -0.378521;-0.653228;-0.655756;,
         0.319463;-0.769069; 0.553603;,
         0.319463;-0.769069; 0.553603;,
        -0.378521;-0.653228;-0.655756;,
         0.000000;-0.653217;-0.757171;,
        -0.000000;-0.769172; 0.639041;,
         0.637714;-0.770273;-0.000012;,
         0.757169;-0.653219;-0.000014;,
         0.655706;-0.653233;-0.378599;,
         0.552287;-0.770254;-0.318886;,
         0.707052;-0.577386;-0.408291;,
         0.757169;-0.653219;-0.000014;,
         0.637714;-0.770273;-0.000012;,
         0.707097;-0.577313;-0.408317;,
        -0.637714;-0.770273;-0.000012;,
        -0.757169;-0.653219;-0.000014;,
        -0.707052;-0.577387;-0.408291;,
        -0.707097;-0.577314;-0.408317;,
        -0.552287;-0.770254;-0.318886;,
        -0.655706;-0.653233;-0.378599;,
        -0.757169;-0.653219;-0.000014;,
        -0.637714;-0.770273;-0.000012;,
        -0.318886;-0.770254;-0.552287;,
        -0.378599;-0.653233;-0.655706;,
        -0.655706;-0.653233;-0.378599;,
        -0.552287;-0.770254;-0.318886;,
         0.707097;-0.577313;-0.408317;,
         0.727347;-0.226815;-0.647705;,
         0.378521;-0.653228;-0.655755;,
         0.000000;-0.653217;-0.757171;,
        -0.000000;-0.770249;-0.637743;,
         0.707052;-0.577386;-0.408291;,
         0.637714;-0.770273;-0.000012;,
         0.726486;-0.641408;-0.246605;,
         0.727347;-0.226815;-0.647705;,
         0.318886;-0.770254;-0.552287;,
         0.378599;-0.653233;-0.655705;,
         0.000000;-0.653215;-0.757172;,
         0.000000;-0.770278;-0.637708;,
         0.000000;-0.770278;-0.637708;,
         0.000000;-0.653215;-0.757172;,
        -0.378599;-0.653233;-0.655706;,
        -0.318886;-0.770254;-0.552287;,
         0.552287;-0.770254;-0.318886;,
         0.655706;-0.653233;-0.378599;,
         0.378599;-0.653233;-0.655705;,
         0.318886;-0.770254;-0.552287;,
         0.655706;-0.653233;-0.378599;,
        -0.000000;-0.770249;-0.637743;,
         0.378599;-0.653233;-0.655705;,
         0.378599;-0.653233;-0.655705;,
        -0.000000;-0.770249;-0.637743;,
         0.000000;-0.653215;-0.757172;,
         0.000000;-0.653215;-0.757172;,
        -0.000000;-0.770249;-0.637743;,
        -0.378599;-0.653233;-0.655706;,
        -0.378599;-0.653233;-0.655706;,
        -0.000000;-0.770249;-0.637743;,
        -0.655706;-0.653233;-0.378599;,
        -0.655706;-0.653233;-0.378599;,
        -0.000000;-0.770249;-0.637743;,
        -0.757169;-0.653219;-0.000014;,
        -0.757169;-0.653219;-0.000014;,
        -0.000000;-0.770249;-0.637743;,
        -0.707052;-0.577387;-0.408291;,
        -0.000000;-0.770249;-0.637743;,
         0.757169;-0.653219;-0.000014;,
         0.707052;-0.577386;-0.408291;,
        -0.727347;-0.226815;-0.647705;,
        -0.637714;-0.770273;-0.000012;,
        -0.707097;-0.577314;-0.408317;,
        -0.727347;-0.226815;-0.647705;,
        -0.726486;-0.641408;-0.246605;,
        -0.637714;-0.770273;-0.000012;,
        -0.637714;-0.770273;-0.000012;,
        -0.726486;-0.641408;-0.246605;,
        -0.552287;-0.770254;-0.318886;,
        -0.426234;-0.641405;-0.637906;,
        -0.318886;-0.770254;-0.552287;,
        -0.726486;-0.641408;-0.246605;,
         0.000000;-0.770278;-0.637708;,
        -0.426234;-0.641405;-0.637906;,
         0.000000;-0.653229;-0.757160;,
        -0.318886;-0.770254;-0.552287;,
        -0.426234;-0.641405;-0.637906;,
         0.000000;-0.770278;-0.637708;,
         0.000000;-0.653229;-0.757160;,
         0.426234;-0.641405;-0.637906;,
         0.000000;-0.770278;-0.637708;,
         0.000000;-0.770278;-0.637708;,
         0.426234;-0.641405;-0.637906;,
         0.318886;-0.770254;-0.552287;,
         0.318886;-0.770254;-0.552287;,
         0.726486;-0.641408;-0.246605;,
         0.552287;-0.770254;-0.318886;,
         0.726486;-0.641408;-0.246605;,
         0.318886;-0.770254;-0.552287;,
         0.426234;-0.641405;-0.637906;,
         0.637714;-0.770273;-0.000012;,
         0.727347;-0.226815;-0.647705;,
         0.707097;-0.577313;-0.408317;,
         0.552287;-0.770254;-0.318886;,
         0.726486;-0.641408;-0.246605;,
         0.637714;-0.770273;-0.000012;;
        92;
        3;2,1,0;,
        4;6,5,4,3;,
        3;9,8,7;,
        4;13,12,11,10;,
        4;17,16,15,14;,
        4;21,20,19,18;,
        3;24,23,22;,
        3;27,26,25;,
        3;30,29,28;,
        4;34,33,32,31;,
        4;38,37,36,35;,
        4;42,41,40,39;,
        4;46,45,44,43;,
        4;50,49,48,47;,
        4;54,53,52,51;,
        4;58,57,56,55;,
        4;62,61,60,59;,
        4;66,65,64,63;,
        4;70,69,68,67;,
        3;73,72,71;,
        6;79,78,77,76,75,74;,
        5;84,83,82,81,80;,
        5;89,88,87,86,85;,
        4;93,92,91,90;,
        4;97,96,95,94;,
        4;101,100,99,98;,
        4;105,104,103,102;,
        4;109,108,107,106;,
        4;113,112,111,110;,
        4;117,116,115,114;,
        4;121,120,119,118;,
        4;125,124,123,122;,
        4;129,128,127,126;,
        4;133,132,131,130;,
        4;137,136,135,134;,
        4;141,140,139,138;,
        4;145,144,143,142;,
        4;149,148,147,146;,
        4;153,152,151,150;,
        4;157,156,155,154;,
        4;161,160,159,158;,
        4;165,164,163,162;,
        4;169,168,167,166;,
        4;173,172,171,170;,
        4;177,176,175,174;,
        4;181,180,179,178;,
        4;185,184,183,182;,
        4;189,188,187,186;,
        4;193,192,191,190;,
        4;197,196,195,194;,
        4;201,200,199,198;,
        4;205,204,203,202;,
        4;209,208,207,206;,
        4;213,212,211,210;,
        4;217,216,215,214;,
        4;221,220,219,218;,
        4;225,224,223,222;,
        4;229,228,227,226;,
        4;233,232,231,230;,
        4;237,236,235,234;,
        4;241,240,239,238;,
        4;245,244,243,242;,
        4;249,248,247,246;,
        4;253,252,251,250;,
        4;257,256,255,254;,
        4;261,260,259,258;,
        4;265,264,263,262;,
        4;269,268,267,266;,
        6;275,274,273,272,271,270;,
        3;278,277,276;,
        4;282,281,280,279;,
        4;286,285,284,283;,
        4;290,289,288,287;,
        3;293,292,291;,
        3;296,295,294;,
        3;299,298,297;,
        3;302,301,300;,
        3;305,304,303;,
        3;308,307,306;,
        3;311,310,309;,
        3;314,313,312;,
        3;317,316,315;,
        3;320,319,318;,
        3;323,322,321;,
        3;326,325,324;,
        3;329,328,327;,
        3;332,331,330;,
        3;335,334,333;,
        3;338,337,336;,
        3;341,340,339;,
        3;344,343,342;,
        3;347,346,345;;
      }
      MeshTextureCoords {
        348;
         0.949472; 0.966343;,
         0.970967; 0.993669;,
         0.955190; 0.997897;,
         0.002031; 0.795592;,
         0.002031; 0.758002;,
         0.144464; 0.758002;,
         0.144464; 0.795593;,
         0.002031; 0.833183;,
         0.002031; 0.795592;,
         0.144464; 0.795593;,
         0.890292; 0.084678;,
         0.905483; 0.095533;,
         0.898104; 0.134291;,
         0.880563; 0.135780;,
         0.870941; 0.512124;,
         0.870941; 0.549714;,
         0.728510; 0.549714;,
         0.728510; 0.512124;,
         0.711970; 0.102396;,
         0.728650; 0.093626;,
         0.748810; 0.113785;,
         0.738550; 0.128977;,
         0.870941; 0.549714;,
         0.870942; 0.587304;,
         0.728510; 0.549714;,
         0.870955; 0.833183;,
         0.490347; 0.795593;,
         0.870955; 0.795594;,
         0.382629; 0.549715;,
         0.002022; 0.587305;,
         0.002022; 0.549716;,
         0.870955; 0.833183;,
         0.002031; 0.833183;,
         0.144464; 0.795593;,
         0.490347; 0.795593;,
         0.870955; 0.885204;,
         0.002031; 0.885204;,
         0.002031; 0.833183;,
         0.870955; 0.833183;,
         0.870955; 0.922794;,
         0.002031; 0.922794;,
         0.002031; 0.885204;,
         0.870955; 0.885204;,
         0.870955; 0.960383;,
         0.002031; 0.960384;,
         0.002031; 0.922794;,
         0.870955; 0.922794;,
         0.870955; 0.997973;,
         0.002031; 0.997974;,
         0.002031; 0.960384;,
         0.870955; 0.960383;,
         0.002022; 0.714505;,
         0.870941; 0.714509;,
         0.870941; 0.752099;,
         0.002022; 0.752094;,
         0.002022; 0.676915;,
         0.870941; 0.676917;,
         0.870941; 0.714509;,
         0.002022; 0.714505;,
         0.002022; 0.639325;,
         0.870942; 0.639325;,
         0.870941; 0.676917;,
         0.002022; 0.676915;,
         0.002022; 0.587305;,
         0.870942; 0.587304;,
         0.870942; 0.639325;,
         0.002022; 0.639325;,
         0.382629; 0.549715;,
         0.728510; 0.549714;,
         0.870942; 0.587304;,
         0.002022; 0.587305;,
         0.966380; 0.036421;,
         0.971657; 0.056953;,
         0.960107; 0.045403;,
         0.490347; 0.795593;,
         0.490347; 0.787002;,
         0.820261; 0.787002;,
         0.820261; 0.758002;,
         0.870955; 0.758002;,
         0.870955; 0.795594;,
         0.987630; 0.305090;,
         0.933708; 0.305090;,
         0.939185; 0.284646;,
         0.959862; 0.268780;,
         0.997359; 0.268780;,
         0.997359; 0.341399;,
         0.959862; 0.341399;,
         0.939185; 0.325533;,
         0.933708; 0.305090;,
         0.987630; 0.305090;,
         0.697850; 0.054036;,
         0.697850; 0.091533;,
         0.351969; 0.091534;,
         0.351969; 0.054036;,
         0.002028; 0.120300;,
         0.347909; 0.120299;,
         0.347909; 0.141464;,
         0.002028; 0.141465;,
         0.697850; 0.138760;,
         0.351969; 0.138760;,
         0.351969; 0.117595;,
         0.697850; 0.117595;,
         0.347909; 0.094238;,
         0.347909; 0.120299;,
         0.002028; 0.120300;,
         0.002028; 0.094238;,
         0.351969; 0.117595;,
         0.351969; 0.091534;,
         0.697850; 0.091533;,
         0.697850; 0.117595;,
         0.347909; 0.056740;,
         0.347909; 0.094238;,
         0.002028; 0.094238;,
         0.002028; 0.056740;,
         0.774859; 0.138706;,
         0.776348; 0.121164;,
         0.815106; 0.113785;,
         0.825962; 0.128977;,
         0.890292; 0.172089;,
         0.905483; 0.161829;,
         0.925643; 0.181989;,
         0.916872; 0.198669;,
         0.852542; 0.102396;,
         0.835266; 0.093626;,
         0.842645; 0.066087;,
         0.862271; 0.066087;,
         0.702241; 0.066087;,
         0.721272; 0.066087;,
         0.728650; 0.093626;,
         0.711970; 0.102396;,
         0.916872; 0.058097;,
         0.925643; 0.075374;,
         0.905483; 0.095533;,
         0.890292; 0.084678;,
         0.738550; 0.128977;,
         0.748810; 0.113785;,
         0.776348; 0.121164;,
         0.774859; 0.138706;,
         0.880563; 0.135780;,
         0.898104; 0.134291;,
         0.905483; 0.161829;,
         0.890292; 0.172089;,
         0.825962; 0.128977;,
         0.815106; 0.113785;,
         0.835266; 0.093626;,
         0.852542; 0.102396;,
         0.916872; 0.198669;,
         0.925643; 0.181989;,
         0.953181; 0.189368;,
         0.953181; 0.208398;,
         0.953181; 0.048368;,
         0.953181; 0.067995;,
         0.925643; 0.075374;,
         0.916872; 0.058097;,
         0.878779; 0.200194;,
         0.009843; 0.201298;,
         0.009739; 0.175443;,
         0.878664; 0.171685;,
         0.874776; 0.355411;,
         0.005851; 0.358821;,
         0.005694; 0.332966;,
         0.874603; 0.326902;,
         0.878658; 0.296667;,
         0.009733; 0.293258;,
         0.009835; 0.268278;,
         0.878775; 0.268158;,
         0.874896; 0.451885;,
         0.005960; 0.450781;,
         0.005998; 0.424071;,
         0.874936; 0.423375;,
         0.878664; 0.171685;,
         0.009739; 0.175443;,
         0.009576; 0.149585;,
         0.878485; 0.143175;,
         0.878775; 0.268158;,
         0.009835; 0.268278;,
         0.009880; 0.228008;,
         0.878818; 0.228704;,
         0.874936; 0.423375;,
         0.005998; 0.424071;,
         0.005953; 0.383802;,
         0.874892; 0.383921;,
         0.874602; 0.508903;,
         0.005694; 0.502494;,
         0.005857; 0.476636;,
         0.874782; 0.480394;,
         0.878818; 0.228704;,
         0.009880; 0.228008;,
         0.009843; 0.201298;,
         0.878779; 0.200194;,
         0.874892; 0.383921;,
         0.005953; 0.383802;,
         0.005851; 0.358821;,
         0.874776; 0.355411;,
         0.878485; 0.325177;,
         0.009576; 0.319113;,
         0.009733; 0.293258;,
         0.878658; 0.296667;,
         0.874782; 0.480394;,
         0.005857; 0.476636;,
         0.005960; 0.450781;,
         0.874896; 0.451885;,
         0.836859; 0.012050;,
         0.859529; 0.012050;,
         0.849800; 0.048359;,
         0.830167; 0.037024;,
         0.830167; 0.037024;,
         0.849800; 0.048359;,
         0.823220; 0.074939;,
         0.812503; 0.054689;,
         0.812503; 0.054689;,
         0.823220; 0.074939;,
         0.772117; 0.084668;,
         0.772944; 0.062220;,
         0.772944; 0.062220;,
         0.772117; 0.084668;,
         0.735808; 0.074939;,
         0.747143; 0.055307;,
         0.747143; 0.055307;,
         0.735808; 0.074939;,
         0.709228; 0.048359;,
         0.728860; 0.037024;,
         0.728860; 0.037024;,
         0.709228; 0.048359;,
         0.699499; 0.012050;,
         0.722168; 0.012050;,
         0.909673; 0.146694;,
         0.909673; 0.124025;,
         0.945982; 0.133754;,
         0.934647; 0.153386;,
         0.934647; 0.153386;,
         0.945982; 0.133754;,
         0.972562; 0.160334;,
         0.952930; 0.171668;,
         0.952930; 0.171668;,
         0.972562; 0.160334;,
         0.982291; 0.196643;,
         0.959843; 0.197470;,
         0.959843; 0.197470;,
         0.982291; 0.196643;,
         0.972562; 0.247745;,
         0.952312; 0.237028;,
         0.952312; 0.237028;,
         0.972562; 0.247745;,
         0.945982; 0.274325;,
         0.934647; 0.254693;,
         0.934647; 0.254693;,
         0.945982; 0.274325;,
         0.909673; 0.284054;,
         0.909673; 0.261385;,
         0.927944; 0.333013;,
         0.927944; 0.662937;,
         0.911610; 0.662937;,
         0.911610; 0.333013;,
         0.941634; 0.662937;,
         0.927944; 0.662937;,
         0.927944; 0.333013;,
         0.941634; 0.333013;,
         0.924014; 0.997977;,
         0.924014; 0.668052;,
         0.937704; 0.668052;,
         0.937705; 0.997976;,
         0.907681; 0.997977;,
         0.907681; 0.668053;,
         0.924014; 0.668052;,
         0.924014; 0.997977;,
         0.891347; 0.997977;,
         0.891347; 0.668052;,
         0.907681; 0.668053;,
         0.907681; 0.997977;,
         0.382629; 0.541124;,
         0.382629; 0.549715;,
         0.002022; 0.549716;,
         0.002022; 0.512124;,
         0.052716; 0.512124;,
         0.052716; 0.541124;,
         0.944330; 0.104284;,
         0.966380; 0.109039;,
         0.928883; 0.109039;,
         0.895276; 0.333013;,
         0.895277; 0.662937;,
         0.878943; 0.662937;,
         0.878943; 0.333013;,
         0.875013; 0.997976;,
         0.875014; 0.668052;,
         0.891347; 0.668052;,
         0.891347; 0.997977;,
         0.911610; 0.333013;,
         0.911610; 0.662937;,
         0.895277; 0.662937;,
         0.895276; 0.333013;,
         0.970967; 0.993669;,
         0.949472; 0.966343;,
         0.982517; 0.982120;,
         0.982517; 0.982120;,
         0.949472; 0.966343;,
         0.986744; 0.966343;,
         0.986744; 0.966343;,
         0.949472; 0.966343;,
         0.982517; 0.950566;,
         0.982517; 0.950566;,
         0.949472; 0.966343;,
         0.970967; 0.939016;,
         0.970967; 0.939016;,
         0.949472; 0.966343;,
         0.955190; 0.934789;,
         0.955190; 0.934789;,
         0.949472; 0.966343;,
         0.941966; 0.938332;,
         0.949472; 0.966343;,
         0.955190; 0.997897;,
         0.941966; 0.994353;,
         0.928883; 0.036421;,
         0.944330; 0.041176;,
         0.931106; 0.044719;,
         0.928883; 0.036421;,
         0.966380; 0.036421;,
         0.944330; 0.041176;,
         0.944330; 0.041176;,
         0.966380; 0.036421;,
         0.960107; 0.045403;,
         0.987056; 0.052286;,
         0.971657; 0.056953;,
         0.966380; 0.036421;,
         0.975884; 0.072730;,
         0.987056; 0.052286;,
         0.992534; 0.072730;,
         0.971657; 0.056953;,
         0.987056; 0.052286;,
         0.975884; 0.072730;,
         0.992534; 0.072730;,
         0.987056; 0.093174;,
         0.975884; 0.072730;,
         0.975884; 0.072730;,
         0.987056; 0.093174;,
         0.971657; 0.088507;,
         0.971657; 0.088507;,
         0.966380; 0.109039;,
         0.960107; 0.100057;,
         0.966380; 0.109039;,
         0.971657; 0.088507;,
         0.987056; 0.093174;,
         0.944330; 0.104284;,
         0.928883; 0.109039;,
         0.931106; 0.100741;,
         0.960107; 0.100057;,
         0.966380; 0.109039;,
         0.944330; 0.104284;;
      }
      MeshMaterialList {
        1;
        92;
        0,
        0,
        0,
        0,
        0,
        0,
        0,
        0,
        0,
        0,
        0,
        0,
        0,
        0,
        0,
        0,
        0,
        0,
        0,
        0,
        0,
        0,
        0,
        0,
        0,
        0,
        0,
        0,
        0,
        0,
        0,
        0,
        0,
        0,
        0,
        0,
        0,
        0,
        0,
        0,
        0,
        0,
        0,
        0,
        0,
        0,
        0,
        0,
        0,
        0,
        0,
        0,
        0,
        0,
        0,
        0,
        0,
        0,
        0,
        0,
        0,
        0,
        0,
        0,
        0,
        0,
        0,
        0,
        0,
        0,
        0,
        0,
        0,
        0,
        0,
        0,
        0,
        0,
        0,
        0,
        0,
        0,
        0,
        0,
        0,
        0,
        0,
        0,
        0,
        0,
        0,
        0;
        Material ForearmAK2 {
           0.800000; 0.800000; 0.800000; 1.000000;;
           225.000000;
           0.500000; 0.500000; 0.500000;;
           0.000000; 0.000000; 0.000000;;
        }
      }
    }
  }
}
