xof 0303txt 0032

Frame Root {
  FrameTransformMatrix {
     1.000000, 0.000000, 0.000000, 0.000000,
     0.000000,-0.000000, 1.000000, 0.000000,
     0.000000, 1.000000, 0.000000, 0.000000,
     0.000000, 0.000000, 0.000000, 1.000000;;
  }
  Frame HandguardAR1_x_Root_Cylinder {
    FrameTransformMatrix {
       1.000000, 0.000000, 0.000000, 0.000000,
       0.000000, 1.000000, 0.000000, 0.000000,
       0.000000, 0.000000, 1.000000, 0.000000,
       0.000000, 0.000000, 0.000000, 1.000000;;
    }
    Mesh {
      648;
       0.023506;-0.124972;-0.000473;,
       0.023506;-0.022732;-0.000473;,
       0.020588;-0.022732;-0.011363;,
       0.020588;-0.124972;-0.011363;,
       0.020588;-0.124972;-0.011363;,
       0.020588;-0.022732;-0.011363;,
       0.012616;-0.022732;-0.019335;,
       0.012616;-0.124972;-0.019335;,
       0.012616;-0.124972;-0.019335;,
       0.012616;-0.022732;-0.019335;,
       0.001727;-0.022732;-0.022253;,
       0.001727;-0.124972;-0.022253;,
       0.001727;-0.124972;-0.022253;,
       0.001727;-0.022732;-0.022253;,
      -0.009163;-0.022732;-0.019335;,
      -0.009163;-0.124972;-0.019335;,
      -0.009163;-0.124972;-0.019335;,
      -0.009163;-0.022732;-0.019335;,
      -0.017135;-0.022732;-0.011363;,
      -0.017135;-0.124972;-0.011363;,
      -0.017135;-0.124972;-0.011363;,
      -0.017135;-0.022732;-0.011363;,
      -0.020053;-0.022732;-0.000473;,
      -0.020053;-0.124972;-0.000473;,
      -0.020053;-0.124972;-0.000473;,
      -0.020053;-0.022732;-0.000473;,
      -0.017135;-0.022732; 0.010417;,
      -0.017135;-0.124972; 0.010417;,
      -0.017135;-0.124972; 0.010417;,
      -0.017135;-0.022732; 0.010417;,
      -0.009163;-0.022732; 0.018389;,
      -0.009163;-0.124972; 0.018389;,
      -0.009163;-0.124972; 0.018389;,
      -0.009163;-0.022732; 0.018389;,
       0.001727;-0.022732; 0.021307;,
       0.001727;-0.124972; 0.021307;,
       0.001727;-0.124972; 0.021307;,
       0.001727;-0.022732; 0.021307;,
       0.012616;-0.022732; 0.018389;,
       0.012616;-0.124972; 0.018389;,
      -0.009163;-0.124972; 0.018389;,
       0.001727;-0.124972; 0.021307;,
       0.001727;-0.127556; 0.018488;,
      -0.007754;-0.127556; 0.015948;,
       0.012616;-0.124972; 0.018389;,
       0.012616;-0.022732; 0.018389;,
       0.020588;-0.022732; 0.010417;,
       0.020588;-0.124972; 0.010417;,
       0.020588;-0.124972; 0.010417;,
       0.020588;-0.022732; 0.010417;,
       0.023506;-0.022732;-0.000473;,
       0.023506;-0.124972;-0.000473;,
      -0.020053;-0.022732;-0.000473;,
      -0.017135;-0.022732;-0.011363;,
      -0.013893;-0.019522;-0.009491;,
      -0.016310;-0.019522;-0.000473;,
       0.017346;-0.019522;-0.009491;,
       0.019763;-0.019522;-0.000473;,
       0.017346;-0.019522; 0.008545;,
       0.010745;-0.019522; 0.015147;,
       0.001727;-0.019522; 0.017563;,
      -0.007292;-0.019522; 0.015147;,
      -0.013893;-0.019522; 0.008545;,
      -0.016310;-0.019522;-0.000473;,
      -0.013893;-0.019522;-0.009491;,
      -0.007292;-0.019522;-0.016093;,
       0.001727;-0.019522;-0.018509;,
       0.010745;-0.019522;-0.016093;,
      -0.017135;-0.022732;-0.011363;,
      -0.009163;-0.022732;-0.019335;,
      -0.007292;-0.019522;-0.016093;,
      -0.013893;-0.019522;-0.009491;,
      -0.009163;-0.022732;-0.019335;,
       0.001727;-0.022732;-0.022253;,
       0.001727;-0.019522;-0.018509;,
      -0.007292;-0.019522;-0.016093;,
       0.023506;-0.022732;-0.000473;,
       0.020588;-0.022732; 0.010417;,
       0.017346;-0.019522; 0.008545;,
       0.019763;-0.019522;-0.000473;,
       0.020588;-0.022732;-0.011363;,
       0.023506;-0.022732;-0.000473;,
       0.019763;-0.019522;-0.000473;,
       0.017346;-0.019522;-0.009491;,
       0.001727;-0.022732;-0.022253;,
       0.012616;-0.022732;-0.019335;,
       0.010745;-0.019522;-0.016093;,
       0.001727;-0.019522;-0.018509;,
       0.020588;-0.022732; 0.010417;,
       0.012616;-0.022732; 0.018389;,
       0.010745;-0.019522; 0.015147;,
       0.017346;-0.019522; 0.008545;,
       0.012616;-0.022732;-0.019335;,
       0.020588;-0.022732;-0.011363;,
       0.017346;-0.019522;-0.009491;,
       0.010745;-0.019522;-0.016093;,
       0.012616;-0.022732; 0.018389;,
       0.001727;-0.022732; 0.021307;,
       0.001727;-0.019522; 0.017563;,
       0.010745;-0.019522; 0.015147;,
       0.001727;-0.022732; 0.021307;,
      -0.009163;-0.022732; 0.018389;,
      -0.007292;-0.019522; 0.015147;,
       0.001727;-0.019522; 0.017563;,
      -0.009163;-0.022732; 0.018389;,
      -0.017135;-0.022732; 0.010417;,
      -0.013893;-0.019522; 0.008545;,
      -0.007292;-0.019522; 0.015147;,
      -0.017135;-0.022732; 0.010417;,
      -0.020053;-0.022732;-0.000473;,
      -0.016310;-0.019522;-0.000473;,
      -0.013893;-0.019522; 0.008545;,
       0.020688;-0.127556;-0.000473;,
       0.018148;-0.127556;-0.009954;,
       0.011207;-0.127556;-0.016894;,
       0.001727;-0.127556;-0.019434;,
      -0.007754;-0.127556;-0.016894;,
      -0.014695;-0.127556;-0.009954;,
      -0.017235;-0.127556;-0.000473;,
      -0.014695;-0.127556; 0.009008;,
      -0.007754;-0.127556; 0.015948;,
       0.001727;-0.127556; 0.018488;,
       0.011207;-0.127556; 0.015948;,
       0.018148;-0.127556; 0.009008;,
      -0.017135;-0.124972; 0.010417;,
      -0.009163;-0.124972; 0.018389;,
      -0.007754;-0.127556; 0.015948;,
      -0.014695;-0.127556; 0.009008;,
      -0.020053;-0.124972;-0.000473;,
      -0.017135;-0.124972; 0.010417;,
      -0.014695;-0.127556; 0.009008;,
      -0.017235;-0.127556;-0.000473;,
      -0.017135;-0.124972;-0.011363;,
      -0.020053;-0.124972;-0.000473;,
      -0.017235;-0.127556;-0.000473;,
      -0.014695;-0.127556;-0.009954;,
      -0.009163;-0.124972;-0.019335;,
      -0.017135;-0.124972;-0.011363;,
      -0.014695;-0.127556;-0.009954;,
      -0.007754;-0.127556;-0.016894;,
       0.001727;-0.124972;-0.022253;,
      -0.009163;-0.124972;-0.019335;,
      -0.007754;-0.127556;-0.016894;,
       0.001727;-0.127556;-0.019434;,
       0.020588;-0.124972; 0.010417;,
       0.023506;-0.124972;-0.000473;,
       0.020688;-0.127556;-0.000473;,
       0.018148;-0.127556; 0.009008;,
       0.023506;-0.124972;-0.000473;,
       0.020588;-0.124972;-0.011363;,
       0.018148;-0.127556;-0.009954;,
       0.020688;-0.127556;-0.000473;,
       0.012616;-0.124972;-0.019335;,
       0.001727;-0.124972;-0.022253;,
       0.001727;-0.127556;-0.019434;,
       0.011207;-0.127556;-0.016894;,
       0.012616;-0.124972; 0.018389;,
       0.020588;-0.124972; 0.010417;,
       0.018148;-0.127556; 0.009008;,
       0.011207;-0.127556; 0.015948;,
       0.020588;-0.124972;-0.011363;,
       0.012616;-0.124972;-0.019335;,
       0.011207;-0.127556;-0.016894;,
       0.018148;-0.127556;-0.009954;,
       0.001727;-0.124972; 0.021307;,
       0.012616;-0.124972; 0.018389;,
       0.011207;-0.127556; 0.015948;,
       0.001727;-0.127556; 0.018488;,
       0.023943;-0.018607;-0.000420;,
       0.023943; 0.064006;-0.000420;,
       0.020966; 0.064006;-0.011528;,
       0.020966;-0.018607;-0.011528;,
       0.001727;-0.018607;-0.022636;,
       0.001727; 0.064006;-0.022636;,
      -0.009382; 0.064006;-0.019660;,
      -0.009382;-0.018607;-0.019660;,
      -0.009382;-0.018607;-0.019660;,
      -0.009382; 0.064006;-0.019660;,
      -0.017513; 0.064006;-0.011528;,
      -0.017513;-0.018607;-0.011528;,
      -0.017513;-0.018607;-0.011528;,
      -0.017513; 0.064006;-0.011528;,
      -0.020490; 0.064006;-0.000420;,
      -0.020490;-0.018607;-0.000420;,
      -0.020490;-0.018607;-0.000420;,
      -0.020490; 0.064006;-0.000420;,
      -0.017513; 0.064006; 0.010688;,
      -0.017513;-0.018607; 0.010688;,
      -0.017513;-0.018607; 0.010688;,
      -0.017513; 0.064006; 0.010688;,
      -0.009382; 0.064006; 0.018820;,
      -0.009382;-0.018607; 0.018820;,
      -0.009382;-0.018607; 0.018820;,
      -0.009382; 0.064006; 0.018820;,
       0.001727; 0.064006; 0.021796;,
       0.001727;-0.018607; 0.021796;,
       0.001727;-0.018607; 0.021796;,
       0.001727; 0.064006; 0.021796;,
       0.012835; 0.064006; 0.018820;,
       0.012835;-0.018607; 0.018820;,
       0.012835;-0.018607; 0.018820;,
       0.012835; 0.064006; 0.018820;,
       0.020966; 0.064006; 0.010688;,
       0.020966;-0.018607; 0.010688;,
       0.020966;-0.018607;-0.011528;,
       0.020966; 0.064006;-0.011528;,
       0.012835; 0.064006;-0.019660;,
       0.012835;-0.018607;-0.019660;,
       0.012835;-0.018607;-0.019660;,
       0.012835; 0.064006;-0.019660;,
       0.001727; 0.064006;-0.022636;,
       0.001727;-0.018607;-0.022636;,
       0.020966;-0.018607; 0.010688;,
       0.020966; 0.064006; 0.010688;,
       0.023943; 0.064006;-0.000420;,
       0.023943;-0.018607;-0.000420;,
       0.023943;-0.018607;-0.000420;,
       0.020966;-0.018607;-0.011528;,
       0.018465;-0.021397;-0.010084;,
       0.021054;-0.021397;-0.000420;,
       0.020966;-0.018607;-0.011528;,
       0.012835;-0.018607;-0.019660;,
       0.011390;-0.021397;-0.017159;,
       0.018465;-0.021397;-0.010084;,
       0.012835;-0.018607;-0.019660;,
       0.001727;-0.018607;-0.022636;,
       0.001727;-0.021397;-0.019748;,
       0.011390;-0.021397;-0.017159;,
       0.001727;-0.018607;-0.022636;,
      -0.009382;-0.018607;-0.019660;,
      -0.007937;-0.021397;-0.017159;,
       0.001727;-0.021397;-0.019748;,
      -0.009382;-0.018607;-0.019660;,
      -0.017513;-0.018607;-0.011528;,
      -0.015012;-0.021397;-0.010084;,
      -0.007937;-0.021397;-0.017159;,
      -0.017513;-0.018607;-0.011528;,
      -0.020490;-0.018607;-0.000420;,
      -0.017601;-0.021397;-0.000420;,
      -0.015012;-0.021397;-0.010084;,
      -0.020490;-0.018607;-0.000420;,
      -0.017513;-0.018607; 0.010688;,
      -0.015012;-0.021397; 0.009244;,
      -0.017601;-0.021397;-0.000420;,
      -0.017513;-0.018607; 0.010688;,
      -0.009382;-0.018607; 0.018820;,
      -0.007937;-0.021397; 0.016318;,
      -0.015012;-0.021397; 0.009244;,
      -0.009382;-0.018607; 0.018820;,
       0.001727;-0.018607; 0.021796;,
       0.001727;-0.021397; 0.018908;,
      -0.007937;-0.021397; 0.016318;,
       0.001727;-0.018607; 0.021796;,
       0.012835;-0.018607; 0.018820;,
       0.011390;-0.021397; 0.016318;,
       0.001727;-0.021397; 0.018908;,
       0.012835;-0.018607; 0.018820;,
       0.020966;-0.018607; 0.010688;,
       0.018465;-0.021397; 0.009244;,
       0.011390;-0.021397; 0.016318;,
       0.020966;-0.018607; 0.010688;,
       0.023943;-0.018607;-0.000420;,
       0.021054;-0.021397;-0.000420;,
       0.018465;-0.021397; 0.009244;,
       0.021054;-0.021397;-0.000420;,
       0.018465;-0.021397;-0.010084;,
       0.011390;-0.021397;-0.017159;,
       0.001727;-0.021397;-0.019748;,
      -0.007937;-0.021397;-0.017159;,
      -0.015012;-0.021397;-0.010084;,
      -0.017601;-0.021397;-0.000420;,
      -0.015012;-0.021397; 0.009244;,
      -0.007937;-0.021397; 0.016318;,
       0.001727;-0.021397; 0.018908;,
       0.011390;-0.021397; 0.016318;,
       0.018465;-0.021397; 0.009244;,
       0.020966; 0.064006;-0.011528;,
       0.023943; 0.064006;-0.000420;,
       0.019476; 0.068321;-0.000420;,
       0.017098; 0.068321;-0.009295;,
       0.012835; 0.064006;-0.019660;,
       0.020966; 0.064006;-0.011528;,
       0.017098; 0.068321;-0.009295;,
       0.010601; 0.068321;-0.015791;,
       0.001727; 0.064006;-0.022636;,
       0.012835; 0.064006;-0.019660;,
       0.010601; 0.068321;-0.015791;,
       0.001727; 0.068321;-0.018169;,
      -0.009382; 0.064006;-0.019660;,
       0.001727; 0.064006;-0.022636;,
       0.001727; 0.068321;-0.018169;,
      -0.007148; 0.068321;-0.015791;,
      -0.017513; 0.064006;-0.011528;,
      -0.009382; 0.064006;-0.019660;,
      -0.007148; 0.068321;-0.015791;,
      -0.013645; 0.068321;-0.009295;,
      -0.020490; 0.064006;-0.000420;,
      -0.017513; 0.064006;-0.011528;,
      -0.013645; 0.068321;-0.009295;,
      -0.016023; 0.068321;-0.000420;,
      -0.017513; 0.064006; 0.010688;,
      -0.020490; 0.064006;-0.000420;,
      -0.016023; 0.068321;-0.000420;,
      -0.013645; 0.068321; 0.008454;,
      -0.009382; 0.064006; 0.018820;,
      -0.017513; 0.064006; 0.010688;,
      -0.013645; 0.068321; 0.008454;,
      -0.007148; 0.068321; 0.014951;,
       0.001727; 0.064006; 0.021796;,
      -0.009382; 0.064006; 0.018820;,
      -0.007148; 0.068321; 0.014951;,
       0.001727; 0.068321; 0.017329;,
       0.012835; 0.064006; 0.018820;,
       0.001727; 0.064006; 0.021796;,
       0.001727; 0.068321; 0.017329;,
       0.010601; 0.068321; 0.014951;,
       0.020966; 0.064006; 0.010688;,
       0.012835; 0.064006; 0.018820;,
       0.010601; 0.068321; 0.014951;,
       0.017098; 0.068321; 0.008454;,
       0.023943; 0.064006;-0.000420;,
       0.020966; 0.064006; 0.010688;,
       0.017098; 0.068321; 0.008454;,
       0.019476; 0.068321;-0.000420;,
      -0.013645; 0.068321; 0.008454;,
      -0.016023; 0.068321;-0.000420;,
      -0.014934; 0.066747;-0.000420;,
      -0.012702; 0.066747; 0.007910;,
       0.016155; 0.066747;-0.008750;,
       0.018387; 0.066747;-0.000420;,
       0.016155; 0.066747; 0.007910;,
       0.010057; 0.066747; 0.014008;,
       0.001727; 0.066747; 0.016240;,
      -0.006604; 0.066747; 0.014008;,
      -0.012702; 0.066747; 0.007910;,
      -0.014934; 0.066747;-0.000420;,
      -0.012702; 0.066747;-0.008750;,
      -0.006604; 0.066747;-0.014848;,
       0.001727; 0.066747;-0.017080;,
       0.010057; 0.066747;-0.014848;,
       0.019476; 0.068321;-0.000420;,
       0.017098; 0.068321; 0.008454;,
       0.016155; 0.066747; 0.007910;,
       0.018387; 0.066747;-0.000420;,
      -0.016023; 0.068321;-0.000420;,
      -0.013645; 0.068321;-0.009295;,
      -0.012702; 0.066747;-0.008750;,
      -0.014934; 0.066747;-0.000420;,
      -0.013645; 0.068321;-0.009295;,
      -0.007148; 0.068321;-0.015791;,
      -0.006604; 0.066747;-0.014848;,
      -0.012702; 0.066747;-0.008750;,
      -0.007148; 0.068321;-0.015791;,
       0.001727; 0.068321;-0.018169;,
       0.001727; 0.066747;-0.017080;,
      -0.006604; 0.066747;-0.014848;,
       0.001727; 0.068321;-0.018169;,
       0.010601; 0.068321;-0.015791;,
       0.010057; 0.066747;-0.014848;,
       0.001727; 0.066747;-0.017080;,
       0.017098; 0.068321; 0.008454;,
       0.010601; 0.068321; 0.014951;,
       0.010057; 0.066747; 0.014008;,
       0.016155; 0.066747; 0.007910;,
       0.010601; 0.068321;-0.015791;,
       0.017098; 0.068321;-0.009295;,
       0.016155; 0.066747;-0.008750;,
       0.010057; 0.066747;-0.014848;,
       0.010601; 0.068321; 0.014951;,
       0.001727; 0.068321; 0.017329;,
       0.001727; 0.066747; 0.016240;,
       0.010057; 0.066747; 0.014008;,
       0.017098; 0.068321;-0.009295;,
       0.019476; 0.068321;-0.000420;,
       0.018387; 0.066747;-0.000420;,
       0.016155; 0.066747;-0.008750;,
       0.001727; 0.068321; 0.017329;,
      -0.007148; 0.068321; 0.014951;,
      -0.006604; 0.066747; 0.014008;,
       0.001727; 0.066747; 0.016240;,
      -0.007148; 0.068321; 0.014951;,
      -0.013645; 0.068321; 0.008454;,
      -0.012702; 0.066747; 0.007910;,
      -0.006604; 0.066747; 0.014008;,
       0.005144; 0.065757; 0.011167;,
       0.005144; 0.131986; 0.011167;,
       0.004687; 0.131986; 0.009458;,
       0.004687; 0.065757; 0.009458;,
       0.004687; 0.065757; 0.009458;,
       0.004687; 0.131986; 0.009458;,
       0.003436; 0.131986; 0.008207;,
       0.003435; 0.065757; 0.008207;,
       0.003435; 0.065757; 0.008207;,
       0.003436; 0.131986; 0.008207;,
       0.001727; 0.131986; 0.007749;,
       0.001727; 0.065757; 0.007749;,
       0.001727; 0.065757; 0.007749;,
       0.001727; 0.131986; 0.007749;,
       0.000018; 0.131986; 0.008207;,
       0.000018; 0.065757; 0.008207;,
       0.000018; 0.065757; 0.008207;,
       0.000018; 0.131986; 0.008207;,
      -0.001234; 0.131986; 0.009458;,
      -0.001234; 0.065757; 0.009458;,
      -0.001234; 0.065757; 0.009458;,
      -0.001234; 0.131986; 0.009458;,
      -0.001691; 0.131986; 0.011167;,
      -0.001691; 0.065757; 0.011167;,
      -0.001691; 0.065757; 0.011167;,
      -0.001691; 0.131986; 0.011167;,
      -0.001234; 0.131986; 0.012876;,
      -0.001234; 0.065757; 0.012876;,
      -0.001234; 0.065757; 0.012876;,
      -0.001234; 0.131986; 0.012876;,
       0.000018; 0.131986; 0.014127;,
       0.000018; 0.065757; 0.014127;,
       0.000018; 0.065757; 0.014127;,
       0.000018; 0.131986; 0.014127;,
       0.001727; 0.131986; 0.014585;,
       0.001727; 0.065757; 0.014585;,
       0.001727; 0.065757; 0.014585;,
       0.001727; 0.131986; 0.014585;,
       0.003436; 0.131986; 0.014127;,
       0.003435; 0.065757; 0.014127;,
       0.005144; 0.065757; 0.011167;,
       0.004687; 0.065757; 0.009458;,
       0.003435; 0.065757; 0.008207;,
       0.001727; 0.065757; 0.007749;,
       0.000018; 0.065757; 0.008207;,
      -0.001234; 0.065757; 0.009458;,
      -0.001691; 0.065757; 0.011167;,
      -0.001234; 0.065757; 0.012876;,
       0.000018; 0.065757; 0.014127;,
       0.001727; 0.065757; 0.014585;,
       0.003435; 0.065757; 0.014127;,
       0.004687; 0.065757; 0.012876;,
       0.003435; 0.065757; 0.014127;,
       0.003436; 0.131986; 0.014127;,
       0.004687; 0.131986; 0.012876;,
       0.004687; 0.065757; 0.012876;,
       0.004687; 0.065757; 0.012876;,
       0.004687; 0.131986; 0.012876;,
       0.005144; 0.131986; 0.011167;,
       0.005144; 0.065757; 0.011167;,
       0.004687; 0.131986; 0.009458;,
       0.005144; 0.131986; 0.011167;,
       0.004687; 0.131986; 0.012876;,
       0.003436; 0.131986; 0.014127;,
       0.001727; 0.131986; 0.014585;,
       0.000018; 0.131986; 0.014127;,
      -0.001234; 0.131986; 0.012876;,
      -0.001691; 0.131986; 0.011167;,
      -0.001234; 0.131986; 0.009458;,
       0.000018; 0.131986; 0.008207;,
       0.001727; 0.131986; 0.007749;,
       0.003436; 0.131986; 0.008207;,
      -0.001084; 0.126039; 0.015539;,
      -0.004618; 0.127008; 0.007459;,
       0.008188; 0.127008; 0.007459;,
       0.004537; 0.126039; 0.015539;,
       0.004537; 0.126039; 0.015539;,
       0.008188; 0.127008; 0.007459;,
       0.008188; 0.116013; 0.007459;,
       0.004537; 0.116982; 0.015539;,
       0.004537; 0.116982; 0.015539;,
       0.008188; 0.116013; 0.007459;,
      -0.004618; 0.116013; 0.007459;,
      -0.001084; 0.116982; 0.015539;,
      -0.001084; 0.116982; 0.015539;,
      -0.004618; 0.116013; 0.007459;,
      -0.004618; 0.127008; 0.007459;,
      -0.001084; 0.126039; 0.015539;,
       0.000478; 0.118543; 0.016516;,
       0.000478; 0.124478; 0.016516;,
       0.000478; 0.124478; 0.029214;,
       0.000478; 0.118543; 0.029214;,
       0.002975; 0.124478; 0.016516;,
       0.000478; 0.124478; 0.016516;,
      -0.001084; 0.126039; 0.015539;,
       0.004537; 0.126039; 0.015539;,
       0.002975; 0.118543; 0.016516;,
       0.002975; 0.124478; 0.016516;,
       0.004537; 0.126039; 0.015539;,
       0.004537; 0.116982; 0.015539;,
       0.000478; 0.118543; 0.016516;,
       0.002975; 0.118543; 0.016516;,
       0.004537; 0.116982; 0.015539;,
      -0.001084; 0.116982; 0.015539;,
       0.000478; 0.124478; 0.016516;,
       0.000478; 0.118543; 0.016516;,
      -0.001084; 0.116982; 0.015539;,
      -0.001084; 0.126039; 0.015539;,
       0.000478; 0.118543; 0.029214;,
       0.000478; 0.124478; 0.029214;,
       0.001166; 0.122842; 0.036298;,
       0.001166; 0.120179; 0.036298;,
       0.002975; 0.124478; 0.016516;,
       0.002975; 0.118543; 0.016516;,
       0.002975; 0.118543; 0.029214;,
       0.002975; 0.124478; 0.029214;,
       0.002975; 0.118543; 0.016516;,
       0.000478; 0.118543; 0.016516;,
       0.000478; 0.118543; 0.029214;,
       0.002975; 0.118543; 0.029214;,
       0.000478; 0.124478; 0.016516;,
       0.002975; 0.124478; 0.016516;,
       0.002975; 0.124478; 0.029214;,
       0.000478; 0.124478; 0.029214;,
      -0.004618; 0.116013; 0.007459;,
       0.008188; 0.116013; 0.007459;,
       0.008188; 0.116013;-0.006499;,
      -0.004618; 0.116013;-0.006499;,
       0.008188; 0.127008; 0.007459;,
      -0.004618; 0.127008; 0.007459;,
      -0.004618; 0.127008;-0.006499;,
       0.008188; 0.127008;-0.006499;,
       0.008188; 0.116013; 0.007459;,
       0.008188; 0.127008; 0.007459;,
       0.008188; 0.127008;-0.006499;,
       0.008188; 0.116013;-0.006499;,
      -0.004618; 0.127008; 0.007459;,
      -0.004618; 0.116013; 0.007459;,
      -0.004618; 0.116013;-0.006499;,
      -0.004618; 0.127008;-0.006499;,
      -0.001193; 0.127008;-0.009736;,
      -0.001193; 0.116013;-0.009736;,
       0.004647; 0.116013;-0.009736;,
       0.004647; 0.127008;-0.009736;,
       0.008188; 0.116013;-0.006499;,
       0.008188; 0.127008;-0.006499;,
       0.004647; 0.127008;-0.009736;,
       0.004647; 0.116013;-0.009736;,
       0.008188; 0.127008;-0.006499;,
      -0.004618; 0.127008;-0.006499;,
      -0.001193; 0.127008;-0.009736;,
       0.004647; 0.127008;-0.009736;,
      -0.004618; 0.127008;-0.006499;,
      -0.004618; 0.116013;-0.006499;,
      -0.001193; 0.116013;-0.009736;,
      -0.001193; 0.127008;-0.009736;,
      -0.004618; 0.116013;-0.006499;,
       0.008188; 0.116013;-0.006499;,
       0.004647; 0.116013;-0.009736;,
      -0.001193; 0.116013;-0.009736;,
       0.002287; 0.122842; 0.036298;,
       0.002287; 0.120179; 0.036298;,
       0.001166; 0.120179; 0.036298;,
       0.001166; 0.122842; 0.036298;,
       0.002975; 0.124478; 0.029214;,
       0.002975; 0.118543; 0.029214;,
       0.002287; 0.120179; 0.036298;,
       0.002287; 0.122842; 0.036298;,
       0.002975; 0.118543; 0.029214;,
       0.000478; 0.118543; 0.029214;,
       0.001166; 0.120179; 0.036298;,
       0.002287; 0.120179; 0.036298;,
       0.000478; 0.124478; 0.029214;,
       0.002975; 0.124478; 0.029214;,
       0.002287; 0.122842; 0.036298;,
       0.001166; 0.122842; 0.036298;,
      -0.023134; 0.019997; 0.001977;,
      -0.023134; 0.019997;-0.003989;,
      -0.017168; 0.019997;-0.003989;,
      -0.017168; 0.019997; 0.001977;,
      -0.017168; 0.019997; 0.001977;,
      -0.017168; 0.019997;-0.003989;,
      -0.017168; 0.014031;-0.003989;,
      -0.017168; 0.014031; 0.001977;,
      -0.017168; 0.014031; 0.001977;,
      -0.017168; 0.014031;-0.003989;,
      -0.023134; 0.014031;-0.003989;,
      -0.023134; 0.014031; 0.001977;,
      -0.023134; 0.019997;-0.003989;,
      -0.023134; 0.019997; 0.001977;,
      -0.027033; 0.015968; 0.001977;,
      -0.027033; 0.015968;-0.003989;,
      -0.017168; 0.014031;-0.003989;,
      -0.017168; 0.019997;-0.003989;,
      -0.023134; 0.019997;-0.003989;,
      -0.023134; 0.014031;-0.003989;,
      -0.017168; 0.019997; 0.001977;,
      -0.017168; 0.014031; 0.001977;,
      -0.023134; 0.014031; 0.001977;,
      -0.023134; 0.019997; 0.001977;,
      -0.027033; 0.010002; 0.001977;,
      -0.027033; 0.010002;-0.003989;,
      -0.027033; 0.015968;-0.003989;,
      -0.027033; 0.015968; 0.001977;,
      -0.023134; 0.014031;-0.003989;,
      -0.023134; 0.019997;-0.003989;,
      -0.027033; 0.015968;-0.003989;,
      -0.027033; 0.010002;-0.003989;,
      -0.023134; 0.019997; 0.001977;,
      -0.023134; 0.014031; 0.001977;,
      -0.027033; 0.010002; 0.001977;,
      -0.027033; 0.015968; 0.001977;,
      -0.027033; 0.010002; 0.001977;,
      -0.023134; 0.014031; 0.001977;,
      -0.023134;-0.053972; 0.001977;,
      -0.027033;-0.050349; 0.001977;,
      -0.027033;-0.050349; 0.001977;,
      -0.023134;-0.053972; 0.001977;,
      -0.023134;-0.058929; 0.001977;,
      -0.027033;-0.055306; 0.001977;,
      -0.027033; 0.010002;-0.003989;,
      -0.027033; 0.010002; 0.001977;,
      -0.027033;-0.050349; 0.001977;,
      -0.027033;-0.050349;-0.003989;,
      -0.023134; 0.014031; 0.001977;,
      -0.023134; 0.014031;-0.003989;,
      -0.023134;-0.053972;-0.003989;,
      -0.023134;-0.053972; 0.001977;,
      -0.023134; 0.014031;-0.003989;,
      -0.027033; 0.010002;-0.003989;,
      -0.027033;-0.050349;-0.003989;,
      -0.023134;-0.053972;-0.003989;,
      -0.023134;-0.058929; 0.001977;,
      -0.023134;-0.058929;-0.003989;,
      -0.027033;-0.055306;-0.003989;,
      -0.027033;-0.055306; 0.001977;,
      -0.027033;-0.050349;-0.003989;,
      -0.027033;-0.050349; 0.001977;,
      -0.027033;-0.055306; 0.001977;,
      -0.027033;-0.055306;-0.003989;,
      -0.023134;-0.053972;-0.003989;,
      -0.027033;-0.050349;-0.003989;,
      -0.027033;-0.055306;-0.003989;,
      -0.023134;-0.058929;-0.003989;,
      -0.023134;-0.058929;-0.003989;,
      -0.023134;-0.058929; 0.001977;,
      -0.017594;-0.058929; 0.001977;,
      -0.017594;-0.058929;-0.003989;,
      -0.017594;-0.053972; 0.001977;,
      -0.017594;-0.053972;-0.003989;,
      -0.017594;-0.058929;-0.003989;,
      -0.017594;-0.058929; 0.001977;,
      -0.023134;-0.053972;-0.003989;,
      -0.023134;-0.058929;-0.003989;,
      -0.017594;-0.058929;-0.003989;,
      -0.017594;-0.053972;-0.003989;,
      -0.023134;-0.058929; 0.001977;,
      -0.023134;-0.053972; 0.001977;,
      -0.017594;-0.053972; 0.001977;,
      -0.017594;-0.058929; 0.001977;,
      -0.023134;-0.053972; 0.001977;,
      -0.023134;-0.053972;-0.003989;,
      -0.017594;-0.053972;-0.003989;,
      -0.017594;-0.053972; 0.001977;;
      150;
      4;3,2,1,0;,
      4;7,6,5,4;,
      4;11,10,9,8;,
      4;15,14,13,12;,
      4;19,18,17,16;,
      4;23,22,21,20;,
      4;27,26,25,24;,
      4;31,30,29,28;,
      4;35,34,33,32;,
      4;39,38,37,36;,
      4;43,42,41,40;,
      4;47,46,45,44;,
      4;51,50,49,48;,
      4;55,54,53,52;,
      12;67,66,65,64,63,62,61,60,59,58,57,56;,
      4;71,70,69,68;,
      4;75,74,73,72;,
      4;79,78,77,76;,
      4;83,82,81,80;,
      4;87,86,85,84;,
      4;91,90,89,88;,
      4;95,94,93,92;,
      4;99,98,97,96;,
      4;103,102,101,100;,
      4;107,106,105,104;,
      4;111,110,109,108;,
      12;123,122,121,120,119,118,117,116,115,114,113,112;,
      4;127,126,125,124;,
      4;131,130,129,128;,
      4;135,134,133,132;,
      4;139,138,137,136;,
      4;143,142,141,140;,
      4;147,146,145,144;,
      4;151,150,149,148;,
      4;155,154,153,152;,
      4;159,158,157,156;,
      4;163,162,161,160;,
      4;167,166,165,164;,
      4;171,170,169,168;,
      4;175,174,173,172;,
      4;179,178,177,176;,
      4;183,182,181,180;,
      4;187,186,185,184;,
      4;191,190,189,188;,
      4;195,194,193,192;,
      4;199,198,197,196;,
      4;203,202,201,200;,
      4;207,206,205,204;,
      4;211,210,209,208;,
      4;215,214,213,212;,
      4;219,218,217,216;,
      4;223,222,221,220;,
      4;227,226,225,224;,
      4;231,230,229,228;,
      4;235,234,233,232;,
      4;239,238,237,236;,
      4;243,242,241,240;,
      4;247,246,245,244;,
      4;251,250,249,248;,
      4;255,254,253,252;,
      4;259,258,257,256;,
      4;263,262,261,260;,
      12;275,274,273,272,271,270,269,268,267,266,265,264;,
      4;279,278,277,276;,
      4;283,282,281,280;,
      4;287,286,285,284;,
      4;291,290,289,288;,
      4;295,294,293,292;,
      4;299,298,297,296;,
      4;303,302,301,300;,
      4;307,306,305,304;,
      4;311,310,309,308;,
      4;315,314,313,312;,
      4;319,318,317,316;,
      4;323,322,321,320;,
      4;327,326,325,324;,
      12;339,338,337,336,335,334,333,332,331,330,329,328;,
      4;343,342,341,340;,
      4;347,346,345,344;,
      4;351,350,349,348;,
      4;355,354,353,352;,
      4;359,358,357,356;,
      4;363,362,361,360;,
      4;367,366,365,364;,
      4;371,370,369,368;,
      4;375,374,373,372;,
      4;379,378,377,376;,
      4;383,382,381,380;,
      4;387,386,385,384;,
      4;391,390,389,388;,
      4;395,394,393,392;,
      4;399,398,397,396;,
      4;403,402,401,400;,
      4;407,406,405,404;,
      4;411,410,409,408;,
      4;415,414,413,412;,
      4;419,418,417,416;,
      4;423,422,421,420;,
      12;435,434,433,432,431,430,429,428,427,426,425,424;,
      4;439,438,437,436;,
      4;443,442,441,440;,
      12;455,454,453,452,451,450,449,448,447,446,445,444;,
      4;459,458,457,456;,
      4;463,462,461,460;,
      4;467,466,465,464;,
      4;471,470,469,468;,
      4;475,474,473,472;,
      4;479,478,477,476;,
      4;483,482,481,480;,
      4;487,486,485,484;,
      4;491,490,489,488;,
      4;495,494,493,492;,
      4;499,498,497,496;,
      4;503,502,501,500;,
      4;507,506,505,504;,
      4;511,510,509,508;,
      4;515,514,513,512;,
      4;519,518,517,516;,
      4;523,522,521,520;,
      4;527,526,525,524;,
      4;531,530,529,528;,
      4;535,534,533,532;,
      4;539,538,537,536;,
      4;543,542,541,540;,
      4;547,546,545,544;,
      4;551,550,549,548;,
      4;555,554,553,552;,
      4;559,558,557,556;,
      4;563,562,561,560;,
      4;567,566,565,564;,
      4;571,570,569,568;,
      4;575,574,573,572;,
      4;579,578,577,576;,
      4;583,582,581,580;,
      4;587,586,585,584;,
      4;591,590,589,588;,
      4;595,594,593,592;,
      4;599,598,597,596;,
      4;603,602,601,600;,
      4;607,606,605,604;,
      4;611,610,609,608;,
      4;615,614,613,612;,
      4;619,618,617,616;,
      4;623,622,621,620;,
      4;627,626,625,624;,
      4;631,630,629,628;,
      4;635,634,633,632;,
      4;639,638,637,636;,
      4;643,642,641,640;,
      4;647,646,645,644;;
      MeshNormals {
        648;
        -0.965925; 0.000000; 0.258822;,
        -0.965925; 0.000000; 0.258822;,
        -0.965925; 0.000000; 0.258822;,
        -0.965925; 0.000000; 0.258822;,
        -0.707107; 0.000000; 0.707107;,
        -0.707107; 0.000000; 0.707107;,
        -0.707107; 0.000000; 0.707107;,
        -0.707107; 0.000000; 0.707107;,
        -0.258844; 0.000000; 0.965919;,
        -0.258844; 0.000000; 0.965919;,
        -0.258844; 0.000000; 0.965919;,
        -0.258844; 0.000000; 0.965919;,
         0.258822; 0.000000; 0.965925;,
         0.258822; 0.000000; 0.965925;,
         0.258822; 0.000000; 0.965925;,
         0.258822; 0.000000; 0.965925;,
         0.707107; 0.000000; 0.707107;,
         0.707107; 0.000000; 0.707107;,
         0.707107; 0.000000; 0.707107;,
         0.707107; 0.000000; 0.707107;,
         0.965925; 0.000000; 0.258822;,
         0.965925; 0.000000; 0.258822;,
         0.965925; 0.000000; 0.258822;,
         0.965925; 0.000000; 0.258822;,
         0.965925; 0.000000;-0.258822;,
         0.965925; 0.000000;-0.258822;,
         0.965925; 0.000000;-0.258822;,
         0.965925; 0.000000;-0.258822;,
         0.707107; 0.000000;-0.707107;,
         0.707107; 0.000000;-0.707107;,
         0.707107; 0.000000;-0.707107;,
         0.707107; 0.000000;-0.707107;,
         0.258822; 0.000000;-0.965925;,
         0.258822; 0.000000;-0.965925;,
         0.258822; 0.000000;-0.965925;,
         0.258822; 0.000000;-0.965925;,
        -0.258844; 0.000000;-0.965919;,
        -0.258844; 0.000000;-0.965919;,
        -0.258844; 0.000000;-0.965919;,
        -0.258844; 0.000000;-0.965919;,
         0.178156; 0.725344;-0.664934;,
         0.178156; 0.725344;-0.664934;,
         0.178155; 0.725344;-0.664934;,
         0.178156; 0.725344;-0.664934;,
        -0.707107; 0.000000;-0.707107;,
        -0.707107; 0.000000;-0.707107;,
        -0.707107; 0.000000;-0.707107;,
        -0.707107; 0.000000;-0.707107;,
        -0.965925; 0.000000;-0.258822;,
        -0.965925; 0.000000;-0.258822;,
        -0.965925; 0.000000;-0.258822;,
        -0.965925; 0.000000;-0.258822;,
         0.641274;-0.747820; 0.171850;,
         0.641274;-0.747820; 0.171850;,
         0.641274;-0.747820; 0.171850;,
         0.641274;-0.747820; 0.171850;,
         0.000000;-1.000000; 0.000000;,
         0.000000;-1.000000; 0.000000;,
         0.000000;-1.000000; 0.000000;,
         0.000000;-1.000000; 0.000000;,
         0.000000;-1.000000; 0.000000;,
         0.000000;-1.000000; 0.000000;,
         0.000000;-1.000000; 0.000000;,
         0.000000;-1.000000; 0.000000;,
         0.000000;-1.000000; 0.000000;,
         0.000000;-1.000000; 0.000000;,
         0.000000;-1.000000; 0.000000;,
         0.000000;-1.000000; 0.000000;,
         0.469463;-0.747823; 0.469430;,
         0.469463;-0.747823; 0.469430;,
         0.469463;-0.747823; 0.469430;,
         0.469463;-0.747824; 0.469430;,
         0.171803;-0.747852; 0.641249;,
         0.171803;-0.747852; 0.641249;,
         0.171803;-0.747852; 0.641249;,
         0.171803;-0.747852; 0.641249;,
        -0.641274;-0.747820;-0.171851;,
        -0.641274;-0.747820;-0.171851;,
        -0.641274;-0.747820;-0.171851;,
        -0.641274;-0.747820;-0.171851;,
        -0.641274;-0.747820; 0.171851;,
        -0.641274;-0.747820; 0.171851;,
        -0.641274;-0.747820; 0.171851;,
        -0.641274;-0.747820; 0.171851;,
        -0.171819;-0.747852; 0.641245;,
        -0.171819;-0.747852; 0.641245;,
        -0.171819;-0.747852; 0.641245;,
        -0.171819;-0.747852; 0.641245;,
        -0.469463;-0.747824;-0.469430;,
        -0.469463;-0.747824;-0.469430;,
        -0.469463;-0.747824;-0.469430;,
        -0.469463;-0.747824;-0.469430;,
        -0.469463;-0.747824; 0.469430;,
        -0.469463;-0.747824; 0.469430;,
        -0.469463;-0.747824; 0.469430;,
        -0.469463;-0.747824; 0.469430;,
        -0.171819;-0.747852;-0.641245;,
        -0.171819;-0.747852;-0.641245;,
        -0.171819;-0.747852;-0.641245;,
        -0.171819;-0.747852;-0.641245;,
         0.171803;-0.747852;-0.641249;,
         0.171803;-0.747852;-0.641249;,
         0.171803;-0.747852;-0.641249;,
         0.171803;-0.747852;-0.641249;,
         0.469463;-0.747823;-0.469430;,
         0.469463;-0.747824;-0.469430;,
         0.469463;-0.747824;-0.469430;,
         0.469463;-0.747824;-0.469430;,
         0.641274;-0.747820;-0.171851;,
         0.641274;-0.747820;-0.171851;,
         0.641274;-0.747820;-0.171851;,
         0.641274;-0.747820;-0.171851;,
         0.000000; 1.000000; 0.000000;,
         0.000000; 1.000000; 0.000000;,
         0.000000; 1.000000; 0.000000;,
         0.000000; 1.000000; 0.000000;,
         0.000000; 1.000000; 0.000000;,
         0.000000; 1.000000; 0.000000;,
         0.000000; 1.000000; 0.000000;,
         0.000000; 1.000000; 0.000000;,
         0.000000; 1.000000; 0.000000;,
         0.000000; 1.000000; 0.000000;,
         0.000000; 1.000000; 0.000000;,
         0.000000; 1.000000; 0.000000;,
         0.486814; 0.725254;-0.486846;,
         0.486814; 0.725254;-0.486846;,
         0.486814; 0.725254;-0.486846;,
         0.486814; 0.725254;-0.486846;,
         0.665057; 0.725222;-0.178189;,
         0.665058; 0.725222;-0.178189;,
         0.665057; 0.725222;-0.178189;,
         0.665058; 0.725222;-0.178189;,
         0.665057; 0.725222; 0.178189;,
         0.665057; 0.725222; 0.178189;,
         0.665057; 0.725222; 0.178189;,
         0.665057; 0.725222; 0.178189;,
         0.486814; 0.725254; 0.486845;,
         0.486814; 0.725254; 0.486845;,
         0.486814; 0.725254; 0.486845;,
         0.486814; 0.725254; 0.486845;,
         0.178155; 0.725344; 0.664934;,
         0.178155; 0.725344; 0.664934;,
         0.178155; 0.725344; 0.664934;,
         0.178155; 0.725344; 0.664934;,
        -0.665057; 0.725222;-0.178188;,
        -0.665058; 0.725222;-0.178189;,
        -0.665057; 0.725222;-0.178189;,
        -0.665057; 0.725222;-0.178189;,
        -0.665058; 0.725222; 0.178189;,
        -0.665058; 0.725222; 0.178189;,
        -0.665058; 0.725222; 0.178189;,
        -0.665058; 0.725222; 0.178189;,
        -0.178172; 0.725345; 0.664928;,
        -0.178172; 0.725345; 0.664928;,
        -0.178172; 0.725345; 0.664928;,
        -0.178172; 0.725345; 0.664928;,
        -0.486813; 0.725253;-0.486847;,
        -0.486813; 0.725253;-0.486847;,
        -0.486813; 0.725253;-0.486847;,
        -0.486813; 0.725253;-0.486847;,
        -0.486814; 0.725254; 0.486846;,
        -0.486814; 0.725254; 0.486846;,
        -0.486814; 0.725254; 0.486846;,
        -0.486814; 0.725254; 0.486846;,
        -0.178172; 0.725345;-0.664928;,
        -0.178172; 0.725345;-0.664928;,
        -0.178172; 0.725345;-0.664928;,
        -0.178172; 0.725345;-0.664928;,
        -0.965912; 0.000000; 0.258869;,
        -0.965912; 0.000000; 0.258869;,
        -0.965912; 0.000000; 0.258869;,
        -0.965912; 0.000000; 0.258869;,
         0.258767; 0.000000; 0.965940;,
         0.258767; 0.000000; 0.965940;,
         0.258767; 0.000000; 0.965940;,
         0.258767; 0.000000; 0.965940;,
         0.707150; 0.000000; 0.707063;,
         0.707150; 0.000000; 0.707063;,
         0.707150; 0.000000; 0.707063;,
         0.707150; 0.000000; 0.707063;,
         0.965912; 0.000000; 0.258869;,
         0.965912; 0.000000; 0.258869;,
         0.965912; 0.000000; 0.258869;,
         0.965912; 0.000000; 0.258869;,
         0.965912; 0.000000;-0.258869;,
         0.965912; 0.000000;-0.258869;,
         0.965912; 0.000000;-0.258869;,
         0.965912; 0.000000;-0.258869;,
         0.707150; 0.000000;-0.707063;,
         0.707150; 0.000000;-0.707063;,
         0.707150; 0.000000;-0.707063;,
         0.707150; 0.000000;-0.707063;,
         0.258766; 0.000000;-0.965940;,
         0.258766; 0.000000;-0.965940;,
         0.258766; 0.000000;-0.965940;,
         0.258766; 0.000000;-0.965940;,
        -0.258788; 0.000000;-0.965934;,
        -0.258788; 0.000000;-0.965934;,
        -0.258788; 0.000000;-0.965934;,
        -0.258788; 0.000000;-0.965934;,
        -0.707150; 0.000000;-0.707063;,
        -0.707150; 0.000000;-0.707063;,
        -0.707150; 0.000000;-0.707063;,
        -0.707150; 0.000000;-0.707063;,
        -0.707150; 0.000000; 0.707063;,
        -0.707150; 0.000000; 0.707063;,
        -0.707150; 0.000000; 0.707063;,
        -0.707150; 0.000000; 0.707063;,
        -0.258788; 0.000000; 0.965934;,
        -0.258788; 0.000000; 0.965934;,
        -0.258788; 0.000000; 0.965934;,
        -0.258788; 0.000000; 0.965934;,
        -0.965912; 0.000000;-0.258869;,
        -0.965912; 0.000000;-0.258869;,
        -0.965912; 0.000000;-0.258869;,
        -0.965912; 0.000000;-0.258869;,
        -0.683007; 0.707112; 0.183016;,
        -0.683007; 0.707112; 0.183016;,
        -0.683007; 0.707112; 0.183016;,
        -0.683007; 0.707112; 0.183016;,
        -0.500026; 0.707093; 0.499993;,
        -0.500026; 0.707093; 0.499993;,
        -0.500026; 0.707093; 0.499993;,
        -0.500026; 0.707093; 0.499993;,
        -0.183005; 0.707067; 0.683056;,
        -0.183005; 0.707067; 0.683056;,
        -0.183005; 0.707067; 0.683056;,
        -0.183005; 0.707067; 0.683056;,
         0.182989; 0.707067; 0.683060;,
         0.182989; 0.707067; 0.683060;,
         0.182989; 0.707067; 0.683061;,
         0.182989; 0.707067; 0.683060;,
         0.500026; 0.707093; 0.499993;,
         0.500026; 0.707093; 0.499993;,
         0.500026; 0.707093; 0.499993;,
         0.500026; 0.707093; 0.499994;,
         0.683007; 0.707111; 0.183017;,
         0.683007; 0.707111; 0.183017;,
         0.683007; 0.707111; 0.183017;,
         0.683007; 0.707111; 0.183017;,
         0.683007; 0.707111;-0.183017;,
         0.683007; 0.707111;-0.183017;,
         0.683007; 0.707111;-0.183017;,
         0.683007; 0.707111;-0.183017;,
         0.499978; 0.707137;-0.499978;,
         0.499978; 0.707138;-0.499978;,
         0.499978; 0.707138;-0.499978;,
         0.499978; 0.707138;-0.499978;,
         0.183004; 0.707128;-0.682993;,
         0.183004; 0.707128;-0.682993;,
         0.183004; 0.707128;-0.682993;,
         0.183004; 0.707128;-0.682993;,
        -0.183020; 0.707128;-0.682989;,
        -0.183020; 0.707128;-0.682989;,
        -0.183020; 0.707128;-0.682989;,
        -0.183020; 0.707128;-0.682989;,
        -0.499978; 0.707138;-0.499978;,
        -0.499978; 0.707138;-0.499978;,
        -0.499978; 0.707138;-0.499978;,
        -0.499978; 0.707138;-0.499978;,
        -0.683007; 0.707112;-0.183016;,
        -0.683007; 0.707112;-0.183016;,
        -0.683007; 0.707112;-0.183016;,
        -0.683007; 0.707112;-0.183016;,
         0.000000; 1.000000; 0.000000;,
         0.000000; 1.000000; 0.000000;,
         0.000000; 1.000000; 0.000000;,
         0.000000; 1.000000; 0.000000;,
         0.000000; 1.000000; 0.000000;,
         0.000000; 1.000000; 0.000000;,
         0.000000; 1.000000; 0.000000;,
         0.000000; 1.000000; 0.000000;,
         0.000000; 1.000000; 0.000000;,
         0.000000; 1.000000; 0.000000;,
         0.000000; 1.000000; 0.000000;,
         0.000000; 1.000000; 0.000000;,
        -0.683050;-0.707063; 0.183042;,
        -0.683050;-0.707063; 0.183042;,
        -0.683050;-0.707063; 0.183042;,
        -0.683050;-0.707063; 0.183042;,
        -0.500013;-0.707088; 0.500013;,
        -0.500013;-0.707088; 0.500013;,
        -0.500013;-0.707088; 0.500013;,
        -0.500013;-0.707088; 0.500013;,
        -0.183006;-0.707114; 0.683007;,
        -0.183006;-0.707114; 0.683007;,
        -0.183006;-0.707114; 0.683007;,
        -0.183006;-0.707114; 0.683007;,
         0.182989;-0.707113; 0.683012;,
         0.182989;-0.707113; 0.683012;,
         0.182989;-0.707113; 0.683012;,
         0.182989;-0.707113; 0.683012;,
         0.500013;-0.707087; 0.500014;,
         0.500013;-0.707087; 0.500014;,
         0.500013;-0.707087; 0.500014;,
         0.500013;-0.707087; 0.500014;,
         0.683050;-0.707063; 0.183042;,
         0.683050;-0.707063; 0.183042;,
         0.683050;-0.707063; 0.183042;,
         0.683050;-0.707063; 0.183042;,
         0.683037;-0.707074;-0.183048;,
         0.683037;-0.707074;-0.183048;,
         0.683037;-0.707074;-0.183048;,
         0.683037;-0.707074;-0.183048;,
         0.500010;-0.707117;-0.499976;,
         0.500010;-0.707117;-0.499976;,
         0.500010;-0.707117;-0.499976;,
         0.500010;-0.707117;-0.499976;,
         0.182989;-0.707113;-0.683012;,
         0.182989;-0.707113;-0.683012;,
         0.182989;-0.707113;-0.683012;,
         0.182989;-0.707113;-0.683012;,
        -0.183006;-0.707114;-0.683007;,
        -0.183006;-0.707114;-0.683007;,
        -0.183006;-0.707114;-0.683007;,
        -0.183006;-0.707114;-0.683007;,
        -0.500010;-0.707117;-0.499975;,
        -0.500010;-0.707117;-0.499975;,
        -0.500010;-0.707117;-0.499975;,
        -0.500010;-0.707117;-0.499975;,
        -0.683037;-0.707074;-0.183048;,
        -0.683037;-0.707074;-0.183048;,
        -0.683037;-0.707074;-0.183048;,
        -0.683037;-0.707074;-0.183048;,
        -0.803120;-0.555594; 0.215205;,
        -0.803120;-0.555594; 0.215205;,
        -0.803120;-0.555594; 0.215205;,
        -0.803120;-0.555594; 0.215205;,
         0.000000;-1.000000; 0.000000;,
         0.000000;-1.000000; 0.000000;,
         0.000000;-1.000000; 0.000000;,
         0.000000;-1.000000; 0.000000;,
         0.000000;-1.000000; 0.000000;,
         0.000000;-1.000000; 0.000000;,
         0.000000;-1.000000; 0.000000;,
         0.000000;-1.000000; 0.000000;,
         0.000000;-1.000000; 0.000000;,
         0.000000;-1.000000; 0.000000;,
         0.000000;-1.000000; 0.000000;,
         0.000000;-1.000000; 0.000000;,
         0.803121;-0.555593; 0.215205;,
         0.803121;-0.555593; 0.215205;,
         0.803121;-0.555593; 0.215205;,
         0.803121;-0.555593; 0.215205;,
        -0.803093;-0.555642;-0.215185;,
        -0.803093;-0.555642;-0.215185;,
        -0.803093;-0.555642;-0.215185;,
        -0.803093;-0.555641;-0.215185;,
        -0.587896;-0.555609;-0.587942;,
        -0.587896;-0.555609;-0.587942;,
        -0.587896;-0.555609;-0.587942;,
        -0.587896;-0.555609;-0.587942;,
        -0.215181;-0.555593;-0.803128;,
        -0.215181;-0.555593;-0.803128;,
        -0.215181;-0.555593;-0.803128;,
        -0.215181;-0.555593;-0.803128;,
         0.215205;-0.555594;-0.803120;,
         0.215205;-0.555594;-0.803120;,
         0.215205;-0.555594;-0.803120;,
         0.215205;-0.555594;-0.803120;,
         0.587981;-0.555480; 0.587980;,
         0.587981;-0.555480; 0.587980;,
         0.587981;-0.555480; 0.587980;,
         0.587981;-0.555480; 0.587980;,
         0.587896;-0.555609;-0.587942;,
         0.587896;-0.555609;-0.587942;,
         0.587896;-0.555609;-0.587942;,
         0.587896;-0.555609;-0.587942;,
         0.215205;-0.555594; 0.803120;,
         0.215205;-0.555594; 0.803120;,
         0.215205;-0.555594; 0.803120;,
         0.215205;-0.555594; 0.803120;,
         0.803093;-0.555640;-0.215186;,
         0.803093;-0.555640;-0.215186;,
         0.803093;-0.555640;-0.215186;,
         0.803093;-0.555640;-0.215186;,
        -0.215181;-0.555592; 0.803128;,
        -0.215181;-0.555592; 0.803128;,
        -0.215181;-0.555592; 0.803128;,
        -0.215181;-0.555592; 0.803128;,
        -0.587981;-0.555480; 0.587980;,
        -0.587981;-0.555480; 0.587980;,
        -0.587981;-0.555480; 0.587980;,
        -0.587981;-0.555480; 0.587980;,
        -0.966056; 0.000000; 0.258331;,
        -0.966056; 0.000000; 0.258331;,
        -0.966056; 0.000000; 0.258331;,
        -0.966056; 0.000000; 0.258331;,
        -0.706966; 0.000005; 0.707248;,
        -0.706966; 0.000005; 0.707248;,
        -0.706966; 0.000005; 0.707248;,
        -0.706966; 0.000005; 0.707248;,
        -0.258929; 0.000002; 0.965896;,
        -0.258929; 0.000002; 0.965896;,
        -0.258929; 0.000002; 0.965896;,
        -0.258929; 0.000002; 0.965896;,
         0.258859; 0.000000; 0.965915;,
         0.258859; 0.000000; 0.965915;,
         0.258859; 0.000000; 0.965915;,
         0.258859; 0.000000; 0.965915;,
         0.706824; 0.000000; 0.707389;,
         0.706824; 0.000000; 0.707389;,
         0.706824; 0.000000; 0.707389;,
         0.706824; 0.000000; 0.707389;,
         0.966056; 0.000000; 0.258331;,
         0.966056; 0.000000; 0.258331;,
         0.966056; 0.000000; 0.258331;,
         0.966056; 0.000000; 0.258331;,
         0.966056; 0.000000;-0.258331;,
         0.966056; 0.000000;-0.258331;,
         0.966056; 0.000000;-0.258331;,
         0.966056; 0.000000;-0.258331;,
         0.706824; 0.000000;-0.707389;,
         0.706824; 0.000000;-0.707389;,
         0.706824; 0.000000;-0.707389;,
         0.706824; 0.000000;-0.707389;,
         0.258859; 0.000000;-0.965915;,
         0.258859; 0.000000;-0.965915;,
         0.258859; 0.000000;-0.965915;,
         0.258859; 0.000000;-0.965915;,
        -0.258929; 0.000002;-0.965896;,
        -0.258929; 0.000002;-0.965896;,
        -0.258929; 0.000002;-0.965896;,
        -0.258929; 0.000002;-0.965896;,
         0.000000; 1.000000;-0.000000;,
         0.000000; 1.000000;-0.000000;,
         0.000000; 1.000000;-0.000000;,
         0.000000; 1.000000;-0.000000;,
         0.000000; 1.000000;-0.000000;,
         0.000000; 1.000000;-0.000000;,
         0.000000; 1.000000;-0.000000;,
         0.000000; 1.000000;-0.000000;,
         0.000000; 1.000000;-0.000000;,
         0.000000; 1.000000;-0.000000;,
         0.000000; 1.000000;-0.000000;,
         0.000000; 1.000000;-0.000000;,
        -0.706966; 0.000005;-0.707248;,
        -0.706966; 0.000005;-0.707248;,
        -0.706966; 0.000005;-0.707248;,
        -0.706966; 0.000005;-0.707248;,
        -0.966056; 0.000000;-0.258331;,
        -0.966056; 0.000000;-0.258331;,
        -0.966056; 0.000000;-0.258331;,
        -0.966056; 0.000000;-0.258331;,
         0.000000;-1.000000;-0.000001;,
         0.000000;-1.000000;-0.000001;,
         0.000000;-1.000000;-0.000001;,
         0.000000;-1.000000;-0.000001;,
         0.000000;-1.000000;-0.000001;,
         0.000000;-1.000000;-0.000001;,
         0.000000;-1.000000;-0.000001;,
         0.000000;-1.000000;-0.000001;,
         0.000000;-1.000000;-0.000001;,
         0.000000;-1.000000;-0.000001;,
         0.000000;-1.000000;-0.000001;,
         0.000000;-1.000000;-0.000001;,
         0.000000;-0.992886;-0.119071;,
         0.000000;-0.992886;-0.119071;,
         0.000000;-0.992886;-0.119071;,
         0.000000;-0.992886;-0.119071;,
        -0.911288; 0.000000;-0.411771;,
        -0.911288; 0.000000;-0.411771;,
        -0.911287; 0.000000;-0.411771;,
        -0.911287; 0.000000;-0.411771;,
         0.000000; 0.992886;-0.119072;,
         0.000000; 0.992886;-0.119072;,
         0.000000; 0.992886;-0.119072;,
         0.000000; 0.992886;-0.119072;,
         0.916199; 0.000000;-0.400724;,
         0.916199; 0.000000;-0.400724;,
         0.916199; 0.000000;-0.400724;,
         0.916199; 0.000000;-0.400724;,
         1.000000; 0.000000; 0.000000;,
         1.000000; 0.000000; 0.000000;,
         1.000000; 0.000000; 0.000000;,
         1.000000; 0.000000; 0.000000;,
         0.000000;-0.530537;-0.847662;,
         0.000000;-0.530537;-0.847662;,
         0.000000;-0.530537;-0.847662;,
         0.000000;-0.530537;-0.847662;,
        -0.530292; 0.000000;-0.847815;,
        -0.530292; 0.000000;-0.847815;,
        -0.530292; 0.000000;-0.847815;,
        -0.530292; 0.000000;-0.847815;,
         0.000000; 0.530534;-0.847664;,
         0.000000; 0.530534;-0.847664;,
         0.000000; 0.530533;-0.847664;,
         0.000000; 0.530533;-0.847664;,
         0.530292; 0.000000;-0.847815;,
         0.530292; 0.000000;-0.847815;,
         0.530292; 0.000000;-0.847815;,
         0.530292; 0.000000;-0.847815;,
         0.995317; 0.000000;-0.096666;,
         0.995317; 0.000000;-0.096666;,
         0.995317; 0.000000;-0.096666;,
         0.995317; 0.000000;-0.096666;,
        -1.000000; 0.000000; 0.000000;,
        -1.000000; 0.000000; 0.000000;,
        -1.000000; 0.000000; 0.000000;,
        -1.000000; 0.000000; 0.000000;,
         0.000000; 1.000000; 0.000000;,
         0.000000; 1.000000; 0.000000;,
         0.000000; 1.000000; 0.000000;,
         0.000000; 1.000000; 0.000000;,
         0.000000;-1.000000; 0.000000;,
         0.000000;-1.000000; 0.000000;,
         0.000000;-1.000000; 0.000000;,
         0.000000;-1.000000; 0.000000;,
         0.000000; 1.000000; 0.000000;,
         0.000000; 1.000000; 0.000000;,
         0.000000; 1.000000; 0.000000;,
         0.000000; 1.000000; 0.000000;,
         0.000000;-1.000000; 0.000000;,
         0.000000;-1.000000; 0.000000;,
         0.000000;-1.000000; 0.000000;,
         0.000000;-1.000000; 0.000000;,
        -1.000000; 0.000000; 0.000000;,
        -1.000000; 0.000000; 0.000000;,
        -1.000000; 0.000000; 0.000000;,
        -1.000000; 0.000000; 0.000000;,
         1.000000; 0.000000; 0.000000;,
         1.000000; 0.000000; 0.000000;,
         1.000000; 0.000000; 0.000000;,
         1.000000; 0.000000; 0.000000;,
         0.000000; 0.000000; 1.000000;,
         0.000000; 0.000000; 1.000000;,
         0.000000; 0.000000; 1.000000;,
         0.000000; 0.000000; 1.000000;,
        -0.674714; 0.000000; 0.738079;,
        -0.674714; 0.000000; 0.738079;,
        -0.674714; 0.000000; 0.738079;,
        -0.674714; 0.000000; 0.738079;,
         0.000000;-1.000000; 0.000000;,
         0.000000;-1.000000; 0.000000;,
         0.000000;-1.000000; 0.000000;,
         0.000000;-1.000000; 0.000000;,
         0.686879; 0.000000; 0.726772;,
         0.686879; 0.000000; 0.726772;,
         0.686879; 0.000000; 0.726772;,
         0.686879; 0.000000; 0.726772;,
         0.000000; 1.000000;-0.000002;,
         0.000000; 1.000000;-0.000002;,
         0.000000; 1.000000;-0.000002;,
         0.000000; 1.000000;-0.000002;,
         0.000000; 0.000000;-1.000000;,
         0.000000; 0.000000;-1.000000;,
         0.000000; 0.000000;-1.000000;,
         0.000000; 0.000000;-1.000000;,
        -0.995317; 0.000000;-0.096666;,
        -0.995317; 0.000000;-0.096666;,
        -0.995317; 0.000000;-0.096666;,
        -0.995317; 0.000000;-0.096666;,
         0.000000; 0.974354;-0.225019;,
         0.000000; 0.974354;-0.225019;,
         0.000000; 0.974354;-0.225019;,
         0.000000; 0.974354;-0.225019;,
         0.000000;-0.974354;-0.225021;,
         0.000000;-0.974354;-0.225021;,
         0.000000;-0.974354;-0.225021;,
         0.000000;-0.974354;-0.225021;,
         0.000000;-1.000000; 0.000000;,
         0.000000;-1.000000; 0.000000;,
         0.000000;-1.000000; 0.000000;,
         0.000000;-1.000000; 0.000000;,
        -1.000000; 0.000000; 0.000000;,
        -1.000000; 0.000000; 0.000000;,
        -1.000000; 0.000000; 0.000000;,
        -1.000000; 0.000000; 0.000000;,
         0.000000; 1.000000; 0.000000;,
         0.000000; 1.000000; 0.000000;,
         0.000000; 1.000000; 0.000000;,
         0.000000; 1.000000; 0.000000;,
         0.718605;-0.695418; 0.000000;,
         0.718605;-0.695418; 0.000000;,
         0.718605;-0.695418; 0.000000;,
         0.718605;-0.695418; 0.000000;,
         0.000000; 0.000000; 1.000000;,
         0.000000; 0.000000; 1.000000;,
         0.000000; 0.000000; 1.000000;,
         0.000000; 0.000000; 1.000000;,
         0.000000; 0.000000;-1.000000;,
         0.000000; 0.000000;-1.000000;,
         0.000000; 0.000000;-1.000000;,
         0.000000; 0.000000;-1.000000;,
         1.000000; 0.000000; 0.000000;,
         1.000000; 0.000000; 0.000000;,
         1.000000; 0.000000; 0.000000;,
         1.000000; 0.000000; 0.000000;,
        -0.000000; 0.000000; 1.000000;,
        -0.000000; 0.000000; 1.000000;,
        -0.000000; 0.000000; 1.000000;,
        -0.000000; 0.000000; 1.000000;,
         0.000000; 0.000000;-1.000000;,
         0.000000; 0.000000;-1.000000;,
         0.000000; 0.000000;-1.000000;,
         0.000000; 0.000000;-1.000000;,
         0.000000; 0.000000;-1.000000;,
         0.000000; 0.000000;-1.000000;,
         0.000000; 0.000000;-1.000000;,
         0.000000; 0.000000;-1.000000;,
         0.000000; 0.000000;-1.000000;,
         0.000000; 0.000000;-1.000000;,
         0.000000; 0.000000;-1.000000;,
         0.000000; 0.000000;-1.000000;,
         1.000000; 0.000000; 0.000000;,
         1.000000; 0.000000; 0.000000;,
         1.000000; 0.000000; 0.000000;,
         1.000000; 0.000000; 0.000000;,
        -1.000000; 0.000000; 0.000000;,
        -1.000000; 0.000000; 0.000000;,
        -1.000000; 0.000000; 0.000000;,
        -1.000000; 0.000000; 0.000000;,
        -0.000000; 0.000000; 1.000000;,
        -0.000000; 0.000000; 1.000000;,
        -0.000000; 0.000000; 1.000000;,
        -0.000000; 0.000000; 1.000000;,
         0.680703; 0.732560; 0.000000;,
         0.680703; 0.732560; 0.000000;,
         0.680703; 0.732560; 0.000000;,
         0.680703; 0.732560; 0.000000;,
         1.000000; 0.000000; 0.000000;,
         1.000000; 0.000000; 0.000000;,
         1.000000; 0.000000; 0.000000;,
         1.000000; 0.000000; 0.000000;,
         0.000000; 0.000000; 1.000000;,
         0.000000; 0.000000; 1.000000;,
         0.000000; 0.000000; 1.000000;,
         0.000000; 0.000000; 1.000000;,
         0.000000; 1.000000; 0.000000;,
         0.000000; 1.000000; 0.000000;,
         0.000000; 1.000000; 0.000000;,
         0.000000; 1.000000; 0.000000;,
        -1.000000; 0.000000; 0.000000;,
        -1.000000; 0.000000; 0.000000;,
        -1.000000; 0.000000; 0.000000;,
        -1.000000; 0.000000; 0.000000;,
         0.000000; 0.000000; 1.000000;,
         0.000000; 0.000000; 1.000000;,
         0.000000; 0.000000; 1.000000;,
         0.000000; 0.000000; 1.000000;,
         0.000000; 0.000000;-1.000000;,
         0.000000; 0.000000;-1.000000;,
         0.000000; 0.000000;-1.000000;,
         0.000000; 0.000000;-1.000000;,
         0.000000;-1.000000; 0.000000;,
         0.000000;-1.000000; 0.000000;,
         0.000000;-1.000000; 0.000000;,
         0.000000;-1.000000; 0.000000;;
        150;
        4;3,2,1,0;,
        4;7,6,5,4;,
        4;11,10,9,8;,
        4;15,14,13,12;,
        4;19,18,17,16;,
        4;23,22,21,20;,
        4;27,26,25,24;,
        4;31,30,29,28;,
        4;35,34,33,32;,
        4;39,38,37,36;,
        4;43,42,41,40;,
        4;47,46,45,44;,
        4;51,50,49,48;,
        4;55,54,53,52;,
        12;67,66,65,64,63,62,61,60,59,58,57,56;,
        4;71,70,69,68;,
        4;75,74,73,72;,
        4;79,78,77,76;,
        4;83,82,81,80;,
        4;87,86,85,84;,
        4;91,90,89,88;,
        4;95,94,93,92;,
        4;99,98,97,96;,
        4;103,102,101,100;,
        4;107,106,105,104;,
        4;111,110,109,108;,
        12;123,122,121,120,119,118,117,116,115,114,113,112;,
        4;127,126,125,124;,
        4;131,130,129,128;,
        4;135,134,133,132;,
        4;139,138,137,136;,
        4;143,142,141,140;,
        4;147,146,145,144;,
        4;151,150,149,148;,
        4;155,154,153,152;,
        4;159,158,157,156;,
        4;163,162,161,160;,
        4;167,166,165,164;,
        4;171,170,169,168;,
        4;175,174,173,172;,
        4;179,178,177,176;,
        4;183,182,181,180;,
        4;187,186,185,184;,
        4;191,190,189,188;,
        4;195,194,193,192;,
        4;199,198,197,196;,
        4;203,202,201,200;,
        4;207,206,205,204;,
        4;211,210,209,208;,
        4;215,214,213,212;,
        4;219,218,217,216;,
        4;223,222,221,220;,
        4;227,226,225,224;,
        4;231,230,229,228;,
        4;235,234,233,232;,
        4;239,238,237,236;,
        4;243,242,241,240;,
        4;247,246,245,244;,
        4;251,250,249,248;,
        4;255,254,253,252;,
        4;259,258,257,256;,
        4;263,262,261,260;,
        12;275,274,273,272,271,270,269,268,267,266,265,264;,
        4;279,278,277,276;,
        4;283,282,281,280;,
        4;287,286,285,284;,
        4;291,290,289,288;,
        4;295,294,293,292;,
        4;299,298,297,296;,
        4;303,302,301,300;,
        4;307,306,305,304;,
        4;311,310,309,308;,
        4;315,314,313,312;,
        4;319,318,317,316;,
        4;323,322,321,320;,
        4;327,326,325,324;,
        12;339,338,337,336,335,334,333,332,331,330,329,328;,
        4;343,342,341,340;,
        4;347,346,345,344;,
        4;351,350,349,348;,
        4;355,354,353,352;,
        4;359,358,357,356;,
        4;363,362,361,360;,
        4;367,366,365,364;,
        4;371,370,369,368;,
        4;375,374,373,372;,
        4;379,378,377,376;,
        4;383,382,381,380;,
        4;387,386,385,384;,
        4;391,390,389,388;,
        4;395,394,393,392;,
        4;399,398,397,396;,
        4;403,402,401,400;,
        4;407,406,405,404;,
        4;411,410,409,408;,
        4;415,414,413,412;,
        4;419,418,417,416;,
        4;423,422,421,420;,
        12;435,434,433,432,431,430,429,428,427,426,425,424;,
        4;439,438,437,436;,
        4;443,442,441,440;,
        12;455,454,453,452,451,450,449,448,447,446,445,444;,
        4;459,458,457,456;,
        4;463,462,461,460;,
        4;467,466,465,464;,
        4;471,470,469,468;,
        4;475,474,473,472;,
        4;479,478,477,476;,
        4;483,482,481,480;,
        4;487,486,485,484;,
        4;491,490,489,488;,
        4;495,494,493,492;,
        4;499,498,497,496;,
        4;503,502,501,500;,
        4;507,506,505,504;,
        4;511,510,509,508;,
        4;515,514,513,512;,
        4;519,518,517,516;,
        4;523,522,521,520;,
        4;527,526,525,524;,
        4;531,530,529,528;,
        4;535,534,533,532;,
        4;539,538,537,536;,
        4;543,542,541,540;,
        4;547,546,545,544;,
        4;551,550,549,548;,
        4;555,554,553,552;,
        4;559,558,557,556;,
        4;563,562,561,560;,
        4;567,566,565,564;,
        4;571,570,569,568;,
        4;575,574,573,572;,
        4;579,578,577,576;,
        4;583,582,581,580;,
        4;587,586,585,584;,
        4;591,590,589,588;,
        4;595,594,593,592;,
        4;599,598,597,596;,
        4;603,602,601,600;,
        4;607,606,605,604;,
        4;611,610,609,608;,
        4;615,614,613,612;,
        4;619,618,617,616;,
        4;623,622,621,620;,
        4;627,626,625,624;,
        4;631,630,629,628;,
        4;635,634,633,632;,
        4;639,638,637,636;,
        4;643,642,641,640;,
        4;647,646,645,644;;
      }
      MeshTextureCoords {
        648;
         0.434436; 1.855970;,
         0.000470; 1.855970;,
         0.000470; 1.808117;,
         0.434436; 1.808116;,
         0.434436; 1.808116;,
         0.000470; 1.808117;,
         0.000470; 1.760263;,
         0.434436; 1.760263;,
         0.434436; 1.760263;,
         0.000470; 1.760263;,
         0.000470; 1.712410;,
         0.434436; 1.712410;,
         0.000470; 1.424349;,
         0.434436; 1.424349;,
         0.434436; 1.472203;,
         0.000470; 1.472203;,
         0.000470; 1.472203;,
         0.434436; 1.472203;,
         0.434436; 1.520056;,
         0.000470; 1.520056;,
         0.000470; 1.520056;,
         0.434436; 1.520056;,
         0.434436; 1.567910;,
         0.000470; 1.567910;,
         0.000470; 1.567910;,
         0.434436; 1.567910;,
         0.434436; 1.615763;,
         0.000470; 1.615763;,
         0.000470; 1.615763;,
         0.434436; 1.615763;,
         0.434436; 1.663616;,
         0.000470; 1.663617;,
         0.000470; 1.663617;,
         0.434436; 1.663616;,
         0.434436; 1.711470;,
         0.000470; 1.711470;,
         0.434436; 1.999530;,
         0.000470; 1.999530;,
         0.000470; 1.951677;,
         0.434436; 1.951677;,
         0.907078; 1.797853;,
         0.946271; 1.770398;,
         0.952876; 1.785223;,
         0.918754; 1.809126;,
         0.434436; 1.951677;,
         0.000470; 1.951677;,
         0.000470; 1.903823;,
         0.434436; 1.903823;,
         0.434436; 1.903823;,
         0.000470; 1.903823;,
         0.000470; 1.855970;,
         0.434436; 1.855970;,
         0.786970; 1.659909;,
         0.796373; 1.612988;,
         0.815686; 1.621053;,
         0.807899; 1.659909;,
         0.435376; 1.318142;,
         0.455190; 1.283823;,
         0.489509; 1.264008;,
         0.529137; 1.264008;,
         0.563456; 1.283823;,
         0.583270; 1.318142;,
         0.583270; 1.357770;,
         0.563456; 1.392089;,
         0.529137; 1.411903;,
         0.489509; 1.411903;,
         0.455190; 1.392089;,
         0.435376; 1.357770;,
         0.796373; 1.612988;,
         0.823130; 1.573314;,
         0.837844; 1.588198;,
         0.815686; 1.621053;,
         0.823130; 1.573314;,
         0.863108; 1.547014;,
         0.870951; 1.566419;,
         0.837844; 1.588198;,
         0.786970; 1.886636;,
         0.796373; 1.839716;,
         0.815686; 1.847780;,
         0.807899; 1.886636;,
         0.796373; 1.933557;,
         0.786970; 1.886636;,
         0.807899; 1.886636;,
         0.815686; 1.925492;,
         0.863108; 1.999530;,
         0.823130; 1.973231;,
         0.837844; 1.958347;,
         0.870951; 1.980126;,
         0.796373; 1.839716;,
         0.823130; 1.800042;,
         0.837844; 1.814926;,
         0.815686; 1.847780;,
         0.823130; 1.973231;,
         0.796373; 1.933557;,
         0.815686; 1.925492;,
         0.837844; 1.958347;,
         0.823130; 1.800042;,
         0.863108; 1.773742;,
         0.870951; 1.793146;,
         0.837844; 1.814926;,
         0.863108; 1.772803;,
         0.823130; 1.746503;,
         0.837844; 1.731619;,
         0.870951; 1.753398;,
         0.823130; 1.746503;,
         0.796373; 1.706829;,
         0.815686; 1.698764;,
         0.837844; 1.731619;,
         0.796373; 1.706829;,
         0.786970; 1.659909;,
         0.807899; 1.659909;,
         0.815686; 1.698764;,
         0.159895; 1.324839;,
         0.180726; 1.288760;,
         0.216805; 1.267929;,
         0.258466; 1.267929;,
         0.294545; 1.288759;,
         0.315376; 1.324839;,
         0.315376; 1.366500;,
         0.294545; 1.402579;,
         0.258466; 1.423410;,
         0.216805; 1.423410;,
         0.180726; 1.402579;,
         0.159895; 1.366500;,
         0.881020; 1.837989;,
         0.907078; 1.797853;,
         0.918754; 1.809126;,
         0.896068; 1.844068;,
         0.871890; 1.884964;,
         0.881020; 1.837989;,
         0.896068; 1.844068;,
         0.888121; 1.884964;,
         0.881019; 1.931939;,
         0.871890; 1.884964;,
         0.888121; 1.884964;,
         0.896068; 1.925860;,
         0.907077; 1.972075;,
         0.881019; 1.931939;,
         0.896068; 1.925860;,
         0.918754; 1.960802;,
         0.946271; 1.999530;,
         0.907077; 1.972075;,
         0.918754; 1.960802;,
         0.952876; 1.984705;,
         0.845497; 1.344312;,
         0.836368; 1.297337;,
         0.852599; 1.297337;,
         0.860546; 1.338233;,
         0.836368; 1.297337;,
         0.845497; 1.250363;,
         0.860546; 1.256441;,
         0.852599; 1.297337;,
         0.871556; 1.210226;,
         0.910749; 1.182771;,
         0.917354; 1.197596;,
         0.883232; 1.221499;,
         0.871556; 1.384448;,
         0.845497; 1.344312;,
         0.860546; 1.338233;,
         0.883232; 1.373176;,
         0.845497; 1.250363;,
         0.871556; 1.210226;,
         0.883232; 1.221499;,
         0.860546; 1.256441;,
         0.910749; 1.411903;,
         0.871556; 1.384448;,
         0.883232; 1.373176;,
         0.917354; 1.397078;,
         0.786030; 1.853093;,
         0.435376; 1.853093;,
         0.435376; 1.804281;,
         0.786030; 1.804281;,
         0.435376; 1.412843;,
         0.786030; 1.412843;,
         0.786031; 1.461655;,
         0.435376; 1.461655;,
         0.435376; 1.461655;,
         0.786031; 1.461655;,
         0.786031; 1.510468;,
         0.435376; 1.510468;,
         0.435376; 1.510468;,
         0.786031; 1.510468;,
         0.786031; 1.559280;,
         0.435376; 1.559280;,
         0.435376; 1.559280;,
         0.786031; 1.559280;,
         0.786031; 1.608092;,
         0.435376; 1.608092;,
         0.435376; 1.608092;,
         0.786031; 1.608092;,
         0.786030; 1.656905;,
         0.435376; 1.656904;,
         0.435376; 1.656904;,
         0.786030; 1.656905;,
         0.786030; 1.705717;,
         0.435376; 1.705717;,
         0.786031; 1.999530;,
         0.435376; 1.999530;,
         0.435376; 1.950718;,
         0.786031; 1.950718;,
         0.786031; 1.950718;,
         0.435376; 1.950718;,
         0.435376; 1.901906;,
         0.786030; 1.901905;,
         0.786030; 1.804281;,
         0.435376; 1.804281;,
         0.435376; 1.755469;,
         0.786031; 1.755469;,
         0.786031; 1.755469;,
         0.435376; 1.755469;,
         0.435376; 1.706656;,
         0.786031; 1.706657;,
         0.786030; 1.901905;,
         0.435376; 1.901906;,
         0.435376; 1.853093;,
         0.786030; 1.853093;,
         0.670949; 1.293697;,
         0.680036; 1.245738;,
         0.695899; 1.251973;,
         0.687994; 1.293697;,
         0.680036; 1.245738;,
         0.706037; 1.204427;,
         0.718520; 1.216033;,
         0.695899; 1.251973;,
         0.706037; 1.204427;,
         0.745347; 1.175490;,
         0.752719; 1.190858;,
         0.718520; 1.216033;,
         0.828057; 1.411903;,
         0.788746; 1.382967;,
         0.801229; 1.371361;,
         0.835429; 1.396535;,
         0.788746; 1.382967;,
         0.762746; 1.341656;,
         0.778609; 1.335421;,
         0.801229; 1.371361;,
         0.762746; 1.341656;,
         0.753659; 1.293697;,
         0.770704; 1.293697;,
         0.778609; 1.335421;,
         0.753659; 1.293697;,
         0.762746; 1.245738;,
         0.778609; 1.251973;,
         0.770704; 1.293697;,
         0.762746; 1.245738;,
         0.788746; 1.204427;,
         0.801229; 1.216033;,
         0.778609; 1.251973;,
         0.788746; 1.204427;,
         0.828056; 1.175490;,
         0.835429; 1.190858;,
         0.801229; 1.216033;,
         0.745347; 1.411903;,
         0.706037; 1.382967;,
         0.718520; 1.371361;,
         0.752719; 1.396535;,
         0.706037; 1.382967;,
         0.680036; 1.341656;,
         0.695899; 1.335421;,
         0.718520; 1.371361;,
         0.680036; 1.341656;,
         0.670949; 1.293697;,
         0.687994; 1.293697;,
         0.695899; 1.335421;,
         0.000470; 1.365400;,
         0.000470; 1.322934;,
         0.021703; 1.286157;,
         0.058480; 1.264924;,
         0.100946; 1.264924;,
         0.137723; 1.286157;,
         0.158956; 1.322934;,
         0.158956; 1.365400;,
         0.137723; 1.402177;,
         0.100946; 1.423410;,
         0.058480; 1.423410;,
         0.021703; 1.402177;,
         0.325402; 1.353162;,
         0.316315; 1.305203;,
         0.342677; 1.305203;,
         0.349936; 1.343519;,
         0.351403; 1.394473;,
         0.325402; 1.353162;,
         0.349936; 1.343519;,
         0.370709; 1.376524;,
         0.390713; 1.423410;,
         0.351403; 1.394473;,
         0.370709; 1.376524;,
         0.402115; 1.399642;,
         0.619297; 1.204427;,
         0.658608; 1.175490;,
         0.670010; 1.199258;,
         0.638604; 1.222376;,
         0.593297; 1.245738;,
         0.619297; 1.204427;,
         0.638604; 1.222376;,
         0.617831; 1.255381;,
         0.584210; 1.293697;,
         0.593297; 1.245738;,
         0.617831; 1.255381;,
         0.610571; 1.293697;,
         0.593297; 1.341656;,
         0.584210; 1.293697;,
         0.610571; 1.293697;,
         0.617831; 1.332013;,
         0.619297; 1.382967;,
         0.593297; 1.341656;,
         0.617831; 1.332013;,
         0.638604; 1.365017;,
         0.658608; 1.411903;,
         0.619297; 1.382967;,
         0.638604; 1.365017;,
         0.670010; 1.388136;,
         0.351403; 1.215933;,
         0.390713; 1.186997;,
         0.402115; 1.210764;,
         0.370709; 1.233883;,
         0.325402; 1.257244;,
         0.351403; 1.215933;,
         0.370709; 1.233883;,
         0.349936; 1.266887;,
         0.316315; 1.305203;,
         0.325402; 1.257244;,
         0.349936; 1.266887;,
         0.342677; 1.305203;,
         0.924037; 1.347852;,
         0.918294; 1.309280;,
         0.926419; 1.309280;,
         0.931809; 1.345485;,
         0.296505; 1.180382;,
         0.296505; 1.216987;,
         0.278203; 1.248687;,
         0.246502; 1.266990;,
         0.209898; 1.266990;,
         0.178197; 1.248687;,
         0.159895; 1.216987;,
         0.159895; 1.180382;,
         0.178197; 1.148682;,
         0.209898; 1.130380;,
         0.246502; 1.130380;,
         0.278203; 1.148682;,
         0.918294; 1.103093;,
         0.924037; 1.064521;,
         0.931809; 1.066888;,
         0.926419; 1.103093;,
         0.918294; 1.309280;,
         0.924037; 1.270707;,
         0.931809; 1.273074;,
         0.926419; 1.309280;,
         0.924037; 1.270707;,
         0.940767; 1.235481;,
         0.947513; 1.240009;,
         0.931809; 1.273074;,
         0.940767; 1.235481;,
         0.967034; 1.206656;,
         0.972168; 1.212954;,
         0.947513; 1.240009;,
         0.967034; 1.205717;,
         0.940767; 1.176892;,
         0.947513; 1.172364;,
         0.972168; 1.199420;,
         0.924037; 1.064521;,
         0.940767; 1.029294;,
         0.947513; 1.033823;,
         0.931809; 1.066888;,
         0.940767; 1.176892;,
         0.924037; 1.141666;,
         0.931809; 1.139299;,
         0.947513; 1.172364;,
         0.940767; 1.029294;,
         0.967034; 1.000470;,
         0.972168; 1.006767;,
         0.947513; 1.033823;,
         0.924037; 1.141666;,
         0.918294; 1.103093;,
         0.926419; 1.103093;,
         0.931809; 1.139299;,
         0.967034; 1.411903;,
         0.940767; 1.383079;,
         0.947513; 1.378550;,
         0.972168; 1.405606;,
         0.940767; 1.383079;,
         0.924037; 1.347852;,
         0.931809; 1.345485;,
         0.947513; 1.378550;,
         0.015388; 1.106911;,
         0.296505; 1.106911;,
         0.296505; 1.114420;,
         0.015388; 1.114421;,
         0.015388; 1.114421;,
         0.296505; 1.114420;,
         0.296505; 1.121930;,
         0.015388; 1.121930;,
         0.015388; 1.121930;,
         0.296505; 1.121930;,
         0.296505; 1.129439;,
         0.015388; 1.129440;,
         0.302153; 1.129492;,
         0.583270; 1.129493;,
         0.583270; 1.137002;,
         0.302153; 1.137002;,
         0.302153; 1.137002;,
         0.583270; 1.137002;,
         0.583270; 1.144512;,
         0.302153; 1.144511;,
         0.302153; 1.144511;,
         0.583270; 1.144512;,
         0.583270; 1.152022;,
         0.302153; 1.152021;,
         0.302153; 1.152021;,
         0.583270; 1.152022;,
         0.583270; 1.159531;,
         0.302153; 1.159531;,
         0.302153; 1.159531;,
         0.583270; 1.159531;,
         0.583270; 1.167041;,
         0.302153; 1.167041;,
         0.302153; 1.167041;,
         0.583270; 1.167041;,
         0.583270; 1.174551;,
         0.302153; 1.174551;,
         0.015388; 1.084381;,
         0.296505; 1.084382;,
         0.296505; 1.091891;,
         0.015388; 1.091891;,
         0.543843; 1.252811;,
         0.543843; 1.245301;,
         0.547598; 1.238797;,
         0.554101; 1.235042;,
         0.561611; 1.235042;,
         0.568115; 1.238797;,
         0.571869; 1.245301;,
         0.571869; 1.252811;,
         0.568115; 1.259314;,
         0.561611; 1.263069;,
         0.554101; 1.263069;,
         0.547598; 1.259314;,
         0.015388; 1.091891;,
         0.296505; 1.091891;,
         0.296505; 1.099401;,
         0.015388; 1.099401;,
         0.015388; 1.099401;,
         0.296505; 1.099401;,
         0.296505; 1.106911;,
         0.015388; 1.106911;,
         0.421899; 1.281144;,
         0.414389; 1.281144;,
         0.407886; 1.277390;,
         0.404131; 1.270886;,
         0.404131; 1.263376;,
         0.407886; 1.256873;,
         0.414389; 1.253118;,
         0.421899; 1.253118;,
         0.428403; 1.256873;,
         0.432157; 1.263376;,
         0.432157; 1.270886;,
         0.428403; 1.277390;,
         0.542903; 1.251662;,
         0.508362; 1.263069;,
         0.508362; 1.216400;,
         0.542903; 1.227806;,
         0.057307; 1.173819;,
         0.093450; 1.169706;,
         0.093450; 1.216376;,
         0.057307; 1.212263;,
         0.584210; 1.139288;,
         0.618751; 1.127881;,
         0.618751; 1.174551;,
         0.584210; 1.163144;,
         0.057307; 1.221428;,
         0.093450; 1.217315;,
         0.093450; 1.263984;,
         0.057307; 1.259872;,
         0.519483; 1.190272;,
         0.519483; 1.215460;,
         0.465589; 1.215460;,
         0.465589; 1.190272;,
         0.580628; 1.245841;,
         0.580628; 1.256441;,
         0.572809; 1.263069;,
         0.572809; 1.239213;,
         0.314023; 1.235174;,
         0.314023; 1.260362;,
         0.306203; 1.266990;,
         0.306203; 1.228546;,
         0.050577; 1.174246;,
         0.040033; 1.175334;,
         0.032638; 1.168236;,
         0.056368; 1.165788;,
         0.305264; 1.235174;,
         0.305264; 1.260362;,
         0.297445; 1.266990;,
         0.297445; 1.228546;,
         0.465589; 1.190272;,
         0.465589; 1.215460;,
         0.435376; 1.208517;,
         0.435376; 1.197215;,
         0.000470; 1.190142;,
         0.023437; 1.179801;,
         0.045563; 1.228944;,
         0.022596; 1.239285;,
         0.040033; 1.175334;,
         0.050577; 1.174246;,
         0.056107; 1.227857;,
         0.045563; 1.228944;,
         0.403055; 1.291605;,
         0.413655; 1.291605;,
         0.413655; 1.345499;,
         0.403055; 1.345499;,
         0.618751; 1.174551;,
         0.618751; 1.127881;,
         0.677998; 1.127881;,
         0.677998; 1.174551;,
         0.508362; 1.216400;,
         0.508362; 1.263069;,
         0.449115; 1.263069;,
         0.449115; 1.216400;,
         0.093450; 1.216376;,
         0.093450; 1.169706;,
         0.152697; 1.169706;,
         0.152697; 1.216376;,
         0.093450; 1.263984;,
         0.093450; 1.217315;,
         0.152697; 1.217315;,
         0.152697; 1.263984;,
         0.786970; 1.521287;,
         0.833639; 1.521287;,
         0.833639; 1.546075;,
         0.786970; 1.546075;,
         0.414594; 1.328753;,
         0.414594; 1.282084;,
         0.432157; 1.282084;,
         0.432157; 1.328753;,
         0.449115; 1.216400;,
         0.449115; 1.263069;,
         0.435376; 1.252128;,
         0.435376; 1.227340;,
         0.432157; 1.329693;,
         0.432157; 1.376362;,
         0.414594; 1.376362;,
         0.414594; 1.329693;,
         0.677998; 1.174551;,
         0.677998; 1.127881;,
         0.691738; 1.138822;,
         0.691738; 1.163610;,
         0.434074; 1.412108;,
         0.434074; 1.423410;,
         0.429318; 1.423410;,
         0.429318; 1.412108;,
         0.022596; 1.239285;,
         0.045563; 1.228944;,
         0.051637; 1.259344;,
         0.041331; 1.263984;,
         0.045563; 1.228944;,
         0.056107; 1.227857;,
         0.056368; 1.258856;,
         0.051637; 1.259344;,
         0.403055; 1.345499;,
         0.413655; 1.345499;,
         0.410733; 1.376362;,
         0.405977; 1.376362;,
         0.545747; 1.190137;,
         0.545747; 1.215460;,
         0.520423; 1.215460;,
         0.520423; 1.190137;,
         0.404131; 1.252178;,
         0.404131; 1.226855;,
         0.429454; 1.226855;,
         0.429454; 1.252178;,
         0.404131; 1.225915;,
         0.404131; 1.200592;,
         0.429454; 1.200592;,
         0.429454; 1.225915;,
         0.545747; 1.215460;,
         0.545747; 1.190137;,
         0.569543; 1.190137;,
         0.569543; 1.215460;,
         0.913762; 1.744135;,
         0.913762; 1.769458;,
         0.888439; 1.769458;,
         0.888439; 1.744135;,
         0.914702; 1.769458;,
         0.914702; 1.744135;,
         0.940026; 1.744135;,
         0.940026; 1.769458;,
         0.957513; 1.744135;,
         0.982837; 1.744135;,
         0.982837; 1.769458;,
         0.957513; 1.769458;,
         0.888439; 1.744135;,
         0.888439; 1.769458;,
         0.871890; 1.752358;,
         0.871890; 1.727035;,
         0.940026; 1.769458;,
         0.940026; 1.744135;,
         0.956574; 1.727035;,
         0.956574; 1.752358;,
         0.956574; 1.727035;,
         0.940026; 1.744135;,
         0.940025; 1.455494;,
         0.956573; 1.470873;,
         0.956573; 1.470873;,
         0.940025; 1.455494;,
         0.940025; 1.434451;,
         0.956573; 1.449830;,
         0.982837; 1.744135;,
         0.957513; 1.744135;,
         0.957513; 1.487973;,
         0.982837; 1.487973;,
         0.973108; 1.123264;,
         0.998431; 1.123264;,
         0.998431; 1.411903;,
         0.973107; 1.411903;,
         0.888439; 1.744135;,
         0.871890; 1.727035;,
         0.871891; 1.470873;,
         0.888439; 1.455495;,
         0.403055; 1.400819;,
         0.428378; 1.400819;,
         0.428378; 1.423410;,
         0.403055; 1.423410;,
         0.982837; 1.487973;,
         0.957513; 1.487973;,
         0.957513; 1.466930;,
         0.982837; 1.466930;,
         0.888439; 1.455495;,
         0.871891; 1.470873;,
         0.871891; 1.449830;,
         0.888439; 1.434451;,
         0.428378; 1.400819;,
         0.403055; 1.400819;,
         0.403055; 1.377302;,
         0.428378; 1.377302;,
         0.786970; 1.494084;,
         0.786970; 1.468761;,
         0.808013; 1.468761;,
         0.808013; 1.494084;,
         0.888439; 1.455495;,
         0.888439; 1.434451;,
         0.911956; 1.434452;,
         0.911956; 1.455495;,
         0.940025; 1.434451;,
         0.940025; 1.455494;,
         0.916508; 1.455494;,
         0.916508; 1.434451;,
         0.786970; 1.520347;,
         0.786970; 1.495024;,
         0.810487; 1.495024;,
         0.810487; 1.520347;;
      }
    }
  }
}
