xof 0303txt 0032

Frame Root {
  FrameTransformMatrix {
     1.000000, 0.000000, 0.000000, 0.000000,
     0.000000,-0.000000, 1.000000, 0.000000,
     0.000000, 1.000000, 0.000000, 0.000000,
     0.000000, 0.000000, 0.000000, 1.000000;;
  }
  Frame Cube_001_Cube {
    FrameTransformMatrix {
       1.000000, 0.000000, 0.000000, 0.000000,
       0.000000, 1.000000, 0.000000, 0.000000,
       0.000000, 0.000000, 1.000000, 0.000000,
       0.000000, 0.000000, 0.000000, 1.000000;;
    }
    Mesh {
      360;
      -0.007623;-0.058099;-0.019832;,
      -0.007623; 0.049020;-0.019832;,
      -0.007623; 0.049020;-0.004623;,
      -0.007623;-0.058099;-0.004623;,
       0.000000; 0.049020;-0.022976;,
       0.000000; 0.087893;-0.019999;,
      -0.007623; 0.087893;-0.016856;,
      -0.007623; 0.049020;-0.019832;,
       0.000000;-0.068117;-0.022976;,
      -0.007623;-0.068117;-0.019832;,
      -0.007623;-0.068117;-0.004725;,
       0.000000;-0.068117;-0.004725;,
      -0.007623;-0.058099;-0.004623;,
      -0.007623;-0.068117;-0.004725;,
      -0.007623;-0.068117;-0.019832;,
      -0.007623;-0.058099;-0.019832;,
      -0.007623; 0.049020;-0.019832;,
      -0.007623;-0.058099;-0.019832;,
       0.000000;-0.058099;-0.022976;,
       0.000000; 0.049020;-0.022976;,
       0.000000; 0.049020;-0.004623;,
       0.000000;-0.058099;-0.004623;,
      -0.007623;-0.058099;-0.004623;,
      -0.007623; 0.049020;-0.004623;,
      -0.007623;-0.058099;-0.019832;,
      -0.007623;-0.068117;-0.019832;,
       0.000000;-0.068117;-0.022976;,
       0.000000;-0.058099;-0.022976;,
      -0.007623;-0.058099;-0.004623;,
      -0.006856;-0.058099; 0.000974;,
      -0.006856;-0.068117; 0.000974;,
      -0.007623;-0.068117;-0.004725;,
      -0.006856;-0.058099; 0.000974;,
      -0.003313;-0.058099; 0.014561;,
      -0.003313;-0.068117; 0.014561;,
      -0.006856;-0.068117; 0.000974;,
      -0.007623;-0.068117;-0.004725;,
      -0.006856;-0.068117; 0.000974;,
       0.000000;-0.068117; 0.000974;,
       0.000000;-0.068117;-0.004725;,
       0.000000;-0.058099;-0.004623;,
       0.000000;-0.058099; 0.000974;,
      -0.006856;-0.058099; 0.000974;,
      -0.007623;-0.058099;-0.004623;,
       0.000000;-0.058099; 0.016684;,
       0.000000;-0.068117; 0.016684;,
      -0.003313;-0.068117; 0.014561;,
      -0.003313;-0.058099; 0.014561;,
       0.000000; 0.048987; 0.000974;,
       0.000000; 0.087677; 0.000974;,
      -0.006856; 0.087677; 0.000974;,
      -0.006856; 0.048987; 0.000974;,
      -0.006856;-0.068117; 0.000974;,
      -0.003313;-0.068117; 0.014561;,
       0.000000;-0.068117; 0.016684;,
       0.000000;-0.068117; 0.000974;,
       0.000000; 0.087677; 0.000974;,
       0.000000; 0.087677; 0.016684;,
      -0.003313; 0.087677; 0.014561;,
      -0.006856; 0.087677; 0.000974;,
      -0.003313; 0.048987; 0.014561;,
      -0.003313; 0.087677; 0.014561;,
       0.000000; 0.087677; 0.016684;,
       0.000000; 0.048987; 0.016684;,
      -0.006856; 0.048987; 0.000974;,
      -0.006856; 0.087677; 0.000974;,
      -0.003313; 0.087677; 0.014561;,
      -0.003313; 0.048987; 0.014561;,
       0.000000; 0.087893;-0.018724;,
       0.000000; 0.096216;-0.018724;,
      -0.005889; 0.096216;-0.016284;,
      -0.005889; 0.087893;-0.016284;,
      -0.007623; 0.049020;-0.004623;,
      -0.007623; 0.087893;-0.003021;,
       0.000000; 0.087893;-0.003021;,
       0.000000; 0.049020;-0.004623;,
      -0.007623; 0.049020;-0.019832;,
      -0.007623; 0.087893;-0.016856;,
      -0.007623; 0.087893;-0.003021;,
      -0.007623; 0.049020;-0.004623;,
      -0.006856;-0.058099; 0.000974;,
      -0.006856; 0.048987; 0.000974;,
      -0.003313; 0.048987; 0.014561;,
      -0.003313;-0.058099; 0.014561;,
      -0.003313;-0.058099; 0.014561;,
      -0.003313; 0.048987; 0.014561;,
       0.000000; 0.048987; 0.016684;,
       0.000000;-0.058099; 0.016684;,
       0.000000;-0.058099; 0.000974;,
       0.000000; 0.048987; 0.000974;,
      -0.006856; 0.048987; 0.000974;,
      -0.006856;-0.058099; 0.000974;,
       0.000000; 0.049020;-0.004623;,
      -0.007623; 0.049020;-0.004623;,
      -0.006856; 0.048987; 0.000974;,
       0.000000; 0.048987; 0.000974;,
      -0.007623; 0.049020;-0.004623;,
      -0.007623; 0.087893;-0.003021;,
      -0.006856; 0.087677; 0.000974;,
      -0.006856; 0.048987; 0.000974;,
      -0.007623; 0.087893;-0.003021;,
       0.000000; 0.087893;-0.003021;,
       0.000000; 0.087677; 0.000974;,
      -0.006856; 0.087677; 0.000974;,
      -0.005889; 0.087893;-0.003874;,
      -0.007623; 0.087893;-0.003021;,
      -0.007623; 0.087893;-0.016856;,
      -0.005889; 0.087893;-0.016284;,
      -0.005889; 0.087893;-0.016284;,
      -0.007623; 0.087893;-0.016856;,
       0.000000; 0.087893;-0.019999;,
       0.000000; 0.087893;-0.018724;,
       0.000000; 0.087893;-0.003874;,
       0.000000; 0.087893;-0.003021;,
      -0.007623; 0.087893;-0.003021;,
      -0.005889; 0.087893;-0.003874;,
       0.000000; 0.087893;-0.018724;,
       0.000000; 0.087893;-0.019999;,
       0.000000; 0.087893;-0.003021;,
       0.000000; 0.087893;-0.003874;,
      -0.005889; 0.096216;-0.016284;,
       0.000000; 0.096216;-0.018724;,
       0.000000; 0.096216;-0.003874;,
      -0.005889; 0.096216;-0.003874;,
      -0.005889; 0.087893;-0.003874;,
      -0.005889; 0.096216;-0.003874;,
       0.000000; 0.096216;-0.003874;,
       0.000000; 0.087893;-0.003874;,
      -0.005889; 0.087893;-0.016284;,
      -0.005889; 0.096216;-0.016284;,
      -0.005889; 0.096216;-0.003874;,
      -0.005889; 0.087893;-0.003874;,
       0.000000; 0.087893;-0.003874;,
       0.000000; 0.096216;-0.003874;,
       0.000000; 0.096216;-0.018724;,
       0.000000; 0.087893;-0.018724;,
       0.007623;-0.058099;-0.019832;,
       0.007623;-0.058099;-0.004623;,
       0.007623; 0.049020;-0.004623;,
       0.007623; 0.049020;-0.019832;,
       0.000000; 0.049020;-0.022976;,
       0.007623; 0.049020;-0.019832;,
       0.007623; 0.087893;-0.016856;,
       0.000000; 0.087893;-0.019999;,
       0.000000;-0.068117;-0.022976;,
       0.000000;-0.068117;-0.004725;,
       0.007623;-0.068117;-0.004725;,
       0.007623;-0.068117;-0.019832;,
       0.007623;-0.058099;-0.004623;,
       0.007623;-0.058099;-0.019832;,
       0.007623;-0.068117;-0.019832;,
       0.007623;-0.068117;-0.004725;,
       0.007623; 0.049020;-0.019832;,
       0.000000; 0.049020;-0.022976;,
       0.000000;-0.058099;-0.022976;,
       0.007623;-0.058099;-0.019832;,
       0.000000; 0.049020;-0.004623;,
       0.007623; 0.049020;-0.004623;,
       0.007623;-0.058099;-0.004623;,
       0.000000;-0.058099;-0.004623;,
       0.007623;-0.058099;-0.019832;,
       0.000000;-0.058099;-0.022976;,
       0.000000;-0.068117;-0.022976;,
       0.007623;-0.068117;-0.019832;,
       0.007623;-0.058099;-0.004623;,
       0.007623;-0.068117;-0.004725;,
       0.006856;-0.068117; 0.000974;,
       0.006856;-0.058099; 0.000974;,
       0.006856;-0.058099; 0.000974;,
       0.006856;-0.068117; 0.000974;,
       0.003313;-0.068117; 0.014561;,
       0.003313;-0.058099; 0.014561;,
       0.007623;-0.068117;-0.004725;,
       0.000000;-0.068117;-0.004725;,
       0.000000;-0.068117; 0.000974;,
       0.006856;-0.068117; 0.000974;,
       0.000000;-0.058099;-0.004623;,
       0.007623;-0.058099;-0.004623;,
       0.006856;-0.058099; 0.000974;,
       0.000000;-0.058099; 0.000974;,
       0.000000;-0.058099; 0.016684;,
       0.003313;-0.058099; 0.014561;,
       0.003313;-0.068117; 0.014561;,
       0.000000;-0.068117; 0.016684;,
       0.000000; 0.048987; 0.000974;,
       0.006856; 0.048987; 0.000974;,
       0.006856; 0.087677; 0.000974;,
       0.000000; 0.087677; 0.000974;,
       0.006856;-0.068117; 0.000974;,
       0.000000;-0.068117; 0.000974;,
       0.000000;-0.068117; 0.016684;,
       0.003313;-0.068117; 0.014561;,
       0.000000; 0.087677; 0.000974;,
       0.006856; 0.087677; 0.000974;,
       0.003313; 0.087677; 0.014561;,
       0.000000; 0.087677; 0.016684;,
       0.003313; 0.048987; 0.014561;,
       0.000000; 0.048987; 0.016684;,
       0.000000; 0.087677; 0.016684;,
       0.003313; 0.087677; 0.014561;,
       0.006856; 0.048987; 0.000974;,
       0.003313; 0.048987; 0.014561;,
       0.003313; 0.087677; 0.014561;,
       0.006856; 0.087677; 0.000974;,
       0.000000; 0.087893;-0.018724;,
       0.005889; 0.087893;-0.016284;,
       0.005889; 0.096216;-0.016284;,
       0.000000; 0.096216;-0.018724;,
       0.007623; 0.049020;-0.004623;,
       0.000000; 0.049020;-0.004623;,
       0.000000; 0.087893;-0.003021;,
       0.007623; 0.087893;-0.003021;,
       0.007623; 0.049020;-0.019832;,
       0.007623; 0.049020;-0.004623;,
       0.007623; 0.087893;-0.003021;,
       0.007623; 0.087893;-0.016856;,
       0.006856;-0.058099; 0.000974;,
       0.003313;-0.058099; 0.014561;,
       0.003313; 0.048987; 0.014561;,
       0.006856; 0.048987; 0.000974;,
       0.003313;-0.058099; 0.014561;,
       0.000000;-0.058099; 0.016684;,
       0.000000; 0.048987; 0.016684;,
       0.003313; 0.048987; 0.014561;,
       0.000000;-0.058099; 0.000974;,
       0.006856;-0.058099; 0.000974;,
       0.006856; 0.048987; 0.000974;,
       0.000000; 0.048987; 0.000974;,
       0.000000; 0.049020;-0.004623;,
       0.000000; 0.048987; 0.000974;,
       0.006856; 0.048987; 0.000974;,
       0.007623; 0.049020;-0.004623;,
       0.007623; 0.049020;-0.004623;,
       0.006856; 0.048987; 0.000974;,
       0.006856; 0.087677; 0.000974;,
       0.007623; 0.087893;-0.003021;,
       0.007623; 0.087893;-0.003021;,
       0.006856; 0.087677; 0.000974;,
       0.000000; 0.087677; 0.000974;,
       0.000000; 0.087893;-0.003021;,
       0.005889; 0.087893;-0.003874;,
       0.005889; 0.087893;-0.016284;,
       0.007623; 0.087893;-0.016856;,
       0.007623; 0.087893;-0.003021;,
       0.005889; 0.087893;-0.016284;,
       0.000000; 0.087893;-0.018724;,
       0.000000; 0.087893;-0.019999;,
       0.007623; 0.087893;-0.016856;,
       0.000000; 0.087893;-0.003874;,
       0.005889; 0.087893;-0.003874;,
       0.007623; 0.087893;-0.003021;,
       0.000000; 0.087893;-0.003021;,
       0.005889; 0.096216;-0.016284;,
       0.005889; 0.096216;-0.003874;,
       0.000000; 0.096216;-0.003874;,
       0.000000; 0.096216;-0.018724;,
       0.005889; 0.087893;-0.003874;,
       0.000000; 0.087893;-0.003874;,
       0.000000; 0.096216;-0.003874;,
       0.005889; 0.096216;-0.003874;,
       0.005889; 0.087893;-0.016284;,
       0.005889; 0.087893;-0.003874;,
       0.005889; 0.096216;-0.003874;,
       0.005889; 0.096216;-0.016284;,
      -0.003714; 0.029764; 0.015002;,
      -0.003714; 0.040593; 0.015002;,
       0.000000; 0.040593; 0.017268;,
       0.000000; 0.029764; 0.017268;,
      -0.003714; 0.029764; 0.015002;,
      -0.007680; 0.029764; 0.001884;,
      -0.007680; 0.040593; 0.001884;,
      -0.003714; 0.040593; 0.015002;,
      -0.007680; 0.029764; 0.001884;,
      -0.008272; 0.029764;-0.003836;,
      -0.008272; 0.040593;-0.003836;,
      -0.007680; 0.040593; 0.001884;,
      -0.008272; 0.029764;-0.003836;,
      -0.008677; 0.029764;-0.019407;,
      -0.008464; 0.040593;-0.019407;,
      -0.008272; 0.040593;-0.003836;,
      -0.008677; 0.029764;-0.019407;,
      -0.004684; 0.029244;-0.022658;,
      -0.005194; 0.040074;-0.022658;,
      -0.008464; 0.040593;-0.019407;,
      -0.004684; 0.029244;-0.022658;,
       0.000000; 0.028879;-0.024060;,
       0.000000; 0.039709;-0.024060;,
      -0.005194; 0.040074;-0.022658;,
       0.003714; 0.029764; 0.015002;,
       0.000000; 0.029764; 0.017268;,
       0.000000; 0.040593; 0.017268;,
       0.003714; 0.040593; 0.015002;,
       0.003714; 0.029764; 0.015002;,
       0.003714; 0.040593; 0.015002;,
       0.007680; 0.040593; 0.001884;,
       0.007680; 0.029764; 0.001884;,
       0.007680; 0.029764; 0.001884;,
       0.007680; 0.040593; 0.001884;,
       0.008272; 0.040593;-0.003836;,
       0.008272; 0.029764;-0.003836;,
       0.008272; 0.029764;-0.003836;,
       0.008272; 0.040593;-0.003836;,
       0.008464; 0.040593;-0.019407;,
       0.008677; 0.029764;-0.019407;,
       0.008677; 0.029764;-0.019407;,
       0.008464; 0.040593;-0.019407;,
       0.005194; 0.040074;-0.022658;,
       0.004684; 0.029244;-0.022658;,
       0.004684; 0.029244;-0.022658;,
       0.005194; 0.040074;-0.022658;,
       0.000000; 0.039709;-0.024060;,
       0.000000; 0.028879;-0.024060;,
      -0.003736;-0.053395; 0.015140;,
      -0.003736;-0.042879; 0.015140;,
       0.000000;-0.042879; 0.017339;,
       0.000000;-0.053395; 0.017339;,
      -0.003736;-0.053395; 0.015140;,
      -0.007991;-0.053771; 0.002370;,
      -0.008241;-0.042503; 0.002370;,
      -0.003736;-0.042879; 0.015140;,
      -0.007991;-0.053771; 0.002370;,
      -0.008623;-0.053771;-0.003582;,
      -0.008873;-0.042503;-0.003582;,
      -0.008241;-0.042503; 0.002370;,
      -0.008623;-0.053771;-0.003582;,
      -0.008643;-0.053771;-0.019499;,
      -0.008919;-0.042503;-0.019499;,
      -0.008873;-0.042503;-0.003582;,
      -0.008643;-0.053771;-0.019499;,
      -0.004212;-0.053985;-0.022802;,
      -0.004744;-0.042717;-0.022802;,
      -0.008919;-0.042503;-0.019499;,
      -0.004212;-0.053985;-0.022802;,
       0.000000;-0.053818;-0.023588;,
       0.000000;-0.042550;-0.023588;,
      -0.004744;-0.042717;-0.022802;,
       0.003736;-0.053395; 0.015140;,
       0.000000;-0.053395; 0.017339;,
       0.000000;-0.042879; 0.017339;,
       0.003736;-0.042879; 0.015140;,
       0.003736;-0.053395; 0.015140;,
       0.003736;-0.042879; 0.015140;,
       0.008241;-0.042503; 0.002370;,
       0.007991;-0.053771; 0.002370;,
       0.007991;-0.053771; 0.002370;,
       0.008241;-0.042503; 0.002370;,
       0.008873;-0.042503;-0.003582;,
       0.008623;-0.053771;-0.003582;,
       0.008623;-0.053771;-0.003582;,
       0.008873;-0.042503;-0.003582;,
       0.008919;-0.042503;-0.019499;,
       0.008643;-0.053771;-0.019499;,
       0.008643;-0.053771;-0.019499;,
       0.008919;-0.042503;-0.019499;,
       0.004744;-0.042717;-0.022802;,
       0.004212;-0.053985;-0.022802;,
       0.004212;-0.053985;-0.022802;,
       0.004744;-0.042717;-0.022802;,
       0.000000;-0.042550;-0.023588;,
       0.000000;-0.053818;-0.023588;;
      90;
      4;3,2,1,0;,
      4;7,6,5,4;,
      4;11,10,9,8;,
      4;15,14,13,12;,
      4;19,18,17,16;,
      4;23,22,21,20;,
      4;27,26,25,24;,
      4;31,30,29,28;,
      4;35,34,33,32;,
      4;39,38,37,36;,
      4;43,42,41,40;,
      4;47,46,45,44;,
      4;51,50,49,48;,
      4;55,54,53,52;,
      4;59,58,57,56;,
      4;63,62,61,60;,
      4;67,66,65,64;,
      4;71,70,69,68;,
      4;75,74,73,72;,
      4;79,78,77,76;,
      4;83,82,81,80;,
      4;87,86,85,84;,
      4;91,90,89,88;,
      4;95,94,93,92;,
      4;99,98,97,96;,
      4;103,102,101,100;,
      4;107,106,105,104;,
      4;111,110,109,108;,
      4;115,114,113,112;,
      4;119,118,117,116;,
      4;123,122,121,120;,
      4;127,126,125,124;,
      4;131,130,129,128;,
      4;135,134,133,132;,
      4;139,138,137,136;,
      4;143,142,141,140;,
      4;147,146,145,144;,
      4;151,150,149,148;,
      4;155,154,153,152;,
      4;159,158,157,156;,
      4;163,162,161,160;,
      4;167,166,165,164;,
      4;171,170,169,168;,
      4;175,174,173,172;,
      4;179,178,177,176;,
      4;183,182,181,180;,
      4;187,186,185,184;,
      4;191,190,189,188;,
      4;195,194,193,192;,
      4;199,198,197,196;,
      4;203,202,201,200;,
      4;207,206,205,204;,
      4;211,210,209,208;,
      4;215,214,213,212;,
      4;219,218,217,216;,
      4;223,222,221,220;,
      4;227,226,225,224;,
      4;231,230,229,228;,
      4;235,234,233,232;,
      4;239,238,237,236;,
      4;243,242,241,240;,
      4;247,246,245,244;,
      4;251,250,249,248;,
      4;255,254,253,252;,
      4;259,258,257,256;,
      4;263,262,261,260;,
      4;267,266,265,264;,
      4;271,270,269,268;,
      4;275,274,273,272;,
      4;279,278,277,276;,
      4;283,282,281,280;,
      4;287,286,285,284;,
      4;291,290,289,288;,
      4;295,294,293,292;,
      4;299,298,297,296;,
      4;303,302,301,300;,
      4;307,306,305,304;,
      4;311,310,309,308;,
      4;315,314,313,312;,
      4;319,318,317,316;,
      4;323,322,321,320;,
      4;327,326,325,324;,
      4;331,330,329,328;,
      4;335,334,333,332;,
      4;339,338,337,336;,
      4;343,342,341,340;,
      4;347,346,345,344;,
      4;351,350,349,348;,
      4;355,354,353,352;,
      4;359,358,357,356;;
      MeshNormals {
        360;
         0.831043;-0.000000; 0.556207;,
         0.824733;-0.021806; 0.565102;,
         0.786160; 0.251663;-0.564463;,
         0.899029;-0.274338;-0.341299;,
         0.000000;-0.037851; 0.999283;,
         0.000000;-0.658981; 0.752160;,
         0.664493;-0.616081; 0.422958;,
         0.824733;-0.021806; 0.565102;,
         0.000000; 0.630516; 0.776176;,
         0.664363; 0.600757; 0.444650;,
         0.719797; 0.692500;-0.048329;,
         0.000000; 1.000000;-0.000000;,
         0.899029;-0.274338;-0.341299;,
         0.719797; 0.692500;-0.048329;,
         0.664363; 0.600757; 0.444650;,
         0.831043;-0.000000; 0.556207;,
         0.824733;-0.021806; 0.565102;,
         0.831043;-0.000000; 0.556207;,
         0.000000;-0.000000; 1.000000;,
         0.000000;-0.037851; 0.999283;,
         0.000000; 0.462995;-0.886361;,
         0.000000;-0.707107;-0.707107;,
         0.899029;-0.274338;-0.341299;,
         0.786160; 0.251663;-0.564463;,
         0.831043;-0.000000; 0.556207;,
         0.664363; 0.600757; 0.444650;,
         0.000000; 0.630516; 0.776176;,
         0.000000;-0.000000; 1.000000;,
         0.899029;-0.274338;-0.341299;,
         0.931314;-0.345637; 0.114845;,
         0.706490; 0.693829;-0.139544;,
         0.719797; 0.692500;-0.048329;,
         0.931314;-0.345637; 0.114845;,
         0.809184; 0.000000;-0.587555;,
         0.626067; 0.633551;-0.454592;,
         0.706490; 0.693829;-0.139544;,
         0.719797; 0.692500;-0.048329;,
         0.706490; 0.693829;-0.139544;,
         0.000000; 1.000000;-0.000000;,
         0.000000; 1.000000;-0.000000;,
         0.000000;-0.707107;-0.707107;,
         0.000000;-0.707107; 0.707107;,
         0.931314;-0.345637; 0.114845;,
         0.899029;-0.274338;-0.341299;,
        -0.000000; 0.000000;-1.000000;,
         0.000000; 0.603479;-0.797379;,
         0.626067; 0.633551;-0.454592;,
         0.809184; 0.000000;-0.587555;,
         0.000000; 0.446153; 0.894957;,
         0.000000;-0.903856; 0.427838;,
         0.701121;-0.688685; 0.184776;,
         0.860161; 0.321161; 0.396205;,
         0.706490; 0.693829;-0.139544;,
         0.626067; 0.633551;-0.454592;,
         0.000000; 0.603479;-0.797379;,
         0.000000; 1.000000;-0.000000;,
         0.000000;-0.903856; 0.427838;,
         0.000000;-0.603479;-0.797379;,
         0.626067;-0.633551;-0.454592;,
         0.701121;-0.688685; 0.184776;,
         0.809184; 0.000000;-0.587555;,
         0.626067;-0.633551;-0.454592;,
         0.000000;-0.603479;-0.797379;,
         0.000000; 0.000000;-1.000000;,
         0.860161; 0.321161; 0.396205;,
         0.701121;-0.688685; 0.184776;,
         0.626067;-0.633551;-0.454592;,
         0.809184; 0.000000;-0.587555;,
        -0.212933;-0.532366; 0.819296;,
        -0.387393;-0.581030; 0.715773;,
         0.664661;-0.600868; 0.444054;,
         0.430286;-0.855696; 0.287470;,
         0.786160; 0.251663;-0.564463;,
         0.665088;-0.624361;-0.409672;,
         0.000000;-0.880643;-0.473780;,
         0.000000; 0.462995;-0.886361;,
         0.824733;-0.021806; 0.565102;,
         0.664493;-0.616081; 0.422958;,
         0.665088;-0.624361;-0.409672;,
         0.786160; 0.251663;-0.564463;,
         0.931314;-0.345637; 0.114845;,
         0.860161; 0.321161; 0.396205;,
         0.809184; 0.000000;-0.587555;,
         0.809184; 0.000000;-0.587555;,
         0.809184; 0.000000;-0.587555;,
         0.809184; 0.000000;-0.587555;,
         0.000000; 0.000000;-1.000000;,
        -0.000000; 0.000000;-1.000000;,
         0.000000;-0.707107; 0.707107;,
         0.000000; 0.446153; 0.894957;,
         0.860161; 0.321161; 0.396205;,
         0.931314;-0.345637; 0.114845;,
         0.000000; 0.462995;-0.886361;,
         0.786160; 0.251663;-0.564463;,
         0.860161; 0.321161; 0.396205;,
         0.000000; 0.446153; 0.894957;,
         0.786160; 0.251663;-0.564463;,
         0.665088;-0.624361;-0.409672;,
         0.701121;-0.688685; 0.184776;,
         0.860161; 0.321161; 0.396205;,
         0.665088;-0.624361;-0.409672;,
         0.000000;-0.880643;-0.473780;,
         0.000000;-0.903856; 0.427838;,
         0.701121;-0.688685; 0.184776;,
         0.301512;-0.904534;-0.301511;,
         0.665088;-0.624361;-0.409672;,
         0.664493;-0.616081; 0.422958;,
         0.430286;-0.855696; 0.287470;,
         0.430286;-0.855696; 0.287470;,
         0.664493;-0.616081; 0.422958;,
         0.000000;-0.658981; 0.752160;,
        -0.212933;-0.532366; 0.819296;,
        -0.447214;-0.894427;-0.000098;,
         0.000000;-0.880643;-0.473780;,
         0.665088;-0.624361;-0.409672;,
         0.301512;-0.904534;-0.301511;,
        -0.212933;-0.532366; 0.819296;,
         0.000000;-0.658981; 0.752160;,
         0.000000;-0.880643;-0.473780;,
        -0.447214;-0.894427;-0.000098;,
         0.664661;-0.600868; 0.444054;,
        -0.387393;-0.581030; 0.715773;,
        -0.333333;-0.666666;-0.666667;,
         0.577350;-0.577350;-0.577351;,
         0.301512;-0.904534;-0.301511;,
         0.577350;-0.577350;-0.577351;,
        -0.333333;-0.666666;-0.666667;,
        -0.447214;-0.894427;-0.000098;,
         0.430286;-0.855696; 0.287470;,
         0.664661;-0.600868; 0.444054;,
         0.577350;-0.577350;-0.577351;,
         0.301512;-0.904534;-0.301511;,
        -0.447214;-0.894427;-0.000098;,
        -0.333333;-0.666666;-0.666667;,
        -0.387393;-0.581030; 0.715773;,
        -0.212933;-0.532366; 0.819296;,
        -0.831043;-0.000000; 0.556207;,
        -0.899029;-0.274338;-0.341299;,
        -0.786160; 0.251663;-0.564463;,
        -0.824733;-0.021806; 0.565102;,
         0.000000;-0.037851; 0.999283;,
        -0.824733;-0.021806; 0.565102;,
        -0.664493;-0.616081; 0.422958;,
         0.000000;-0.658981; 0.752160;,
         0.000000; 0.630516; 0.776176;,
         0.000000; 1.000000;-0.000000;,
        -0.719797; 0.692500;-0.048329;,
        -0.664363; 0.600757; 0.444650;,
        -0.899029;-0.274338;-0.341299;,
        -0.831043;-0.000000; 0.556207;,
        -0.664363; 0.600757; 0.444650;,
        -0.719797; 0.692500;-0.048329;,
        -0.824733;-0.021806; 0.565102;,
         0.000000;-0.037851; 0.999283;,
         0.000000;-0.000000; 1.000000;,
        -0.831043;-0.000000; 0.556207;,
         0.000000; 0.462995;-0.886361;,
        -0.786160; 0.251663;-0.564463;,
        -0.899029;-0.274338;-0.341299;,
         0.000000;-0.707107;-0.707107;,
        -0.831043;-0.000000; 0.556207;,
         0.000000;-0.000000; 1.000000;,
         0.000000; 0.630516; 0.776176;,
        -0.664363; 0.600757; 0.444650;,
        -0.899029;-0.274338;-0.341299;,
        -0.719797; 0.692500;-0.048329;,
        -0.706490; 0.693829;-0.139544;,
        -0.931314;-0.345637; 0.114845;,
        -0.931314;-0.345637; 0.114845;,
        -0.706490; 0.693829;-0.139544;,
        -0.626067; 0.633551;-0.454592;,
        -0.809184; 0.000000;-0.587555;,
        -0.719797; 0.692500;-0.048329;,
         0.000000; 1.000000;-0.000000;,
         0.000000; 1.000000;-0.000000;,
        -0.706490; 0.693829;-0.139544;,
         0.000000;-0.707107;-0.707107;,
        -0.899029;-0.274338;-0.341299;,
        -0.931314;-0.345637; 0.114845;,
         0.000000;-0.707107; 0.707107;,
        -0.000000; 0.000000;-1.000000;,
        -0.809184; 0.000000;-0.587555;,
        -0.626067; 0.633551;-0.454592;,
         0.000000; 0.603479;-0.797379;,
         0.000000; 0.446153; 0.894957;,
        -0.860161; 0.321161; 0.396205;,
        -0.701121;-0.688685; 0.184776;,
         0.000000;-0.903856; 0.427838;,
        -0.706490; 0.693829;-0.139544;,
         0.000000; 1.000000;-0.000000;,
         0.000000; 0.603479;-0.797379;,
        -0.626067; 0.633551;-0.454592;,
         0.000000;-0.903856; 0.427838;,
        -0.701121;-0.688685; 0.184776;,
        -0.626067;-0.633551;-0.454592;,
         0.000000;-0.603479;-0.797379;,
        -0.809184; 0.000000;-0.587555;,
         0.000000; 0.000000;-1.000000;,
         0.000000;-0.603479;-0.797379;,
        -0.626067;-0.633551;-0.454592;,
        -0.860161; 0.321161; 0.396205;,
        -0.809184; 0.000000;-0.587555;,
        -0.626067;-0.633551;-0.454592;,
        -0.701121;-0.688685; 0.184776;,
        -0.212933;-0.532366; 0.819296;,
        -0.430286;-0.855696; 0.287470;,
        -0.664661;-0.600868; 0.444054;,
        -0.387393;-0.581030; 0.715773;,
        -0.786160; 0.251663;-0.564463;,
         0.000000; 0.462995;-0.886361;,
         0.000000;-0.880643;-0.473780;,
        -0.665088;-0.624361;-0.409672;,
        -0.824733;-0.021806; 0.565102;,
        -0.786160; 0.251663;-0.564463;,
        -0.665088;-0.624361;-0.409672;,
        -0.664493;-0.616081; 0.422958;,
        -0.931314;-0.345637; 0.114845;,
        -0.809184; 0.000000;-0.587555;,
        -0.809184; 0.000000;-0.587555;,
        -0.860161; 0.321161; 0.396205;,
        -0.809184; 0.000000;-0.587555;,
        -0.000000; 0.000000;-1.000000;,
         0.000000; 0.000000;-1.000000;,
        -0.809184; 0.000000;-0.587555;,
         0.000000;-0.707107; 0.707107;,
        -0.931314;-0.345637; 0.114845;,
        -0.860161; 0.321161; 0.396205;,
         0.000000; 0.446153; 0.894957;,
         0.000000; 0.462995;-0.886361;,
         0.000000; 0.446153; 0.894957;,
        -0.860161; 0.321161; 0.396205;,
        -0.786160; 0.251663;-0.564463;,
        -0.786160; 0.251663;-0.564463;,
        -0.860161; 0.321161; 0.396205;,
        -0.701121;-0.688685; 0.184776;,
        -0.665088;-0.624361;-0.409672;,
        -0.665088;-0.624361;-0.409672;,
        -0.701121;-0.688685; 0.184776;,
         0.000000;-0.903856; 0.427838;,
         0.000000;-0.880643;-0.473780;,
        -0.301512;-0.904534;-0.301511;,
        -0.430286;-0.855696; 0.287470;,
        -0.664493;-0.616081; 0.422958;,
        -0.665088;-0.624361;-0.409672;,
        -0.430286;-0.855696; 0.287470;,
        -0.212933;-0.532366; 0.819296;,
         0.000000;-0.658981; 0.752160;,
        -0.664493;-0.616081; 0.422958;,
        -0.447214;-0.894427;-0.000098;,
        -0.301512;-0.904534;-0.301511;,
        -0.665088;-0.624361;-0.409672;,
         0.000000;-0.880643;-0.473780;,
        -0.664661;-0.600868; 0.444054;,
        -0.577350;-0.577350;-0.577351;,
        -0.333333;-0.666666;-0.666667;,
        -0.387393;-0.581030; 0.715773;,
        -0.301512;-0.904534;-0.301511;,
        -0.447214;-0.894427;-0.000098;,
        -0.333333;-0.666666;-0.666667;,
        -0.577350;-0.577350;-0.577351;,
        -0.430286;-0.855696; 0.287470;,
        -0.301512;-0.904534;-0.301511;,
        -0.577350;-0.577350;-0.577351;,
        -0.664661;-0.600868; 0.444054;,
         0.791008; 0.000000;-0.611806;,
         0.791008; 0.000000;-0.611806;,
         0.000000; 0.000000;-1.000000;,
         0.000000; 0.000000;-1.000000;,
         0.791008; 0.000000;-0.611806;,
         0.980392; 0.000000;-0.197059;,
         0.980392; 0.000000;-0.197059;,
         0.791008; 0.000000;-0.611806;,
         0.980392; 0.000000;-0.197059;,
         0.998118;-0.004918;-0.061129;,
         0.998118;-0.004918;-0.061129;,
         0.980392; 0.000000;-0.197059;,
         0.998118;-0.004918;-0.061129;,
         0.912071;-0.000081; 0.410033;,
         0.922816;-0.000698; 0.385241;,
         0.998118;-0.004918;-0.061129;,
         0.912071;-0.000081; 0.410033;,
         0.466280; 0.007900; 0.884602;,
         0.499375; 0.008129; 0.866348;,
         0.922816;-0.000698; 0.385241;,
         0.466280; 0.007900; 0.884602;,
        -0.000000; 0.006704; 0.999978;,
        -0.000000; 0.006704; 0.999978;,
         0.499375; 0.008129; 0.866348;,
        -0.791008; 0.000000;-0.611806;,
         0.000000; 0.000000;-1.000000;,
         0.000000; 0.000000;-1.000000;,
        -0.791008; 0.000000;-0.611806;,
        -0.791008; 0.000000;-0.611806;,
        -0.791008; 0.000000;-0.611806;,
        -0.980392; 0.000000;-0.197059;,
        -0.980392; 0.000000;-0.197059;,
        -0.980392; 0.000000;-0.197059;,
        -0.980392; 0.000000;-0.197059;,
        -0.998118;-0.004918;-0.061129;,
        -0.998118;-0.004918;-0.061129;,
        -0.998118;-0.004918;-0.061129;,
        -0.998118;-0.004918;-0.061129;,
        -0.922816;-0.000698; 0.385241;,
        -0.912071;-0.000081; 0.410033;,
        -0.912071;-0.000081; 0.410033;,
        -0.922816;-0.000698; 0.385241;,
        -0.499375; 0.008129; 0.866348;,
        -0.466281; 0.007900; 0.884602;,
        -0.466281; 0.007900; 0.884602;,
        -0.499375; 0.008129; 0.866348;,
        -0.000000; 0.006704; 0.999978;,
        -0.000000; 0.006704; 0.999978;,
         0.776717; 0.005841;-0.629822;,
         0.776705; 0.005840;-0.629838;,
         0.000000; 0.000001;-1.000000;,
         0.000000; 0.000001;-1.000000;,
         0.776717; 0.005841;-0.629822;,
         0.976309; 0.016601;-0.215743;,
         0.976457; 0.016635;-0.215071;,
         0.776705; 0.005840;-0.629838;,
         0.976309; 0.016601;-0.215743;,
         0.998284; 0.022731;-0.053958;,
         0.998289; 0.022732;-0.053879;,
         0.976457; 0.016635;-0.215071;,
         0.998284; 0.022731;-0.053958;,
         0.893267; 0.025167; 0.448821;,
         0.901413; 0.025198; 0.432227;,
         0.998289; 0.022732;-0.053879;,
         0.893267; 0.025167; 0.448821;,
         0.396530; 0.013084; 0.917928;,
         0.408915; 0.013588; 0.912471;,
         0.901413; 0.025198; 0.432227;,
         0.396530; 0.013084; 0.917928;,
        -0.000000; 0.004131; 0.999991;,
        -0.000000; 0.004131; 0.999992;,
         0.408915; 0.013588; 0.912471;,
        -0.776717; 0.005841;-0.629822;,
         0.000000; 0.000001;-1.000000;,
         0.000000; 0.000001;-1.000000;,
        -0.776705; 0.005840;-0.629838;,
        -0.776717; 0.005841;-0.629822;,
        -0.776705; 0.005840;-0.629838;,
        -0.976457; 0.016635;-0.215071;,
        -0.976309; 0.016601;-0.215743;,
        -0.976309; 0.016601;-0.215743;,
        -0.976457; 0.016635;-0.215071;,
        -0.998289; 0.022732;-0.053879;,
        -0.998284; 0.022731;-0.053958;,
        -0.998284; 0.022731;-0.053958;,
        -0.998289; 0.022732;-0.053879;,
        -0.901413; 0.025198; 0.432227;,
        -0.893267; 0.025167; 0.448821;,
        -0.893267; 0.025167; 0.448821;,
        -0.901413; 0.025198; 0.432227;,
        -0.408915; 0.013588; 0.912471;,
        -0.396531; 0.013084; 0.917928;,
        -0.396531; 0.013084; 0.917928;,
        -0.408915; 0.013588; 0.912471;,
        -0.000000; 0.004131; 0.999992;,
        -0.000000; 0.004131; 0.999991;;
        90;
        4;3,2,1,0;,
        4;7,6,5,4;,
        4;11,10,9,8;,
        4;15,14,13,12;,
        4;19,18,17,16;,
        4;23,22,21,20;,
        4;27,26,25,24;,
        4;31,30,29,28;,
        4;35,34,33,32;,
        4;39,38,37,36;,
        4;43,42,41,40;,
        4;47,46,45,44;,
        4;51,50,49,48;,
        4;55,54,53,52;,
        4;59,58,57,56;,
        4;63,62,61,60;,
        4;67,66,65,64;,
        4;71,70,69,68;,
        4;75,74,73,72;,
        4;79,78,77,76;,
        4;83,82,81,80;,
        4;87,86,85,84;,
        4;91,90,89,88;,
        4;95,94,93,92;,
        4;99,98,97,96;,
        4;103,102,101,100;,
        4;107,106,105,104;,
        4;111,110,109,108;,
        4;115,114,113,112;,
        4;119,118,117,116;,
        4;123,122,121,120;,
        4;127,126,125,124;,
        4;131,130,129,128;,
        4;135,134,133,132;,
        4;139,138,137,136;,
        4;143,142,141,140;,
        4;147,146,145,144;,
        4;151,150,149,148;,
        4;155,154,153,152;,
        4;159,158,157,156;,
        4;163,162,161,160;,
        4;167,166,165,164;,
        4;171,170,169,168;,
        4;175,174,173,172;,
        4;179,178,177,176;,
        4;183,182,181,180;,
        4;187,186,185,184;,
        4;191,190,189,188;,
        4;195,194,193,192;,
        4;199,198,197,196;,
        4;203,202,201,200;,
        4;207,206,205,204;,
        4;211,210,209,208;,
        4;215,214,213,212;,
        4;219,218,217,216;,
        4;223,222,221,220;,
        4;227,226,225,224;,
        4;231,230,229,228;,
        4;235,234,233,232;,
        4;239,238,237,236;,
        4;243,242,241,240;,
        4;247,246,245,244;,
        4;251,250,249,248;,
        4;255,254,253,252;,
        4;259,258,257,256;,
        4;263,262,261,260;,
        4;267,266,265,264;,
        4;271,270,269,268;,
        4;275,274,273,272;,
        4;279,278,277,276;,
        4;283,282,281,280;,
        4;287,286,285,284;,
        4;291,290,289,288;,
        4;295,294,293,292;,
        4;299,298,297,296;,
        4;303,302,301,300;,
        4;307,306,305,304;,
        4;311,310,309,308;,
        4;315,314,313,312;,
        4;319,318,317,316;,
        4;323,322,321,320;,
        4;327,326,325,324;,
        4;331,330,329,328;,
        4;335,334,333,332;,
        4;339,338,337,336;,
        4;343,342,341,340;,
        4;347,346,345,344;,
        4;351,350,349,348;,
        4;355,354,353,352;,
        4;359,358,357,356;;
      }
      MeshTextureCoords {
        360;
         0.251957; 0.938178;,
         0.244793; 0.282533;,
         0.337878; 0.281515;,
         0.345042; 0.937160;,
         0.504085; 0.282509;,
         0.509297; 0.043920;,
         0.559768; 0.043553;,
         0.554555; 0.282142;,
         0.692368; 0.342815;,
         0.645709; 0.323568;,
         0.645709; 0.231096;,
         0.692368; 0.231096;,
         0.345042; 0.937160;,
         0.345094; 0.998489;,
         0.252627; 0.999499;,
         0.251957; 0.938178;,
         0.554555; 0.282142;,
         0.559323; 0.937808;,
         0.508851; 0.938175;,
         0.504085; 0.282509;,
         0.655091; 0.343817;,
         0.655091; 0.999499;,
         0.608432; 0.999499;,
         0.608432; 0.343817;,
         0.559323; 0.937808;,
         0.559768; 0.999132;,
         0.509297; 0.999499;,
         0.508851; 0.938175;,
         0.001113; 0.938174;,
         0.035696; 0.938174;,
         0.035696; 0.999499;,
         0.000501; 0.999499;,
         0.035696; 0.938174;,
         0.121645; 0.938174;,
         0.121645; 0.999499;,
         0.035696; 0.999499;,
         0.645709; 0.231096;,
         0.650399; 0.196214;,
         0.692368; 0.196214;,
         0.692368; 0.231096;,
         0.933337; 0.952840;,
         0.967600; 0.952840;,
         0.967600; 0.994809;,
         0.933337; 0.999499;,
         0.748238; 0.938176;,
         0.748238; 0.999499;,
         0.724153; 0.999499;,
         0.724153; 0.938176;,
         0.602739; 0.342815;,
         0.602739; 0.105985;,
         0.644707; 0.105985;,
         0.644707; 0.342815;,
         0.650399; 0.196214;,
         0.672086; 0.113046;,
         0.692368; 0.100055;,
         0.692368; 0.196214;,
         0.862797; 0.191429;,
         0.862797; 0.287588;,
         0.842515; 0.274598;,
         0.820828; 0.191429;,
         0.724152; 0.282715;,
         0.724152; 0.045874;,
         0.748238; 0.045874;,
         0.748238; 0.282715;,
         0.035696; 0.282690;,
         0.035696; 0.045860;,
         0.121645; 0.045860;,
         0.121645; 0.282690;,
         0.611709; 0.104983;,
         0.560770; 0.104983;,
         0.560770; 0.065963;,
         0.611709; 0.065963;,
         0.749240; 0.999499;,
         0.749240; 0.761346;,
         0.795898; 0.761346;,
         0.795898; 0.999499;,
         0.244793; 0.282533;,
         0.260412; 0.044397;,
         0.345094; 0.043471;,
         0.337878; 0.281515;,
         0.035696; 0.938174;,
         0.035696; 0.282690;,
         0.121645; 0.282690;,
         0.121645; 0.938174;,
         0.724153; 0.938176;,
         0.724152; 0.282715;,
         0.748238; 0.282715;,
         0.748238; 0.938176;,
         0.244793; 0.000501;,
         0.900279; 0.000501;,
         0.900279; 0.042469;,
         0.244793; 0.042470;,
         0.964648; 0.190428;,
         0.917989; 0.190428;,
         0.922679; 0.156164;,
         0.964648; 0.156164;,
         0.987248; 0.147457;,
         0.749240; 0.139163;,
         0.750422; 0.114262;,
         0.987248; 0.112874;,
         0.860850; 0.416496;,
         0.860850; 0.369837;,
         0.885334; 0.369837;,
         0.885334; 0.411806;,
         0.863798; 0.208127;,
         0.874409; 0.202902;,
         0.874409; 0.287588;,
         0.863798; 0.284092;,
         0.881049; 0.322558;,
         0.888328; 0.314083;,
         0.888328; 0.364555;,
         0.881110; 0.361578;,
         0.617936; 0.104983;,
         0.612711; 0.104983;,
         0.612711; 0.058324;,
         0.617936; 0.068935;,
         0.845121; 0.909982;,
         0.845121; 0.999499;,
         0.843559; 0.820479;,
         0.845121; 0.820465;,
         0.896286; 0.923534;,
         0.932335; 0.908598;,
         0.932335; 0.999499;,
         0.896286; 0.999499;,
         0.645709; 0.063005;,
         0.696648; 0.063005;,
         0.696648; 0.099054;,
         0.645709; 0.099054;,
         0.820828; 0.288590;,
         0.871767; 0.288590;,
         0.871767; 0.364555;,
         0.820828; 0.364555;,
         0.845121; 0.820465;,
         0.895285; 0.820465;,
         0.895285; 0.909982;,
         0.845121; 0.909982;,
         0.353259; 0.104793;,
         0.446344; 0.105810;,
         0.439181; 0.761456;,
         0.346096; 0.760439;,
         0.447398; 0.760540;,
         0.497870; 0.760907;,
         0.503083; 0.999499;,
         0.452611; 0.999132;,
         0.891986; 0.455683;,
         0.891986; 0.343963;,
         0.938644; 0.343963;,
         0.938644; 0.436436;,
         0.446344; 0.105810;,
         0.353259; 0.104793;,
         0.353929; 0.043471;,
         0.446396; 0.044482;,
         0.497870; 0.760907;,
         0.447398; 0.760540;,
         0.452166; 0.104877;,
         0.502637; 0.105244;,
         0.560770; 0.343817;,
         0.607430; 0.343817;,
         0.607430; 0.999499;,
         0.560771; 0.999499;,
         0.502637; 0.105244;,
         0.452166; 0.104877;,
         0.452612; 0.043554;,
         0.503083; 0.043921;,
         0.123260; 0.107185;,
         0.122647; 0.045860;,
         0.157843; 0.045860;,
         0.157843; 0.107185;,
         0.157843; 0.107185;,
         0.157843; 0.045860;,
         0.243792; 0.045860;,
         0.243792; 0.107186;,
         0.938644; 0.343963;,
         0.891986; 0.343963;,
         0.891986; 0.309082;,
         0.933954; 0.309082;,
         0.965816; 0.860937;,
         0.965816; 0.907596;,
         0.931552; 0.902906;,
         0.931552; 0.860937;,
         0.699063; 0.938170;,
         0.723150; 0.938170;,
         0.723150; 0.999499;,
         0.699063; 0.999499;,
         0.602739; 0.342815;,
         0.560770; 0.342815;,
         0.560770; 0.105985;,
         0.602739; 0.105985;,
         0.933954; 0.309082;,
         0.891986; 0.309082;,
         0.891986; 0.212923;,
         0.912267; 0.225914;,
         0.916987; 0.148459;,
         0.916987; 0.190428;,
         0.833819; 0.168740;,
         0.820828; 0.148459;,
         0.723149; 0.282701;,
         0.699064; 0.282701;,
         0.699065; 0.045874;,
         0.723150; 0.045874;,
         0.157842; 0.762669;,
         0.243792; 0.762669;,
         0.243791; 0.999499;,
         0.157842; 0.999499;,
         0.859848; 0.416496;,
         0.820828; 0.416496;,
         0.820828; 0.365557;,
         0.859848; 0.365557;,
         0.842557; 0.999499;,
         0.795898; 0.999499;,
         0.795898; 0.761346;,
         0.842557; 0.761346;,
         0.346096; 0.760439;,
         0.439181; 0.761456;,
         0.446396; 0.999499;,
         0.361714; 0.998574;,
         0.157843; 0.107185;,
         0.243792; 0.107186;,
         0.243792; 0.762669;,
         0.157842; 0.762669;,
         0.723150; 0.938170;,
         0.699063; 0.938170;,
         0.699064; 0.282701;,
         0.723149; 0.282701;,
         0.698061; 0.999499;,
         0.656093; 0.999499;,
         0.656093; 0.344014;,
         0.698061; 0.344014;,
         0.930551; 0.907596;,
         0.896286; 0.907596;,
         0.896286; 0.865628;,
         0.930551; 0.860937;,
         0.987248; 0.077288;,
         0.987248; 0.111872;,
         0.750422; 0.110484;,
         0.749240; 0.085583;,
         0.749240; 0.076287;,
         0.753930; 0.051803;,
         0.795898; 0.051803;,
         0.795898; 0.076287;,
         0.886021; 0.208127;,
         0.886021; 0.284092;,
         0.875411; 0.287588;,
         0.875411; 0.202902;,
         0.872769; 0.356080;,
         0.872830; 0.317060;,
         0.880047; 0.314083;,
         0.880047; 0.364555;,
         0.618938; 0.104983;,
         0.618938; 0.068935;,
         0.624163; 0.058324;,
         0.624163; 0.104983;,
         0.920526; 0.844489;,
         0.920526; 0.768524;,
         0.956574; 0.768524;,
         0.956574; 0.859425;,
         0.871767; 0.417498;,
         0.871767; 0.453546;,
         0.820828; 0.453546;,
         0.820828; 0.417498;,
         0.843559; 0.768524;,
         0.919524; 0.768524;,
         0.919524; 0.819463;,
         0.843559; 0.819463;,
         0.961713; 0.484380;,
         0.895430; 0.483315;,
         0.895858; 0.456685;,
         0.962141; 0.457750;,
         0.961713; 0.484380;,
         0.960365; 0.568252;,
         0.894083; 0.567187;,
         0.895430; 0.483315;,
         0.960365; 0.568252;,
         0.959800; 0.603446;,
         0.893517; 0.602381;,
         0.894083; 0.567187;,
         0.959800; 0.603446;,
         0.958281; 0.698781;,
         0.891986; 0.697691;,
         0.893517; 0.602381;,
         0.958281; 0.698781;,
         0.960528; 0.730381;,
         0.894308; 0.725998;,
         0.891986; 0.697691;,
         0.960528; 0.730381;,
         0.962141; 0.760344;,
         0.895864; 0.758968;,
         0.894308; 0.725998;,
         0.890556; 0.732649;,
         0.890984; 0.759279;,
         0.824701; 0.760344;,
         0.824273; 0.733714;,
         0.890556; 0.732649;,
         0.824273; 0.733714;,
         0.822925; 0.649842;,
         0.889208; 0.648777;,
         0.889208; 0.648777;,
         0.822925; 0.649842;,
         0.822360; 0.614648;,
         0.888642; 0.613583;,
         0.888642; 0.613583;,
         0.822360; 0.614648;,
         0.820828; 0.519338;,
         0.887123; 0.518248;,
         0.887123; 0.518248;,
         0.820828; 0.519338;,
         0.823151; 0.491031;,
         0.889371; 0.486648;,
         0.889371; 0.486648;,
         0.823151; 0.491031;,
         0.824707; 0.458061;,
         0.890984; 0.456685;,
         0.819044; 0.482624;,
         0.754689; 0.481436;,
         0.755178; 0.454903;,
         0.819534; 0.456091;,
         0.819044; 0.482624;,
         0.819826; 0.565040;,
         0.750841; 0.564264;,
         0.754689; 0.481436;,
         0.819826; 0.565040;,
         0.819328; 0.601670;,
         0.750343; 0.600893;,
         0.750841; 0.564264;,
         0.819328; 0.601670;,
         0.818228; 0.699100;,
         0.749240; 0.698324;,
         0.750343; 0.600893;,
         0.818228; 0.699100;,
         0.819826; 0.732913;,
         0.750807; 0.730901;,
         0.749240; 0.698324;,
         0.819826; 0.732913;,
         0.819261; 0.759153;,
         0.750299; 0.760344;,
         0.750807; 0.730901;,
         0.819044; 0.426179;,
         0.819534; 0.452713;,
         0.755178; 0.453901;,
         0.754689; 0.427367;,
         0.819044; 0.426179;,
         0.754689; 0.427367;,
         0.750841; 0.344540;,
         0.819826; 0.343763;,
         0.819826; 0.343763;,
         0.750841; 0.344540;,
         0.750343; 0.307910;,
         0.819328; 0.307133;,
         0.819328; 0.307133;,
         0.750343; 0.307910;,
         0.749240; 0.210480;,
         0.818228; 0.209703;,
         0.818228; 0.209703;,
         0.749240; 0.210480;,
         0.750807; 0.177902;,
         0.819826; 0.175890;,
         0.819826; 0.175890;,
         0.750807; 0.177902;,
         0.750299; 0.148459;,
         0.819261; 0.149651;;
      }
      MeshMaterialList {
        1;
        90;
        0,
        0,
        0,
        0,
        0,
        0,
        0,
        0,
        0,
        0,
        0,
        0,
        0,
        0,
        0,
        0,
        0,
        0,
        0,
        0,
        0,
        0,
        0,
        0,
        0,
        0,
        0,
        0,
        0,
        0,
        0,
        0,
        0,
        0,
        0,
        0,
        0,
        0,
        0,
        0,
        0,
        0,
        0,
        0,
        0,
        0,
        0,
        0,
        0,
        0,
        0,
        0,
        0,
        0,
        0,
        0,
        0,
        0,
        0,
        0,
        0,
        0,
        0,
        0,
        0,
        0,
        0,
        0,
        0,
        0,
        0,
        0,
        0,
        0,
        0,
        0,
        0,
        0,
        0,
        0,
        0,
        0,
        0,
        0,
        0,
        0,
        0,
        0,
        0,
        0;
        Material None_001 {
           0.800000; 0.800000; 0.800000; 1.000000;;
           449.999985;
           0.800000; 0.800000; 0.800000;;
           0.000000; 0.000000; 0.000000;;
        }
      }
    }
  }
}
