xof 0303txt 0032

Frame Root {
  FrameTransformMatrix {
     1.000000, 0.000000, 0.000000, 0.000000,
     0.000000,-0.000000, 1.000000, 0.000000,
     0.000000, 1.000000, 0.000000, 0.000000,
     0.000000, 0.000000, 0.000000, 1.000000;;
  }
  Frame ForeArmSVD2 {
    FrameTransformMatrix {
       1.000000, 0.000000, 0.000000, 0.000000,
       0.000000, 1.000000, 0.000000, 0.000000,
       0.000000, 0.000000, 1.000000, 0.000000,
       0.000000, 0.000000, 0.000000, 1.000000;;
    }
    Mesh {
      442;
       0.005828;-0.066853;-0.016335;,
       0.006604;-0.066853;-0.013433;,
       0.011044;-0.066853;-0.014017;,
       0.009811;-0.066853;-0.018630;,
      -0.006604;-0.066853; 0.007503;,
      -0.006604;-0.066853;-0.013433;,
      -0.011044;-0.066853;-0.014017;,
      -0.011044;-0.066853; 0.008087;,
      -0.006604; 0.123718; 0.007503;,
      -0.006604; 0.134522; 0.007503;,
      -0.005830; 0.134522; 0.010392;,
      -0.005830; 0.123718; 0.010392;,
      -0.004142;-0.066853; 0.012080;,
      -0.005830;-0.066853; 0.010392;,
      -0.009811;-0.066853; 0.012691;,
      -0.006441;-0.066853; 0.016061;,
      -0.005830;-0.066853; 0.010392;,
      -0.006604;-0.066853; 0.007503;,
      -0.011044;-0.066853; 0.008087;,
      -0.009811;-0.066853; 0.012691;,
       0.004142;-0.066853; 0.012080;,
       0.001253;-0.066853; 0.012854;,
       0.001837;-0.066853; 0.017294;,
       0.006441;-0.066853; 0.016061;,
      -0.006604;-0.066853;-0.013433;,
      -0.005828;-0.066853;-0.016335;,
      -0.009811;-0.066853;-0.018630;,
      -0.011044;-0.066853;-0.014017;,
       0.005830;-0.066853; 0.010392;,
       0.004142;-0.066853; 0.012080;,
       0.006441;-0.066853; 0.016061;,
       0.009811;-0.066853; 0.012691;,
       0.006604;-0.066853; 0.007503;,
       0.005830;-0.066853; 0.010392;,
       0.009811;-0.066853; 0.012691;,
       0.011044;-0.066853; 0.008087;,
      -0.005828;-0.066853;-0.016335;,
      -0.004139;-0.066853;-0.018027;,
      -0.006441;-0.066853;-0.022007;,
      -0.009811;-0.066853;-0.018630;,
       0.001252;-0.066853;-0.018803;,
       0.004139;-0.066853;-0.018027;,
       0.006441;-0.066853;-0.022007;,
       0.001837;-0.066853;-0.023243;,
      -0.001253;-0.066853; 0.012854;,
      -0.004142;-0.066853; 0.012080;,
      -0.006441;-0.066853; 0.016061;,
      -0.001837;-0.066853; 0.017294;,
      -0.004139;-0.066853;-0.018027;,
      -0.001252;-0.066853;-0.018803;,
      -0.001837;-0.066853;-0.023243;,
      -0.006441;-0.066853;-0.022007;,
       0.001253;-0.066853; 0.012854;,
      -0.001253;-0.066853; 0.012854;,
      -0.001837;-0.066853; 0.017294;,
       0.001837;-0.066853; 0.017294;,
      -0.001252;-0.066853;-0.018803;,
       0.001252;-0.066853;-0.018803;,
       0.001837;-0.066853;-0.023243;,
      -0.001837;-0.066853;-0.023243;,
       0.004139;-0.066853;-0.018027;,
       0.005828;-0.066853;-0.016335;,
       0.009811;-0.066853;-0.018630;,
       0.006441;-0.066853;-0.022007;,
       0.011044; 0.123718;-0.014017;,
       0.009811; 0.123718;-0.018630;,
       0.009811;-0.066853;-0.018630;,
       0.011044;-0.066853;-0.014017;,
       0.011044; 0.123718; 0.008087;,
       0.011044; 0.123718;-0.014017;,
       0.011044;-0.066853;-0.014017;,
       0.011044;-0.066853; 0.008087;,
      -0.006441; 0.123718; 0.016061;,
      -0.001837; 0.123718; 0.017294;,
      -0.001837;-0.066853; 0.017294;,
      -0.006441;-0.066853; 0.016061;,
       0.009811; 0.123718;-0.018630;,
       0.006441; 0.123718;-0.022007;,
       0.006441;-0.066853;-0.022007;,
       0.009811;-0.066853;-0.018630;,
      -0.001837; 0.123718; 0.017294;,
       0.001837; 0.123718; 0.017294;,
       0.001837;-0.066853; 0.017294;,
      -0.001837;-0.066853; 0.017294;,
      -0.009811; 0.123718; 0.012691;,
      -0.006441; 0.123718; 0.016061;,
      -0.006441;-0.066853; 0.016061;,
      -0.009811;-0.066853; 0.012691;,
       0.001837; 0.123718;-0.023243;,
      -0.001837; 0.123718;-0.023243;,
      -0.001837;-0.066853;-0.023243;,
       0.001837;-0.066853;-0.023243;,
       0.006441; 0.123718;-0.022007;,
       0.001837; 0.123718;-0.023243;,
       0.001837;-0.066853;-0.023243;,
       0.006441;-0.066853;-0.022007;,
      -0.011044; 0.123718;-0.014017;,
      -0.011044; 0.123718; 0.008087;,
      -0.011044;-0.066853; 0.008087;,
      -0.011044;-0.066853;-0.014017;,
      -0.011044; 0.123718; 0.008087;,
      -0.009811; 0.123718; 0.012691;,
      -0.009811;-0.066853; 0.012691;,
      -0.011044;-0.066853; 0.008087;,
       0.001025; 0.134522; 0.011122;,
       0.001025; 0.132891; 0.011122;,
       0.003246; 0.132891; 0.010527;,
       0.003246; 0.134522; 0.010527;,
       0.006604; 0.123718;-0.013433;,
       0.006604; 0.134522;-0.013433;,
       0.005828; 0.134522;-0.016335;,
       0.005828; 0.123718;-0.016335;,
      -0.005830; 0.123718; 0.010392;,
      -0.005830; 0.134522; 0.010392;,
      -0.004142; 0.134522; 0.012080;,
      -0.004142; 0.123718; 0.012080;,
      -0.006604; 0.123718;-0.013433;,
      -0.006604; 0.134522;-0.013433;,
      -0.006604; 0.134522; 0.007503;,
      -0.006604; 0.123718; 0.007503;,
      -0.004142; 0.123718; 0.012080;,
      -0.004142; 0.134522; 0.012080;,
      -0.001253; 0.134522; 0.012854;,
      -0.001253; 0.123718; 0.012854;,
       0.001252; 0.123718;-0.018803;,
       0.001252; 0.134522;-0.018803;,
      -0.001252; 0.134522;-0.018803;,
      -0.001252; 0.123718;-0.018803;,
      -0.001252; 0.123718;-0.018803;,
      -0.001252; 0.134522;-0.018803;,
      -0.004139; 0.134522;-0.018027;,
      -0.004139; 0.123718;-0.018027;,
      -0.001253; 0.123718; 0.012854;,
      -0.001253; 0.134522; 0.012854;,
       0.001253; 0.134522; 0.012854;,
       0.001253; 0.123718; 0.012854;,
      -0.004139; 0.123718;-0.018027;,
      -0.004139; 0.134522;-0.018027;,
      -0.005828; 0.134522;-0.016335;,
      -0.005828; 0.123718;-0.016335;,
       0.005830; 0.123718; 0.010392;,
       0.005830; 0.134522; 0.010392;,
       0.006604; 0.134522; 0.007503;,
       0.006604; 0.123718; 0.007503;,
       0.006604; 0.123718; 0.007503;,
       0.006604; 0.134522; 0.007503;,
       0.006604; 0.134522;-0.013433;,
       0.006604; 0.123718;-0.013433;,
      -0.005828; 0.123718;-0.016335;,
      -0.005828; 0.134522;-0.016335;,
      -0.006604; 0.134522;-0.013433;,
      -0.006604; 0.123718;-0.013433;,
       0.004142; 0.123718; 0.012080;,
       0.004142; 0.134522; 0.012080;,
       0.005830; 0.134522; 0.010392;,
       0.005830; 0.123718; 0.010392;,
       0.004139; 0.123718;-0.018027;,
       0.004139; 0.134522;-0.018027;,
       0.001252; 0.134522;-0.018803;,
       0.001252; 0.123718;-0.018803;,
       0.001253; 0.123718; 0.012854;,
       0.001253; 0.134522; 0.012854;,
       0.004142; 0.134522; 0.012080;,
       0.004142; 0.123718; 0.012080;,
       0.005828; 0.123718;-0.016335;,
       0.005828; 0.134522;-0.016335;,
       0.004139; 0.134522;-0.018027;,
       0.004139; 0.123718;-0.018027;,
       0.004872; 0.134522; 0.007275;,
       0.006604; 0.134522; 0.007503;,
       0.005830; 0.134522; 0.010392;,
       0.004277; 0.134522; 0.009496;,
       0.004277; 0.134522; 0.009496;,
       0.005830; 0.134522; 0.010392;,
       0.004142; 0.134522; 0.012080;,
       0.003246; 0.134522; 0.010527;,
       0.003246; 0.134522; 0.010527;,
       0.004142; 0.134522; 0.012080;,
       0.001253; 0.134522; 0.012854;,
       0.001025; 0.134522; 0.011122;,
      -0.004277; 0.134522; 0.009496;,
      -0.005830; 0.134522; 0.010392;,
      -0.006604; 0.134522; 0.007503;,
      -0.004872; 0.134522; 0.007275;,
      -0.003246; 0.134522; 0.010527;,
      -0.004142; 0.134522; 0.012080;,
      -0.005830; 0.134522; 0.010392;,
      -0.004277; 0.134522; 0.009496;,
      -0.001025; 0.134522; 0.011122;,
      -0.001253; 0.134522; 0.012854;,
      -0.004142; 0.134522; 0.012080;,
      -0.003246; 0.134522; 0.010527;,
      -0.003241; 0.134522;-0.016475;,
      -0.004139; 0.134522;-0.018027;,
      -0.001252; 0.134522;-0.018803;,
      -0.001023; 0.134522;-0.017071;,
      -0.004275; 0.134522;-0.015439;,
      -0.005828; 0.134522;-0.016335;,
      -0.004139; 0.134522;-0.018027;,
      -0.003241; 0.134522;-0.016475;,
      -0.004872; 0.134522;-0.013206;,
      -0.006604; 0.134522;-0.013433;,
      -0.005828; 0.134522;-0.016335;,
      -0.004275; 0.134522;-0.015439;,
       0.001023; 0.134522;-0.017071;,
       0.001252; 0.134522;-0.018803;,
       0.004139; 0.134522;-0.018027;,
       0.003241; 0.134522;-0.016475;,
       0.003241; 0.134522;-0.016475;,
       0.004139; 0.134522;-0.018027;,
       0.005828; 0.134522;-0.016335;,
       0.004275; 0.134522;-0.015439;,
       0.004275; 0.134522;-0.015439;,
       0.005828; 0.134522;-0.016335;,
       0.006604; 0.134522;-0.013433;,
       0.004872; 0.134522;-0.013206;,
      -0.004872; 0.134522; 0.007275;,
      -0.006604; 0.134522; 0.007503;,
      -0.006604; 0.134522;-0.013433;,
      -0.004872; 0.134522;-0.013206;,
      -0.001023; 0.134522;-0.017071;,
      -0.001252; 0.134522;-0.018803;,
       0.001252; 0.134522;-0.018803;,
       0.001023; 0.134522;-0.017071;,
       0.001025; 0.134522; 0.011122;,
       0.001253; 0.134522; 0.012854;,
      -0.001253; 0.134522; 0.012854;,
      -0.001025; 0.134522; 0.011122;,
       0.004872; 0.134522;-0.013206;,
       0.006604; 0.134522;-0.013433;,
       0.006604; 0.134522; 0.007503;,
       0.004872; 0.134522; 0.007275;,
      -0.001023; 0.132891;-0.017071;,
       0.001023; 0.132891;-0.017071;,
       0.003241; 0.132891;-0.016475;,
       0.004275; 0.132891;-0.015439;,
       0.004872; 0.132891;-0.013206;,
       0.004872; 0.132891; 0.007275;,
       0.004277; 0.132891; 0.009496;,
       0.003246; 0.132891; 0.010527;,
       0.001025; 0.132891; 0.011122;,
      -0.001025; 0.132891; 0.011122;,
      -0.003246; 0.132891; 0.010527;,
      -0.004277; 0.132891; 0.009496;,
      -0.004872; 0.132891; 0.007275;,
      -0.004872; 0.132891;-0.013206;,
      -0.004275; 0.132891;-0.015439;,
      -0.003241; 0.132891;-0.016475;,
       0.004275; 0.134522;-0.015439;,
       0.004275; 0.132891;-0.015439;,
       0.003241; 0.132891;-0.016475;,
       0.003241; 0.134522;-0.016475;,
      -0.004872; 0.134522; 0.007275;,
      -0.004872; 0.132891; 0.007275;,
      -0.004277; 0.132891; 0.009496;,
      -0.004277; 0.134522; 0.009496;,
       0.004872; 0.134522;-0.013206;,
       0.004872; 0.132891;-0.013206;,
       0.004275; 0.132891;-0.015439;,
       0.004275; 0.134522;-0.015439;,
      -0.004277; 0.134522; 0.009496;,
      -0.004277; 0.132891; 0.009496;,
      -0.003246; 0.132891; 0.010527;,
      -0.003246; 0.134522; 0.010527;,
      -0.004872; 0.134522;-0.013206;,
      -0.004872; 0.132891;-0.013206;,
      -0.004872; 0.132891; 0.007275;,
      -0.004872; 0.134522; 0.007275;,
      -0.003246; 0.134522; 0.010527;,
      -0.003246; 0.132891; 0.010527;,
      -0.001025; 0.132891; 0.011122;,
      -0.001025; 0.134522; 0.011122;,
       0.001023; 0.134522;-0.017071;,
       0.001023; 0.132891;-0.017071;,
      -0.001023; 0.132891;-0.017071;,
      -0.001023; 0.134522;-0.017071;,
      -0.001023; 0.134522;-0.017071;,
      -0.001023; 0.132891;-0.017071;,
      -0.003241; 0.132891;-0.016475;,
      -0.003241; 0.134522;-0.016475;,
      -0.001025; 0.134522; 0.011122;,
      -0.001025; 0.132891; 0.011122;,
       0.001025; 0.132891; 0.011122;,
       0.001025; 0.134522; 0.011122;,
      -0.003241; 0.134522;-0.016475;,
      -0.003241; 0.132891;-0.016475;,
      -0.004275; 0.132891;-0.015439;,
      -0.004275; 0.134522;-0.015439;,
       0.004277; 0.134522; 0.009496;,
       0.004277; 0.132891; 0.009496;,
       0.004872; 0.132891; 0.007275;,
       0.004872; 0.134522; 0.007275;,
       0.004872; 0.134522; 0.007275;,
       0.004872; 0.132891; 0.007275;,
       0.004872; 0.132891;-0.013206;,
       0.004872; 0.134522;-0.013206;,
      -0.004275; 0.134522;-0.015439;,
      -0.004275; 0.132891;-0.015439;,
      -0.004872; 0.132891;-0.013206;,
      -0.004872; 0.134522;-0.013206;,
       0.003246; 0.134522; 0.010527;,
       0.003246; 0.132891; 0.010527;,
       0.004277; 0.132891; 0.009496;,
       0.004277; 0.134522; 0.009496;,
       0.003241; 0.134522;-0.016475;,
       0.003241; 0.132891;-0.016475;,
       0.001023; 0.132891;-0.017071;,
       0.001023; 0.134522;-0.017071;,
      -0.009811; 0.123718;-0.018630;,
      -0.011044; 0.123718;-0.014017;,
      -0.011044;-0.066853;-0.014017;,
      -0.009811;-0.066853;-0.018630;,
       0.001837; 0.123718; 0.017294;,
       0.006441; 0.123718; 0.016061;,
       0.006441;-0.066853; 0.016061;,
       0.001837;-0.066853; 0.017294;,
       0.006441; 0.123718; 0.016061;,
       0.009811; 0.123718; 0.012691;,
       0.009811;-0.066853; 0.012691;,
       0.006441;-0.066853; 0.016061;,
      -0.001837; 0.123718;-0.023243;,
      -0.006441; 0.123718;-0.022007;,
      -0.006441;-0.066853;-0.022007;,
      -0.001837;-0.066853;-0.023243;,
       0.009811; 0.123718; 0.012691;,
       0.011044; 0.123718; 0.008087;,
       0.011044;-0.066853; 0.008087;,
       0.009811;-0.066853; 0.012691;,
      -0.006441; 0.123718;-0.022007;,
      -0.009811; 0.123718;-0.018630;,
      -0.009811;-0.066853;-0.018630;,
      -0.006441;-0.066853;-0.022007;,
       0.006604;-0.066853;-0.013433;,
       0.006604;-0.066853; 0.007503;,
       0.011044;-0.066853; 0.008087;,
       0.011044;-0.066853;-0.014017;,
       0.006441; 0.123718; 0.016061;,
       0.004142; 0.123718; 0.012080;,
       0.005830; 0.123718; 0.010392;,
       0.009811; 0.123718; 0.012691;,
       0.001837; 0.123718; 0.017294;,
       0.001253; 0.123718; 0.012854;,
       0.004142; 0.123718; 0.012080;,
       0.006441; 0.123718; 0.016061;,
      -0.001837; 0.123718; 0.017294;,
      -0.001253; 0.123718; 0.012854;,
       0.001253; 0.123718; 0.012854;,
       0.001837; 0.123718; 0.017294;,
      -0.006441; 0.123718; 0.016061;,
      -0.004142; 0.123718; 0.012080;,
      -0.001253; 0.123718; 0.012854;,
      -0.001837; 0.123718; 0.017294;,
      -0.009811; 0.123718; 0.012691;,
      -0.005830; 0.123718; 0.010392;,
      -0.004142; 0.123718; 0.012080;,
      -0.006441; 0.123718; 0.016061;,
      -0.011044; 0.123718; 0.008087;,
      -0.006604; 0.123718; 0.007503;,
      -0.005830; 0.123718; 0.010392;,
      -0.009811; 0.123718; 0.012691;,
      -0.011044; 0.123718;-0.014017;,
      -0.006604; 0.123718;-0.013433;,
      -0.006604; 0.123718; 0.007503;,
      -0.011044; 0.123718; 0.008087;,
      -0.009811; 0.123718;-0.018630;,
      -0.005828; 0.123718;-0.016335;,
      -0.006604; 0.123718;-0.013433;,
      -0.011044; 0.123718;-0.014017;,
      -0.006441; 0.123718;-0.022007;,
      -0.004139; 0.123718;-0.018027;,
      -0.005828; 0.123718;-0.016335;,
      -0.009811; 0.123718;-0.018630;,
      -0.001837; 0.123718;-0.023243;,
      -0.001252; 0.123718;-0.018803;,
      -0.004139; 0.123718;-0.018027;,
      -0.006441; 0.123718;-0.022007;,
       0.001837; 0.123718;-0.023243;,
       0.001252; 0.123718;-0.018803;,
      -0.001252; 0.123718;-0.018803;,
      -0.001837; 0.123718;-0.023243;,
       0.006441; 0.123718;-0.022007;,
       0.004139; 0.123718;-0.018027;,
       0.001252; 0.123718;-0.018803;,
       0.001837; 0.123718;-0.023243;,
       0.009811; 0.123718;-0.018630;,
       0.005828; 0.123718;-0.016335;,
       0.004139; 0.123718;-0.018027;,
       0.006441; 0.123718;-0.022007;,
       0.011044; 0.123718;-0.014017;,
       0.006604; 0.123718;-0.013433;,
       0.005828; 0.123718;-0.016335;,
       0.009811; 0.123718;-0.018630;,
       0.011044; 0.123718; 0.008087;,
       0.006604; 0.123718; 0.007503;,
       0.006604; 0.123718;-0.013433;,
       0.011044; 0.123718;-0.014017;,
       0.009811; 0.123718; 0.012691;,
       0.005830; 0.123718; 0.010392;,
       0.006604; 0.123718; 0.007503;,
       0.011044; 0.123718; 0.008087;,
       0.004139;-0.066853;-0.018027;,
       0.006604;-0.066853;-0.013433;,
       0.005828;-0.066853;-0.016335;,
       0.006604;-0.066853;-0.013433;,
      -0.006604;-0.066853; 0.007503;,
       0.006604;-0.066853; 0.007503;,
       0.006604;-0.066853; 0.007503;,
       0.001253;-0.066853; 0.012854;,
       0.005830;-0.066853; 0.010392;,
      -0.006604;-0.066853; 0.007503;,
       0.001253;-0.066853; 0.012854;,
       0.006604;-0.066853; 0.007503;,
       0.005830;-0.066853; 0.010392;,
       0.001253;-0.066853; 0.012854;,
       0.004142;-0.066853; 0.012080;,
       0.001253;-0.066853; 0.012854;,
      -0.006604;-0.066853; 0.007503;,
      -0.001253;-0.066853; 0.012854;,
      -0.001253;-0.066853; 0.012854;,
      -0.006604;-0.066853; 0.007503;,
      -0.004142;-0.066853; 0.012080;,
      -0.004142;-0.066853; 0.012080;,
      -0.006604;-0.066853; 0.007503;,
      -0.005830;-0.066853; 0.010392;,
      -0.006604;-0.066853; 0.007503;,
       0.006604;-0.066853;-0.013433;,
      -0.006604;-0.066853;-0.013433;,
      -0.006604;-0.066853;-0.013433;,
      -0.001252;-0.066853;-0.018803;,
      -0.005828;-0.066853;-0.016335;,
       0.006604;-0.066853;-0.013433;,
      -0.001252;-0.066853;-0.018803;,
      -0.006604;-0.066853;-0.013433;,
      -0.005828;-0.066853;-0.016335;,
      -0.001252;-0.066853;-0.018803;,
      -0.004139;-0.066853;-0.018027;,
      -0.001252;-0.066853;-0.018803;,
       0.006604;-0.066853;-0.013433;,
       0.001252;-0.066853;-0.018803;,
       0.001252;-0.066853;-0.018803;,
       0.006604;-0.066853;-0.013433;,
       0.004139;-0.066853;-0.018027;;
      111;
      4;3,2,1,0;,
      4;7,6,5,4;,
      4;11,10,9,8;,
      4;15,14,13,12;,
      4;19,18,17,16;,
      4;23,22,21,20;,
      4;27,26,25,24;,
      4;31,30,29,28;,
      4;35,34,33,32;,
      4;39,38,37,36;,
      4;43,42,41,40;,
      4;47,46,45,44;,
      4;51,50,49,48;,
      4;55,54,53,52;,
      4;59,58,57,56;,
      4;63,62,61,60;,
      4;67,66,65,64;,
      4;71,70,69,68;,
      4;75,74,73,72;,
      4;79,78,77,76;,
      4;83,82,81,80;,
      4;87,86,85,84;,
      4;91,90,89,88;,
      4;95,94,93,92;,
      4;99,98,97,96;,
      4;103,102,101,100;,
      4;107,106,105,104;,
      4;111,110,109,108;,
      4;115,114,113,112;,
      4;119,118,117,116;,
      4;123,122,121,120;,
      4;127,126,125,124;,
      4;131,130,129,128;,
      4;135,134,133,132;,
      4;139,138,137,136;,
      4;143,142,141,140;,
      4;147,146,145,144;,
      4;151,150,149,148;,
      4;155,154,153,152;,
      4;159,158,157,156;,
      4;163,162,161,160;,
      4;167,166,165,164;,
      4;171,170,169,168;,
      4;175,174,173,172;,
      4;179,178,177,176;,
      4;183,182,181,180;,
      4;187,186,185,184;,
      4;191,190,189,188;,
      4;195,194,193,192;,
      4;199,198,197,196;,
      4;203,202,201,200;,
      4;207,206,205,204;,
      4;211,210,209,208;,
      4;215,214,213,212;,
      4;219,218,217,216;,
      4;223,222,221,220;,
      4;227,226,225,224;,
      4;231,230,229,228;,
      16;247,246,245,244,243,242,241,240,239,238,237,236,235,234,233,232;,
      4;251,250,249,248;,
      4;255,254,253,252;,
      4;259,258,257,256;,
      4;263,262,261,260;,
      4;267,266,265,264;,
      4;271,270,269,268;,
      4;275,274,273,272;,
      4;279,278,277,276;,
      4;283,282,281,280;,
      4;287,286,285,284;,
      4;291,290,289,288;,
      4;295,294,293,292;,
      4;299,298,297,296;,
      4;303,302,301,300;,
      4;307,306,305,304;,
      4;311,310,309,308;,
      4;315,314,313,312;,
      4;319,318,317,316;,
      4;323,322,321,320;,
      4;327,326,325,324;,
      4;331,330,329,328;,
      4;335,334,333,332;,
      4;339,338,337,336;,
      4;343,342,341,340;,
      4;347,346,345,344;,
      4;351,350,349,348;,
      4;355,354,353,352;,
      4;359,358,357,356;,
      4;363,362,361,360;,
      4;367,366,365,364;,
      4;371,370,369,368;,
      4;375,374,373,372;,
      4;379,378,377,376;,
      4;383,382,381,380;,
      4;387,386,385,384;,
      4;391,390,389,388;,
      4;395,394,393,392;,
      4;399,398,397,396;,
      3;402,401,400;,
      3;405,404,403;,
      3;408,407,406;,
      3;411,410,409;,
      3;414,413,412;,
      3;417,416,415;,
      3;420,419,418;,
      3;423,422,421;,
      3;426,425,424;,
      3;429,428,427;,
      3;432,431,430;,
      3;435,434,433;,
      3;438,437,436;,
      3;441,440,439;;
      MeshNormals {
        442;
         0.000000; 1.000000; 0.000000;,
         0.000000; 1.000000;-0.000000;,
        -0.727948; 0.678928; 0.095642;,
        -0.655983; 0.653276; 0.378044;,
        -0.000000; 1.000000;-0.000000;,
        -0.000000; 1.000000;-0.000000;,
         0.727948; 0.678928; 0.095642;,
         0.727973; 0.678874;-0.095840;,
         0.669353;-0.737700;-0.088122;,
         0.727973;-0.678874;-0.095838;,
         0.655722;-0.653227;-0.378581;,
         0.552288;-0.770262;-0.318864;,
         0.000000; 1.000000;-0.000001;,
         0.000000; 1.000000;-0.000001;,
         0.655722; 0.653227;-0.378581;,
         0.378581; 0.653227;-0.655722;,
         0.000000; 1.000000;-0.000001;,
        -0.000000; 1.000000;-0.000000;,
         0.727973; 0.678874;-0.095840;,
         0.655722; 0.653227;-0.378581;,
         0.000000; 1.000000;-0.000000;,
         0.000000; 1.000000; 0.000000;,
        -0.095840; 0.678874;-0.727973;,
        -0.378581; 0.653227;-0.655722;,
        -0.000000; 1.000000;-0.000000;,
         0.000000; 1.000000;-0.000000;,
         0.655983; 0.653276; 0.378044;,
         0.727948; 0.678928; 0.095642;,
         0.000000; 1.000000;-0.000000;,
         0.000000; 1.000000;-0.000000;,
        -0.378581; 0.653227;-0.655722;,
        -0.655722; 0.653227;-0.378582;,
         0.000000; 1.000000;-0.000000;,
         0.000000; 1.000000;-0.000000;,
        -0.655722; 0.653227;-0.378582;,
        -0.727973; 0.678874;-0.095840;,
         0.000000; 1.000000;-0.000000;,
         0.000000; 1.000000;-0.000003;,
         0.379118; 0.653178; 0.655460;,
         0.655983; 0.653276; 0.378044;,
         0.000000; 1.000000;-0.000000;,
         0.000000; 1.000000;-0.000001;,
        -0.379118; 0.653178; 0.655460;,
        -0.096037; 0.678820; 0.727997;,
         0.000000; 1.000000; 0.000003;,
         0.000000; 1.000000;-0.000001;,
         0.378581; 0.653227;-0.655722;,
         0.095840; 0.678874;-0.727973;,
         0.000000; 1.000000;-0.000003;,
         0.000000; 1.000000;-0.000000;,
         0.096037; 0.678820; 0.727997;,
         0.379118; 0.653178; 0.655460;,
         0.000000; 1.000000; 0.000000;,
         0.000000; 1.000000; 0.000003;,
         0.095840; 0.678874;-0.727973;,
        -0.095840; 0.678874;-0.727973;,
         0.000000; 1.000000;-0.000000;,
         0.000000; 1.000000;-0.000000;,
        -0.096037; 0.678820; 0.727997;,
         0.096037; 0.678820; 0.727997;,
         0.000000; 1.000000;-0.000001;,
         0.000000; 1.000000; 0.000000;,
        -0.655983; 0.653276; 0.378044;,
        -0.379118; 0.653178; 0.655460;,
        -0.727948;-0.678928; 0.095641;,
        -0.655983;-0.653276; 0.378044;,
        -0.655983; 0.653276; 0.378044;,
        -0.727948; 0.678928; 0.095642;,
        -0.727973;-0.678874;-0.095839;,
        -0.727948;-0.678928; 0.095641;,
        -0.727948; 0.678928; 0.095642;,
        -0.727973; 0.678874;-0.095840;,
         0.378581;-0.653227;-0.655722;,
         0.095840;-0.678874;-0.727973;,
         0.095840; 0.678874;-0.727973;,
         0.378581; 0.653227;-0.655722;,
        -0.655983;-0.653276; 0.378044;,
        -0.379118;-0.653178; 0.655460;,
        -0.379118; 0.653178; 0.655460;,
        -0.655983; 0.653276; 0.378044;,
         0.095840;-0.678874;-0.727973;,
        -0.095840;-0.678874;-0.727973;,
        -0.095840; 0.678874;-0.727973;,
         0.095840; 0.678874;-0.727973;,
         0.655722;-0.653227;-0.378581;,
         0.378581;-0.653227;-0.655722;,
         0.378581; 0.653227;-0.655722;,
         0.655722; 0.653227;-0.378581;,
        -0.096037;-0.678820; 0.727997;,
         0.096037;-0.678820; 0.727997;,
         0.096037; 0.678820; 0.727997;,
        -0.096037; 0.678820; 0.727997;,
        -0.379118;-0.653178; 0.655460;,
        -0.096037;-0.678820; 0.727997;,
        -0.096037; 0.678820; 0.727997;,
        -0.379118; 0.653178; 0.655460;,
         0.727948;-0.678928; 0.095641;,
         0.727973;-0.678874;-0.095839;,
         0.727973; 0.678874;-0.095840;,
         0.727948; 0.678928; 0.095642;,
         0.727973;-0.678874;-0.095839;,
         0.655722;-0.653227;-0.378581;,
         0.655722; 0.653227;-0.378581;,
         0.727973; 0.678874;-0.095840;,
         0.088122;-0.737701; 0.669351;,
         0.095839;-0.678874; 0.727973;,
         0.378581;-0.653227; 0.655722;,
         0.318865;-0.770264; 0.552286;,
        -0.669445;-0.737637; 0.087954;,
        -0.727948;-0.678928; 0.095642;,
        -0.655983;-0.653275; 0.378044;,
        -0.552609;-0.770195; 0.318469;,
         0.552288;-0.770262;-0.318864;,
         0.655722;-0.653227;-0.378581;,
         0.378581;-0.653227;-0.655722;,
         0.318864;-0.770262;-0.552289;,
         0.669445;-0.737637; 0.087954;,
         0.727948;-0.678928; 0.095642;,
         0.727973;-0.678874;-0.095838;,
         0.669353;-0.737700;-0.088122;,
         0.318864;-0.770262;-0.552289;,
         0.378581;-0.653227;-0.655722;,
         0.095840;-0.678874;-0.727973;,
         0.088122;-0.737700;-0.669353;,
        -0.088289;-0.737764; 0.669261;,
        -0.096037;-0.678820; 0.727997;,
         0.096037;-0.678820; 0.727997;,
         0.088289;-0.737764; 0.669261;,
         0.088289;-0.737764; 0.669261;,
         0.096037;-0.678820; 0.727997;,
         0.379118;-0.653177; 0.655461;,
         0.319258;-0.770328; 0.551968;,
         0.088122;-0.737700;-0.669353;,
         0.095840;-0.678874;-0.727973;,
        -0.095839;-0.678873;-0.727974;,
        -0.088122;-0.737700;-0.669353;,
         0.319258;-0.770328; 0.551968;,
         0.379118;-0.653177; 0.655461;,
         0.655983;-0.653275; 0.378044;,
         0.552609;-0.770195; 0.318470;,
        -0.552288;-0.770262;-0.318864;,
        -0.655721;-0.653226;-0.378583;,
        -0.727973;-0.678874;-0.095839;,
        -0.669353;-0.737700;-0.088122;,
        -0.669353;-0.737700;-0.088122;,
        -0.727973;-0.678874;-0.095839;,
        -0.727948;-0.678928; 0.095642;,
        -0.669445;-0.737637; 0.087954;,
         0.552609;-0.770195; 0.318470;,
         0.655983;-0.653275; 0.378044;,
         0.727948;-0.678928; 0.095642;,
         0.669445;-0.737637; 0.087954;,
        -0.318864;-0.770262;-0.552289;,
        -0.378580;-0.653225;-0.655724;,
        -0.655721;-0.653226;-0.378583;,
        -0.552288;-0.770262;-0.318864;,
        -0.319258;-0.770328; 0.551968;,
        -0.379118;-0.653178; 0.655460;,
        -0.096037;-0.678820; 0.727997;,
        -0.088289;-0.737764; 0.669261;,
        -0.088122;-0.737700;-0.669353;,
        -0.095839;-0.678873;-0.727974;,
        -0.378580;-0.653225;-0.655724;,
        -0.318864;-0.770262;-0.552289;,
        -0.552609;-0.770195; 0.318469;,
        -0.655983;-0.653275; 0.378044;,
        -0.379118;-0.653178; 0.655460;,
        -0.319258;-0.770328; 0.551968;,
         0.669353;-0.737700; 0.088122;,
        -0.727973;-0.678874;-0.095839;,
        -0.655721;-0.653226;-0.378583;,
         0.552289;-0.770262; 0.318862;,
         0.552289;-0.770262; 0.318862;,
        -0.655721;-0.653226;-0.378583;,
        -0.378580;-0.653225;-0.655724;,
         0.318865;-0.770264; 0.552286;,
         0.318865;-0.770264; 0.552286;,
        -0.378580;-0.653225;-0.655724;,
        -0.095839;-0.678873;-0.727974;,
         0.088122;-0.737701; 0.669351;,
        -0.552288;-0.770262; 0.318866;,
         0.655722;-0.653227;-0.378581;,
         0.727973;-0.678874;-0.095838;,
        -0.669353;-0.737700; 0.088123;,
        -0.318864;-0.770261; 0.552289;,
         0.378581;-0.653227;-0.655722;,
         0.655722;-0.653227;-0.378581;,
        -0.552288;-0.770262; 0.318866;,
        -0.088122;-0.737700; 0.669352;,
         0.095840;-0.678874;-0.727973;,
         0.378581;-0.653227;-0.655722;,
        -0.318864;-0.770261; 0.552289;,
        -0.319258;-0.770329;-0.551966;,
         0.379118;-0.653177; 0.655461;,
         0.096037;-0.678820; 0.727997;,
        -0.088289;-0.737764;-0.669261;,
        -0.552609;-0.770195;-0.318470;,
         0.655983;-0.653275; 0.378044;,
         0.379118;-0.653177; 0.655461;,
        -0.319258;-0.770329;-0.551966;,
        -0.669444;-0.737637;-0.087955;,
         0.727948;-0.678928; 0.095642;,
         0.655983;-0.653275; 0.378044;,
        -0.552609;-0.770195;-0.318470;,
         0.088289;-0.737763;-0.669261;,
        -0.096037;-0.678820; 0.727997;,
        -0.379118;-0.653178; 0.655460;,
         0.319258;-0.770329;-0.551967;,
         0.319258;-0.770329;-0.551967;,
        -0.379118;-0.653178; 0.655460;,
        -0.655983;-0.653275; 0.378044;,
         0.552609;-0.770195;-0.318470;,
         0.552609;-0.770195;-0.318470;,
        -0.655983;-0.653275; 0.378044;,
        -0.727948;-0.678928; 0.095642;,
         0.669444;-0.737637;-0.087955;,
        -0.669353;-0.737700; 0.088123;,
         0.727973;-0.678874;-0.095838;,
         0.727948;-0.678928; 0.095642;,
        -0.669444;-0.737637;-0.087955;,
        -0.088289;-0.737764;-0.669261;,
         0.096037;-0.678820; 0.727997;,
        -0.096037;-0.678820; 0.727997;,
         0.088289;-0.737763;-0.669261;,
         0.088122;-0.737701; 0.669351;,
        -0.095839;-0.678873;-0.727974;,
         0.095840;-0.678874;-0.727973;,
        -0.088122;-0.737700; 0.669352;,
         0.669444;-0.737637;-0.087955;,
        -0.727948;-0.678928; 0.095642;,
        -0.727973;-0.678874;-0.095839;,
         0.669353;-0.737700; 0.088122;,
        -0.096037;-0.678820;-0.727997;,
         0.096037;-0.678820;-0.727997;,
         0.379118;-0.653178;-0.655460;,
         0.655983;-0.653276;-0.378044;,
         0.727948;-0.678928;-0.095642;,
         0.727973;-0.678874; 0.095839;,
         0.655722;-0.653227; 0.378581;,
         0.378581;-0.653227; 0.655722;,
         0.095839;-0.678874; 0.727973;,
        -0.095840;-0.678874; 0.727973;,
        -0.378581;-0.653227; 0.655722;,
        -0.655721;-0.653227; 0.378582;,
        -0.727973;-0.678874; 0.095839;,
        -0.727948;-0.678928;-0.095642;,
        -0.655983;-0.653276;-0.378044;,
        -0.379118;-0.653178;-0.655460;,
         0.552609;-0.770195;-0.318470;,
         0.655983;-0.653276;-0.378044;,
         0.379118;-0.653178;-0.655460;,
         0.319258;-0.770329;-0.551967;,
        -0.669353;-0.737700; 0.088123;,
        -0.727973;-0.678874; 0.095839;,
        -0.655721;-0.653227; 0.378582;,
        -0.552288;-0.770262; 0.318866;,
         0.669444;-0.737637;-0.087955;,
         0.727948;-0.678928;-0.095642;,
         0.655983;-0.653276;-0.378044;,
         0.552609;-0.770195;-0.318470;,
        -0.552288;-0.770262; 0.318866;,
        -0.655721;-0.653227; 0.378582;,
        -0.378581;-0.653227; 0.655722;,
        -0.318864;-0.770261; 0.552289;,
        -0.669444;-0.737637;-0.087955;,
        -0.727948;-0.678928;-0.095642;,
        -0.727973;-0.678874; 0.095839;,
        -0.669353;-0.737700; 0.088123;,
        -0.318864;-0.770261; 0.552289;,
        -0.378581;-0.653227; 0.655722;,
        -0.095840;-0.678874; 0.727973;,
        -0.088122;-0.737700; 0.669352;,
         0.088289;-0.737763;-0.669261;,
         0.096037;-0.678820;-0.727997;,
        -0.096037;-0.678820;-0.727997;,
        -0.088289;-0.737764;-0.669261;,
        -0.088289;-0.737764;-0.669261;,
        -0.096037;-0.678820;-0.727997;,
        -0.379118;-0.653178;-0.655460;,
        -0.319258;-0.770329;-0.551966;,
        -0.088122;-0.737700; 0.669352;,
        -0.095840;-0.678874; 0.727973;,
         0.095839;-0.678874; 0.727973;,
         0.088122;-0.737701; 0.669351;,
        -0.319258;-0.770329;-0.551966;,
        -0.379118;-0.653178;-0.655460;,
        -0.655983;-0.653276;-0.378044;,
        -0.552609;-0.770195;-0.318470;,
         0.552289;-0.770262; 0.318862;,
         0.655722;-0.653227; 0.378581;,
         0.727973;-0.678874; 0.095839;,
         0.669353;-0.737700; 0.088122;,
         0.669353;-0.737700; 0.088122;,
         0.727973;-0.678874; 0.095839;,
         0.727948;-0.678928;-0.095642;,
         0.669444;-0.737637;-0.087955;,
        -0.552609;-0.770195;-0.318470;,
        -0.655983;-0.653276;-0.378044;,
        -0.727948;-0.678928;-0.095642;,
        -0.669444;-0.737637;-0.087955;,
         0.318865;-0.770264; 0.552286;,
         0.378581;-0.653227; 0.655722;,
         0.655722;-0.653227; 0.378581;,
         0.552289;-0.770262; 0.318862;,
         0.319258;-0.770329;-0.551967;,
         0.379118;-0.653178;-0.655460;,
         0.096037;-0.678820;-0.727997;,
         0.088289;-0.737763;-0.669261;,
         0.655983;-0.653276; 0.378044;,
         0.727948;-0.678928; 0.095641;,
         0.727948; 0.678928; 0.095642;,
         0.655983; 0.653276; 0.378044;,
        -0.095840;-0.678874;-0.727973;,
        -0.378581;-0.653227;-0.655722;,
        -0.378581; 0.653227;-0.655722;,
        -0.095840; 0.678874;-0.727973;,
        -0.378581;-0.653227;-0.655722;,
        -0.655722;-0.653227;-0.378581;,
        -0.655722; 0.653227;-0.378582;,
        -0.378581; 0.653227;-0.655722;,
         0.096037;-0.678820; 0.727997;,
         0.379118;-0.653177; 0.655461;,
         0.379118; 0.653178; 0.655460;,
         0.096037; 0.678820; 0.727997;,
        -0.655722;-0.653227;-0.378581;,
        -0.727973;-0.678874;-0.095839;,
        -0.727973; 0.678874;-0.095840;,
        -0.655722; 0.653227;-0.378582;,
         0.379118;-0.653177; 0.655461;,
         0.655983;-0.653276; 0.378044;,
         0.655983; 0.653276; 0.378044;,
         0.379118; 0.653178; 0.655460;,
         0.000000; 1.000000;-0.000000;,
         0.000000; 1.000000;-0.000000;,
        -0.727973; 0.678874;-0.095840;,
        -0.727948; 0.678928; 0.095642;,
        -0.378581;-0.653227;-0.655722;,
        -0.318864;-0.770262;-0.552289;,
        -0.552288;-0.770262;-0.318864;,
        -0.655722;-0.653227;-0.378581;,
        -0.095840;-0.678874;-0.727973;,
        -0.088122;-0.737700;-0.669353;,
        -0.318864;-0.770262;-0.552289;,
        -0.378581;-0.653227;-0.655722;,
         0.095840;-0.678874;-0.727973;,
         0.088122;-0.737700;-0.669353;,
        -0.088122;-0.737700;-0.669353;,
        -0.095840;-0.678874;-0.727973;,
         0.378581;-0.653227;-0.655722;,
         0.318864;-0.770262;-0.552289;,
         0.088122;-0.737700;-0.669353;,
         0.095840;-0.678874;-0.727973;,
         0.655722;-0.653227;-0.378581;,
         0.552288;-0.770262;-0.318864;,
         0.318864;-0.770262;-0.552289;,
         0.378581;-0.653227;-0.655722;,
         0.727973;-0.678874;-0.095839;,
         0.669353;-0.737700;-0.088122;,
         0.552288;-0.770262;-0.318864;,
         0.655722;-0.653227;-0.378581;,
         0.727948;-0.678928; 0.095641;,
         0.669445;-0.737637; 0.087954;,
         0.669353;-0.737700;-0.088122;,
         0.727973;-0.678874;-0.095839;,
         0.655983;-0.653276; 0.378044;,
         0.552609;-0.770195; 0.318470;,
         0.669445;-0.737637; 0.087954;,
         0.727948;-0.678928; 0.095641;,
         0.379118;-0.653177; 0.655461;,
         0.319258;-0.770328; 0.551968;,
         0.552609;-0.770195; 0.318470;,
         0.655983;-0.653276; 0.378044;,
         0.096037;-0.678820; 0.727997;,
         0.088289;-0.737764; 0.669261;,
         0.319258;-0.770328; 0.551968;,
         0.379118;-0.653177; 0.655461;,
        -0.096037;-0.678820; 0.727997;,
        -0.088289;-0.737764; 0.669261;,
         0.088289;-0.737764; 0.669261;,
         0.096037;-0.678820; 0.727997;,
        -0.379118;-0.653178; 0.655460;,
        -0.319258;-0.770328; 0.551968;,
        -0.088289;-0.737764; 0.669261;,
        -0.096037;-0.678820; 0.727997;,
        -0.655983;-0.653276; 0.378044;,
        -0.552609;-0.770195; 0.318469;,
        -0.319258;-0.770328; 0.551968;,
        -0.379118;-0.653178; 0.655460;,
        -0.727948;-0.678928; 0.095641;,
        -0.669445;-0.737637; 0.087954;,
        -0.552609;-0.770195; 0.318469;,
        -0.655983;-0.653276; 0.378044;,
        -0.727973;-0.678874;-0.095839;,
        -0.669353;-0.737700;-0.088122;,
        -0.669445;-0.737637; 0.087954;,
        -0.727948;-0.678928; 0.095641;,
        -0.655722;-0.653227;-0.378581;,
        -0.552288;-0.770262;-0.318864;,
        -0.669353;-0.737700;-0.088122;,
        -0.727973;-0.678874;-0.095839;,
         0.000000; 1.000000;-0.000001;,
         0.000000; 1.000000;-0.000000;,
         0.000000; 1.000000; 0.000000;,
         0.000000; 1.000000;-0.000000;,
        -0.000000; 1.000000;-0.000000;,
         0.000000; 1.000000;-0.000000;,
         0.000000; 1.000000;-0.000000;,
         0.000000; 1.000000; 0.000000;,
         0.000000; 1.000000;-0.000000;,
        -0.000000; 1.000000;-0.000000;,
         0.000000; 1.000000; 0.000000;,
         0.000000; 1.000000;-0.000000;,
         0.000000; 1.000000;-0.000000;,
         0.000000; 1.000000; 0.000000;,
         0.000000; 1.000000;-0.000000;,
         0.000000; 1.000000; 0.000000;,
        -0.000000; 1.000000;-0.000000;,
         0.000000; 1.000000; 0.000003;,
         0.000000; 1.000000; 0.000003;,
        -0.000000; 1.000000;-0.000000;,
         0.000000; 1.000000;-0.000001;,
         0.000000; 1.000000;-0.000001;,
        -0.000000; 1.000000;-0.000000;,
         0.000000; 1.000000;-0.000001;,
        -0.000000; 1.000000;-0.000000;,
         0.000000; 1.000000;-0.000000;,
        -0.000000; 1.000000;-0.000000;,
        -0.000000; 1.000000;-0.000000;,
         0.000000; 1.000000;-0.000000;,
         0.000000; 1.000000;-0.000000;,
         0.000000; 1.000000;-0.000000;,
         0.000000; 1.000000;-0.000000;,
        -0.000000; 1.000000;-0.000000;,
         0.000000; 1.000000;-0.000000;,
         0.000000; 1.000000;-0.000000;,
         0.000000; 1.000000;-0.000003;,
         0.000000; 1.000000;-0.000000;,
         0.000000; 1.000000;-0.000000;,
         0.000000; 1.000000;-0.000000;,
         0.000000; 1.000000;-0.000000;,
         0.000000; 1.000000;-0.000000;,
         0.000000; 1.000000;-0.000001;;
        111;
        4;3,2,1,0;,
        4;7,6,5,4;,
        4;11,10,9,8;,
        4;15,14,13,12;,
        4;19,18,17,16;,
        4;23,22,21,20;,
        4;27,26,25,24;,
        4;31,30,29,28;,
        4;35,34,33,32;,
        4;39,38,37,36;,
        4;43,42,41,40;,
        4;47,46,45,44;,
        4;51,50,49,48;,
        4;55,54,53,52;,
        4;59,58,57,56;,
        4;63,62,61,60;,
        4;67,66,65,64;,
        4;71,70,69,68;,
        4;75,74,73,72;,
        4;79,78,77,76;,
        4;83,82,81,80;,
        4;87,86,85,84;,
        4;91,90,89,88;,
        4;95,94,93,92;,
        4;99,98,97,96;,
        4;103,102,101,100;,
        4;107,106,105,104;,
        4;111,110,109,108;,
        4;115,114,113,112;,
        4;119,118,117,116;,
        4;123,122,121,120;,
        4;127,126,125,124;,
        4;131,130,129,128;,
        4;135,134,133,132;,
        4;139,138,137,136;,
        4;143,142,141,140;,
        4;147,146,145,144;,
        4;151,150,149,148;,
        4;155,154,153,152;,
        4;159,158,157,156;,
        4;163,162,161,160;,
        4;167,166,165,164;,
        4;171,170,169,168;,
        4;175,174,173,172;,
        4;179,178,177,176;,
        4;183,182,181,180;,
        4;187,186,185,184;,
        4;191,190,189,188;,
        4;195,194,193,192;,
        4;199,198,197,196;,
        4;203,202,201,200;,
        4;207,206,205,204;,
        4;211,210,209,208;,
        4;215,214,213,212;,
        4;219,218,217,216;,
        4;223,222,221,220;,
        4;227,226,225,224;,
        4;231,230,229,228;,
        16;247,246,245,244,243,242,241,240,239,238,237,236,235,234,233,232;,
        4;251,250,249,248;,
        4;255,254,253,252;,
        4;259,258,257,256;,
        4;263,262,261,260;,
        4;267,266,265,264;,
        4;271,270,269,268;,
        4;275,274,273,272;,
        4;279,278,277,276;,
        4;283,282,281,280;,
        4;287,286,285,284;,
        4;291,290,289,288;,
        4;295,294,293,292;,
        4;299,298,297,296;,
        4;303,302,301,300;,
        4;307,306,305,304;,
        4;311,310,309,308;,
        4;315,314,313,312;,
        4;319,318,317,316;,
        4;323,322,321,320;,
        4;327,326,325,324;,
        4;331,330,329,328;,
        4;335,334,333,332;,
        4;339,338,337,336;,
        4;343,342,341,340;,
        4;347,346,345,344;,
        4;351,350,349,348;,
        4;355,354,353,352;,
        4;359,358,357,356;,
        4;363,362,361,360;,
        4;367,366,365,364;,
        4;371,370,369,368;,
        4;375,374,373,372;,
        4;379,378,377,376;,
        4;383,382,381,380;,
        4;387,386,385,384;,
        4;391,390,389,388;,
        4;395,394,393,392;,
        4;399,398,397,396;,
        3;402,401,400;,
        3;405,404,403;,
        3;408,407,406;,
        3;411,410,409;,
        3;414,413,412;,
        3;417,416,415;,
        3;420,419,418;,
        3;423,422,421;,
        3;426,425,424;,
        3;429,428,427;,
        3;432,431,430;,
        3;435,434,433;,
        3;438,437,436;,
        3;441,440,439;;
      }
      MeshTextureCoords {
        442;
         0.288385; 0.381672;,
         0.273206; 0.377614;,
         0.276258; 0.354383;,
         0.300392; 0.360837;,
         0.944008; 0.260747;,
         0.944004; 0.370279;,
         0.920774; 0.373330;,
         0.920778; 0.257688;,
         0.707296; 0.421987;,
         0.707296; 0.365461;,
         0.722946; 0.365461;,
         0.722946; 0.421987;,
         0.956888; 0.236802;,
         0.948060; 0.245630;,
         0.927232; 0.233604;,
         0.944864; 0.215974;,
         0.948060; 0.245630;,
         0.944008; 0.260747;,
         0.920778; 0.257688;,
         0.927232; 0.233604;,
         0.139728; 0.390492;,
         0.135678; 0.405609;,
         0.112448; 0.402551;,
         0.118901; 0.378467;,
         0.944004; 0.370279;,
         0.948062; 0.385458;,
         0.927226; 0.397465;,
         0.920774; 0.373330;,
         0.148556; 0.381664;,
         0.139728; 0.390492;,
         0.118901; 0.378467;,
         0.136531; 0.360837;,
         0.163674; 0.377614;,
         0.148556; 0.381664;,
         0.136531; 0.360837;,
         0.160615; 0.354383;,
         0.948062; 0.385458;,
         0.956899; 0.394314;,
         0.944856; 0.415133;,
         0.927226; 0.397465;,
         0.301297; 0.405616;,
         0.297240; 0.390509;,
         0.318060; 0.378467;,
         0.324527; 0.402551;,
         0.972005; 0.232752;,
         0.956888; 0.236802;,
         0.944864; 0.215974;,
         0.968948; 0.209522;,
         0.956899; 0.394314;,
         0.972005; 0.398371;,
         0.968940; 0.421601;,
         0.944856; 0.415133;,
         0.135678; 0.405609;,
         0.135678; 0.418718;,
         0.112448; 0.421777;,
         0.112448; 0.402551;,
         0.301297; 0.418712;,
         0.301297; 0.405616;,
         0.324527; 0.402551;,
         0.324527; 0.421777;,
         0.297240; 0.390509;,
         0.288385; 0.381672;,
         0.300392; 0.360837;,
         0.318060; 0.378467;,
         0.001495; 0.788836;,
         0.001496; 0.763854;,
         0.998504; 0.763854;,
         0.998504; 0.788836;,
         0.001496; 0.904479;,
         0.001495; 0.788836;,
         0.998504; 0.788836;,
         0.998504; 0.904479;,
         0.001496; 0.450904;,
         0.001496; 0.425970;,
         0.998505; 0.425970;,
         0.998505; 0.450904;,
         0.001496; 0.763854;,
         0.001496; 0.738894;,
         0.998504; 0.738894;,
         0.998504; 0.763854;,
         0.001495; 0.998505;,
         0.001496; 0.979279;,
         0.998504; 0.979279;,
         0.998504; 0.998504;,
         0.001496; 0.475837;,
         0.001496; 0.450904;,
         0.998505; 0.450904;,
         0.998505; 0.475837;,
         0.001496; 0.713957;,
         0.001496; 0.694732;,
         0.998505; 0.694732;,
         0.998505; 0.713957;,
         0.001496; 0.738894;,
         0.001496; 0.713957;,
         0.998505; 0.713957;,
         0.998504; 0.738894;,
         0.001496; 0.616413;,
         0.001496; 0.500771;,
         0.998505; 0.500771;,
         0.998505; 0.616413;,
         0.001496; 0.500771;,
         0.001496; 0.475837;,
         0.998505; 0.475837;,
         0.998505; 0.500771;,
         0.508247; 0.353615;,
         0.508247; 0.362150;,
         0.496217; 0.362149;,
         0.496217; 0.353615;,
         0.384476; 0.365467;,
         0.384476; 0.421992;,
         0.368764; 0.421992;,
         0.368764; 0.365467;,
         0.722946; 0.421987;,
         0.722946; 0.365461;,
         0.735431; 0.365461;,
         0.735431; 0.421987;,
         0.597764; 0.421987;,
         0.597764; 0.365461;,
         0.707296; 0.365461;,
         0.707296; 0.421987;,
         0.735431; 0.421987;,
         0.735431; 0.365461;,
         0.751081; 0.365461;,
         0.751081; 0.421987;,
         0.340612; 0.365467;,
         0.340612; 0.421992;,
         0.327516; 0.421992;,
         0.327516; 0.365467;,
         0.553899; 0.421987;,
         0.553899; 0.365462;,
         0.569541; 0.365462;,
         0.569541; 0.421987;,
         0.550903; 0.365467;,
         0.550903; 0.421992;,
         0.537794; 0.421992;,
         0.537794; 0.365467;,
         0.569541; 0.421987;,
         0.569541; 0.365462;,
         0.582051; 0.365462;,
         0.582052; 0.421987;,
         0.509659; 0.365467;,
         0.509659; 0.421992;,
         0.494009; 0.421992;,
         0.494009; 0.365467;,
         0.494009; 0.365467;,
         0.494009; 0.421992;,
         0.384476; 0.421992;,
         0.384476; 0.365467;,
         0.582052; 0.421987;,
         0.582051; 0.365462;,
         0.597764; 0.365461;,
         0.597764; 0.421987;,
         0.522144; 0.365467;,
         0.522144; 0.421992;,
         0.509659; 0.421992;,
         0.509659; 0.365467;,
         0.356253; 0.365467;,
         0.356253; 0.421992;,
         0.340612; 0.421992;,
         0.340612; 0.365467;,
         0.537794; 0.365467;,
         0.537794; 0.421992;,
         0.522144; 0.421992;,
         0.522144; 0.365467;,
         0.368764; 0.365467;,
         0.368764; 0.421992;,
         0.356253; 0.421992;,
         0.356253; 0.365467;,
         0.965814; 0.261619;,
         0.956753; 0.260427;,
         0.960803; 0.245309;,
         0.968927; 0.249999;,
         0.968927; 0.249999;,
         0.960803; 0.245309;,
         0.969631; 0.236481;,
         0.974321; 0.244605;,
         0.974321; 0.244605;,
         0.969631; 0.236481;,
         0.984748; 0.232430;,
         0.985941; 0.241491;,
         0.306774; 0.350173;,
         0.298650; 0.354863;,
         0.294598; 0.339746;,
         0.303659; 0.338553;,
         0.312168; 0.355567;,
         0.307478; 0.363691;,
         0.298650; 0.354863;,
         0.306774; 0.350173;,
         0.323788; 0.358679;,
         0.322596; 0.367741;,
         0.307478; 0.363691;,
         0.312168; 0.355567;,
         0.312184; 0.214299;,
         0.307486; 0.206179;,
         0.322592; 0.202122;,
         0.323788; 0.211183;,
         0.306777; 0.219718;,
         0.298650; 0.215035;,
         0.307486; 0.206179;,
         0.312184; 0.214299;,
         0.303653; 0.231404;,
         0.294592; 0.230214;,
         0.298650; 0.215035;,
         0.306777; 0.219718;,
         0.985955; 0.388988;,
         0.984760; 0.398049;,
         0.969654; 0.393993;,
         0.974351; 0.385872;,
         0.974351; 0.385872;,
         0.969654; 0.393993;,
         0.960816; 0.385138;,
         0.968943; 0.380454;,
         0.968943; 0.380454;,
         0.960816; 0.385138;,
         0.956757; 0.369959;,
         0.965818; 0.368768;,
         0.303659; 0.338553;,
         0.294598; 0.339746;,
         0.294592; 0.230214;,
         0.303653; 0.231404;,
         0.996661; 0.388987;,
         0.997857; 0.398048;,
         0.984760; 0.398049;,
         0.985955; 0.388988;,
         0.985941; 0.241491;,
         0.984748; 0.232430;,
         0.997857; 0.232429;,
         0.996664; 0.241490;,
         0.965818; 0.368768;,
         0.956757; 0.369959;,
         0.956753; 0.260427;,
         0.965814; 0.261619;,
         0.060415; 0.394065;,
         0.049710; 0.394065;,
         0.038105; 0.390949;,
         0.032698; 0.385530;,
         0.029573; 0.373844;,
         0.029573; 0.266696;,
         0.032687; 0.255076;,
         0.038081; 0.249681;,
         0.049701; 0.246568;,
         0.060424; 0.246568;,
         0.072044; 0.249681;,
         0.077438; 0.255076;,
         0.080552; 0.266696;,
         0.080552; 0.373844;,
         0.077427; 0.385530;,
         0.072020; 0.390949;,
         0.357314; 0.353615;,
         0.357314; 0.362149;,
         0.349659; 0.362150;,
         0.349659; 0.353615;,
         0.553646; 0.353610;,
         0.553646; 0.362145;,
         0.541616; 0.362145;,
         0.541616; 0.353610;,
         0.369410; 0.353615;,
         0.369410; 0.362150;,
         0.357314; 0.362149;,
         0.357314; 0.353615;,
         0.541616; 0.353610;,
         0.541616; 0.362145;,
         0.533987; 0.362145;,
         0.533987; 0.353610;,
         0.660795; 0.353610;,
         0.660795; 0.362145;,
         0.553646; 0.362145;,
         0.553646; 0.353610;,
         0.533987; 0.353610;,
         0.533987; 0.362145;,
         0.521957; 0.362145;,
         0.521957; 0.353610;,
         0.337643; 0.353615;,
         0.337643; 0.362150;,
         0.326937; 0.362150;,
         0.326937; 0.353615;,
         0.692562; 0.353610;,
         0.692562; 0.362145;,
         0.680546; 0.362145;,
         0.680546; 0.353611;,
         0.518970; 0.353615;,
         0.518970; 0.362150;,
         0.508247; 0.362150;,
         0.508247; 0.353615;,
         0.680546; 0.353611;,
         0.680546; 0.362145;,
         0.672891; 0.362145;,
         0.672891; 0.353611;,
         0.488588; 0.353615;,
         0.488588; 0.362150;,
         0.476559; 0.362149;,
         0.476559; 0.353615;,
         0.476559; 0.353615;,
         0.476559; 0.362149;,
         0.369410; 0.362150;,
         0.369410; 0.353615;,
         0.672891; 0.353611;,
         0.672891; 0.362145;,
         0.660795; 0.362145;,
         0.660795; 0.353610;,
         0.496217; 0.353615;,
         0.496217; 0.362149;,
         0.488588; 0.362150;,
         0.488588; 0.353615;,
         0.349659; 0.353615;,
         0.349659; 0.362150;,
         0.337643; 0.362150;,
         0.337643; 0.353615;,
         0.001496; 0.641396;,
         0.001496; 0.616413;,
         0.998505; 0.616413;,
         0.998505; 0.641396;,
         0.001496; 0.979279;,
         0.001496; 0.954346;,
         0.998504; 0.954346;,
         0.998504; 0.979279;,
         0.001496; 0.954346;,
         0.001496; 0.929412;,
         0.998504; 0.929412;,
         0.998504; 0.954346;,
         0.001496; 0.691292;,
         0.001496; 0.666355;,
         0.998504; 0.666355;,
         0.998504; 0.691292;,
         0.001496; 0.929412;,
         0.001496; 0.904479;,
         0.998504; 0.904479;,
         0.998504; 0.929412;,
         0.001496; 0.666355;,
         0.001496; 0.641396;,
         0.998505; 0.641396;,
         0.998504; 0.666355;,
         0.273206; 0.377614;,
         0.163674; 0.377614;,
         0.160615; 0.354383;,
         0.276258; 0.354383;,
         0.025582; 0.216361;,
         0.037607; 0.237189;,
         0.028779; 0.246017;,
         0.007951; 0.233992;,
         0.049666; 0.209908;,
         0.052724; 0.233138;,
         0.037607; 0.237189;,
         0.025582; 0.216361;,
         0.068891; 0.209908;,
         0.065833; 0.233138;,
         0.052724; 0.233138;,
         0.049666; 0.209908;,
         0.092975; 0.216361;,
         0.080950; 0.237189;,
         0.065833; 0.233138;,
         0.068891; 0.209908;,
         0.110606; 0.233992;,
         0.089778; 0.246016;,
         0.080950; 0.237189;,
         0.092975; 0.216361;,
         0.117059; 0.258075;,
         0.093829; 0.261134;,
         0.089778; 0.246016;,
         0.110606; 0.233992;,
         0.117059; 0.373718;,
         0.093829; 0.370666;,
         0.093829; 0.261134;,
         0.117059; 0.258075;,
         0.110606; 0.397853;,
         0.089770; 0.385845;,
         0.093829; 0.370666;,
         0.117059; 0.373718;,
         0.092975; 0.415520;,
         0.080933; 0.394701;,
         0.089770; 0.385845;,
         0.110606; 0.397853;,
         0.068891; 0.421987;,
         0.065827; 0.398757;,
         0.080933; 0.394701;,
         0.092975; 0.415520;,
         0.049666; 0.421987;,
         0.052730; 0.398757;,
         0.065827; 0.398757;,
         0.068891; 0.421987;,
         0.025582; 0.415520;,
         0.037624; 0.394701;,
         0.052730; 0.398757;,
         0.049666; 0.421987;,
         0.007951; 0.397853;,
         0.028787; 0.385845;,
         0.037624; 0.394701;,
         0.025582; 0.415520;,
         0.001498; 0.373718;,
         0.024728; 0.370666;,
         0.028787; 0.385845;,
         0.007951; 0.397853;,
         0.001498; 0.258075;,
         0.024728; 0.261134;,
         0.024728; 0.370666;,
         0.001498; 0.373718;,
         0.007951; 0.233992;,
         0.028779; 0.246017;,
         0.024728; 0.261134;,
         0.001498; 0.258075;,
         0.758139; 0.409097;,
         0.782174; 0.421993;,
         0.766995; 0.417934;,
         0.782174; 0.421993;,
         0.891706; 0.352892;,
         0.891706; 0.421993;,
         0.891706; 0.421993;,
         0.919702; 0.393997;,
         0.906823; 0.417942;,
         0.891706; 0.352892;,
         0.919702; 0.393997;,
         0.891706; 0.421993;,
         0.906823; 0.417942;,
         0.919702; 0.393997;,
         0.915651; 0.409114;,
         0.919702; 0.393997;,
         0.891706; 0.352892;,
         0.919702; 0.380888;,
         0.919702; 0.380888;,
         0.891706; 0.352892;,
         0.915651; 0.365771;,
         0.915651; 0.365771;,
         0.891706; 0.352892;,
         0.906823; 0.356943;,
         0.891706; 0.352892;,
         0.782174; 0.421993;,
         0.782174; 0.352892;,
         0.782174; 0.352892;,
         0.754083; 0.380894;,
         0.766995; 0.356951;,
         0.782174; 0.421993;,
         0.754083; 0.380894;,
         0.782174; 0.352892;,
         0.766995; 0.356951;,
         0.754083; 0.380894;,
         0.758139; 0.365788;,
         0.754083; 0.380894;,
         0.782174; 0.421993;,
         0.754083; 0.393991;,
         0.754083; 0.393991;,
         0.782174; 0.421993;,
         0.758139; 0.409097;;
      }
      MeshMaterialList {
        1;
        111;
        0,
        0,
        0,
        0,
        0,
        0,
        0,
        0,
        0,
        0,
        0,
        0,
        0,
        0,
        0,
        0,
        0,
        0,
        0,
        0,
        0,
        0,
        0,
        0,
        0,
        0,
        0,
        0,
        0,
        0,
        0,
        0,
        0,
        0,
        0,
        0,
        0,
        0,
        0,
        0,
        0,
        0,
        0,
        0,
        0,
        0,
        0,
        0,
        0,
        0,
        0,
        0,
        0,
        0,
        0,
        0,
        0,
        0,
        0,
        0,
        0,
        0,
        0,
        0,
        0,
        0,
        0,
        0,
        0,
        0,
        0,
        0,
        0,
        0,
        0,
        0,
        0,
        0,
        0,
        0,
        0,
        0,
        0,
        0,
        0,
        0,
        0,
        0,
        0,
        0,
        0,
        0,
        0,
        0,
        0,
        0,
        0,
        0,
        0,
        0,
        0,
        0,
        0,
        0,
        0,
        0,
        0,
        0,
        0,
        0,
        0;
        Material svd2 {
           0.800000; 0.800000; 0.800000; 1.000000;;
           225.000000;
           0.500000; 0.500000; 0.500000;;
           0.000000; 0.000000; 0.000000;;
        }
      }
    }
  }
}
