xof 0303txt 0032

Frame Root {
  FrameTransformMatrix {
     1.000000, 0.000000, 0.000000, 0.000000,
     0.000000,-0.000000, 1.000000, 0.000000,
     0.000000, 1.000000, 0.000000, 0.000000,
     0.000000, 0.000000, 0.000000, 1.000000;;
  }
  Frame Cylinder_001 {
    FrameTransformMatrix {
       1.000000, 0.000000, 0.000000, 0.000000,
       0.000000, 1.000000, 0.000000, 0.000000,
       0.000000, 0.000000, 1.000000, 0.000000,
       0.000000, 0.000000, 0.000000, 1.000000;;
    }
    Mesh {
      557;
       0.000000; 0.065315; 0.014440;,
       0.003037; 0.065315; 0.013626;,
       0.003037;-0.006075; 0.013626;,
       0.000000;-0.006075; 0.014440;,
       0.003037; 0.065315; 0.013626;,
       0.005261; 0.065315; 0.011403;,
       0.005261;-0.006075; 0.011403;,
       0.003037;-0.006075; 0.013626;,
       0.005261; 0.065315; 0.011403;,
       0.006075; 0.065315; 0.008365;,
       0.006075;-0.006075; 0.008365;,
       0.005261;-0.006075; 0.011403;,
       0.006075; 0.065315; 0.008365;,
       0.005261; 0.065315; 0.005328;,
       0.005261;-0.006075; 0.005328;,
       0.006075;-0.006075; 0.008365;,
       0.005261; 0.065315; 0.005328;,
       0.003037; 0.065315; 0.003105;,
       0.003037;-0.006075; 0.003105;,
       0.005261;-0.006075; 0.005328;,
       0.003037; 0.065315; 0.003105;,
      -0.000000; 0.065315; 0.002291;,
      -0.000000;-0.006075; 0.002291;,
       0.003037;-0.006075; 0.003105;,
      -0.000000; 0.065315; 0.002291;,
      -0.003037; 0.065315; 0.003105;,
      -0.003037;-0.006075; 0.003105;,
      -0.000000;-0.006075; 0.002291;,
      -0.003037; 0.065315; 0.003105;,
      -0.005261; 0.065315; 0.005328;,
      -0.005261;-0.006075; 0.005328;,
      -0.003037;-0.006075; 0.003105;,
      -0.005261; 0.065315; 0.005328;,
      -0.006075; 0.065315; 0.008365;,
      -0.006075;-0.006075; 0.008365;,
      -0.005261;-0.006075; 0.005328;,
      -0.006075; 0.065315; 0.008365;,
      -0.005261; 0.065315; 0.011403;,
      -0.005261;-0.006075; 0.011403;,
      -0.006075;-0.006075; 0.008365;,
       0.003037;-0.006075; 0.013626;,
       0.005261;-0.006075; 0.011403;,
       0.006075;-0.006075; 0.008365;,
       0.005261;-0.006075; 0.005328;,
       0.003037;-0.006075; 0.003105;,
      -0.000000;-0.006075; 0.002291;,
      -0.003037;-0.006075; 0.003105;,
      -0.005261;-0.006075; 0.005328;,
      -0.006075;-0.006075; 0.008365;,
      -0.005261;-0.006075; 0.011403;,
      -0.003037;-0.006075; 0.013626;,
       0.000000;-0.006075; 0.014440;,
      -0.005261; 0.065315; 0.011403;,
      -0.003037; 0.065315; 0.013626;,
      -0.003037;-0.006075; 0.013626;,
      -0.005261;-0.006075; 0.011403;,
      -0.003037; 0.065315; 0.013626;,
       0.000000; 0.065315; 0.014440;,
       0.000000;-0.006075; 0.014440;,
      -0.003037;-0.006075; 0.013626;,
      -0.004880; 0.065315; 0.009127;,
      -0.004880; 0.077585; 0.009127;,
      -0.004226; 0.077585; 0.011567;,
      -0.004226; 0.065315; 0.011567;,
       0.002440; 0.065315; 0.013353;,
       0.003037; 0.065315; 0.013626;,
       0.000000; 0.065315; 0.014440;,
       0.000000; 0.065315; 0.014007;,
       0.004226; 0.065315; 0.011567;,
       0.005261; 0.065315; 0.011403;,
       0.003037; 0.065315; 0.013626;,
       0.002440; 0.065315; 0.013353;,
       0.004880; 0.065315; 0.009127;,
       0.006075; 0.065315; 0.008365;,
       0.005261; 0.065315; 0.011403;,
       0.004226; 0.065315; 0.011567;,
       0.004226; 0.065315; 0.006688;,
       0.005261; 0.065315; 0.005328;,
       0.006075; 0.065315; 0.008365;,
       0.004880; 0.065315; 0.009127;,
       0.002440; 0.065315; 0.004901;,
       0.003037; 0.065315; 0.003105;,
       0.005261; 0.065315; 0.005328;,
       0.004226; 0.065315; 0.006688;,
      -0.000000; 0.065315; 0.004248;,
      -0.000000; 0.065315; 0.002291;,
       0.003037; 0.065315; 0.003105;,
       0.002440; 0.065315; 0.004901;,
      -0.002440; 0.065315; 0.004901;,
      -0.003037; 0.065315; 0.003105;,
      -0.000000; 0.065315; 0.002291;,
      -0.000000; 0.065315; 0.004248;,
      -0.004226; 0.065315; 0.006688;,
      -0.005261; 0.065315; 0.005328;,
      -0.003037; 0.065315; 0.003105;,
      -0.002440; 0.065315; 0.004901;,
      -0.004880; 0.065315; 0.009127;,
      -0.006075; 0.065315; 0.008365;,
      -0.005261; 0.065315; 0.005328;,
      -0.004226; 0.065315; 0.006688;,
      -0.004226; 0.065315; 0.011567;,
      -0.005261; 0.065315; 0.011403;,
      -0.006075; 0.065315; 0.008365;,
      -0.004880; 0.065315; 0.009127;,
      -0.002440; 0.065315; 0.013353;,
      -0.003037; 0.065315; 0.013626;,
      -0.005261; 0.065315; 0.011403;,
      -0.004226; 0.065315; 0.011567;,
       0.000000; 0.065315; 0.014007;,
       0.000000; 0.065315; 0.014440;,
      -0.003037; 0.065315; 0.013626;,
      -0.002440; 0.065315; 0.013353;,
      -0.000000; 0.077585; 0.014007;,
      -0.002440; 0.077585; 0.013353;,
      -0.004226; 0.077585; 0.011567;,
      -0.004880; 0.077585; 0.009127;,
      -0.004226; 0.077585; 0.006688;,
      -0.002440; 0.077585; 0.004901;,
      -0.000000; 0.077585; 0.004248;,
       0.002440; 0.077585; 0.004901;,
       0.004226; 0.077585; 0.006688;,
       0.004880; 0.077585; 0.009127;,
       0.004226; 0.077585; 0.011567;,
       0.002440; 0.077585; 0.013353;,
      -0.000000; 0.065315; 0.004248;,
      -0.000000; 0.077585; 0.004248;,
      -0.002440; 0.077585; 0.004901;,
      -0.002440; 0.065315; 0.004901;,
       0.004880; 0.065315; 0.009127;,
       0.004880; 0.077585; 0.009127;,
       0.004226; 0.077585; 0.006688;,
       0.004226; 0.065315; 0.006688;,
      -0.004226; 0.065315; 0.011567;,
      -0.004226; 0.077585; 0.011567;,
      -0.002440; 0.077585; 0.013353;,
      -0.002440; 0.065315; 0.013353;,
       0.000000; 0.065315; 0.014007;,
      -0.000000; 0.077585; 0.014007;,
       0.002440; 0.077585; 0.013353;,
       0.002440; 0.065315; 0.013353;,
      -0.002440; 0.065315; 0.004901;,
      -0.002440; 0.077585; 0.004901;,
      -0.004226; 0.077585; 0.006688;,
      -0.004226; 0.065315; 0.006688;,
       0.004226; 0.065315; 0.006688;,
       0.004226; 0.077585; 0.006688;,
       0.002440; 0.077585; 0.004901;,
       0.002440; 0.065315; 0.004901;,
      -0.002440; 0.065315; 0.013353;,
      -0.002440; 0.077585; 0.013353;,
      -0.000000; 0.077585; 0.014007;,
       0.000000; 0.065315; 0.014007;,
       0.002440; 0.065315; 0.013353;,
       0.002440; 0.077585; 0.013353;,
       0.004226; 0.077585; 0.011567;,
       0.004226; 0.065315; 0.011567;,
      -0.004226; 0.065315; 0.006688;,
      -0.004226; 0.077585; 0.006688;,
      -0.004880; 0.077585; 0.009127;,
      -0.004880; 0.065315; 0.009127;,
       0.002440; 0.065315; 0.004901;,
       0.002440; 0.077585; 0.004901;,
      -0.000000; 0.077585; 0.004248;,
      -0.000000; 0.065315; 0.004248;,
       0.004226; 0.065315; 0.011567;,
       0.004226; 0.077585; 0.011567;,
       0.004880; 0.077585; 0.009127;,
       0.004880; 0.065315; 0.009127;,
      -0.015259;-0.104452;-0.026933;,
      -0.015259;-0.095334;-0.024753;,
      -0.015259;-0.095334; 0.000969;,
      -0.015259;-0.104452; 0.000969;,
      -0.011212;-0.115746;-0.027682;,
       0.000000;-0.115746;-0.029554;,
       0.000000;-0.104452;-0.032966;,
      -0.011212;-0.104452;-0.031094;,
      -0.015259;-0.104452; 0.000969;,
       0.000000;-0.104452; 0.000969;,
       0.000000;-0.115746; 0.000969;,
      -0.015259;-0.115746; 0.000969;,
       0.000000;-0.115746;-0.029554;,
      -0.011212;-0.115746;-0.027682;,
      -0.015259;-0.115746;-0.023515;,
      -0.015259;-0.115746; 0.000969;,
       0.000000;-0.115746; 0.000969;,
      -0.000000;-0.012254;-0.025313;,
      -0.000000; 0.008626;-0.021880;,
      -0.008063; 0.008626;-0.020008;,
      -0.008860;-0.012254;-0.023441;,
       0.000000;-0.095334;-0.030772;,
       0.000000;-0.083088;-0.026385;,
      -0.011212;-0.083088;-0.024513;,
      -0.011212;-0.095334;-0.028900;,
      -0.008063; 0.008626;-0.020008;,
      -0.000000; 0.008626;-0.021880;,
      -0.000000; 0.008626; 0.000969;,
      -0.011557; 0.008626; 0.000969;,
      -0.012110; 0.008626;-0.015899;,
      -0.015259;-0.083088;-0.020381;,
      -0.015259;-0.078780;-0.020329;,
      -0.012657;-0.078780; 0.000969;,
      -0.015259;-0.083088; 0.000969;,
       0.000000;-0.083088;-0.026385;,
       0.000000;-0.078780;-0.026320;,
      -0.011212;-0.078780;-0.024448;,
      -0.011212;-0.083088;-0.024513;,
      -0.015259;-0.095334; 0.000969;,
      -0.015259;-0.083088; 0.000969;,
       0.000000;-0.083088; 0.000969;,
       0.000000;-0.095334; 0.000969;,
      -0.015259;-0.104452; 0.000969;,
      -0.015259;-0.095334; 0.000969;,
       0.000000;-0.095334; 0.000969;,
       0.000000;-0.104452; 0.000969;,
      -0.012907;-0.012254;-0.019331;,
      -0.012110; 0.008626;-0.015899;,
      -0.011557; 0.008626; 0.000969;,
      -0.012354;-0.012254; 0.000969;,
       0.000000;-0.104452;-0.032966;,
       0.000000;-0.095334;-0.030772;,
      -0.011212;-0.095334;-0.028900;,
      -0.011212;-0.104452;-0.031094;,
      -0.015259;-0.078780;-0.020329;,
      -0.015259;-0.040701;-0.019760;,
      -0.014705;-0.040701; 0.000969;,
      -0.012657;-0.078780; 0.000969;,
      -0.015259;-0.095334;-0.024753;,
      -0.015259;-0.083088;-0.020381;,
      -0.015259;-0.083088; 0.000969;,
      -0.015259;-0.095334; 0.000969;,
      -0.015259;-0.083088; 0.000969;,
      -0.012657;-0.078780; 0.000969;,
       0.000000;-0.078780; 0.000969;,
       0.000000;-0.083088; 0.000969;,
       0.000000;-0.078780;-0.026320;,
      -0.000000;-0.040701;-0.025744;,
      -0.011212;-0.040701;-0.023872;,
      -0.011212;-0.078780;-0.024448;,
      -0.011212;-0.104452;-0.031094;,
      -0.015259;-0.104452;-0.026933;,
      -0.015259;-0.115746;-0.023515;,
      -0.011212;-0.115746;-0.027682;,
      -0.012907;-0.012254;-0.019331;,
      -0.008860;-0.012254;-0.023441;,
      -0.008063; 0.008626;-0.020008;,
      -0.012110; 0.008626;-0.015899;,
      -0.015259;-0.095334;-0.024753;,
      -0.011212;-0.095334;-0.028900;,
      -0.011212;-0.083088;-0.024513;,
      -0.015259;-0.083088;-0.020381;,
      -0.015259;-0.104452;-0.026933;,
      -0.011212;-0.104452;-0.031094;,
      -0.011212;-0.095334;-0.028900;,
      -0.015259;-0.095334;-0.024753;,
      -0.015259;-0.083088;-0.020381;,
      -0.011212;-0.083088;-0.024513;,
      -0.011212;-0.078780;-0.024448;,
      -0.015259;-0.078780;-0.020329;,
      -0.015259;-0.078780;-0.020329;,
      -0.011212;-0.078780;-0.024448;,
      -0.011212;-0.040701;-0.023872;,
      -0.015259;-0.040701;-0.019760;,
      -0.015259;-0.115746;-0.023515;,
      -0.015259;-0.104452;-0.026933;,
      -0.015259;-0.104452; 0.000969;,
      -0.015259;-0.115746; 0.000969;,
       0.015259;-0.104452;-0.026933;,
       0.015259;-0.104452; 0.000969;,
       0.015259;-0.095334; 0.000969;,
       0.015259;-0.095334;-0.024753;,
       0.011212;-0.115746;-0.027682;,
       0.011212;-0.104452;-0.031094;,
       0.000000;-0.104452;-0.032966;,
       0.000000;-0.115746;-0.029554;,
       0.015259;-0.104452; 0.000969;,
       0.015259;-0.115746; 0.000969;,
       0.000000;-0.115746; 0.000969;,
       0.000000;-0.104452; 0.000969;,
       0.000000;-0.115746;-0.029554;,
       0.000000;-0.115746; 0.000969;,
       0.015259;-0.115746; 0.000969;,
       0.015259;-0.115746;-0.023515;,
       0.011212;-0.115746;-0.027682;,
      -0.000000;-0.012254;-0.025313;,
       0.008860;-0.012254;-0.023441;,
       0.008063; 0.008626;-0.020008;,
      -0.000000; 0.008626;-0.021880;,
       0.000000;-0.095334;-0.030772;,
       0.011212;-0.095334;-0.028900;,
       0.011212;-0.083088;-0.024513;,
       0.000000;-0.083088;-0.026385;,
       0.008063; 0.008626;-0.020008;,
       0.012110; 0.008626;-0.015899;,
       0.011557; 0.008626; 0.000969;,
      -0.000000; 0.008626; 0.000969;,
      -0.000000; 0.008626;-0.021880;,
       0.015259;-0.083088;-0.020381;,
       0.015259;-0.083088; 0.000969;,
       0.012657;-0.078780; 0.000969;,
       0.015259;-0.078780;-0.020329;,
       0.000000;-0.083088;-0.026385;,
       0.011212;-0.083088;-0.024513;,
       0.011212;-0.078780;-0.024448;,
       0.000000;-0.078780;-0.026320;,
       0.015259;-0.095334; 0.000969;,
       0.000000;-0.095334; 0.000969;,
       0.000000;-0.083088; 0.000969;,
       0.015259;-0.083088; 0.000969;,
       0.015259;-0.104452; 0.000969;,
       0.000000;-0.104452; 0.000969;,
       0.000000;-0.095334; 0.000969;,
       0.015259;-0.095334; 0.000969;,
       0.012907;-0.012254;-0.019331;,
       0.012354;-0.012254; 0.000969;,
       0.011557; 0.008626; 0.000969;,
       0.012110; 0.008626;-0.015899;,
       0.000000;-0.104452;-0.032966;,
       0.011212;-0.104452;-0.031094;,
       0.011212;-0.095334;-0.028900;,
       0.000000;-0.095334;-0.030772;,
       0.015259;-0.078780;-0.020329;,
       0.012657;-0.078780; 0.000969;,
       0.014705;-0.040701; 0.000969;,
       0.015259;-0.040701;-0.019760;,
       0.015259;-0.095334;-0.024753;,
       0.015259;-0.095334; 0.000969;,
       0.015259;-0.083088; 0.000969;,
       0.015259;-0.083088;-0.020381;,
       0.015259;-0.083088; 0.000969;,
       0.000000;-0.083088; 0.000969;,
       0.000000;-0.078780; 0.000969;,
       0.012657;-0.078780; 0.000969;,
       0.000000;-0.078780;-0.026320;,
       0.011212;-0.078780;-0.024448;,
       0.011212;-0.040701;-0.023872;,
      -0.000000;-0.040701;-0.025744;,
       0.011212;-0.104452;-0.031094;,
       0.011212;-0.115746;-0.027682;,
       0.015259;-0.115746;-0.023515;,
       0.015259;-0.104452;-0.026933;,
       0.012907;-0.012254;-0.019331;,
       0.012110; 0.008626;-0.015899;,
       0.008063; 0.008626;-0.020008;,
       0.008860;-0.012254;-0.023441;,
       0.015259;-0.095334;-0.024753;,
       0.015259;-0.083088;-0.020381;,
       0.011212;-0.083088;-0.024513;,
       0.011212;-0.095334;-0.028900;,
       0.015259;-0.104452;-0.026933;,
       0.015259;-0.095334;-0.024753;,
       0.011212;-0.095334;-0.028900;,
       0.011212;-0.104452;-0.031094;,
       0.015259;-0.083088;-0.020381;,
       0.015259;-0.078780;-0.020329;,
       0.011212;-0.078780;-0.024448;,
       0.011212;-0.083088;-0.024513;,
       0.015259;-0.078780;-0.020329;,
       0.015259;-0.040701;-0.019760;,
       0.011212;-0.040701;-0.023872;,
       0.011212;-0.078780;-0.024448;,
       0.015259;-0.115746;-0.023515;,
       0.015259;-0.115746; 0.000969;,
       0.015259;-0.104452; 0.000969;,
       0.015259;-0.104452;-0.026933;,
       0.013904;-0.040712; 0.000969;,
       0.013904;-0.040712; 0.014327;,
       0.011557;-0.012327; 0.014327;,
       0.011557;-0.012327; 0.000969;,
       0.011557;-0.012327; 0.000969;,
       0.011557;-0.012327; 0.014327;,
       0.010835;-0.005270; 0.014327;,
       0.010835;-0.005270; 0.000969;,
      -0.013904;-0.040712; 0.000969;,
      -0.013904;-0.040712; 0.014327;,
      -0.011899;-0.082312; 0.014327;,
      -0.011899;-0.082312; 0.000969;,
       0.015259;-0.040701;-0.019760;,
       0.012907;-0.012254;-0.019331;,
       0.008860;-0.012254;-0.023441;,
       0.011212;-0.040701;-0.023872;,
       0.015259;-0.040701;-0.019760;,
       0.014705;-0.040701; 0.000969;,
       0.012354;-0.012254; 0.000969;,
       0.012907;-0.012254;-0.019331;,
      -0.000000;-0.040701;-0.025744;,
       0.011212;-0.040701;-0.023872;,
       0.008860;-0.012254;-0.023441;,
      -0.000000;-0.012254;-0.025313;,
      -0.015259;-0.040701;-0.019760;,
      -0.011212;-0.040701;-0.023872;,
      -0.008860;-0.012254;-0.023441;,
      -0.012907;-0.012254;-0.019331;,
      -0.015259;-0.040701;-0.019760;,
      -0.012907;-0.012254;-0.019331;,
      -0.012354;-0.012254; 0.000969;,
      -0.014705;-0.040701; 0.000969;,
      -0.000000;-0.040701;-0.025744;,
      -0.000000;-0.012254;-0.025313;,
      -0.008860;-0.012254;-0.023441;,
      -0.011212;-0.040701;-0.023872;,
      -0.010835;-0.005270; 0.000969;,
      -0.011557; 0.008626; 0.000969;,
      -0.000000; 0.008626; 0.000969;,
      -0.000000;-0.005270; 0.000969;,
      -0.011899;-0.082312; 0.000969;,
      -0.012657;-0.078780; 0.000969;,
      -0.014705;-0.040701; 0.000969;,
      -0.013904;-0.040712; 0.000969;,
      -0.013904;-0.040712; 0.000969;,
      -0.014705;-0.040701; 0.000969;,
      -0.012354;-0.012254; 0.000969;,
      -0.011557;-0.012327; 0.000969;,
      -0.000000;-0.005270; 0.000969;,
      -0.000000; 0.008626; 0.000969;,
       0.011557; 0.008626; 0.000969;,
       0.010835;-0.005270; 0.000969;,
       0.013904;-0.040712; 0.000969;,
       0.014705;-0.040701; 0.000969;,
       0.012657;-0.078780; 0.000969;,
       0.011899;-0.082312; 0.000969;,
       0.011557;-0.012327; 0.000969;,
       0.012354;-0.012254; 0.000969;,
       0.014705;-0.040701; 0.000969;,
       0.013904;-0.040712; 0.000969;,
       0.011899;-0.082312; 0.000969;,
       0.012657;-0.078780; 0.000969;,
      -0.012657;-0.078780; 0.000969;,
      -0.011899;-0.082312; 0.000969;,
      -0.011557;-0.012327; 0.000969;,
      -0.012354;-0.012254; 0.000969;,
      -0.011557; 0.008626; 0.000969;,
      -0.010835;-0.005270; 0.000969;,
       0.010835;-0.005270; 0.000969;,
       0.011557; 0.008626; 0.000969;,
       0.012354;-0.012254; 0.000969;,
       0.011557;-0.012327; 0.000969;,
      -0.013904;-0.040712; 0.014327;,
      -0.008937;-0.040712; 0.019787;,
      -0.007648;-0.082312; 0.019787;,
      -0.011899;-0.082312; 0.014327;,
       0.011899;-0.082312; 0.014327;,
       0.007648;-0.082312; 0.019787;,
       0.008937;-0.040712; 0.019787;,
       0.013904;-0.040712; 0.014327;,
       0.011557;-0.012327; 0.014327;,
       0.007429;-0.012327; 0.019787;,
       0.006965;-0.005270; 0.019787;,
       0.010835;-0.005270; 0.014327;,
      -0.011557;-0.012327; 0.000969;,
      -0.011557;-0.012327; 0.014327;,
      -0.013904;-0.040712; 0.014327;,
      -0.013904;-0.040712; 0.000969;,
      -0.011899;-0.082312; 0.000969;,
      -0.011899;-0.082312; 0.014327;,
       0.011899;-0.082312; 0.014327;,
       0.011899;-0.082312; 0.000969;,
       0.010835;-0.005270; 0.000969;,
       0.010835;-0.005270; 0.014327;,
      -0.000000;-0.005270; 0.014327;,
      -0.000000;-0.005270; 0.000969;,
      -0.000000;-0.005270; 0.000969;,
      -0.000000;-0.005270; 0.014327;,
      -0.010835;-0.005270; 0.014327;,
      -0.010835;-0.005270; 0.000969;,
      -0.010835;-0.005270; 0.000969;,
      -0.010835;-0.005270; 0.014327;,
      -0.011557;-0.012327; 0.014327;,
      -0.011557;-0.012327; 0.000969;,
       0.011899;-0.082312; 0.000969;,
       0.011899;-0.082312; 0.014327;,
       0.013904;-0.040712; 0.014327;,
       0.013904;-0.040712; 0.000969;,
      -0.007429;-0.012327; 0.019787;,
       0.007429;-0.012327; 0.019787;,
       0.008937;-0.040712; 0.019787;,
      -0.008937;-0.040712; 0.019787;,
      -0.007648;-0.082312; 0.019787;,
      -0.008937;-0.040712; 0.019787;,
       0.008937;-0.040712; 0.019787;,
       0.007648;-0.082312; 0.019787;,
      -0.006965;-0.005270; 0.019787;,
      -0.000000;-0.005270; 0.019787;,
       0.006965;-0.005270; 0.019787;,
       0.007429;-0.012327; 0.019787;,
      -0.007429;-0.012327; 0.019787;,
      -0.011899;-0.082312; 0.014327;,
      -0.007648;-0.082312; 0.019787;,
       0.007648;-0.082312; 0.019787;,
       0.011899;-0.082312; 0.014327;,
       0.013904;-0.040712; 0.014327;,
       0.008937;-0.040712; 0.019787;,
       0.007429;-0.012327; 0.019787;,
       0.011557;-0.012327; 0.014327;,
      -0.011557;-0.012327; 0.014327;,
      -0.007429;-0.012327; 0.019787;,
      -0.008937;-0.040712; 0.019787;,
      -0.013904;-0.040712; 0.014327;,
      -0.010835;-0.005270; 0.014327;,
      -0.006965;-0.005270; 0.019787;,
      -0.007429;-0.012327; 0.019787;,
      -0.011557;-0.012327; 0.014327;,
       0.006965;-0.005270; 0.019787;,
       0.006965; 0.071989; 0.019787;,
       0.010835; 0.071989; 0.014327;,
       0.010835;-0.005270; 0.014327;,
      -0.000000;-0.005270; 0.019787;,
      -0.000000; 0.071989; 0.019787;,
       0.006965; 0.071989; 0.019787;,
       0.006965;-0.005270; 0.019787;,
       0.010835; 0.071989; 0.014327;,
       0.005393; 0.078866; 0.014327;,
      -0.000000; 0.078866; 0.014327;,
      -0.000000; 0.071989; 0.014327;,
      -0.000000; 0.071989; 0.019787;,
      -0.000000; 0.078866; 0.019787;,
       0.003466; 0.078866; 0.019880;,
       0.006965; 0.071989; 0.019787;,
      -0.000000;-0.005270; 0.014327;,
      -0.000000; 0.071989; 0.014327;,
      -0.010835; 0.071989; 0.014327;,
      -0.010835;-0.005270; 0.014327;,
      -0.010835;-0.005270; 0.014327;,
      -0.010835; 0.071989; 0.014327;,
      -0.006965; 0.071989; 0.019787;,
      -0.006965;-0.005270; 0.019787;,
      -0.006965;-0.005270; 0.019787;,
      -0.006965; 0.071989; 0.019787;,
      -0.000000; 0.071989; 0.019787;,
      -0.000000;-0.005270; 0.019787;,
       0.010835;-0.005270; 0.014327;,
       0.010835; 0.071989; 0.014327;,
      -0.000000; 0.071989; 0.014327;,
      -0.000000;-0.005270; 0.014327;,
       0.005393; 0.078866; 0.014327;,
       0.003466; 0.078866; 0.019880;,
      -0.000000; 0.078866; 0.019787;,
      -0.000000; 0.078866; 0.014327;,
      -0.000000; 0.078866; 0.014327;,
      -0.000000; 0.078866; 0.019787;,
      -0.003466; 0.078866; 0.019787;,
      -0.005393; 0.078866; 0.014327;,
       0.006965; 0.071989; 0.019787;,
       0.003466; 0.078866; 0.019880;,
       0.005393; 0.078866; 0.014327;,
       0.010835; 0.071989; 0.014327;,
      -0.010835; 0.071989; 0.014327;,
      -0.005393; 0.078866; 0.014327;,
      -0.003466; 0.078866; 0.019787;,
      -0.006965; 0.071989; 0.019787;,
      -0.006965; 0.071989; 0.019787;,
      -0.003466; 0.078866; 0.019787;,
      -0.000000; 0.078866; 0.019787;,
      -0.000000; 0.071989; 0.019787;,
      -0.000000; 0.071989; 0.014327;,
      -0.000000; 0.078866; 0.014327;,
      -0.005393; 0.078866; 0.014327;,
      -0.010835; 0.071989; 0.014327;;
      134;
      4;3,2,1,0;,
      4;7,6,5,4;,
      4;11,10,9,8;,
      4;15,14,13,12;,
      4;19,18,17,16;,
      4;23,22,21,20;,
      4;27,26,25,24;,
      4;31,30,29,28;,
      4;35,34,33,32;,
      4;39,38,37,36;,
      12;51,50,49,48,47,46,45,44,43,42,41,40;,
      4;55,54,53,52;,
      4;59,58,57,56;,
      4;63,62,61,60;,
      4;67,66,65,64;,
      4;71,70,69,68;,
      4;75,74,73,72;,
      4;79,78,77,76;,
      4;83,82,81,80;,
      4;87,86,85,84;,
      4;91,90,89,88;,
      4;95,94,93,92;,
      4;99,98,97,96;,
      4;103,102,101,100;,
      4;107,106,105,104;,
      4;111,110,109,108;,
      12;123,122,121,120,119,118,117,116,115,114,113,112;,
      4;127,126,125,124;,
      4;131,130,129,128;,
      4;135,134,133,132;,
      4;139,138,137,136;,
      4;143,142,141,140;,
      4;147,146,145,144;,
      4;151,150,149,148;,
      4;155,154,153,152;,
      4;159,158,157,156;,
      4;163,162,161,160;,
      4;167,166,165,164;,
      4;171,170,169,168;,
      4;175,174,173,172;,
      4;179,178,177,176;,
      5;184,183,182,181,180;,
      4;188,187,186,185;,
      4;192,191,190,189;,
      5;197,196,195,194,193;,
      4;201,200,199,198;,
      4;205,204,203,202;,
      4;209,208,207,206;,
      4;213,212,211,210;,
      4;217,216,215,214;,
      4;221,220,219,218;,
      4;225,224,223,222;,
      4;229,228,227,226;,
      4;233,232,231,230;,
      4;237,236,235,234;,
      4;241,240,239,238;,
      4;245,244,243,242;,
      4;249,248,247,246;,
      4;253,252,251,250;,
      4;257,256,255,254;,
      4;261,260,259,258;,
      4;265,264,263,262;,
      4;269,268,267,266;,
      4;273,272,271,270;,
      4;277,276,275,274;,
      5;282,281,280,279,278;,
      4;286,285,284,283;,
      4;290,289,288,287;,
      5;295,294,293,292,291;,
      4;299,298,297,296;,
      4;303,302,301,300;,
      4;307,306,305,304;,
      4;311,310,309,308;,
      4;315,314,313,312;,
      4;319,318,317,316;,
      4;323,322,321,320;,
      4;327,326,325,324;,
      4;331,330,329,328;,
      4;335,334,333,332;,
      4;339,338,337,336;,
      4;343,342,341,340;,
      4;347,346,345,344;,
      4;351,350,349,348;,
      4;355,354,353,352;,
      4;359,358,357,356;,
      4;363,362,361,360;,
      4;367,366,365,364;,
      4;371,370,369,368;,
      4;375,374,373,372;,
      4;379,378,377,376;,
      4;383,382,381,380;,
      4;387,386,385,384;,
      4;391,390,389,388;,
      4;395,394,393,392;,
      4;399,398,397,396;,
      4;403,402,401,400;,
      4;407,406,405,404;,
      4;411,410,409,408;,
      4;415,414,413,412;,
      4;419,418,417,416;,
      4;423,422,421,420;,
      4;427,426,425,424;,
      4;431,430,429,428;,
      4;435,434,433,432;,
      4;439,438,437,436;,
      4;443,442,441,440;,
      4;447,446,445,444;,
      4;451,450,449,448;,
      4;455,454,453,452;,
      4;459,458,457,456;,
      4;463,462,461,460;,
      4;467,466,465,464;,
      4;471,470,469,468;,
      4;475,474,473,472;,
      4;479,478,477,476;,
      5;484,483,482,481,480;,
      4;488,487,486,485;,
      4;492,491,490,489;,
      4;496,495,494,493;,
      4;500,499,498,497;,
      4;504,503,502,501;,
      4;508,507,506,505;,
      4;512,511,510,509;,
      4;516,515,514,513;,
      4;520,519,518,517;,
      4;524,523,522,521;,
      4;528,527,526,525;,
      4;532,531,530,529;,
      4;536,535,534,533;,
      4;540,539,538,537;,
      4;544,543,542,541;,
      4;548,547,546,545;,
      4;552,551,550,549;,
      4;556,555,554,553;;
      MeshNormals {
        264;
         0.000000;-0.653229;-0.757161;,
        -0.378582;-0.653228;-0.655720;,
        -0.378581; 0.653227;-0.655722;,
         0.000000; 0.653227;-0.757162;,
        -0.378582;-0.653228;-0.655720;,
        -0.655722;-0.653227;-0.378580;,
        -0.655722; 0.653227;-0.378581;,
        -0.378581; 0.653227;-0.655722;,
        -0.655722;-0.653227;-0.378580;,
        -0.757162;-0.653227; 0.000000;,
        -0.757162; 0.653227; 0.000000;,
        -0.655722; 0.653227;-0.378581;,
        -0.757162;-0.653227; 0.000000;,
        -0.655722;-0.653227; 0.378582;,
        -0.655722; 0.653227; 0.378581;,
        -0.757162; 0.653227; 0.000000;,
        -0.655722;-0.653227; 0.378582;,
        -0.378581;-0.653226; 0.655722;,
        -0.378581; 0.653227; 0.655722;,
        -0.655722; 0.653227; 0.378581;,
        -0.378581;-0.653226; 0.655722;,
         0.000000;-0.653227; 0.757162;,
         0.000000; 0.653227; 0.757162;,
        -0.378581; 0.653227; 0.655722;,
         0.000000;-0.653227; 0.757162;,
         0.378581;-0.653227; 0.655721;,
         0.378581; 0.653227; 0.655722;,
         0.000000; 0.653227; 0.757162;,
         0.378581;-0.653227; 0.655721;,
         0.655722;-0.653227; 0.378580;,
         0.655722; 0.653227; 0.378581;,
         0.378581; 0.653227; 0.655722;,
         0.655722;-0.653227; 0.378580;,
         0.757162;-0.653227; 0.000000;,
         0.757162; 0.653227; 0.000000;,
         0.655722; 0.653227; 0.378581;,
         0.757162;-0.653227; 0.000000;,
         0.655722;-0.653227;-0.378582;,
         0.655722; 0.653227;-0.378581;,
         0.757162; 0.653227; 0.000000;,
        -0.378581; 0.653227;-0.655722;,
        -0.655722; 0.653227;-0.378581;,
        -0.757162; 0.653227; 0.000000;,
        -0.655722; 0.653227; 0.378581;,
        -0.378581; 0.653227; 0.655722;,
         0.000000; 0.653227; 0.757162;,
         0.378581; 0.653227; 0.655722;,
         0.655722; 0.653227; 0.378581;,
         0.757162; 0.653227; 0.000000;,
         0.655722; 0.653227;-0.378581;,
         0.378581; 0.653227;-0.655722;,
         0.000000; 0.653227;-0.757162;,
         0.655722;-0.653227;-0.378582;,
         0.378581;-0.653227;-0.655722;,
         0.378581; 0.653227;-0.655722;,
         0.655722; 0.653227;-0.378581;,
         0.378581;-0.653227;-0.655722;,
         0.000000;-0.653229;-0.757161;,
         0.000000; 0.653227;-0.757162;,
         0.378581; 0.653227;-0.655722;,
         0.637728;-0.770262;-0.000000;,
         0.757162;-0.653227; 0.000000;,
         0.655722;-0.653227;-0.378581;,
         0.552288;-0.770261;-0.318866;,
        -0.318864;-0.770262;-0.552288;,
        -0.378582;-0.653228;-0.655720;,
         0.000000;-0.653229;-0.757161;,
        -0.000000;-0.770264;-0.637725;,
        -0.552289;-0.770263;-0.318860;,
        -0.655722;-0.653227;-0.378580;,
        -0.378582;-0.653228;-0.655720;,
        -0.318864;-0.770262;-0.552288;,
        -0.637728;-0.770262; 0.000000;,
        -0.757162;-0.653227; 0.000000;,
        -0.655722;-0.653227;-0.378580;,
        -0.552289;-0.770263;-0.318860;,
        -0.552288;-0.770262; 0.318864;,
        -0.655722;-0.653227; 0.378582;,
        -0.757162;-0.653227; 0.000000;,
        -0.637728;-0.770262; 0.000000;,
        -0.318864;-0.770262; 0.552289;,
        -0.378581;-0.653226; 0.655722;,
        -0.655722;-0.653227; 0.378582;,
        -0.552288;-0.770262; 0.318864;,
         0.000000;-0.770262; 0.637728;,
         0.000000;-0.653227; 0.757162;,
        -0.378581;-0.653226; 0.655722;,
        -0.318864;-0.770262; 0.552289;,
         0.318864;-0.770262; 0.552287;,
         0.378581;-0.653227; 0.655721;,
         0.000000;-0.653227; 0.757162;,
         0.000000;-0.770262; 0.637728;,
         0.552289;-0.770262; 0.318863;,
         0.655722;-0.653227; 0.378580;,
         0.378581;-0.653227; 0.655721;,
         0.318864;-0.770262; 0.552287;,
         0.637728;-0.770262;-0.000000;,
         0.757162;-0.653227; 0.000000;,
         0.655722;-0.653227; 0.378580;,
         0.552289;-0.770262; 0.318863;,
         0.552288;-0.770261;-0.318866;,
         0.655722;-0.653227;-0.378582;,
         0.757162;-0.653227; 0.000000;,
         0.637728;-0.770262;-0.000000;,
         0.318865;-0.770264;-0.552285;,
         0.378581;-0.653227;-0.655722;,
         0.655722;-0.653227;-0.378582;,
         0.552288;-0.770261;-0.318866;,
        -0.000000;-0.770264;-0.637725;,
         0.000000;-0.653229;-0.757161;,
         0.378581;-0.653227;-0.655722;,
         0.318865;-0.770264;-0.552285;,
        -0.000000;-0.653227;-0.757162;,
         0.378581;-0.653227;-0.655722;,
         0.655722;-0.653227;-0.378581;,
         0.757162;-0.653227; 0.000000;,
         0.655722;-0.653227; 0.378581;,
         0.378581;-0.653227; 0.655722;,
         0.000000;-0.653227; 0.757162;,
        -0.378581;-0.653227; 0.655722;,
        -0.655722;-0.653227; 0.378581;,
        -0.757162;-0.653227; 0.000000;,
        -0.655722;-0.653227;-0.378581;,
        -0.378581;-0.653227;-0.655722;,
         0.000000;-0.770262; 0.637728;,
         0.000000;-0.653227; 0.757162;,
         0.378581;-0.653227; 0.655722;,
         0.318864;-0.770262; 0.552287;,
        -0.637728;-0.770262; 0.000000;,
        -0.757162;-0.653227; 0.000000;,
        -0.655722;-0.653227; 0.378581;,
        -0.552288;-0.770262; 0.318864;,
         0.552288;-0.770261;-0.318866;,
         0.655722;-0.653227;-0.378581;,
         0.378581;-0.653227;-0.655722;,
         0.318865;-0.770264;-0.552285;,
        -0.000000;-0.770264;-0.637725;,
        -0.000000;-0.653227;-0.757162;,
        -0.378581;-0.653227;-0.655722;,
        -0.318864;-0.770262;-0.552288;,
         0.318864;-0.770262; 0.552287;,
         0.378581;-0.653227; 0.655722;,
         0.655722;-0.653227; 0.378581;,
         0.552289;-0.770262; 0.318863;,
        -0.552288;-0.770262; 0.318864;,
        -0.655722;-0.653227; 0.378581;,
        -0.378581;-0.653227; 0.655722;,
        -0.318864;-0.770262; 0.552289;,
         0.318865;-0.770264;-0.552285;,
         0.378581;-0.653227;-0.655722;,
        -0.000000;-0.653227;-0.757162;,
        -0.000000;-0.770264;-0.637725;,
        -0.318864;-0.770262;-0.552288;,
        -0.378581;-0.653227;-0.655722;,
        -0.655722;-0.653227;-0.378581;,
        -0.552289;-0.770263;-0.318860;,
         0.552289;-0.770262; 0.318863;,
         0.655722;-0.653227; 0.378581;,
         0.757162;-0.653227; 0.000000;,
         0.637728;-0.770262;-0.000000;,
        -0.318864;-0.770262; 0.552289;,
        -0.378581;-0.653227; 0.655722;,
         0.000000;-0.653227; 0.757162;,
         0.000000;-0.770262; 0.637728;,
        -0.552289;-0.770263;-0.318860;,
        -0.655722;-0.653227;-0.378581;,
        -0.757162;-0.653227; 0.000000;,
        -0.637728;-0.770262; 0.000000;,
         1.000000; 0.000000; 0.000000;,
         0.157835; 0.285586; 0.945266;,
         0.000000; 0.000000;-1.000000;,
         0.000000; 1.000000;-0.000000;,
         0.213149;-0.162452; 0.963419;,
         0.155284;-0.333173; 0.929990;,
         0.000000;-1.000000; 0.000000;,
         0.955787;-0.288219;-0.058311;,
         0.164676;-0.014935; 0.986235;,
        -0.000000; 0.000000;-1.000000;,
         0.000000; 0.000000;-1.000000;,
         0.998922;-0.035654;-0.029730;,
         0.160246;-0.230846; 0.959704;,
         0.996820; 0.027376;-0.074832;,
         1.000000; 0.000000; 0.000000;,
         0.000000; 0.000000;-1.000000;,
         0.164676;-0.014935; 0.986235;,
         0.701661; 0.206250; 0.682006;,
         0.705362;-0.141094; 0.694663;,
         0.693749;-0.242526; 0.678154;,
         0.706448;-0.165075; 0.688245;,
         0.713853;-0.009523; 0.700231;,
         0.712957;-0.010548; 0.701128;,
         1.000000; 0.000000; 0.000000;,
        -1.000000;-0.000000; 0.000000;,
        -0.157835; 0.285586; 0.945266;,
         0.000000; 0.000000;-1.000000;,
         0.000000; 1.000000;-0.000000;,
        -0.213149;-0.162452; 0.963419;,
        -0.155284;-0.333173; 0.929990;,
         0.000000;-1.000000; 0.000000;,
        -0.955787;-0.288219;-0.058311;,
        -0.164676;-0.014935; 0.986235;,
         0.000000;-0.000000;-1.000000;,
         0.000000; 0.000000;-1.000000;,
        -0.998922;-0.035654;-0.029730;,
        -0.160246;-0.230846; 0.959704;,
        -0.996820; 0.027376;-0.074832;,
        -1.000000;-0.000000; 0.000000;,
         0.000000; 0.000000;-1.000000;,
        -0.164676;-0.014935; 0.986235;,
        -0.701661; 0.206250; 0.682006;,
        -0.705362;-0.141094; 0.694663;,
        -0.693749;-0.242527; 0.678154;,
        -0.706448;-0.165075; 0.688245;,
        -0.713853;-0.009523; 0.700231;,
        -0.712957;-0.010548; 0.701128;,
        -1.000000;-0.000000; 0.000000;,
        -0.996600;-0.082395; 0.000000;,
        -0.994807;-0.101784; 0.000000;,
         0.998840; 0.048145; 0.000000;,
        -0.710879;-0.069349; 0.699887;,
        -0.996257;-0.082164;-0.026861;,
        -0.183330;-0.022462; 0.982795;,
         0.710879;-0.069349; 0.699887;,
         0.996257;-0.082164;-0.026861;,
         0.183330;-0.022462; 0.982795;,
        -0.000000; 0.000000;-1.000000;,
        -0.000000;-0.000000;-1.000000;,
         0.000000; 0.000000;-1.000000;,
        -0.000000; 0.000000;-1.000000;,
         0.000000;-0.000000;-1.000000;,
        -0.000000; 0.000000;-1.000000;,
         0.000000;-0.000000; 1.000000;,
        -0.000000;-0.000000;-1.000000;,
         0.000000;-0.000000;-1.000000;,
         0.763816; 0.030241;-0.644725;,
        -0.763816; 0.030241;-0.644725;,
        -0.804870;-0.067641;-0.589584;,
         0.996600;-0.082395; 0.000000;,
         0.000000; 1.000000; 0.000000;,
         0.000000;-1.000000;-0.000000;,
         0.000000;-1.000000;-0.000000;,
         0.994807;-0.101784; 0.000000;,
        -0.998840; 0.048145; 0.000000;,
         0.000000; 0.000000;-1.000000;,
        -0.000000; 0.000000;-1.000000;,
         0.000000; 0.000000;-1.000000;,
         0.000000; 1.000000; 0.000000;,
        -0.767337;-0.052109;-0.639123;,
         0.767337;-0.052109;-0.639123;,
         0.804870;-0.067641;-0.589584;,
        -0.815806;-0.000000;-0.578326;,
        -0.000000; 0.000000;-1.000000;,
        -0.000000; 0.000000; 1.000000;,
         0.008949; 0.009063;-0.999919;,
         0.000000;-0.000000; 1.000000;,
         0.815806; 0.000000;-0.578326;,
        -0.000000; 0.000000;-1.000000;,
         0.000000;-0.000000; 1.000000;,
         0.000000;-1.000000; 0.000000;,
         0.000002;-1.000000;-0.000000;,
        -0.768103;-0.496543;-0.404306;,
         0.765984;-0.497909;-0.406638;,
        -0.000000; 0.000000;-1.000000;,
        -0.000000; 0.000000; 1.000000;;
        134;
        4;3,2,1,0;,
        4;7,6,5,4;,
        4;11,10,9,8;,
        4;15,14,13,12;,
        4;19,18,17,16;,
        4;23,22,21,20;,
        4;27,26,25,24;,
        4;31,30,29,28;,
        4;35,34,33,32;,
        4;39,38,37,36;,
        12;51,50,49,48,47,46,45,44,43,42,41,40;,
        4;55,54,53,52;,
        4;59,58,57,56;,
        4;63,62,61,60;,
        4;67,66,65,64;,
        4;71,70,69,68;,
        4;75,74,73,72;,
        4;79,78,77,76;,
        4;83,82,81,80;,
        4;87,86,85,84;,
        4;91,90,89,88;,
        4;95,94,93,92;,
        4;99,98,97,96;,
        4;103,102,101,100;,
        4;107,106,105,104;,
        4;111,110,109,108;,
        12;123,122,121,120,119,118,117,116,115,114,113,112;,
        4;127,126,125,124;,
        4;131,130,129,128;,
        4;135,134,133,132;,
        4;139,138,137,136;,
        4;143,142,141,140;,
        4;147,146,145,144;,
        4;151,150,149,148;,
        4;155,154,153,152;,
        4;159,158,157,156;,
        4;163,162,161,160;,
        4;167,166,165,164;,
        4;168,168,168,168;,
        4;169,169,169,169;,
        4;170,170,170,170;,
        5;171,171,171,171,171;,
        4;172,172,172,172;,
        4;173,173,173,173;,
        5;174,174,174,174,174;,
        4;175,175,175,175;,
        4;176,176,176,176;,
        4;177,177,177,177;,
        4;178,178,178,178;,
        4;179,179,179,179;,
        4;180,180,180,180;,
        4;181,181,181,181;,
        4;182,182,182,182;,
        4;183,183,183,183;,
        4;184,184,184,184;,
        4;185,185,185,185;,
        4;186,186,186,186;,
        4;187,187,187,187;,
        4;188,188,188,188;,
        4;189,189,189,189;,
        4;190,190,190,190;,
        4;191,191,191,191;,
        4;192,192,192,192;,
        4;193,193,193,193;,
        4;194,194,194,194;,
        5;195,195,195,195,195;,
        4;196,196,196,196;,
        4;197,197,197,197;,
        5;198,198,198,198,198;,
        4;199,199,199,199;,
        4;200,200,200,200;,
        4;201,201,201,201;,
        4;202,202,202,202;,
        4;203,203,203,203;,
        4;204,204,204,204;,
        4;205,205,205,205;,
        4;206,206,206,206;,
        4;207,207,207,207;,
        4;208,208,208,208;,
        4;209,209,209,209;,
        4;210,210,210,210;,
        4;211,211,211,211;,
        4;212,212,212,212;,
        4;213,213,213,213;,
        4;214,214,214,214;,
        4;215,215,215,215;,
        4;216,216,216,216;,
        4;217,217,217,217;,
        4;218,218,218,218;,
        4;219,219,219,219;,
        4;220,220,220,220;,
        4;221,221,221,221;,
        4;222,222,222,222;,
        4;223,223,223,223;,
        4;224,224,224,224;,
        4;225,225,225,225;,
        4;226,226,226,226;,
        4;227,227,227,227;,
        4;228,228,228,228;,
        4;229,229,229,229;,
        4;230,230,230,230;,
        4;231,231,231,231;,
        4;232,232,232,232;,
        4;233,233,233,233;,
        4;234,234,234,234;,
        4;235,235,235,235;,
        4;236,236,236,236;,
        4;237,237,237,237;,
        4;238,238,238,238;,
        4;239,239,239,239;,
        4;240,240,240,240;,
        4;241,241,241,241;,
        4;242,242,242,242;,
        4;243,243,243,243;,
        4;244,244,244,244;,
        5;245,245,245,245,245;,
        4;246,246,246,246;,
        4;247,247,247,247;,
        4;248,248,248,248;,
        4;249,249,249,249;,
        4;250,250,250,250;,
        4;251,251,251,251;,
        4;252,252,252,252;,
        4;253,253,253,253;,
        4;254,254,254,254;,
        4;255,255,255,255;,
        4;256,256,256,256;,
        4;257,257,257,257;,
        4;258,258,258,258;,
        4;259,259,259,259;,
        4;260,260,260,260;,
        4;261,261,261,261;,
        4;262,262,262,262;,
        4;263,263,263,263;;
      }
      MeshTextureCoords {
        557;
         0.119409; 0.740342;,
         0.119409; 0.723277;,
         0.506833; 0.723275;,
         0.506833; 0.740340;,
         0.119409; 0.723277;,
         0.119409; 0.706211;,
         0.506833; 0.706211;,
         0.506833; 0.723275;,
         0.119409; 0.706211;,
         0.119409; 0.689146;,
         0.506833; 0.689146;,
         0.506833; 0.706211;,
         0.119409; 0.689146;,
         0.119409; 0.672081;,
         0.506833; 0.672082;,
         0.506833; 0.689146;,
         0.119409; 0.672081;,
         0.119409; 0.655016;,
         0.506833; 0.655017;,
         0.506833; 0.672082;,
         0.119409; 0.655016;,
         0.119409; 0.637951;,
         0.506833; 0.637953;,
         0.506833; 0.655017;,
         0.119409; 0.636748;,
         0.119409; 0.619683;,
         0.506833; 0.619681;,
         0.506833; 0.636746;,
         0.119409; 0.619683;,
         0.119409; 0.602618;,
         0.506833; 0.602617;,
         0.506833; 0.619681;,
         0.119409; 0.602618;,
         0.119409; 0.585552;,
         0.506833; 0.585552;,
         0.506833; 0.602617;,
         0.119409; 0.585552;,
         0.119409; 0.568487;,
         0.506833; 0.568488;,
         0.506833; 0.585552;,
         0.825815; 0.072623;,
         0.834348; 0.057844;,
         0.849126; 0.049312;,
         0.866191; 0.049312;,
         0.880969; 0.057844;,
         0.889501; 0.072623;,
         0.889501; 0.089687;,
         0.880969; 0.104466;,
         0.866191; 0.112998;,
         0.849126; 0.112998;,
         0.834348; 0.104466;,
         0.825815; 0.089687;,
         0.119409; 0.568487;,
         0.119409; 0.551422;,
         0.506833; 0.551423;,
         0.506833; 0.568488;,
         0.119409; 0.551422;,
         0.119409; 0.534357;,
         0.506833; 0.534359;,
         0.506833; 0.551423;,
         0.712076; 0.107377;,
         0.778664; 0.107377;,
         0.778664; 0.121085;,
         0.712076; 0.121085;,
         0.940073; 0.277359;,
         0.936831; 0.275879;,
         0.953314; 0.271462;,
         0.953314; 0.273811;,
         0.930380; 0.287052;,
         0.924764; 0.287945;,
         0.936831; 0.275879;,
         0.940073; 0.277359;,
         0.926833; 0.300293;,
         0.920348; 0.304428;,
         0.924764; 0.287945;,
         0.930380; 0.287052;,
         0.930380; 0.313533;,
         0.924764; 0.320911;,
         0.920348; 0.304428;,
         0.926833; 0.300293;,
         0.940073; 0.323226;,
         0.936831; 0.332978;,
         0.924764; 0.320911;,
         0.930380; 0.313533;,
         0.953314; 0.326774;,
         0.953314; 0.337395;,
         0.936831; 0.332978;,
         0.940073; 0.323226;,
         0.910430; 0.061234;,
         0.907187; 0.051482;,
         0.923671; 0.047065;,
         0.923671; 0.057686;,
         0.900737; 0.070927;,
         0.895121; 0.063549;,
         0.907187; 0.051482;,
         0.910430; 0.061234;,
         0.897189; 0.084167;,
         0.890704; 0.080032;,
         0.895121; 0.063549;,
         0.900737; 0.070927;,
         0.900737; 0.097408;,
         0.895121; 0.096515;,
         0.890704; 0.080032;,
         0.897189; 0.084167;,
         0.910430; 0.107101;,
         0.907187; 0.108582;,
         0.895121; 0.096515;,
         0.900737; 0.097408;,
         0.923671; 0.110649;,
         0.923671; 0.112998;,
         0.907187; 0.108582;,
         0.910430; 0.107101;,
         0.356292; 0.086738;,
         0.356292; 0.100446;,
         0.349438; 0.112317;,
         0.337567; 0.119171;,
         0.323859; 0.119171;,
         0.311988; 0.112317;,
         0.305134; 0.100446;,
         0.305134; 0.086738;,
         0.311988; 0.074867;,
         0.323859; 0.068013;,
         0.337567; 0.068013;,
         0.349438; 0.074867;,
         0.712076; 0.066254;,
         0.778664; 0.066254;,
         0.778664; 0.079962;,
         0.712076; 0.079962;,
         0.451577; 0.492031;,
         0.518165; 0.492031;,
         0.518165; 0.505738;,
         0.451577; 0.505738;,
         0.712076; 0.121085;,
         0.778664; 0.121085;,
         0.778664; 0.134793;,
         0.712076; 0.134793;,
         0.451577; 0.450907;,
         0.518165; 0.450907;,
         0.518165; 0.464615;,
         0.451577; 0.464615;,
         0.712076; 0.079962;,
         0.778664; 0.079962;,
         0.778664; 0.093670;,
         0.712076; 0.093670;,
         0.451577; 0.505738;,
         0.518165; 0.505738;,
         0.518165; 0.519446;,
         0.451577; 0.519446;,
         0.712076; 0.134793;,
         0.778664; 0.134793;,
         0.778664; 0.148501;,
         0.712076; 0.148501;,
         0.451577; 0.464615;,
         0.518165; 0.464615;,
         0.518165; 0.478323;,
         0.451577; 0.478323;,
         0.712076; 0.093670;,
         0.778664; 0.093670;,
         0.778664; 0.107377;,
         0.712076; 0.107377;,
         0.451577; 0.519446;,
         0.518165; 0.519446;,
         0.518165; 0.533154;,
         0.451577; 0.533154;,
         0.451577; 0.478323;,
         0.518165; 0.478323;,
         0.518165; 0.492031;,
         0.451577; 0.492031;,
         0.208753; 0.341268;,
         0.220589; 0.291780;,
         0.360179; 0.291780;,
         0.360179; 0.341267;,
         0.647861; 0.135989;,
         0.586244; 0.133051;,
         0.586244; 0.069026;,
         0.647861; 0.071964;,
         0.586244; 0.276517;,
         0.669051; 0.276517;,
         0.669051; 0.337806;,
         0.586244; 0.337806;,
         0.083409; 0.186096;,
         0.022564; 0.175936;,
         0.000601; 0.153322;,
         0.000601; 0.020449;,
         0.083409; 0.020449;,
         0.710874; 0.723469;,
         0.707402; 0.838253;,
         0.662479; 0.838546;,
         0.661731; 0.723631;,
         0.868762; 0.948502;,
         0.869266; 0.877915;,
         0.930881; 0.874929;,
         0.930377; 0.945516;,
         0.252474; 0.164133;,
         0.242315; 0.120374;,
         0.366316; 0.120374;,
         0.366316; 0.183094;,
         0.274774; 0.186096;,
         0.959389; 0.999399;,
         0.936005; 0.999117;,
         0.932083; 0.882739;,
         0.959389; 0.883532;,
         0.710874; 0.339009;,
         0.710871; 0.362396;,
         0.649184; 0.362542;,
         0.649187; 0.339155;,
         0.586244; 0.227030;,
         0.586244; 0.160576;,
         0.669051; 0.160576;,
         0.669051; 0.227030;,
         0.586244; 0.276517;,
         0.586244; 0.227030;,
         0.669051; 0.227030;,
         0.669051; 0.276517;,
         0.714403; 0.263349;,
         0.732885; 0.149927;,
         0.824477; 0.149704;,
         0.824612; 0.263102;,
         0.869266; 0.999399;,
         0.868762; 0.948502;,
         0.930377; 0.945516;,
         0.930881; 0.996412;,
         0.714931; 0.999399;,
         0.508279; 0.996333;,
         0.507982; 0.883797;,
         0.714931; 0.882955;,
         0.220589; 0.291780;,
         0.244312; 0.225327;,
         0.360179; 0.225327;,
         0.360179; 0.291780;,
         0.586244; 0.160576;,
         0.600365; 0.137192;,
         0.669051; 0.137192;,
         0.669051; 0.160576;,
         0.710871; 0.362396;,
         0.710847; 0.569071;,
         0.649160; 0.569218;,
         0.649184; 0.362542;,
         0.919145; 0.337395;,
         0.888331; 0.330865;,
         0.888307; 0.266830;,
         0.919145; 0.273370;,
         0.979726; 0.476868;,
         0.948426; 0.477206;,
         0.957430; 0.362642;,
         0.988728; 0.362304;,
         0.398269; 0.128649;,
         0.367519; 0.135245;,
         0.369814; 0.064693;,
         0.400509; 0.058123;,
         0.400509; 0.179482;,
         0.369712; 0.186096;,
         0.367519; 0.135245;,
         0.398269; 0.128649;,
         0.508036; 0.622278;,
         0.508036; 0.590888;,
         0.531422; 0.591141;,
         0.531422; 0.622479;,
         0.988728; 0.838207;,
         0.957391; 0.838546;,
         0.957386; 0.631871;,
         0.988693; 0.631532;,
         0.887104; 0.247074;,
         0.825815; 0.265627;,
         0.825815; 0.114201;,
         0.887104; 0.114201;,
         0.716134; 0.883458;,
         0.867560; 0.883458;,
         0.867560; 0.932945;,
         0.727969; 0.932945;,
         0.242315; 0.119171;,
         0.242315; 0.055146;,
         0.303931; 0.052208;,
         0.303931; 0.116233;,
         0.180697; 0.533154;,
         0.119409; 0.533154;,
         0.119409; 0.450347;,
         0.180697; 0.450347;,
         0.167419; 0.020449;,
         0.167419; 0.186096;,
         0.084611; 0.186096;,
         0.084611; 0.053223;,
         0.106575; 0.030609;,
         0.647957; 0.454086;,
         0.598815; 0.453924;,
         0.599563; 0.339009;,
         0.644485; 0.339302;,
         0.888307; 0.192053;,
         0.949921; 0.195039;,
         0.950425; 0.265627;,
         0.888811; 0.262640;,
         0.419778; 0.104549;,
         0.442078; 0.082587;,
         0.533620; 0.085588;,
         0.533620; 0.148309;,
         0.409619; 0.148309;,
         0.535341; 0.623682;,
         0.535341; 0.739548;,
         0.508036; 0.740342;,
         0.511957; 0.623964;,
         0.647957; 0.838546;,
         0.586271; 0.838400;,
         0.586268; 0.815013;,
         0.647955; 0.815159;,
         0.230185; 0.533154;,
         0.230185; 0.450347;,
         0.296638; 0.450347;,
         0.296638; 0.533154;,
         0.180697; 0.533154;,
         0.180697; 0.450347;,
         0.230185; 0.450347;,
         0.230185; 0.533154;,
         0.423411; 0.304418;,
         0.533620; 0.304665;,
         0.533485; 0.418063;,
         0.441893; 0.417839;,
         0.888811; 0.141157;,
         0.950425; 0.144143;,
         0.949921; 0.195039;,
         0.888307; 0.192053;,
         0.207550; 0.224824;,
         0.207550; 0.341268;,
         0.000601; 0.340425;,
         0.000898; 0.227889;,
         0.727969; 0.932945;,
         0.867560; 0.932945;,
         0.867560; 0.999399;,
         0.751693; 0.999399;,
         0.296638; 0.533154;,
         0.296638; 0.450347;,
         0.320022; 0.450347;,
         0.320022; 0.519034;,
         0.647955; 0.815159;,
         0.586268; 0.815013;,
         0.586244; 0.608337;,
         0.647931; 0.608484;,
         0.810705; 0.077936;,
         0.810705; 0.141961;,
         0.779867; 0.148501;,
         0.779891; 0.084466;,
         0.938221; 0.723982;,
         0.947223; 0.838546;,
         0.915926; 0.838209;,
         0.906921; 0.723644;,
         0.701004; 0.148473;,
         0.703244; 0.218998;,
         0.672549; 0.212429;,
         0.670254; 0.141877;,
         0.703244; 0.097639;,
         0.701004; 0.148473;,
         0.670254; 0.141877;,
         0.672447; 0.091026;,
         0.507982; 0.850362;,
         0.531368; 0.850161;,
         0.531368; 0.881499;,
         0.507982; 0.881752;,
         0.947223; 0.362643;,
         0.947189; 0.569318;,
         0.915882; 0.568980;,
         0.915887; 0.362304;,
         0.825815; 0.399703;,
         0.825815; 0.266830;,
         0.887104; 0.266830;,
         0.887104; 0.418255;,
         0.858260; 0.612525;,
         0.785770; 0.612525;,
         0.785770; 0.457957;,
         0.858260; 0.457957;,
         0.858260; 0.457957;,
         0.785770; 0.457957;,
         0.785769; 0.419458;,
         0.858260; 0.419458;,
         0.784567; 0.645480;,
         0.712076; 0.645480;,
         0.712076; 0.419458;,
         0.784567; 0.419458;,
         0.947189; 0.569318;,
         0.938221; 0.723982;,
         0.906921; 0.723644;,
         0.915882; 0.568980;,
         0.421084; 0.149512;,
         0.533620; 0.149759;,
         0.533620; 0.304665;,
         0.423411; 0.304418;,
         0.647931; 0.608484;,
         0.586244; 0.608337;,
         0.598815; 0.453924;,
         0.647957; 0.454086;,
         0.988693; 0.631532;,
         0.957386; 0.631871;,
         0.948426; 0.477206;,
         0.979726; 0.476868;,
         0.712076; 0.418255;,
         0.714403; 0.263349;,
         0.824612; 0.263102;,
         0.824612; 0.418008;,
         0.710847; 0.569071;,
         0.710874; 0.723469;,
         0.661731; 0.723631;,
         0.649160; 0.569218;,
         0.085299; 0.979332;,
         0.000601; 0.983656;,
         0.000677; 0.912823;,
         0.085978; 0.915416;,
         0.506779; 0.981489;,
         0.506038; 0.984185;,
         0.287841; 0.999399;,
         0.287851; 0.994840;,
         0.287851; 0.994840;,
         0.287841; 0.999399;,
         0.127292; 0.987365;,
         0.127516; 0.982453;,
         0.085978; 0.915416;,
         0.000677; 0.912823;,
         0.004810; 0.842542;,
         0.088600; 0.851763;,
         0.290032; 0.844269;,
         0.290144; 0.839749;,
         0.505963; 0.859000;,
         0.506779; 0.861861;,
         0.130426; 0.850921;,
         0.130482; 0.846086;,
         0.290144; 0.839749;,
         0.290032; 0.844269;,
         0.506779; 0.861861;,
         0.505963; 0.859000;,
         0.506038; 0.984185;,
         0.506779; 0.981489;,
         0.127516; 0.982453;,
         0.127292; 0.987365;,
         0.000601; 0.983656;,
         0.085299; 0.979332;,
         0.088600; 0.851763;,
         0.004810; 0.842542;,
         0.130482; 0.846086;,
         0.130426; 0.850921;,
         0.859463; 0.612692;,
         0.899520; 0.612447;,
         0.905718; 0.838230;,
         0.868168; 0.838546;,
         0.547490; 0.000601;,
         0.585041; 0.000930;,
         0.578769; 0.226711;,
         0.538712; 0.226453;,
         0.546287; 0.380836;,
         0.583437; 0.380901;,
         0.584906; 0.419254;,
         0.548584; 0.419266;,
         0.784567; 0.800048;,
         0.712076; 0.800048;,
         0.712076; 0.645480;,
         0.784567; 0.645480;,
         0.450374; 0.431032;,
         0.450374; 0.503522;,
         0.321225; 0.503522;,
         0.321225; 0.431032;,
         0.168622; 0.068491;,
         0.241112; 0.068491;,
         0.241112; 0.127294;,
         0.168621; 0.127294;,
         0.168621; 0.127294;,
         0.241112; 0.127294;,
         0.241112; 0.186096;,
         0.168621; 0.186096;,
         0.784567; 0.838546;,
         0.712076; 0.838546;,
         0.712076; 0.800048;,
         0.784567; 0.800048;,
         0.858260; 0.838546;,
         0.785769; 0.838546;,
         0.785770; 0.612525;,
         0.858260; 0.612525;,
         0.499211; 0.749730;,
         0.499211; 0.830360;,
         0.345168; 0.838546;,
         0.345168; 0.741544;,
         0.119409; 0.748539;,
         0.345168; 0.741544;,
         0.345168; 0.838546;,
         0.119409; 0.831552;,
         0.537509; 0.752249;,
         0.537509; 0.790045;,
         0.537509; 0.827842;,
         0.499211; 0.830360;,
         0.499211; 0.749730;,
         0.450374; 0.503522;,
         0.427306; 0.533154;,
         0.344293; 0.533154;,
         0.321225; 0.503522;,
         0.538712; 0.226453;,
         0.578769; 0.226711;,
         0.583437; 0.380901;,
         0.546287; 0.380836;,
         0.867088; 0.458312;,
         0.904237; 0.458259;,
         0.899520; 0.612447;,
         0.859463; 0.612692;,
         0.869397; 0.419883;,
         0.905718; 0.419907;,
         0.904237; 0.458259;,
         0.867088; 0.458312;,
         0.584906; 0.419254;,
         0.585041; 0.838535;,
         0.548720; 0.838546;,
         0.548584; 0.419266;,
         0.419881; 0.380267;,
         0.000601; 0.380266;,
         0.000601; 0.342470;,
         0.419881; 0.342470;,
         0.707575; 0.337806;,
         0.670254; 0.308271;,
         0.670254; 0.279004;,
         0.707575; 0.279003;,
         0.398704; 0.303471;,
         0.361383; 0.303475;,
         0.361382; 0.284656;,
         0.398708; 0.265675;,
         0.059404; 0.419266;,
         0.059404; 0.838546;,
         0.000602; 0.838546;,
         0.000601; 0.419266;,
         0.000601; 0.187299;,
         0.419881; 0.187299;,
         0.419881; 0.223621;,
         0.000601; 0.223621;,
         0.419881; 0.418063;,
         0.000601; 0.418063;,
         0.000601; 0.380266;,
         0.419881; 0.380267;,
         0.118206; 0.419266;,
         0.118206; 0.838546;,
         0.059404; 0.838546;,
         0.059404; 0.419266;,
         0.439757; 0.081384;,
         0.409619; 0.070929;,
         0.410125; 0.052116;,
         0.439757; 0.052116;,
         0.439757; 0.052116;,
         0.410125; 0.052116;,
         0.410125; 0.033304;,
         0.439757; 0.022849;,
         0.959579; 0.071123;,
         0.959579; 0.112998;,
         0.928090; 0.107894;,
         0.924873; 0.060409;,
         0.670254; 0.089823;,
         0.674019; 0.042379;,
         0.705081; 0.037639;,
         0.705081; 0.079510;,
         0.398708; 0.341268;,
         0.361385; 0.322287;,
         0.361383; 0.303475;,
         0.398704; 0.303471;,
         0.707575; 0.279003;,
         0.670254; 0.279004;,
         0.670254; 0.249736;,
         0.707575; 0.220201;;
      }
    }
  }
}
