xof 0303txt 0032

Frame Root {
  FrameTransformMatrix {
     1.000000, 0.000000, 0.000000, 0.000000,
     0.000000,-0.000000, 1.000000, 0.000000,
     0.000000, 1.000000, 0.000000, 0.000000,
     0.000000, 0.000000, 0.000000, 1.000000;;
  }
  Frame Cube_Cube_003 {
    FrameTransformMatrix {
       1.000000, 0.000000, 0.000000, 0.000000,
       0.000000, 1.000000, 0.000000, 0.000000,
       0.000000, 0.000000, 1.000000, 0.000000,
       0.000000, 0.000000, 0.000000, 1.000000;;
    }
    Mesh {
      120;
      -0.012823; 0.028022;-0.012875;,
      -0.012823; 0.118846;-0.012875;,
      -0.012823; 0.106260; 0.001555;,
      -0.012823; 0.021729; 0.001555;,
      -0.012823; 0.106260; 0.001555;,
      -0.008376; 0.141450; 0.000957;,
       0.000000; 0.141450; 0.000957;,
       0.000000; 0.106260; 0.001555;,
       0.000000;-0.064646;-0.021621;,
      -0.012823;-0.062803;-0.012875;,
      -0.012823;-0.062803; 0.001555;,
       0.000000;-0.064646; 0.001555;,
      -0.012823; 0.028022;-0.012875;,
      -0.012823;-0.062803;-0.012875;,
       0.000000;-0.064646;-0.021621;,
       0.000000; 0.027100;-0.021621;,
      -0.007211; 0.141450;-0.012814;,
       0.000000; 0.141450;-0.016679;,
       0.000000; 0.141450; 0.000957;,
      -0.008376; 0.141450; 0.000957;,
      -0.012823; 0.118846;-0.012875;,
      -0.007211; 0.141450;-0.012814;,
      -0.008376; 0.141450; 0.000957;,
      -0.012823; 0.106260; 0.001555;,
       0.000000; 0.118846;-0.021621;,
       0.000000; 0.141450;-0.016679;,
      -0.007211; 0.141450;-0.012814;,
      -0.012823; 0.118846;-0.012875;,
       0.000000; 0.021865; 0.014851;,
       0.000000;-0.062241; 0.014851;,
      -0.007829;-0.062241; 0.014851;,
      -0.007829; 0.021865; 0.014851;,
      -0.012823; 0.021729; 0.001555;,
      -0.007829; 0.021865; 0.014851;,
      -0.007829;-0.062241; 0.014851;,
      -0.012823;-0.062803; 0.001555;,
      -0.012823;-0.062803; 0.001555;,
      -0.007829;-0.062241; 0.014851;,
       0.000000;-0.062241; 0.014851;,
       0.000000;-0.064646; 0.001555;,
       0.000000; 0.106260; 0.001555;,
       0.000000; 0.105971; 0.014851;,
      -0.007829; 0.105971; 0.014851;,
      -0.012823; 0.106260; 0.001555;,
       0.012823; 0.028022;-0.012875;,
       0.012823; 0.021729; 0.001555;,
       0.012823; 0.106260; 0.001555;,
       0.012823; 0.118846;-0.012875;,
       0.012823; 0.106260; 0.001555;,
       0.000000; 0.106260; 0.001555;,
       0.000000; 0.141450; 0.000957;,
       0.008376; 0.141450; 0.000957;,
       0.000000;-0.064646;-0.021621;,
       0.000000;-0.064646; 0.001555;,
       0.012823;-0.062803; 0.001555;,
       0.012823;-0.062803;-0.012875;,
       0.012823; 0.028022;-0.012875;,
       0.000000; 0.027100;-0.021621;,
       0.000000;-0.064646;-0.021621;,
       0.012823;-0.062803;-0.012875;,
       0.007211; 0.141450;-0.012814;,
       0.008376; 0.141450; 0.000957;,
       0.000000; 0.141450; 0.000957;,
       0.000000; 0.141450;-0.016679;,
       0.012823; 0.118846;-0.012875;,
       0.012823; 0.106260; 0.001555;,
       0.008376; 0.141450; 0.000957;,
       0.007211; 0.141450;-0.012814;,
       0.000000; 0.118846;-0.021621;,
       0.012823; 0.118846;-0.012875;,
       0.007211; 0.141450;-0.012814;,
       0.000000; 0.141450;-0.016679;,
       0.000000; 0.021865; 0.014851;,
       0.007829; 0.021865; 0.014851;,
       0.007829;-0.062241; 0.014851;,
       0.000000;-0.062241; 0.014851;,
       0.012823; 0.021729; 0.001555;,
       0.012823;-0.062803; 0.001555;,
       0.007829;-0.062241; 0.014851;,
       0.007829; 0.021865; 0.014851;,
       0.012823;-0.062803; 0.001555;,
       0.000000;-0.064646; 0.001555;,
       0.000000;-0.062241; 0.014851;,
       0.007829;-0.062241; 0.014851;,
       0.000000; 0.106260; 0.001555;,
       0.012823; 0.106260; 0.001555;,
       0.007829; 0.105971; 0.014851;,
       0.000000; 0.105971; 0.014851;,
       0.012823; 0.106260; 0.001555;,
       0.012823; 0.021729; 0.001555;,
       0.007829; 0.021865; 0.014851;,
       0.007829; 0.105971; 0.014851;,
       0.000000; 0.105971; 0.014851;,
       0.007829; 0.105971; 0.014851;,
       0.007829; 0.021865; 0.014851;,
       0.000000; 0.021865; 0.014851;,
       0.012823; 0.118846;-0.012875;,
       0.000000; 0.118846;-0.021621;,
       0.000000; 0.027100;-0.021621;,
       0.012823; 0.028022;-0.012875;,
       0.012823;-0.062803;-0.012875;,
       0.012823;-0.062803; 0.001555;,
       0.012823; 0.021729; 0.001555;,
       0.012823; 0.028022;-0.012875;,
      -0.012823; 0.106260; 0.001555;,
      -0.007829; 0.105971; 0.014851;,
      -0.007829; 0.021865; 0.014851;,
      -0.012823; 0.021729; 0.001555;,
       0.000000; 0.105971; 0.014851;,
       0.000000; 0.021865; 0.014851;,
      -0.007829; 0.021865; 0.014851;,
      -0.007829; 0.105971; 0.014851;,
      -0.012823; 0.118846;-0.012875;,
      -0.012823; 0.028022;-0.012875;,
       0.000000; 0.027100;-0.021621;,
       0.000000; 0.118846;-0.021621;,
      -0.012823;-0.062803;-0.012875;,
      -0.012823; 0.028022;-0.012875;,
      -0.012823; 0.021729; 0.001555;,
      -0.012823;-0.062803; 0.001555;;
      30;
      4;3,2,1,0;,
      4;7,6,5,4;,
      4;11,10,9,8;,
      4;15,14,13,12;,
      4;19,18,17,16;,
      4;23,22,21,20;,
      4;27,26,25,24;,
      4;31,30,29,28;,
      4;35,34,33,32;,
      4;39,38,37,36;,
      4;43,42,41,40;,
      4;47,46,45,44;,
      4;51,50,49,48;,
      4;55,54,53,52;,
      4;59,58,57,56;,
      4;63,62,61,60;,
      4;67,66,65,64;,
      4;71,70,69,68;,
      4;75,74,73,72;,
      4;79,78,77,76;,
      4;83,82,81,80;,
      4;87,86,85,84;,
      4;91,90,89,88;,
      4;95,94,93,92;,
      4;99,98,97,96;,
      4;103,102,101,100;,
      4;107,106,105,104;,
      4;111,110,109,108;,
      4;115,114,113,112;,
      4;119,118,117,116;;
      MeshNormals {
        120;
         0.884165;-0.000000; 0.467175;,
         0.887022;-0.114444; 0.447320;,
         0.879819;-0.265816;-0.394032;,
         0.983908; 0.000000;-0.178677;,
         0.879819;-0.265816;-0.394032;,
         0.531782;-0.604876;-0.592733;,
         0.000000;-0.713091;-0.701071;,
         0.000000;-0.705421;-0.708788;,
         0.000000; 0.627450; 0.778657;,
         0.742058; 0.561729; 0.365801;,
         0.760549; 0.629742;-0.158084;,
         0.000000; 0.997984;-0.063460;,
         0.884165;-0.000000; 0.467175;,
         0.742058; 0.561729; 0.365801;,
         0.000000; 0.627450; 0.778657;,
         0.000000;-0.000000; 1.000000;,
         0.628508;-0.686600; 0.365457;,
         0.000000;-0.692876; 0.721057;,
         0.000000;-0.713091;-0.701071;,
         0.531782;-0.604876;-0.592733;,
         0.887022;-0.114444; 0.447320;,
         0.628508;-0.686600; 0.365457;,
         0.531782;-0.604876;-0.592733;,
         0.879819;-0.265816;-0.394032;,
         0.000000;-0.090797; 0.995870;,
         0.000000;-0.692876; 0.721057;,
         0.628508;-0.686600; 0.365457;,
         0.887022;-0.114444; 0.447320;,
         0.000000; 0.000000;-1.000000;,
         0.000000; 0.659281;-0.751897;,
         0.481854; 0.547614;-0.684058;,
         0.569384; 0.000000;-0.822071;,
         0.983908; 0.000000;-0.178677;,
         0.569384; 0.000000;-0.822071;,
         0.481854; 0.547614;-0.684058;,
         0.760549; 0.629742;-0.158084;,
         0.760549; 0.629742;-0.158084;,
         0.481854; 0.547614;-0.684058;,
         0.000000; 0.659281;-0.751897;,
         0.000000; 0.997984;-0.063460;,
         0.000000;-0.705421;-0.708788;,
         0.000000;-0.699371;-0.714759;,
         0.456215;-0.590967;-0.665302;,
         0.879819;-0.265816;-0.394032;,
        -0.884165;-0.000000; 0.467175;,
        -0.983908; 0.000000;-0.178677;,
        -0.879819;-0.265816;-0.394032;,
        -0.887022;-0.114444; 0.447320;,
        -0.879819;-0.265816;-0.394032;,
         0.000000;-0.705421;-0.708788;,
         0.000000;-0.713091;-0.701071;,
        -0.531782;-0.604876;-0.592733;,
         0.000000; 0.627450; 0.778657;,
         0.000000; 0.997984;-0.063460;,
        -0.760549; 0.629742;-0.158084;,
        -0.742058; 0.561729; 0.365801;,
        -0.884165;-0.000000; 0.467175;,
         0.000000;-0.000000; 1.000000;,
         0.000000; 0.627450; 0.778657;,
        -0.742058; 0.561729; 0.365801;,
        -0.628508;-0.686600; 0.365457;,
        -0.531782;-0.604876;-0.592733;,
         0.000000;-0.713091;-0.701071;,
         0.000000;-0.692876; 0.721057;,
        -0.887022;-0.114444; 0.447320;,
        -0.879819;-0.265816;-0.394032;,
        -0.531782;-0.604876;-0.592733;,
        -0.628508;-0.686600; 0.365457;,
         0.000000;-0.090797; 0.995870;,
        -0.887022;-0.114444; 0.447320;,
        -0.628508;-0.686600; 0.365457;,
         0.000000;-0.692876; 0.721057;,
         0.000000; 0.000000;-1.000000;,
        -0.569384; 0.000000;-0.822071;,
        -0.481854; 0.547614;-0.684058;,
         0.000000; 0.659281;-0.751897;,
        -0.983908; 0.000000;-0.178677;,
        -0.760549; 0.629742;-0.158084;,
        -0.481854; 0.547614;-0.684058;,
        -0.569384; 0.000000;-0.822071;,
        -0.760549; 0.629742;-0.158084;,
         0.000000; 0.997984;-0.063460;,
         0.000000; 0.659281;-0.751897;,
        -0.481854; 0.547614;-0.684058;,
         0.000000;-0.705421;-0.708788;,
        -0.879819;-0.265816;-0.394032;,
        -0.456215;-0.590967;-0.665302;,
         0.000000;-0.699371;-0.714759;,
        -0.879819;-0.265816;-0.394032;,
        -0.983908; 0.000000;-0.178677;,
        -0.569384; 0.000000;-0.822071;,
        -0.456215;-0.590967;-0.665302;,
         0.000000;-0.699371;-0.714759;,
        -0.456215;-0.590967;-0.665302;,
        -0.569384; 0.000000;-0.822071;,
         0.000000; 0.000000;-1.000000;,
        -0.887022;-0.114444; 0.447320;,
         0.000000;-0.090797; 0.995870;,
         0.000000;-0.000000; 1.000000;,
        -0.884165;-0.000000; 0.467175;,
        -0.742058; 0.561729; 0.365801;,
        -0.760549; 0.629742;-0.158084;,
        -0.983908; 0.000000;-0.178677;,
        -0.884165;-0.000000; 0.467175;,
         0.879819;-0.265816;-0.394032;,
         0.456215;-0.590967;-0.665302;,
         0.569384; 0.000000;-0.822071;,
         0.983908; 0.000000;-0.178677;,
         0.000000;-0.699371;-0.714759;,
         0.000000; 0.000000;-1.000000;,
         0.569384; 0.000000;-0.822071;,
         0.456215;-0.590967;-0.665302;,
         0.887022;-0.114444; 0.447320;,
         0.884165;-0.000000; 0.467175;,
         0.000000;-0.000000; 1.000000;,
         0.000000;-0.090797; 0.995870;,
         0.742058; 0.561729; 0.365801;,
         0.884165;-0.000000; 0.467175;,
         0.983908; 0.000000;-0.178677;,
         0.760549; 0.629742;-0.158084;;
        30;
        4;3,2,1,0;,
        4;7,6,5,4;,
        4;11,10,9,8;,
        4;15,14,13,12;,
        4;19,18,17,16;,
        4;23,22,21,20;,
        4;27,26,25,24;,
        4;31,30,29,28;,
        4;35,34,33,32;,
        4;39,38,37,36;,
        4;43,42,41,40;,
        4;47,46,45,44;,
        4;51,50,49,48;,
        4;55,54,53,52;,
        4;59,58,57,56;,
        4;63,62,61,60;,
        4;67,66,65,64;,
        4;71,70,69,68;,
        4;75,74,73,72;,
        4;79,78,77,76;,
        4;83,82,81,80;,
        4;87,86,85,84;,
        4;91,90,89,88;,
        4;95,94,93,92;,
        4;99,98,97,96;,
        4;103,102,101,100;,
        4;107,106,105,104;,
        4;111,110,109,108;,
        4;115,114,113,112;,
        4;119,118,117,116;;
      }
      MeshTextureCoords {
        120;
         0.333534; 0.963727;,
         0.333534; 0.445868;,
         0.415809; 0.517626;,
         0.415809; 0.999606;,
         0.663608; 0.480959;,
         0.688970; 0.280290;,
         0.736724; 0.280290;,
         0.736724; 0.480959;,
         0.000394; 0.826266;,
         0.089518; 0.826889;,
         0.135079; 0.895396;,
         0.073572; 0.936301;,
         0.154160; 0.313080;,
         0.089518; 0.826889;,
         0.000394; 0.826266;,
         0.065691; 0.307245;,
         0.670250; 0.127078;,
         0.711362; 0.105037;,
         0.711362; 0.205598;,
         0.663608; 0.205598;,
         0.333534; 0.445868;,
         0.335040; 0.313080;,
         0.413807; 0.315371;,
         0.415809; 0.517626;,
         0.244241; 0.476494;,
         0.259861; 0.345496;,
         0.306501; 0.346316;,
         0.332746; 0.476494;,
         0.000394; 0.125532;,
         0.479945; 0.125532;,
         0.479945; 0.170172;,
         0.000394; 0.170172;,
         0.836851; 0.517626;,
         0.917834; 0.516849;,
         0.917834; 0.996401;,
         0.836851; 0.999606;,
         0.135079; 0.895396;,
         0.154160; 0.974165;,
         0.117479; 0.999606;,
         0.073572; 0.936301;,
         0.586990; 0.197881;,
         0.662820; 0.197881;,
         0.662820; 0.242521;,
         0.586990; 0.270997;,
         0.498872; 0.963727;,
         0.416597; 0.999606;,
         0.416597; 0.517626;,
         0.498872; 0.445868;,
         0.499660; 0.269783;,
         0.572775; 0.269783;,
         0.572775; 0.470452;,
         0.525021; 0.470452;,
         0.662820; 0.271785;,
         0.662820; 0.403932;,
         0.588953; 0.403932;,
         0.588953; 0.321657;,
         0.499660; 0.471240;,
         0.588165; 0.476493;,
         0.588165; 0.999606;,
         0.499660; 0.989099;,
         0.506302; 0.246954;,
         0.499660; 0.168434;,
         0.547414; 0.168434;,
         0.547414; 0.268995;,
         0.498872; 0.445868;,
         0.416597; 0.517626;,
         0.418599; 0.315371;,
         0.497366; 0.313080;,
         0.243453; 0.476494;,
         0.154948; 0.476494;,
         0.181193; 0.346316;,
         0.227833; 0.345496;,
         0.000394; 0.306456;,
         0.000394; 0.261816;,
         0.479946; 0.261816;,
         0.479946; 0.306456;,
         0.836062; 0.517626;,
         0.836062; 0.999606;,
         0.755079; 0.996401;,
         0.755079; 0.516849;,
         0.588953; 0.403932;,
         0.662820; 0.403932;,
         0.661315; 0.480959;,
         0.616684; 0.480087;,
         0.663608; 0.279501;,
         0.663608; 0.206386;,
         0.739438; 0.234862;,
         0.739438; 0.279501;,
         0.836062; 0.034081;,
         0.836062; 0.516061;,
         0.755079; 0.515284;,
         0.755079; 0.035732;,
         0.479945; 0.170960;,
         0.479945; 0.215600;,
         0.000394; 0.215600;,
         0.000394; 0.170960;,
         0.154948; 0.476494;,
         0.243453; 0.476494;,
         0.243453; 0.999606;,
         0.154948; 0.994353;,
         0.671228; 0.999606;,
         0.588953; 0.999606;,
         0.588953; 0.517626;,
         0.671228; 0.481747;,
         0.918623; 0.517626;,
         0.999606; 0.519277;,
         0.999606; 0.998829;,
         0.918622; 0.999606;,
         0.000394; 0.216389;,
         0.479945; 0.216388;,
         0.479945; 0.261028;,
         0.000394; 0.261028;,
         0.332746; 0.476494;,
         0.332746; 0.994352;,
         0.244241; 0.999606;,
         0.244241; 0.476494;,
         0.672016; 0.999606;,
         0.672016; 0.481747;,
         0.754291; 0.517626;,
         0.754291; 0.999606;;
      }
      MeshMaterialList {
        1;
        30;
        0,
        0,
        0,
        0,
        0,
        0,
        0,
        0,
        0,
        0,
        0,
        0,
        0,
        0,
        0,
        0,
        0,
        0,
        0,
        0,
        0,
        0,
        0,
        0,
        0,
        0,
        0,
        0,
        0,
        0;
        Material None_003 {
           0.800000; 0.800000; 0.800000; 1.000000;;
           449.999985;
           0.800000; 0.800000; 0.800000;;
           0.000000; 0.000000; 0.000000;;
        }
      }
    }
  }
}
