xof 0303txt 0032

Frame Root {
  FrameTransformMatrix {
     1.000000, 0.000000, 0.000000, 0.000000,
     0.000000,-0.000000, 1.000000, 0.000000,
     0.000000, 1.000000, 0.000000, 0.000000,
     0.000000, 0.000000, 0.000000, 1.000000;;
  }
  Frame Cube_002_Cube {
    FrameTransformMatrix {
       1.000000, 0.000000, 0.000000, 0.000000,
       0.000000, 1.000000, 0.000000, 0.000000,
       0.000000, 0.000000, 1.000000, 0.000000,
       0.000000, 0.000000, 0.000000, 1.000000;;
    }
    Mesh {
      184;
      -0.007943; 0.041624; 0.024282;,
      -0.007943; 0.151742; 0.024282;,
      -0.004929; 0.149108; 0.027232;,
      -0.004929; 0.043250; 0.027232;,
      -0.004929; 0.149108; 0.027232;,
      -0.004175; 0.204943; 0.027150;,
       0.004175; 0.204943; 0.027150;,
       0.004929; 0.149108; 0.027232;,
       0.007943; 0.041624; 0.024282;,
       0.007943;-0.068494; 0.024282;,
       0.004929;-0.062607; 0.027232;,
       0.004929; 0.043250; 0.027232;,
       0.007943;-0.068494; 0.024282;,
      -0.007943;-0.068494; 0.024282;,
      -0.004929;-0.062607; 0.027232;,
       0.004929;-0.062607; 0.027232;,
      -0.010927; 0.151550; 0.005512;,
      -0.006455; 0.131077;-0.007704;,
       0.006455; 0.131077;-0.007704;,
       0.010927; 0.151550; 0.005512;,
       0.004929; 0.043250; 0.027232;,
       0.004929;-0.062607; 0.027232;,
      -0.004929;-0.062607; 0.027232;,
      -0.004929; 0.043250; 0.027232;,
      -0.006860; 0.209823; 0.024434;,
       0.006860; 0.209823; 0.024434;,
       0.004175; 0.204943; 0.027150;,
      -0.004175; 0.204943; 0.027150;,
      -0.007943; 0.151742; 0.024282;,
      -0.006860; 0.209823; 0.024434;,
      -0.004175; 0.204943; 0.027150;,
      -0.004929; 0.149108; 0.027232;,
       0.010927; 0.151742; 0.013993;,
       0.006860; 0.209823; 0.014320;,
       0.006566; 0.209823; 0.009075;,
       0.010927; 0.151550; 0.005512;,
       0.010927; 0.151550; 0.005512;,
       0.006566; 0.209823; 0.009075;,
      -0.006566; 0.209823; 0.009075;,
      -0.010927; 0.151550; 0.005512;,
      -0.006455; 0.027787;-0.007704;,
      -0.006455;-0.075502;-0.007704;,
       0.006455;-0.075502;-0.007704;,
       0.006455; 0.027787;-0.007704;,
      -0.010927; 0.041531; 0.006260;,
      -0.006455; 0.027787;-0.007704;,
      -0.006455; 0.131077;-0.007704;,
      -0.010927; 0.151550; 0.005512;,
       0.010927; 0.041531; 0.006260;,
       0.006455; 0.027787;-0.007704;,
       0.006455;-0.075502;-0.007704;,
       0.010927;-0.068489; 0.007008;,
       0.010927;-0.068489; 0.007008;,
       0.006455;-0.075502;-0.007704;,
      -0.006455;-0.075502;-0.007704;,
      -0.010927;-0.068489; 0.007008;,
       0.007943; 0.151742; 0.024282;,
       0.006860; 0.209823; 0.024434;,
       0.006860; 0.209823; 0.014320;,
       0.010927; 0.151742; 0.013993;,
      -0.010927; 0.151550; 0.005512;,
      -0.006566; 0.209823; 0.009075;,
      -0.006860; 0.209823; 0.014320;,
      -0.010927; 0.151742; 0.013993;,
      -0.006566; 0.209823; 0.009075;,
       0.006566; 0.209823; 0.009075;,
       0.006860; 0.209823; 0.014320;,
      -0.006860; 0.209823; 0.014320;,
       0.010927;-0.068489; 0.007008;,
      -0.010927;-0.068489; 0.007008;,
      -0.010927;-0.068494; 0.013993;,
       0.010927;-0.068494; 0.013993;,
       0.010927; 0.041531; 0.006260;,
       0.010927;-0.068489; 0.007008;,
       0.010927;-0.068494; 0.013993;,
       0.010927; 0.041624; 0.013993;,
      -0.010927; 0.041531; 0.006260;,
      -0.010927; 0.151550; 0.005512;,
      -0.010927; 0.151742; 0.013993;,
      -0.010927; 0.041624; 0.013993;,
       0.004929; 0.149108; 0.027232;,
       0.004175; 0.204943; 0.027150;,
       0.006860; 0.209823; 0.024434;,
       0.007943; 0.151742; 0.024282;,
      -0.010927; 0.151742; 0.013993;,
      -0.006860; 0.209823; 0.014320;,
      -0.006860; 0.209823; 0.024434;,
      -0.007943; 0.151742; 0.024282;,
      -0.006860; 0.209823; 0.014320;,
       0.006860; 0.209823; 0.014320;,
       0.006860; 0.209823; 0.024434;,
      -0.006860; 0.209823; 0.024434;,
       0.010927;-0.068494; 0.013993;,
      -0.010927;-0.068494; 0.013993;,
      -0.007943;-0.068494; 0.024282;,
       0.007943;-0.068494; 0.024282;,
       0.010927; 0.041624; 0.013993;,
       0.010927;-0.068494; 0.013993;,
       0.007943;-0.068494; 0.024282;,
       0.007943; 0.041624; 0.024282;,
      -0.010927; 0.041624; 0.013993;,
      -0.010927; 0.151742; 0.013993;,
      -0.007943; 0.151742; 0.024282;,
      -0.007943; 0.041624; 0.024282;,
      -0.002384; 0.190294; 0.030713;,
      -0.002384; 0.195061; 0.030713;,
      -0.001907; 0.194585; 0.041863;,
      -0.001907; 0.190770; 0.041863;,
      -0.002384; 0.195061; 0.030713;,
       0.002384; 0.195061; 0.030713;,
       0.001907; 0.194585; 0.041863;,
      -0.001907; 0.194585; 0.041863;,
       0.002384; 0.195061; 0.030713;,
       0.002384; 0.190294; 0.030713;,
       0.001907; 0.190770; 0.041863;,
       0.001907; 0.194585; 0.041863;,
       0.002384; 0.190294; 0.030713;,
      -0.002384; 0.190294; 0.030713;,
      -0.001907; 0.190770; 0.041863;,
       0.001907; 0.190770; 0.041863;,
      -0.004114; 0.196792; 0.025734;,
      -0.004114; 0.188563; 0.025734;,
       0.004114; 0.188563; 0.025734;,
       0.004114; 0.196792; 0.025734;,
       0.001907; 0.194585; 0.041863;,
       0.001907; 0.190770; 0.041863;,
      -0.001907; 0.190770; 0.041863;,
      -0.001907; 0.194585; 0.041863;,
       0.004114; 0.188563; 0.025734;,
      -0.004114; 0.188563; 0.025734;,
      -0.002384; 0.190294; 0.030713;,
       0.002384; 0.190294; 0.030713;,
       0.004114; 0.196792; 0.025734;,
       0.004114; 0.188563; 0.025734;,
       0.002384; 0.190294; 0.030713;,
       0.002384; 0.195061; 0.030713;,
      -0.004114; 0.196792; 0.025734;,
       0.004114; 0.196792; 0.025734;,
       0.002384; 0.195061; 0.030713;,
      -0.002384; 0.195061; 0.030713;,
      -0.004114; 0.188563; 0.025734;,
      -0.004114; 0.196792; 0.025734;,
      -0.002384; 0.195061; 0.030713;,
      -0.002384; 0.190294; 0.030713;,
      -0.010927;-0.068494; 0.013993;,
      -0.010927; 0.041624; 0.013993;,
      -0.007943; 0.041624; 0.024282;,
      -0.007943;-0.068494; 0.024282;,
       0.010927; 0.151742; 0.013993;,
       0.010927; 0.041624; 0.013993;,
       0.007943; 0.041624; 0.024282;,
       0.007943; 0.151742; 0.024282;,
      -0.010927;-0.068489; 0.007008;,
      -0.010927; 0.041531; 0.006260;,
      -0.010927; 0.041624; 0.013993;,
      -0.010927;-0.068494; 0.013993;,
       0.010927; 0.151550; 0.005512;,
       0.010927; 0.041531; 0.006260;,
       0.010927; 0.041624; 0.013993;,
       0.010927; 0.151742; 0.013993;,
       0.010927; 0.151550; 0.005512;,
       0.006455; 0.131077;-0.007704;,
       0.006455; 0.027787;-0.007704;,
       0.010927; 0.041531; 0.006260;,
      -0.010927;-0.068489; 0.007008;,
      -0.006455;-0.075502;-0.007704;,
      -0.006455; 0.027787;-0.007704;,
      -0.010927; 0.041531; 0.006260;,
      -0.006455; 0.131077;-0.007704;,
      -0.006455; 0.027787;-0.007704;,
       0.006455; 0.027787;-0.007704;,
       0.006455; 0.131077;-0.007704;,
       0.004929; 0.149108; 0.027232;,
       0.004929; 0.043250; 0.027232;,
      -0.004929; 0.043250; 0.027232;,
      -0.004929; 0.149108; 0.027232;,
       0.007943; 0.151742; 0.024282;,
       0.007943; 0.041624; 0.024282;,
       0.004929; 0.043250; 0.027232;,
       0.004929; 0.149108; 0.027232;,
      -0.007943;-0.068494; 0.024282;,
      -0.007943; 0.041624; 0.024282;,
      -0.004929; 0.043250; 0.027232;,
      -0.004929;-0.062607; 0.027232;;
      46;
      4;3,2,1,0;,
      4;7,6,5,4;,
      4;11,10,9,8;,
      4;15,14,13,12;,
      4;19,18,17,16;,
      4;23,22,21,20;,
      4;27,26,25,24;,
      4;31,30,29,28;,
      4;35,34,33,32;,
      4;39,38,37,36;,
      4;43,42,41,40;,
      4;47,46,45,44;,
      4;51,50,49,48;,
      4;55,54,53,52;,
      4;59,58,57,56;,
      4;63,62,61,60;,
      4;67,66,65,64;,
      4;71,70,69,68;,
      4;75,74,73,72;,
      4;79,78,77,76;,
      4;83,82,81,80;,
      4;87,86,85,84;,
      4;91,90,89,88;,
      4;95,94,93,92;,
      4;99,98,97,96;,
      4;103,102,101,100;,
      4;107,106,105,104;,
      4;111,110,109,108;,
      4;115,114,113,112;,
      4;119,118,117,116;,
      4;123,122,121,120;,
      4;127,126,125,124;,
      4;131,130,129,128;,
      4;135,134,133,132;,
      4;139,138,137,136;,
      4;143,142,141,140;,
      4;147,146,145,144;,
      4;151,150,149,148;,
      4;155,154,153,152;,
      4;159,158,157,156;,
      4;163,162,161,160;,
      4;167,166,165,164;,
      4;171,170,169,168;,
      4;175,174,173,172;,
      4;179,178,177,176;,
      4;183,182,181,180;;
      MeshNormals {
        184;
         0.858119; 0.000000;-0.513451;,
         0.875091;-0.015177;-0.483720;,
         0.378705;-0.002292;-0.925514;,
         0.377721; 0.000000;-0.925919;,
         0.378705;-0.002292;-0.925514;,
         0.313662;-0.184031;-0.931530;,
        -0.313662;-0.184031;-0.931530;,
        -0.378705;-0.002292;-0.925514;,
        -0.858119; 0.000000;-0.513451;,
        -0.539292; 0.656123;-0.527888;,
        -0.318991; 0.162158;-0.933782;,
        -0.377721; 0.000000;-0.925919;,
        -0.539292; 0.656123;-0.527888;,
         0.539292; 0.656123;-0.527888;,
         0.318991; 0.162158;-0.933782;,
        -0.318991; 0.162158;-0.933782;,
         0.768353;-0.200863; 0.607690;,
         0.521920;-0.204618; 0.828089;,
        -0.521920;-0.204618; 0.828089;,
        -0.768353;-0.200863; 0.607690;,
        -0.377721; 0.000000;-0.925919;,
        -0.318991; 0.162158;-0.933782;,
         0.318991; 0.162158;-0.933782;,
         0.377721; 0.000000;-0.925919;,
         0.589958;-0.638865;-0.493763;,
        -0.589958;-0.638865;-0.493763;,
        -0.313662;-0.184031;-0.931530;,
         0.313662;-0.184031;-0.931530;,
         0.875091;-0.015177;-0.483720;,
         0.589958;-0.638865;-0.493763;,
         0.313662;-0.184031;-0.931530;,
         0.378705;-0.002292;-0.925514;,
        -0.994486;-0.029534;-0.100627;,
        -0.690218;-0.722346;-0.042614;,
        -0.545189;-0.620209; 0.564013;,
        -0.768353;-0.200863; 0.607690;,
        -0.768353;-0.200863; 0.607690;,
        -0.545189;-0.620209; 0.564013;,
         0.545189;-0.620209; 0.564013;,
         0.768353;-0.200863; 0.607690;,
         0.591269; 0.000654; 0.806474;,
         0.478478; 0.728201; 0.490695;,
        -0.478478; 0.728201; 0.490695;,
        -0.591269; 0.000654; 0.806474;,
         0.987805; 0.000546; 0.155696;,
         0.591269; 0.000654; 0.806474;,
         0.521920;-0.204618; 0.828089;,
         0.768353;-0.200863; 0.607690;,
        -0.987805; 0.000546; 0.155696;,
        -0.591269; 0.000654; 0.806474;,
        -0.478478; 0.728201; 0.490695;,
        -0.784724; 0.619802; 0.007272;,
        -0.784724; 0.619802; 0.007272;,
        -0.478478; 0.728201; 0.490695;,
         0.478478; 0.728201; 0.490695;,
         0.784724; 0.619802; 0.007272;,
        -0.875091;-0.015177;-0.483720;,
        -0.589958;-0.638865;-0.493763;,
        -0.690218;-0.722346;-0.042614;,
        -0.994486;-0.029534;-0.100627;,
         0.768353;-0.200863; 0.607690;,
         0.545189;-0.620209; 0.564013;,
         0.690218;-0.722346;-0.042614;,
         0.994486;-0.029534;-0.100627;,
         0.545189;-0.620209; 0.564013;,
        -0.545189;-0.620209; 0.564013;,
        -0.690218;-0.722346;-0.042614;,
         0.690218;-0.722346;-0.042614;,
        -0.784724; 0.619802; 0.007272;,
         0.784724; 0.619802; 0.007272;,
         0.728812; 0.676875;-0.103309;,
        -0.728812; 0.676875;-0.103309;,
        -0.987805; 0.000546; 0.155696;,
        -0.784724; 0.619802; 0.007272;,
        -0.728812; 0.676875;-0.103309;,
        -0.990057; 0.000000;-0.140669;,
         0.987805; 0.000546; 0.155696;,
         0.768353;-0.200863; 0.607690;,
         0.994486;-0.029534;-0.100627;,
         0.990057; 0.000000;-0.140669;,
        -0.378705;-0.002292;-0.925514;,
        -0.313662;-0.184031;-0.931530;,
        -0.589958;-0.638865;-0.493763;,
        -0.875091;-0.015177;-0.483720;,
         0.994486;-0.029534;-0.100627;,
         0.690218;-0.722346;-0.042614;,
         0.589958;-0.638865;-0.493763;,
         0.875091;-0.015177;-0.483720;,
         0.690218;-0.722346;-0.042614;,
        -0.690218;-0.722346;-0.042614;,
        -0.589958;-0.638865;-0.493763;,
         0.589958;-0.638865;-0.493763;,
        -0.728812; 0.676875;-0.103309;,
         0.728812; 0.676875;-0.103309;,
         0.539292; 0.656123;-0.527888;,
        -0.539292; 0.656123;-0.527888;,
        -0.990057; 0.000000;-0.140669;,
        -0.728812; 0.676875;-0.103309;,
        -0.539292; 0.656123;-0.527888;,
        -0.858119; 0.000000;-0.513451;,
         0.990057; 0.000000;-0.140669;,
         0.994486;-0.029534;-0.100627;,
         0.875091;-0.015177;-0.483720;,
         0.858119; 0.000000;-0.513451;,
         0.678674; 0.678597;-0.280907;,
         0.678674;-0.678597;-0.280906;,
         0.565812;-0.565845;-0.599730;,
         0.565812; 0.565845;-0.599730;,
         0.678674;-0.678597;-0.280906;,
        -0.678674;-0.678597;-0.280906;,
        -0.565812;-0.565845;-0.599730;,
         0.565812;-0.565845;-0.599730;,
        -0.678674;-0.678597;-0.280906;,
        -0.678674; 0.678597;-0.280907;,
        -0.565812; 0.565845;-0.599730;,
        -0.565812;-0.565845;-0.599730;,
        -0.678674; 0.678597;-0.280907;,
         0.678674; 0.678597;-0.280907;,
         0.565812; 0.565845;-0.599730;,
        -0.565812; 0.565845;-0.599730;,
         0.645639;-0.645698; 0.407707;,
         0.645639; 0.645697; 0.407706;,
        -0.645639; 0.645697; 0.407707;,
        -0.645639;-0.645698; 0.407707;,
        -0.565812;-0.565845;-0.599730;,
        -0.565812; 0.565845;-0.599730;,
         0.565812; 0.565845;-0.599730;,
         0.565812;-0.565845;-0.599730;,
        -0.645639; 0.645697; 0.407707;,
         0.645639; 0.645697; 0.407706;,
         0.678674; 0.678597;-0.280907;,
        -0.678674; 0.678597;-0.280907;,
        -0.645639;-0.645698; 0.407707;,
        -0.645639; 0.645697; 0.407707;,
        -0.678674; 0.678597;-0.280907;,
        -0.678674;-0.678597;-0.280906;,
         0.645639;-0.645698; 0.407707;,
        -0.645639;-0.645698; 0.407707;,
        -0.678674;-0.678597;-0.280906;,
         0.678674;-0.678597;-0.280906;,
         0.645639; 0.645697; 0.407706;,
         0.645639;-0.645698; 0.407707;,
         0.678674;-0.678597;-0.280906;,
         0.678674; 0.678597;-0.280907;,
         0.728812; 0.676875;-0.103309;,
         0.990057; 0.000000;-0.140669;,
         0.858119; 0.000000;-0.513451;,
         0.539292; 0.656123;-0.527888;,
        -0.994486;-0.029534;-0.100627;,
        -0.990057; 0.000000;-0.140669;,
        -0.858119; 0.000000;-0.513451;,
        -0.875091;-0.015177;-0.483720;,
         0.784724; 0.619802; 0.007272;,
         0.987805; 0.000546; 0.155696;,
         0.990057; 0.000000;-0.140669;,
         0.728812; 0.676875;-0.103309;,
        -0.768353;-0.200863; 0.607690;,
        -0.987805; 0.000546; 0.155696;,
        -0.990057; 0.000000;-0.140669;,
        -0.994486;-0.029534;-0.100627;,
        -0.768353;-0.200863; 0.607690;,
        -0.521920;-0.204618; 0.828089;,
        -0.591269; 0.000654; 0.806474;,
        -0.987805; 0.000546; 0.155696;,
         0.784724; 0.619802; 0.007272;,
         0.478478; 0.728201; 0.490695;,
         0.591269; 0.000654; 0.806474;,
         0.987805; 0.000546; 0.155696;,
         0.521920;-0.204618; 0.828089;,
         0.591269; 0.000654; 0.806474;,
        -0.591269; 0.000654; 0.806474;,
        -0.521920;-0.204618; 0.828089;,
        -0.378705;-0.002292;-0.925514;,
        -0.377721; 0.000000;-0.925919;,
         0.377721; 0.000000;-0.925919;,
         0.378705;-0.002292;-0.925514;,
        -0.875091;-0.015177;-0.483720;,
        -0.858119; 0.000000;-0.513451;,
        -0.377721; 0.000000;-0.925919;,
        -0.378705;-0.002292;-0.925514;,
         0.539292; 0.656123;-0.527888;,
         0.858119; 0.000000;-0.513451;,
         0.377721; 0.000000;-0.925919;,
         0.318991; 0.162158;-0.933782;;
        46;
        4;3,2,1,0;,
        4;7,6,5,4;,
        4;11,10,9,8;,
        4;15,14,13,12;,
        4;19,18,17,16;,
        4;23,22,21,20;,
        4;27,26,25,24;,
        4;31,30,29,28;,
        4;35,34,33,32;,
        4;39,38,37,36;,
        4;43,42,41,40;,
        4;47,46,45,44;,
        4;51,50,49,48;,
        4;55,54,53,52;,
        4;59,58,57,56;,
        4;63,62,61,60;,
        4;67,66,65,64;,
        4;71,70,69,68;,
        4;75,74,73,72;,
        4;79,78,77,76;,
        4;83,82,81,80;,
        4;87,86,85,84;,
        4;91,90,89,88;,
        4;95,94,93,92;,
        4;99,98,97,96;,
        4;103,102,101,100;,
        4;107,106,105,104;,
        4;111,110,109,108;,
        4;115,114,113,112;,
        4;119,118,117,116;,
        4;123,122,121,120;,
        4;127,126,125,124;,
        4;131,130,129,128;,
        4;135,134,133,132;,
        4;139,138,137,136;,
        4;143,142,141,140;,
        4;147,146,145,144;,
        4;151,150,149,148;,
        4;155,154,153,152;,
        4;159,158,157,156;,
        4;163,162,161,160;,
        4;167,166,165,164;,
        4;171,170,169,168;,
        4;175,174,173,172;,
        4;179,178,177,176;,
        4;183,182,181,180;;
      }
      MeshTextureCoords {
        184;
         0.997875; 0.453505;,
         0.997875; 0.997875;,
         0.982976; 0.984757;,
         0.982976; 0.461446;,
         0.731466; 0.210903;,
         0.727738; 0.486925;,
         0.686455; 0.486925;,
         0.682728; 0.210903;,
         0.940086; 0.453529;,
         0.940086; 0.997875;,
         0.924845; 0.968611;,
         0.924845; 0.445322;,
         0.530356; 0.336891;,
         0.530356; 0.415429;,
         0.501357; 0.400529;,
         0.501357; 0.351791;,
         0.381789; 0.382164;,
         0.403898; 0.273642;,
         0.467719; 0.273642;,
         0.489828; 0.382164;,
         0.871857; 0.997875;,
         0.871857; 0.474563;,
         0.920595; 0.474563;,
         0.920595; 0.997875;,
         0.501356; 0.332642;,
         0.501356; 0.264818;,
         0.525572; 0.278088;,
         0.525572; 0.319372;,
         0.780065; 0.474010;,
         0.781544; 0.186844;,
         0.795140; 0.210879;,
         0.795140; 0.486925;,
         0.044004; 0.161600;,
         0.045535; 0.448954;,
         0.019700; 0.448895;,
         0.002125; 0.160534;,
         0.195654; 0.449282;,
         0.217214; 0.161240;,
         0.282133; 0.161240;,
         0.303693; 0.449282;,
         0.746549; 0.491174;,
         0.746549; 0.997875;,
         0.682728; 0.997875;,
         0.682728; 0.491174;,
         0.381790; 0.454054;,
         0.452102; 0.386413;,
         0.452102; 0.896969;,
         0.385481; 0.997875;,
         0.610514; 0.419642;,
         0.678478; 0.487284;,
         0.678478; 0.997875;,
         0.606819; 0.963506;,
         0.534605; 0.161792;,
         0.612017; 0.183901;,
         0.612017; 0.247722;,
         0.534605; 0.269831;,
         0.095486; 0.161924;,
         0.095486; 0.449100;,
         0.045535; 0.448954;,
         0.044004; 0.161600;,
         0.099744; 0.449087;,
         0.115531; 0.160653;,
         0.141497; 0.160612;,
         0.141582; 0.448039;,
         0.311169; 0.373731;,
         0.376087; 0.373731;,
         0.377540; 0.399544;,
         0.309716; 0.399544;,
         0.534605; 0.382119;,
         0.534605; 0.274080;,
         0.568667; 0.274080;,
         0.568667; 0.382119;,
         0.285325; 0.453863;,
         0.283165; 0.997736;,
         0.248673; 0.997875;,
         0.247137; 0.453531;,
         0.191405; 0.453337;,
         0.191405; 0.997170;,
         0.149560; 0.997875;,
         0.153255; 0.453578;,
         0.814620; 0.186888;,
         0.814620; 0.462938;,
         0.800627; 0.486925;,
         0.799389; 0.199751;,
         0.141582; 0.448039;,
         0.141497; 0.160612;,
         0.191396; 0.160489;,
         0.191396; 0.447672;,
         0.309716; 0.399544;,
         0.377540; 0.399544;,
         0.377540; 0.449326;,
         0.309716; 0.449326;,
         0.568667; 0.382119;,
         0.568667; 0.274080;,
         0.618854; 0.288831;,
         0.618854; 0.367368;,
         0.247137; 0.453531;,
         0.248673; 0.997875;,
         0.197190; 0.997875;,
         0.195654; 0.453531;,
         0.153255; 0.453578;,
         0.149560; 0.997875;,
         0.099744; 0.997834;,
         0.103439; 0.453537;,
         0.318438; 0.229972;,
         0.342001; 0.229972;,
         0.339745; 0.284826;,
         0.320889; 0.284826;,
         0.341839; 0.344172;,
         0.318273; 0.344172;,
         0.320627; 0.289075;,
         0.339485; 0.289075;,
         0.631573; 0.242253;,
         0.655138; 0.242253;,
         0.652786; 0.297422;,
         0.633928; 0.297422;,
         0.655227; 0.356437;,
         0.631660; 0.356437;,
         0.634014; 0.301672;,
         0.652872; 0.301672;,
         0.381790; 0.228712;,
         0.422157; 0.228712;,
         0.422157; 0.269391;,
         0.381790; 0.269391;,
         0.475210; 0.415429;,
         0.456352; 0.415429;,
         0.456352; 0.396570;,
         0.475210; 0.396570;,
         0.663783; 0.382119;,
         0.623104; 0.382119;,
         0.631660; 0.356437;,
         0.655227; 0.356437;,
         0.623104; 0.217275;,
         0.663780; 0.217275;,
         0.655138; 0.242253;,
         0.631573; 0.242253;,
         0.350395; 0.369481;,
         0.309716; 0.369481;,
         0.318273; 0.344172;,
         0.341839; 0.344172;,
         0.309715; 0.205956;,
         0.350389; 0.205956;,
         0.342001; 0.229972;,
         0.318438; 0.229972;,
         0.342637; 0.453576;,
         0.339390; 0.997875;,
         0.289575; 0.997875;,
         0.292822; 0.453576;,
         0.044012; 0.997875;,
         0.040458; 0.453540;,
         0.091940; 0.453349;,
         0.095495; 0.997684;,
         0.377093; 0.453768;,
         0.377540; 0.997602;,
         0.339390; 0.997875;,
         0.342637; 0.453576;,
         0.002125; 0.997227;,
         0.002268; 0.453349;,
         0.040458; 0.453540;,
         0.044012; 0.997875;,
         0.538301; 0.386368;,
         0.602569; 0.487285;,
         0.602569; 0.997875;,
         0.534605; 0.930233;,
         0.456352; 0.454054;,
         0.530356; 0.419678;,
         0.530356; 0.930234;,
         0.460043; 0.997875;,
         0.814620; 0.491174;,
         0.814620; 0.997875;,
         0.750799; 0.997875;,
         0.750798; 0.491174;,
         0.818869; 0.997875;,
         0.818869; 0.474563;,
         0.867607; 0.474563;,
         0.867608; 0.997875;,
         0.959577; 0.453529;,
         0.959577; 0.997875;,
         0.944336; 0.989668;,
         0.944336; 0.466379;,
         0.978726; 0.445564;,
         0.978726; 0.989934;,
         0.963827; 0.997875;,
         0.963827; 0.474563;;
      }
      MeshMaterialList {
        1;
        46;
        0,
        0,
        0,
        0,
        0,
        0,
        0,
        0,
        0,
        0,
        0,
        0,
        0,
        0,
        0,
        0,
        0,
        0,
        0,
        0,
        0,
        0,
        0,
        0,
        0,
        0,
        0,
        0,
        0,
        0,
        0,
        0,
        0,
        0,
        0,
        0,
        0,
        0,
        0,
        0,
        0,
        0,
        0,
        0,
        0,
        0;
        Material None_001 {
           0.800000; 0.800000; 0.800000; 1.000000;;
           449.999985;
           0.800000; 0.800000; 0.800000;;
           0.000000; 0.000000; 0.000000;;
        }
      }
    }
  }
}
