xof 0303txt 0032

Frame Root {
  FrameTransformMatrix {
     1.000000, 0.000000, 0.000000, 0.000000,
     0.000000,-0.000000, 1.000000, 0.000000,
     0.000000, 1.000000, 0.000000, 0.000000,
     0.000000, 0.000000, 0.000000, 1.000000;;
  }
  Frame forearm2_Cylinder_002 {
    FrameTransformMatrix {
       1.000000, 0.000000, 0.000000, 0.000000,
       0.000000, 1.000000, 0.000000, 0.000000,
       0.000000, 0.000000, 1.000000, 0.000000,
       0.000000, 0.000000, 0.000000, 1.000000;;
    }
    Mesh {
      264;
       0.001436;-0.117405;-0.010433;,
       0.008876;-0.117405;-0.008439;,
       0.009075; 0.134148;-0.008784;,
       0.001436; 0.134148;-0.010830;,
       0.008876;-0.117405;-0.008439;,
       0.014322;-0.117405;-0.002993;,
       0.014667; 0.134148;-0.003192;,
       0.009075; 0.134148;-0.008784;,
       0.014322;-0.117405;-0.002993;,
       0.016316;-0.117405; 0.004447;,
       0.016713; 0.134148; 0.004447;,
       0.014667; 0.134148;-0.003192;,
       0.016316;-0.117405; 0.004447;,
       0.014322;-0.117405; 0.011887;,
       0.014667; 0.134148; 0.012086;,
       0.016713; 0.134148; 0.004447;,
       0.014322;-0.117405; 0.011887;,
       0.008876;-0.117405; 0.017333;,
       0.009075; 0.134148; 0.017677;,
       0.014667; 0.134148; 0.012086;,
       0.008876;-0.117405; 0.017333;,
       0.001436;-0.117405; 0.019327;,
       0.001436; 0.134148; 0.019724;,
       0.009075; 0.134148; 0.017677;,
       0.001436;-0.117405; 0.019327;,
      -0.006004;-0.117405; 0.017333;,
      -0.006203; 0.134148; 0.017677;,
       0.001436; 0.134148; 0.019724;,
      -0.006004;-0.117405; 0.017333;,
      -0.011450;-0.117405; 0.011887;,
      -0.011794; 0.134148; 0.012086;,
      -0.006203; 0.134148; 0.017677;,
      -0.011450;-0.117405; 0.011887;,
      -0.013444;-0.117405; 0.004447;,
      -0.013841; 0.134148; 0.004447;,
      -0.011794; 0.134148; 0.012086;,
      -0.013444;-0.117405; 0.004447;,
      -0.011450;-0.117405;-0.002993;,
      -0.011794; 0.134148;-0.003192;,
      -0.013841; 0.134148; 0.004447;,
      -0.004134; 0.134148;-0.005200;,
      -0.003690; 0.088152;-0.004432;,
      -0.007443; 0.088152;-0.000679;,
      -0.008211; 0.134148;-0.001123;,
      -0.011450;-0.117405;-0.002993;,
      -0.006004;-0.117405;-0.008439;,
      -0.006203; 0.134148;-0.008784;,
      -0.011794; 0.134148;-0.003192;,
      -0.006004;-0.117405;-0.008439;,
       0.001436;-0.117405;-0.010433;,
       0.001436; 0.134148;-0.010830;,
      -0.006203; 0.134148;-0.008784;,
      -0.006004;-0.117405; 0.017333;,
      -0.007050;-0.117908; 0.019146;,
      -0.013262;-0.117908; 0.012933;,
      -0.011450;-0.117405; 0.011887;,
       0.001436; 0.134148;-0.006692;,
       0.001436; 0.134148;-0.010830;,
       0.009075; 0.134148;-0.008784;,
       0.007006; 0.134148;-0.005200;,
       0.007006; 0.134148;-0.005200;,
       0.009075; 0.134148;-0.008784;,
       0.014667; 0.134148;-0.003192;,
       0.011083; 0.134148;-0.001123;,
       0.011083; 0.134148;-0.001123;,
       0.014667; 0.134148;-0.003192;,
       0.016713; 0.134148; 0.004447;,
       0.012576; 0.134148; 0.004447;,
       0.012576; 0.134148; 0.004447;,
       0.016713; 0.134148; 0.004447;,
       0.014667; 0.134148; 0.012086;,
       0.011083; 0.134148; 0.010017;,
       0.011083; 0.134148; 0.010017;,
       0.014667; 0.134148; 0.012086;,
       0.009075; 0.134148; 0.017677;,
       0.007006; 0.134148; 0.014094;,
       0.007006; 0.134148; 0.014094;,
       0.009075; 0.134148; 0.017677;,
       0.001436; 0.134148; 0.019724;,
       0.001436; 0.134148; 0.015586;,
       0.001436; 0.134148; 0.015586;,
       0.001436; 0.134148; 0.019724;,
      -0.006203; 0.134148; 0.017677;,
      -0.004134; 0.134148; 0.014094;,
      -0.004134; 0.134148; 0.014094;,
      -0.006203; 0.134148; 0.017677;,
      -0.011794; 0.134148; 0.012086;,
      -0.008211; 0.134148; 0.010017;,
      -0.008211; 0.134148; 0.010017;,
      -0.011794; 0.134148; 0.012086;,
      -0.013841; 0.134148; 0.004447;,
      -0.009703; 0.134148; 0.004447;,
      -0.009703; 0.134148; 0.004447;,
      -0.013841; 0.134148; 0.004447;,
      -0.011794; 0.134148;-0.003192;,
      -0.008211; 0.134148;-0.001123;,
      -0.008211; 0.134148;-0.001123;,
      -0.011794; 0.134148;-0.003192;,
      -0.006203; 0.134148;-0.008784;,
      -0.004134; 0.134148;-0.005200;,
      -0.004134; 0.134148;-0.005200;,
      -0.006203; 0.134148;-0.008784;,
       0.001436; 0.134148;-0.010830;,
       0.001436; 0.134148;-0.006692;,
       0.006562; 0.088152;-0.004432;,
       0.010315; 0.088152;-0.000679;,
       0.011689; 0.088152; 0.004447;,
       0.010315; 0.088152; 0.009573;,
       0.006562; 0.088152; 0.013326;,
       0.001436; 0.088152; 0.014699;,
      -0.003690; 0.088152; 0.013326;,
      -0.007443; 0.088152; 0.009573;,
      -0.008816; 0.088152; 0.004447;,
      -0.007443; 0.088152;-0.000679;,
      -0.003690; 0.088152;-0.004432;,
       0.001436; 0.088152;-0.005806;,
       0.007006; 0.134148;-0.005200;,
       0.006562; 0.088152;-0.004432;,
       0.001436; 0.088152;-0.005806;,
       0.001436; 0.134148;-0.006692;,
      -0.008211; 0.134148; 0.010017;,
      -0.007443; 0.088152; 0.009573;,
      -0.003690; 0.088152; 0.013326;,
      -0.004134; 0.134148; 0.014094;,
       0.007006; 0.134148; 0.014094;,
       0.006562; 0.088152; 0.013326;,
       0.010315; 0.088152; 0.009573;,
       0.011083; 0.134148; 0.010017;,
       0.001436; 0.134148;-0.006692;,
       0.001436; 0.088152;-0.005806;,
      -0.003690; 0.088152;-0.004432;,
      -0.004134; 0.134148;-0.005200;,
       0.011083; 0.134148;-0.001123;,
       0.010315; 0.088152;-0.000679;,
       0.006562; 0.088152;-0.004432;,
       0.007006; 0.134148;-0.005200;,
      -0.009703; 0.134148; 0.004447;,
      -0.008816; 0.088152; 0.004447;,
      -0.007443; 0.088152; 0.009573;,
      -0.008211; 0.134148; 0.010017;,
       0.001436; 0.134148; 0.015586;,
       0.001436; 0.088152; 0.014699;,
       0.006562; 0.088152; 0.013326;,
       0.007006; 0.134148; 0.014094;,
       0.012576; 0.134148; 0.004447;,
       0.011689; 0.088152; 0.004447;,
       0.010315; 0.088152;-0.000679;,
       0.011083; 0.134148;-0.001123;,
      -0.008211; 0.134148;-0.001123;,
      -0.007443; 0.088152;-0.000679;,
      -0.008816; 0.088152; 0.004447;,
      -0.009703; 0.134148; 0.004447;,
      -0.004134; 0.134148; 0.014094;,
      -0.003690; 0.088152; 0.013326;,
       0.001436; 0.088152; 0.014699;,
       0.001436; 0.134148; 0.015586;,
       0.011083; 0.134148; 0.010017;,
       0.010315; 0.088152; 0.009573;,
       0.011689; 0.088152; 0.004447;,
       0.012576; 0.134148; 0.004447;,
       0.001436;-0.117908; 0.021419;,
       0.001436;-0.128274; 0.021312;,
      -0.006996;-0.128274; 0.019052;,
      -0.007050;-0.117908; 0.019146;,
       0.001436;-0.117405; 0.019327;,
       0.001436;-0.117908; 0.021419;,
      -0.007050;-0.117908; 0.019146;,
      -0.006004;-0.117405; 0.017333;,
       0.008876;-0.117405; 0.017333;,
       0.009922;-0.117908; 0.019146;,
       0.001436;-0.117908; 0.021419;,
       0.001436;-0.117405; 0.019327;,
       0.014322;-0.117405; 0.011887;,
       0.016135;-0.117908; 0.012933;,
       0.009922;-0.117908; 0.019146;,
       0.008876;-0.117405; 0.017333;,
       0.016316;-0.117405; 0.004447;,
       0.018409;-0.117908; 0.004447;,
       0.016135;-0.117908; 0.012933;,
       0.014322;-0.117405; 0.011887;,
      -0.006004;-0.117405;-0.008439;,
      -0.007050;-0.117908;-0.010252;,
       0.001436;-0.117908;-0.012526;,
       0.001436;-0.117405;-0.010433;,
       0.001436;-0.117405;-0.010433;,
       0.001436;-0.117908;-0.012526;,
       0.009922;-0.117908;-0.010252;,
       0.008876;-0.117405;-0.008439;,
       0.014322;-0.117405;-0.002993;,
       0.016135;-0.117908;-0.004039;,
       0.018409;-0.117908; 0.004447;,
       0.016316;-0.117405; 0.004447;,
      -0.011450;-0.117405;-0.002993;,
      -0.013262;-0.117908;-0.004039;,
      -0.007050;-0.117908;-0.010252;,
      -0.006004;-0.117405;-0.008439;,
       0.008876;-0.117405;-0.008439;,
       0.009922;-0.117908;-0.010252;,
       0.016135;-0.117908;-0.004039;,
       0.014322;-0.117405;-0.002993;,
      -0.013444;-0.117405; 0.004447;,
      -0.015536;-0.117908; 0.004447;,
      -0.013262;-0.117908;-0.004039;,
      -0.011450;-0.117405;-0.002993;,
      -0.011450;-0.117405; 0.011887;,
      -0.013262;-0.117908; 0.012933;,
      -0.015536;-0.117908; 0.004447;,
      -0.013444;-0.117405; 0.004447;,
       0.001436;-0.128274;-0.012418;,
      -0.006996;-0.128274;-0.010158;,
      -0.013169;-0.128274;-0.003985;,
      -0.015429;-0.128274; 0.004447;,
      -0.013169;-0.128274; 0.012879;,
      -0.006996;-0.128274; 0.019052;,
       0.001436;-0.128274; 0.021312;,
       0.009869;-0.128274; 0.019052;,
       0.016041;-0.128274; 0.012879;,
       0.018301;-0.128274; 0.004447;,
       0.016041;-0.128274;-0.003985;,
       0.009869;-0.128274;-0.010158;,
       0.018409;-0.117908; 0.004447;,
       0.018301;-0.128274; 0.004447;,
       0.016041;-0.128274; 0.012879;,
       0.016135;-0.117908; 0.012933;,
      -0.013262;-0.117908;-0.004039;,
      -0.013169;-0.128274;-0.003985;,
      -0.006996;-0.128274;-0.010158;,
      -0.007050;-0.117908;-0.010252;,
       0.001436;-0.117908;-0.012526;,
       0.001436;-0.128274;-0.012418;,
       0.009869;-0.128274;-0.010158;,
       0.009922;-0.117908;-0.010252;,
      -0.007050;-0.117908; 0.019146;,
      -0.006996;-0.128274; 0.019052;,
      -0.013169;-0.128274; 0.012879;,
      -0.013262;-0.117908; 0.012933;,
       0.016135;-0.117908; 0.012933;,
       0.016041;-0.128274; 0.012879;,
       0.009869;-0.128274; 0.019052;,
       0.009922;-0.117908; 0.019146;,
      -0.007050;-0.117908;-0.010252;,
      -0.006996;-0.128274;-0.010158;,
       0.001436;-0.128274;-0.012418;,
       0.001436;-0.117908;-0.012526;,
       0.009922;-0.117908;-0.010252;,
       0.009869;-0.128274;-0.010158;,
       0.016041;-0.128274;-0.003985;,
       0.016135;-0.117908;-0.004039;,
      -0.013262;-0.117908; 0.012933;,
      -0.013169;-0.128274; 0.012879;,
      -0.015429;-0.128274; 0.004447;,
      -0.015536;-0.117908; 0.004447;,
       0.009922;-0.117908; 0.019146;,
       0.009869;-0.128274; 0.019052;,
       0.001436;-0.128274; 0.021312;,
       0.001436;-0.117908; 0.021419;,
       0.016135;-0.117908;-0.004039;,
       0.016041;-0.128274;-0.003985;,
       0.018301;-0.128274; 0.004447;,
       0.018409;-0.117908; 0.004447;,
      -0.015536;-0.117908; 0.004447;,
      -0.015429;-0.128274; 0.004447;,
      -0.013169;-0.128274;-0.003985;,
      -0.013262;-0.117908;-0.004039;;
      62;
      4;3,2,1,0;,
      4;7,6,5,4;,
      4;11,10,9,8;,
      4;15,14,13,12;,
      4;19,18,17,16;,
      4;23,22,21,20;,
      4;27,26,25,24;,
      4;31,30,29,28;,
      4;35,34,33,32;,
      4;39,38,37,36;,
      4;43,42,41,40;,
      4;47,46,45,44;,
      4;51,50,49,48;,
      4;55,54,53,52;,
      4;59,58,57,56;,
      4;63,62,61,60;,
      4;67,66,65,64;,
      4;71,70,69,68;,
      4;75,74,73,72;,
      4;79,78,77,76;,
      4;83,82,81,80;,
      4;87,86,85,84;,
      4;91,90,89,88;,
      4;95,94,93,92;,
      4;99,98,97,96;,
      4;103,102,101,100;,
      12;115,114,113,112,111,110,109,108,107,106,105,104;,
      4;119,118,117,116;,
      4;123,122,121,120;,
      4;127,126,125,124;,
      4;131,130,129,128;,
      4;135,134,133,132;,
      4;139,138,137,136;,
      4;143,142,141,140;,
      4;147,146,145,144;,
      4;151,150,149,148;,
      4;155,154,153,152;,
      4;159,158,157,156;,
      4;163,162,161,160;,
      4;167,166,165,164;,
      4;171,170,169,168;,
      4;175,174,173,172;,
      4;179,178,177,176;,
      4;183,182,181,180;,
      4;187,186,185,184;,
      4;191,190,189,188;,
      4;195,194,193,192;,
      4;199,198,197,196;,
      4;203,202,201,200;,
      4;207,206,205,204;,
      12;219,218,217,216,215,214,213,212,211,210,209,208;,
      4;223,222,221,220;,
      4;227,226,225,224;,
      4;231,230,229,228;,
      4;235,234,233,232;,
      4;239,238,237,236;,
      4;243,242,241,240;,
      4;247,246,245,244;,
      4;251,250,249,248;,
      4;255,254,253,252;,
      4;259,258,257,256;,
      4;263,262,261,260;;
      MeshNormals {
        264;
        -0.000000;-0.673129; 0.739525;,
        -0.369775;-0.673113; 0.640457;,
        -0.378833;-0.652624; 0.656176;,
         0.000000;-0.652666; 0.757646;,
        -0.369775;-0.673113; 0.640457;,
        -0.640458;-0.673113; 0.369774;,
        -0.656177;-0.652624; 0.378833;,
        -0.378833;-0.652624; 0.656176;,
        -0.640458;-0.673113; 0.369774;,
        -0.739525;-0.673129; 0.000000;,
        -0.757646;-0.652665; 0.000000;,
        -0.656177;-0.652624; 0.378833;,
        -0.739525;-0.673129; 0.000000;,
        -0.640450;-0.673115;-0.369785;,
        -0.656176;-0.652614;-0.378851;,
        -0.757646;-0.652665; 0.000000;,
        -0.640450;-0.673115;-0.369785;,
        -0.369777;-0.673099;-0.640471;,
        -0.378828;-0.652650;-0.656154;,
        -0.656176;-0.652614;-0.378851;,
        -0.369777;-0.673099;-0.640471;,
        -0.000000;-0.673108;-0.739544;,
         0.000000;-0.652638;-0.757670;,
        -0.378828;-0.652650;-0.656154;,
        -0.000000;-0.673108;-0.739544;,
         0.369797;-0.673092;-0.640467;,
         0.378847;-0.652639;-0.656154;,
         0.000000;-0.652638;-0.757670;,
         0.369797;-0.673092;-0.640467;,
         0.640484;-0.673078;-0.369792;,
         0.656154;-0.652639;-0.378847;,
         0.378847;-0.652639;-0.656154;,
         0.640484;-0.673078;-0.369792;,
         0.739563;-0.673087;-0.000000;,
         0.757670;-0.652638; 0.000000;,
         0.656154;-0.652639;-0.378847;,
         0.739563;-0.673087;-0.000000;,
         0.640492;-0.673076; 0.369783;,
         0.656154;-0.652649; 0.378828;,
         0.757670;-0.652638; 0.000000;,
        -0.315233;-0.776220;-0.545995;,
        -0.375457;-0.660399;-0.650312;,
        -0.650343;-0.660380;-0.375437;,
        -0.546004;-0.776225;-0.315205;,
         0.640492;-0.673076; 0.369783;,
         0.369795;-0.673106; 0.640453;,
         0.378852;-0.652613; 0.656176;,
         0.656154;-0.652649; 0.378828;,
         0.369795;-0.673106; 0.640453;,
        -0.000000;-0.673129; 0.739525;,
         0.000000;-0.652666; 0.757646;,
         0.378852;-0.652613; 0.656176;,
         0.369797;-0.673092;-0.640467;,
         0.411046;-0.569359;-0.711949;,
         0.711936;-0.569383;-0.411036;,
         0.640484;-0.673078;-0.369792;,
         0.000000;-0.776196;-0.630492;,
         0.000000;-0.652666; 0.757646;,
        -0.378833;-0.652624; 0.656176;,
         0.315233;-0.776219;-0.545997;,
         0.315233;-0.776219;-0.545997;,
        -0.378833;-0.652624; 0.656176;,
        -0.656177;-0.652624; 0.378833;,
         0.546000;-0.776203;-0.315267;,
         0.546000;-0.776203;-0.315267;,
        -0.656177;-0.652624; 0.378833;,
        -0.757646;-0.652665; 0.000000;,
         0.630443;-0.776236;-0.000000;,
         0.630443;-0.776236;-0.000000;,
        -0.757646;-0.652665; 0.000000;,
        -0.656176;-0.652614;-0.378851;,
         0.546000;-0.776203; 0.315267;,
         0.546000;-0.776203; 0.315267;,
        -0.656176;-0.652614;-0.378851;,
        -0.378828;-0.652650;-0.656154;,
         0.315206;-0.776224; 0.546005;,
         0.315206;-0.776224; 0.546005;,
        -0.378828;-0.652650;-0.656154;,
         0.000000;-0.652638;-0.757670;,
         0.000000;-0.776193; 0.630496;,
         0.000000;-0.776193; 0.630496;,
         0.000000;-0.652638;-0.757670;,
         0.378847;-0.652639;-0.656154;,
        -0.315206;-0.776224; 0.546004;,
        -0.315206;-0.776224; 0.546004;,
         0.378847;-0.652639;-0.656154;,
         0.656154;-0.652639;-0.378847;,
        -0.546004;-0.776225; 0.315206;,
        -0.546004;-0.776225; 0.315206;,
         0.656154;-0.652639;-0.378847;,
         0.757670;-0.652638; 0.000000;,
        -0.630496;-0.776193; 0.000000;,
        -0.630496;-0.776193; 0.000000;,
         0.757670;-0.652638; 0.000000;,
         0.656154;-0.652649; 0.378828;,
        -0.546004;-0.776225;-0.315205;,
        -0.546004;-0.776225;-0.315205;,
         0.656154;-0.652649; 0.378828;,
         0.378852;-0.652613; 0.656176;,
        -0.315233;-0.776220;-0.545995;,
        -0.315233;-0.776220;-0.545995;,
         0.378852;-0.652613; 0.656176;,
         0.000000;-0.652666; 0.757646;,
         0.000000;-0.776196;-0.630492;,
         0.375457;-0.660399;-0.650312;,
         0.650297;-0.660396;-0.375486;,
         0.750940;-0.660371; 0.000000;,
         0.650297;-0.660396; 0.375486;,
         0.375437;-0.660379; 0.650343;,
         0.000000;-0.660405; 0.750910;,
        -0.375437;-0.660379; 0.650343;,
        -0.650343;-0.660379; 0.375437;,
        -0.750910;-0.660405; 0.000000;,
        -0.650343;-0.660380;-0.375437;,
        -0.375457;-0.660399;-0.650312;,
         0.000000;-0.660359;-0.750950;,
         0.315233;-0.776219;-0.545997;,
         0.375457;-0.660399;-0.650312;,
         0.000000;-0.660359;-0.750950;,
         0.000000;-0.776196;-0.630492;,
        -0.546004;-0.776225; 0.315206;,
        -0.650343;-0.660379; 0.375437;,
        -0.375437;-0.660379; 0.650343;,
        -0.315206;-0.776224; 0.546004;,
         0.315206;-0.776224; 0.546005;,
         0.375437;-0.660379; 0.650343;,
         0.650297;-0.660396; 0.375486;,
         0.546000;-0.776203; 0.315267;,
         0.000000;-0.776196;-0.630492;,
         0.000000;-0.660359;-0.750950;,
        -0.375457;-0.660399;-0.650312;,
        -0.315233;-0.776220;-0.545995;,
         0.546000;-0.776203;-0.315267;,
         0.650297;-0.660396;-0.375486;,
         0.375457;-0.660399;-0.650312;,
         0.315233;-0.776219;-0.545997;,
        -0.630496;-0.776193; 0.000000;,
        -0.750910;-0.660405; 0.000000;,
        -0.650343;-0.660379; 0.375437;,
        -0.546004;-0.776225; 0.315206;,
         0.000000;-0.776193; 0.630496;,
         0.000000;-0.660405; 0.750910;,
         0.375437;-0.660379; 0.650343;,
         0.315206;-0.776224; 0.546005;,
         0.630443;-0.776236;-0.000000;,
         0.750940;-0.660371; 0.000000;,
         0.650297;-0.660396;-0.375486;,
         0.546000;-0.776203;-0.315267;,
        -0.546004;-0.776225;-0.315205;,
        -0.650343;-0.660380;-0.375437;,
        -0.750910;-0.660405; 0.000000;,
        -0.630496;-0.776193; 0.000000;,
        -0.315206;-0.776224; 0.546004;,
        -0.375437;-0.660379; 0.650343;,
         0.000000;-0.660405; 0.750910;,
         0.000000;-0.776193; 0.630496;,
         0.546000;-0.776203; 0.315267;,
         0.650297;-0.660396; 0.375486;,
         0.750940;-0.660371; 0.000000;,
         0.630443;-0.776236;-0.000000;,
         0.000005;-0.569400;-0.822060;,
         0.000006; 0.657075;-0.753826;,
         0.376912; 0.657105;-0.652802;,
         0.411046;-0.569359;-0.711949;,
        -0.000000;-0.673108;-0.739544;,
         0.000005;-0.569400;-0.822060;,
         0.411046;-0.569359;-0.711949;,
         0.369797;-0.673092;-0.640467;,
        -0.369777;-0.673099;-0.640471;,
        -0.411023;-0.569378;-0.711947;,
         0.000005;-0.569400;-0.822060;,
        -0.000000;-0.673108;-0.739544;,
        -0.640450;-0.673115;-0.369785;,
        -0.711939;-0.569382;-0.411032;,
        -0.411023;-0.569378;-0.711947;,
        -0.369777;-0.673099;-0.640471;,
        -0.739525;-0.673129; 0.000000;,
        -0.822074;-0.569380; 0.000000;,
        -0.711939;-0.569382;-0.411032;,
        -0.640450;-0.673115;-0.369785;,
         0.369795;-0.673106; 0.640453;,
         0.411065;-0.569368; 0.711931;,
         0.000005;-0.569382; 0.822073;,
        -0.000000;-0.673129; 0.739525;,
        -0.000000;-0.673129; 0.739525;,
         0.000005;-0.569382; 0.822073;,
        -0.411042;-0.569387; 0.711929;,
        -0.369775;-0.673113; 0.640457;,
        -0.640458;-0.673113; 0.369774;,
        -0.711939;-0.569382; 0.411032;,
        -0.822074;-0.569380; 0.000000;,
        -0.739525;-0.673129; 0.000000;,
         0.640492;-0.673076; 0.369783;,
         0.711936;-0.569383; 0.411036;,
         0.411065;-0.569368; 0.711931;,
         0.369795;-0.673106; 0.640453;,
        -0.369775;-0.673113; 0.640457;,
        -0.411042;-0.569387; 0.711929;,
        -0.711939;-0.569382; 0.411032;,
        -0.640458;-0.673113; 0.369774;,
         0.739563;-0.673087;-0.000000;,
         0.822074;-0.569381;-0.000000;,
         0.711936;-0.569383; 0.411036;,
         0.640492;-0.673076; 0.369783;,
         0.640484;-0.673078;-0.369792;,
         0.711936;-0.569383;-0.411036;,
         0.822074;-0.569381;-0.000000;,
         0.739563;-0.673087;-0.000000;,
         0.000006; 0.657095; 0.753808;,
         0.376927; 0.657113; 0.652786;,
         0.652819; 0.657093; 0.376904;,
         0.753839; 0.657059; 0.000000;,
         0.652819; 0.657093;-0.376904;,
         0.376912; 0.657105;-0.652802;,
         0.000006; 0.657075;-0.753826;,
        -0.376923; 0.657090;-0.652811;,
        -0.652795; 0.657120;-0.376897;,
        -0.753808; 0.657095; 0.000000;,
        -0.652795; 0.657120; 0.376897;,
        -0.376938; 0.657098; 0.652795;,
        -0.822074;-0.569380; 0.000000;,
        -0.753808; 0.657095; 0.000000;,
        -0.652795; 0.657120;-0.376897;,
        -0.711939;-0.569382;-0.411032;,
         0.711936;-0.569383; 0.411036;,
         0.652819; 0.657093; 0.376904;,
         0.376927; 0.657113; 0.652786;,
         0.411065;-0.569368; 0.711931;,
         0.000005;-0.569382; 0.822073;,
         0.000006; 0.657095; 0.753808;,
        -0.376938; 0.657098; 0.652795;,
        -0.411042;-0.569387; 0.711929;,
         0.411046;-0.569359;-0.711949;,
         0.376912; 0.657105;-0.652802;,
         0.652819; 0.657093;-0.376904;,
         0.711936;-0.569383;-0.411036;,
        -0.711939;-0.569382;-0.411032;,
        -0.652795; 0.657120;-0.376897;,
        -0.376923; 0.657090;-0.652811;,
        -0.411023;-0.569378;-0.711947;,
         0.411065;-0.569368; 0.711931;,
         0.376927; 0.657113; 0.652786;,
         0.000006; 0.657095; 0.753808;,
         0.000005;-0.569382; 0.822073;,
        -0.411042;-0.569387; 0.711929;,
        -0.376938; 0.657098; 0.652795;,
        -0.652795; 0.657120; 0.376897;,
        -0.711939;-0.569382; 0.411032;,
         0.711936;-0.569383;-0.411036;,
         0.652819; 0.657093;-0.376904;,
         0.753839; 0.657059; 0.000000;,
         0.822074;-0.569381;-0.000000;,
        -0.411023;-0.569378;-0.711947;,
        -0.376923; 0.657090;-0.652811;,
         0.000006; 0.657075;-0.753826;,
         0.000005;-0.569400;-0.822060;,
        -0.711939;-0.569382; 0.411032;,
        -0.652795; 0.657120; 0.376897;,
        -0.753808; 0.657095; 0.000000;,
        -0.822074;-0.569380; 0.000000;,
         0.822074;-0.569381;-0.000000;,
         0.753839; 0.657059; 0.000000;,
         0.652819; 0.657093; 0.376904;,
         0.711936;-0.569383; 0.411036;;
        62;
        4;3,2,1,0;,
        4;7,6,5,4;,
        4;11,10,9,8;,
        4;15,14,13,12;,
        4;19,18,17,16;,
        4;23,22,21,20;,
        4;27,26,25,24;,
        4;31,30,29,28;,
        4;35,34,33,32;,
        4;39,38,37,36;,
        4;43,42,41,40;,
        4;47,46,45,44;,
        4;51,50,49,48;,
        4;55,54,53,52;,
        4;59,58,57,56;,
        4;63,62,61,60;,
        4;67,66,65,64;,
        4;71,70,69,68;,
        4;75,74,73,72;,
        4;79,78,77,76;,
        4;83,82,81,80;,
        4;87,86,85,84;,
        4;91,90,89,88;,
        4;95,94,93,92;,
        4;99,98,97,96;,
        4;103,102,101,100;,
        12;115,114,113,112,111,110,109,108,107,106,105,104;,
        4;119,118,117,116;,
        4;123,122,121,120;,
        4;127,126,125,124;,
        4;131,130,129,128;,
        4;135,134,133,132;,
        4;139,138,137,136;,
        4;143,142,141,140;,
        4;147,146,145,144;,
        4;151,150,149,148;,
        4;155,154,153,152;,
        4;159,158,157,156;,
        4;163,162,161,160;,
        4;167,166,165,164;,
        4;171,170,169,168;,
        4;175,174,173,172;,
        4;179,178,177,176;,
        4;183,182,181,180;,
        4;187,186,185,184;,
        4;191,190,189,188;,
        4;195,194,193,192;,
        4;199,198,197,196;,
        4;203,202,201,200;,
        4;207,206,205,204;,
        12;219,218,217,216,215,214,213,212,211,210,209,208;,
        4;223,222,221,220;,
        4;227,226,225,224;,
        4;231,230,229,228;,
        4;235,234,233,232;,
        4;239,238,237,236;,
        4;243,242,241,240;,
        4;247,246,245,244;,
        4;251,250,249,248;,
        4;255,254,253,252;,
        4;259,258,257,256;,
        4;263,262,261,260;;
      }
      MeshTextureCoords {
        264;
         0.194990; 0.001504;,
         0.225514; 0.001566;,
         0.223881; 0.998508;,
         0.192540; 0.998444;,
         0.225514; 0.001566;,
         0.256038; 0.001604;,
         0.255222; 0.998546;,
         0.223881; 0.998508;,
         0.256038; 0.001604;,
         0.286561; 0.001616;,
         0.286563; 0.998559;,
         0.255222; 0.998546;,
         0.286561; 0.001616;,
         0.317085; 0.001604;,
         0.317903; 0.998546;,
         0.286563; 0.998559;,
         0.317085; 0.001604;,
         0.347609; 0.001566;,
         0.349244; 0.998508;,
         0.317903; 0.998546;,
         0.347609; 0.001566;,
         0.378133; 0.001504;,
         0.380585; 0.998443;,
         0.349244; 0.998508;,
         0.003948; 0.001504;,
         0.034472; 0.001566;,
         0.032839; 0.998508;,
         0.001498; 0.998444;,
         0.034472; 0.001566;,
         0.064996; 0.001604;,
         0.064180; 0.998546;,
         0.032839; 0.998508;,
         0.064996; 0.001604;,
         0.095519; 0.001616;,
         0.095521; 0.998559;,
         0.064180; 0.998546;,
         0.095519; 0.001616;,
         0.126043; 0.001604;,
         0.126861; 0.998546;,
         0.095521; 0.998559;,
         0.497368; 0.815657;,
         0.493730; 0.997941;,
         0.472700; 0.997626;,
         0.474519; 0.815315;,
         0.126043; 0.001604;,
         0.156567; 0.001566;,
         0.158202; 0.998508;,
         0.126861; 0.998546;,
         0.156567; 0.001566;,
         0.187091; 0.001504;,
         0.189543; 0.998443;,
         0.158202; 0.998508;,
         0.821270; 0.863556;,
         0.814012; 0.859075;,
         0.839173; 0.835007;,
         0.843327; 0.842455;,
         0.654533; 0.779645;,
         0.654533; 0.763247;,
         0.684805; 0.771358;,
         0.676606; 0.785560;,
         0.676606; 0.785560;,
         0.684805; 0.771358;,
         0.706967; 0.793519;,
         0.692765; 0.801718;,
         0.692765; 0.801718;,
         0.706967; 0.793519;,
         0.715078; 0.823792;,
         0.698679; 0.823792;,
         0.698679; 0.823792;,
         0.715078; 0.823792;,
         0.706967; 0.854064;,
         0.692765; 0.845865;,
         0.692765; 0.845865;,
         0.706967; 0.854064;,
         0.684805; 0.876225;,
         0.676606; 0.862024;,
         0.676606; 0.862024;,
         0.684805; 0.876225;,
         0.654533; 0.884337;,
         0.654533; 0.867938;,
         0.996832; 0.891887;,
         0.996832; 0.908285;,
         0.966559; 0.900174;,
         0.974759; 0.885972;,
         0.974759; 0.885972;,
         0.966559; 0.900174;,
         0.944398; 0.878013;,
         0.958600; 0.869813;,
         0.958600; 0.869813;,
         0.944398; 0.878013;,
         0.936287; 0.847740;,
         0.952686; 0.847740;,
         0.952686; 0.847740;,
         0.936287; 0.847740;,
         0.944398; 0.817468;,
         0.958600; 0.825667;,
         0.958600; 0.825667;,
         0.944398; 0.817468;,
         0.966559; 0.795307;,
         0.974759; 0.809508;,
         0.974759; 0.809508;,
         0.966559; 0.795307;,
         0.996832; 0.787195;,
         0.996832; 0.803594;,
         0.753491; 0.828139;,
         0.753491; 0.807107;,
         0.764007; 0.788892;,
         0.782222; 0.778376;,
         0.803254; 0.778376;,
         0.821469; 0.788892;,
         0.831985; 0.807107;,
         0.831985; 0.828139;,
         0.821469; 0.846354;,
         0.803254; 0.856870;,
         0.782222; 0.856870;,
         0.764007; 0.846354;,
         0.632027; 0.998050;,
         0.628389; 0.815766;,
         0.649414; 0.815242;,
         0.654872; 0.997480;,
         0.428816; 0.815315;,
         0.430635; 0.997626;,
         0.409605; 0.997941;,
         0.405966; 0.815657;,
         0.540625; 0.998050;,
         0.544264; 0.815766;,
         0.565294; 0.816081;,
         0.563475; 0.998392;,
         0.520213; 0.816227;,
         0.514755; 0.998466;,
         0.493730; 0.997941;,
         0.497368; 0.815657;,
         0.609178; 0.998392;,
         0.607359; 0.816081;,
         0.628389; 0.815766;,
         0.632027; 0.998050;,
         0.451667; 0.815201;,
         0.451668; 0.997521;,
         0.430635; 0.997626;,
         0.428816; 0.815315;,
         0.517781; 0.997480;,
         0.523238; 0.815242;,
         0.544264; 0.815766;,
         0.540625; 0.998050;,
         0.586326; 0.998506;,
         0.586326; 0.816186;,
         0.607359; 0.816081;,
         0.609178; 0.998392;,
         0.474519; 0.815315;,
         0.472700; 0.997626;,
         0.451668; 0.997521;,
         0.451667; 0.815201;,
         0.405966; 0.815657;,
         0.409605; 0.997941;,
         0.388579; 0.998466;,
         0.383122; 0.816227;,
         0.563475; 0.998392;,
         0.565294; 0.816081;,
         0.586326; 0.816186;,
         0.586326; 0.998506;,
         0.785320; 0.997663;,
         0.785983; 0.956585;,
         0.820577; 0.957051;,
         0.820135; 0.998132;,
         0.812285; 0.892729;,
         0.803764; 0.892350;,
         0.814012; 0.859075;,
         0.821270; 0.863556;,
         0.766197; 0.869374;,
         0.758940; 0.873856;,
         0.748691; 0.840580;,
         0.757212; 0.840201;,
         0.788255; 0.890475;,
         0.784100; 0.897923;,
         0.758940; 0.873856;,
         0.766197; 0.869374;,
         0.817798; 0.898157;,
         0.817798; 0.906686;,
         0.784100; 0.897923;,
         0.788255; 0.890475;,
         0.924471; 0.863556;,
         0.931728; 0.859075;,
         0.941977; 0.892350;,
         0.933456; 0.892729;,
         0.878383; 0.840201;,
         0.886904; 0.840580;,
         0.876656; 0.873855;,
         0.869399; 0.869374;,
         0.847341; 0.890475;,
         0.851496; 0.897923;,
         0.817798; 0.906686;,
         0.817798; 0.898157;,
         0.902413; 0.842455;,
         0.906568; 0.835007;,
         0.931728; 0.859075;,
         0.924471; 0.863556;,
         0.869399; 0.869374;,
         0.876656; 0.873855;,
         0.851496; 0.897923;,
         0.847341; 0.890475;,
         0.872870; 0.834773;,
         0.872870; 0.826244;,
         0.906568; 0.835007;,
         0.902413; 0.842455;,
         0.843327; 0.842455;,
         0.839173; 0.835007;,
         0.872870; 0.826244;,
         0.872870; 0.834773;,
         0.673746; 0.886683;,
         0.703708; 0.869385;,
         0.738305; 0.869385;,
         0.768267; 0.886683;,
         0.785566; 0.916645;,
         0.785566; 0.951242;,
         0.768267; 0.981204;,
         0.738305; 0.998503;,
         0.703708; 0.998503;,
         0.673746; 0.981204;,
         0.656448; 0.951242;,
         0.656448; 0.916645;,
         0.892976; 0.952626;,
         0.892976; 0.911543;,
         0.927573; 0.911450;,
         0.927794; 0.952532;,
         0.924588; 0.998413;,
         0.924367; 0.957330;,
         0.958963; 0.957051;,
         0.959405; 0.998132;,
         0.788526; 0.951783;,
         0.789189; 0.910705;,
         0.823783; 0.911170;,
         0.823341; 0.952251;,
         0.820135; 0.998132;,
         0.820577; 0.957051;,
         0.855173; 0.957330;,
         0.854952; 0.998413;,
         0.927794; 0.952532;,
         0.927573; 0.911450;,
         0.962169; 0.911170;,
         0.962611; 0.952251;,
         0.959405; 0.998132;,
         0.958963; 0.957051;,
         0.993557; 0.956585;,
         0.994220; 0.997663;,
         0.823341; 0.952251;,
         0.823783; 0.911170;,
         0.858379; 0.911450;,
         0.858158; 0.952532;,
         0.854952; 0.998413;,
         0.855173; 0.957330;,
         0.889770; 0.957423;,
         0.889770; 0.998507;,
         0.962611; 0.952251;,
         0.962169; 0.911170;,
         0.996763; 0.910705;,
         0.997426; 0.951783;,
         0.858158; 0.952532;,
         0.858379; 0.911450;,
         0.892976; 0.911543;,
         0.892976; 0.952626;,
         0.889770; 0.998507;,
         0.889770; 0.957423;,
         0.924367; 0.957330;,
         0.924588; 0.998413;;
      }
      MeshMaterialList {
        1;
        62;
        0,
        0,
        0,
        0,
        0,
        0,
        0,
        0,
        0,
        0,
        0,
        0,
        0,
        0,
        0,
        0,
        0,
        0,
        0,
        0,
        0,
        0,
        0,
        0,
        0,
        0,
        0,
        0,
        0,
        0,
        0,
        0,
        0,
        0,
        0,
        0,
        0,
        0,
        0,
        0,
        0,
        0,
        0,
        0,
        0,
        0,
        0,
        0,
        0,
        0,
        0,
        0,
        0,
        0,
        0,
        0,
        0,
        0,
        0,
        0,
        0,
        0;
        Material forearm2 {
           0.800000; 0.800000; 0.800000; 1.000000;;
           225.000000;
           0.500000; 0.500000; 0.500000;;
           0.000000; 0.000000; 0.000000;;
        }
      }
    }
  }
}
