xof 0303txt 0032

Frame Root {
  FrameTransformMatrix {
     1.000000, 0.000000, 0.000000, 0.000000,
     0.000000,-0.000000, 1.000000, 0.000000,
     0.000000, 1.000000, 0.000000, 0.000000,
     0.000000, 0.000000, 0.000000, 1.000000;;
  }
  Frame ForeArm1M1A {
    FrameTransformMatrix {
       1.000000, 0.000000, 0.000000, 0.000000,
       0.000000, 1.000000, 0.000000, 0.000000,
       0.000000, 0.000000, 1.000000, 0.000000,
       0.000000, 0.000000, 0.000000, 1.000000;;
    }
    Mesh {
      220;
       0.000000;-0.018652; 0.001891;,
       0.004151;-0.018652; 0.002623;,
       0.004151; 0.207453; 0.002623;,
       0.000000; 0.207453; 0.001891;,
       0.004151;-0.018652; 0.002623;,
       0.007802;-0.018652; 0.004731;,
       0.007802; 0.207453; 0.004731;,
       0.004151; 0.207453; 0.002623;,
       0.007802;-0.018652; 0.004731;,
       0.010511;-0.018652; 0.007960;,
       0.010511; 0.207453; 0.007960;,
       0.007802; 0.207453; 0.004731;,
       0.010511;-0.018652; 0.007960;,
       0.011953;-0.018652; 0.011921;,
       0.011953; 0.207453; 0.011921;,
       0.010511; 0.207453; 0.007960;,
       0.011953;-0.018652; 0.011921;,
       0.011953;-0.018652; 0.016136;,
       0.011953; 0.207453; 0.016136;,
       0.011953; 0.207453; 0.011921;,
       0.011953;-0.018652; 0.016136;,
       0.010511;-0.018652; 0.020097;,
       0.010511; 0.207453; 0.020097;,
       0.011953; 0.207453; 0.016136;,
       0.010511;-0.018652; 0.020097;,
       0.007802;-0.018652; 0.023326;,
       0.007802; 0.207453; 0.023326;,
       0.010511; 0.207453; 0.020097;,
       0.007802;-0.018652; 0.023326;,
       0.004151;-0.018652; 0.025434;,
       0.004151; 0.207453; 0.025434;,
       0.007802; 0.207453; 0.023326;,
       0.004151;-0.018652; 0.025434;,
       0.000000;-0.018652; 0.026166;,
       0.000000; 0.207453; 0.026166;,
       0.004151; 0.207453; 0.025434;,
       0.000000;-0.018652; 0.026166;,
      -0.004151;-0.018652; 0.025434;,
      -0.004151; 0.207453; 0.025434;,
       0.000000; 0.207453; 0.026166;,
      -0.004151;-0.018652; 0.025434;,
      -0.007802;-0.018652; 0.023326;,
      -0.007802; 0.207453; 0.023326;,
      -0.004151; 0.207453; 0.025434;,
      -0.007802;-0.018652; 0.023326;,
      -0.010511;-0.018652; 0.020097;,
      -0.010511; 0.207453; 0.020097;,
      -0.007802; 0.207453; 0.023326;,
      -0.010511;-0.018652; 0.020097;,
      -0.011953;-0.018652; 0.016136;,
      -0.011953; 0.207453; 0.016136;,
      -0.010511; 0.207453; 0.020097;,
      -0.011953;-0.018652; 0.016136;,
      -0.011953;-0.018652; 0.011921;,
      -0.011953; 0.207453; 0.011921;,
      -0.011953; 0.207453; 0.016136;,
      -0.011953;-0.018652; 0.011921;,
      -0.010511;-0.018652; 0.007960;,
      -0.010511; 0.207453; 0.007960;,
      -0.011953; 0.207453; 0.011921;,
      -0.010511;-0.018652; 0.007960;,
      -0.007802;-0.018652; 0.004731;,
      -0.007802; 0.207453; 0.004731;,
      -0.010511; 0.207453; 0.007960;,
       0.004151; 0.207453; 0.002623;,
       0.007802; 0.207453; 0.004731;,
       0.010511; 0.207453; 0.007960;,
       0.011953; 0.207453; 0.011921;,
       0.011953; 0.207453; 0.016136;,
       0.010511; 0.207453; 0.020097;,
       0.007802; 0.207453; 0.023326;,
       0.004151; 0.207453; 0.025434;,
       0.000000; 0.207453; 0.026166;,
      -0.004151; 0.207453; 0.025434;,
      -0.007802; 0.207453; 0.023326;,
      -0.010511; 0.207453; 0.020097;,
      -0.011953; 0.207453; 0.016136;,
      -0.011953; 0.207453; 0.011921;,
      -0.010511; 0.207453; 0.007960;,
      -0.007802; 0.207453; 0.004731;,
      -0.004151; 0.207453; 0.002623;,
       0.000000; 0.207453; 0.001891;,
      -0.007802;-0.018652; 0.004731;,
      -0.004151;-0.018652; 0.002623;,
      -0.004151; 0.207453; 0.002623;,
      -0.007802; 0.207453; 0.004731;,
      -0.004151;-0.018652; 0.002623;,
       0.000000;-0.018652; 0.001891;,
       0.000000; 0.207453; 0.001891;,
      -0.004151; 0.207453; 0.002623;,
       0.000000;-0.068638; 0.001891;,
      -0.004151;-0.068638; 0.002623;,
      -0.007802;-0.068638; 0.004731;,
      -0.010511;-0.068638; 0.007960;,
      -0.011953;-0.068638; 0.011921;,
      -0.011953;-0.068638; 0.016136;,
      -0.010511;-0.068638; 0.020097;,
      -0.007802;-0.068638; 0.023326;,
      -0.004151;-0.068638; 0.025434;,
       0.000000;-0.068638; 0.026166;,
       0.004151;-0.068638; 0.025434;,
       0.007802;-0.068638; 0.023326;,
       0.010511;-0.068638; 0.020097;,
       0.011953;-0.068638; 0.016136;,
       0.011953;-0.068638; 0.011921;,
       0.010511;-0.068638; 0.007960;,
       0.007802;-0.068638; 0.004731;,
       0.004151;-0.068638; 0.002623;,
      -0.007802;-0.068638; 0.004731;,
      -0.007802;-0.068638;-0.006775;,
      -0.007802;-0.018652;-0.006775;,
      -0.007802;-0.018652; 0.004731;,
       0.004151;-0.068638; 0.002623;,
       0.004151;-0.068638;-0.006775;,
      -0.000000;-0.068638;-0.006775;,
       0.000000;-0.068638; 0.001891;,
      -0.010511;-0.068638; 0.007960;,
      -0.007802;-0.068638; 0.004731;,
      -0.007802;-0.018652; 0.004731;,
      -0.010511;-0.018652; 0.007960;,
      -0.011953;-0.068638; 0.011921;,
      -0.010511;-0.068638; 0.007960;,
      -0.010511;-0.018652; 0.007960;,
      -0.011953;-0.018652; 0.011921;,
      -0.011953;-0.068638; 0.016136;,
      -0.011953;-0.068638; 0.011921;,
      -0.011953;-0.018652; 0.011921;,
      -0.011953;-0.018652; 0.016136;,
      -0.010511;-0.068638; 0.020097;,
      -0.011953;-0.068638; 0.016136;,
      -0.011953;-0.018652; 0.016136;,
      -0.010511;-0.018652; 0.020097;,
      -0.007802;-0.068638; 0.023326;,
      -0.010511;-0.068638; 0.020097;,
      -0.010511;-0.018652; 0.020097;,
      -0.007802;-0.018652; 0.023326;,
      -0.004151;-0.068638; 0.025434;,
      -0.007802;-0.068638; 0.023326;,
      -0.007802;-0.018652; 0.023326;,
      -0.004151;-0.018652; 0.025434;,
       0.000000;-0.068638; 0.026166;,
      -0.004151;-0.068638; 0.025434;,
      -0.004151;-0.018652; 0.025434;,
       0.000000;-0.018652; 0.026166;,
       0.004151;-0.068638; 0.025434;,
       0.000000;-0.068638; 0.026166;,
       0.000000;-0.018652; 0.026166;,
       0.004151;-0.018652; 0.025434;,
       0.007802;-0.068638; 0.023326;,
       0.004151;-0.068638; 0.025434;,
       0.004151;-0.018652; 0.025434;,
       0.007802;-0.018652; 0.023326;,
       0.010511;-0.068638; 0.020097;,
       0.007802;-0.068638; 0.023326;,
       0.007802;-0.018652; 0.023326;,
       0.010511;-0.018652; 0.020097;,
       0.011953;-0.068638; 0.016136;,
       0.010511;-0.068638; 0.020097;,
       0.010511;-0.018652; 0.020097;,
       0.011953;-0.018652; 0.016136;,
       0.011953;-0.068638; 0.011921;,
       0.011953;-0.068638; 0.016136;,
       0.011953;-0.018652; 0.016136;,
       0.011953;-0.018652; 0.011921;,
       0.010511;-0.068638; 0.007960;,
       0.011953;-0.068638; 0.011921;,
       0.011953;-0.018652; 0.011921;,
       0.010511;-0.018652; 0.007960;,
       0.007802;-0.068638; 0.004731;,
       0.010511;-0.068638; 0.007960;,
       0.010511;-0.018652; 0.007960;,
       0.007802;-0.018652; 0.004731;,
       0.004151;-0.018652; 0.002623;,
       0.004151;-0.018652;-0.006775;,
       0.007802;-0.018652;-0.006775;,
       0.007802;-0.018652; 0.004731;,
       0.007802;-0.018652; 0.004731;,
       0.007802;-0.018652;-0.006775;,
       0.007802;-0.068638;-0.006775;,
       0.007802;-0.068638; 0.004731;,
      -0.004151;-0.068638;-0.006775;,
      -0.000000;-0.068638;-0.006775;,
      -0.000000;-0.018652;-0.006775;,
      -0.004151;-0.018652;-0.006775;,
      -0.007802;-0.068638;-0.006775;,
      -0.004151;-0.068638;-0.006775;,
      -0.004151;-0.018652;-0.006775;,
      -0.007802;-0.018652;-0.006775;,
       0.004151;-0.068638;-0.006775;,
       0.007802;-0.068638;-0.006775;,
       0.007802;-0.018652;-0.006775;,
       0.004151;-0.018652;-0.006775;,
      -0.000000;-0.068638;-0.006775;,
       0.004151;-0.068638;-0.006775;,
       0.004151;-0.018652;-0.006775;,
      -0.000000;-0.018652;-0.006775;,
       0.000000;-0.018652; 0.001891;,
      -0.000000;-0.018652;-0.006775;,
       0.004151;-0.018652;-0.006775;,
       0.004151;-0.018652; 0.002623;,
       0.007802;-0.068638; 0.004731;,
       0.007802;-0.068638;-0.006775;,
       0.004151;-0.068638;-0.006775;,
       0.004151;-0.068638; 0.002623;,
      -0.004151;-0.018652; 0.002623;,
      -0.004151;-0.018652;-0.006775;,
      -0.000000;-0.018652;-0.006775;,
       0.000000;-0.018652; 0.001891;,
       0.000000;-0.068638; 0.001891;,
      -0.000000;-0.068638;-0.006775;,
      -0.004151;-0.068638;-0.006775;,
      -0.004151;-0.068638; 0.002623;,
      -0.004151;-0.068638; 0.002623;,
      -0.004151;-0.068638;-0.006775;,
      -0.007802;-0.068638;-0.006775;,
      -0.007802;-0.068638; 0.004731;,
      -0.007802;-0.018652; 0.004731;,
      -0.007802;-0.018652;-0.006775;,
      -0.004151;-0.018652;-0.006775;,
      -0.004151;-0.018652; 0.002623;;
      48;
      4;3,2,1,0;,
      4;7,6,5,4;,
      4;11,10,9,8;,
      4;15,14,13,12;,
      4;19,18,17,16;,
      4;23,22,21,20;,
      4;27,26,25,24;,
      4;31,30,29,28;,
      4;35,34,33,32;,
      4;39,38,37,36;,
      4;43,42,41,40;,
      4;47,46,45,44;,
      4;51,50,49,48;,
      4;55,54,53,52;,
      4;59,58,57,56;,
      4;63,62,61,60;,
      18;81,80,79,78,77,76,75,74,73,72,71,70,69,68,67,66,65,64;,
      4;85,84,83,82;,
      4;89,88,87,86;,
      18;107,106,105,104,103,102,101,100,99,98,97,96,95,94,93,92,91,90;,
      4;111,110,109,108;,
      4;115,114,113,112;,
      4;119,118,117,116;,
      4;123,122,121,120;,
      4;127,126,125,124;,
      4;131,130,129,128;,
      4;135,134,133,132;,
      4;139,138,137,136;,
      4;143,142,141,140;,
      4;147,146,145,144;,
      4;151,150,149,148;,
      4;155,154,153,152;,
      4;159,158,157,156;,
      4;163,162,161,160;,
      4;167,166,165,164;,
      4;171,170,169,168;,
      4;175,174,173,172;,
      4;179,178,177,176;,
      4;183,182,181,180;,
      4;187,186,185,184;,
      4;191,190,189,188;,
      4;195,194,193,192;,
      4;199,198,197,196;,
      4;203,202,201,200;,
      4;207,206,205,204;,
      4;211,210,209,208;,
      4;215,214,213,212;,
      4;219,218,217,216;;
      MeshNormals {
        220;
         0.000000;-0.748361; 0.663292;,
        -0.226860;-0.748361; 0.623291;,
        -0.253893;-0.670031; 0.697565;,
         0.000000;-0.670031; 0.742333;,
        -0.226860;-0.748361; 0.623291;,
        -0.802730;-0.176497; 0.569625;,
        -0.477163;-0.670031; 0.568660;,
        -0.253893;-0.670031; 0.697565;,
        -0.802730;-0.176497; 0.569625;,
        -0.866025;-0.000000; 0.500000;,
        -0.642879;-0.670031; 0.371166;,
        -0.477163;-0.670031; 0.568660;,
        -0.866025;-0.000000; 0.500000;,
        -0.984808;-0.000000; 0.173648;,
        -0.731055;-0.670031; 0.128904;,
        -0.642879;-0.670031; 0.371166;,
        -0.984808;-0.000000; 0.173648;,
        -0.984808; 0.000000;-0.173648;,
        -0.731055;-0.670031;-0.128905;,
        -0.731055;-0.670031; 0.128904;,
        -0.984808; 0.000000;-0.173648;,
        -0.866025; 0.000000;-0.500000;,
        -0.642879;-0.670031;-0.371167;,
        -0.731055;-0.670031;-0.128905;,
        -0.866025; 0.000000;-0.500000;,
        -0.642788; 0.000000;-0.766044;,
        -0.477163;-0.670031;-0.568660;,
        -0.642879;-0.670031;-0.371167;,
        -0.642788; 0.000000;-0.766044;,
        -0.342020; 0.000000;-0.939693;,
        -0.253893;-0.670031;-0.697565;,
        -0.477163;-0.670031;-0.568660;,
        -0.342020; 0.000000;-0.939693;,
         0.000000; 0.000000;-1.000000;,
         0.000000;-0.670031;-0.742334;,
        -0.253893;-0.670031;-0.697565;,
         0.000000; 0.000000;-1.000000;,
         0.342020; 0.000000;-0.939693;,
         0.253893;-0.670031;-0.697565;,
         0.000000;-0.670031;-0.742334;,
         0.342020; 0.000000;-0.939693;,
         0.642788; 0.000000;-0.766044;,
         0.477163;-0.670031;-0.568660;,
         0.253893;-0.670031;-0.697565;,
         0.642788; 0.000000;-0.766044;,
         0.866025; 0.000000;-0.500000;,
         0.642879;-0.670031;-0.371167;,
         0.477163;-0.670031;-0.568660;,
         0.866025; 0.000000;-0.500000;,
         0.984808; 0.000000;-0.173648;,
         0.731055;-0.670031;-0.128905;,
         0.642879;-0.670031;-0.371167;,
         0.984808; 0.000000;-0.173648;,
         0.984808;-0.000000; 0.173648;,
         0.731055;-0.670031; 0.128904;,
         0.731055;-0.670031;-0.128905;,
         0.984808;-0.000000; 0.173648;,
         0.866025;-0.000000; 0.500000;,
         0.642879;-0.670031; 0.371166;,
         0.731055;-0.670031; 0.128904;,
         0.866025;-0.000000; 0.500000;,
         0.802730;-0.176497; 0.569625;,
         0.477163;-0.670031; 0.568660;,
         0.642879;-0.670031; 0.371166;,
        -0.253893;-0.670031; 0.697565;,
        -0.477163;-0.670031; 0.568660;,
        -0.642879;-0.670031; 0.371166;,
        -0.731055;-0.670031; 0.128904;,
        -0.731055;-0.670031;-0.128905;,
        -0.642879;-0.670031;-0.371167;,
        -0.477163;-0.670031;-0.568660;,
        -0.253893;-0.670031;-0.697565;,
         0.000000;-0.670031;-0.742334;,
         0.253893;-0.670031;-0.697565;,
         0.477163;-0.670031;-0.568660;,
         0.642879;-0.670031;-0.371167;,
         0.731055;-0.670031;-0.128905;,
         0.731055;-0.670031; 0.128904;,
         0.642879;-0.670031; 0.371166;,
         0.477163;-0.670031; 0.568660;,
         0.253893;-0.670031; 0.697565;,
         0.000000;-0.670031; 0.742333;,
         0.802730;-0.176497; 0.569625;,
         0.226860;-0.748361; 0.623291;,
         0.253893;-0.670031; 0.697565;,
         0.477163;-0.670031; 0.568660;,
         0.226860;-0.748361; 0.623291;,
         0.000000;-0.748361; 0.663292;,
         0.000000;-0.670031; 0.742333;,
         0.253893;-0.670031; 0.697565;,
         0.000000; 1.000000; 0.000001;,
         0.000000; 1.000000; 0.000000;,
         0.572758; 0.792774; 0.208467;,
         0.642879; 0.670031; 0.371167;,
         0.731055; 0.670031; 0.128905;,
         0.731055; 0.670031;-0.128905;,
         0.642879; 0.670031;-0.371166;,
         0.477162; 0.670031;-0.568660;,
         0.253893; 0.670031;-0.697565;,
         0.000000; 0.670031;-0.742333;,
        -0.253893; 0.670031;-0.697565;,
        -0.477162; 0.670031;-0.568660;,
        -0.642879; 0.670031;-0.371166;,
        -0.731055; 0.670031;-0.128905;,
        -0.731055; 0.670031; 0.128905;,
        -0.642879; 0.670031; 0.371167;,
        -0.572758; 0.792774; 0.208467;,
        -0.000000; 1.000000; 0.000000;,
         0.572758; 0.792774; 0.208467;,
         0.577350; 0.577350; 0.577350;,
         0.577350;-0.577350; 0.577350;,
         0.802730;-0.176497; 0.569625;,
        -0.000000; 1.000000; 0.000000;,
        -0.000000; 0.707106; 0.707107;,
         0.000000; 0.707106; 0.707107;,
         0.000000; 1.000000; 0.000001;,
         0.642879; 0.670031; 0.371167;,
         0.572758; 0.792774; 0.208467;,
         0.802730;-0.176497; 0.569625;,
         0.866025;-0.000000; 0.500000;,
         0.731055; 0.670031; 0.128905;,
         0.642879; 0.670031; 0.371167;,
         0.866025;-0.000000; 0.500000;,
         0.984808;-0.000000; 0.173648;,
         0.731055; 0.670031;-0.128905;,
         0.731055; 0.670031; 0.128905;,
         0.984808;-0.000000; 0.173648;,
         0.984808; 0.000000;-0.173648;,
         0.642879; 0.670031;-0.371166;,
         0.731055; 0.670031;-0.128905;,
         0.984808; 0.000000;-0.173648;,
         0.866025; 0.000000;-0.500000;,
         0.477162; 0.670031;-0.568660;,
         0.642879; 0.670031;-0.371166;,
         0.866025; 0.000000;-0.500000;,
         0.642788; 0.000000;-0.766044;,
         0.253893; 0.670031;-0.697565;,
         0.477162; 0.670031;-0.568660;,
         0.642788; 0.000000;-0.766044;,
         0.342020; 0.000000;-0.939693;,
         0.000000; 0.670031;-0.742333;,
         0.253893; 0.670031;-0.697565;,
         0.342020; 0.000000;-0.939693;,
         0.000000; 0.000000;-1.000000;,
        -0.253893; 0.670031;-0.697565;,
         0.000000; 0.670031;-0.742333;,
         0.000000; 0.000000;-1.000000;,
        -0.342020; 0.000000;-0.939693;,
        -0.477162; 0.670031;-0.568660;,
        -0.253893; 0.670031;-0.697565;,
        -0.342020; 0.000000;-0.939693;,
        -0.642788; 0.000000;-0.766044;,
        -0.642879; 0.670031;-0.371166;,
        -0.477162; 0.670031;-0.568660;,
        -0.642788; 0.000000;-0.766044;,
        -0.866025; 0.000000;-0.500000;,
        -0.731055; 0.670031;-0.128905;,
        -0.642879; 0.670031;-0.371166;,
        -0.866025; 0.000000;-0.500000;,
        -0.984808; 0.000000;-0.173648;,
        -0.731055; 0.670031; 0.128905;,
        -0.731055; 0.670031;-0.128905;,
        -0.984808; 0.000000;-0.173648;,
        -0.984808;-0.000000; 0.173648;,
        -0.642879; 0.670031; 0.371167;,
        -0.731055; 0.670031; 0.128905;,
        -0.984808;-0.000000; 0.173648;,
        -0.866025;-0.000000; 0.500000;,
        -0.572758; 0.792774; 0.208467;,
        -0.642879; 0.670031; 0.371167;,
        -0.866025;-0.000000; 0.500000;,
        -0.802730;-0.176497; 0.569625;,
        -0.226860;-0.748361; 0.623291;,
        -0.000000;-0.707107; 0.707107;,
        -0.577350;-0.577350; 0.577350;,
        -0.802730;-0.176497; 0.569625;,
        -0.802730;-0.176497; 0.569625;,
        -0.577350;-0.577350; 0.577350;,
        -0.577350; 0.577350; 0.577350;,
        -0.572758; 0.792774; 0.208467;,
         0.000000; 0.707106; 0.707107;,
         0.000000; 0.707106; 0.707107;,
         0.000000;-0.707107; 0.707107;,
         0.000000;-0.707107; 0.707107;,
         0.577350; 0.577350; 0.577350;,
         0.000000; 0.707106; 0.707107;,
         0.000000;-0.707107; 0.707107;,
         0.577350;-0.577350; 0.577350;,
        -0.000000; 0.707106; 0.707107;,
        -0.577350; 0.577350; 0.577350;,
        -0.577350;-0.577350; 0.577350;,
        -0.000000;-0.707107; 0.707107;,
         0.000000; 0.707106; 0.707107;,
        -0.000000; 0.707106; 0.707107;,
        -0.000000;-0.707107; 0.707107;,
         0.000000;-0.707107; 0.707107;,
         0.000000;-0.748361; 0.663292;,
         0.000000;-0.707107; 0.707107;,
        -0.000000;-0.707107; 0.707107;,
        -0.226860;-0.748361; 0.623291;,
        -0.572758; 0.792774; 0.208467;,
        -0.577350; 0.577350; 0.577350;,
        -0.000000; 0.707106; 0.707107;,
        -0.000000; 1.000000; 0.000000;,
         0.226860;-0.748361; 0.623291;,
         0.000000;-0.707107; 0.707107;,
         0.000000;-0.707107; 0.707107;,
         0.000000;-0.748361; 0.663292;,
         0.000000; 1.000000; 0.000001;,
         0.000000; 0.707106; 0.707107;,
         0.000000; 0.707106; 0.707107;,
         0.000000; 1.000000; 0.000000;,
         0.000000; 1.000000; 0.000000;,
         0.000000; 0.707106; 0.707107;,
         0.577350; 0.577350; 0.577350;,
         0.572758; 0.792774; 0.208467;,
         0.802730;-0.176497; 0.569625;,
         0.577350;-0.577350; 0.577350;,
         0.000000;-0.707107; 0.707107;,
         0.226860;-0.748361; 0.623291;;
        48;
        4;3,2,1,0;,
        4;7,6,5,4;,
        4;11,10,9,8;,
        4;15,14,13,12;,
        4;19,18,17,16;,
        4;23,22,21,20;,
        4;27,26,25,24;,
        4;31,30,29,28;,
        4;35,34,33,32;,
        4;39,38,37,36;,
        4;43,42,41,40;,
        4;47,46,45,44;,
        4;51,50,49,48;,
        4;55,54,53,52;,
        4;59,58,57,56;,
        4;63,62,61,60;,
        18;81,80,79,78,77,76,75,74,73,72,71,70,69,68,67,66,65,64;,
        4;85,84,83,82;,
        4;89,88,87,86;,
        18;107,106,105,104,103,102,101,100,99,98,97,96,95,94,93,92,91,90;,
        4;111,110,109,108;,
        4;115,114,113,112;,
        4;119,118,117,116;,
        4;123,122,121,120;,
        4;127,126,125,124;,
        4;131,130,129,128;,
        4;135,134,133,132;,
        4;139,138,137,136;,
        4;143,142,141,140;,
        4;147,146,145,144;,
        4;151,150,149,148;,
        4;155,154,153,152;,
        4;159,158,157,156;,
        4;163,162,161,160;,
        4;167,166,165,164;,
        4;171,170,169,168;,
        4;175,174,173,172;,
        4;179,178,177,176;,
        4;183,182,181,180;,
        4;187,186,185,184;,
        4;191,190,189,188;,
        4;195,194,193,192;,
        4;199,198,197,196;,
        4;203,202,201,200;,
        4;207,206,205,204;,
        4;211,210,209,208;,
        4;215,214,213,212;,
        4;219,218,217,216;;
      }
      MeshTextureCoords {
        220;
         0.817995; 0.721506;,
         0.817995; 0.736728;,
         0.001500; 0.736728;,
         0.001500; 0.721506;,
         0.817995; 0.736728;,
         0.817995; 0.751949;,
         0.001500; 0.751949;,
         0.001500; 0.736728;,
         0.817995; 0.751949;,
         0.817995; 0.767171;,
         0.001500; 0.767171;,
         0.001500; 0.751949;,
         0.817995; 0.767171;,
         0.817995; 0.782393;,
         0.001500; 0.782393;,
         0.001500; 0.767171;,
         0.817995; 0.782393;,
         0.817995; 0.797614;,
         0.001500; 0.797614;,
         0.001500; 0.782393;,
         0.817995; 0.797614;,
         0.817995; 0.812836;,
         0.001500; 0.812836;,
         0.001500; 0.797614;,
         0.817995; 0.812836;,
         0.817995; 0.828057;,
         0.001500; 0.828057;,
         0.001500; 0.812836;,
         0.817995; 0.828057;,
         0.817995; 0.843279;,
         0.001500; 0.843279;,
         0.001500; 0.828057;,
         0.817995; 0.843279;,
         0.817995; 0.858501;,
         0.001500; 0.858501;,
         0.001500; 0.843279;,
         0.817994; 0.861506;,
         0.817995; 0.876727;,
         0.001500; 0.876727;,
         0.001500; 0.861506;,
         0.817995; 0.876727;,
         0.817995; 0.891949;,
         0.001500; 0.891949;,
         0.001500; 0.876727;,
         0.817995; 0.891949;,
         0.817995; 0.907170;,
         0.001500; 0.907170;,
         0.001500; 0.891949;,
         0.817995; 0.907170;,
         0.817995; 0.922392;,
         0.001500; 0.922392;,
         0.001500; 0.907170;,
         0.817995; 0.922392;,
         0.817995; 0.937614;,
         0.001500; 0.937614;,
         0.001500; 0.922392;,
         0.817995; 0.937614;,
         0.817995; 0.952835;,
         0.001500; 0.952835;,
         0.001500; 0.937614;,
         0.817995; 0.952835;,
         0.817995; 0.968057;,
         0.001500; 0.968057;,
         0.001500; 0.952835;,
         0.195172; 0.647166;,
         0.206832; 0.637381;,
         0.221136; 0.632175;,
         0.236358; 0.632175;,
         0.250661; 0.637381;,
         0.262322; 0.647166;,
         0.269932; 0.660348;,
         0.272576; 0.675338;,
         0.269933; 0.690329;,
         0.262322; 0.703511;,
         0.250661; 0.713295;,
         0.236358; 0.718501;,
         0.221136; 0.718501;,
         0.206832; 0.713295;,
         0.195172; 0.703511;,
         0.187561; 0.690329;,
         0.184918; 0.675338;,
         0.187561; 0.660348;,
         0.817995; 0.968057;,
         0.817995; 0.983279;,
         0.001500; 0.983279;,
         0.001500; 0.968057;,
         0.817995; 0.983279;,
         0.817995; 0.998500;,
         0.001500; 0.998500;,
         0.001500; 0.983279;,
         0.905281; 0.705340;,
         0.902638; 0.720330;,
         0.895027; 0.733512;,
         0.883366; 0.743297;,
         0.869063; 0.748503;,
         0.853841; 0.748503;,
         0.839537; 0.743297;,
         0.827877; 0.733512;,
         0.820266; 0.720330;,
         0.817623; 0.705340;,
         0.820266; 0.690349;,
         0.827877; 0.677167;,
         0.839537; 0.667383;,
         0.853841; 0.662177;,
         0.869063; 0.662177;,
         0.883366; 0.667383;,
         0.895027; 0.677167;,
         0.902638; 0.690349;,
         0.182006; 0.579058;,
         0.182006; 0.620607;,
         0.001500; 0.620607;,
         0.001500; 0.579058;,
         0.902638; 0.690349;,
         0.936575; 0.690349;,
         0.936575; 0.705340;,
         0.905281; 0.705340;,
         0.998500; 0.952835;,
         0.998500; 0.968057;,
         0.817995; 0.968057;,
         0.817995; 0.952835;,
         0.998500; 0.937614;,
         0.998500; 0.952835;,
         0.817995; 0.952835;,
         0.817995; 0.937614;,
         0.998500; 0.922392;,
         0.998500; 0.937614;,
         0.817995; 0.937614;,
         0.817995; 0.922392;,
         0.998500; 0.907170;,
         0.998500; 0.922392;,
         0.817995; 0.922392;,
         0.817995; 0.907170;,
         0.998500; 0.891949;,
         0.998500; 0.907170;,
         0.817995; 0.907170;,
         0.817995; 0.891949;,
         0.998500; 0.876727;,
         0.998500; 0.891949;,
         0.817995; 0.891949;,
         0.817995; 0.876727;,
         0.998500; 0.861506;,
         0.998500; 0.876727;,
         0.817995; 0.876727;,
         0.817994; 0.861506;,
         0.998500; 0.843279;,
         0.998501; 0.858501;,
         0.817995; 0.858501;,
         0.817995; 0.843279;,
         0.998500; 0.828057;,
         0.998500; 0.843279;,
         0.817995; 0.843279;,
         0.817995; 0.828057;,
         0.998500; 0.812836;,
         0.998500; 0.828057;,
         0.817995; 0.828057;,
         0.817995; 0.812836;,
         0.998500; 0.797614;,
         0.998500; 0.812836;,
         0.817995; 0.812836;,
         0.817995; 0.797614;,
         0.998500; 0.782392;,
         0.998500; 0.797614;,
         0.817995; 0.797614;,
         0.817995; 0.782393;,
         0.998500; 0.767171;,
         0.998500; 0.782392;,
         0.817995; 0.782393;,
         0.817995; 0.767171;,
         0.998500; 0.751949;,
         0.998500; 0.767171;,
         0.817995; 0.767171;,
         0.817995; 0.751949;,
         0.973516; 0.705341;,
         0.939579; 0.705341;,
         0.939579; 0.692158;,
         0.981127; 0.692158;,
         0.001500; 0.718501;,
         0.001500; 0.676952;,
         0.182006; 0.676952;,
         0.182006; 0.718500;,
         0.182006; 0.633789;,
         0.182006; 0.648779;,
         0.001500; 0.648779;,
         0.001500; 0.633789;,
         0.182006; 0.620607;,
         0.182006; 0.633789;,
         0.001500; 0.633789;,
         0.001500; 0.620607;,
         0.182006; 0.663770;,
         0.182006; 0.676952;,
         0.001500; 0.676952;,
         0.001500; 0.663770;,
         0.182006; 0.648779;,
         0.182006; 0.663770;,
         0.001500; 0.663770;,
         0.001500; 0.648779;,
         0.970873; 0.720331;,
         0.939579; 0.720331;,
         0.939579; 0.705341;,
         0.973516; 0.705341;,
         0.895027; 0.677167;,
         0.936575; 0.677167;,
         0.936575; 0.690349;,
         0.902638; 0.690349;,
         0.973516; 0.735322;,
         0.939579; 0.735322;,
         0.939579; 0.720331;,
         0.970873; 0.720331;,
         0.905281; 0.705340;,
         0.936575; 0.705340;,
         0.936575; 0.720330;,
         0.902638; 0.720330;,
         0.902638; 0.720330;,
         0.936575; 0.720330;,
         0.936575; 0.733512;,
         0.895027; 0.733512;,
         0.981127; 0.748504;,
         0.939579; 0.748504;,
         0.939579; 0.735322;,
         0.973516; 0.735322;;
      }
      MeshMaterialList {
        1;
        48;
        0,
        0,
        0,
        0,
        0,
        0,
        0,
        0,
        0,
        0,
        0,
        0,
        0,
        0,
        0,
        0,
        0,
        0,
        0,
        0,
        0,
        0,
        0,
        0,
        0,
        0,
        0,
        0,
        0,
        0,
        0,
        0,
        0,
        0,
        0,
        0,
        0,
        0,
        0,
        0,
        0,
        0,
        0,
        0,
        0,
        0,
        0,
        0;
        Material ForeArm1M1A {
           0.800000; 0.800000; 0.800000; 1.000000;;
           225.000000;
           0.500000; 0.500000; 0.500000;;
           0.000000; 0.000000; 0.000000;;
        }
      }
    }
  }
}
