xof 0303txt 0032

Frame Root {
  FrameTransformMatrix {
     1.000000, 0.000000, 0.000000, 0.000000,
     0.000000,-0.000000, 1.000000, 0.000000,
     0.000000, 1.000000, 0.000000, 0.000000,
     0.000000, 0.000000, 0.000000, 1.000000;;
  }
  Frame Cube {
    FrameTransformMatrix {
       1.000000, 0.000000, 0.000000, 0.000000,
       0.000000, 1.000000, 0.000000, 0.000000,
       0.000000, 0.000000, 1.000000, 0.000000,
       0.000000, 0.000000, 0.000000, 1.000000;;
    }
    Mesh {
      772;
      -0.019894;-0.040915; 0.003953;,
      -0.019894; 0.052760; 0.004749;,
      -0.015781; 0.052972; 0.012452;,
      -0.015781;-0.040768; 0.011125;,
      -0.008304;-0.041358;-0.023060;,
      -0.008304; 0.052122;-0.023990;,
      -0.015719; 0.052122;-0.020282;,
      -0.015719;-0.041358;-0.019487;,
      -0.008304;-0.040768; 0.015577;,
      -0.008304; 0.052972; 0.017126;,
      -0.000000; 0.052972; 0.019504;,
       0.000000;-0.040768; 0.017733;,
      -0.008304;-0.133658; 0.015835;,
      -0.008304;-0.040768; 0.015577;,
       0.000000;-0.040768; 0.017733;,
       0.000000;-0.133657; 0.018028;,
      -0.008304;-0.134838;-0.028079;,
      -0.008304;-0.041358;-0.023060;,
      -0.015719;-0.041358;-0.019487;,
      -0.015719;-0.134838;-0.023785;,
      -0.019894;-0.133277; 0.003044;,
      -0.019894;-0.040915; 0.003953;,
      -0.015781;-0.040768; 0.011125;,
      -0.015781;-0.133658; 0.011347;,
      -0.019894;-0.133868;-0.015472;,
      -0.019894;-0.041211;-0.012304;,
      -0.021024;-0.041063;-0.004175;,
      -0.021024;-0.132897;-0.006214;,
      -0.019894;-0.041211;-0.012304;,
      -0.019894; 0.052335;-0.012569;,
      -0.021024; 0.052547;-0.003910;,
      -0.021024;-0.041063;-0.004175;,
      -0.015719;-0.041358;-0.019487;,
      -0.015719; 0.052122;-0.020282;,
      -0.019894; 0.052335;-0.012569;,
      -0.019894;-0.041211;-0.012304;,
      -0.015719;-0.134838;-0.023785;,
      -0.015719;-0.041358;-0.019487;,
      -0.019894;-0.041211;-0.012304;,
      -0.019894;-0.133868;-0.015472;,
      -0.013184; 0.052155;-0.018735;,
      -0.012612; 0.060198;-0.016060;,
      -0.015618; 0.060356;-0.010507;,
      -0.016869; 0.052348;-0.011926;,
      -0.021024;-0.132897;-0.006214;,
      -0.021024;-0.041063;-0.004175;,
      -0.019894;-0.040915; 0.003953;,
      -0.019894;-0.133277; 0.003044;,
      -0.021024;-0.041063;-0.004175;,
      -0.021024; 0.052547;-0.003910;,
      -0.019894; 0.052760; 0.004749;,
      -0.019894;-0.040915; 0.003953;,
      -0.017145;-0.133351; 0.002463;,
      -0.017112;-0.144164; 0.002347;,
      -0.018119;-0.143789;-0.005905;,
      -0.018203;-0.132957;-0.006213;,
       0.000000;-0.134838;-0.031427;,
       0.000000;-0.041358;-0.025687;,
      -0.008304;-0.041358;-0.023060;,
      -0.008304;-0.134838;-0.028079;,
      -0.015781;-0.133658; 0.011347;,
      -0.015781;-0.040768; 0.011125;,
      -0.008304;-0.040768; 0.015577;,
      -0.008304;-0.133658; 0.015835;,
      -0.015781;-0.040768; 0.011125;,
      -0.015781; 0.052972; 0.012452;,
      -0.008304; 0.052972; 0.017126;,
      -0.008304;-0.040768; 0.015577;,
       0.000000;-0.041358;-0.025687;,
      -0.000000; 0.052122;-0.026750;,
      -0.008304; 0.052122;-0.023990;,
      -0.008304;-0.041358;-0.023060;,
      -0.016869; 0.052348;-0.011926;,
      -0.019894; 0.052335;-0.012569;,
      -0.015719; 0.052122;-0.020282;,
      -0.013184; 0.052155;-0.018735;,
      -0.013184; 0.052155;-0.018735;,
      -0.015719; 0.052122;-0.020282;,
      -0.008304; 0.052122;-0.023990;,
      -0.006481; 0.052163;-0.022087;,
      -0.000000; 0.052914; 0.016780;,
      -0.000000; 0.052972; 0.019504;,
      -0.008304; 0.052972; 0.017126;,
      -0.006424; 0.052931; 0.015231;,
      -0.016869; 0.052745; 0.004112;,
      -0.019894; 0.052760; 0.004749;,
      -0.021024; 0.052547;-0.003910;,
      -0.017916; 0.052547;-0.003910;,
      -0.017916; 0.052547;-0.003910;,
      -0.021024; 0.052547;-0.003910;,
      -0.019894; 0.052335;-0.012569;,
      -0.016869; 0.052348;-0.011926;,
      -0.013190; 0.052940; 0.011001;,
      -0.015781; 0.052972; 0.012452;,
      -0.019894; 0.052760; 0.004749;,
      -0.016869; 0.052745; 0.004112;,
      -0.000000; 0.052184;-0.023903;,
      -0.000000; 0.052122;-0.026750;,
      -0.000000; 0.052972; 0.019504;,
      -0.000000; 0.052914; 0.016780;,
      -0.006481; 0.052163;-0.022087;,
      -0.008304; 0.052122;-0.023990;,
      -0.000000; 0.052122;-0.026750;,
      -0.000000; 0.052184;-0.023903;,
      -0.006424; 0.052931; 0.015231;,
      -0.008304; 0.052972; 0.017126;,
      -0.015781; 0.052972; 0.012452;,
      -0.013190; 0.052940; 0.011001;,
      -0.012612; 0.060198;-0.016060;,
      -0.007145; 0.060205;-0.018794;,
      -0.000000; 0.060222;-0.020275;,
      -0.000000; 0.060817; 0.012905;,
      -0.007099; 0.060831; 0.011642;,
      -0.012617; 0.060839; 0.008192;,
      -0.015617; 0.060680; 0.002574;,
      -0.016471; 0.060518;-0.003969;,
      -0.015618; 0.060356;-0.010507;,
      -0.000000; 0.052184;-0.023903;,
      -0.000000; 0.060222;-0.020275;,
      -0.007145; 0.060205;-0.018794;,
      -0.006481; 0.052163;-0.022087;,
      -0.016869; 0.052348;-0.011926;,
      -0.015618; 0.060356;-0.010507;,
      -0.016471; 0.060518;-0.003969;,
      -0.017916; 0.052547;-0.003910;,
      -0.006481; 0.052163;-0.022087;,
      -0.007145; 0.060205;-0.018794;,
      -0.012612; 0.060198;-0.016060;,
      -0.013184; 0.052155;-0.018735;,
      -0.013190; 0.052940; 0.011001;,
      -0.012617; 0.060839; 0.008192;,
      -0.007099; 0.060831; 0.011642;,
      -0.006424; 0.052931; 0.015231;,
      -0.016869; 0.052745; 0.004112;,
      -0.015617; 0.060680; 0.002574;,
      -0.012617; 0.060839; 0.008192;,
      -0.013190; 0.052940; 0.011001;,
      -0.000000; 0.052914; 0.016780;,
      -0.000000; 0.060817; 0.012905;,
      -0.000000; 0.060222;-0.020275;,
      -0.000000; 0.052184;-0.023903;,
      -0.006424; 0.052931; 0.015231;,
      -0.007099; 0.060831; 0.011642;,
      -0.000000; 0.060817; 0.012905;,
      -0.000000; 0.052914; 0.016780;,
      -0.017916; 0.052547;-0.003910;,
      -0.016471; 0.060518;-0.003969;,
      -0.015617; 0.060680; 0.002574;,
      -0.016869; 0.052745; 0.004112;,
       0.000000;-0.134697;-0.028479;,
       0.000000;-0.134838;-0.031427;,
      -0.008304;-0.134838;-0.028079;,
      -0.006613;-0.134814;-0.026285;,
      -0.013443;-0.133742; 0.009940;,
      -0.015781;-0.133658; 0.011347;,
      -0.008304;-0.133658; 0.015835;,
      -0.006707;-0.133733; 0.013983;,
      -0.013392;-0.134843;-0.022358;,
      -0.015719;-0.134838;-0.023785;,
      -0.019894;-0.133868;-0.015472;,
      -0.017145;-0.133909;-0.014884;,
      -0.018203;-0.132957;-0.006213;,
      -0.021024;-0.132897;-0.006214;,
      -0.019894;-0.133277; 0.003044;,
      -0.017145;-0.133351; 0.002463;,
      -0.017145;-0.133909;-0.014884;,
      -0.019894;-0.133868;-0.015472;,
      -0.021024;-0.132897;-0.006214;,
      -0.018203;-0.132957;-0.006213;,
      -0.017145;-0.133351; 0.002463;,
      -0.019894;-0.133277; 0.003044;,
      -0.015781;-0.133658; 0.011347;,
      -0.013443;-0.133742; 0.009940;,
       0.000000;-0.133671; 0.015442;,
       0.000000;-0.133657; 0.018028;,
       0.000000;-0.134838;-0.031427;,
       0.000000;-0.134697;-0.028479;,
      -0.006613;-0.134814;-0.026285;,
      -0.008304;-0.134838;-0.028079;,
      -0.015719;-0.134838;-0.023785;,
      -0.013392;-0.134843;-0.022358;,
      -0.006707;-0.133733; 0.013983;,
      -0.008304;-0.133658; 0.015835;,
       0.000000;-0.133657; 0.018028;,
       0.000000;-0.133671; 0.015442;,
      -0.007095;-0.145555;-0.024998;,
      -0.013542;-0.145583;-0.021263;,
      -0.017113;-0.144694;-0.014153;,
      -0.018119;-0.143789;-0.005905;,
      -0.017112;-0.144164; 0.002347;,
      -0.013591;-0.144536; 0.009459;,
      -0.007184;-0.144527; 0.013305;,
       0.000000;-0.144468; 0.014692;,
       0.000000;-0.145444;-0.027086;,
      -0.006613;-0.134814;-0.026285;,
      -0.007095;-0.145555;-0.024998;,
       0.000000;-0.145444;-0.027086;,
       0.000000;-0.134697;-0.028479;,
      -0.013392;-0.134843;-0.022358;,
      -0.013542;-0.145583;-0.021263;,
      -0.007095;-0.145555;-0.024998;,
      -0.006613;-0.134814;-0.026285;,
      -0.018203;-0.132957;-0.006213;,
      -0.018119;-0.143789;-0.005905;,
      -0.017113;-0.144694;-0.014153;,
      -0.017145;-0.133909;-0.014884;,
       0.000000;-0.134697;-0.028479;,
       0.000000;-0.145444;-0.027086;,
       0.000000;-0.144468; 0.014692;,
       0.000000;-0.133671; 0.015442;,
      -0.006707;-0.133733; 0.013983;,
      -0.007184;-0.144527; 0.013305;,
      -0.013591;-0.144536; 0.009459;,
      -0.013443;-0.133742; 0.009940;,
       0.000000;-0.133671; 0.015442;,
       0.000000;-0.144468; 0.014692;,
      -0.007184;-0.144527; 0.013305;,
      -0.006707;-0.133733; 0.013983;,
      -0.013443;-0.133742; 0.009940;,
      -0.013591;-0.144536; 0.009459;,
      -0.017112;-0.144164; 0.002347;,
      -0.017145;-0.133351; 0.002463;,
      -0.017145;-0.133909;-0.014884;,
      -0.017113;-0.144694;-0.014153;,
      -0.013542;-0.145583;-0.021263;,
      -0.013392;-0.134843;-0.022358;,
      -0.000000; 0.060051; 0.004033;,
      -0.000000; 0.060051;-0.017278;,
      -0.005694; 0.060051;-0.017278;,
      -0.005694; 0.060463; 0.004033;,
      -0.005694; 0.060463; 0.004033;,
      -0.005694; 0.069799; 0.004033;,
      -0.005694; 0.066521; 0.011345;,
      -0.005694; 0.060463; 0.011345;,
      -0.005694; 0.069799; 0.004033;,
      -0.005694; 0.095523; 0.004033;,
      -0.005694; 0.095856; 0.011345;,
      -0.005694; 0.066521; 0.011345;,
      -0.000000; 0.060051;-0.017278;,
      -0.000000; 0.069799;-0.017278;,
      -0.005694; 0.069799;-0.017278;,
      -0.005694; 0.060051;-0.017278;,
      -0.005694; 0.060463; 0.011345;,
      -0.005694; 0.066521; 0.011345;,
      -0.000000; 0.066521; 0.011345;,
      -0.000000; 0.060463; 0.011345;,
      -0.005694; 0.069799;-0.017278;,
      -0.000000; 0.069799;-0.017278;,
      -0.000000; 0.069799; 0.004033;,
      -0.005694; 0.069799; 0.004033;,
      -0.005694; 0.060051;-0.017278;,
      -0.005694; 0.069799;-0.017278;,
      -0.005694; 0.069799; 0.004033;,
      -0.005694; 0.060463; 0.004033;,
      -0.005694; 0.060463; 0.004033;,
      -0.005694; 0.060463; 0.011345;,
      -0.000000; 0.060463; 0.011345;,
      -0.000000; 0.060051; 0.004033;,
      -0.005694; 0.095523; 0.004033;,
      -0.005694; 0.101395; 0.004033;,
      -0.005694; 0.101395; 0.011345;,
      -0.005694; 0.095856; 0.011345;,
      -0.005694; 0.066521; 0.011345;,
      -0.005694; 0.095856; 0.011345;,
      -0.000000; 0.095856; 0.011345;,
      -0.000000; 0.066521; 0.011345;,
      -0.000000; 0.069799; 0.004033;,
      -0.000000; 0.095523; 0.004033;,
      -0.005694; 0.095523; 0.004033;,
      -0.005694; 0.069799; 0.004033;,
      -0.000000; 0.066521; 0.011345;,
      -0.000000; 0.095856; 0.011345;,
      -0.000000; 0.095523; 0.004033;,
      -0.000000; 0.069799; 0.004033;,
      -0.005694; 0.101395; 0.004033;,
      -0.000000; 0.101395; 0.004033;,
      -0.000000; 0.101395; 0.011345;,
      -0.005694; 0.101395; 0.011345;,
      -0.000000; 0.095856; 0.011345;,
      -0.000000; 0.101395; 0.011345;,
      -0.000000; 0.101395; 0.004033;,
      -0.000000; 0.095523; 0.004033;,
      -0.005694; 0.095523; 0.004033;,
      -0.005694; 0.095523;-0.017864;,
      -0.005694; 0.101395;-0.017864;,
      -0.005694; 0.101395; 0.004033;,
      -0.000000; 0.101395; 0.011345;,
      -0.000000; 0.101395; 0.041044;,
      -0.004107; 0.101395; 0.041044;,
      -0.005694; 0.101395; 0.011345;,
      -0.000000; 0.095523;-0.017864;,
      -0.000000; 0.101395;-0.017864;,
      -0.005694; 0.101395;-0.017864;,
      -0.005694; 0.095523;-0.017864;,
      -0.005694; 0.101395; 0.004033;,
      -0.005694; 0.101395;-0.017864;,
      -0.000000; 0.101395;-0.017864;,
      -0.000000; 0.101395; 0.004033;,
      -0.000000; 0.095523; 0.004033;,
      -0.000000; 0.095523;-0.017864;,
      -0.005694; 0.095523;-0.017864;,
      -0.005694; 0.095523; 0.004033;,
      -0.000000; 0.101395; 0.004033;,
      -0.000000; 0.101395;-0.017864;,
      -0.000000; 0.095523;-0.017864;,
      -0.000000; 0.095523; 0.004033;,
      -0.000000; 0.095856; 0.037732;,
      -0.000000; 0.091390; 0.046239;,
      -0.000000; 0.098385; 0.046239;,
      -0.000000; 0.101395; 0.041044;,
      -0.005694; 0.095856; 0.011345;,
      -0.005694; 0.095856; 0.037732;,
      -0.000000; 0.095856; 0.037732;,
      -0.000000; 0.095856; 0.011345;,
      -0.005694; 0.101395; 0.011345;,
      -0.004107; 0.101395; 0.041044;,
      -0.005694; 0.095856; 0.037732;,
      -0.005694; 0.095856; 0.011345;,
      -0.000000; 0.095856; 0.011345;,
      -0.000000; 0.095856; 0.037732;,
      -0.000000; 0.101395; 0.041044;,
      -0.000000; 0.101395; 0.011345;,
      -0.003634; 0.091390; 0.048087;,
      -0.003634; 0.098385; 0.048087;,
      -0.000000; 0.098385; 0.046239;,
      -0.000000; 0.091390; 0.046239;,
      -0.000000; 0.101395; 0.041044;,
      -0.000000; 0.098385; 0.046239;,
      -0.003634; 0.098385; 0.048087;,
      -0.004107; 0.101395; 0.041044;,
      -0.004107; 0.101395; 0.041044;,
      -0.003634; 0.098385; 0.048087;,
      -0.003634; 0.091390; 0.048087;,
      -0.005694; 0.095856; 0.037732;,
      -0.000000; 0.091390; 0.046239;,
      -0.000000; 0.084635; 0.037521;,
      -0.005694; 0.083598; 0.038344;,
      -0.003634; 0.091390; 0.048087;,
      -0.005694; 0.087920; 0.033183;,
      -0.005694; 0.083598; 0.038344;,
      -0.000000; 0.084635; 0.037521;,
      -0.000000; 0.087920; 0.033183;,
      -0.003634; 0.091390; 0.048087;,
      -0.005694; 0.083598; 0.038344;,
      -0.005694; 0.087920; 0.033183;,
      -0.005694; 0.095856; 0.037732;,
      -0.000000; 0.095856; 0.037732;,
      -0.000000; 0.087920; 0.033183;,
      -0.000000; 0.084635; 0.037521;,
      -0.000000; 0.091390; 0.046239;,
      -0.005694; 0.095856; 0.037732;,
      -0.005694; 0.087920; 0.033183;,
      -0.000000; 0.087920; 0.033183;,
      -0.000000; 0.095856; 0.037732;,
      -0.000000; 0.069799;-0.017278;,
      -0.000000; 0.060051;-0.017278;,
      -0.000000; 0.060051; 0.004033;,
      -0.000000; 0.069799; 0.004033;,
      -0.000000; 0.069799; 0.004033;,
      -0.000000; 0.060051; 0.004033;,
      -0.000000; 0.060463; 0.011345;,
      -0.000000; 0.066521; 0.011345;,
      -0.000000; 0.066521; 0.011345;,
      -0.000000; 0.087920; 0.033183;,
      -0.005694; 0.087920; 0.033183;,
      -0.005694; 0.066521; 0.011345;,
      -0.000000; 0.084635; 0.037521;,
      -0.000000; 0.060463; 0.011345;,
      -0.005694; 0.060463; 0.011345;,
      -0.005694; 0.083598; 0.038344;,
      -0.005694; 0.060463; 0.011345;,
      -0.005694; 0.066521; 0.011345;,
      -0.005694; 0.087920; 0.033183;,
      -0.005694; 0.083598; 0.038344;,
       0.019894;-0.040915; 0.003953;,
       0.015781;-0.040768; 0.011125;,
       0.015781; 0.052972; 0.012452;,
       0.019894; 0.052760; 0.004749;,
       0.008304;-0.041358;-0.023060;,
       0.015719;-0.041358;-0.019487;,
       0.015719; 0.052122;-0.020282;,
       0.008304; 0.052122;-0.023990;,
       0.008304;-0.040768; 0.015577;,
       0.000000;-0.040768; 0.017733;,
      -0.000000; 0.052972; 0.019504;,
       0.008304; 0.052972; 0.017126;,
       0.008304;-0.133658; 0.015835;,
       0.000000;-0.133657; 0.018028;,
       0.000000;-0.040768; 0.017733;,
       0.008304;-0.040768; 0.015577;,
       0.008304;-0.134838;-0.028079;,
       0.015719;-0.134838;-0.023785;,
       0.015719;-0.041358;-0.019487;,
       0.008304;-0.041358;-0.023060;,
       0.019894;-0.133277; 0.003044;,
       0.015781;-0.133658; 0.011347;,
       0.015781;-0.040768; 0.011125;,
       0.019894;-0.040915; 0.003953;,
       0.019894;-0.133868;-0.015472;,
       0.021024;-0.132897;-0.006214;,
       0.021024;-0.041063;-0.004175;,
       0.019894;-0.041211;-0.012304;,
       0.019894;-0.041211;-0.012304;,
       0.021024;-0.041063;-0.004175;,
       0.021024; 0.052547;-0.003910;,
       0.019894; 0.052335;-0.012569;,
       0.015719;-0.041358;-0.019487;,
       0.019894;-0.041211;-0.012304;,
       0.019894; 0.052335;-0.012569;,
       0.015719; 0.052122;-0.020282;,
       0.015719;-0.134838;-0.023785;,
       0.019894;-0.133868;-0.015472;,
       0.019894;-0.041211;-0.012304;,
       0.015719;-0.041358;-0.019487;,
       0.013184; 0.052155;-0.018735;,
       0.016869; 0.052348;-0.011926;,
       0.015618; 0.060356;-0.010507;,
       0.012612; 0.060198;-0.016060;,
       0.021024;-0.132897;-0.006214;,
       0.019894;-0.133277; 0.003044;,
       0.019894;-0.040915; 0.003953;,
       0.021024;-0.041063;-0.004175;,
       0.021024;-0.041063;-0.004175;,
       0.019894;-0.040915; 0.003953;,
       0.019894; 0.052760; 0.004749;,
       0.021024; 0.052547;-0.003910;,
       0.017145;-0.133351; 0.002463;,
       0.018203;-0.132957;-0.006213;,
       0.018119;-0.143789;-0.005905;,
       0.017112;-0.144164; 0.002347;,
       0.000000;-0.134838;-0.031427;,
       0.008304;-0.134838;-0.028079;,
       0.008304;-0.041358;-0.023060;,
       0.000000;-0.041358;-0.025687;,
       0.015781;-0.133658; 0.011347;,
       0.008304;-0.133658; 0.015835;,
       0.008304;-0.040768; 0.015577;,
       0.015781;-0.040768; 0.011125;,
       0.015781;-0.040768; 0.011125;,
       0.008304;-0.040768; 0.015577;,
       0.008304; 0.052972; 0.017126;,
       0.015781; 0.052972; 0.012452;,
       0.000000;-0.041358;-0.025687;,
       0.008304;-0.041358;-0.023060;,
       0.008304; 0.052122;-0.023990;,
      -0.000000; 0.052122;-0.026750;,
       0.016869; 0.052348;-0.011926;,
       0.013184; 0.052155;-0.018735;,
       0.015719; 0.052122;-0.020282;,
       0.019894; 0.052335;-0.012569;,
       0.013184; 0.052155;-0.018735;,
       0.006481; 0.052163;-0.022087;,
       0.008304; 0.052122;-0.023990;,
       0.015719; 0.052122;-0.020282;,
      -0.000000; 0.052914; 0.016780;,
       0.006424; 0.052931; 0.015231;,
       0.008304; 0.052972; 0.017126;,
      -0.000000; 0.052972; 0.019504;,
       0.016869; 0.052745; 0.004112;,
       0.017916; 0.052547;-0.003910;,
       0.021024; 0.052547;-0.003910;,
       0.019894; 0.052760; 0.004749;,
       0.017916; 0.052547;-0.003910;,
       0.016869; 0.052348;-0.011926;,
       0.019894; 0.052335;-0.012569;,
       0.021024; 0.052547;-0.003910;,
       0.013190; 0.052940; 0.011001;,
       0.016869; 0.052745; 0.004112;,
       0.019894; 0.052760; 0.004749;,
       0.015781; 0.052972; 0.012452;,
       0.006481; 0.052163;-0.022087;,
      -0.000000; 0.052184;-0.023903;,
      -0.000000; 0.052122;-0.026750;,
       0.008304; 0.052122;-0.023990;,
       0.006424; 0.052931; 0.015231;,
       0.013190; 0.052940; 0.011001;,
       0.015781; 0.052972; 0.012452;,
       0.008304; 0.052972; 0.017126;,
       0.012612; 0.060198;-0.016060;,
       0.015618; 0.060356;-0.010507;,
       0.016471; 0.060518;-0.003969;,
       0.015617; 0.060680; 0.002574;,
       0.012617; 0.060839; 0.008192;,
       0.007099; 0.060831; 0.011642;,
      -0.000000; 0.060817; 0.012905;,
      -0.000000; 0.060222;-0.020275;,
       0.007145; 0.060205;-0.018794;,
      -0.000000; 0.052184;-0.023903;,
       0.006481; 0.052163;-0.022087;,
       0.007145; 0.060205;-0.018794;,
      -0.000000; 0.060222;-0.020275;,
       0.016869; 0.052348;-0.011926;,
       0.017916; 0.052547;-0.003910;,
       0.016471; 0.060518;-0.003969;,
       0.015618; 0.060356;-0.010507;,
       0.006481; 0.052163;-0.022087;,
       0.013184; 0.052155;-0.018735;,
       0.012612; 0.060198;-0.016060;,
       0.007145; 0.060205;-0.018794;,
       0.013190; 0.052940; 0.011001;,
       0.006424; 0.052931; 0.015231;,
       0.007099; 0.060831; 0.011642;,
       0.012617; 0.060839; 0.008192;,
       0.016869; 0.052745; 0.004112;,
       0.013190; 0.052940; 0.011001;,
       0.012617; 0.060839; 0.008192;,
       0.015617; 0.060680; 0.002574;,
       0.006424; 0.052931; 0.015231;,
      -0.000000; 0.052914; 0.016780;,
      -0.000000; 0.060817; 0.012905;,
       0.007099; 0.060831; 0.011642;,
       0.017916; 0.052547;-0.003910;,
       0.016869; 0.052745; 0.004112;,
       0.015617; 0.060680; 0.002574;,
       0.016471; 0.060518;-0.003969;,
       0.000000;-0.134697;-0.028479;,
       0.006613;-0.134814;-0.026285;,
       0.008304;-0.134838;-0.028079;,
       0.000000;-0.134838;-0.031427;,
       0.013443;-0.133742; 0.009940;,
       0.006707;-0.133733; 0.013983;,
       0.008304;-0.133658; 0.015835;,
       0.015781;-0.133658; 0.011347;,
       0.013392;-0.134843;-0.022358;,
       0.017145;-0.133909;-0.014884;,
       0.019894;-0.133868;-0.015472;,
       0.015719;-0.134838;-0.023785;,
       0.018203;-0.132957;-0.006213;,
       0.017145;-0.133351; 0.002463;,
       0.019894;-0.133277; 0.003044;,
       0.021024;-0.132897;-0.006214;,
       0.017145;-0.133909;-0.014884;,
       0.018203;-0.132957;-0.006213;,
       0.021024;-0.132897;-0.006214;,
       0.019894;-0.133868;-0.015472;,
       0.017145;-0.133351; 0.002463;,
       0.013443;-0.133742; 0.009940;,
       0.015781;-0.133658; 0.011347;,
       0.019894;-0.133277; 0.003044;,
       0.006613;-0.134814;-0.026285;,
       0.013392;-0.134843;-0.022358;,
       0.015719;-0.134838;-0.023785;,
       0.008304;-0.134838;-0.028079;,
       0.006707;-0.133733; 0.013983;,
       0.000000;-0.133671; 0.015442;,
       0.000000;-0.133657; 0.018028;,
       0.008304;-0.133658; 0.015835;,
       0.007095;-0.145555;-0.024998;,
       0.000000;-0.145444;-0.027086;,
       0.000000;-0.144468; 0.014692;,
       0.007184;-0.144527; 0.013305;,
       0.013591;-0.144536; 0.009459;,
       0.017112;-0.144164; 0.002347;,
       0.018119;-0.143789;-0.005905;,
       0.017113;-0.144694;-0.014153;,
       0.013543;-0.145583;-0.021263;,
       0.006613;-0.134814;-0.026285;,
       0.000000;-0.134697;-0.028479;,
       0.000000;-0.145444;-0.027086;,
       0.007095;-0.145555;-0.024998;,
       0.013392;-0.134843;-0.022358;,
       0.006613;-0.134814;-0.026285;,
       0.007095;-0.145555;-0.024998;,
       0.013543;-0.145583;-0.021263;,
       0.018203;-0.132957;-0.006213;,
       0.017145;-0.133909;-0.014884;,
       0.017113;-0.144694;-0.014153;,
       0.018119;-0.143789;-0.005905;,
       0.006707;-0.133733; 0.013983;,
       0.013443;-0.133742; 0.009940;,
       0.013591;-0.144536; 0.009459;,
       0.007184;-0.144527; 0.013305;,
       0.000000;-0.133671; 0.015442;,
       0.006707;-0.133733; 0.013983;,
       0.007184;-0.144527; 0.013305;,
       0.000000;-0.144468; 0.014692;,
       0.013443;-0.133742; 0.009940;,
       0.017145;-0.133351; 0.002463;,
       0.017112;-0.144164; 0.002347;,
       0.013591;-0.144536; 0.009459;,
       0.017145;-0.133909;-0.014884;,
       0.013392;-0.134843;-0.022358;,
       0.013543;-0.145583;-0.021263;,
       0.017113;-0.144694;-0.014153;,
      -0.000000; 0.060051; 0.004033;,
       0.005694; 0.060463; 0.004033;,
       0.005694; 0.060051;-0.017278;,
      -0.000000; 0.060051;-0.017278;,
       0.005694; 0.060463; 0.004033;,
       0.005694; 0.060463; 0.011345;,
       0.005694; 0.066521; 0.011345;,
       0.005694; 0.069799; 0.004033;,
       0.005694; 0.069799; 0.004033;,
       0.005694; 0.066521; 0.011345;,
       0.005694; 0.095856; 0.011345;,
       0.005694; 0.095523; 0.004033;,
      -0.000000; 0.060051;-0.017278;,
       0.005694; 0.060051;-0.017278;,
       0.005694; 0.069799;-0.017278;,
      -0.000000; 0.069799;-0.017278;,
       0.005694; 0.060463; 0.011345;,
      -0.000000; 0.060463; 0.011345;,
      -0.000000; 0.066521; 0.011345;,
       0.005694; 0.066521; 0.011345;,
       0.005694; 0.069799;-0.017278;,
       0.005694; 0.069799; 0.004033;,
      -0.000000; 0.069799; 0.004033;,
      -0.000000; 0.069799;-0.017278;,
       0.005694; 0.060051;-0.017278;,
       0.005694; 0.060463; 0.004033;,
       0.005694; 0.069799; 0.004033;,
       0.005694; 0.069799;-0.017278;,
       0.005694; 0.060463; 0.004033;,
      -0.000000; 0.060051; 0.004033;,
      -0.000000; 0.060463; 0.011345;,
       0.005694; 0.060463; 0.011345;,
       0.005694; 0.095523; 0.004033;,
       0.005694; 0.095856; 0.011345;,
       0.005694; 0.101395; 0.011345;,
       0.005694; 0.101395; 0.004033;,
       0.005694; 0.066521; 0.011345;,
      -0.000000; 0.066521; 0.011345;,
      -0.000000; 0.095856; 0.011345;,
       0.005694; 0.095856; 0.011345;,
      -0.000000; 0.069799; 0.004033;,
       0.005694; 0.069799; 0.004033;,
       0.005694; 0.095523; 0.004033;,
      -0.000000; 0.095523; 0.004033;,
       0.005694; 0.101395; 0.004033;,
       0.005694; 0.101395; 0.011345;,
      -0.000000; 0.101395; 0.011345;,
      -0.000000; 0.101395; 0.004033;,
       0.005694; 0.095523; 0.004033;,
       0.005694; 0.101395; 0.004033;,
       0.005694; 0.101395;-0.017864;,
       0.005694; 0.095523;-0.017864;,
      -0.000000; 0.101395; 0.011345;,
       0.005694; 0.101395; 0.011345;,
       0.004107; 0.101395; 0.041044;,
      -0.000000; 0.101395; 0.041044;,
      -0.000000; 0.095523;-0.017864;,
       0.005694; 0.095523;-0.017864;,
       0.005694; 0.101395;-0.017864;,
      -0.000000; 0.101395;-0.017864;,
       0.005694; 0.101395; 0.004033;,
      -0.000000; 0.101395; 0.004033;,
      -0.000000; 0.101395;-0.017864;,
       0.005694; 0.101395;-0.017864;,
      -0.000000; 0.095523; 0.004033;,
       0.005694; 0.095523; 0.004033;,
       0.005694; 0.095523;-0.017864;,
      -0.000000; 0.095523;-0.017864;,
       0.005694; 0.095856; 0.011345;,
      -0.000000; 0.095856; 0.011345;,
      -0.000000; 0.095856; 0.037732;,
       0.005694; 0.095856; 0.037732;,
       0.005694; 0.101395; 0.011345;,
       0.005694; 0.095856; 0.011345;,
       0.005694; 0.095856; 0.037732;,
       0.004107; 0.101395; 0.041044;,
       0.003634; 0.091390; 0.048087;,
      -0.000000; 0.091390; 0.046239;,
      -0.000000; 0.098385; 0.046239;,
       0.003634; 0.098385; 0.048087;,
      -0.000000; 0.101395; 0.041044;,
       0.004107; 0.101395; 0.041044;,
       0.003634; 0.098385; 0.048087;,
      -0.000000; 0.098385; 0.046239;,
       0.004107; 0.101395; 0.041044;,
       0.005694; 0.095856; 0.037732;,
       0.003634; 0.091390; 0.048087;,
       0.003634; 0.098385; 0.048087;,
      -0.000000; 0.091390; 0.046239;,
       0.003634; 0.091390; 0.048087;,
       0.005694; 0.083598; 0.038344;,
      -0.000000; 0.084635; 0.037521;,
       0.005694; 0.087920; 0.033183;,
      -0.000000; 0.087920; 0.033183;,
      -0.000000; 0.084635; 0.037521;,
       0.005694; 0.083598; 0.038344;,
       0.003634; 0.091390; 0.048087;,
       0.005694; 0.095856; 0.037732;,
       0.005694; 0.087920; 0.033183;,
       0.005694; 0.083598; 0.038344;,
       0.005694; 0.095856; 0.037732;,
      -0.000000; 0.095856; 0.037732;,
      -0.000000; 0.087920; 0.033183;,
       0.005694; 0.087920; 0.033183;,
      -0.000000; 0.066521; 0.011345;,
       0.005694; 0.066521; 0.011345;,
       0.005694; 0.087920; 0.033183;,
      -0.000000; 0.087920; 0.033183;,
      -0.000000; 0.084635; 0.037521;,
       0.005694; 0.083598; 0.038344;,
       0.005694; 0.060463; 0.011345;,
      -0.000000; 0.060463; 0.011345;,
       0.005694; 0.060463; 0.011345;,
       0.005694; 0.083598; 0.038344;,
       0.005694; 0.087920; 0.033183;,
       0.005694; 0.066521; 0.011345;,
       0.004577; 0.089504; 0.023373;,
       0.004577; 0.083179; 0.016757;,
       0.004577; 0.081382; 0.018475;,
       0.004577; 0.087707; 0.025091;,
       0.004577; 0.083179; 0.016757;,
      -0.004577; 0.083179; 0.016757;,
      -0.004577; 0.081382; 0.018475;,
       0.004577; 0.081382; 0.018475;,
      -0.004577; 0.083179; 0.016757;,
      -0.004577; 0.089504; 0.023373;,
      -0.004577; 0.087707; 0.025091;,
      -0.004577; 0.081382; 0.018475;,
      -0.004577; 0.089504; 0.023373;,
       0.004577; 0.089504; 0.023373;,
       0.004577; 0.087707; 0.025091;,
      -0.004577; 0.087707; 0.025091;,
       0.004577; 0.083179; 0.016757;,
       0.004577; 0.089504; 0.023373;,
      -0.004577; 0.089504; 0.023373;,
      -0.004577; 0.083179; 0.016757;,
       0.002419; 0.086216; 0.023532;,
       0.002419; 0.070731; 0.038112;,
      -0.002419; 0.070731; 0.038112;,
      -0.002419; 0.086216; 0.023532;,
       0.002419; 0.086216; 0.023532;,
       0.004577; 0.087707; 0.025091;,
       0.004577; 0.081382; 0.018475;,
       0.002419; 0.082873; 0.020035;,
       0.002419; 0.082873; 0.020035;,
       0.004577; 0.081382; 0.018475;,
      -0.004577; 0.081382; 0.018475;,
      -0.002419; 0.082873; 0.020035;,
      -0.002419; 0.082873; 0.020035;,
      -0.004577; 0.081382; 0.018475;,
      -0.004577; 0.087707; 0.025091;,
      -0.002419; 0.086216; 0.023532;,
      -0.002419; 0.086216; 0.023532;,
      -0.004577; 0.087707; 0.025091;,
       0.004577; 0.087707; 0.025091;,
       0.002419; 0.086216; 0.023532;,
      -0.002419; 0.070731; 0.038112;,
      -0.001728; 0.068268; 0.039510;,
      -0.001728; 0.065881; 0.037013;,
      -0.002419; 0.067388; 0.034615;,
      -0.002419; 0.082873; 0.020035;,
      -0.002419; 0.067388; 0.034615;,
       0.002419; 0.067388; 0.034615;,
       0.002419; 0.082873; 0.020035;,
      -0.002419; 0.086216; 0.023532;,
      -0.002419; 0.070731; 0.038112;,
      -0.002419; 0.067388; 0.034615;,
      -0.002419; 0.082873; 0.020035;,
       0.002419; 0.082873; 0.020035;,
       0.002419; 0.067388; 0.034615;,
       0.002419; 0.070731; 0.038112;,
       0.002419; 0.086216; 0.023532;,
      -0.001728; 0.065881; 0.037013;,
      -0.001728; 0.068268; 0.039510;,
       0.001728; 0.068268; 0.039510;,
       0.001728; 0.065881; 0.037013;,
       0.002419; 0.067388; 0.034615;,
       0.001728; 0.065881; 0.037013;,
       0.001728; 0.068268; 0.039510;,
       0.002419; 0.070731; 0.038112;,
       0.002419; 0.070731; 0.038112;,
       0.001728; 0.068268; 0.039510;,
      -0.001728; 0.068268; 0.039510;,
      -0.002419; 0.070731; 0.038112;,
      -0.002419; 0.067388; 0.034615;,
      -0.001728; 0.065881; 0.037013;,
       0.001728; 0.065881; 0.037013;,
       0.002419; 0.067388; 0.034615;;
      188;
      4;3,2,1,0;,
      4;7,6,5,4;,
      4;11,10,9,8;,
      4;15,14,13,12;,
      4;19,18,17,16;,
      4;23,22,21,20;,
      4;27,26,25,24;,
      4;31,30,29,28;,
      4;35,34,33,32;,
      4;39,38,37,36;,
      4;43,42,41,40;,
      4;47,46,45,44;,
      4;51,50,49,48;,
      4;55,54,53,52;,
      4;59,58,57,56;,
      4;63,62,61,60;,
      4;67,66,65,64;,
      4;71,70,69,68;,
      4;75,74,73,72;,
      4;79,78,77,76;,
      4;83,82,81,80;,
      4;87,86,85,84;,
      4;91,90,89,88;,
      4;95,94,93,92;,
      4;99,98,97,96;,
      4;103,102,101,100;,
      4;107,106,105,104;,
      9;116,115,114,113,112,111,110,109,108;,
      4;120,119,118,117;,
      4;124,123,122,121;,
      4;128,127,126,125;,
      4;132,131,130,129;,
      4;136,135,134,133;,
      4;140,139,138,137;,
      4;144,143,142,141;,
      4;148,147,146,145;,
      4;152,151,150,149;,
      4;156,155,154,153;,
      4;160,159,158,157;,
      4;164,163,162,161;,
      4;168,167,166,165;,
      4;172,171,170,169;,
      4;176,175,174,173;,
      4;180,179,178,177;,
      4;184,183,182,181;,
      9;193,192,191,190,189,188,187,186,185;,
      4;197,196,195,194;,
      4;201,200,199,198;,
      4;205,204,203,202;,
      4;209,208,207,206;,
      4;213,212,211,210;,
      4;217,216,215,214;,
      4;221,220,219,218;,
      4;225,224,223,222;,
      4;229,228,227,226;,
      4;233,232,231,230;,
      4;237,236,235,234;,
      4;241,240,239,238;,
      4;245,244,243,242;,
      4;249,248,247,246;,
      4;253,252,251,250;,
      4;257,256,255,254;,
      4;261,260,259,258;,
      4;265,264,263,262;,
      4;269,268,267,266;,
      4;273,272,271,270;,
      4;277,276,275,274;,
      4;281,280,279,278;,
      4;285,284,283,282;,
      4;289,288,287,286;,
      4;293,292,291,290;,
      4;297,296,295,294;,
      4;301,300,299,298;,
      4;305,304,303,302;,
      4;309,308,307,306;,
      4;313,312,311,310;,
      4;317,316,315,314;,
      4;321,320,319,318;,
      4;325,324,323,322;,
      4;329,328,327,326;,
      4;333,332,331,330;,
      4;337,336,335,334;,
      4;341,340,339,338;,
      4;345,344,343,342;,
      4;349,348,347,346;,
      4;353,352,351,350;,
      4;357,356,355,354;,
      4;361,360,359,358;,
      4;365,364,363,362;,
      4;369,368,367,366;,
      4;373,372,371,370;,
      4;377,376,375,374;,
      4;381,380,379,378;,
      4;385,384,383,382;,
      4;389,388,387,386;,
      4;393,392,391,390;,
      4;397,396,395,394;,
      4;401,400,399,398;,
      4;405,404,403,402;,
      4;409,408,407,406;,
      4;413,412,411,410;,
      4;417,416,415,414;,
      4;421,420,419,418;,
      4;425,424,423,422;,
      4;429,428,427,426;,
      4;433,432,431,430;,
      4;437,436,435,434;,
      4;441,440,439,438;,
      4;445,444,443,442;,
      4;449,448,447,446;,
      4;453,452,451,450;,
      4;457,456,455,454;,
      4;461,460,459,458;,
      4;465,464,463,462;,
      4;469,468,467,466;,
      4;473,472,471,470;,
      4;477,476,475,474;,
      9;486,485,484,483,482,481,480,479,478;,
      4;490,489,488,487;,
      4;494,493,492,491;,
      4;498,497,496,495;,
      4;502,501,500,499;,
      4;506,505,504,503;,
      4;510,509,508,507;,
      4;514,513,512,511;,
      4;518,517,516,515;,
      4;522,521,520,519;,
      4;526,525,524,523;,
      4;530,529,528,527;,
      4;534,533,532,531;,
      4;538,537,536,535;,
      4;542,541,540,539;,
      4;546,545,544,543;,
      9;555,554,553,552,551,550,549,548,547;,
      4;559,558,557,556;,
      4;563,562,561,560;,
      4;567,566,565,564;,
      4;571,570,569,568;,
      4;575,574,573,572;,
      4;579,578,577,576;,
      4;583,582,581,580;,
      4;587,586,585,584;,
      4;591,590,589,588;,
      4;595,594,593,592;,
      4;599,598,597,596;,
      4;603,602,601,600;,
      4;607,606,605,604;,
      4;611,610,609,608;,
      4;615,614,613,612;,
      4;619,618,617,616;,
      4;623,622,621,620;,
      4;627,626,625,624;,
      4;631,630,629,628;,
      4;635,634,633,632;,
      4;639,638,637,636;,
      4;643,642,641,640;,
      4;647,646,645,644;,
      4;651,650,649,648;,
      4;655,654,653,652;,
      4;659,658,657,656;,
      4;663,662,661,660;,
      4;667,666,665,664;,
      4;671,670,669,668;,
      4;675,674,673,672;,
      4;679,678,677,676;,
      4;683,682,681,680;,
      4;687,686,685,684;,
      4;691,690,689,688;,
      4;695,694,693,692;,
      4;699,698,697,696;,
      4;703,702,701,700;,
      4;707,706,705,704;,
      4;711,710,709,708;,
      4;715,714,713,712;,
      4;719,718,717,716;,
      4;723,722,721,720;,
      4;727,726,725,724;,
      4;731,730,729,728;,
      4;735,734,733,732;,
      4;739,738,737,736;,
      4;743,742,741,740;,
      4;747,746,745,744;,
      4;751,750,749,748;,
      4;755,754,753,752;,
      4;759,758,757,756;,
      4;763,762,761,760;,
      4;767,766,765,764;,
      4;771,770,769,768;;
      MeshNormals {
        772;
         0.951019; 0.002532;-0.309121;,
         0.708720;-0.670292;-0.220059;,
         0.548131;-0.657607;-0.516823;,
         0.723984; 0.004692;-0.689801;,
         0.390594;-0.019964; 0.920347;,
         0.275055;-0.682288; 0.677368;,
         0.525913;-0.634456; 0.566463;,
         0.698523;-0.013595; 0.715459;,
         0.391888; 0.006334;-0.919991;,
         0.290515;-0.676880;-0.676339;,
        -0.000771;-0.648316;-0.761371;,
         0.000000; 0.007364;-0.999973;,
         0.288404; 0.666508;-0.687452;,
         0.391888; 0.006334;-0.919991;,
         0.000000; 0.007364;-0.999973;,
         0.004587; 0.646152;-0.763195;,
         0.294140; 0.678906; 0.672732;,
         0.390594;-0.019964; 0.920347;,
         0.698523;-0.013595; 0.715459;,
         0.551169; 0.654912; 0.517013;,
         0.719535; 0.664304;-0.202411;,
         0.951019; 0.002532;-0.309121;,
         0.723984; 0.004692;-0.689801;,
         0.562052; 0.645862;-0.516681;,
         0.729439; 0.661904; 0.172633;,
         0.950649;-0.004946; 0.310228;,
         1.000000;-0.000174;-0.000704;,
         0.756904; 0.653290;-0.017573;,
         0.950649;-0.004946; 0.310228;,
         0.703063;-0.665686; 0.250128;,
         0.733953;-0.679034; 0.015009;,
         1.000000;-0.000174;-0.000704;,
         0.698523;-0.013595; 0.715459;,
         0.525913;-0.634456; 0.566463;,
         0.703063;-0.665686; 0.250128;,
         0.950649;-0.004946; 0.310228;,
         0.551169; 0.654912; 0.517013;,
         0.698523;-0.013595; 0.715459;,
         0.950649;-0.004946; 0.310228;,
         0.729439; 0.661904; 0.172633;,
         0.342582;-0.854285; 0.390939;,
         0.480088;-0.737608; 0.474815;,
         0.641540;-0.737178; 0.212121;,
         0.548667;-0.809616; 0.208535;,
         0.756904; 0.653290;-0.017573;,
         1.000000;-0.000174;-0.000704;,
         0.951019; 0.002532;-0.309121;,
         0.719535; 0.664304;-0.202411;,
         1.000000;-0.000174;-0.000704;,
         0.733953;-0.679034; 0.015009;,
         0.708720;-0.670292;-0.220059;,
         0.951019; 0.002532;-0.309121;,
         0.653983; 0.739368;-0.160128;,
         0.713687; 0.661792;-0.229528;,
         0.758252; 0.651703;-0.018358;,
         0.669048; 0.742832;-0.023974;,
         0.006722; 0.613509; 0.789659;,
         0.000000;-0.023391; 0.999726;,
         0.390594;-0.019964; 0.920347;,
         0.294140; 0.678906; 0.672732;,
         0.562052; 0.645862;-0.516681;,
         0.723984; 0.004692;-0.689801;,
         0.391888; 0.006334;-0.919991;,
         0.288404; 0.666508;-0.687452;,
         0.723984; 0.004692;-0.689801;,
         0.548131;-0.657607;-0.516823;,
         0.290515;-0.676880;-0.676339;,
         0.391888; 0.006334;-0.919991;,
         0.000000;-0.023391; 0.999726;,
        -0.000897;-0.631637; 0.775264;,
         0.275055;-0.682288; 0.677368;,
         0.390594;-0.019964; 0.920347;,
         0.548667;-0.809616; 0.208535;,
         0.703063;-0.665686; 0.250128;,
         0.525913;-0.634456; 0.566463;,
         0.342582;-0.854285; 0.390939;,
         0.342582;-0.854285; 0.390939;,
         0.525913;-0.634456; 0.566463;,
         0.275055;-0.682288; 0.677368;,
         0.183774;-0.833466; 0.521116;,
        -0.616521;-0.696438;-0.367254;,
        -0.000771;-0.648316;-0.761371;,
         0.290515;-0.676880;-0.676339;,
         0.176521;-0.862321;-0.474597;,
         0.555843;-0.814935;-0.164069;,
         0.708720;-0.670292;-0.220059;,
         0.733953;-0.679034; 0.015009;,
         0.607514;-0.794047; 0.020404;,
         0.607514;-0.794047; 0.020404;,
         0.733953;-0.679034; 0.015009;,
         0.703063;-0.665686; 0.250128;,
         0.548667;-0.809616; 0.208535;,
         0.375687;-0.854236;-0.359361;,
         0.548131;-0.657607;-0.516823;,
         0.708720;-0.670292;-0.220059;,
         0.555843;-0.814935;-0.164069;,
        -0.612812;-0.688453; 0.387936;,
        -0.000897;-0.631637; 0.775264;,
        -0.000771;-0.648316;-0.761371;,
        -0.616521;-0.696438;-0.367254;,
         0.183774;-0.833466; 0.521116;,
         0.275055;-0.682288; 0.677368;,
        -0.000897;-0.631637; 0.775264;,
        -0.612812;-0.688453; 0.387936;,
         0.176521;-0.862321;-0.474597;,
         0.290515;-0.676880;-0.676339;,
         0.548131;-0.657607;-0.516823;,
         0.375687;-0.854236;-0.359361;,
         0.480088;-0.737608; 0.474815;,
         0.214471;-0.791907; 0.571738;,
        -0.373154;-0.738207; 0.561967;,
        -0.369294;-0.763417;-0.529921;,
         0.242384;-0.800492;-0.548145;,
         0.497671;-0.759020;-0.419776;,
         0.644351;-0.743035;-0.180862;,
         0.670038;-0.742168; 0.015376;,
         0.641540;-0.737178; 0.212121;,
        -0.612812;-0.688453; 0.387936;,
        -0.373154;-0.738207; 0.561967;,
         0.214471;-0.791907; 0.571738;,
         0.183774;-0.833466; 0.521116;,
         0.548667;-0.809616; 0.208535;,
         0.641540;-0.737178; 0.212121;,
         0.670038;-0.742168; 0.015376;,
         0.607514;-0.794047; 0.020404;,
         0.183774;-0.833466; 0.521116;,
         0.214471;-0.791907; 0.571738;,
         0.480088;-0.737608; 0.474815;,
         0.342582;-0.854285; 0.390939;,
         0.375687;-0.854236;-0.359361;,
         0.497671;-0.759020;-0.419776;,
         0.242384;-0.800492;-0.548145;,
         0.176521;-0.862321;-0.474597;,
         0.555843;-0.814935;-0.164069;,
         0.644351;-0.743035;-0.180862;,
         0.497671;-0.759020;-0.419776;,
         0.375687;-0.854236;-0.359361;,
        -0.616521;-0.696438;-0.367254;,
        -0.369294;-0.763417;-0.529921;,
        -0.373154;-0.738207; 0.561967;,
        -0.612812;-0.688453; 0.387936;,
         0.176521;-0.862321;-0.474597;,
         0.242384;-0.800492;-0.548145;,
        -0.369294;-0.763417;-0.529921;,
        -0.616521;-0.696438;-0.367254;,
         0.607514;-0.794047; 0.020404;,
         0.670038;-0.742168; 0.015376;,
         0.644351;-0.743035;-0.180862;,
         0.555843;-0.814935;-0.164069;,
         0.316019; 0.787521; 0.529096;,
         0.006722; 0.613509; 0.789659;,
         0.294140; 0.678906; 0.672732;,
         0.249415; 0.769447; 0.587999;,
         0.477135; 0.768816;-0.425750;,
         0.562052; 0.645862;-0.516681;,
         0.288404; 0.666508;-0.687452;,
         0.233657; 0.751365;-0.617134;,
         0.467784; 0.790017; 0.396298;,
         0.551169; 0.654912; 0.517013;,
         0.729439; 0.661904; 0.172633;,
         0.654908; 0.747563; 0.110656;,
         0.669048; 0.742832;-0.023974;,
         0.756904; 0.653290;-0.017573;,
         0.719535; 0.664304;-0.202411;,
         0.653983; 0.739368;-0.160128;,
         0.654908; 0.747563; 0.110656;,
         0.729439; 0.661904; 0.172633;,
         0.756904; 0.653290;-0.017573;,
         0.669048; 0.742832;-0.023974;,
         0.653983; 0.739368;-0.160128;,
         0.719535; 0.664304;-0.202411;,
         0.562052; 0.645862;-0.516681;,
         0.477135; 0.768816;-0.425750;,
         0.320223; 0.730919;-0.602673;,
         0.004587; 0.646152;-0.763195;,
         0.006722; 0.613509; 0.789659;,
         0.316019; 0.787521; 0.529096;,
         0.249415; 0.769447; 0.587999;,
         0.294140; 0.678906; 0.672732;,
         0.551169; 0.654912; 0.517013;,
         0.467784; 0.790017; 0.396298;,
         0.233657; 0.751365;-0.617134;,
         0.288404; 0.666508;-0.687452;,
         0.004587; 0.646152;-0.763195;,
         0.320223; 0.730919;-0.602673;,
         0.303550; 0.721014; 0.622893;,
         0.553151; 0.680906; 0.479991;,
         0.714022; 0.672704; 0.194016;,
         0.758252; 0.651703;-0.018358;,
         0.713687; 0.661792;-0.229528;,
         0.559686; 0.649247;-0.515005;,
         0.280965; 0.675316;-0.681914;,
        -0.357492; 0.633892;-0.685843;,
        -0.370795; 0.648278; 0.665016;,
         0.249415; 0.769447; 0.587999;,
         0.303550; 0.721014; 0.622893;,
        -0.370795; 0.648278; 0.665016;,
         0.316019; 0.787521; 0.529096;,
         0.467784; 0.790017; 0.396298;,
         0.553151; 0.680906; 0.479991;,
         0.303550; 0.721014; 0.622893;,
         0.249415; 0.769447; 0.587999;,
         0.669048; 0.742832;-0.023974;,
         0.758252; 0.651703;-0.018358;,
         0.714022; 0.672704; 0.194016;,
         0.654908; 0.747563; 0.110656;,
         0.316019; 0.787521; 0.529096;,
        -0.370795; 0.648278; 0.665016;,
        -0.357492; 0.633892;-0.685843;,
         0.320223; 0.730919;-0.602673;,
         0.233657; 0.751365;-0.617134;,
         0.280965; 0.675316;-0.681914;,
         0.559686; 0.649247;-0.515005;,
         0.477135; 0.768816;-0.425750;,
         0.320223; 0.730919;-0.602673;,
        -0.357492; 0.633892;-0.685843;,
         0.280965; 0.675316;-0.681914;,
         0.233657; 0.751365;-0.617134;,
         0.477135; 0.768816;-0.425750;,
         0.559686; 0.649247;-0.515005;,
         0.713687; 0.661792;-0.229528;,
         0.653983; 0.739368;-0.160128;,
         0.654908; 0.747563; 0.110656;,
         0.714022; 0.672704; 0.194016;,
         0.553151; 0.680906; 0.479991;,
         0.467784; 0.790017; 0.396298;,
        -0.441477; 0.897112;-0.016958;,
        -0.334872; 0.669274; 0.663275;,
         0.588412; 0.574308; 0.569160;,
         0.721983; 0.691787;-0.013088;,
         0.721983; 0.691787;-0.013088;,
         0.904534;-0.301511; 0.301511;,
         0.920459;-0.188190;-0.342550;,
         0.518282; 0.613948;-0.595359;,
         0.904534;-0.301511; 0.301511;,
         0.904534; 0.301511; 0.301511;,
         0.912073; 0.264242;-0.313526;,
         0.920459;-0.188190;-0.342550;,
        -0.334872; 0.669274; 0.663275;,
        -0.333333;-0.666667; 0.666667;,
         0.577350;-0.577350; 0.577350;,
         0.588412; 0.574308; 0.569160;,
         0.518282; 0.613948;-0.595359;,
         0.920459;-0.188190;-0.342550;,
        -0.558975;-0.399254;-0.726735;,
        -0.208838; 0.702062;-0.680805;,
         0.577350;-0.577350; 0.577350;,
        -0.333333;-0.666667; 0.666667;,
        -0.727607;-0.485071; 0.485071;,
         0.904534;-0.301511; 0.301511;,
         0.588412; 0.574308; 0.569160;,
         0.577350;-0.577350; 0.577350;,
         0.904534;-0.301511; 0.301511;,
         0.721983; 0.691787;-0.013088;,
         0.721983; 0.691787;-0.013088;,
         0.518282; 0.613948;-0.595359;,
        -0.208838; 0.702062;-0.680805;,
        -0.441477; 0.897112;-0.016958;,
         0.904534; 0.301511; 0.301511;,
         0.707107;-0.707107;-0.000000;,
         0.687999;-0.725647;-0.009690;,
         0.912073; 0.264242;-0.313526;,
         0.920459;-0.188190;-0.342550;,
         0.912073; 0.264242;-0.313526;,
        -0.727607; 0.485071;-0.485071;,
        -0.558975;-0.399254;-0.726735;,
        -0.727607;-0.485071; 0.485071;,
        -0.727607; 0.485071; 0.485071;,
         0.904534; 0.301511; 0.301511;,
         0.904534;-0.301511; 0.301511;,
        -0.558975;-0.399254;-0.726735;,
        -0.727607; 0.485071;-0.485071;,
        -0.727607; 0.485071; 0.485071;,
        -0.727607;-0.485071; 0.485071;,
         0.707107;-0.707107;-0.000000;,
        -0.447214;-0.894427;-0.000000;,
        -0.447214;-0.894427;-0.000000;,
         0.687999;-0.725647;-0.009690;,
        -0.727607; 0.485071;-0.485071;,
        -0.447214;-0.894427;-0.000000;,
        -0.447214;-0.894427;-0.000000;,
        -0.727607; 0.485071; 0.485071;,
         0.904534; 0.301511; 0.301511;,
         0.577350; 0.577350; 0.577350;,
         0.577350;-0.577350; 0.577350;,
         0.707107;-0.707107;-0.000000;,
        -0.447214;-0.894427;-0.000000;,
        -0.393888;-0.895765;-0.206051;,
         0.601289;-0.764319;-0.232955;,
         0.687999;-0.725647;-0.009690;,
        -0.333333; 0.666667; 0.666667;,
        -0.333333;-0.666667; 0.666667;,
         0.577350;-0.577350; 0.577350;,
         0.577350; 0.577350; 0.577350;,
         0.707107;-0.707107;-0.000000;,
         0.577350;-0.577350; 0.577350;,
        -0.333333;-0.666667; 0.666667;,
        -0.447214;-0.894427;-0.000000;,
        -0.727607; 0.485071; 0.485071;,
        -0.333333; 0.666667; 0.666667;,
         0.577350; 0.577350; 0.577350;,
         0.904534; 0.301511; 0.301511;,
        -0.447214;-0.894427;-0.000000;,
        -0.333333;-0.666667; 0.666667;,
        -0.333333; 0.666667; 0.666667;,
        -0.727607; 0.485071; 0.485071;,
        -0.856736; 0.258581; 0.446250;,
        -0.354890; 0.476969;-0.804086;,
        -0.343248;-0.578064;-0.740286;,
        -0.393888;-0.895765;-0.206051;,
         0.912073; 0.264242;-0.313526;,
         0.984323; 0.075038; 0.159617;,
        -0.856736; 0.258581; 0.446250;,
        -0.727607; 0.485071;-0.485071;,
         0.687999;-0.725647;-0.009690;,
         0.601289;-0.764319;-0.232955;,
         0.984323; 0.075038; 0.159617;,
         0.912073; 0.264242;-0.313526;,
        -0.727607; 0.485071;-0.485071;,
        -0.856736; 0.258581; 0.446250;,
        -0.393888;-0.895765;-0.206051;,
        -0.447214;-0.894427;-0.000000;,
         0.388509; 0.324679;-0.862348;,
         0.391880;-0.437374;-0.809403;,
        -0.343248;-0.578064;-0.740286;,
        -0.354890; 0.476969;-0.804086;,
        -0.393888;-0.895765;-0.206051;,
        -0.343248;-0.578064;-0.740286;,
         0.391880;-0.437374;-0.809403;,
         0.601289;-0.764319;-0.232955;,
         0.601289;-0.764319;-0.232955;,
         0.391880;-0.437374;-0.809403;,
         0.388509; 0.324679;-0.862348;,
         0.984323; 0.075038; 0.159617;,
        -0.354890; 0.476969;-0.804086;,
        -0.231605; 0.950632;-0.206536;,
         0.590058; 0.754301;-0.287857;,
         0.388509; 0.324679;-0.862348;,
         0.715532;-0.146760; 0.682990;,
         0.590058; 0.754301;-0.287857;,
        -0.231605; 0.950632;-0.206536;,
        -0.235179;-0.187575; 0.953680;,
         0.388509; 0.324679;-0.862348;,
         0.590058; 0.754301;-0.287857;,
         0.715532;-0.146760; 0.682990;,
         0.984323; 0.075038; 0.159617;,
        -0.856736; 0.258581; 0.446250;,
        -0.235179;-0.187575; 0.953680;,
        -0.231605; 0.950632;-0.206536;,
        -0.354890; 0.476969;-0.804086;,
         0.984323; 0.075038; 0.159617;,
         0.715532;-0.146760; 0.682990;,
        -0.235179;-0.187575; 0.953680;,
        -0.856736; 0.258581; 0.446250;,
        -0.333333;-0.666667; 0.666667;,
        -0.334872; 0.669274; 0.663275;,
        -0.441477; 0.897112;-0.016958;,
        -0.727607;-0.485071; 0.485071;,
        -0.727607;-0.485071; 0.485071;,
        -0.441477; 0.897112;-0.016958;,
        -0.208838; 0.702062;-0.680805;,
        -0.558975;-0.399254;-0.726735;,
        -0.558975;-0.399254;-0.726735;,
        -0.235179;-0.187575; 0.953680;,
         0.715532;-0.146760; 0.682990;,
         0.920459;-0.188190;-0.342550;,
        -0.231605; 0.950632;-0.206536;,
        -0.208838; 0.702062;-0.680805;,
         0.518282; 0.613948;-0.595359;,
         0.590058; 0.754301;-0.287857;,
         0.518282; 0.613948;-0.595359;,
         0.920459;-0.188190;-0.342550;,
         0.715532;-0.146760; 0.682990;,
         0.590058; 0.754301;-0.287857;,
        -0.951019; 0.002532;-0.309121;,
        -0.723984; 0.004692;-0.689801;,
        -0.548131;-0.657607;-0.516823;,
        -0.708719;-0.670292;-0.220059;,
        -0.390594;-0.019964; 0.920347;,
        -0.698523;-0.013595; 0.715459;,
        -0.525913;-0.634457; 0.566463;,
        -0.275055;-0.682289; 0.677368;,
        -0.391888; 0.006334;-0.919991;,
         0.000000; 0.007364;-0.999973;,
        -0.000771;-0.648316;-0.761371;,
        -0.290515;-0.676880;-0.676339;,
        -0.288404; 0.666507;-0.687453;,
         0.004587; 0.646152;-0.763195;,
         0.000000; 0.007364;-0.999973;,
        -0.391888; 0.006334;-0.919991;,
        -0.294140; 0.678904; 0.672734;,
        -0.551169; 0.654912; 0.517013;,
        -0.698523;-0.013595; 0.715459;,
        -0.390594;-0.019964; 0.920347;,
        -0.719535; 0.664304;-0.202411;,
        -0.562052; 0.645862;-0.516681;,
        -0.723984; 0.004692;-0.689801;,
        -0.951019; 0.002532;-0.309121;,
        -0.729439; 0.661904; 0.172633;,
        -0.756904; 0.653290;-0.017574;,
        -1.000000;-0.000174;-0.000704;,
        -0.950649;-0.004946; 0.310228;,
        -0.950649;-0.004946; 0.310228;,
        -1.000000;-0.000174;-0.000704;,
        -0.733953;-0.679034; 0.015009;,
        -0.703063;-0.665686; 0.250128;,
        -0.698523;-0.013595; 0.715459;,
        -0.950649;-0.004946; 0.310228;,
        -0.703063;-0.665686; 0.250128;,
        -0.525913;-0.634457; 0.566463;,
        -0.551169; 0.654912; 0.517013;,
        -0.729439; 0.661904; 0.172633;,
        -0.950649;-0.004946; 0.310228;,
        -0.698523;-0.013595; 0.715459;,
        -0.342582;-0.854286; 0.390939;,
        -0.548666;-0.809616; 0.208535;,
        -0.641540;-0.737178; 0.212121;,
        -0.480088;-0.737608; 0.474815;,
        -0.756904; 0.653290;-0.017574;,
        -0.719535; 0.664304;-0.202411;,
        -0.951019; 0.002532;-0.309121;,
        -1.000000;-0.000174;-0.000704;,
        -1.000000;-0.000174;-0.000704;,
        -0.951019; 0.002532;-0.309121;,
        -0.708719;-0.670292;-0.220059;,
        -0.733953;-0.679034; 0.015009;,
        -0.653983; 0.739368;-0.160128;,
        -0.669048; 0.742832;-0.023974;,
        -0.758252; 0.651703;-0.018358;,
        -0.713687; 0.661791;-0.229528;,
         0.006722; 0.613509; 0.789659;,
        -0.294140; 0.678904; 0.672734;,
        -0.390594;-0.019964; 0.920347;,
         0.000000;-0.023391; 0.999726;,
        -0.562052; 0.645862;-0.516681;,
        -0.288404; 0.666507;-0.687453;,
        -0.391888; 0.006334;-0.919991;,
        -0.723984; 0.004692;-0.689801;,
        -0.723984; 0.004692;-0.689801;,
        -0.391888; 0.006334;-0.919991;,
        -0.290515;-0.676880;-0.676339;,
        -0.548131;-0.657607;-0.516823;,
         0.000000;-0.023391; 0.999726;,
        -0.390594;-0.019964; 0.920347;,
        -0.275055;-0.682289; 0.677368;,
        -0.000897;-0.631637; 0.775264;,
        -0.548666;-0.809616; 0.208535;,
        -0.342582;-0.854286; 0.390939;,
        -0.525913;-0.634457; 0.566463;,
        -0.703063;-0.665686; 0.250128;,
        -0.342582;-0.854286; 0.390939;,
        -0.183774;-0.833466; 0.521116;,
        -0.275055;-0.682289; 0.677368;,
        -0.525913;-0.634457; 0.566463;,
        -0.616521;-0.696438;-0.367254;,
        -0.176521;-0.862321;-0.474597;,
        -0.290515;-0.676880;-0.676339;,
        -0.000771;-0.648316;-0.761371;,
        -0.555843;-0.814936;-0.164069;,
        -0.607514;-0.794047; 0.020404;,
        -0.733953;-0.679034; 0.015009;,
        -0.708719;-0.670292;-0.220059;,
        -0.607514;-0.794047; 0.020404;,
        -0.548666;-0.809616; 0.208535;,
        -0.703063;-0.665686; 0.250128;,
        -0.733953;-0.679034; 0.015009;,
        -0.375687;-0.854236;-0.359361;,
        -0.555843;-0.814936;-0.164069;,
        -0.708719;-0.670292;-0.220059;,
        -0.548131;-0.657607;-0.516823;,
        -0.183774;-0.833466; 0.521116;,
        -0.612812;-0.688453; 0.387936;,
        -0.000897;-0.631637; 0.775264;,
        -0.275055;-0.682289; 0.677368;,
        -0.176521;-0.862321;-0.474597;,
        -0.375687;-0.854236;-0.359361;,
        -0.548131;-0.657607;-0.516823;,
        -0.290515;-0.676880;-0.676339;,
        -0.480088;-0.737608; 0.474815;,
        -0.641540;-0.737178; 0.212121;,
        -0.670038;-0.742168; 0.015376;,
        -0.644351;-0.743035;-0.180862;,
        -0.497671;-0.759020;-0.419776;,
        -0.242384;-0.800492;-0.548144;,
        -0.369294;-0.763417;-0.529921;,
        -0.373154;-0.738207; 0.561967;,
        -0.214471;-0.791907; 0.571738;,
        -0.612812;-0.688453; 0.387936;,
        -0.183774;-0.833466; 0.521116;,
        -0.214471;-0.791907; 0.571738;,
        -0.373154;-0.738207; 0.561967;,
        -0.548666;-0.809616; 0.208535;,
        -0.607514;-0.794047; 0.020404;,
        -0.670038;-0.742168; 0.015376;,
        -0.641540;-0.737178; 0.212121;,
        -0.183774;-0.833466; 0.521116;,
        -0.342582;-0.854286; 0.390939;,
        -0.480088;-0.737608; 0.474815;,
        -0.214471;-0.791907; 0.571738;,
        -0.375687;-0.854236;-0.359361;,
        -0.176521;-0.862321;-0.474597;,
        -0.242384;-0.800492;-0.548144;,
        -0.497671;-0.759020;-0.419776;,
        -0.555843;-0.814936;-0.164069;,
        -0.375687;-0.854236;-0.359361;,
        -0.497671;-0.759020;-0.419776;,
        -0.644351;-0.743035;-0.180862;,
        -0.176521;-0.862321;-0.474597;,
        -0.616521;-0.696438;-0.367254;,
        -0.369294;-0.763417;-0.529921;,
        -0.242384;-0.800492;-0.548144;,
        -0.607514;-0.794047; 0.020404;,
        -0.555843;-0.814936;-0.164069;,
        -0.644351;-0.743035;-0.180862;,
        -0.670038;-0.742168; 0.015376;,
         0.316019; 0.787521; 0.529096;,
        -0.249415; 0.769446; 0.588001;,
        -0.294140; 0.678904; 0.672734;,
         0.006722; 0.613509; 0.789659;,
        -0.477135; 0.768816;-0.425751;,
        -0.233657; 0.751364;-0.617136;,
        -0.288404; 0.666507;-0.687453;,
        -0.562052; 0.645862;-0.516681;,
        -0.467784; 0.790016; 0.396298;,
        -0.654908; 0.747563; 0.110655;,
        -0.729439; 0.661904; 0.172633;,
        -0.551169; 0.654912; 0.517013;,
        -0.669048; 0.742832;-0.023974;,
        -0.653983; 0.739368;-0.160128;,
        -0.719535; 0.664304;-0.202411;,
        -0.756904; 0.653290;-0.017574;,
        -0.654908; 0.747563; 0.110655;,
        -0.669048; 0.742832;-0.023974;,
        -0.756904; 0.653290;-0.017574;,
        -0.729439; 0.661904; 0.172633;,
        -0.653983; 0.739368;-0.160128;,
        -0.477135; 0.768816;-0.425751;,
        -0.562052; 0.645862;-0.516681;,
        -0.719535; 0.664304;-0.202411;,
        -0.249415; 0.769446; 0.588001;,
        -0.467784; 0.790016; 0.396298;,
        -0.551169; 0.654912; 0.517013;,
        -0.294140; 0.678904; 0.672734;,
        -0.233657; 0.751364;-0.617136;,
         0.320223; 0.730919;-0.602673;,
         0.004587; 0.646152;-0.763195;,
        -0.288404; 0.666507;-0.687453;,
        -0.303550; 0.721015; 0.622893;,
        -0.370795; 0.648278; 0.665016;,
        -0.357492; 0.633892;-0.685843;,
        -0.280965; 0.675316;-0.681914;,
        -0.559686; 0.649247;-0.515005;,
        -0.713687; 0.661791;-0.229528;,
        -0.758252; 0.651703;-0.018358;,
        -0.714022; 0.672704; 0.194015;,
        -0.553151; 0.680906; 0.479990;,
        -0.249415; 0.769446; 0.588001;,
         0.316019; 0.787521; 0.529096;,
        -0.370795; 0.648278; 0.665016;,
        -0.303550; 0.721015; 0.622893;,
        -0.467784; 0.790016; 0.396298;,
        -0.249415; 0.769446; 0.588001;,
        -0.303550; 0.721015; 0.622893;,
        -0.553151; 0.680906; 0.479990;,
        -0.669048; 0.742832;-0.023974;,
        -0.654908; 0.747563; 0.110655;,
        -0.714022; 0.672704; 0.194015;,
        -0.758252; 0.651703;-0.018358;,
        -0.233657; 0.751364;-0.617136;,
        -0.477135; 0.768816;-0.425751;,
        -0.559686; 0.649247;-0.515005;,
        -0.280965; 0.675316;-0.681914;,
         0.320223; 0.730919;-0.602673;,
        -0.233657; 0.751364;-0.617136;,
        -0.280965; 0.675316;-0.681914;,
        -0.357492; 0.633892;-0.685843;,
        -0.477135; 0.768816;-0.425751;,
        -0.653983; 0.739368;-0.160128;,
        -0.713687; 0.661791;-0.229528;,
        -0.559686; 0.649247;-0.515005;,
        -0.654908; 0.747563; 0.110655;,
        -0.467784; 0.790016; 0.396298;,
        -0.553151; 0.680906; 0.479990;,
        -0.714022; 0.672704; 0.194015;,
        -0.441477; 0.897112;-0.016958;,
        -0.721983; 0.691787;-0.013088;,
        -0.588412; 0.574307; 0.569160;,
        -0.334872; 0.669274; 0.663275;,
        -0.721983; 0.691787;-0.013088;,
        -0.518282; 0.613948;-0.595359;,
        -0.920459;-0.188190;-0.342550;,
        -0.904534;-0.301511; 0.301511;,
        -0.904534;-0.301511; 0.301511;,
        -0.920459;-0.188190;-0.342550;,
        -0.912073; 0.264242;-0.313526;,
        -0.904534; 0.301511; 0.301511;,
        -0.334872; 0.669274; 0.663275;,
        -0.588412; 0.574307; 0.569160;,
        -0.577350;-0.577350; 0.577350;,
        -0.333333;-0.666667; 0.666667;,
        -0.518282; 0.613948;-0.595359;,
        -0.208838; 0.702062;-0.680805;,
        -0.558975;-0.399254;-0.726735;,
        -0.920459;-0.188190;-0.342550;,
        -0.577350;-0.577350; 0.577350;,
        -0.904534;-0.301511; 0.301511;,
        -0.727607;-0.485071; 0.485071;,
        -0.333333;-0.666667; 0.666667;,
        -0.588412; 0.574307; 0.569160;,
        -0.721983; 0.691787;-0.013088;,
        -0.904534;-0.301511; 0.301511;,
        -0.577350;-0.577350; 0.577350;,
        -0.721983; 0.691787;-0.013088;,
        -0.441477; 0.897112;-0.016958;,
        -0.208838; 0.702062;-0.680805;,
        -0.518282; 0.613948;-0.595359;,
        -0.904534; 0.301511; 0.301511;,
        -0.912073; 0.264242;-0.313526;,
        -0.687999;-0.725647;-0.009690;,
        -0.707107;-0.707107; 0.000000;,
        -0.920459;-0.188190;-0.342550;,
        -0.558975;-0.399254;-0.726735;,
        -0.727607; 0.485071;-0.485071;,
        -0.912073; 0.264242;-0.313526;,
        -0.727607;-0.485071; 0.485071;,
        -0.904534;-0.301511; 0.301511;,
        -0.904534; 0.301511; 0.301511;,
        -0.727607; 0.485071; 0.485071;,
        -0.707107;-0.707107; 0.000000;,
        -0.687999;-0.725647;-0.009690;,
        -0.447214;-0.894427;-0.000000;,
        -0.447214;-0.894427;-0.000000;,
        -0.904534; 0.301511; 0.301511;,
        -0.707107;-0.707107; 0.000000;,
        -0.577350;-0.577350; 0.577350;,
        -0.577350; 0.577350; 0.577350;,
        -0.447214;-0.894427;-0.000000;,
        -0.687999;-0.725647;-0.009690;,
        -0.601289;-0.764319;-0.232955;,
        -0.393888;-0.895765;-0.206051;,
        -0.333333; 0.666667; 0.666667;,
        -0.577350; 0.577350; 0.577350;,
        -0.577350;-0.577350; 0.577350;,
        -0.333333;-0.666667; 0.666667;,
        -0.707107;-0.707107; 0.000000;,
        -0.447214;-0.894427;-0.000000;,
        -0.333333;-0.666667; 0.666667;,
        -0.577350;-0.577350; 0.577350;,
        -0.727607; 0.485071; 0.485071;,
        -0.904534; 0.301511; 0.301511;,
        -0.577350; 0.577350; 0.577350;,
        -0.333333; 0.666667; 0.666667;,
        -0.912073; 0.264242;-0.313526;,
        -0.727607; 0.485071;-0.485071;,
        -0.856736; 0.258581; 0.446250;,
        -0.984323; 0.075038; 0.159617;,
        -0.687999;-0.725647;-0.009690;,
        -0.912073; 0.264242;-0.313526;,
        -0.984323; 0.075038; 0.159617;,
        -0.601289;-0.764319;-0.232955;,
        -0.388509; 0.324679;-0.862348;,
        -0.354890; 0.476969;-0.804086;,
        -0.343248;-0.578064;-0.740286;,
        -0.391880;-0.437374;-0.809403;,
        -0.393888;-0.895765;-0.206051;,
        -0.601289;-0.764319;-0.232955;,
        -0.391880;-0.437374;-0.809403;,
        -0.343248;-0.578064;-0.740286;,
        -0.601289;-0.764319;-0.232955;,
        -0.984323; 0.075038; 0.159617;,
        -0.388509; 0.324679;-0.862348;,
        -0.391880;-0.437374;-0.809403;,
        -0.354890; 0.476969;-0.804086;,
        -0.388509; 0.324679;-0.862348;,
        -0.590058; 0.754301;-0.287857;,
        -0.231605; 0.950632;-0.206536;,
        -0.715532;-0.146760; 0.682990;,
        -0.235179;-0.187575; 0.953680;,
        -0.231605; 0.950632;-0.206536;,
        -0.590058; 0.754301;-0.287857;,
        -0.388509; 0.324679;-0.862348;,
        -0.984323; 0.075038; 0.159617;,
        -0.715532;-0.146760; 0.682990;,
        -0.590058; 0.754301;-0.287857;,
        -0.984323; 0.075038; 0.159617;,
        -0.856736; 0.258581; 0.446250;,
        -0.235179;-0.187575; 0.953680;,
        -0.715532;-0.146760; 0.682990;,
        -0.558975;-0.399254;-0.726735;,
        -0.920459;-0.188190;-0.342550;,
        -0.715532;-0.146760; 0.682990;,
        -0.235179;-0.187575; 0.953680;,
        -0.231605; 0.950632;-0.206536;,
        -0.590058; 0.754301;-0.287857;,
        -0.518282; 0.613948;-0.595359;,
        -0.208838; 0.702062;-0.680805;,
        -0.518282; 0.613948;-0.595359;,
        -0.590058; 0.754301;-0.287857;,
        -0.715532;-0.146760; 0.682990;,
        -0.920459;-0.188190;-0.342550;,
        -0.577350;-0.816291;-0.018330;,
        -0.577350;-0.018331; 0.816291;,
        -0.577351; 0.816290; 0.018330;,
        -0.577350; 0.018329;-0.816291;,
        -0.577350;-0.018331; 0.816291;,
         0.577350;-0.018330; 0.816291;,
         0.577350; 0.816291; 0.018330;,
        -0.577351; 0.816290; 0.018330;,
         0.577350;-0.018330; 0.816291;,
         0.577351;-0.816291;-0.018330;,
         0.577350; 0.018330;-0.816291;,
         0.577350; 0.816291; 0.018330;,
         0.577351;-0.816291;-0.018330;,
        -0.577350;-0.816291;-0.018330;,
        -0.577350; 0.018329;-0.816291;,
         0.577350; 0.018330;-0.816291;,
        -0.577350;-0.018331; 0.816291;,
        -0.577350;-0.816291;-0.018330;,
         0.577351;-0.816291;-0.018330;,
         0.577350;-0.018330; 0.816291;,
        -0.299557; 0.446375;-0.843217;,
        -0.698788;-0.365060;-0.615164;,
         0.698788;-0.365060;-0.615164;,
         0.299557; 0.446375;-0.843217;,
        -0.299557; 0.446375;-0.843217;,
        -0.577350; 0.018329;-0.816291;,
        -0.577351; 0.816290; 0.018330;,
        -0.303473; 0.861905;-0.406232;,
        -0.303473; 0.861905;-0.406232;,
        -0.577351; 0.816290; 0.018330;,
         0.577350; 0.816291; 0.018330;,
         0.303473; 0.861905;-0.406232;,
         0.303473; 0.861905;-0.406232;,
         0.577350; 0.816291; 0.018330;,
         0.577350; 0.018330;-0.816291;,
         0.299557; 0.446375;-0.843217;,
         0.299557; 0.446375;-0.843217;,
         0.577350; 0.018330;-0.816291;,
        -0.577350; 0.018329;-0.816291;,
        -0.299557; 0.446375;-0.843217;,
         0.698788;-0.365060;-0.615164;,
         0.502806; 0.160747;-0.849321;,
         0.502806; 0.855680;-0.122461;,
         0.697527; 0.596037; 0.397738;,
         0.303473; 0.861905;-0.406232;,
         0.697527; 0.596037; 0.397738;,
        -0.697527; 0.596037; 0.397738;,
        -0.303473; 0.861905;-0.406232;,
         0.299557; 0.446375;-0.843217;,
         0.698788;-0.365060;-0.615164;,
         0.697527; 0.596037; 0.397738;,
         0.303473; 0.861905;-0.406232;,
        -0.303473; 0.861905;-0.406232;,
        -0.697527; 0.596037; 0.397738;,
        -0.698788;-0.365060;-0.615164;,
        -0.299557; 0.446375;-0.843217;,
         0.502806; 0.855680;-0.122461;,
         0.502806; 0.160747;-0.849321;,
        -0.502806; 0.160747;-0.849321;,
        -0.502806; 0.855680;-0.122461;,
        -0.697527; 0.596037; 0.397738;,
        -0.502806; 0.855680;-0.122461;,
        -0.502806; 0.160747;-0.849321;,
        -0.698788;-0.365060;-0.615164;,
        -0.698788;-0.365060;-0.615164;,
        -0.502806; 0.160747;-0.849321;,
         0.502806; 0.160747;-0.849321;,
         0.698788;-0.365060;-0.615164;,
         0.697527; 0.596037; 0.397738;,
         0.502806; 0.855680;-0.122461;,
        -0.502806; 0.855680;-0.122461;,
        -0.697527; 0.596037; 0.397738;;
        188;
        4;3,2,1,0;,
        4;7,6,5,4;,
        4;11,10,9,8;,
        4;15,14,13,12;,
        4;19,18,17,16;,
        4;23,22,21,20;,
        4;27,26,25,24;,
        4;31,30,29,28;,
        4;35,34,33,32;,
        4;39,38,37,36;,
        4;43,42,41,40;,
        4;47,46,45,44;,
        4;51,50,49,48;,
        4;55,54,53,52;,
        4;59,58,57,56;,
        4;63,62,61,60;,
        4;67,66,65,64;,
        4;71,70,69,68;,
        4;75,74,73,72;,
        4;79,78,77,76;,
        4;83,82,81,80;,
        4;87,86,85,84;,
        4;91,90,89,88;,
        4;95,94,93,92;,
        4;99,98,97,96;,
        4;103,102,101,100;,
        4;107,106,105,104;,
        9;116,115,114,113,112,111,110,109,108;,
        4;120,119,118,117;,
        4;124,123,122,121;,
        4;128,127,126,125;,
        4;132,131,130,129;,
        4;136,135,134,133;,
        4;140,139,138,137;,
        4;144,143,142,141;,
        4;148,147,146,145;,
        4;152,151,150,149;,
        4;156,155,154,153;,
        4;160,159,158,157;,
        4;164,163,162,161;,
        4;168,167,166,165;,
        4;172,171,170,169;,
        4;176,175,174,173;,
        4;180,179,178,177;,
        4;184,183,182,181;,
        9;193,192,191,190,189,188,187,186,185;,
        4;197,196,195,194;,
        4;201,200,199,198;,
        4;205,204,203,202;,
        4;209,208,207,206;,
        4;213,212,211,210;,
        4;217,216,215,214;,
        4;221,220,219,218;,
        4;225,224,223,222;,
        4;229,228,227,226;,
        4;233,232,231,230;,
        4;237,236,235,234;,
        4;241,240,239,238;,
        4;245,244,243,242;,
        4;249,248,247,246;,
        4;253,252,251,250;,
        4;257,256,255,254;,
        4;261,260,259,258;,
        4;265,264,263,262;,
        4;269,268,267,266;,
        4;273,272,271,270;,
        4;277,276,275,274;,
        4;281,280,279,278;,
        4;285,284,283,282;,
        4;289,288,287,286;,
        4;293,292,291,290;,
        4;297,296,295,294;,
        4;301,300,299,298;,
        4;305,304,303,302;,
        4;309,308,307,306;,
        4;313,312,311,310;,
        4;317,316,315,314;,
        4;321,320,319,318;,
        4;325,324,323,322;,
        4;329,328,327,326;,
        4;333,332,331,330;,
        4;337,336,335,334;,
        4;341,340,339,338;,
        4;345,344,343,342;,
        4;349,348,347,346;,
        4;353,352,351,350;,
        4;357,356,355,354;,
        4;361,360,359,358;,
        4;365,364,363,362;,
        4;369,368,367,366;,
        4;373,372,371,370;,
        4;377,376,375,374;,
        4;381,380,379,378;,
        4;385,384,383,382;,
        4;389,388,387,386;,
        4;393,392,391,390;,
        4;397,396,395,394;,
        4;401,400,399,398;,
        4;405,404,403,402;,
        4;409,408,407,406;,
        4;413,412,411,410;,
        4;417,416,415,414;,
        4;421,420,419,418;,
        4;425,424,423,422;,
        4;429,428,427,426;,
        4;433,432,431,430;,
        4;437,436,435,434;,
        4;441,440,439,438;,
        4;445,444,443,442;,
        4;449,448,447,446;,
        4;453,452,451,450;,
        4;457,456,455,454;,
        4;461,460,459,458;,
        4;465,464,463,462;,
        4;469,468,467,466;,
        4;473,472,471,470;,
        4;477,476,475,474;,
        9;486,485,484,483,482,481,480,479,478;,
        4;490,489,488,487;,
        4;494,493,492,491;,
        4;498,497,496,495;,
        4;502,501,500,499;,
        4;506,505,504,503;,
        4;510,509,508,507;,
        4;514,513,512,511;,
        4;518,517,516,515;,
        4;522,521,520,519;,
        4;526,525,524,523;,
        4;530,529,528,527;,
        4;534,533,532,531;,
        4;538,537,536,535;,
        4;542,541,540,539;,
        4;546,545,544,543;,
        9;555,554,553,552,551,550,549,548,547;,
        4;559,558,557,556;,
        4;563,562,561,560;,
        4;567,566,565,564;,
        4;571,570,569,568;,
        4;575,574,573,572;,
        4;579,578,577,576;,
        4;583,582,581,580;,
        4;587,586,585,584;,
        4;591,590,589,588;,
        4;595,594,593,592;,
        4;599,598,597,596;,
        4;603,602,601,600;,
        4;607,606,605,604;,
        4;611,610,609,608;,
        4;615,614,613,612;,
        4;619,618,617,616;,
        4;623,622,621,620;,
        4;627,626,625,624;,
        4;631,630,629,628;,
        4;635,634,633,632;,
        4;639,638,637,636;,
        4;643,642,641,640;,
        4;647,646,645,644;,
        4;651,650,649,648;,
        4;655,654,653,652;,
        4;659,658,657,656;,
        4;663,662,661,660;,
        4;667,666,665,664;,
        4;671,670,669,668;,
        4;675,674,673,672;,
        4;679,678,677,676;,
        4;683,682,681,680;,
        4;687,686,685,684;,
        4;691,690,689,688;,
        4;695,694,693,692;,
        4;699,698,697,696;,
        4;703,702,701,700;,
        4;707,706,705,704;,
        4;711,710,709,708;,
        4;715,714,713,712;,
        4;719,718,717,716;,
        4;723,722,721,720;,
        4;727,726,725,724;,
        4;731,730,729,728;,
        4;735,734,733,732;,
        4;739,738,737,736;,
        4;743,742,741,740;,
        4;747,746,745,744;,
        4;751,750,749,748;,
        4;755,754,753,752;,
        4;759,758,757,756;,
        4;763,762,761,760;,
        4;767,766,765,764;,
        4;771,770,769,768;;
      }
      MeshTextureCoords {
        772;
         0.465463; 0.626605;,
         0.467071; 0.255689;,
         0.501565; 0.254733;,
         0.498224; 0.625826;,
         0.334769; 0.628888;,
         0.330621; 0.258833;,
         0.363357; 0.258608;,
         0.367403; 0.628980;,
         0.532681; 0.625693;,
         0.536402; 0.254779;,
         0.570554; 0.254965;,
         0.566615; 0.625623;,
         0.536599; 0.993174;,
         0.532681; 0.625693;,
         0.566615; 0.625623;,
         0.570554; 0.992837;,
         0.321391; 0.999202;,
         0.334769; 0.628888;,
         0.367403; 0.628980;,
         0.355224; 0.999519;,
         0.465539; 0.992308;,
         0.465463; 0.626605;,
         0.498224; 0.625826;,
         0.502148; 0.993494;,
         0.391840; 0.995404;,
         0.400372; 0.628230;,
         0.432926; 0.627417;,
         0.428648; 0.991181;,
         0.400372; 0.628230;,
         0.398012; 0.257638;,
         0.432542; 0.256668;,
         0.432926; 0.627417;,
         0.367403; 0.628980;,
         0.363357; 0.258608;,
         0.398012; 0.257638;,
         0.400372; 0.628230;,
         0.355224; 0.999519;,
         0.367403; 0.628980;,
         0.400372; 0.628230;,
         0.391840; 0.995404;,
         0.925115; 0.343358;,
         0.956608; 0.355134;,
         0.954457; 0.380038;,
         0.922477; 0.373894;,
         0.428648; 0.991181;,
         0.432926; 0.627417;,
         0.465463; 0.626605;,
         0.465539; 0.992308;,
         0.432926; 0.627417;,
         0.432542; 0.256668;,
         0.467071; 0.255689;,
         0.465463; 0.626605;,
         0.873577; 0.363160;,
         0.916346; 0.364672;,
         0.914039; 0.397525;,
         0.871151; 0.397699;,
         0.286000; 0.998645;,
         0.300307; 0.628687;,
         0.334769; 0.628888;,
         0.321391; 0.999202;,
         0.502148; 0.993494;,
         0.498224; 0.625826;,
         0.532681; 0.625693;,
         0.536599; 0.993174;,
         0.498224; 0.625826;,
         0.501565; 0.254733;,
         0.536402; 0.254779;,
         0.532681; 0.625693;,
         0.300307; 0.628687;,
         0.296023; 0.259110;,
         0.330621; 0.258833;,
         0.334769; 0.628888;,
         0.848215; 0.875097;,
         0.836245; 0.872552;,
         0.852769; 0.842014;,
         0.862801; 0.848140;,
         0.862801; 0.848140;,
         0.852769; 0.842014;,
         0.882113; 0.827345;,
         0.889331; 0.834878;,
         0.914980; 0.988732;,
         0.914980; 0.999519;,
         0.882114; 0.990106;,
         0.889554; 0.982605;,
         0.848218; 0.938592;,
         0.836246; 0.941113;,
         0.831771; 0.906832;,
         0.844073; 0.906832;,
         0.844073; 0.906832;,
         0.831771; 0.906832;,
         0.836245; 0.872552;,
         0.848215; 0.875097;,
         0.862775; 0.965866;,
         0.852523; 0.971610;,
         0.836246; 0.941113;,
         0.848218; 0.938592;,
         0.998177; 0.845743;,
         0.999519; 0.691968;,
         0.999519; 0.999517;,
         0.996835; 0.999519;,
         0.889331; 0.834878;,
         0.882113; 0.827345;,
         0.914980; 0.816420;,
         0.914980; 0.827691;,
         0.889554; 0.982605;,
         0.882114; 0.990106;,
         0.852523; 0.971610;,
         0.862775; 0.965866;,
         0.227539; 0.139106;,
         0.249178; 0.128292;,
         0.277456; 0.122432;,
         0.277456; 0.253770;,
         0.249360; 0.248773;,
         0.227517; 0.235125;,
         0.215648; 0.212879;,
         0.212268; 0.186976;,
         0.215645; 0.161093;,
         0.942181; 0.289739;,
         0.973610; 0.304916;,
         0.963251; 0.331873;,
         0.933259; 0.314837;,
         0.922477; 0.373894;,
         0.954457; 0.380038;,
         0.954099; 0.406139;,
         0.922039; 0.405895;,
         0.933259; 0.314837;,
         0.963251; 0.331873;,
         0.956608; 0.355134;,
         0.925115; 0.343358;,
         0.926353; 0.468649;,
         0.957618; 0.457320;,
         0.963412; 0.482416;,
         0.933457; 0.499420;,
         0.923078; 0.437907;,
         0.954947; 0.432247;,
         0.957618; 0.457320;,
         0.926353; 0.468649;,
         0.996835; 0.999519;,
         0.966831; 0.985151;,
         0.967926; 0.859733;,
         0.998177; 0.845743;,
         0.933457; 0.499420;,
         0.963412; 0.482416;,
         0.973610; 0.509068;,
         0.942175; 0.524078;,
         0.922039; 0.405895;,
         0.954099; 0.406139;,
         0.954947; 0.432247;,
         0.923078; 0.437907;,
         0.870188; 0.512399;,
         0.870158; 0.524078;,
         0.837320; 0.510759;,
         0.844026; 0.503669;,
         0.817004; 0.359816;,
         0.807743; 0.354250;,
         0.837319; 0.336464;,
         0.843649; 0.343792;,
         0.817225; 0.488084;,
         0.808005; 0.493713;,
         0.791426; 0.460621;,
         0.802308; 0.458303;,
         0.798063; 0.423786;,
         0.786894; 0.423785;,
         0.791421; 0.387119;,
         0.802305; 0.389423;,
         0.802308; 0.458303;,
         0.791426; 0.460621;,
         0.786894; 0.423785;,
         0.798063; 0.423786;,
         0.802305; 0.389423;,
         0.791421; 0.387119;,
         0.807743; 0.354250;,
         0.817004; 0.359816;,
         0.777206; 0.529843;,
         0.780036; 0.525041;,
         0.780036; 0.999519;,
         0.772249; 0.677649;,
         0.844026; 0.503669;,
         0.837320; 0.510759;,
         0.808005; 0.493713;,
         0.817225; 0.488084;,
         0.843649; 0.343792;,
         0.837319; 0.336464;,
         0.870177; 0.327755;,
         0.870188; 0.337991;,
         0.117034; 0.245641;,
         0.091424; 0.231019;,
         0.077316; 0.202651;,
         0.073299; 0.169816;,
         0.077338; 0.137130;,
         0.091312; 0.108963;,
         0.116709; 0.093808;,
         0.145154; 0.088382;,
         0.145154; 0.253770;,
         0.877763; 0.496504;,
         0.920328; 0.491509;,
         0.921076; 0.520771;,
         0.878313; 0.524078;,
         0.877300; 0.465504;,
         0.919889; 0.462022;,
         0.920328; 0.491509;,
         0.877763; 0.496504;,
         0.871151; 0.397699;,
         0.914039; 0.397525;,
         0.916860; 0.430484;,
         0.874116; 0.432349;,
         0.772249; 0.677649;,
         0.736121; 0.672590;,
         0.740836; 0.531996;,
         0.777206; 0.529843;,
         0.877171; 0.299124;,
         0.919765; 0.303760;,
         0.918667; 0.333315;,
         0.876016; 0.330194;,
         0.878336; 0.271983;,
         0.921076; 0.274832;,
         0.919765; 0.303760;,
         0.877171; 0.299124;,
         0.876016; 0.330194;,
         0.918667; 0.333315;,
         0.916346; 0.364672;,
         0.873577; 0.363160;,
         0.874116; 0.432349;,
         0.916860; 0.430484;,
         0.919889; 0.462022;,
         0.877300; 0.465504;,
         0.304705; 0.224786;,
         0.304778; 0.140444;,
         0.327314; 0.140463;,
         0.327300; 0.224821;,
         0.734742; 0.651774;,
         0.697799; 0.651242;,
         0.711184; 0.622494;,
         0.735158; 0.622839;,
         0.697799; 0.651242;,
         0.596000; 0.649777;,
         0.595099; 0.620824;,
         0.711184; 0.622494;,
         0.365466; 0.160736;,
         0.404043; 0.160736;,
         0.404043; 0.183272;,
         0.365466; 0.183272;,
         0.670127; 0.127599;,
         0.670127; 0.151576;,
         0.647591; 0.151576;,
         0.647591; 0.127599;,
         0.655860; 0.172648;,
         0.655860; 0.195184;,
         0.571517; 0.195184;,
         0.571517; 0.172648;,
         0.735158; 0.736131;,
         0.696585; 0.735576;,
         0.697799; 0.651242;,
         0.734742; 0.651774;,
         0.327300; 0.224821;,
         0.327314; 0.253759;,
         0.304778; 0.253770;,
         0.304705; 0.224786;,
         0.596000; 0.649777;,
         0.572764; 0.649443;,
         0.573181; 0.620508;,
         0.595099; 0.620824;,
         0.467873; 0.137672;,
         0.467873; 0.253770;,
         0.445337; 0.253770;,
         0.445337; 0.137672;,
         0.571517; 0.196147;,
         0.673327; 0.196147;,
         0.673327; 0.218683;,
         0.571517; 0.218683;,
         0.709535; 0.335247;,
         0.593438; 0.335247;,
         0.594755; 0.306310;,
         0.696564; 0.306310;,
         0.752017; 0.277119;,
         0.774351; 0.280130;,
         0.770485; 0.308808;,
         0.748150; 0.305797;,
         0.593438; 0.335247;,
         0.571517; 0.335247;,
         0.571517; 0.306310;,
         0.594755; 0.306310;,
         0.596000; 0.649777;,
         0.594752; 0.736432;,
         0.571517; 0.736097;,
         0.572764; 0.649443;,
         0.770485; 0.308808;,
         0.754779; 0.425293;,
         0.738671; 0.423121;,
         0.748150; 0.305797;,
         0.281133; 0.116945;,
         0.304371; 0.116945;,
         0.304371; 0.139481;,
         0.281133; 0.139481;,
         0.752017; 0.277119;,
         0.763596; 0.191233;,
         0.785931; 0.194244;,
         0.774351; 0.280130;,
         0.328277; 0.184235;,
         0.414940; 0.184235;,
         0.414940; 0.206771;,
         0.328277; 0.206771;,
         0.571517; 0.306310;,
         0.571517; 0.219646;,
         0.594755; 0.219646;,
         0.594755; 0.306310;,
         0.593438; 0.439678;,
         0.611114; 0.473345;,
         0.583428; 0.473345;,
         0.571517; 0.452786;,
         0.854307; 0.526965;,
         0.854307; 0.631395;,
         0.831771; 0.631395;,
         0.831771; 0.526965;,
         0.573181; 0.620508;,
         0.574088; 0.502805;,
         0.596602; 0.516404;,
         0.595099; 0.620824;,
         0.593438; 0.335247;,
         0.593438; 0.439678;,
         0.571517; 0.452786;,
         0.571517; 0.335247;,
         0.743919; 0.479951;,
         0.736121; 0.453385;,
         0.751605; 0.448840;,
         0.759403; 0.475405;,
         0.754779; 0.425293;,
         0.751605; 0.448840;,
         0.736121; 0.453385;,
         0.738671; 0.423121;,
         0.574088; 0.502805;,
         0.585846; 0.474803;,
         0.613528; 0.474308;,
         0.596602; 0.516404;,
         0.759403; 0.475405;,
         0.785931; 0.510065;,
         0.767520; 0.524078;,
         0.743919; 0.479951;,
         0.621689; 0.151545;,
         0.595047; 0.151576;,
         0.600154; 0.129009;,
         0.621689; 0.129009;,
         0.613528; 0.474308;,
         0.645067; 0.513161;,
         0.628311; 0.533874;,
         0.596602; 0.516404;,
         0.593438; 0.439678;,
         0.624847; 0.421675;,
         0.637847; 0.438844;,
         0.611114; 0.473345;,
         0.749728; 0.130544;,
         0.785931; 0.130544;,
         0.785931; 0.153080;,
         0.749728; 0.153080;,
         0.696564; 0.221967;,
         0.735141; 0.221967;,
         0.735141; 0.306310;,
         0.696564; 0.306310;,
         0.696564; 0.306310;,
         0.735141; 0.306310;,
         0.733511; 0.335247;,
         0.709535; 0.335247;,
         0.803535; 0.544707;,
         0.803535; 0.665710;,
         0.780998; 0.665710;,
         0.780998; 0.544707;,
         0.468836; 0.253770;,
         0.469435; 0.112761;,
         0.491972; 0.112761;,
         0.491972; 0.253478;,
         0.570554; 0.253770;,
         0.552347; 0.238169;,
         0.544275; 0.117436;,
         0.570554; 0.113053;,
         0.179946; 0.627647;,
         0.212706; 0.628426;,
         0.216047; 0.999519;,
         0.181553; 0.998562;,
         0.049252; 0.625363;,
         0.081885; 0.625271;,
         0.077840; 0.995643;,
         0.045104; 0.995418;,
         0.247164; 0.628559;,
         0.281097; 0.628628;,
         0.285037; 0.999286;,
         0.250884; 0.999472;,
         0.251082; 0.261078;,
         0.285037; 0.261414;,
         0.281097; 0.628628;,
         0.247164; 0.628559;,
         0.035874; 0.255049;,
         0.069706; 0.254733;,
         0.081885; 0.625271;,
         0.049252; 0.625363;,
         0.180021; 0.261943;,
         0.216630; 0.260758;,
         0.212706; 0.628426;,
         0.179946; 0.627647;,
         0.106322; 0.258847;,
         0.143130; 0.263071;,
         0.147408; 0.626834;,
         0.114854; 0.626022;,
         0.114854; 0.626022;,
         0.147408; 0.626834;,
         0.147024; 0.997583;,
         0.112495; 0.996613;,
         0.081885; 0.625271;,
         0.114854; 0.626022;,
         0.112495; 0.996613;,
         0.077840; 0.995643;,
         0.069706; 0.254733;,
         0.106322; 0.258847;,
         0.114854; 0.626022;,
         0.081885; 0.625271;,
         0.874227; 0.217401;,
         0.871590; 0.186865;,
         0.903570; 0.180721;,
         0.905721; 0.205625;,
         0.143130; 0.263071;,
         0.180021; 0.261943;,
         0.179946; 0.627647;,
         0.147408; 0.626834;,
         0.147408; 0.626834;,
         0.179946; 0.627647;,
         0.181553; 0.998562;,
         0.147024; 0.997583;,
         0.918369; 0.908342;,
         0.915943; 0.873803;,
         0.958831; 0.873977;,
         0.961139; 0.906830;,
         0.000481; 0.255607;,
         0.035874; 0.255049;,
         0.049252; 0.625363;,
         0.014790; 0.625565;,
         0.216630; 0.260758;,
         0.251082; 0.261078;,
         0.247164; 0.628559;,
         0.212706; 0.628426;,
         0.212706; 0.628426;,
         0.247164; 0.628559;,
         0.250884; 0.999472;,
         0.216047; 0.999519;,
         0.014790; 0.625565;,
         0.049252; 0.625363;,
         0.045104; 0.995418;,
         0.010506; 0.995141;,
         0.848215; 0.756780;,
         0.862801; 0.783736;,
         0.852769; 0.789862;,
         0.836246; 0.759325;,
         0.862801; 0.783736;,
         0.889331; 0.796999;,
         0.882113; 0.804532;,
         0.852769; 0.789862;,
         0.914980; 0.643144;,
         0.889554; 0.649272;,
         0.882113; 0.641770;,
         0.914980; 0.632358;,
         0.848218; 0.693285;,
         0.844073; 0.725044;,
         0.831771; 0.725044;,
         0.836245; 0.690763;,
         0.844073; 0.725044;,
         0.848215; 0.756780;,
         0.836246; 0.759325;,
         0.831771; 0.725044;,
         0.862775; 0.666011;,
         0.848218; 0.693285;,
         0.836245; 0.690763;,
         0.852522; 0.660266;,
         0.889331; 0.796999;,
         0.914980; 0.804185;,
         0.914980; 0.815457;,
         0.882113; 0.804532;,
         0.889554; 0.649272;,
         0.862775; 0.666011;,
         0.852522; 0.660266;,
         0.882113; 0.641770;,
         0.161388; 0.237096;,
         0.149495; 0.215109;,
         0.146117; 0.189226;,
         0.149497; 0.163323;,
         0.161366; 0.141077;,
         0.183210; 0.127429;,
         0.211305; 0.122432;,
         0.211305; 0.253770;,
         0.183028; 0.247910;,
         0.891293; 0.271020;,
         0.882371; 0.245922;,
         0.912363; 0.228887;,
         0.922722; 0.255843;,
         0.871590; 0.186865;,
         0.871151; 0.154864;,
         0.903211; 0.154621;,
         0.903570; 0.180721;,
         0.882371; 0.245922;,
         0.874227; 0.217401;,
         0.905721; 0.205625;,
         0.912363; 0.228887;,
         0.875465; 0.092110;,
         0.882569; 0.061339;,
         0.912524; 0.078343;,
         0.906730; 0.103439;,
         0.872190; 0.122852;,
         0.875465; 0.092110;,
         0.906730; 0.103439;,
         0.904059; 0.128512;,
         0.882569; 0.061339;,
         0.891287; 0.036681;,
         0.922722; 0.051691;,
         0.912524; 0.078343;,
         0.871151; 0.154864;,
         0.872190; 0.122852;,
         0.904059; 0.128512;,
         0.903211; 0.154621;,
         0.870188; 0.142148;,
         0.844026; 0.150877;,
         0.837320; 0.143788;,
         0.870158; 0.130468;,
         0.817004; 0.294731;,
         0.843649; 0.310754;,
         0.837319; 0.318083;,
         0.807742; 0.300296;,
         0.817225; 0.166462;,
         0.802308; 0.196243;,
         0.791426; 0.193926;,
         0.808005; 0.160834;,
         0.798063; 0.230760;,
         0.802305; 0.265123;,
         0.791421; 0.267427;,
         0.786894; 0.230761;,
         0.802308; 0.196243;,
         0.798063; 0.230760;,
         0.786894; 0.230761;,
         0.791426; 0.193926;,
         0.802305; 0.265123;,
         0.817004; 0.294731;,
         0.807742; 0.300296;,
         0.791421; 0.267427;,
         0.844026; 0.150877;,
         0.817225; 0.166462;,
         0.808005; 0.160834;,
         0.837320; 0.143788;,
         0.843649; 0.310754;,
         0.870188; 0.316556;,
         0.870177; 0.326792;,
         0.837319; 0.318083;,
         0.044216; 0.096511;,
         0.072336; 0.088382;,
         0.072336; 0.253770;,
         0.043891; 0.248344;,
         0.018495; 0.233189;,
         0.004520; 0.205022;,
         0.000481; 0.172336;,
         0.004498; 0.139501;,
         0.018606; 0.111133;,
         0.922555; 0.774998;,
         0.923106; 0.747424;,
         0.965868; 0.750730;,
         0.965121; 0.779992;,
         0.922093; 0.805998;,
         0.922555; 0.774998;,
         0.965121; 0.779992;,
         0.964681; 0.809480;,
         0.915943; 0.873803;,
         0.918909; 0.839153;,
         0.961653; 0.841017;,
         0.958831; 0.873977;,
         0.921963; 0.972378;,
         0.920809; 0.941307;,
         0.963459; 0.938187;,
         0.964558; 0.967741;,
         0.923128; 0.999519;,
         0.921963; 0.972378;,
         0.964558; 0.967741;,
         0.965868; 0.996670;,
         0.920809; 0.941307;,
         0.918369; 0.908342;,
         0.961139; 0.906830;,
         0.963459; 0.938187;,
         0.918909; 0.839153;,
         0.922093; 0.805998;,
         0.964681; 0.809480;,
         0.961653; 0.841017;,
         0.281133; 0.169427;,
         0.303728; 0.169392;,
         0.303742; 0.253750;,
         0.281206; 0.253770;,
         0.734742; 0.822052;,
         0.735158; 0.850987;,
         0.711184; 0.851332;,
         0.697799; 0.822584;,
         0.697799; 0.822584;,
         0.711184; 0.851332;,
         0.595099; 0.853003;,
         0.596000; 0.824049;,
         0.365466; 0.121196;,
         0.388002; 0.121196;,
         0.388002; 0.159773;,
         0.365466; 0.159773;,
         0.646628; 0.129039;,
         0.646628; 0.151576;,
         0.622652; 0.151576;,
         0.622652; 0.129039;,
         0.696826; 0.134341;,
         0.696826; 0.218683;,
         0.674290; 0.218683;,
         0.674290; 0.134341;,
         0.735158; 0.737695;,
         0.734742; 0.822052;,
         0.697799; 0.822584;,
         0.696585; 0.738250;,
         0.303728; 0.169392;,
         0.281133; 0.169427;,
         0.281206; 0.140444;,
         0.303742; 0.140454;,
         0.596000; 0.824049;,
         0.595099; 0.853003;,
         0.573181; 0.853318;,
         0.572764; 0.824384;,
         0.328277; 0.253770;,
         0.328277; 0.231234;,
         0.444374; 0.231234;,
         0.444374; 0.253770;,
         0.697474; 0.800050;,
         0.697799; 0.822584;,
         0.596000; 0.824049;,
         0.595675; 0.801515;,
         0.796894; 0.913632;,
         0.793028; 0.884954;,
         0.815362; 0.881943;,
         0.819228; 0.910621;,
         0.596000; 0.824049;,
         0.572764; 0.824384;,
         0.571517; 0.737729;,
         0.594752; 0.737395;,
         0.815362; 0.881943;,
         0.793028; 0.884954;,
         0.783548; 0.767630;,
         0.799657; 0.765458;,
         0.341266; 0.146083;,
         0.341266; 0.123547;,
         0.364503; 0.123547;,
         0.364503; 0.146083;,
         0.796894; 0.913632;,
         0.819228; 0.910621;,
         0.830808; 0.996507;,
         0.808474; 0.999519;,
         0.712605; 0.132020;,
         0.735141; 0.132020;,
         0.735141; 0.218683;,
         0.712605; 0.218683;,
         0.328277; 0.230271;,
         0.328277; 0.207734;,
         0.432707; 0.207734;,
         0.432707; 0.230271;,
         0.573181; 0.853318;,
         0.595099; 0.853003;,
         0.596602; 0.957422;,
         0.574088; 0.971021;,
         0.788797; 0.710801;,
         0.804280; 0.715346;,
         0.796482; 0.741912;,
         0.780998; 0.737366;,
         0.799657; 0.765458;,
         0.783548; 0.767630;,
         0.780998; 0.737366;,
         0.796482; 0.741912;,
         0.574088; 0.971021;,
         0.596602; 0.957422;,
         0.613528; 0.999519;,
         0.585846; 0.999024;,
         0.804280; 0.715346;,
         0.788797; 0.710801;,
         0.812397; 0.666673;,
         0.830808; 0.680686;,
         0.571548; 0.124934;,
         0.594084; 0.124934;,
         0.594084; 0.146468;,
         0.571517; 0.151576;,
         0.613528; 0.999519;,
         0.596602; 0.957422;,
         0.628311; 0.939953;,
         0.645067; 0.960666;,
         0.411501; 0.159773;,
         0.388965; 0.159773;,
         0.388965; 0.123570;,
         0.411501; 0.123570;,
         0.803535; 0.544707;,
         0.826071; 0.544707;,
         0.826071; 0.665710;,
         0.803535; 0.665710;,
         0.492935; 0.112761;,
         0.516070; 0.113053;,
         0.516070; 0.253770;,
         0.493534; 0.253770;,
         0.543312; 0.113053;,
         0.543312; 0.253770;,
         0.517033; 0.249387;,
         0.525105; 0.128654;,
         0.711642; 0.182457;,
         0.711642; 0.218683;,
         0.701801; 0.218683;,
         0.701801; 0.182457;,
         0.817225; 0.534882;,
         0.780998; 0.534882;,
         0.780998; 0.525041;,
         0.817225; 0.525041;,
         0.745962; 0.154043;,
         0.745962; 0.190270;,
         0.736121; 0.190270;,
         0.736121; 0.154043;,
         0.674290; 0.123537;,
         0.710516; 0.123537;,
         0.710516; 0.133378;,
         0.674290; 0.133378;,
         0.364503; 0.183272;,
         0.328277; 0.183272;,
         0.328277; 0.147046;,
         0.364503; 0.147046;,
         0.875379; 0.631395;,
         0.875379; 0.547218;,
         0.894525; 0.547218;,
         0.894525; 0.631395;,
         0.777391; 0.181730;,
         0.785931; 0.190270;,
         0.749704; 0.190270;,
         0.758244; 0.181730;,
         0.758244; 0.181730;,
         0.749704; 0.190270;,
         0.749704; 0.154043;,
         0.758244; 0.162583;,
         0.758244; 0.162583;,
         0.749704; 0.154043;,
         0.785931; 0.154043;,
         0.777391; 0.162583;,
         0.777391; 0.162583;,
         0.785931; 0.154043;,
         0.785931; 0.190270;,
         0.777391; 0.181730;,
         0.415903; 0.122595;,
         0.418554; 0.111368;,
         0.432227; 0.111264;,
         0.435049; 0.122449;,
         0.571517; 0.152539;,
         0.655694; 0.152539;,
         0.655694; 0.171685;,
         0.571517; 0.171685;,
         0.415903; 0.206771;,
         0.415903; 0.122595;,
         0.435049; 0.122449;,
         0.435049; 0.206625;,
         0.874416; 0.536033;,
         0.874416; 0.620210;,
         0.855270; 0.620064;,
         0.855270; 0.535887;,
         0.656823; 0.181510;,
         0.670497; 0.181510;,
         0.670497; 0.195184;,
         0.656823; 0.195184;,
         0.874416; 0.620210;,
         0.871594; 0.631395;,
         0.857921; 0.631291;,
         0.855270; 0.620064;,
         0.875379; 0.547218;,
         0.878115; 0.536012;,
         0.891789; 0.536012;,
         0.894525; 0.547218;,
         0.655694; 0.152539;,
         0.666900; 0.155275;,
         0.666900; 0.168949;,
         0.655694; 0.171685;;
      }
      MeshMaterialList {
        1;
        188;
        0,
        0,
        0,
        0,
        0,
        0,
        0,
        0,
        0,
        0,
        0,
        0,
        0,
        0,
        0,
        0,
        0,
        0,
        0,
        0,
        0,
        0,
        0,
        0,
        0,
        0,
        0,
        0,
        0,
        0,
        0,
        0,
        0,
        0,
        0,
        0,
        0,
        0,
        0,
        0,
        0,
        0,
        0,
        0,
        0,
        0,
        0,
        0,
        0,
        0,
        0,
        0,
        0,
        0,
        0,
        0,
        0,
        0,
        0,
        0,
        0,
        0,
        0,
        0,
        0,
        0,
        0,
        0,
        0,
        0,
        0,
        0,
        0,
        0,
        0,
        0,
        0,
        0,
        0,
        0,
        0,
        0,
        0,
        0,
        0,
        0,
        0,
        0,
        0,
        0,
        0,
        0,
        0,
        0,
        0,
        0,
        0,
        0,
        0,
        0,
        0,
        0,
        0,
        0,
        0,
        0,
        0,
        0,
        0,
        0,
        0,
        0,
        0,
        0,
        0,
        0,
        0,
        0,
        0,
        0,
        0,
        0,
        0,
        0,
        0,
        0,
        0,
        0,
        0,
        0,
        0,
        0,
        0,
        0,
        0,
        0,
        0,
        0,
        0,
        0,
        0,
        0,
        0,
        0,
        0,
        0,
        0,
        0,
        0,
        0,
        0,
        0,
        0,
        0,
        0,
        0,
        0,
        0,
        0,
        0,
        0,
        0,
        0,
        0,
        0,
        0,
        0,
        0,
        0,
        0,
        0,
        0,
        0,
        0,
        0,
        0,
        0,
        0,
        0,
        0,
        0,
        0,
        0,
        0,
        0,
        0,
        0,
        0;
        Material Material_001 {
           0.800000; 0.800000; 0.800000; 1.000000;;
           323.999994;
           0.500000; 0.500000; 0.500000;;
           0.000000; 0.000000; 0.000000;;
          TextureFilename {"Handguard2.png";}
        }
      }
    }
  }
}
