xof 0303txt 0032

Frame Root {
  FrameTransformMatrix {
     1.000000, 0.000000, 0.000000, 0.000000,
     0.000000,-0.000000, 1.000000, 0.000000,
     0.000000, 1.000000, 0.000000, 0.000000,
     0.000000, 0.000000, 0.000000, 1.000000;;
  }
  Frame HandguardDSA1_x_Root_Cube_003 {
    FrameTransformMatrix {
       1.000000, 0.000000, 0.000000, 0.000000,
       0.000000, 1.000000, 0.000000, 0.000000,
       0.000000, 0.000000, 1.000000, 0.000000,
       0.000000,-0.276693, 0.036381, 1.000000;;
    }
    Mesh {
      128;
      -0.013776;-0.100410;-0.015502;,
      -0.013776;-0.100410; 0.005200;,
       0.000000;-0.100410; 0.005200;,
       0.000000;-0.100410;-0.025572;,
      -0.013776; 0.032215;-0.015502;,
      -0.013776; 0.032215; 0.005200;,
      -0.013776;-0.100410; 0.005200;,
      -0.013776;-0.100410;-0.015502;,
      -0.012279; 0.043234; 0.004933;,
      -0.000000; 0.043234; 0.004933;,
      -0.000000; 0.032215; 0.005200;,
      -0.013776; 0.032215; 0.005200;,
      -0.000000; 0.032215;-0.025572;,
      -0.013776; 0.032215;-0.015502;,
      -0.013776;-0.100410;-0.015502;,
       0.000000;-0.100410;-0.025572;,
      -0.013776; 0.032215; 0.005200;,
      -0.000000; 0.032215; 0.005200;,
       0.000000;-0.100410; 0.005200;,
      -0.013776;-0.100410; 0.005200;,
      -0.012279; 0.043234;-0.011270;,
      -0.012279; 0.043234; 0.004933;,
      -0.013776; 0.032215; 0.005200;,
      -0.013776; 0.032215;-0.015502;,
      -0.000000; 0.043234;-0.019152;,
      -0.012279; 0.043234;-0.011270;,
      -0.013776; 0.032215;-0.015502;,
      -0.000000; 0.032215;-0.025572;,
      -0.000000; 0.067967;-0.019152;,
      -0.000000; 0.067967; 0.004933;,
      -0.012279; 0.067967; 0.004933;,
      -0.012279; 0.067967;-0.011270;,
      -0.012279; 0.067967; 0.004933;,
      -0.000000; 0.067967; 0.004933;,
      -0.000000; 0.043234; 0.004933;,
      -0.012279; 0.043234; 0.004933;,
      -0.012279; 0.067967;-0.011270;,
      -0.012279; 0.067967; 0.004933;,
      -0.012279; 0.043234; 0.004933;,
      -0.012279; 0.043234;-0.011270;,
      -0.000000; 0.067967;-0.019152;,
      -0.012279; 0.067967;-0.011270;,
      -0.012279; 0.043234;-0.011270;,
      -0.000000; 0.043234;-0.019152;,
       0.000000;-0.100410; 0.005200;,
       0.013776;-0.100410; 0.005200;,
       0.013776;-0.100410;-0.015502;,
       0.000000;-0.100410;-0.025572;,
       0.013776;-0.100410; 0.005200;,
       0.013776; 0.032215; 0.005200;,
       0.013776; 0.032215;-0.015502;,
       0.013776;-0.100410;-0.015502;,
      -0.000000; 0.032215; 0.005200;,
      -0.000000; 0.043234; 0.004933;,
       0.012279; 0.043234; 0.004933;,
       0.013776; 0.032215; 0.005200;,
       0.013776;-0.100410;-0.015502;,
       0.013776; 0.032215;-0.015502;,
      -0.000000; 0.032215;-0.025572;,
       0.000000;-0.100410;-0.025572;,
       0.000000;-0.100410; 0.005200;,
      -0.000000; 0.032215; 0.005200;,
       0.013776; 0.032215; 0.005200;,
       0.013776;-0.100410; 0.005200;,
       0.013776; 0.032215; 0.005200;,
       0.012279; 0.043234; 0.004933;,
       0.012279; 0.043234;-0.011270;,
       0.013776; 0.032215;-0.015502;,
       0.013776; 0.032215;-0.015502;,
       0.012279; 0.043234;-0.011270;,
      -0.000000; 0.043234;-0.019152;,
      -0.000000; 0.032215;-0.025572;,
       0.012279; 0.067967; 0.004933;,
      -0.000000; 0.067967; 0.004933;,
      -0.000000; 0.067967;-0.019152;,
       0.012279; 0.067967;-0.011270;,
      -0.000000; 0.043234; 0.004933;,
      -0.000000; 0.067967; 0.004933;,
       0.012279; 0.067967; 0.004933;,
       0.012279; 0.043234; 0.004933;,
       0.012279; 0.043234; 0.004933;,
       0.012279; 0.067967; 0.004933;,
       0.012279; 0.067967;-0.011270;,
       0.012279; 0.043234;-0.011270;,
       0.012279; 0.043234;-0.011270;,
       0.012279; 0.067967;-0.011270;,
      -0.000000; 0.067967;-0.019152;,
      -0.000000; 0.043234;-0.019152;,
      -0.012455;-0.099605; 0.004777;,
      -0.009189;-0.099605; 0.018943;,
       0.000000;-0.099605; 0.023357;,
       0.000000;-0.099605; 0.004777;,
      -0.012455; 0.041508; 0.004777;,
      -0.009189; 0.041508; 0.018943;,
      -0.009189;-0.099605; 0.018943;,
      -0.012455;-0.099605; 0.004777;,
      -0.000000; 0.041508; 0.004777;,
      -0.000000; 0.041508; 0.023357;,
      -0.009189; 0.041508; 0.018943;,
      -0.012455; 0.041508; 0.004777;,
      -0.000000; 0.041508; 0.004777;,
      -0.012455; 0.041508; 0.004777;,
      -0.012455;-0.099605; 0.004777;,
       0.000000;-0.099605; 0.004777;,
      -0.009189; 0.041508; 0.018943;,
      -0.000000; 0.041508; 0.023357;,
       0.000000;-0.099605; 0.023357;,
      -0.009189;-0.099605; 0.018943;,
       0.000000;-0.099605; 0.023357;,
       0.009189;-0.099605; 0.018943;,
       0.012455;-0.099605; 0.004777;,
       0.000000;-0.099605; 0.004777;,
       0.009189;-0.099605; 0.018943;,
       0.009189; 0.041508; 0.018943;,
       0.012455; 0.041508; 0.004777;,
       0.012455;-0.099605; 0.004777;,
       0.009189; 0.041508; 0.018943;,
      -0.000000; 0.041508; 0.023357;,
      -0.000000; 0.041508; 0.004777;,
       0.012455; 0.041508; 0.004777;,
       0.012455;-0.099605; 0.004777;,
       0.012455; 0.041508; 0.004777;,
      -0.000000; 0.041508; 0.004777;,
       0.000000;-0.099605; 0.004777;,
       0.000000;-0.099605; 0.023357;,
      -0.000000; 0.041508; 0.023357;,
       0.009189; 0.041508; 0.018943;,
       0.009189;-0.099605; 0.018943;;
      32;
      4;3,2,1,0;,
      4;7,6,5,4;,
      4;11,10,9,8;,
      4;15,14,13,12;,
      4;19,18,17,16;,
      4;23,22,21,20;,
      4;27,26,25,24;,
      4;31,30,29,28;,
      4;35,34,33,32;,
      4;39,38,37,36;,
      4;43,42,41,40;,
      4;47,46,45,44;,
      4;51,50,49,48;,
      4;55,54,53,52;,
      4;59,58,57,56;,
      4;63,62,61,60;,
      4;67,66,65,64;,
      4;71,70,69,68;,
      4;75,74,73,72;,
      4;79,78,77,76;,
      4;83,82,81,80;,
      4;87,86,85,84;,
      4;91,90,89,88;,
      4;95,94,93,92;,
      4;99,98,97,96;,
      4;103,102,101,100;,
      4;107,106,105,104;,
      4;111,110,109,108;,
      4;115,114,113,112;,
      4;119,118,117,116;,
      4;123,122,121,120;,
      4;127,126,125,124;;
      MeshNormals {
        128;
         0.000000; 1.000000; 0.000000;,
         0.000000; 1.000000; 0.000000;,
         0.000000; 1.000000; 0.000000;,
         0.000000; 1.000000; 0.000000;,
         1.000000; 0.000000; 0.000000;,
         1.000000; 0.000000; 0.000000;,
         1.000000; 0.000000; 0.000000;,
         1.000000; 0.000000; 0.000000;,
         0.000000;-0.024224;-0.999707;,
         0.000000;-0.024224;-0.999707;,
         0.000000;-0.024224;-0.999707;,
         0.000000;-0.024224;-0.999707;,
         0.590128; 0.000000; 0.807310;,
         0.590128; 0.000000; 0.807310;,
         0.590128; 0.000000; 0.807310;,
         0.590128; 0.000000; 0.807310;,
         0.000000; 0.000000;-1.000000;,
         0.000000; 0.000000;-1.000000;,
         0.000000; 0.000000;-1.000000;,
         0.000000; 0.000000;-1.000000;,
         0.990897;-0.134619; 0.000000;,
         0.990897;-0.134619; 0.000000;,
         0.990897;-0.134619; 0.000000;,
         0.990897;-0.134619; 0.000000;,
         0.519979;-0.400094; 0.754683;,
         0.519979;-0.400095; 0.754683;,
         0.519979;-0.400095; 0.754683;,
         0.519979;-0.400095; 0.754683;,
         0.000000;-1.000000; 0.000000;,
         0.000000;-1.000000; 0.000000;,
         0.000000;-1.000000; 0.000000;,
         0.000000;-1.000000; 0.000000;,
         0.000000; 0.000000;-1.000000;,
         0.000000; 0.000000;-1.000000;,
         0.000000; 0.000000;-1.000000;,
         0.000000; 0.000000;-1.000000;,
         1.000000; 0.000000; 0.000000;,
         1.000000; 0.000000; 0.000000;,
         1.000000; 0.000000; 0.000000;,
         1.000000; 0.000000; 0.000000;,
         0.540193; 0.000000; 0.841541;,
         0.540193; 0.000000; 0.841541;,
         0.540193; 0.000000; 0.841541;,
         0.540193; 0.000000; 0.841541;,
         0.000000; 1.000000; 0.000000;,
         0.000000; 1.000000; 0.000000;,
         0.000000; 1.000000; 0.000000;,
         0.000000; 1.000000; 0.000000;,
        -1.000000;-0.000000; 0.000000;,
        -1.000000;-0.000000; 0.000000;,
        -1.000000;-0.000000; 0.000000;,
        -1.000000;-0.000000; 0.000000;,
         0.000000;-0.024224;-0.999707;,
         0.000000;-0.024224;-0.999707;,
         0.000000;-0.024224;-0.999707;,
         0.000000;-0.024224;-0.999707;,
        -0.590128;-0.000000; 0.807310;,
        -0.590128;-0.000000; 0.807310;,
        -0.590128;-0.000000; 0.807310;,
        -0.590128;-0.000000; 0.807310;,
         0.000000; 0.000000;-1.000000;,
         0.000000; 0.000000;-1.000000;,
         0.000000; 0.000000;-1.000000;,
         0.000000; 0.000000;-1.000000;,
        -0.990897;-0.134620; 0.000000;,
        -0.990897;-0.134620; 0.000000;,
        -0.990897;-0.134620; 0.000000;,
        -0.990897;-0.134620; 0.000000;,
        -0.519979;-0.400095; 0.754683;,
        -0.519979;-0.400095; 0.754683;,
        -0.519979;-0.400095; 0.754683;,
        -0.519979;-0.400095; 0.754683;,
         0.000000;-1.000000; 0.000000;,
         0.000000;-1.000000; 0.000000;,
         0.000000;-1.000000; 0.000000;,
         0.000000;-1.000000; 0.000000;,
         0.000000; 0.000000;-1.000000;,
         0.000000; 0.000000;-1.000000;,
         0.000000; 0.000000;-1.000000;,
         0.000000; 0.000000;-1.000000;,
        -1.000000;-0.000000; 0.000000;,
        -1.000000;-0.000000; 0.000000;,
        -1.000000;-0.000000; 0.000000;,
        -1.000000;-0.000000; 0.000000;,
        -0.540193;-0.000000; 0.841541;,
        -0.540193;-0.000000; 0.841541;,
        -0.540193;-0.000000; 0.841541;,
        -0.540193;-0.000000; 0.841541;,
         0.000000; 1.000000;-0.000000;,
         0.000000; 1.000000;-0.000000;,
         0.000000; 1.000000;-0.000000;,
         0.000000; 1.000000;-0.000000;,
         0.974438; 0.000000;-0.224659;,
         0.974438; 0.000000;-0.224659;,
         0.974438; 0.000000;-0.224659;,
         0.974438; 0.000000;-0.224659;,
         0.000000;-1.000000; 0.000000;,
         0.000000;-1.000000; 0.000000;,
         0.000000;-1.000000; 0.000000;,
         0.000000;-1.000000; 0.000000;,
         0.000000; 0.000000; 1.000000;,
         0.000000; 0.000000; 1.000000;,
         0.000000; 0.000000; 1.000000;,
         0.000000; 0.000000; 1.000000;,
         0.432992; 0.000000;-0.901398;,
         0.432992; 0.000000;-0.901398;,
         0.432992; 0.000000;-0.901398;,
         0.432992; 0.000000;-0.901398;,
         0.000000; 1.000000; 0.000000;,
         0.000000; 1.000000; 0.000000;,
         0.000000; 1.000000; 0.000000;,
         0.000000; 1.000000; 0.000000;,
        -0.974438;-0.000000;-0.224659;,
        -0.974438;-0.000000;-0.224659;,
        -0.974438;-0.000000;-0.224659;,
        -0.974438;-0.000000;-0.224659;,
         0.000000;-1.000000; 0.000000;,
         0.000000;-1.000000; 0.000000;,
         0.000000;-1.000000; 0.000000;,
         0.000000;-1.000000; 0.000000;,
         0.000000; 0.000000; 1.000000;,
         0.000000; 0.000000; 1.000000;,
         0.000000; 0.000000; 1.000000;,
         0.000000; 0.000000; 1.000000;,
        -0.432993;-0.000000;-0.901398;,
        -0.432992;-0.000000;-0.901398;,
        -0.432993;-0.000000;-0.901398;,
        -0.432992;-0.000000;-0.901398;;
        32;
        4;3,2,1,0;,
        4;7,6,5,4;,
        4;11,10,9,8;,
        4;15,14,13,12;,
        4;19,18,17,16;,
        4;23,22,21,20;,
        4;27,26,25,24;,
        4;31,30,29,28;,
        4;35,34,33,32;,
        4;39,38,37,36;,
        4;43,42,41,40;,
        4;47,46,45,44;,
        4;51,50,49,48;,
        4;55,54,53,52;,
        4;59,58,57,56;,
        4;63,62,61,60;,
        4;67,66,65,64;,
        4;71,70,69,68;,
        4;75,74,73,72;,
        4;79,78,77,76;,
        4;83,82,81,80;,
        4;87,86,85,84;,
        4;91,90,89,88;,
        4;95,94,93,92;,
        4;99,98,97,96;,
        4;103,102,101,100;,
        4;107,106,105,104;,
        4;111,110,109,108;,
        4;115,114,113,112;,
        4;119,118,117,116;,
        4;123,122,121,120;,
        4;127,126,125,124;;
      }
      MeshTextureCoords {
        128;
         0.596161; 1.456349;,
         0.596161; 1.554532;,
         0.530827; 1.554532;,
         0.530828; 1.408591;,
         0.098554; 1.946889;,
         0.000372; 1.946889;,
         0.000372; 1.317892;,
         0.098554; 1.317892;,
         0.322537; 1.882333;,
         0.264301; 1.882333;,
         0.264301; 1.830059;,
         0.329634; 1.830058;,
         0.827220; 1.119388;,
         0.827220; 1.200316;,
         0.198223; 1.200316;,
         0.198223; 1.119388;,
         0.329634; 1.830058;,
         0.264301; 1.830059;,
         0.264300; 1.201059;,
         0.329634; 1.201059;,
         0.078485; 1.999628;,
         0.001635; 1.999628;,
         0.000372; 1.946889;,
         0.098554; 1.946889;,
         0.743107; 1.694349;,
         0.743107; 1.763550;,
         0.686889; 1.758682;,
         0.684940; 1.677777;,
         0.530827; 1.662722;,
         0.569606; 1.555275;,
         0.624384; 1.575045;,
         0.598295; 1.647331;,
         0.322537; 1.999628;,
         0.264301; 1.999628;,
         0.264301; 1.882333;,
         0.322537; 1.882333;,
         0.701976; 1.999628;,
         0.625127; 1.999628;,
         0.625127; 1.882332;,
         0.701976; 1.882332;,
         0.530827; 1.662722;,
         0.598295; 1.647331;,
         0.624384; 1.761689;,
         0.556916; 1.777080;,
         0.662238; 1.554532;,
         0.596904; 1.554532;,
         0.596904; 1.456349;,
         0.662238; 1.408591;,
         0.197480; 1.317892;,
         0.197480; 1.946889;,
         0.099297; 1.946889;,
         0.099298; 1.317892;,
         0.263557; 1.830057;,
         0.263557; 1.882332;,
         0.205321; 1.882332;,
         0.198223; 1.830057;,
         0.411306; 1.370632;,
         0.411306; 1.999628;,
         0.330377; 1.999628;,
         0.330377; 1.370632;,
         0.263557; 1.201059;,
         0.263557; 1.830057;,
         0.198223; 1.830057;,
         0.198224; 1.201059;,
         0.197480; 1.946889;,
         0.196216; 1.999628;,
         0.119367; 1.999628;,
         0.099297; 1.946889;,
         0.664930; 1.384765;,
         0.721148; 1.379897;,
         0.721148; 1.449098;,
         0.662982; 1.465670;,
         0.624384; 1.979859;,
         0.569606; 1.999628;,
         0.530827; 1.892182;,
         0.598295; 1.907573;,
         0.263557; 1.882332;,
         0.263557; 1.999628;,
         0.205321; 1.999628;,
         0.205321; 1.882332;,
         0.701976; 1.764293;,
         0.701976; 1.881589;,
         0.625127; 1.881589;,
         0.625127; 1.764293;,
         0.624384; 1.793215;,
         0.598295; 1.907573;,
         0.530827; 1.892182;,
         0.556916; 1.777823;,
         0.625127; 1.674687;,
         0.640618; 1.607505;,
         0.684197; 1.586568;,
         0.684197; 1.674687;,
         0.867473; 1.049700;,
         0.867473; 1.118645;,
         0.198223; 1.118645;,
         0.198223; 1.049700;,
         0.684197; 1.675430;,
         0.684197; 1.763550;,
         0.640618; 1.742612;,
         0.625127; 1.675430;,
         0.330377; 1.319943;,
         0.330377; 1.260873;,
         0.999628; 1.260873;,
         0.999628; 1.319943;,
         0.530084; 1.999628;,
         0.481737; 1.999628;,
         0.481737; 1.330378;,
         0.530084; 1.330378;,
         0.722051; 1.554532;,
         0.678473; 1.533594;,
         0.662982; 1.466413;,
         0.722051; 1.466413;,
         0.412049; 1.999628;,
         0.412049; 1.330378;,
         0.480993; 1.330378;,
         0.480993; 1.999628;,
         0.551765; 1.373957;,
         0.530827; 1.330378;,
         0.618947; 1.330378;,
         0.618947; 1.389448;,
         0.330377; 1.201059;,
         0.999628; 1.201059;,
         0.999628; 1.260129;,
         0.330377; 1.260129;,
         0.198223; 1.000609;,
         0.867474; 1.000609;,
         0.867474; 1.048957;,
         0.198223; 1.048957;;
      }
      MeshMaterialList {
        1;
        32;
        0,
        0,
        0,
        0,
        0,
        0,
        0,
        0,
        0,
        0,
        0,
        0,
        0,
        0,
        0,
        0,
        0,
        0,
        0,
        0,
        0,
        0,
        0,
        0,
        0,
        0,
        0,
        0,
        0,
        0,
        0,
        0;
        Material Material_002 {
           0.800000; 0.800000; 0.800000; 1.000000;;
           323.999994;
           0.250000; 0.250000; 0.250000;;
           0.000000; 0.000000; 0.000000;;
        }
      }
    }
  }
}
