xof 0303txt 0032

Frame Root {
  FrameTransformMatrix {
     1.000000, 0.000000, 0.000000, 0.000000,
     0.000000,-0.000000, 1.000000, 0.000000,
     0.000000, 1.000000, 0.000000, 0.000000,
     0.000000, 0.000000, 0.000000, 1.000000;;
  }
  Frame ForearmAK1_Cube {
    FrameTransformMatrix {
       1.000000, 0.000000, 0.000000, 0.000000,
       0.000000, 1.000000, 0.000000, 0.000000,
       0.000000, 0.000000, 1.000000, 0.000000,
       0.000000, 0.000000, 0.000000, 1.000000;;
    }
    Mesh {
      530;
       0.012297;-0.115847;-0.012300;,
       0.012297;-0.115847; 0.007604;,
       0.012297;-0.081795; 0.007604;,
       0.012297;-0.115847;-0.012300;,
      -0.012338;-0.115847;-0.012300;,
      -0.012338;-0.115847; 0.007604;,
       0.012297;-0.115847; 0.007604;,
      -0.012338;-0.115847;-0.012300;,
      -0.012338; 0.074600;-0.012300;,
      -0.012338; 0.074600; 0.007604;,
      -0.012338;-0.081795; 0.007604;,
       0.004668; 0.074600; 0.020395;,
       0.004668; 0.072369; 0.020395;,
       0.008351; 0.072369; 0.007436;,
       0.008351; 0.074600; 0.007436;,
       0.012297;-0.115847;-0.012300;,
       0.005134;-0.115847;-0.023778;,
      -0.005176;-0.115847;-0.023778;,
      -0.012338;-0.115847;-0.012300;,
       0.008351; 0.074600; 0.007436;,
       0.008351; 0.072369; 0.007436;,
       0.008351; 0.072369;-0.012026;,
       0.008351; 0.074600;-0.012026;,
       0.005134;-0.115847;-0.023778;,
       0.005134; 0.074600;-0.023778;,
      -0.005176; 0.074600;-0.023778;,
      -0.005176;-0.115847;-0.023778;,
      -0.012338;-0.115847;-0.012300;,
      -0.005176;-0.115847;-0.023778;,
      -0.005176; 0.074600;-0.023778;,
      -0.012338; 0.074600;-0.012300;,
       0.004050; 0.074600;-0.022137;,
       0.004050; 0.072369;-0.022137;,
      -0.004092; 0.072369;-0.022137;,
      -0.004092; 0.074600;-0.022137;,
       0.012297; 0.074600;-0.012300;,
       0.005134; 0.074600;-0.023778;,
       0.005134;-0.115847;-0.023778;,
       0.012297;-0.115847;-0.012300;,
      -0.012338;-0.115847; 0.007604;,
      -0.012338;-0.081795; 0.007604;,
       0.012297;-0.081795; 0.007604;,
       0.012297;-0.115847; 0.007604;,
      -0.012338;-0.115847;-0.012300;,
      -0.012338;-0.081795; 0.007604;,
      -0.012338;-0.115847; 0.007604;,
       0.012297; 0.074600;-0.012300;,
       0.012297;-0.115847;-0.012300;,
       0.012297;-0.081795; 0.007604;,
       0.012297; 0.074600; 0.007604;,
      -0.005949;-0.081795; 0.022036;,
      -0.005949; 0.074600; 0.022036;,
       0.005907; 0.074600; 0.022036;,
       0.005945;-0.081795; 0.022036;,
      -0.012338;-0.081795; 0.007604;,
      -0.005949;-0.081795; 0.022036;,
       0.005945;-0.081795; 0.022036;,
       0.012297;-0.081795; 0.007604;,
       0.012297;-0.081795; 0.007604;,
       0.005945;-0.081795; 0.022036;,
       0.005907; 0.074600; 0.022036;,
       0.012297; 0.074600; 0.007604;,
      -0.012338; 0.074600; 0.007604;,
      -0.005949; 0.074600; 0.022036;,
      -0.005949;-0.081795; 0.022036;,
      -0.012338;-0.081795; 0.007604;,
       0.008351; 0.074600;-0.012026;,
       0.012297; 0.074600;-0.012300;,
       0.012297; 0.074600; 0.007604;,
       0.008351; 0.074600; 0.007436;,
      -0.008393; 0.074600; 0.007436;,
      -0.012338; 0.074600; 0.007604;,
      -0.012338; 0.074600;-0.012300;,
      -0.008393; 0.074600;-0.012026;,
      -0.004092; 0.074600;-0.022137;,
      -0.005176; 0.074600;-0.023778;,
       0.005134; 0.074600;-0.023778;,
       0.004050; 0.074600;-0.022137;,
       0.004050; 0.074600;-0.022137;,
       0.005134; 0.074600;-0.023778;,
       0.012297; 0.074600;-0.012300;,
       0.008351; 0.074600;-0.012026;,
      -0.008393; 0.074600;-0.012026;,
      -0.012338; 0.074600;-0.012300;,
      -0.005176; 0.074600;-0.023778;,
      -0.004092; 0.074600;-0.022137;,
       0.004668; 0.074600; 0.020395;,
       0.005907; 0.074600; 0.022036;,
      -0.005949; 0.074600; 0.022036;,
      -0.004710; 0.074600; 0.020395;,
      -0.004710; 0.074600; 0.020395;,
      -0.005949; 0.074600; 0.022036;,
      -0.012338; 0.074600; 0.007604;,
      -0.008393; 0.074600; 0.007436;,
       0.008351; 0.074600; 0.007436;,
       0.012297; 0.074600; 0.007604;,
       0.005907; 0.074600; 0.022036;,
       0.004668; 0.074600; 0.020395;,
      -0.008393; 0.072369;-0.012026;,
       0.008351; 0.072369;-0.012026;,
       0.008351; 0.072369; 0.007436;,
      -0.008393; 0.072369; 0.007436;,
       0.008351; 0.072369; 0.007436;,
       0.004668; 0.072369; 0.020395;,
      -0.004710; 0.072369; 0.020395;,
      -0.008393; 0.072369; 0.007436;,
      -0.008393; 0.072369;-0.012026;,
      -0.004092; 0.072369;-0.022137;,
       0.004050; 0.072369;-0.022137;,
       0.008351; 0.072369;-0.012026;,
      -0.004710; 0.074600; 0.020395;,
      -0.004710; 0.072369; 0.020395;,
       0.004668; 0.072369; 0.020395;,
       0.004668; 0.074600; 0.020395;,
       0.008351; 0.074600;-0.012026;,
       0.008351; 0.072369;-0.012026;,
       0.004050; 0.072369;-0.022137;,
       0.004050; 0.074600;-0.022137;,
      -0.008393; 0.074600;-0.012026;,
      -0.008393; 0.072369;-0.012026;,
      -0.008393; 0.072369; 0.007436;,
      -0.008393; 0.074600; 0.007436;,
      -0.008393; 0.074600; 0.007436;,
      -0.008393; 0.072369; 0.007436;,
      -0.004710; 0.072369; 0.020395;,
      -0.004710; 0.074600; 0.020395;,
      -0.004092; 0.074600;-0.022137;,
      -0.004092; 0.072369;-0.022137;,
      -0.008393; 0.072369;-0.012026;,
      -0.008393; 0.074600;-0.012026;,
       0.005945; 0.042498; 0.022036;,
       0.005945; 0.037839; 0.022036;,
       0.004322; 0.037839; 0.024640;,
       0.004322; 0.042498; 0.024640;,
       0.005945; 0.037839; 0.022036;,
      -0.005964; 0.037839; 0.022036;,
      -0.004341; 0.037839; 0.024640;,
       0.004322; 0.037839; 0.024640;,
      -0.005964; 0.037839; 0.022036;,
      -0.005964; 0.042498; 0.022036;,
      -0.004341; 0.042498; 0.024640;,
      -0.004341; 0.037839; 0.024640;,
      -0.005964; 0.042498; 0.022036;,
       0.005945; 0.042498; 0.022036;,
       0.004322; 0.042498; 0.024640;,
      -0.004341; 0.042498; 0.024640;,
      -0.004341; 0.037839; 0.024640;,
      -0.004341; 0.042498; 0.024640;,
       0.004322; 0.042498; 0.024640;,
       0.004322; 0.037839; 0.024640;,
       0.005945; 0.035044; 0.022036;,
       0.005945; 0.030386; 0.022036;,
       0.004322; 0.030386; 0.024640;,
       0.004322; 0.035044; 0.024640;,
       0.005945; 0.030386; 0.022036;,
      -0.005964; 0.030386; 0.022036;,
      -0.004341; 0.030386; 0.024640;,
       0.004322; 0.030386; 0.024640;,
      -0.005964; 0.030386; 0.022036;,
      -0.005964; 0.035044; 0.022036;,
      -0.004341; 0.035044; 0.024640;,
      -0.004341; 0.030386; 0.024640;,
      -0.005964; 0.035044; 0.022036;,
       0.005945; 0.035044; 0.022036;,
       0.004322; 0.035044; 0.024640;,
      -0.004341; 0.035044; 0.024640;,
      -0.004341; 0.030386; 0.024640;,
      -0.004341; 0.035044; 0.024640;,
       0.004322; 0.035044; 0.024640;,
       0.004322; 0.030386; 0.024640;,
       0.005945; 0.027590; 0.022036;,
       0.005945; 0.022932; 0.022036;,
       0.004322; 0.022932; 0.024640;,
       0.004322; 0.027590; 0.024640;,
       0.005945; 0.022932; 0.022036;,
      -0.005964; 0.022932; 0.022036;,
      -0.004341; 0.022932; 0.024640;,
       0.004322; 0.022932; 0.024640;,
      -0.005964; 0.022932; 0.022036;,
      -0.005964; 0.027590; 0.022036;,
      -0.004341; 0.027590; 0.024640;,
      -0.004341; 0.022932; 0.024640;,
      -0.005964; 0.027590; 0.022036;,
       0.005945; 0.027590; 0.022036;,
       0.004322; 0.027590; 0.024640;,
      -0.004341; 0.027590; 0.024640;,
      -0.004341; 0.022932; 0.024640;,
      -0.004341; 0.027590; 0.024640;,
       0.004322; 0.027590; 0.024640;,
       0.004322; 0.022932; 0.024640;,
       0.005945; 0.020137; 0.022036;,
       0.005945; 0.015479; 0.022036;,
       0.004322; 0.015479; 0.024640;,
       0.004322; 0.020137; 0.024640;,
       0.005945; 0.015479; 0.022036;,
      -0.005964; 0.015479; 0.022036;,
      -0.004341; 0.015479; 0.024640;,
       0.004322; 0.015479; 0.024640;,
      -0.005964; 0.015479; 0.022036;,
      -0.005964; 0.020137; 0.022036;,
      -0.004341; 0.020137; 0.024640;,
      -0.004341; 0.015479; 0.024640;,
      -0.005964; 0.020137; 0.022036;,
       0.005945; 0.020137; 0.022036;,
       0.004322; 0.020137; 0.024640;,
      -0.004341; 0.020137; 0.024640;,
      -0.004341; 0.015479; 0.024640;,
      -0.004341; 0.020137; 0.024640;,
       0.004322; 0.020137; 0.024640;,
       0.004322; 0.015479; 0.024640;,
       0.005945; 0.012684; 0.022036;,
       0.005945; 0.008026; 0.022036;,
       0.004322; 0.008026; 0.024640;,
       0.004322; 0.012684; 0.024640;,
       0.005945; 0.008026; 0.022036;,
      -0.005964; 0.008026; 0.022036;,
      -0.004341; 0.008026; 0.024640;,
       0.004322; 0.008026; 0.024640;,
      -0.005964; 0.008026; 0.022036;,
      -0.005964; 0.012684; 0.022036;,
      -0.004341; 0.012684; 0.024640;,
      -0.004341; 0.008026; 0.024640;,
      -0.005964; 0.012684; 0.022036;,
       0.005945; 0.012684; 0.022036;,
       0.004322; 0.012684; 0.024640;,
      -0.004341; 0.012684; 0.024640;,
      -0.004341; 0.008026; 0.024640;,
      -0.004341; 0.012684; 0.024640;,
       0.004322; 0.012684; 0.024640;,
       0.004322; 0.008026; 0.024640;,
       0.005945; 0.005230; 0.022036;,
       0.005945; 0.000571; 0.022036;,
       0.004322; 0.000571; 0.024640;,
       0.004322; 0.005230; 0.024640;,
       0.005945; 0.000571; 0.022036;,
      -0.005964; 0.000571; 0.022036;,
      -0.004341; 0.000571; 0.024640;,
       0.004322; 0.000571; 0.024640;,
      -0.005964; 0.000571; 0.022036;,
      -0.005964; 0.005230; 0.022036;,
      -0.004341; 0.005230; 0.024640;,
      -0.004341; 0.000571; 0.024640;,
      -0.005964; 0.005230; 0.022036;,
       0.005945; 0.005230; 0.022036;,
       0.004322; 0.005230; 0.024640;,
      -0.004341; 0.005230; 0.024640;,
      -0.004341; 0.000571; 0.024640;,
      -0.004341; 0.005230; 0.024640;,
       0.004322; 0.005230; 0.024640;,
       0.004322; 0.000571; 0.024640;,
       0.005945;-0.002224; 0.022036;,
       0.005945;-0.006882; 0.022036;,
       0.004322;-0.006882; 0.024640;,
       0.004322;-0.002224; 0.024640;,
       0.005945;-0.006882; 0.022036;,
      -0.005964;-0.006882; 0.022036;,
      -0.004341;-0.006882; 0.024640;,
       0.004322;-0.006882; 0.024640;,
      -0.005964;-0.006882; 0.022036;,
      -0.005964;-0.002224; 0.022036;,
      -0.004341;-0.002224; 0.024640;,
      -0.004341;-0.006882; 0.024640;,
      -0.005964;-0.002224; 0.022036;,
       0.005945;-0.002224; 0.022036;,
       0.004322;-0.002224; 0.024640;,
      -0.004341;-0.002224; 0.024640;,
      -0.004341;-0.006882; 0.024640;,
      -0.004341;-0.002224; 0.024640;,
       0.004322;-0.002224; 0.024640;,
       0.004322;-0.006882; 0.024640;,
       0.005945;-0.009677; 0.022036;,
       0.005945;-0.014335; 0.022036;,
       0.004322;-0.014335; 0.024640;,
       0.004322;-0.009677; 0.024640;,
       0.005945;-0.014335; 0.022036;,
      -0.005964;-0.014335; 0.022036;,
      -0.004341;-0.014335; 0.024640;,
       0.004322;-0.014335; 0.024640;,
      -0.005964;-0.014335; 0.022036;,
      -0.005964;-0.009677; 0.022036;,
      -0.004341;-0.009677; 0.024640;,
      -0.004341;-0.014335; 0.024640;,
      -0.005964;-0.009677; 0.022036;,
       0.005945;-0.009677; 0.022036;,
       0.004322;-0.009677; 0.024640;,
      -0.004341;-0.009677; 0.024640;,
      -0.004341;-0.014335; 0.024640;,
      -0.004341;-0.009677; 0.024640;,
       0.004322;-0.009677; 0.024640;,
       0.004322;-0.014335; 0.024640;,
       0.005945;-0.017131; 0.022036;,
       0.005945;-0.021789; 0.022036;,
       0.004322;-0.021789; 0.024640;,
       0.004322;-0.017131; 0.024640;,
       0.005945;-0.021789; 0.022036;,
      -0.005964;-0.021789; 0.022036;,
      -0.004341;-0.021789; 0.024640;,
       0.004322;-0.021789; 0.024640;,
      -0.005964;-0.021789; 0.022036;,
      -0.005964;-0.017131; 0.022036;,
      -0.004341;-0.017131; 0.024640;,
      -0.004341;-0.021789; 0.024640;,
      -0.005964;-0.017131; 0.022036;,
       0.005945;-0.017131; 0.022036;,
       0.004322;-0.017131; 0.024640;,
      -0.004341;-0.017131; 0.024640;,
      -0.004341;-0.021789; 0.024640;,
      -0.004341;-0.017131; 0.024640;,
       0.004322;-0.017131; 0.024640;,
       0.004322;-0.021789; 0.024640;,
       0.005945;-0.024584; 0.022036;,
       0.005945;-0.029242; 0.022036;,
       0.004322;-0.029242; 0.024640;,
       0.004322;-0.024584; 0.024640;,
       0.005945;-0.029242; 0.022036;,
      -0.005964;-0.029242; 0.022036;,
      -0.004341;-0.029242; 0.024640;,
       0.004322;-0.029242; 0.024640;,
      -0.005964;-0.029242; 0.022036;,
      -0.005964;-0.024584; 0.022036;,
      -0.004341;-0.024584; 0.024640;,
      -0.004341;-0.029242; 0.024640;,
      -0.005964;-0.024584; 0.022036;,
       0.005945;-0.024584; 0.022036;,
       0.004322;-0.024584; 0.024640;,
      -0.004341;-0.024584; 0.024640;,
      -0.004341;-0.029242; 0.024640;,
      -0.004341;-0.024584; 0.024640;,
       0.004322;-0.024584; 0.024640;,
       0.004322;-0.029242; 0.024640;,
       0.005945;-0.032037; 0.022036;,
       0.005945;-0.036695; 0.022036;,
       0.004322;-0.036695; 0.024640;,
       0.004322;-0.032037; 0.024640;,
       0.005945;-0.036695; 0.022036;,
      -0.005964;-0.036695; 0.022036;,
      -0.004341;-0.036695; 0.024640;,
       0.004322;-0.036695; 0.024640;,
      -0.005964;-0.036695; 0.022036;,
      -0.005964;-0.032037; 0.022036;,
      -0.004341;-0.032037; 0.024640;,
      -0.004341;-0.036695; 0.024640;,
      -0.005964;-0.032037; 0.022036;,
       0.005945;-0.032037; 0.022036;,
       0.004322;-0.032037; 0.024640;,
      -0.004341;-0.032037; 0.024640;,
      -0.004341;-0.036695; 0.024640;,
      -0.004341;-0.032037; 0.024640;,
       0.004322;-0.032037; 0.024640;,
       0.004322;-0.036695; 0.024640;,
       0.005945;-0.039491; 0.022036;,
       0.005945;-0.044150; 0.022036;,
       0.004322;-0.044150; 0.024640;,
       0.004322;-0.039491; 0.024640;,
       0.005945;-0.044150; 0.022036;,
      -0.005964;-0.044150; 0.022036;,
      -0.004341;-0.044150; 0.024640;,
       0.004322;-0.044150; 0.024640;,
      -0.005964;-0.044150; 0.022036;,
      -0.005964;-0.039491; 0.022036;,
      -0.004341;-0.039491; 0.024640;,
      -0.004341;-0.044150; 0.024640;,
      -0.005964;-0.039491; 0.022036;,
       0.005945;-0.039491; 0.022036;,
       0.004322;-0.039491; 0.024640;,
      -0.004341;-0.039491; 0.024640;,
      -0.004341;-0.044150; 0.024640;,
      -0.004341;-0.039491; 0.024640;,
       0.004322;-0.039491; 0.024640;,
       0.004322;-0.044150; 0.024640;,
       0.005945;-0.046945; 0.022036;,
       0.005945;-0.051603; 0.022036;,
       0.004322;-0.051603; 0.024640;,
       0.004322;-0.046945; 0.024640;,
       0.005945;-0.051603; 0.022036;,
      -0.005964;-0.051603; 0.022036;,
      -0.004341;-0.051603; 0.024640;,
       0.004322;-0.051603; 0.024640;,
      -0.005964;-0.051603; 0.022036;,
      -0.005964;-0.046945; 0.022036;,
      -0.004341;-0.046945; 0.024640;,
      -0.004341;-0.051603; 0.024640;,
      -0.005964;-0.046945; 0.022036;,
       0.005945;-0.046945; 0.022036;,
       0.004322;-0.046945; 0.024640;,
      -0.004341;-0.046945; 0.024640;,
      -0.004341;-0.051603; 0.024640;,
      -0.004341;-0.046945; 0.024640;,
       0.004322;-0.046945; 0.024640;,
       0.004322;-0.051603; 0.024640;,
       0.005945;-0.054398; 0.022036;,
       0.005945;-0.059056; 0.022036;,
       0.004322;-0.059056; 0.024640;,
       0.004322;-0.054398; 0.024640;,
       0.005945;-0.059056; 0.022036;,
      -0.005964;-0.059056; 0.022036;,
      -0.004341;-0.059056; 0.024640;,
       0.004322;-0.059056; 0.024640;,
      -0.005964;-0.059056; 0.022036;,
      -0.005964;-0.054398; 0.022036;,
      -0.004341;-0.054398; 0.024640;,
      -0.004341;-0.059056; 0.024640;,
      -0.005964;-0.054398; 0.022036;,
       0.005945;-0.054398; 0.022036;,
       0.004322;-0.054398; 0.024640;,
      -0.004341;-0.054398; 0.024640;,
      -0.004341;-0.059056; 0.024640;,
      -0.004341;-0.054398; 0.024640;,
       0.004322;-0.054398; 0.024640;,
       0.004322;-0.059056; 0.024640;,
       0.005945;-0.061851; 0.022036;,
       0.005945;-0.066510; 0.022036;,
       0.004322;-0.066510; 0.024640;,
       0.004322;-0.061851; 0.024640;,
       0.005945;-0.066510; 0.022036;,
      -0.005964;-0.066510; 0.022036;,
      -0.004341;-0.066510; 0.024640;,
       0.004322;-0.066510; 0.024640;,
      -0.005964;-0.066510; 0.022036;,
      -0.005964;-0.061851; 0.022036;,
      -0.004341;-0.061851; 0.024640;,
      -0.004341;-0.066510; 0.024640;,
      -0.005964;-0.061851; 0.022036;,
       0.005945;-0.061851; 0.022036;,
       0.004322;-0.061851; 0.024640;,
      -0.004341;-0.061851; 0.024640;,
      -0.004341;-0.066510; 0.024640;,
      -0.004341;-0.061851; 0.024640;,
       0.004322;-0.061851; 0.024640;,
       0.004322;-0.066510; 0.024640;,
       0.005945;-0.069305; 0.022036;,
       0.005945;-0.073963; 0.022036;,
       0.004322;-0.073963; 0.024640;,
       0.004322;-0.069305; 0.024640;,
       0.005945;-0.073963; 0.022036;,
      -0.005964;-0.073963; 0.022036;,
      -0.004341;-0.073963; 0.024640;,
       0.004322;-0.073963; 0.024640;,
      -0.005964;-0.073963; 0.022036;,
      -0.005964;-0.069305; 0.022036;,
      -0.004341;-0.069305; 0.024640;,
      -0.004341;-0.073963; 0.024640;,
      -0.005964;-0.069305; 0.022036;,
       0.005945;-0.069305; 0.022036;,
       0.004322;-0.069305; 0.024640;,
      -0.004341;-0.069305; 0.024640;,
      -0.004341;-0.073963; 0.024640;,
      -0.004341;-0.069305; 0.024640;,
       0.004322;-0.069305; 0.024640;,
       0.004322;-0.073963; 0.024640;,
       0.005945;-0.076758; 0.022036;,
       0.005945;-0.081795; 0.022036;,
       0.004322;-0.081795; 0.024640;,
       0.004322;-0.076758; 0.024640;,
       0.005945;-0.081795; 0.022036;,
      -0.005949;-0.081795; 0.022036;,
      -0.004341;-0.081795; 0.024640;,
       0.004322;-0.081795; 0.024640;,
      -0.005949;-0.081795; 0.022036;,
      -0.005964;-0.076758; 0.022036;,
      -0.004341;-0.076758; 0.024640;,
      -0.004341;-0.081795; 0.024640;,
      -0.005964;-0.076758; 0.022036;,
       0.005945;-0.076758; 0.022036;,
       0.004322;-0.076758; 0.024640;,
      -0.004341;-0.076758; 0.024640;,
      -0.004341;-0.081795; 0.024640;,
      -0.004341;-0.076758; 0.024640;,
       0.004322;-0.076758; 0.024640;,
       0.004322;-0.081795; 0.024640;,
       0.005945; 0.073231; 0.022036;,
       0.005945; 0.066075; 0.022036;,
       0.004322; 0.066075; 0.024640;,
       0.004322; 0.070918; 0.024640;,
       0.005945; 0.066075; 0.022036;,
      -0.005964; 0.066075; 0.022036;,
      -0.004341; 0.066075; 0.024640;,
       0.004322; 0.066075; 0.024640;,
      -0.005964; 0.066075; 0.022036;,
      -0.005964; 0.073231; 0.022036;,
      -0.004341; 0.070918; 0.024640;,
      -0.004341; 0.066075; 0.024640;,
      -0.005964; 0.073231; 0.022036;,
       0.005945; 0.073231; 0.022036;,
       0.004322; 0.070918; 0.024640;,
      -0.004341; 0.070918; 0.024640;,
      -0.004341; 0.066075; 0.024640;,
      -0.004341; 0.070918; 0.024640;,
       0.004322; 0.070918; 0.024640;,
       0.004322; 0.066075; 0.024640;,
       0.005945; 0.057300; 0.022036;,
       0.005945; 0.052642; 0.022036;,
       0.004322; 0.052642; 0.024640;,
       0.004322; 0.057300; 0.024640;,
       0.005945; 0.052642; 0.022036;,
      -0.005964; 0.052642; 0.022036;,
      -0.004341; 0.052642; 0.024640;,
       0.004322; 0.052642; 0.024640;,
      -0.005964; 0.052642; 0.022036;,
      -0.005964; 0.057300; 0.022036;,
      -0.004341; 0.057300; 0.024640;,
      -0.004341; 0.052642; 0.024640;,
      -0.005964; 0.057300; 0.022036;,
       0.005945; 0.057300; 0.022036;,
       0.004322; 0.057300; 0.024640;,
      -0.004341; 0.057300; 0.024640;,
      -0.004341; 0.052642; 0.024640;,
      -0.004341; 0.057300; 0.024640;,
       0.004322; 0.057300; 0.024640;,
       0.004322; 0.052642; 0.024640;,
       0.005945; 0.049847; 0.022036;,
       0.005945; 0.045188; 0.022036;,
       0.004322; 0.045188; 0.024640;,
       0.004322; 0.049847; 0.024640;,
       0.005945; 0.045188; 0.022036;,
      -0.005964; 0.045188; 0.022036;,
      -0.004341; 0.045188; 0.024640;,
       0.004322; 0.045188; 0.024640;,
      -0.005964; 0.045188; 0.022036;,
      -0.005964; 0.049847; 0.022036;,
      -0.004341; 0.049847; 0.024640;,
      -0.004341; 0.045188; 0.024640;,
      -0.005964; 0.049847; 0.022036;,
       0.005945; 0.049847; 0.022036;,
       0.004322; 0.049847; 0.024640;,
      -0.004341; 0.049847; 0.024640;,
      -0.004341; 0.045188; 0.024640;,
      -0.004341; 0.049847; 0.024640;,
       0.004322; 0.049847; 0.024640;,
       0.004322; 0.045188; 0.024640;;
      133;
      3;2,1,0;,
      4;6,5,4,3;,
      4;10,9,8,7;,
      4;14,13,12,11;,
      4;18,17,16,15;,
      4;22,21,20,19;,
      4;26,25,24,23;,
      4;30,29,28,27;,
      4;34,33,32,31;,
      4;38,37,36,35;,
      4;42,41,40,39;,
      3;45,44,43;,
      4;49,48,47,46;,
      4;53,52,51,50;,
      4;57,56,55,54;,
      4;61,60,59,58;,
      4;65,64,63,62;,
      4;69,68,67,66;,
      4;73,72,71,70;,
      4;77,76,75,74;,
      4;81,80,79,78;,
      4;85,84,83,82;,
      4;89,88,87,86;,
      4;93,92,91,90;,
      4;97,96,95,94;,
      4;101,100,99,98;,
      4;105,104,103,102;,
      4;109,108,107,106;,
      4;113,112,111,110;,
      4;117,116,115,114;,
      4;121,120,119,118;,
      4;125,124,123,122;,
      4;129,128,127,126;,
      4;133,132,131,130;,
      4;137,136,135,134;,
      4;141,140,139,138;,
      4;145,144,143,142;,
      4;149,148,147,146;,
      4;153,152,151,150;,
      4;157,156,155,154;,
      4;161,160,159,158;,
      4;165,164,163,162;,
      4;169,168,167,166;,
      4;173,172,171,170;,
      4;177,176,175,174;,
      4;181,180,179,178;,
      4;185,184,183,182;,
      4;189,188,187,186;,
      4;193,192,191,190;,
      4;197,196,195,194;,
      4;201,200,199,198;,
      4;205,204,203,202;,
      4;209,208,207,206;,
      4;213,212,211,210;,
      4;217,216,215,214;,
      4;221,220,219,218;,
      4;225,224,223,222;,
      4;229,228,227,226;,
      4;233,232,231,230;,
      4;237,236,235,234;,
      4;241,240,239,238;,
      4;245,244,243,242;,
      4;249,248,247,246;,
      4;253,252,251,250;,
      4;257,256,255,254;,
      4;261,260,259,258;,
      4;265,264,263,262;,
      4;269,268,267,266;,
      4;273,272,271,270;,
      4;277,276,275,274;,
      4;281,280,279,278;,
      4;285,284,283,282;,
      4;289,288,287,286;,
      4;293,292,291,290;,
      4;297,296,295,294;,
      4;301,300,299,298;,
      4;305,304,303,302;,
      4;309,308,307,306;,
      4;313,312,311,310;,
      4;317,316,315,314;,
      4;321,320,319,318;,
      4;325,324,323,322;,
      4;329,328,327,326;,
      4;333,332,331,330;,
      4;337,336,335,334;,
      4;341,340,339,338;,
      4;345,344,343,342;,
      4;349,348,347,346;,
      4;353,352,351,350;,
      4;357,356,355,354;,
      4;361,360,359,358;,
      4;365,364,363,362;,
      4;369,368,367,366;,
      4;373,372,371,370;,
      4;377,376,375,374;,
      4;381,380,379,378;,
      4;385,384,383,382;,
      4;389,388,387,386;,
      4;393,392,391,390;,
      4;397,396,395,394;,
      4;401,400,399,398;,
      4;405,404,403,402;,
      4;409,408,407,406;,
      4;413,412,411,410;,
      4;417,416,415,414;,
      4;421,420,419,418;,
      4;425,424,423,422;,
      4;429,428,427,426;,
      4;433,432,431,430;,
      4;437,436,435,434;,
      4;441,440,439,438;,
      4;445,444,443,442;,
      4;449,448,447,446;,
      4;453,452,451,450;,
      4;457,456,455,454;,
      4;461,460,459,458;,
      4;465,464,463,462;,
      4;469,468,467,466;,
      4;473,472,471,470;,
      4;477,476,475,474;,
      4;481,480,479,478;,
      4;485,484,483,482;,
      4;489,488,487,486;,
      4;493,492,491,490;,
      4;497,496,495,494;,
      4;501,500,499,498;,
      4;505,504,503,502;,
      4;509,508,507,506;,
      4;513,512,511,510;,
      4;517,516,515,514;,
      4;521,520,519,518;,
      4;525,524,523,522;,
      4;529,528,527,526;;
      MeshNormals {
        530;
        -0.730507; 0.650068; 0.209216;,
        -0.577350; 0.577350;-0.577350;,
        -0.878512; 0.221809;-0.423104;,
        -0.730507; 0.650068; 0.209216;,
         0.730507; 0.650068; 0.209216;,
         0.577350; 0.577350;-0.577350;,
        -0.577350; 0.577350;-0.577350;,
         0.730507; 0.650068; 0.209216;,
         0.730507;-0.650067; 0.209217;,
         0.732102;-0.663370;-0.154813;,
         0.878445; 0.221440;-0.423437;,
         0.296568;-0.870587; 0.392589;,
         0.485200;-0.593324; 0.642298;,
         0.728645;-0.677325; 0.101524;,
         0.666686;-0.739528; 0.092891;,
        -0.730507; 0.650068; 0.209216;,
        -0.383451; 0.612495; 0.691242;,
         0.383451; 0.612495; 0.691242;,
         0.730507; 0.650068; 0.209216;,
         0.666686;-0.739528; 0.092891;,
         0.728645;-0.677325; 0.101524;,
         0.731976;-0.664791;-0.149211;,
         0.642569;-0.754949;-0.130985;,
        -0.383451; 0.612495; 0.691242;,
        -0.383451;-0.612495; 0.691242;,
         0.383451;-0.612495; 0.691242;,
         0.383451; 0.612495; 0.691242;,
         0.730507; 0.650068; 0.209216;,
         0.383451; 0.612495; 0.691242;,
         0.383451;-0.612495; 0.691242;,
         0.730507;-0.650067; 0.209217;,
         0.286557;-0.854482;-0.433297;,
         0.440675;-0.601499;-0.666336;,
        -0.440675;-0.601499;-0.666336;,
        -0.286557;-0.854482;-0.433296;,
        -0.730507;-0.650067; 0.209217;,
        -0.383451;-0.612495; 0.691242;,
        -0.383451; 0.612495; 0.691242;,
        -0.730507; 0.650068; 0.209216;,
         0.577350; 0.577350;-0.577350;,
         0.878445; 0.221440;-0.423437;,
        -0.878512; 0.221809;-0.423104;,
        -0.577350; 0.577350;-0.577350;,
         0.730507; 0.650068; 0.209216;,
         0.878445; 0.221440;-0.423437;,
         0.577350; 0.577350;-0.577350;,
        -0.730507;-0.650067; 0.209217;,
        -0.730507; 0.650068; 0.209216;,
        -0.878512; 0.221809;-0.423104;,
        -0.732203;-0.663351;-0.154417;,
         0.544311; 0.590398;-0.595949;,
         0.435390;-0.602491;-0.668910;,
        -0.435645;-0.602643;-0.668606;,
        -0.544522; 0.589437;-0.596707;,
         0.878445; 0.221440;-0.423437;,
         0.544311; 0.590398;-0.595949;,
        -0.544522; 0.589437;-0.596707;,
        -0.878512; 0.221809;-0.423104;,
        -0.878512; 0.221809;-0.423104;,
        -0.544522; 0.589437;-0.596707;,
        -0.435645;-0.602643;-0.668606;,
        -0.732203;-0.663351;-0.154417;,
         0.732102;-0.663370;-0.154813;,
         0.435390;-0.602491;-0.668910;,
         0.544311; 0.590398;-0.595949;,
         0.878445; 0.221440;-0.423437;,
         0.642569;-0.754949;-0.130985;,
        -0.730507;-0.650067; 0.209217;,
        -0.732203;-0.663351;-0.154417;,
         0.666686;-0.739528; 0.092891;,
        -0.666686;-0.739528; 0.092891;,
         0.732102;-0.663370;-0.154813;,
         0.730507;-0.650067; 0.209217;,
        -0.642569;-0.754949;-0.130985;,
        -0.286557;-0.854482;-0.433296;,
         0.383451;-0.612495; 0.691242;,
        -0.383451;-0.612495; 0.691242;,
         0.286557;-0.854482;-0.433297;,
         0.286557;-0.854482;-0.433297;,
        -0.383451;-0.612495; 0.691242;,
        -0.730507;-0.650067; 0.209217;,
         0.642569;-0.754949;-0.130985;,
        -0.642569;-0.754949;-0.130985;,
         0.730507;-0.650067; 0.209217;,
         0.383451;-0.612495; 0.691242;,
        -0.286557;-0.854482;-0.433296;,
         0.296568;-0.870587; 0.392589;,
        -0.435645;-0.602643;-0.668606;,
         0.435390;-0.602491;-0.668910;,
        -0.296568;-0.870586; 0.392590;,
        -0.296568;-0.870586; 0.392590;,
         0.435390;-0.602491;-0.668910;,
         0.732102;-0.663370;-0.154813;,
        -0.666686;-0.739528; 0.092891;,
         0.666686;-0.739528; 0.092891;,
        -0.732203;-0.663351;-0.154417;,
        -0.435645;-0.602643;-0.668606;,
         0.296568;-0.870587; 0.392589;,
        -0.731976;-0.664792;-0.149211;,
         0.731976;-0.664791;-0.149211;,
         0.728645;-0.677325; 0.101524;,
        -0.728645;-0.677325; 0.101524;,
         0.728645;-0.677325; 0.101524;,
         0.485200;-0.593324; 0.642298;,
        -0.485200;-0.593324; 0.642298;,
        -0.728645;-0.677325; 0.101524;,
        -0.731976;-0.664792;-0.149211;,
        -0.440675;-0.601499;-0.666336;,
         0.440675;-0.601499;-0.666336;,
         0.731976;-0.664791;-0.149211;,
        -0.296568;-0.870586; 0.392590;,
        -0.485200;-0.593324; 0.642298;,
         0.485200;-0.593324; 0.642298;,
         0.296568;-0.870587; 0.392589;,
         0.642569;-0.754949;-0.130985;,
         0.731976;-0.664791;-0.149211;,
         0.440675;-0.601499;-0.666336;,
         0.286557;-0.854482;-0.433297;,
        -0.642569;-0.754949;-0.130985;,
        -0.731976;-0.664792;-0.149211;,
        -0.728645;-0.677325; 0.101524;,
        -0.666686;-0.739528; 0.092891;,
        -0.666686;-0.739528; 0.092891;,
        -0.728645;-0.677325; 0.101524;,
        -0.485200;-0.593324; 0.642298;,
        -0.296568;-0.870586; 0.392590;,
        -0.286557;-0.854482;-0.433296;,
        -0.440675;-0.601499;-0.666336;,
        -0.731976;-0.664792;-0.149211;,
        -0.642569;-0.754949;-0.130985;,
        -0.713132;-0.542157;-0.444419;,
        -0.713132; 0.542157;-0.444419;,
        -0.383662; 0.612453;-0.691162;,
        -0.383662;-0.612453;-0.691161;,
        -0.713132; 0.542157;-0.444419;,
         0.713132; 0.542157;-0.444418;,
         0.383663; 0.612453;-0.691161;,
        -0.383662; 0.612453;-0.691162;,
         0.713132; 0.542157;-0.444418;,
         0.713132;-0.542157;-0.444418;,
         0.383663;-0.612453;-0.691161;,
         0.383663; 0.612453;-0.691161;,
         0.713132;-0.542157;-0.444418;,
        -0.713132;-0.542157;-0.444419;,
        -0.383662;-0.612453;-0.691161;,
         0.383663;-0.612453;-0.691161;,
         0.383663; 0.612453;-0.691161;,
         0.383663;-0.612453;-0.691161;,
        -0.383662;-0.612453;-0.691161;,
        -0.383662; 0.612453;-0.691162;,
        -0.713132;-0.542157;-0.444419;,
        -0.713132; 0.542157;-0.444419;,
        -0.383662; 0.612453;-0.691162;,
        -0.383662;-0.612453;-0.691162;,
        -0.713132; 0.542157;-0.444419;,
         0.713132; 0.542157;-0.444419;,
         0.383662; 0.612453;-0.691162;,
        -0.383662; 0.612453;-0.691162;,
         0.713132; 0.542157;-0.444419;,
         0.713132;-0.542157;-0.444419;,
         0.383662;-0.612453;-0.691162;,
         0.383662; 0.612453;-0.691162;,
         0.713132;-0.542157;-0.444419;,
        -0.713132;-0.542157;-0.444419;,
        -0.383662;-0.612453;-0.691162;,
         0.383662;-0.612453;-0.691162;,
         0.383662; 0.612453;-0.691162;,
         0.383662;-0.612453;-0.691162;,
        -0.383662;-0.612453;-0.691162;,
        -0.383662; 0.612453;-0.691162;,
        -0.713132;-0.542158;-0.444419;,
        -0.713132; 0.542157;-0.444419;,
        -0.383663; 0.612453;-0.691162;,
        -0.383662;-0.612453;-0.691162;,
        -0.713132; 0.542157;-0.444419;,
         0.713132; 0.542157;-0.444419;,
         0.383662; 0.612453;-0.691162;,
        -0.383663; 0.612453;-0.691162;,
         0.713132; 0.542157;-0.444419;,
         0.713132;-0.542157;-0.444419;,
         0.383662;-0.612453;-0.691162;,
         0.383662; 0.612453;-0.691162;,
         0.713132;-0.542157;-0.444419;,
        -0.713132;-0.542158;-0.444419;,
        -0.383662;-0.612453;-0.691162;,
         0.383662;-0.612453;-0.691162;,
         0.383662; 0.612453;-0.691162;,
         0.383662;-0.612453;-0.691162;,
        -0.383662;-0.612453;-0.691162;,
        -0.383663; 0.612453;-0.691162;,
        -0.713132;-0.542157;-0.444419;,
        -0.713132; 0.542157;-0.444418;,
        -0.383663; 0.612453;-0.691162;,
        -0.383662;-0.612453;-0.691162;,
        -0.713132; 0.542157;-0.444418;,
         0.713132; 0.542158;-0.444418;,
         0.383662; 0.612453;-0.691162;,
        -0.383663; 0.612453;-0.691162;,
         0.713132; 0.542158;-0.444418;,
         0.713132;-0.542157;-0.444419;,
         0.383663;-0.612453;-0.691162;,
         0.383662; 0.612453;-0.691162;,
         0.713132;-0.542157;-0.444419;,
        -0.713132;-0.542157;-0.444419;,
        -0.383662;-0.612453;-0.691162;,
         0.383663;-0.612453;-0.691162;,
         0.383662; 0.612453;-0.691162;,
         0.383663;-0.612453;-0.691162;,
        -0.383662;-0.612453;-0.691162;,
        -0.383663; 0.612453;-0.691162;,
        -0.713132;-0.542157;-0.444419;,
        -0.713132; 0.542157;-0.444419;,
        -0.383662; 0.612453;-0.691162;,
        -0.383662;-0.612453;-0.691162;,
        -0.713132; 0.542157;-0.444419;,
         0.713132; 0.542158;-0.444419;,
         0.383662; 0.612453;-0.691162;,
        -0.383662; 0.612453;-0.691162;,
         0.713132; 0.542158;-0.444419;,
         0.713132;-0.542157;-0.444419;,
         0.383663;-0.612453;-0.691162;,
         0.383662; 0.612453;-0.691162;,
         0.713132;-0.542157;-0.444419;,
        -0.713132;-0.542157;-0.444419;,
        -0.383662;-0.612453;-0.691162;,
         0.383663;-0.612453;-0.691162;,
         0.383662; 0.612453;-0.691162;,
         0.383663;-0.612453;-0.691162;,
        -0.383662;-0.612453;-0.691162;,
        -0.383662; 0.612453;-0.691162;,
        -0.713132;-0.542158;-0.444419;,
        -0.713132; 0.542157;-0.444419;,
        -0.383662; 0.612453;-0.691162;,
        -0.383662;-0.612453;-0.691161;,
        -0.713132; 0.542157;-0.444419;,
         0.713132; 0.542157;-0.444419;,
         0.383662; 0.612453;-0.691162;,
        -0.383662; 0.612453;-0.691162;,
         0.713132; 0.542157;-0.444419;,
         0.713132;-0.542157;-0.444419;,
         0.383662;-0.612453;-0.691161;,
         0.383662; 0.612453;-0.691162;,
         0.713132;-0.542157;-0.444419;,
        -0.713132;-0.542158;-0.444419;,
        -0.383662;-0.612453;-0.691161;,
         0.383662;-0.612453;-0.691161;,
         0.383662; 0.612453;-0.691162;,
         0.383662;-0.612453;-0.691161;,
        -0.383662;-0.612453;-0.691161;,
        -0.383662; 0.612453;-0.691162;,
        -0.713132;-0.542157;-0.444418;,
        -0.713132; 0.542157;-0.444419;,
        -0.383663; 0.612453;-0.691162;,
        -0.383663;-0.612453;-0.691161;,
        -0.713132; 0.542157;-0.444419;,
         0.713132; 0.542157;-0.444418;,
         0.383663; 0.612453;-0.691162;,
        -0.383663; 0.612453;-0.691162;,
         0.713132; 0.542157;-0.444418;,
         0.713133;-0.542157;-0.444418;,
         0.383663;-0.612453;-0.691161;,
         0.383663; 0.612453;-0.691162;,
         0.713133;-0.542157;-0.444418;,
        -0.713132;-0.542157;-0.444418;,
        -0.383663;-0.612453;-0.691161;,
         0.383663;-0.612453;-0.691161;,
         0.383663; 0.612453;-0.691162;,
         0.383663;-0.612453;-0.691161;,
        -0.383663;-0.612453;-0.691161;,
        -0.383663; 0.612453;-0.691162;,
        -0.713132;-0.542157;-0.444419;,
        -0.713132; 0.542157;-0.444419;,
        -0.383662; 0.612453;-0.691162;,
        -0.383662;-0.612454;-0.691161;,
        -0.713132; 0.542157;-0.444419;,
         0.713132; 0.542157;-0.444419;,
         0.383662; 0.612453;-0.691162;,
        -0.383662; 0.612453;-0.691162;,
         0.713132; 0.542157;-0.444419;,
         0.713132;-0.542157;-0.444418;,
         0.383663;-0.612454;-0.691161;,
         0.383662; 0.612453;-0.691162;,
         0.713132;-0.542157;-0.444418;,
        -0.713132;-0.542157;-0.444419;,
        -0.383662;-0.612454;-0.691161;,
         0.383663;-0.612454;-0.691161;,
         0.383662; 0.612453;-0.691162;,
         0.383663;-0.612454;-0.691161;,
        -0.383662;-0.612454;-0.691161;,
        -0.383662; 0.612453;-0.691162;,
        -0.713132;-0.542158;-0.444419;,
        -0.713132; 0.542157;-0.444419;,
        -0.383662; 0.612453;-0.691162;,
        -0.383662;-0.612453;-0.691161;,
        -0.713132; 0.542157;-0.444419;,
         0.713132; 0.542157;-0.444419;,
         0.383662; 0.612453;-0.691162;,
        -0.383662; 0.612453;-0.691162;,
         0.713132; 0.542157;-0.444419;,
         0.713132;-0.542157;-0.444419;,
         0.383662;-0.612453;-0.691161;,
         0.383662; 0.612453;-0.691162;,
         0.713132;-0.542157;-0.444419;,
        -0.713132;-0.542158;-0.444419;,
        -0.383662;-0.612453;-0.691161;,
         0.383662;-0.612453;-0.691161;,
         0.383662; 0.612453;-0.691162;,
         0.383662;-0.612453;-0.691161;,
        -0.383662;-0.612453;-0.691161;,
        -0.383662; 0.612453;-0.691162;,
        -0.713132;-0.542158;-0.444418;,
        -0.713132; 0.542157;-0.444419;,
        -0.383663; 0.612453;-0.691162;,
        -0.383662;-0.612454;-0.691161;,
        -0.713132; 0.542157;-0.444419;,
         0.713132; 0.542158;-0.444418;,
         0.383662; 0.612453;-0.691162;,
        -0.383663; 0.612453;-0.691162;,
         0.713132; 0.542158;-0.444418;,
         0.713133;-0.542158;-0.444418;,
         0.383663;-0.612454;-0.691161;,
         0.383662; 0.612453;-0.691162;,
         0.713133;-0.542158;-0.444418;,
        -0.713132;-0.542158;-0.444418;,
        -0.383662;-0.612454;-0.691161;,
         0.383663;-0.612454;-0.691161;,
         0.383662; 0.612453;-0.691162;,
         0.383663;-0.612454;-0.691161;,
        -0.383662;-0.612454;-0.691161;,
        -0.383663; 0.612453;-0.691162;,
        -0.713132;-0.542158;-0.444419;,
        -0.713132; 0.542157;-0.444419;,
        -0.383662; 0.612453;-0.691162;,
        -0.383662;-0.612453;-0.691161;,
        -0.713132; 0.542157;-0.444419;,
         0.713132; 0.542157;-0.444418;,
         0.383662; 0.612453;-0.691161;,
        -0.383662; 0.612453;-0.691162;,
         0.713132; 0.542157;-0.444418;,
         0.713133;-0.542157;-0.444418;,
         0.383663;-0.612453;-0.691161;,
         0.383662; 0.612453;-0.691161;,
         0.713133;-0.542157;-0.444418;,
        -0.713132;-0.542158;-0.444419;,
        -0.383662;-0.612453;-0.691161;,
         0.383663;-0.612453;-0.691161;,
         0.383662; 0.612453;-0.691161;,
         0.383663;-0.612453;-0.691161;,
        -0.383662;-0.612453;-0.691161;,
        -0.383662; 0.612453;-0.691162;,
        -0.713132;-0.542158;-0.444418;,
        -0.713132; 0.542157;-0.444420;,
        -0.383662; 0.612452;-0.691162;,
        -0.383663;-0.612454;-0.691161;,
        -0.713132; 0.542157;-0.444420;,
         0.713132; 0.542157;-0.444420;,
         0.383662; 0.612452;-0.691163;,
        -0.383662; 0.612452;-0.691162;,
         0.713132; 0.542157;-0.444420;,
         0.713132;-0.542158;-0.444419;,
         0.383662;-0.612454;-0.691161;,
         0.383662; 0.612452;-0.691163;,
         0.713132;-0.542158;-0.444419;,
        -0.713132;-0.542158;-0.444418;,
        -0.383663;-0.612454;-0.691161;,
         0.383662;-0.612454;-0.691161;,
         0.383662; 0.612452;-0.691163;,
         0.383662;-0.612454;-0.691161;,
        -0.383663;-0.612454;-0.691161;,
        -0.383662; 0.612452;-0.691162;,
        -0.713132;-0.542157;-0.444418;,
        -0.713132; 0.542157;-0.444419;,
        -0.383662; 0.612453;-0.691162;,
        -0.383662;-0.612453;-0.691161;,
        -0.713132; 0.542157;-0.444419;,
         0.713132; 0.542157;-0.444419;,
         0.383662; 0.612453;-0.691162;,
        -0.383662; 0.612453;-0.691162;,
         0.713132; 0.542157;-0.444419;,
         0.713132;-0.542157;-0.444418;,
         0.383663;-0.612453;-0.691161;,
         0.383662; 0.612453;-0.691162;,
         0.713132;-0.542157;-0.444418;,
        -0.713132;-0.542157;-0.444418;,
        -0.383662;-0.612453;-0.691161;,
         0.383663;-0.612453;-0.691161;,
         0.383662; 0.612453;-0.691162;,
         0.383663;-0.612453;-0.691161;,
        -0.383662;-0.612453;-0.691161;,
        -0.383662; 0.612453;-0.691162;,
        -0.713132;-0.542157;-0.444419;,
        -0.713132; 0.542157;-0.444420;,
        -0.383662; 0.612453;-0.691162;,
        -0.383662;-0.612453;-0.691161;,
        -0.713132; 0.542157;-0.444420;,
         0.713132; 0.542157;-0.444420;,
         0.383662; 0.612453;-0.691162;,
        -0.383662; 0.612453;-0.691162;,
         0.713132; 0.542157;-0.444420;,
         0.713132;-0.542157;-0.444419;,
         0.383662;-0.612453;-0.691162;,
         0.383662; 0.612453;-0.691162;,
         0.713132;-0.542157;-0.444419;,
        -0.713132;-0.542157;-0.444419;,
        -0.383662;-0.612453;-0.691161;,
         0.383662;-0.612453;-0.691162;,
         0.383662; 0.612453;-0.691162;,
         0.383662;-0.612453;-0.691162;,
        -0.383662;-0.612453;-0.691161;,
        -0.383662; 0.612453;-0.691162;,
        -0.713132;-0.542158;-0.444418;,
        -0.713132; 0.542157;-0.444419;,
        -0.383662; 0.612453;-0.691162;,
        -0.383663;-0.612454;-0.691161;,
        -0.713132; 0.542157;-0.444419;,
         0.713132; 0.542157;-0.444419;,
         0.383662; 0.612453;-0.691162;,
        -0.383662; 0.612453;-0.691162;,
         0.713132; 0.542157;-0.444419;,
         0.713132;-0.542158;-0.444418;,
         0.383663;-0.612454;-0.691161;,
         0.383662; 0.612453;-0.691162;,
         0.713132;-0.542158;-0.444418;,
        -0.713132;-0.542158;-0.444418;,
        -0.383663;-0.612454;-0.691161;,
         0.383663;-0.612454;-0.691161;,
         0.383662; 0.612453;-0.691162;,
         0.383663;-0.612454;-0.691161;,
        -0.383663;-0.612454;-0.691161;,
        -0.383662; 0.612453;-0.691162;,
        -0.713133;-0.542158;-0.444418;,
        -0.713132; 0.542157;-0.444419;,
        -0.383662; 0.612453;-0.691162;,
        -0.383663;-0.612454;-0.691161;,
        -0.713132; 0.542157;-0.444419;,
         0.713132; 0.542157;-0.444419;,
         0.383662; 0.612453;-0.691162;,
        -0.383662; 0.612453;-0.691162;,
         0.713132; 0.542157;-0.444419;,
         0.713132;-0.542158;-0.444418;,
         0.383663;-0.612454;-0.691161;,
         0.383662; 0.612453;-0.691162;,
         0.713132;-0.542158;-0.444418;,
        -0.713133;-0.542158;-0.444418;,
        -0.383663;-0.612454;-0.691161;,
         0.383663;-0.612454;-0.691161;,
         0.383662; 0.612453;-0.691162;,
         0.383663;-0.612454;-0.691161;,
        -0.383663;-0.612454;-0.691161;,
        -0.383662; 0.612453;-0.691162;,
        -0.713133;-0.542158;-0.444417;,
        -0.544522; 0.589437;-0.596707;,
        -0.383663; 0.612453;-0.691161;,
        -0.383663;-0.612454;-0.691161;,
        -0.544522; 0.589437;-0.596707;,
         0.544311; 0.590398;-0.595949;,
         0.384447; 0.612283;-0.690876;,
        -0.383663; 0.612453;-0.691161;,
         0.544311; 0.590398;-0.595949;,
         0.714259;-0.541790;-0.443054;,
         0.384435;-0.612317;-0.690853;,
         0.384447; 0.612283;-0.690876;,
         0.714259;-0.541790;-0.443054;,
        -0.713133;-0.542158;-0.444417;,
        -0.383663;-0.612454;-0.691161;,
         0.384435;-0.612317;-0.690853;,
         0.384447; 0.612283;-0.690876;,
         0.384435;-0.612317;-0.690853;,
        -0.383663;-0.612454;-0.691161;,
        -0.383663; 0.612453;-0.691161;,
        -0.462570;-0.499954;-0.732171;,
        -0.713132; 0.542157;-0.444419;,
        -0.383662; 0.612453;-0.691162;,
        -0.397457;-0.317075;-0.861099;,
        -0.713132; 0.542157;-0.444419;,
         0.713132; 0.542157;-0.444419;,
         0.383662; 0.612453;-0.691162;,
        -0.383662; 0.612453;-0.691162;,
         0.713132; 0.542157;-0.444419;,
         0.462570;-0.499954;-0.732171;,
         0.397457;-0.317074;-0.861099;,
         0.383662; 0.612453;-0.691162;,
         0.462570;-0.499954;-0.732171;,
        -0.462570;-0.499954;-0.732171;,
        -0.397457;-0.317075;-0.861099;,
         0.397457;-0.317074;-0.861099;,
         0.383662; 0.612453;-0.691162;,
         0.397457;-0.317074;-0.861099;,
        -0.397457;-0.317075;-0.861099;,
        -0.383662; 0.612453;-0.691162;,
        -0.713132;-0.542157;-0.444419;,
        -0.713132; 0.542157;-0.444418;,
        -0.383663; 0.612453;-0.691161;,
        -0.383662;-0.612453;-0.691162;,
        -0.713132; 0.542157;-0.444418;,
         0.713132; 0.542158;-0.444418;,
         0.383663; 0.612454;-0.691161;,
        -0.383663; 0.612453;-0.691161;,
         0.713132; 0.542158;-0.444418;,
         0.713132;-0.542157;-0.444419;,
         0.383662;-0.612453;-0.691162;,
         0.383663; 0.612454;-0.691161;,
         0.713132;-0.542157;-0.444419;,
        -0.713132;-0.542157;-0.444419;,
        -0.383662;-0.612453;-0.691162;,
         0.383662;-0.612453;-0.691162;,
         0.383663; 0.612454;-0.691161;,
         0.383662;-0.612453;-0.691162;,
        -0.383662;-0.612453;-0.691162;,
        -0.383663; 0.612453;-0.691161;,
        -0.713131;-0.542157;-0.444420;,
        -0.713132; 0.542157;-0.444419;,
        -0.383662; 0.612453;-0.691162;,
        -0.383662;-0.612453;-0.691162;,
        -0.713132; 0.542157;-0.444419;,
         0.713132; 0.542157;-0.444419;,
         0.383662; 0.612453;-0.691162;,
        -0.383662; 0.612453;-0.691162;,
         0.713132; 0.542157;-0.444419;,
         0.713132;-0.542157;-0.444420;,
         0.383662;-0.612453;-0.691162;,
         0.383662; 0.612453;-0.691162;,
         0.713132;-0.542157;-0.444420;,
        -0.713131;-0.542157;-0.444420;,
        -0.383662;-0.612453;-0.691162;,
         0.383662;-0.612453;-0.691162;,
         0.383662; 0.612453;-0.691162;,
         0.383662;-0.612453;-0.691162;,
        -0.383662;-0.612453;-0.691162;,
        -0.383662; 0.612453;-0.691162;;
        133;
        3;2,1,0;,
        4;6,5,4,3;,
        4;10,9,8,7;,
        4;14,13,12,11;,
        4;18,17,16,15;,
        4;22,21,20,19;,
        4;26,25,24,23;,
        4;30,29,28,27;,
        4;34,33,32,31;,
        4;38,37,36,35;,
        4;42,41,40,39;,
        3;45,44,43;,
        4;49,48,47,46;,
        4;53,52,51,50;,
        4;57,56,55,54;,
        4;61,60,59,58;,
        4;65,64,63,62;,
        4;69,68,67,66;,
        4;73,72,71,70;,
        4;77,76,75,74;,
        4;81,80,79,78;,
        4;85,84,83,82;,
        4;89,88,87,86;,
        4;93,92,91,90;,
        4;97,96,95,94;,
        4;101,100,99,98;,
        4;105,104,103,102;,
        4;109,108,107,106;,
        4;113,112,111,110;,
        4;117,116,115,114;,
        4;121,120,119,118;,
        4;125,124,123,122;,
        4;129,128,127,126;,
        4;133,132,131,130;,
        4;137,136,135,134;,
        4;141,140,139,138;,
        4;145,144,143,142;,
        4;149,148,147,146;,
        4;153,152,151,150;,
        4;157,156,155,154;,
        4;161,160,159,158;,
        4;165,164,163,162;,
        4;169,168,167,166;,
        4;173,172,171,170;,
        4;177,176,175,174;,
        4;181,180,179,178;,
        4;185,184,183,182;,
        4;189,188,187,186;,
        4;193,192,191,190;,
        4;197,196,195,194;,
        4;201,200,199,198;,
        4;205,204,203,202;,
        4;209,208,207,206;,
        4;213,212,211,210;,
        4;217,216,215,214;,
        4;221,220,219,218;,
        4;225,224,223,222;,
        4;229,228,227,226;,
        4;233,232,231,230;,
        4;237,236,235,234;,
        4;241,240,239,238;,
        4;245,244,243,242;,
        4;249,248,247,246;,
        4;253,252,251,250;,
        4;257,256,255,254;,
        4;261,260,259,258;,
        4;265,264,263,262;,
        4;269,268,267,266;,
        4;273,272,271,270;,
        4;277,276,275,274;,
        4;281,280,279,278;,
        4;285,284,283,282;,
        4;289,288,287,286;,
        4;293,292,291,290;,
        4;297,296,295,294;,
        4;301,300,299,298;,
        4;305,304,303,302;,
        4;309,308,307,306;,
        4;313,312,311,310;,
        4;317,316,315,314;,
        4;321,320,319,318;,
        4;325,324,323,322;,
        4;329,328,327,326;,
        4;333,332,331,330;,
        4;337,336,335,334;,
        4;341,340,339,338;,
        4;345,344,343,342;,
        4;349,348,347,346;,
        4;353,352,351,350;,
        4;357,356,355,354;,
        4;361,360,359,358;,
        4;365,364,363,362;,
        4;369,368,367,366;,
        4;373,372,371,370;,
        4;377,376,375,374;,
        4;381,380,379,378;,
        4;385,384,383,382;,
        4;389,388,387,386;,
        4;393,392,391,390;,
        4;397,396,395,394;,
        4;401,400,399,398;,
        4;405,404,403,402;,
        4;409,408,407,406;,
        4;413,412,411,410;,
        4;417,416,415,414;,
        4;421,420,419,418;,
        4;425,424,423,422;,
        4;429,428,427,426;,
        4;433,432,431,430;,
        4;437,436,435,434;,
        4;441,440,439,438;,
        4;445,444,443,442;,
        4;449,448,447,446;,
        4;453,452,451,450;,
        4;457,456,455,454;,
        4;461,460,459,458;,
        4;465,464,463,462;,
        4;469,468,467,466;,
        4;473,472,471,470;,
        4;477,476,475,474;,
        4;481,480,479,478;,
        4;485,484,483,482;,
        4;489,488,487,486;,
        4;493,492,491,490;,
        4;497,496,495,494;,
        4;501,500,499,498;,
        4;505,504,503,502;,
        4;509,508,507,506;,
        4;513,512,511,510;,
        4;517,516,515,514;,
        4;521,520,519,518;,
        4;525,524,523,522;,
        4;529,528,527,526;;
      }
      MeshTextureCoords {
        530;
         0.001761; 0.741792;,
         0.001761; 0.634928;,
         0.184595; 0.634928;,
         0.925793; 0.498381;,
         0.925793; 0.630646;,
         0.818929; 0.630646;,
         0.818929; 0.498381;,
         0.998238; 0.925586;,
         0.001773; 0.925586;,
         0.001773; 0.818722;,
         0.815405; 0.818722;,
         0.610564; 0.229876;,
         0.610564; 0.241858;,
         0.538229; 0.241858;,
         0.538229; 0.229876;,
         0.925793; 0.498381;,
         0.987423; 0.536833;,
         0.987423; 0.592194;,
         0.925793; 0.630646;,
         0.538229; 0.229876;,
         0.538229; 0.241858;,
         0.433733; 0.241858;,
         0.433733; 0.229876;,
         0.998227; 0.451571;,
         0.001766; 0.451571;,
         0.001766; 0.396209;,
         0.998227; 0.396210;,
         0.998238; 0.925586;,
         0.998238; 0.998228;,
         0.001773; 0.998227;,
         0.001773; 0.925586;,
         0.374735; 0.229876;,
         0.374735; 0.241858;,
         0.331025; 0.241858;,
         0.331025; 0.229876;,
         0.998227; 0.741792;,
         0.998227; 0.814434;,
         0.001761; 0.814434;,
         0.001761; 0.741792;,
         0.818933; 0.392663;,
         0.818933; 0.209830;,
         0.951199; 0.209830;,
         0.951199; 0.392663;,
         0.998238; 0.925586;,
         0.815405; 0.818722;,
         0.998238; 0.818722;,
         0.998227; 0.741792;,
         0.001761; 0.741792;,
         0.184595; 0.634928;,
         0.998227; 0.634928;,
         0.001766; 0.328800;,
         0.815399; 0.328800;,
         0.815399; 0.392458;,
         0.001766; 0.392662;,
         0.643377; 0.246837;,
         0.609073; 0.324325;,
         0.545212; 0.324325;,
         0.511112; 0.246837;,
         0.815399; 0.456367;,
         0.815399; 0.541026;,
         0.001767; 0.541108;,
         0.001767; 0.456367;,
         0.815400; 0.545905;,
         0.815400; 0.630647;,
         0.001767; 0.630647;,
         0.001767; 0.545905;,
         0.290557; 0.280331;,
         0.296671; 0.300665;,
         0.192451; 0.324287;,
         0.188646; 0.303430;,
         0.350127; 0.289663;,
         0.344637; 0.269185;,
         0.448936; 0.245916;,
         0.452116; 0.266910;,
         0.510131; 0.277630;,
         0.517460; 0.270026;,
         0.529514; 0.324060;,
         0.519648; 0.320292;,
         0.338397; 0.245807;,
         0.348276; 0.249541;,
         0.296671; 0.300665;,
         0.290557; 0.280331;,
         0.452116; 0.266910;,
         0.448936; 0.245916;,
         0.517460; 0.270026;,
         0.510131; 0.277630;,
         0.116417; 0.299524;,
         0.109297; 0.307961;,
         0.095225; 0.245878;,
         0.105287; 0.250420;,
         0.286524; 0.324114;,
         0.276477; 0.319537;,
         0.344637; 0.269185;,
         0.350127; 0.289663;,
         0.188646; 0.303430;,
         0.192451; 0.324287;,
         0.109297; 0.307961;,
         0.116417; 0.299524;,
         0.001762; 0.150249;,
         0.091663; 0.150249;,
         0.091663; 0.254745;,
         0.001762; 0.254745;,
         0.091663; 0.254745;,
         0.071887; 0.324323;,
         0.021538; 0.324323;,
         0.001762; 0.254745;,
         0.001762; 0.150249;,
         0.024858; 0.095960;,
         0.068568; 0.095960;,
         0.091663; 0.150249;,
         0.949296; 0.457773;,
         0.961277; 0.457773;,
         0.961277; 0.508122;,
         0.949296; 0.508122;,
         0.433733; 0.229876;,
         0.433733; 0.241858;,
         0.374735; 0.241858;,
         0.374735; 0.229876;,
         0.272028; 0.229876;,
         0.272028; 0.241858;,
         0.167533; 0.241858;,
         0.167533; 0.229876;,
         0.167533; 0.229876;,
         0.167533; 0.241858;,
         0.095200; 0.241857;,
         0.095200; 0.229876;,
         0.331025; 0.229876;,
         0.331025; 0.241858;,
         0.272028; 0.241858;,
         0.272028; 0.229876;,
         0.291485; 0.168806;,
         0.266473; 0.168806;,
         0.266473; 0.152332;,
         0.291485; 0.152332;,
         0.159076; 0.225356;,
         0.095133; 0.225356;,
         0.103848; 0.211375;,
         0.150361; 0.211375;,
         0.482202; 0.187653;,
         0.457190; 0.187653;,
         0.457190; 0.171178;,
         0.482202; 0.171178;,
         0.510892; 0.211375;,
         0.574835; 0.211375;,
         0.566120; 0.225355;,
         0.519607; 0.225355;,
         0.868974; 0.493982;,
         0.868974; 0.468970;,
         0.915487; 0.468970;,
         0.915487; 0.493982;,
         0.295022; 0.152335;,
         0.320034; 0.152335;,
         0.320034; 0.168810;,
         0.295022; 0.168810;,
         0.159068; 0.187662;,
         0.095125; 0.187662;,
         0.103840; 0.173682;,
         0.150353; 0.173682;,
         0.323567; 0.152332;,
         0.348579; 0.152332;,
         0.348579; 0.168806;,
         0.323567; 0.168806;,
         0.707524; 0.262776;,
         0.707524; 0.198832;,
         0.721504; 0.207548;,
         0.721504; 0.254060;,
         0.766726; 0.272491;,
         0.766726; 0.247479;,
         0.813239; 0.247479;,
         0.813239; 0.272491;,
         0.510748; 0.187655;,
         0.485736; 0.187655;,
         0.485736; 0.171181;,
         0.510748; 0.171181;,
         0.396658; 0.206511;,
         0.332715; 0.206511;,
         0.341430; 0.192530;,
         0.387943; 0.192530;,
         0.624937; 0.187655;,
         0.599925; 0.187655;,
         0.599925; 0.171181;,
         0.624937; 0.171181;,
         0.983285; 0.392372;,
         0.983285; 0.328429;,
         0.997265; 0.337144;,
         0.997265; 0.383657;,
         0.979752; 0.392659;,
         0.954740; 0.392659;,
         0.954740; 0.346146;,
         0.979752; 0.346146;,
         0.152293; 0.152335;,
         0.177305; 0.152335;,
         0.177305; 0.168810;,
         0.152293; 0.168810;,
         0.788922; 0.241851;,
         0.724979; 0.241851;,
         0.733694; 0.227870;,
         0.780207; 0.227870;,
         0.205853; 0.168810;,
         0.180841; 0.168810;,
         0.180841; 0.152335;,
         0.205853; 0.152335;,
         0.396662; 0.225356;,
         0.332718; 0.225356;,
         0.341434; 0.211375;,
         0.387946; 0.211375;,
         0.119597; 0.296049;,
         0.119597; 0.271037;,
         0.166110; 0.271037;,
         0.166110; 0.296049;,
         0.771208; 0.168828;,
         0.796220; 0.168828;,
         0.796220; 0.185303;,
         0.771208; 0.185303;,
         0.634252; 0.206511;,
         0.570309; 0.206511;,
         0.579024; 0.192531;,
         0.625537; 0.192531;,
         0.818631; 0.168828;,
         0.843643; 0.168828;,
         0.843643; 0.185303;,
         0.818631; 0.185303;,
         0.634223; 0.225355;,
         0.570280; 0.225355;,
         0.578995; 0.211374;,
         0.625508; 0.211374;,
         0.244703; 0.261610;,
         0.244703; 0.286622;,
         0.198190; 0.286622;,
         0.198190; 0.261610;,
         0.972251; 0.190028;,
         0.997263; 0.190028;,
         0.997263; 0.206502;,
         0.972251; 0.206502;,
         0.510910; 0.192533;,
         0.574853; 0.192533;,
         0.566138; 0.206514;,
         0.519625; 0.206514;,
         0.872189; 0.185304;,
         0.847177; 0.185304;,
         0.847177; 0.168829;,
         0.872189; 0.168829;,
         0.629674; 0.211378;,
         0.693617; 0.211378;,
         0.684902; 0.225359;,
         0.638389; 0.225359;,
         0.979749; 0.340822;,
         0.954737; 0.340822;,
         0.954737; 0.294310;,
         0.979749; 0.294310;,
         0.900738; 0.185307;,
         0.875726; 0.185307;,
         0.875726; 0.168832;,
         0.900738; 0.168832;,
         0.788913; 0.222999;,
         0.724970; 0.222999;,
         0.733685; 0.209019;,
         0.780198; 0.209019;,
         0.657023; 0.171178;,
         0.682035; 0.171178;,
         0.682035; 0.187652;,
         0.657023; 0.187652;,
         0.714488; 0.190175;,
         0.778431; 0.190175;,
         0.769716; 0.204155;,
         0.723203; 0.204155;,
         0.194661; 0.296048;,
         0.169649; 0.296048;,
         0.169649; 0.249536;,
         0.194661; 0.249536;,
         0.377127; 0.168806;,
         0.352116; 0.168806;,
         0.352116; 0.152332;,
         0.377127; 0.152332;,
         0.392112; 0.192531;,
         0.456055; 0.192531;,
         0.447340; 0.206511;,
         0.400827; 0.206511;,
         0.932821; 0.185297;,
         0.932821; 0.160286;,
         0.949296; 0.160286;,
         0.949296; 0.185297;,
         0.154530; 0.211374;,
         0.218473; 0.211374;,
         0.209758; 0.225354;,
         0.163245; 0.225354;,
         0.340596; 0.324326;,
         0.340596; 0.299315;,
         0.387108; 0.299315;,
         0.387108; 0.324326;,
         0.542838; 0.171179;,
         0.567850; 0.171179;,
         0.567850; 0.187654;,
         0.542838; 0.187654;,
         0.998047; 0.269520;,
         0.998047; 0.333464;,
         0.984066; 0.324748;,
         0.984066; 0.278236;,
         0.466310; 0.149980;,
         0.491322; 0.149980;,
         0.491322; 0.166454;,
         0.466310; 0.166454;,
         0.815098; 0.179985;,
         0.815098; 0.243928;,
         0.801118; 0.235213;,
         0.801118; 0.188700;,
         0.684593; 0.268679;,
         0.684593; 0.293691;,
         0.638080; 0.293691;,
         0.638080; 0.268679;,
         0.767671; 0.185307;,
         0.742660; 0.185307;,
         0.742660; 0.168833;,
         0.767671; 0.168833;,
         0.954735; 0.236857;,
         0.954735; 0.172914;,
         0.968715; 0.181629;,
         0.968715; 0.228142;,
         0.453655; 0.187652;,
         0.428644; 0.187652;,
         0.428644; 0.171177;,
         0.453655; 0.171177;,
         0.983283; 0.274556;,
         0.983283; 0.210612;,
         0.997263; 0.219328;,
         0.997263; 0.265840;,
         0.688131; 0.293695;,
         0.688131; 0.268684;,
         0.734644; 0.268684;,
         0.734644; 0.293695;,
         0.209386; 0.152335;,
         0.234397; 0.152335;,
         0.234397; 0.168810;,
         0.209386; 0.168810;,
         0.244622; 0.253787;,
         0.308565; 0.253787;,
         0.299850; 0.267768;,
         0.253337; 0.267768;,
         0.405679; 0.166456;,
         0.380667; 0.166456;,
         0.380667; 0.149981;,
         0.405679; 0.149981;,
         0.882508; 0.204154;,
         0.818565; 0.204154;,
         0.827280; 0.190173;,
         0.873793; 0.190173;,
         0.763195; 0.293693;,
         0.738183; 0.293693;,
         0.738183; 0.247180;,
         0.763195; 0.247180;,
         0.237927; 0.152335;,
         0.262939; 0.152335;,
         0.262939; 0.168810;,
         0.237927; 0.168810;,
         0.154516; 0.173683;,
         0.218459; 0.173683;,
         0.209744; 0.187663;,
         0.163231; 0.187663;,
         0.929291; 0.185304;,
         0.904279; 0.185304;,
         0.904279; 0.168829;,
         0.929291; 0.168829;,
         0.392111; 0.211377;,
         0.456054; 0.211377;,
         0.447339; 0.225358;,
         0.400826; 0.225357;,
         0.390645; 0.324326;,
         0.390645; 0.299314;,
         0.437158; 0.299314;,
         0.437158; 0.324326;,
         0.972253; 0.168825;,
         0.997265; 0.168825;,
         0.997265; 0.185300;,
         0.972253; 0.185300;,
         0.629701; 0.192530;,
         0.693644; 0.192530;,
         0.684929; 0.206510;,
         0.638416; 0.206510;,
         0.434220; 0.166449;,
         0.409208; 0.166449;,
         0.409208; 0.149975;,
         0.434220; 0.149975;,
         0.515441; 0.225354;,
         0.451498; 0.225354;,
         0.460213; 0.211374;,
         0.506726; 0.211374;,
         0.487206; 0.299314;,
         0.487206; 0.324326;,
         0.440693; 0.324326;,
         0.440693; 0.299314;,
         0.095195; 0.152331;,
         0.120207; 0.152331;,
         0.120207; 0.168806;,
         0.095195; 0.168806;,
         0.277871; 0.225357;,
         0.213928; 0.225357;,
         0.222643; 0.211377;,
         0.269156; 0.211377;,
         0.539301; 0.187654;,
         0.514290; 0.187654;,
         0.514290; 0.171179;,
         0.539301; 0.171179;,
         0.273325; 0.211379;,
         0.337268; 0.211379;,
         0.328553; 0.225359;,
         0.282040; 0.225359;,
         0.954733; 0.242470;,
         0.979744; 0.242470;,
         0.979744; 0.288982;,
         0.954733; 0.288982;,
         0.112656; 0.248936;,
         0.137668; 0.248936;,
         0.137668; 0.265411;,
         0.112656; 0.265411;,
         0.277850; 0.187661;,
         0.213907; 0.187661;,
         0.222623; 0.173680;,
         0.269135; 0.173680;,
         0.123741; 0.152338;,
         0.148752; 0.152338;,
         0.148753; 0.168813;,
         0.123741; 0.168813;,
         0.273315; 0.192531;,
         0.337259; 0.192531;,
         0.328543; 0.206512;,
         0.282031; 0.206512;,
         0.799677; 0.324328;,
         0.774665; 0.324328;,
         0.774665; 0.277815;,
         0.799677; 0.277815;,
         0.714111; 0.168829;,
         0.739123; 0.168829;,
         0.739123; 0.185303;,
         0.714111; 0.185303;,
         0.704052; 0.263058;,
         0.640109; 0.263058;,
         0.648824; 0.249077;,
         0.695337; 0.249077;,
         0.596396; 0.187653;,
         0.571384; 0.187653;,
         0.571384; 0.171178;,
         0.596396; 0.171178;,
         0.877960; 0.190177;,
         0.941903; 0.190177;,
         0.933188; 0.204157;,
         0.886675; 0.204157;,
         0.624520; 0.324319;,
         0.624520; 0.299308;,
         0.671033; 0.299308;,
         0.671033; 0.324319;,
         0.099503; 0.297288;,
         0.099503; 0.324327;,
         0.083028; 0.324327;,
         0.083028; 0.297288;,
         0.396627; 0.187663;,
         0.332766; 0.187663;,
         0.341399; 0.173683;,
         0.387912; 0.173683;,
         0.490794; 0.324322;,
         0.490751; 0.297283;,
         0.507225; 0.297283;,
         0.507225; 0.324322;,
         0.159072; 0.206508;,
         0.095129; 0.206508;,
         0.103844; 0.192527;,
         0.150357; 0.192527;,
         0.995215; 0.519899;,
         0.968176; 0.519899;,
         0.968176; 0.473386;,
         0.995215; 0.473386;,
         0.928489; 0.496029;,
         0.928489; 0.457611;,
         0.944964; 0.457611;,
         0.944964; 0.483616;,
         0.154524; 0.192526;,
         0.218468; 0.192526;,
         0.209752; 0.206507;,
         0.163240; 0.206507;,
         0.984284; 0.630646;,
         0.945867; 0.630646;,
         0.958280; 0.614172;,
         0.984284; 0.614172;,
         0.484229; 0.293691;,
         0.420286; 0.293691;,
         0.429001; 0.274995;,
         0.475514; 0.274995;,
         0.865442; 0.467979;,
         0.865442; 0.493983;,
         0.818929; 0.493983;,
         0.818929; 0.467979;,
         0.437760; 0.149978;,
         0.462772; 0.149978;,
         0.462772; 0.166452;,
         0.437760; 0.166452;,
         0.637987; 0.230227;,
         0.701930; 0.230227;,
         0.693215; 0.244208;,
         0.646702; 0.244208;,
         0.425109; 0.187652;,
         0.400096; 0.187652;,
         0.400096; 0.171177;,
         0.425109; 0.171177;,
         0.273306; 0.173682;,
         0.337250; 0.173682;,
         0.328534; 0.187662;,
         0.282022; 0.187662;,
         0.674568; 0.324326;,
         0.674568; 0.299314;,
         0.721081; 0.299314;,
         0.721081; 0.324326;,
         0.628471; 0.171181;,
         0.653483; 0.171181;,
         0.653483; 0.187655;,
         0.628471; 0.187655;,
         0.277859; 0.206504;,
         0.213916; 0.206504;,
         0.222631; 0.192524;,
         0.269144; 0.192524;,
         0.710577; 0.187655;,
         0.685566; 0.187655;,
         0.685566; 0.171181;,
         0.710577; 0.171181;,
         0.515454; 0.206510;,
         0.451511; 0.206510;,
         0.460226; 0.192530;,
         0.506739; 0.192530;,
         0.724621; 0.324325;,
         0.724621; 0.299314;,
         0.771133; 0.299314;,
         0.771133; 0.324325;;
      }
      MeshMaterialList {
        1;
        133;
        0,
        0,
        0,
        0,
        0,
        0,
        0,
        0,
        0,
        0,
        0,
        0,
        0,
        0,
        0,
        0,
        0,
        0,
        0,
        0,
        0,
        0,
        0,
        0,
        0,
        0,
        0,
        0,
        0,
        0,
        0,
        0,
        0,
        0,
        0,
        0,
        0,
        0,
        0,
        0,
        0,
        0,
        0,
        0,
        0,
        0,
        0,
        0,
        0,
        0,
        0,
        0,
        0,
        0,
        0,
        0,
        0,
        0,
        0,
        0,
        0,
        0,
        0,
        0,
        0,
        0,
        0,
        0,
        0,
        0,
        0,
        0,
        0,
        0,
        0,
        0,
        0,
        0,
        0,
        0,
        0,
        0,
        0,
        0,
        0,
        0,
        0,
        0,
        0,
        0,
        0,
        0,
        0,
        0,
        0,
        0,
        0,
        0,
        0,
        0,
        0,
        0,
        0,
        0,
        0,
        0,
        0,
        0,
        0,
        0,
        0,
        0,
        0,
        0,
        0,
        0,
        0,
        0,
        0,
        0,
        0,
        0,
        0,
        0,
        0,
        0,
        0,
        0,
        0,
        0,
        0,
        0,
        0;
        Material ForearmAK1_001 {
           0.800000; 0.800000; 0.800000; 1.000000;;
           225.000000;
           0.500000; 0.500000; 0.500000;;
           0.000000; 0.000000; 0.000000;;
        }
      }
    }
  }
}
