xof 0303txt 0032

Frame Root {
  FrameTransformMatrix {
     1.000000, 0.000000, 0.000000, 0.000000,
     0.000000,-0.000000, 1.000000, 0.000000,
     0.000000, 1.000000, 0.000000, 0.000000,
     0.000000, 0.000000, 0.000000, 1.000000;;
  }
  Frame Crosshair2_Cube_001 {
    FrameTransformMatrix {
       1.000000, 0.000000, 0.000000, 0.000000,
       0.000000, 1.000000, 0.000000, 0.000000,
       0.000000, 0.000000, 1.000000, 0.000000,
       0.000000, 0.000000, 0.000000, 1.000000;;
    }
    Mesh {
      514;
       0.009378;-0.008777; 0.023540;,
       0.011028;-0.008326; 0.021909;,
       0.012018;-0.007962; 0.020612;,
       0.012018;-0.004803; 0.011490;,
       0.011607;-0.004272; 0.009957;,
       0.010453;-0.004506; 0.008780;,
       0.008888;-0.004592; 0.008360;,
      -0.009928;-0.004592; 0.008360;,
      -0.011492;-0.004506; 0.008780;,
      -0.012646;-0.004272; 0.009957;,
      -0.013057;-0.004803; 0.011490;,
      -0.013057;-0.007962; 0.020612;,
      -0.012068;-0.008326; 0.021909;,
      -0.010418;-0.008777; 0.023540;,
      -0.008130;-0.008864; 0.024979;,
      -0.005643;-0.008921; 0.025920;,
      -0.003302;-0.008941; 0.026250;,
       0.002262;-0.008941; 0.026250;,
       0.004603;-0.008921; 0.025920;,
       0.007091;-0.008864; 0.024979;,
       0.009378;-0.007642; 0.023540;,
       0.007091;-0.007729; 0.024979;,
       0.004603;-0.007785; 0.025920;,
       0.002262;-0.007805; 0.026250;,
      -0.003302;-0.007805; 0.026250;,
      -0.005643;-0.007785; 0.025920;,
      -0.008130;-0.007729; 0.024979;,
      -0.010418;-0.007642; 0.023540;,
      -0.012068;-0.007191; 0.021909;,
      -0.013057;-0.006826; 0.020612;,
      -0.013057;-0.003667; 0.011490;,
      -0.012646;-0.003136; 0.009957;,
      -0.011492;-0.003371; 0.008780;,
      -0.009928;-0.003456; 0.008360;,
       0.008888;-0.003456; 0.008360;,
       0.010453;-0.003371; 0.008780;,
       0.011607;-0.003136; 0.009957;,
       0.012018;-0.003667; 0.011490;,
       0.012018;-0.006826; 0.020612;,
       0.011028;-0.007191; 0.021909;,
       0.008888;-0.004592; 0.008360;,
       0.010453;-0.004506; 0.008780;,
       0.010453;-0.003371; 0.008780;,
       0.008888;-0.003456; 0.008360;,
      -0.010418;-0.008777; 0.023540;,
      -0.012068;-0.008326; 0.021909;,
      -0.012068;-0.007191; 0.021909;,
      -0.010418;-0.007642; 0.023540;,
       0.007091;-0.008864; 0.024979;,
       0.004603;-0.008921; 0.025920;,
       0.004603;-0.007785; 0.025920;,
       0.007091;-0.007729; 0.024979;,
      -0.013057;-0.004803; 0.011490;,
      -0.012646;-0.004272; 0.009957;,
      -0.012646;-0.003136; 0.009957;,
      -0.013057;-0.003667; 0.011490;,
      -0.003302;-0.008941; 0.026250;,
      -0.005643;-0.008921; 0.025920;,
      -0.005643;-0.007785; 0.025920;,
      -0.003302;-0.007805; 0.026250;,
       0.011028;-0.008326; 0.021909;,
       0.009378;-0.008777; 0.023540;,
       0.009378;-0.007642; 0.023540;,
       0.011028;-0.007191; 0.021909;,
      -0.009928;-0.004592; 0.008360;,
       0.008888;-0.004592; 0.008360;,
       0.008888;-0.003456; 0.008360;,
      -0.009928;-0.003456; 0.008360;,
      -0.005643;-0.008921; 0.025920;,
      -0.008130;-0.008864; 0.024979;,
      -0.008130;-0.007729; 0.024979;,
      -0.005643;-0.007785; 0.025920;,
      -0.008130;-0.008864; 0.024979;,
      -0.010418;-0.008777; 0.023540;,
      -0.010418;-0.007642; 0.023540;,
      -0.008130;-0.007729; 0.024979;,
       0.010453;-0.004506; 0.008780;,
       0.011607;-0.004272; 0.009957;,
       0.011607;-0.003136; 0.009957;,
       0.010453;-0.003371; 0.008780;,
       0.012018;-0.007962; 0.020612;,
       0.011028;-0.008326; 0.021909;,
       0.011028;-0.007191; 0.021909;,
       0.012018;-0.006826; 0.020612;,
       0.009378;-0.008777; 0.023540;,
       0.007091;-0.008864; 0.024979;,
       0.007091;-0.007729; 0.024979;,
       0.009378;-0.007642; 0.023540;,
      -0.013057;-0.007962; 0.020612;,
      -0.013057;-0.004803; 0.011490;,
      -0.013057;-0.003667; 0.011490;,
      -0.013057;-0.006826; 0.020612;,
       0.011607;-0.004272; 0.009957;,
       0.012018;-0.004803; 0.011490;,
       0.012018;-0.003667; 0.011490;,
       0.011607;-0.003136; 0.009957;,
      -0.012068;-0.008326; 0.021909;,
      -0.013057;-0.007962; 0.020612;,
      -0.013057;-0.006826; 0.020612;,
      -0.012068;-0.007191; 0.021909;,
       0.012018;-0.004803; 0.011490;,
       0.012018;-0.007962; 0.020612;,
       0.012018;-0.006826; 0.020612;,
       0.012018;-0.003667; 0.011490;,
      -0.012646;-0.004272; 0.009957;,
      -0.011492;-0.004506; 0.008780;,
      -0.011492;-0.003371; 0.008780;,
      -0.012646;-0.003136; 0.009957;,
       0.004603;-0.008921; 0.025920;,
       0.002262;-0.008941; 0.026250;,
       0.002262;-0.007805; 0.026250;,
       0.004603;-0.007785; 0.025920;,
      -0.011492;-0.004506; 0.008780;,
      -0.009928;-0.004592; 0.008360;,
      -0.009928;-0.003456; 0.008360;,
      -0.011492;-0.003371; 0.008780;,
       0.002262;-0.008941; 0.026250;,
      -0.003302;-0.008941; 0.026250;,
      -0.003302;-0.007805; 0.026250;,
       0.002262;-0.007805; 0.026250;,
       0.014828;-0.021877;-0.000157;,
      -0.015868;-0.021877;-0.000157;,
      -0.015868;-0.021877; 0.007726;,
       0.014828;-0.021877; 0.007726;,
      -0.015868; 0.012434;-0.000157;,
      -0.015868; 0.025761;-0.000157;,
      -0.015868; 0.025761; 0.007726;,
      -0.015868; 0.012434; 0.007726;,
      -0.015868; 0.025761;-0.000157;,
       0.014828; 0.025761;-0.000157;,
       0.014828; 0.025761; 0.007726;,
      -0.015868; 0.025761; 0.007726;,
       0.014828; 0.012434;-0.000157;,
       0.014828;-0.021877;-0.000157;,
       0.014828;-0.021877; 0.007726;,
       0.014828; 0.012434; 0.007726;,
      -0.015868; 0.012434;-0.000157;,
       0.014828; 0.012434;-0.000157;,
       0.014828; 0.025761;-0.000157;,
      -0.015868; 0.025761;-0.000157;,
      -0.015868; 0.025761; 0.007726;,
       0.014828; 0.025761; 0.007726;,
       0.014828; 0.012434; 0.007726;,
      -0.015868; 0.012434; 0.007726;,
      -0.015868;-0.021877;-0.000157;,
       0.014828;-0.021877;-0.000157;,
       0.014828; 0.012434;-0.000157;,
      -0.015868; 0.012434;-0.000157;,
       0.014828; 0.025761;-0.000157;,
       0.014828; 0.012434;-0.000157;,
       0.014828; 0.012434; 0.007726;,
       0.014828; 0.025761; 0.007726;,
      -0.015868;-0.021877;-0.000157;,
      -0.015868; 0.012434;-0.000157;,
      -0.015868; 0.012434; 0.007726;,
      -0.015868;-0.021877; 0.007726;,
      -0.007265; 0.000036; 0.029645;,
      -0.000520; 0.000036; 0.030762;,
      -0.000520;-0.018462; 0.030762;,
      -0.007265;-0.018462; 0.029645;,
      -0.010418; 0.000738; 0.023540;,
      -0.014716; 0.000388; 0.025399;,
      -0.015868; 0.000741; 0.023508;,
       0.013676;-0.018377; 0.025399;,
       0.014828;-0.018292; 0.023508;,
       0.009378;-0.018292; 0.023540;,
       0.014828; 0.008425; 0.013795;,
       0.014828; 0.003822; 0.019308;,
       0.012018; 0.003822; 0.019308;,
       0.012018; 0.008425; 0.013795;,
       0.014828;-0.019908; 0.013752;,
       0.014828;-0.019013; 0.019308;,
       0.014828; 0.003822; 0.019308;,
       0.014828; 0.008425; 0.013795;,
      -0.015868; 0.008425; 0.013795;,
      -0.015868; 0.003822; 0.019308;,
      -0.015868;-0.019013; 0.019308;,
      -0.015868;-0.019908; 0.013752;,
      -0.015868;-0.019908; 0.013752;,
      -0.015868;-0.019013; 0.019308;,
      -0.013057;-0.019013; 0.019308;,
      -0.013057;-0.019908; 0.013752;,
      -0.015868;-0.020785; 0.010395;,
      -0.013057;-0.020499; 0.011490;,
      -0.012638;-0.020977; 0.009925;,
      -0.015868; 0.012434; 0.010051;,
      -0.015868; 0.008425; 0.013795;,
      -0.015868;-0.019908; 0.013752;,
      -0.015868;-0.020785; 0.010395;,
       0.014828;-0.020785; 0.010395;,
       0.014828;-0.019908; 0.013752;,
       0.014828; 0.008425; 0.013795;,
       0.014828; 0.012434; 0.010051;,
       0.014828; 0.012434; 0.010051;,
       0.014828; 0.008425; 0.013795;,
       0.012018; 0.008425; 0.013795;,
       0.012018; 0.010893; 0.011490;,
       0.011615; 0.012434; 0.009988;,
      -0.015868; 0.012434; 0.007726;,
      -0.011492; 0.012434; 0.008780;,
      -0.012655; 0.012434; 0.009988;,
      -0.015868; 0.012434; 0.010051;,
       0.014828;-0.021877; 0.007726;,
       0.014828;-0.020785; 0.010395;,
       0.014828; 0.012434; 0.010051;,
       0.014828; 0.012434; 0.007726;,
      -0.015868; 0.012434; 0.007726;,
      -0.015868; 0.012434; 0.010051;,
      -0.015868;-0.020785; 0.010395;,
      -0.015868;-0.021877; 0.007726;,
       0.014828;-0.021877; 0.007726;,
       0.011598;-0.020977; 0.009925;,
       0.014828;-0.020785; 0.010395;,
       0.014828; 0.003822; 0.019308;,
       0.014828; 0.002883; 0.020587;,
       0.012018; 0.002866; 0.020612;,
       0.012018; 0.003822; 0.019308;,
       0.014828;-0.019013; 0.019308;,
       0.014828;-0.018566; 0.021909;,
       0.014828; 0.001914; 0.021909;,
       0.014828; 0.002883; 0.020587;,
       0.014828; 0.003822; 0.019308;,
      -0.015868; 0.003822; 0.019308;,
      -0.015868; 0.002866; 0.020612;,
      -0.015868;-0.018789; 0.020612;,
      -0.015868;-0.019013; 0.019308;,
      -0.015868;-0.019013; 0.019308;,
      -0.015868;-0.018789; 0.020612;,
      -0.013057;-0.018789; 0.020612;,
      -0.013057;-0.019013; 0.019308;,
       0.006225; 0.000036; 0.029645;,
       0.010527; 0.000130; 0.027796;,
       0.010527;-0.018439; 0.027796;,
       0.006225;-0.018462; 0.029645;,
       0.010527; 0.000130; 0.027796;,
       0.013676; 0.000388; 0.025399;,
       0.013676;-0.018377; 0.025399;,
       0.010527;-0.018439; 0.027796;,
       0.013676; 0.000388; 0.025399;,
       0.014828; 0.000741; 0.023508;,
       0.014828;-0.018292; 0.023508;,
       0.013676;-0.018377; 0.025399;,
      -0.007265;-0.018462; 0.029645;,
      -0.011567;-0.018439; 0.027796;,
      -0.011567; 0.000130; 0.027796;,
      -0.007265; 0.000036; 0.029645;,
      -0.011567;-0.018439; 0.027796;,
      -0.014716;-0.018377; 0.025399;,
      -0.014716; 0.000388; 0.025399;,
      -0.011567; 0.000130; 0.027796;,
      -0.014716;-0.018377; 0.025399;,
      -0.015868;-0.018292; 0.023508;,
      -0.015868; 0.000741; 0.023508;,
      -0.014716; 0.000388; 0.025399;,
      -0.000520; 0.000036; 0.030762;,
       0.006225; 0.000036; 0.029645;,
       0.006225;-0.018462; 0.029645;,
      -0.000520;-0.018462; 0.030762;,
      -0.013057;-0.020499; 0.011490;,
      -0.013057;-0.019908; 0.013752;,
      -0.013057;-0.019013; 0.019308;,
      -0.013057;-0.018789; 0.020612;,
      -0.013057; 0.002866; 0.020612;,
      -0.013057; 0.003822; 0.019308;,
      -0.013057; 0.008425; 0.013795;,
      -0.013057; 0.010893; 0.011490;,
       0.012018;-0.020499; 0.011490;,
       0.011598;-0.020977; 0.009925;,
       0.011615; 0.012434; 0.009988;,
       0.012018; 0.010893; 0.011490;,
       0.011598;-0.020977; 0.009925;,
       0.010453;-0.021446; 0.008780;,
       0.010453; 0.012434; 0.008780;,
       0.011615; 0.012434; 0.009988;,
       0.008888;-0.021617; 0.008360;,
      -0.009928;-0.021617; 0.008360;,
      -0.009928; 0.012434; 0.008360;,
       0.008888; 0.012434; 0.008360;,
      -0.013057; 0.010893; 0.011490;,
      -0.012655; 0.012434; 0.009988;,
      -0.012638;-0.020977; 0.009925;,
      -0.013057;-0.020499; 0.011490;,
       0.010453;-0.021446; 0.008780;,
       0.008888;-0.021617; 0.008360;,
       0.008888; 0.012434; 0.008360;,
       0.010453; 0.012434; 0.008780;,
       0.011028;-0.018566; 0.021909;,
       0.012018;-0.018789; 0.020612;,
       0.012018; 0.002866; 0.020612;,
       0.011028; 0.001914; 0.021909;,
      -0.008130;-0.018326; 0.024979;,
      -0.005643;-0.018348; 0.025920;,
      -0.005643; 0.000507; 0.025920;,
      -0.008130; 0.000598; 0.024979;,
      -0.005643;-0.018348; 0.025920;,
      -0.003302;-0.018356; 0.026250;,
      -0.003302; 0.000474; 0.026250;,
      -0.005643; 0.000507; 0.025920;,
      -0.012068;-0.018566; 0.021909;,
      -0.010418;-0.018292; 0.023540;,
      -0.010418; 0.000738; 0.023540;,
      -0.012068; 0.001914; 0.021909;,
       0.002262; 0.000474; 0.026250;,
      -0.003302; 0.000474; 0.026250;,
      -0.003302;-0.018356; 0.026250;,
       0.002262;-0.018356; 0.026250;,
       0.004603; 0.000507; 0.025920;,
       0.002262; 0.000474; 0.026250;,
       0.002262;-0.018356; 0.026250;,
       0.004603;-0.018348; 0.025920;,
      -0.012068; 0.001914; 0.021909;,
      -0.013057; 0.002866; 0.020612;,
      -0.013057;-0.018789; 0.020612;,
      -0.012068;-0.018566; 0.021909;,
       0.012018; 0.010893; 0.011490;,
       0.012018; 0.008425; 0.013795;,
       0.012018; 0.003822; 0.019308;,
       0.012018; 0.002866; 0.020612;,
       0.012018;-0.018789; 0.020612;,
       0.012018;-0.019013; 0.019308;,
       0.012018;-0.019908; 0.013752;,
       0.012018;-0.020499; 0.011490;,
      -0.011492; 0.012434; 0.008780;,
      -0.009928; 0.012434; 0.008360;,
      -0.009928;-0.021617; 0.008360;,
      -0.011492;-0.021446; 0.008780;,
      -0.010418; 0.000738; 0.023540;,
      -0.015868; 0.000741; 0.023508;,
      -0.015868; 0.001914; 0.021909;,
      -0.012068; 0.001914; 0.021909;,
      -0.012655; 0.012434; 0.009988;,
      -0.011492; 0.012434; 0.008780;,
      -0.011492;-0.021446; 0.008780;,
      -0.012638;-0.020977; 0.009925;,
       0.009378;-0.018292; 0.023540;,
       0.014828;-0.018292; 0.023508;,
       0.014828;-0.018566; 0.021909;,
       0.011028;-0.018566; 0.021909;,
       0.009378; 0.000738; 0.023540;,
       0.007091; 0.000598; 0.024979;,
       0.007091;-0.018326; 0.024979;,
       0.009378;-0.018292; 0.023540;,
      -0.010418;-0.018292; 0.023540;,
      -0.008130;-0.018326; 0.024979;,
      -0.008130; 0.000598; 0.024979;,
      -0.010418; 0.000738; 0.023540;,
       0.012018;-0.020499; 0.011490;,
       0.014828;-0.020785; 0.010395;,
       0.011598;-0.020977; 0.009925;,
       0.012018;-0.019013; 0.019308;,
       0.014828;-0.019013; 0.019308;,
       0.014828;-0.019908; 0.013752;,
       0.012018;-0.019908; 0.013752;,
      -0.013057; 0.008425; 0.013795;,
      -0.015868; 0.008425; 0.013795;,
      -0.015868; 0.012434; 0.010051;,
      -0.012655; 0.012434; 0.009988;,
      -0.013057; 0.010893; 0.011490;,
       0.011028; 0.001914; 0.021909;,
       0.009378; 0.000738; 0.023540;,
       0.009378;-0.018292; 0.023540;,
       0.011028;-0.018566; 0.021909;,
      -0.013057; 0.003822; 0.019308;,
      -0.015868; 0.003822; 0.019308;,
      -0.015868; 0.008425; 0.013795;,
      -0.013057; 0.008425; 0.013795;,
       0.014828; 0.002883; 0.020587;,
       0.014828; 0.001914; 0.021909;,
       0.011028; 0.001914; 0.021909;,
       0.012018; 0.002866; 0.020612;,
       0.014828; 0.000741; 0.023508;,
       0.013676; 0.000388; 0.025399;,
       0.009378; 0.000738; 0.023540;,
       0.014828;-0.018566; 0.021909;,
       0.014828;-0.018292; 0.023508;,
       0.014828; 0.000741; 0.023508;,
       0.014828; 0.001914; 0.021909;,
       0.014828;-0.018566; 0.021909;,
       0.014828;-0.019013; 0.019308;,
       0.012018;-0.019013; 0.019308;,
       0.012018;-0.018789; 0.020612;,
       0.011028;-0.018566; 0.021909;,
       0.014828; 0.001914; 0.021909;,
       0.014828; 0.000741; 0.023508;,
       0.009378; 0.000738; 0.023540;,
       0.011028; 0.001914; 0.021909;,
      -0.015868; 0.001914; 0.021909;,
      -0.015868; 0.000741; 0.023508;,
      -0.015868;-0.018292; 0.023508;,
      -0.015868;-0.018566; 0.021909;,
      -0.015868;-0.018566; 0.021909;,
      -0.015868;-0.018292; 0.023508;,
      -0.010418;-0.018292; 0.023540;,
      -0.012068;-0.018566; 0.021909;,
      -0.015868; 0.001914; 0.021909;,
      -0.015868; 0.002866; 0.020612;,
      -0.013057; 0.002866; 0.020612;,
      -0.012068; 0.001914; 0.021909;,
      -0.015868; 0.002866; 0.020612;,
      -0.015868; 0.001914; 0.021909;,
      -0.015868;-0.018566; 0.021909;,
      -0.015868;-0.018789; 0.020612;,
      -0.015868;-0.018789; 0.020612;,
      -0.015868;-0.018566; 0.021909;,
      -0.012068;-0.018566; 0.021909;,
      -0.013057;-0.018789; 0.020612;,
      -0.015868; 0.002866; 0.020612;,
      -0.015868; 0.003822; 0.019308;,
      -0.013057; 0.003822; 0.019308;,
      -0.013057; 0.002866; 0.020612;,
       0.009378; 0.000738; 0.023540;,
       0.013676; 0.000388; 0.025399;,
       0.010527; 0.000130; 0.027796;,
       0.007091; 0.000598; 0.024979;,
       0.007091; 0.000598; 0.024979;,
       0.010527; 0.000130; 0.027796;,
       0.006225; 0.000036; 0.029645;,
       0.004603; 0.000507; 0.025920;,
       0.004603; 0.000507; 0.025920;,
       0.006225; 0.000036; 0.029645;,
      -0.000520; 0.000036; 0.030762;,
       0.002262; 0.000474; 0.026250;,
       0.002262; 0.000474; 0.026250;,
      -0.000520; 0.000036; 0.030762;,
      -0.003302; 0.000474; 0.026250;,
      -0.003302; 0.000474; 0.026250;,
      -0.000520; 0.000036; 0.030762;,
      -0.007265; 0.000036; 0.029645;,
      -0.005643; 0.000507; 0.025920;,
      -0.005643; 0.000507; 0.025920;,
      -0.007265; 0.000036; 0.029645;,
      -0.011567; 0.000130; 0.027796;,
      -0.008130; 0.000598; 0.024979;,
      -0.008130; 0.000598; 0.024979;,
      -0.011567; 0.000130; 0.027796;,
      -0.010418; 0.000738; 0.023540;,
      -0.011567; 0.000130; 0.027796;,
      -0.014716; 0.000388; 0.025399;,
      -0.010418; 0.000738; 0.023540;,
       0.010527;-0.018439; 0.027796;,
       0.013676;-0.018377; 0.025399;,
       0.009378;-0.018292; 0.023540;,
       0.007091;-0.018326; 0.024979;,
       0.006225;-0.018462; 0.029645;,
       0.010527;-0.018439; 0.027796;,
       0.007091;-0.018326; 0.024979;,
       0.004603;-0.018348; 0.025920;,
      -0.000520;-0.018462; 0.030762;,
       0.006225;-0.018462; 0.029645;,
       0.004603;-0.018348; 0.025920;,
       0.002262;-0.018356; 0.026250;,
      -0.000520;-0.018462; 0.030762;,
       0.002262;-0.018356; 0.026250;,
      -0.003302;-0.018356; 0.026250;,
      -0.007265;-0.018462; 0.029645;,
      -0.000520;-0.018462; 0.030762;,
      -0.003302;-0.018356; 0.026250;,
      -0.005643;-0.018348; 0.025920;,
      -0.011567;-0.018439; 0.027796;,
      -0.007265;-0.018462; 0.029645;,
      -0.005643;-0.018348; 0.025920;,
      -0.008130;-0.018326; 0.024979;,
      -0.010418;-0.018292; 0.023540;,
      -0.014716;-0.018377; 0.025399;,
      -0.011567;-0.018439; 0.027796;,
      -0.008130;-0.018326; 0.024979;,
      -0.015868;-0.018292; 0.023508;,
      -0.014716;-0.018377; 0.025399;,
      -0.010418;-0.018292; 0.023540;,
       0.014828;-0.021877; 0.007726;,
       0.008888;-0.021617; 0.008360;,
       0.010453;-0.021446; 0.008780;,
       0.010453;-0.021446; 0.008780;,
       0.011598;-0.020977; 0.009925;,
       0.014828;-0.021877; 0.007726;,
      -0.015868;-0.021877; 0.007726;,
      -0.009928;-0.021617; 0.008360;,
       0.008888;-0.021617; 0.008360;,
       0.014828;-0.021877; 0.007726;,
      -0.015868;-0.021877; 0.007726;,
      -0.011492;-0.021446; 0.008780;,
      -0.009928;-0.021617; 0.008360;,
      -0.015868;-0.021877; 0.007726;,
      -0.012638;-0.020977; 0.009925;,
      -0.011492;-0.021446; 0.008780;,
      -0.015868;-0.020785; 0.010395;,
      -0.012638;-0.020977; 0.009925;,
      -0.015868;-0.021877; 0.007726;,
      -0.015868;-0.019908; 0.013752;,
      -0.013057;-0.019908; 0.013752;,
      -0.013057;-0.020499; 0.011490;,
      -0.015868;-0.020785; 0.010395;,
       0.012018;-0.019908; 0.013752;,
       0.014828;-0.019908; 0.013752;,
       0.014828;-0.020785; 0.010395;,
       0.012018;-0.020499; 0.011490;,
       0.014828; 0.012434; 0.010051;,
       0.011615; 0.012434; 0.009988;,
       0.010453; 0.012434; 0.008780;,
       0.014828; 0.012434; 0.007726;,
       0.010453; 0.012434; 0.008780;,
       0.008888; 0.012434; 0.008360;,
       0.014828; 0.012434; 0.007726;,
       0.014828; 0.012434; 0.007726;,
       0.008888; 0.012434; 0.008360;,
      -0.009928; 0.012434; 0.008360;,
      -0.015868; 0.012434; 0.007726;,
      -0.009928; 0.012434; 0.008360;,
      -0.011492; 0.012434; 0.008780;,
      -0.015868; 0.012434; 0.007726;,
       0.007091; 0.000598; 0.024979;,
       0.004603; 0.000507; 0.025920;,
       0.004603;-0.018348; 0.025920;,
       0.007091;-0.018326; 0.024979;;
      122;
      20;19,18,17,16,15,14,13,12,11,10,9,8,7,6,5,4,3,2,1,0;,
      20;39,38,37,36,35,34,33,32,31,30,29,28,27,26,25,24,23,22,21,20;,
      4;43,42,41,40;,
      4;47,46,45,44;,
      4;51,50,49,48;,
      4;55,54,53,52;,
      4;59,58,57,56;,
      4;63,62,61,60;,
      4;67,66,65,64;,
      4;71,70,69,68;,
      4;75,74,73,72;,
      4;79,78,77,76;,
      4;83,82,81,80;,
      4;87,86,85,84;,
      4;91,90,89,88;,
      4;95,94,93,92;,
      4;99,98,97,96;,
      4;103,102,101,100;,
      4;107,106,105,104;,
      4;111,110,109,108;,
      4;115,114,113,112;,
      4;119,118,117,116;,
      4;123,122,121,120;,
      4;127,126,125,124;,
      4;131,130,129,128;,
      4;135,134,133,132;,
      4;139,138,137,136;,
      4;143,142,141,140;,
      4;147,146,145,144;,
      4;151,150,149,148;,
      4;155,154,153,152;,
      4;159,158,157,156;,
      3;162,161,160;,
      3;165,164,163;,
      4;169,168,167,166;,
      4;173,172,171,170;,
      4;177,176,175,174;,
      4;181,180,179,178;,
      3;184,183,182;,
      4;188,187,186,185;,
      4;192,191,190,189;,
      5;197,196,195,194,193;,
      4;201,200,199,198;,
      4;205,204,203,202;,
      4;209,208,207,206;,
      3;212,211,210;,
      4;216,215,214,213;,
      5;221,220,219,218,217;,
      4;225,224,223,222;,
      4;229,228,227,226;,
      4;233,232,231,230;,
      4;237,236,235,234;,
      4;241,240,239,238;,
      4;245,244,243,242;,
      4;249,248,247,246;,
      4;253,252,251,250;,
      4;257,256,255,254;,
      8;265,264,263,262,261,260,259,258;,
      4;269,268,267,266;,
      4;273,272,271,270;,
      4;277,276,275,274;,
      4;281,280,279,278;,
      4;285,284,283,282;,
      4;289,288,287,286;,
      4;293,292,291,290;,
      4;297,296,295,294;,
      4;301,300,299,298;,
      4;305,304,303,302;,
      4;309,308,307,306;,
      4;313,312,311,310;,
      8;321,320,319,318,317,316,315,314;,
      4;325,324,323,322;,
      4;329,328,327,326;,
      4;333,332,331,330;,
      4;337,336,335,334;,
      4;341,340,339,338;,
      4;345,344,343,342;,
      3;348,347,346;,
      4;352,351,350,349;,
      5;357,356,355,354,353;,
      4;361,360,359,358;,
      4;365,364,363,362;,
      4;369,368,367,366;,
      3;372,371,370;,
      4;376,375,374,373;,
      5;381,380,379,378,377;,
      4;385,384,383,382;,
      4;389,388,387,386;,
      4;393,392,391,390;,
      4;397,396,395,394;,
      4;401,400,399,398;,
      4;405,404,403,402;,
      4;409,408,407,406;,
      4;413,412,411,410;,
      4;417,416,415,414;,
      4;421,420,419,418;,
      3;424,423,422;,
      4;428,427,426,425;,
      4;432,431,430,429;,
      3;435,434,433;,
      3;438,437,436;,
      4;442,441,440,439;,
      4;446,445,444,443;,
      4;450,449,448,447;,
      3;453,452,451;,
      4;457,456,455,454;,
      4;461,460,459,458;,
      4;465,464,463,462;,
      3;468,467,466;,
      3;471,470,469;,
      3;474,473,472;,
      4;478,477,476,475;,
      3;481,480,479;,
      3;484,483,482;,
      3;487,486,485;,
      4;491,490,489,488;,
      4;495,494,493,492;,
      4;499,498,497,496;,
      3;502,501,500;,
      4;506,505,504,503;,
      3;509,508,507;,
      4;513,512,511,510;;
      MeshNormals {
        514;
        -0.493166; 0.752185;-0.437042;,
        -0.586885; 0.737279;-0.334642;,
        -0.733183; 0.668284;-0.125853;,
        -0.720702; 0.649106; 0.243414;,
        -0.677722; 0.527695; 0.512085;,
        -0.332323; 0.580939; 0.743016;,
        -0.083827; 0.592803; 0.800973;,
         0.083878; 0.592792; 0.800976;,
         0.332368; 0.580951; 0.742985;,
         0.677722; 0.527695; 0.512085;,
         0.720702; 0.649106; 0.243414;,
         0.733216; 0.668292;-0.125619;,
         0.587015; 0.737216;-0.334552;,
         0.493114; 0.752176;-0.437116;,
         0.366504; 0.754762;-0.544067;,
         0.207149; 0.761486;-0.614190;,
         0.058132; 0.774363;-0.630066;,
        -0.058132; 0.774363;-0.630066;,
        -0.207092; 0.761502;-0.614188;,
        -0.366540; 0.754724;-0.544096;,
        -0.431961;-0.583410;-0.687781;,
        -0.294631;-0.598320;-0.745121;,
        -0.163580;-0.591753;-0.789348;,
        -0.045367;-0.597850;-0.800323;,
         0.045367;-0.597850;-0.800323;,
         0.163626;-0.591741;-0.789347;,
         0.294596;-0.598351;-0.745110;,
         0.431918;-0.583390;-0.687824;,
         0.508796;-0.617675;-0.599670;,
         0.725483;-0.590873;-0.352907;,
         0.737193;-0.673281;-0.056917;,
         0.668178;-0.713091; 0.212225;,
         0.448184;-0.698788; 0.557519;,
         0.113512;-0.750111; 0.651498;,
        -0.113439;-0.750136; 0.651481;,
        -0.448138;-0.698771; 0.557577;,
        -0.668178;-0.713091; 0.212225;,
        -0.737193;-0.673281;-0.056917;,
        -0.725464;-0.590812;-0.353048;,
        -0.508622;-0.617716;-0.599776;,
        -0.083827; 0.592803; 0.800973;,
        -0.332323; 0.580939; 0.743016;,
        -0.448138;-0.698771; 0.557577;,
        -0.113439;-0.750136; 0.651481;,
         0.493114; 0.752176;-0.437116;,
         0.587015; 0.737216;-0.334552;,
         0.508796;-0.617675;-0.599670;,
         0.431918;-0.583390;-0.687824;,
        -0.366540; 0.754724;-0.544096;,
        -0.207092; 0.761502;-0.614188;,
        -0.163580;-0.591753;-0.789348;,
        -0.294631;-0.598320;-0.745121;,
         0.720702; 0.649106; 0.243414;,
         0.677722; 0.527695; 0.512085;,
         0.668178;-0.713091; 0.212225;,
         0.737193;-0.673281;-0.056917;,
         0.058132; 0.774363;-0.630066;,
         0.207149; 0.761486;-0.614190;,
         0.163626;-0.591741;-0.789347;,
         0.045367;-0.597850;-0.800323;,
        -0.586885; 0.737279;-0.334642;,
        -0.493166; 0.752185;-0.437042;,
        -0.431961;-0.583410;-0.687781;,
        -0.508622;-0.617716;-0.599776;,
         0.083878; 0.592792; 0.800976;,
        -0.083827; 0.592803; 0.800973;,
        -0.113439;-0.750136; 0.651481;,
         0.113512;-0.750111; 0.651498;,
         0.207149; 0.761486;-0.614190;,
         0.366504; 0.754762;-0.544067;,
         0.294596;-0.598351;-0.745110;,
         0.163626;-0.591741;-0.789347;,
         0.366504; 0.754762;-0.544067;,
         0.493114; 0.752176;-0.437116;,
         0.431918;-0.583390;-0.687824;,
         0.294596;-0.598351;-0.745110;,
        -0.332323; 0.580939; 0.743016;,
        -0.677722; 0.527695; 0.512085;,
        -0.668178;-0.713091; 0.212225;,
        -0.448138;-0.698771; 0.557577;,
        -0.733183; 0.668284;-0.125853;,
        -0.586885; 0.737279;-0.334642;,
        -0.508622;-0.617716;-0.599776;,
        -0.725464;-0.590812;-0.353048;,
        -0.493166; 0.752185;-0.437042;,
        -0.366540; 0.754724;-0.544096;,
        -0.294631;-0.598320;-0.745121;,
        -0.431961;-0.583410;-0.687781;,
         0.733216; 0.668292;-0.125619;,
         0.720702; 0.649106; 0.243414;,
         0.737193;-0.673281;-0.056917;,
         0.725483;-0.590873;-0.352907;,
        -0.677722; 0.527695; 0.512085;,
        -0.720702; 0.649106; 0.243414;,
        -0.737193;-0.673281;-0.056917;,
        -0.668178;-0.713091; 0.212225;,
         0.587015; 0.737216;-0.334552;,
         0.733216; 0.668292;-0.125619;,
         0.725483;-0.590873;-0.352907;,
         0.508796;-0.617675;-0.599670;,
        -0.720702; 0.649106; 0.243414;,
        -0.733183; 0.668284;-0.125853;,
        -0.725464;-0.590812;-0.353048;,
        -0.737193;-0.673281;-0.056917;,
         0.677722; 0.527695; 0.512085;,
         0.332368; 0.580951; 0.742985;,
         0.448184;-0.698788; 0.557519;,
         0.668178;-0.713091; 0.212225;,
        -0.207092; 0.761502;-0.614188;,
        -0.058132; 0.774363;-0.630066;,
        -0.045367;-0.597850;-0.800323;,
        -0.163580;-0.591753;-0.789348;,
         0.332368; 0.580951; 0.742985;,
         0.083878; 0.592792; 0.800976;,
         0.113512;-0.750111; 0.651498;,
         0.448184;-0.698788; 0.557519;,
        -0.058132; 0.774363;-0.630066;,
         0.058132; 0.774363;-0.630066;,
         0.045367;-0.597850;-0.800323;,
        -0.045367;-0.597850;-0.800323;,
        -0.577350; 0.577350; 0.577350;,
         0.577350; 0.577350; 0.577350;,
         0.666137; 0.731809;-0.143932;,
        -0.666137; 0.731809;-0.143932;,
         0.707107;-0.000000; 0.707107;,
         0.577350;-0.577350; 0.577350;,
         0.577350;-0.577350;-0.577350;,
         0.904534;-0.301511;-0.301511;,
         0.577350;-0.577350; 0.577350;,
        -0.577350;-0.577350; 0.577350;,
        -0.577350;-0.577350;-0.577350;,
         0.577350;-0.577350;-0.577350;,
        -0.707107;-0.000000; 0.707107;,
        -0.577350; 0.577350; 0.577350;,
        -0.666137; 0.731809;-0.143932;,
        -0.904534;-0.301511;-0.301511;,
         0.707107;-0.000000; 0.707107;,
        -0.707107;-0.000000; 0.707107;,
        -0.577350;-0.577350; 0.577350;,
         0.577350;-0.577350; 0.577350;,
         0.577350;-0.577350;-0.577350;,
        -0.577350;-0.577350;-0.577350;,
        -0.904534;-0.301511;-0.301511;,
         0.904534;-0.301511;-0.301511;,
         0.577350; 0.577350; 0.577350;,
        -0.577350; 0.577350; 0.577350;,
        -0.707107;-0.000000; 0.707107;,
         0.707107;-0.000000; 0.707107;,
        -0.577350;-0.577350; 0.577350;,
        -0.707107;-0.000000; 0.707107;,
        -0.904534;-0.301511;-0.301511;,
        -0.577350;-0.577350;-0.577350;,
         0.577350; 0.577350; 0.577350;,
         0.707107;-0.000000; 0.707107;,
         0.904534;-0.301511;-0.301511;,
         0.666137; 0.731809;-0.143932;,
         0.208282;-0.636905;-0.742274;,
         0.000000;-0.635897;-0.771774;,
         0.000000; 0.680679;-0.732582;,
         0.205412; 0.691283;-0.692772;,
        -0.503928;-0.751684; 0.425475;,
         0.542744;-0.612705;-0.574475;,
         0.757901;-0.506595;-0.411032;,
        -0.556051; 0.679572;-0.478528;,
        -0.746167; 0.615896;-0.252797;,
         0.438664; 0.720464; 0.537127;,
        -0.720755;-0.504550;-0.475334;,
        -0.714230;-0.551067;-0.431509;,
         0.700042;-0.562240;-0.440258;,
         0.693971;-0.524066;-0.493720;,
        -0.718049; 0.681044;-0.143473;,
        -0.705932; 0.698665;-0.116307;,
        -0.714230;-0.551067;-0.431509;,
        -0.720755;-0.504550;-0.475334;,
         0.720755;-0.504550;-0.475333;,
         0.714273;-0.551105;-0.431391;,
         0.705938; 0.698664;-0.116277;,
         0.718049; 0.681044;-0.143473;,
         0.718049; 0.681044;-0.143473;,
         0.705938; 0.698664;-0.116277;,
        -0.705938; 0.698664;-0.116277;,
        -0.696479; 0.702165;-0.147922;,
         0.723199; 0.655204;-0.218382;,
        -0.656243; 0.694405;-0.295207;,
        -0.494221; 0.661537;-0.564016;,
         0.627083;-0.713680;-0.312135;,
         0.720755;-0.504550;-0.475333;,
         0.718049; 0.681044;-0.143473;,
         0.723199; 0.655204;-0.218382;,
        -0.723199; 0.655204;-0.218382;,
        -0.718049; 0.681044;-0.143473;,
        -0.720755;-0.504550;-0.475334;,
        -0.627083;-0.713680;-0.312135;,
        -0.627083;-0.713680;-0.312135;,
        -0.720755;-0.504550;-0.475334;,
         0.693971;-0.524066;-0.493720;,
         0.662843;-0.442935;-0.603695;,
         0.425289;-0.741937;-0.518323;,
         0.904534;-0.301511;-0.301511;,
        -0.320452;-0.772139;-0.548737;,
        -0.425141;-0.742014;-0.518335;,
         0.627083;-0.713680;-0.312135;,
        -0.666137; 0.731809;-0.143932;,
        -0.723199; 0.655204;-0.218382;,
        -0.627083;-0.713680;-0.312135;,
        -0.904534;-0.301511;-0.301511;,
         0.904534;-0.301511;-0.301511;,
         0.627083;-0.713680;-0.312135;,
         0.723199; 0.655204;-0.218382;,
         0.666137; 0.731809;-0.143932;,
        -0.666137; 0.731809;-0.143932;,
         0.494357; 0.661407;-0.564049;,
        -0.723199; 0.655204;-0.218382;,
        -0.714230;-0.551067;-0.431509;,
        -0.707102;-0.570146;-0.418259;,
         0.670108;-0.658237;-0.343044;,
         0.700042;-0.562240;-0.440258;,
        -0.705932; 0.698665;-0.116307;,
        -0.707267; 0.696842;-0.119098;,
        -0.707405;-0.570619;-0.417100;,
        -0.707102;-0.570146;-0.418259;,
        -0.714230;-0.551067;-0.431509;,
         0.714273;-0.551105;-0.431391;,
         0.707043;-0.570203;-0.418279;,
         0.707090; 0.696907;-0.119769;,
         0.705938; 0.698664;-0.116277;,
         0.705938; 0.698664;-0.116277;,
         0.707090; 0.696907;-0.119769;,
        -0.610549; 0.790494; 0.048463;,
        -0.705938; 0.698664;-0.116277;,
        -0.208281;-0.636904;-0.742275;,
        -0.367569;-0.630932;-0.683241;,
        -0.369972; 0.692108;-0.619764;,
        -0.205412; 0.691284;-0.692772;,
        -0.367569;-0.630932;-0.683241;,
        -0.542919;-0.612654;-0.574364;,
        -0.556051; 0.679572;-0.478528;,
        -0.369972; 0.692108;-0.619764;,
        -0.542919;-0.612654;-0.574364;,
        -0.757901;-0.506595;-0.411032;,
        -0.746167; 0.615896;-0.252797;,
        -0.556051; 0.679572;-0.478528;,
         0.205412; 0.691283;-0.692772;,
         0.369972; 0.692108;-0.619764;,
         0.367510;-0.630939;-0.683266;,
         0.208282;-0.636905;-0.742274;,
         0.369972; 0.692108;-0.619764;,
         0.556052; 0.679572;-0.478528;,
         0.542744;-0.612705;-0.574475;,
         0.367510;-0.630939;-0.683266;,
         0.556052; 0.679572;-0.478528;,
         0.746167; 0.615896;-0.252797;,
         0.757901;-0.506595;-0.411032;,
         0.542744;-0.612705;-0.574475;,
         0.000000;-0.635897;-0.771774;,
        -0.208281;-0.636904;-0.742275;,
        -0.205412; 0.691284;-0.692772;,
         0.000000; 0.680679;-0.732582;,
        -0.656243; 0.694405;-0.295207;,
        -0.696479; 0.702165;-0.147922;,
        -0.705938; 0.698664;-0.116277;,
        -0.610549; 0.790494; 0.048463;,
        -0.670233;-0.658090;-0.343081;,
        -0.700079;-0.562285;-0.440143;,
        -0.693971;-0.524066;-0.493720;,
        -0.662969;-0.443021;-0.603494;,
         0.656097; 0.694446;-0.295435;,
         0.494357; 0.661407;-0.564049;,
         0.425289;-0.741937;-0.518323;,
         0.662843;-0.442935;-0.603695;,
         0.494357; 0.661407;-0.564049;,
         0.252552; 0.635702;-0.729452;,
         0.320481;-0.772214;-0.548613;,
         0.425289;-0.741937;-0.518323;,
         0.071127; 0.592997;-0.802057;,
        -0.071165; 0.593020;-0.802037;,
        -0.088296;-0.737766;-0.669257;,
         0.088245;-0.737747;-0.669285;,
        -0.662969;-0.443021;-0.603494;,
        -0.425141;-0.742014;-0.518335;,
        -0.494221; 0.661537;-0.564016;,
        -0.656243; 0.694405;-0.295207;,
         0.252552; 0.635702;-0.729452;,
         0.071127; 0.592997;-0.802057;,
         0.088245;-0.737747;-0.669285;,
         0.320481;-0.772214;-0.548613;,
         0.553915; 0.753722; 0.353669;,
         0.755214; 0.644887; 0.117355;,
         0.670108;-0.658237;-0.343044;,
         0.677188;-0.734994; 0.034656;,
        -0.303231; 0.719471; 0.624830;,
        -0.169384; 0.722799; 0.669978;,
        -0.167174;-0.772545; 0.612558;,
        -0.309294;-0.772047; 0.555230;,
        -0.169384; 0.722799; 0.669978;,
        -0.049322; 0.714064; 0.698341;,
        -0.044022;-0.759453; 0.649071;,
        -0.167174;-0.772545; 0.612558;,
        -0.553995; 0.753763; 0.353456;,
        -0.438595; 0.720488; 0.537151;,
        -0.503928;-0.751684; 0.425475;,
        -0.677306;-0.734901; 0.034312;,
         0.044022;-0.759453; 0.649071;,
        -0.044022;-0.759453; 0.649071;,
        -0.049322; 0.714064; 0.698341;,
         0.049322; 0.714064; 0.698341;,
         0.167131;-0.772530; 0.612588;,
         0.044022;-0.759453; 0.649071;,
         0.049322; 0.714064; 0.698341;,
         0.169345; 0.722783; 0.670005;,
        -0.677306;-0.734901; 0.034312;,
        -0.670233;-0.658090;-0.343081;,
        -0.610549; 0.790494; 0.048463;,
        -0.553995; 0.753763; 0.353456;,
         0.662843;-0.442935;-0.603695;,
         0.693971;-0.524066;-0.493720;,
         0.700042;-0.562240;-0.440258;,
         0.670108;-0.658237;-0.343044;,
         0.755214; 0.644887; 0.117355;,
         0.705935; 0.698662;-0.116306;,
         0.696479; 0.702165;-0.147922;,
         0.656097; 0.694446;-0.295435;,
        -0.320452;-0.772139;-0.548737;,
        -0.088296;-0.737766;-0.669257;,
        -0.071165; 0.593020;-0.802037;,
        -0.252555; 0.635620;-0.729523;,
        -0.503928;-0.751684; 0.425475;,
         0.757901;-0.506595;-0.411032;,
         0.707451;-0.570522;-0.417154;,
        -0.677306;-0.734901; 0.034312;,
        -0.425141;-0.742014;-0.518335;,
        -0.320452;-0.772139;-0.548737;,
        -0.252555; 0.635620;-0.729523;,
        -0.494221; 0.661537;-0.564016;,
         0.438664; 0.720464; 0.537127;,
        -0.746167; 0.615896;-0.252797;,
        -0.707267; 0.696842;-0.119098;,
         0.553915; 0.753722; 0.353669;,
         0.504149;-0.751596; 0.425367;,
         0.309665;-0.772036; 0.555039;,
         0.303231; 0.719510; 0.624785;,
         0.438664; 0.720464; 0.537127;,
        -0.438595; 0.720488; 0.537151;,
        -0.303231; 0.719471; 0.624830;,
        -0.309294;-0.772047; 0.555230;,
        -0.503928;-0.751684; 0.425475;,
         0.656097; 0.694446;-0.295435;,
        -0.723199; 0.655204;-0.218382;,
         0.494357; 0.661407;-0.564049;,
         0.705935; 0.698662;-0.116306;,
        -0.705932; 0.698665;-0.116307;,
        -0.718049; 0.681044;-0.143473;,
         0.696479; 0.702165;-0.147922;,
        -0.693971;-0.524066;-0.493720;,
         0.720755;-0.504550;-0.475333;,
         0.627083;-0.713680;-0.312135;,
        -0.425141;-0.742014;-0.518335;,
        -0.662969;-0.443021;-0.603494;,
         0.677188;-0.734994; 0.034656;,
         0.504149;-0.751596; 0.425367;,
         0.438664; 0.720464; 0.537127;,
         0.553915; 0.753722; 0.353669;,
        -0.700079;-0.562285;-0.440143;,
         0.714273;-0.551105;-0.431391;,
         0.720755;-0.504550;-0.475333;,
        -0.693971;-0.524066;-0.493720;,
        -0.707102;-0.570146;-0.418259;,
        -0.707405;-0.570619;-0.417100;,
         0.677188;-0.734994; 0.034656;,
         0.670108;-0.658237;-0.343044;,
        -0.757901;-0.506595;-0.411032;,
        -0.542919;-0.612654;-0.574364;,
         0.504149;-0.751596; 0.425367;,
        -0.707267; 0.696842;-0.119098;,
        -0.746167; 0.615896;-0.252797;,
        -0.757901;-0.506595;-0.411032;,
        -0.707405;-0.570619;-0.417100;,
        -0.707267; 0.696842;-0.119098;,
        -0.705932; 0.698665;-0.116307;,
         0.705935; 0.698662;-0.116306;,
         0.755214; 0.644887; 0.117355;,
         0.553915; 0.753722; 0.353669;,
        -0.707405;-0.570619;-0.417100;,
        -0.757901;-0.506595;-0.411032;,
         0.504149;-0.751596; 0.425367;,
         0.677188;-0.734994; 0.034656;,
         0.707451;-0.570522;-0.417154;,
         0.757901;-0.506595;-0.411032;,
         0.746167; 0.615896;-0.252797;,
         0.707273; 0.696833;-0.119122;,
         0.707273; 0.696833;-0.119122;,
         0.746167; 0.615896;-0.252797;,
        -0.438595; 0.720488; 0.537151;,
        -0.553995; 0.753763; 0.353456;,
         0.707451;-0.570522;-0.417154;,
         0.707043;-0.570203;-0.418279;,
        -0.670233;-0.658090;-0.343081;,
        -0.677306;-0.734901; 0.034312;,
         0.707043;-0.570203;-0.418279;,
         0.707451;-0.570522;-0.417154;,
         0.707273; 0.696833;-0.119122;,
         0.707090; 0.696907;-0.119769;,
         0.707090; 0.696907;-0.119769;,
         0.707273; 0.696833;-0.119122;,
        -0.553995; 0.753763; 0.353456;,
        -0.610549; 0.790494; 0.048463;,
         0.707043;-0.570203;-0.418279;,
         0.714273;-0.551105;-0.431391;,
        -0.700079;-0.562285;-0.440143;,
        -0.670233;-0.658090;-0.343081;,
         0.504149;-0.751596; 0.425367;,
        -0.542919;-0.612654;-0.574364;,
        -0.367569;-0.630932;-0.683241;,
         0.309665;-0.772036; 0.555039;,
         0.309665;-0.772036; 0.555039;,
        -0.367569;-0.630932;-0.683241;,
        -0.208281;-0.636904;-0.742275;,
         0.167131;-0.772530; 0.612588;,
         0.167131;-0.772530; 0.612588;,
        -0.208281;-0.636904;-0.742275;,
         0.000000;-0.635897;-0.771774;,
         0.044022;-0.759453; 0.649071;,
         0.044022;-0.759453; 0.649071;,
         0.000000;-0.635897;-0.771774;,
        -0.044022;-0.759453; 0.649071;,
        -0.044022;-0.759453; 0.649071;,
         0.000000;-0.635897;-0.771774;,
         0.208282;-0.636905;-0.742274;,
        -0.167174;-0.772545; 0.612558;,
        -0.167174;-0.772545; 0.612558;,
         0.208282;-0.636905;-0.742274;,
         0.367510;-0.630939;-0.683266;,
        -0.309294;-0.772047; 0.555230;,
        -0.309294;-0.772047; 0.555230;,
         0.367510;-0.630939;-0.683266;,
        -0.503928;-0.751684; 0.425475;,
         0.367510;-0.630939;-0.683266;,
         0.542744;-0.612705;-0.574475;,
        -0.503928;-0.751684; 0.425475;,
        -0.369972; 0.692108;-0.619764;,
        -0.556051; 0.679572;-0.478528;,
         0.438664; 0.720464; 0.537127;,
         0.303231; 0.719510; 0.624785;,
        -0.205412; 0.691284;-0.692772;,
        -0.369972; 0.692108;-0.619764;,
         0.303231; 0.719510; 0.624785;,
         0.169345; 0.722783; 0.670005;,
         0.000000; 0.680679;-0.732582;,
        -0.205412; 0.691284;-0.692772;,
         0.169345; 0.722783; 0.670005;,
         0.049322; 0.714064; 0.698341;,
         0.000000; 0.680679;-0.732582;,
         0.049322; 0.714064; 0.698341;,
        -0.049322; 0.714064; 0.698341;,
         0.205412; 0.691283;-0.692772;,
         0.000000; 0.680679;-0.732582;,
        -0.049322; 0.714064; 0.698341;,
        -0.169384; 0.722799; 0.669978;,
         0.369972; 0.692108;-0.619764;,
         0.205412; 0.691283;-0.692772;,
        -0.169384; 0.722799; 0.669978;,
        -0.303231; 0.719471; 0.624830;,
        -0.438595; 0.720488; 0.537151;,
         0.556052; 0.679572;-0.478528;,
         0.369972; 0.692108;-0.619764;,
        -0.303231; 0.719471; 0.624830;,
         0.746167; 0.615896;-0.252797;,
         0.556052; 0.679572;-0.478528;,
        -0.438595; 0.720488; 0.537151;,
        -0.666137; 0.731809;-0.143932;,
         0.071127; 0.592997;-0.802057;,
         0.252552; 0.635702;-0.729452;,
         0.252552; 0.635702;-0.729452;,
         0.494357; 0.661407;-0.564049;,
        -0.666137; 0.731809;-0.143932;,
         0.666137; 0.731809;-0.143932;,
        -0.071165; 0.593020;-0.802037;,
         0.071127; 0.592997;-0.802057;,
        -0.666137; 0.731809;-0.143932;,
         0.666137; 0.731809;-0.143932;,
        -0.252555; 0.635620;-0.729523;,
        -0.071165; 0.593020;-0.802037;,
         0.666137; 0.731809;-0.143932;,
        -0.494221; 0.661537;-0.564016;,
        -0.252555; 0.635620;-0.729523;,
         0.723199; 0.655204;-0.218382;,
        -0.494221; 0.661537;-0.564016;,
         0.666137; 0.731809;-0.143932;,
         0.718049; 0.681044;-0.143473;,
        -0.696479; 0.702165;-0.147922;,
        -0.656243; 0.694405;-0.295207;,
         0.723199; 0.655204;-0.218382;,
         0.696479; 0.702165;-0.147922;,
        -0.718049; 0.681044;-0.143473;,
        -0.723199; 0.655204;-0.218382;,
         0.656097; 0.694446;-0.295435;,
        -0.627083;-0.713680;-0.312135;,
         0.425289;-0.741937;-0.518323;,
         0.320481;-0.772214;-0.548613;,
        -0.904534;-0.301511;-0.301511;,
         0.320481;-0.772214;-0.548613;,
         0.088245;-0.737747;-0.669285;,
        -0.904534;-0.301511;-0.301511;,
        -0.904534;-0.301511;-0.301511;,
         0.088245;-0.737747;-0.669285;,
        -0.088296;-0.737766;-0.669257;,
         0.904534;-0.301511;-0.301511;,
        -0.088296;-0.737766;-0.669257;,
        -0.320452;-0.772139;-0.548737;,
         0.904534;-0.301511;-0.301511;,
         0.309665;-0.772036; 0.555039;,
         0.167131;-0.772530; 0.612588;,
         0.169345; 0.722783; 0.670005;,
         0.303231; 0.719510; 0.624785;;
        122;
        20;19,18,17,16,15,14,13,12,11,10,9,8,7,6,5,4,3,2,1,0;,
        20;39,38,37,36,35,34,33,32,31,30,29,28,27,26,25,24,23,22,21,20;,
        4;43,42,41,40;,
        4;47,46,45,44;,
        4;51,50,49,48;,
        4;55,54,53,52;,
        4;59,58,57,56;,
        4;63,62,61,60;,
        4;67,66,65,64;,
        4;71,70,69,68;,
        4;75,74,73,72;,
        4;79,78,77,76;,
        4;83,82,81,80;,
        4;87,86,85,84;,
        4;91,90,89,88;,
        4;95,94,93,92;,
        4;99,98,97,96;,
        4;103,102,101,100;,
        4;107,106,105,104;,
        4;111,110,109,108;,
        4;115,114,113,112;,
        4;119,118,117,116;,
        4;123,122,121,120;,
        4;127,126,125,124;,
        4;131,130,129,128;,
        4;135,134,133,132;,
        4;139,138,137,136;,
        4;143,142,141,140;,
        4;147,146,145,144;,
        4;151,150,149,148;,
        4;155,154,153,152;,
        4;159,158,157,156;,
        3;162,161,160;,
        3;165,164,163;,
        4;169,168,167,166;,
        4;173,172,171,170;,
        4;177,176,175,174;,
        4;181,180,179,178;,
        3;184,183,182;,
        4;188,187,186,185;,
        4;192,191,190,189;,
        5;197,196,195,194,193;,
        4;201,200,199,198;,
        4;205,204,203,202;,
        4;209,208,207,206;,
        3;212,211,210;,
        4;216,215,214,213;,
        5;221,220,219,218,217;,
        4;225,224,223,222;,
        4;229,228,227,226;,
        4;233,232,231,230;,
        4;237,236,235,234;,
        4;241,240,239,238;,
        4;245,244,243,242;,
        4;249,248,247,246;,
        4;253,252,251,250;,
        4;257,256,255,254;,
        8;265,264,263,262,261,260,259,258;,
        4;269,268,267,266;,
        4;273,272,271,270;,
        4;277,276,275,274;,
        4;281,280,279,278;,
        4;285,284,283,282;,
        4;289,288,287,286;,
        4;293,292,291,290;,
        4;297,296,295,294;,
        4;301,300,299,298;,
        4;305,304,303,302;,
        4;309,308,307,306;,
        4;313,312,311,310;,
        8;321,320,319,318,317,316,315,314;,
        4;325,324,323,322;,
        4;329,328,327,326;,
        4;333,332,331,330;,
        4;337,336,335,334;,
        4;341,340,339,338;,
        4;345,344,343,342;,
        3;348,347,346;,
        4;352,351,350,349;,
        5;357,356,355,354,353;,
        4;361,360,359,358;,
        4;365,364,363,362;,
        4;369,368,367,366;,
        3;372,371,370;,
        4;376,375,374,373;,
        5;381,380,379,378,377;,
        4;385,384,383,382;,
        4;389,388,387,386;,
        4;393,392,391,390;,
        4;397,396,395,394;,
        4;401,400,399,398;,
        4;405,404,403,402;,
        4;409,408,407,406;,
        4;413,412,411,410;,
        4;417,416,415,414;,
        4;421,420,419,418;,
        3;424,423,422;,
        4;428,427,426,425;,
        4;432,431,430,429;,
        3;435,434,433;,
        3;438,437,436;,
        4;442,441,440,439;,
        4;446,445,444,443;,
        4;450,449,448,447;,
        3;453,452,451;,
        4;457,456,455,454;,
        4;461,460,459,458;,
        4;465,464,463,462;,
        3;468,467,466;,
        3;471,470,469;,
        3;474,473,472;,
        4;478,477,476,475;,
        3;481,480,479;,
        3;484,483,482;,
        3;487,486,485;,
        4;491,490,489,488;,
        4;495,494,493,492;,
        4;499,498,497,496;,
        3;502,501,500;,
        4;506,505,504,503;,
        3;509,508,507;,
        4;513,512,511,510;;
      }
      MeshTextureCoords {
        514;
         0.944791; 0.972581;,
         0.928620; 0.988308;,
         0.915737; 0.997730;,
         0.823590; 0.998365;,
         0.807942; 0.995126;,
         0.797955; 0.982762;,
         0.794488; 0.967669;,
         0.794488; 0.788051;,
         0.797955; 0.772958;,
         0.807942; 0.760595;,
         0.823590; 0.757355;,
         0.915737; 0.757990;,
         0.928620; 0.767413;,
         0.944791; 0.783139;,
         0.958297; 0.805141;,
         0.967135; 0.828951;,
         0.970243; 0.851301;,
         0.970243; 0.904419;,
         0.967135; 0.926769;,
         0.958297; 0.950579;,
         0.324591; 0.091569;,
         0.346594; 0.078063;,
         0.370403; 0.069225;,
         0.392753; 0.066117;,
         0.445871; 0.066117;,
         0.468221; 0.069225;,
         0.492031; 0.078063;,
         0.514033; 0.091569;,
         0.529760; 0.107740;,
         0.539182; 0.120623;,
         0.539817; 0.212770;,
         0.536578; 0.228418;,
         0.524214; 0.238405;,
         0.509121; 0.241872;,
         0.329504; 0.241872;,
         0.314410; 0.238405;,
         0.302047; 0.228418;,
         0.298808; 0.212770;,
         0.299443; 0.120623;,
         0.308865; 0.107740;,
         0.975311; 0.289181;,
         0.973212; 0.304524;,
         0.962411; 0.303625;,
         0.964510; 0.288282;,
         0.937720; 0.220706;,
         0.940180; 0.198283;,
         0.950982; 0.197387;,
         0.948522; 0.219809;,
         0.951355; 0.395008;,
         0.948714; 0.369749;,
         0.959516; 0.368852;,
         0.962156; 0.394112;,
         0.996058; 0.064153;,
         0.989748; 0.078834;,
         0.978947; 0.077935;,
         0.985257; 0.063254;,
         0.942265; 0.294341;,
         0.940588; 0.271839;,
         0.951390; 0.270942;,
         0.953067; 0.293445;,
         0.960438; 0.442365;,
         0.954315; 0.420655;,
         0.965117; 0.419758;,
         0.971239; 0.441468;,
         0.990207; 0.110180;,
         0.975311; 0.289181;,
         0.964510; 0.288282;,
         0.979405; 0.109281;,
         0.940588; 0.271839;,
         0.939028; 0.246489;,
         0.949830; 0.245593;,
         0.951390; 0.270942;,
         0.939028; 0.246489;,
         0.937720; 0.220706;,
         0.948522; 0.219809;,
         0.949830; 0.245593;,
         0.973212; 0.304524;,
         0.969678; 0.320019;,
         0.958877; 0.319121;,
         0.962411; 0.303625;,
         0.965194; 0.457601;,
         0.960438; 0.442365;,
         0.971239; 0.441468;,
         0.975996; 0.456704;,
         0.954315; 0.420655;,
         0.951355; 0.395008;,
         0.962156; 0.394112;,
         0.965117; 0.419758;,
         0.942360; 0.182472;,
         0.965209; 0.093201;,
         0.976011; 0.092304;,
         0.953161; 0.181576;,
         0.969678; 0.320019;,
         0.973475; 0.335541;,
         0.962673; 0.334643;,
         0.958877; 0.319121;,
         0.940180; 0.198283;,
         0.942360; 0.182472;,
         0.953161; 0.181576;,
         0.950982; 0.197387;,
         0.973475; 0.335541;,
         0.996304; 0.424817;,
         0.985503; 0.423918;,
         0.962673; 0.334643;,
         0.989748; 0.078834;,
         0.990673; 0.094701;,
         0.979871; 0.093802;,
         0.978947; 0.077935;,
         0.948714; 0.369749;,
         0.946658; 0.347278;,
         0.957460; 0.346381;,
         0.959516; 0.368852;,
         0.990673; 0.094701;,
         0.990207; 0.110180;,
         0.979405; 0.109281;,
         0.979871; 0.093802;,
         0.946658; 0.347278;,
         0.942265; 0.294341;,
         0.953067; 0.293445;,
         0.957460; 0.346381;,
         0.792947; 0.078368;,
         0.499911; 0.078368;,
         0.499911; 0.003117;,
         0.792947; 0.003117;,
         0.791210; 0.871138;,
         0.791210; 0.998366;,
         0.715959; 0.998366;,
         0.715959; 0.871138;,
         0.859247; 0.457703;,
         0.859247; 0.164667;,
         0.934498; 0.164667;,
         0.934498; 0.457703;,
         0.001631; 0.871138;,
         0.001631; 0.543604;,
         0.076883; 0.543605;,
         0.076882; 0.871138;,
         0.562938; 0.411132;,
         0.855973; 0.411132;,
         0.855973; 0.538361;,
         0.562938; 0.538361;,
         0.859241; 0.754195;,
         0.859241; 0.461159;,
         0.986470; 0.461159;,
         0.986470; 0.754195;,
         0.562938; 0.083599;,
         0.855973; 0.083599;,
         0.855973; 0.411132;,
         0.562938; 0.411132;,
         0.001631; 0.998366;,
         0.001631; 0.871138;,
         0.076882; 0.871138;,
         0.076882; 0.998366;,
         0.791210; 0.543605;,
         0.791210; 0.871138;,
         0.715959; 0.871138;,
         0.715958; 0.543605;,
         0.461689; 0.752784;,
         0.396421; 0.752784;,
         0.396421; 0.576205;,
         0.461689; 0.576205;,
         0.398419; 0.826984;,
         0.439463; 0.808973;,
         0.450444; 0.827342;,
         0.013647; 0.202692;,
         0.002467; 0.184677;,
         0.054479; 0.184576;,
         0.157648; 0.945627;,
         0.157514; 0.877073;,
         0.184348; 0.877021;,
         0.184481; 0.945575;,
         0.134409; 0.562402;,
         0.187440; 0.570945;,
         0.187440; 0.788928;,
         0.134819; 0.832868;,
         0.658022; 0.832868;,
         0.605401; 0.788928;,
         0.605401; 0.570945;,
         0.658432; 0.562402;,
         0.295849; 0.089729;,
         0.295789; 0.143308;,
         0.269010; 0.143276;,
         0.269068; 0.089705;,
         0.295903; 0.056651;,
         0.269075; 0.067411;,
         0.265100; 0.051802;,
         0.693766; 0.871138;,
         0.658022; 0.832868;,
         0.658432; 0.562402;,
         0.690485; 0.554028;,
         0.102357; 0.554028;,
         0.134409; 0.562402;,
         0.134819; 0.832868;,
         0.099075; 0.871138;,
         0.157750; 0.997993;,
         0.157648; 0.945627;,
         0.184481; 0.945575;,
         0.184544; 0.977816;,
         0.188429; 0.998347;,
         0.294670; 0.023860;,
         0.252900; 0.013804;,
         0.263996; 0.002268;,
         0.294670; 0.001667;,
         0.076883; 0.543605;,
         0.102357; 0.554028;,
         0.099075; 0.871138;,
         0.076882; 0.871138;,
         0.715959; 0.871138;,
         0.693766; 0.871138;,
         0.690485; 0.554028;,
         0.715958; 0.543605;,
         0.001632; 0.029131;,
         0.032557; 0.051916;,
         0.001601; 0.056742;,
         0.157514; 0.877073;,
         0.157485; 0.861923;,
         0.184318; 0.861585;,
         0.184348; 0.877021;,
         0.187440; 0.570945;,
         0.212277; 0.575208;,
         0.212277; 0.770713;,
         0.199657; 0.779969;,
         0.187440; 0.788928;,
         0.605401; 0.788928;,
         0.592954; 0.779799;,
         0.592954; 0.573081;,
         0.605401; 0.570945;,
         0.295789; 0.143308;,
         0.295776; 0.155911;,
         0.268997; 0.155880;,
         0.269010; 0.143276;,
         0.331152; 0.752784;,
         0.286457; 0.753686;,
         0.286457; 0.576422;,
         0.331152; 0.576205;,
         0.286457; 0.753686;,
         0.248676; 0.756151;,
         0.248676; 0.577016;,
         0.286457; 0.576422;,
         0.248676; 0.756151;,
         0.227542; 0.759517;,
         0.227542; 0.577827;,
         0.248676; 0.577016;,
         0.461689; 0.576205;,
         0.506384; 0.576422;,
         0.506384; 0.753686;,
         0.461689; 0.752784;,
         0.506384; 0.576422;,
         0.544165; 0.577016;,
         0.544165; 0.756151;,
         0.506384; 0.753686;,
         0.544165; 0.577016;,
         0.565300; 0.577827;,
         0.565300; 0.759517;,
         0.544165; 0.756151;,
         0.396421; 0.752784;,
         0.331152; 0.752784;,
         0.331152; 0.576205;,
         0.396421; 0.576205;,
         0.200190; 0.560385;,
         0.178594; 0.554738;,
         0.125565; 0.546181;,
         0.113118; 0.544041;,
         0.113170; 0.337323;,
         0.125620; 0.328197;,
         0.178252; 0.284271;,
         0.200265; 0.260714;,
         0.472593; 0.560386;,
         0.457130; 0.564955;,
         0.457671; 0.246011;,
         0.472518; 0.260715;,
         0.457130; 0.564955;,
         0.441665; 0.569430;,
         0.441665; 0.246011;,
         0.457671; 0.246011;,
         0.426201; 0.571067;,
         0.246583; 0.571067;,
         0.246583; 0.246011;,
         0.426200; 0.246011;,
         0.200265; 0.260714;,
         0.215112; 0.246011;,
         0.215653; 0.564955;,
         0.200190; 0.560385;,
         0.441665; 0.569430;,
         0.426201; 0.571067;,
         0.426200; 0.246011;,
         0.441665; 0.246011;,
         0.469286; 0.995994;,
         0.453709; 0.998120;,
         0.453709; 0.791403;,
         0.469286; 0.800489;,
         0.049597; 0.539608;,
         0.024205; 0.539812;,
         0.024251; 0.359821;,
         0.049642; 0.358954;,
         0.024205; 0.539812;,
         0.001641; 0.539881;,
         0.001686; 0.360122;,
         0.024251; 0.359821;,
         0.097542; 0.541911;,
         0.075400; 0.539293;,
         0.075446; 0.357625;,
         0.097591; 0.346406;,
         0.565187; 0.814230;,
         0.618305; 0.814230;,
         0.618305; 0.993988;,
         0.565187; 0.993988;,
         0.542623; 0.813923;,
         0.565187; 0.814230;,
         0.565187; 0.993988;,
         0.542623; 0.993914;,
         0.097591; 0.346406;,
         0.113170; 0.337323;,
         0.113118; 0.544041;,
         0.097542; 0.541911;,
         0.472518; 0.260715;,
         0.494531; 0.284272;,
         0.547163; 0.328198;,
         0.559613; 0.337324;,
         0.559665; 0.544042;,
         0.547218; 0.546181;,
         0.494189; 0.554738;,
         0.472593; 0.560386;,
         0.231119; 0.246011;,
         0.246583; 0.246011;,
         0.246583; 0.571067;,
         0.231118; 0.569429;,
         0.398419; 0.826984;,
         0.450444; 0.827342;,
         0.450408; 0.846272;,
         0.414133; 0.846202;,
         0.215112; 0.246011;,
         0.231119; 0.246011;,
         0.231118; 0.569429;,
         0.215653; 0.564955;,
         0.054479; 0.184576;,
         0.002467; 0.184677;,
         0.002349; 0.169168;,
         0.038675; 0.168909;,
         0.491428; 0.811714;,
         0.517231; 0.813050;,
         0.517231; 0.993703;,
         0.491428; 0.993382;,
         0.075400; 0.539293;,
         0.049597; 0.539608;,
         0.049642; 0.358954;,
         0.075446; 0.357625;,
         0.028497; 0.067581;,
         0.001601; 0.056742;,
         0.032557; 0.051916;,
         0.029083; 0.143709;,
         0.002141; 0.143916;,
         0.001634; 0.089987;,
         0.028475; 0.089891;,
         0.423381; 0.945575;,
         0.450214; 0.945627;,
         0.450112; 0.997993;,
         0.419434; 0.998347;,
         0.423318; 0.977816;,
         0.469286; 0.800489;,
         0.491428; 0.811714;,
         0.491428; 0.993382;,
         0.469286; 0.995994;,
         0.423514; 0.877021;,
         0.450348; 0.877073;,
         0.450214; 0.945627;,
         0.423381; 0.945575;,
         0.157485; 0.861923;,
         0.157454; 0.846272;,
         0.193729; 0.846202;,
         0.184318; 0.861585;,
         0.157417; 0.827342;,
         0.168399; 0.808973;,
         0.209443; 0.826984;,
         0.212277; 0.575208;,
         0.227542; 0.577827;,
         0.227542; 0.759517;,
         0.212277; 0.770713;,
         0.002349; 0.169168;,
         0.002141; 0.143916;,
         0.029083; 0.143709;,
         0.029156; 0.156378;,
         0.038675; 0.168909;,
         0.157454; 0.846272;,
         0.157417; 0.827342;,
         0.209443; 0.826984;,
         0.193729; 0.846202;,
         0.580564; 0.770713;,
         0.565300; 0.759517;,
         0.565300; 0.577827;,
         0.580564; 0.575208;,
         0.295762; 0.168457;,
         0.295744; 0.183916;,
         0.243847; 0.184145;,
         0.259565; 0.168412;,
         0.450408; 0.846272;,
         0.450378; 0.861637;,
         0.423544; 0.861584;,
         0.414133; 0.846202;,
         0.592954; 0.779799;,
         0.580564; 0.770713;,
         0.580564; 0.575208;,
         0.592954; 0.573081;,
         0.295776; 0.155911;,
         0.295762; 0.168457;,
         0.259565; 0.168412;,
         0.268997; 0.155880;,
         0.450378; 0.861637;,
         0.450348; 0.877073;,
         0.423514; 0.877021;,
         0.423544; 0.861584;,
         0.209443; 0.826984;,
         0.168399; 0.808973;,
         0.198452; 0.785946;,
         0.231282; 0.813175;,
         0.231282; 0.813175;,
         0.198452; 0.785946;,
         0.239530; 0.768310;,
         0.255030; 0.804146;,
         0.255030; 0.804146;,
         0.239530; 0.768310;,
         0.303931; 0.757702;,
         0.277372; 0.800972;,
         0.277372; 0.800972;,
         0.303931; 0.757702;,
         0.330490; 0.800972;,
         0.330490; 0.800972;,
         0.303931; 0.757702;,
         0.368332; 0.768310;,
         0.352832; 0.804146;,
         0.352832; 0.804146;,
         0.368332; 0.768310;,
         0.409410; 0.785946;,
         0.376580; 0.813175;,
         0.376580; 0.813175;,
         0.409410; 0.785946;,
         0.398419; 0.826984;,
         0.409410; 0.785946;,
         0.439463; 0.808973;,
         0.398419; 0.826984;,
         0.043992; 0.225297;,
         0.013647; 0.202692;,
         0.054479; 0.184576;,
         0.076539; 0.197995;,
         0.085181; 0.242470;,
         0.043992; 0.225297;,
         0.076539; 0.197995;,
         0.100411; 0.206782;,
         0.149443; 0.252752;,
         0.085181; 0.242470;,
         0.100411; 0.206782;,
         0.122784; 0.209809;,
         0.149443; 0.252752;,
         0.122784; 0.209809;,
         0.175898; 0.209736;,
         0.213625; 0.242162;,
         0.149443; 0.252752;,
         0.175898; 0.209736;,
         0.198237; 0.206618;,
         0.254634; 0.224712;,
         0.213625; 0.242162;,
         0.198237; 0.206618;,
         0.221988; 0.197733;,
         0.243847; 0.184145;,
         0.284720; 0.201944;,
         0.254634; 0.224712;,
         0.221988; 0.197733;,
         0.295744; 0.183916;,
         0.284720; 0.201944;,
         0.243847; 0.184145;,
         0.001632; 0.029131;,
         0.058796; 0.035716;,
         0.043626; 0.040059;,
         0.043626; 0.040059;,
         0.032557; 0.051916;,
         0.001632; 0.029131;,
         0.295921; 0.029131;,
         0.239202; 0.035691;,
         0.058796; 0.035716;,
         0.001632; 0.029131;,
         0.295921; 0.029131;,
         0.254158; 0.040006;,
         0.239202; 0.035691;,
         0.295921; 0.029131;,
         0.265100; 0.051802;,
         0.254158; 0.040006;,
         0.295903; 0.056651;,
         0.265100; 0.051802;,
         0.295921; 0.029131;,
         0.295849; 0.089729;,
         0.269068; 0.089705;,
         0.269075; 0.067411;,
         0.295903; 0.056651;,
         0.028475; 0.089891;,
         0.001634; 0.089987;,
         0.001601; 0.056742;,
         0.028497; 0.067581;,
         0.001637; 0.001667;,
         0.032313; 0.002268;,
         0.043410; 0.013804;,
         0.001637; 0.023861;,
         0.043410; 0.013804;,
         0.058348; 0.017807;,
         0.001637; 0.023861;,
         0.001637; 0.023861;,
         0.058348; 0.017807;,
         0.237963; 0.017806;,
         0.294670; 0.023860;,
         0.237963; 0.017806;,
         0.252900; 0.013804;,
         0.294670; 0.023860;,
         0.517231; 0.813050;,
         0.542623; 0.813923;,
         0.542623; 0.993914;,
         0.517231; 0.993703;;
      }
      MeshMaterialList {
        1;
        122;
        0,
        0,
        0,
        0,
        0,
        0,
        0,
        0,
        0,
        0,
        0,
        0,
        0,
        0,
        0,
        0,
        0,
        0,
        0,
        0,
        0,
        0,
        0,
        0,
        0,
        0,
        0,
        0,
        0,
        0,
        0,
        0,
        0,
        0,
        0,
        0,
        0,
        0,
        0,
        0,
        0,
        0,
        0,
        0,
        0,
        0,
        0,
        0,
        0,
        0,
        0,
        0,
        0,
        0,
        0,
        0,
        0,
        0,
        0,
        0,
        0,
        0,
        0,
        0,
        0,
        0,
        0,
        0,
        0,
        0,
        0,
        0,
        0,
        0,
        0,
        0,
        0,
        0,
        0,
        0,
        0,
        0,
        0,
        0,
        0,
        0,
        0,
        0,
        0,
        0,
        0,
        0,
        0,
        0,
        0,
        0,
        0,
        0,
        0,
        0,
        0,
        0,
        0,
        0,
        0,
        0,
        0,
        0,
        0,
        0,
        0,
        0,
        0,
        0,
        0,
        0,
        0,
        0,
        0,
        0,
        0,
        0;
        Material Crosshair2_001 {
           0.800000; 0.800000; 0.800000; 1.000000;;
           225.000000;
           0.500000; 0.500000; 0.500000;;
           0.000000; 0.000000; 0.000000;;
        }
      }
    }
  }
}
