xof 0303txt 0032

Frame Root {
  FrameTransformMatrix {
     1.000000, 0.000000, 0.000000, 0.000000,
     0.000000,-0.000000, 1.000000, 0.000000,
     0.000000, 1.000000, 0.000000, 0.000000,
     0.000000, 0.000000, 0.000000, 1.000000;;
  }
  Frame Crosshair1_Cube_007 {
    FrameTransformMatrix {
       1.000000, 0.000000, 0.000000, 0.000000,
       0.000000, 1.000000, 0.000000, 0.000000,
       0.000000, 0.000000, 1.000000, 0.000000,
       0.000000, 0.000000, 0.000000, 1.000000;;
    }
    Mesh {
      416;
      -0.010595;-0.017742; 0.014786;,
      -0.010478;-0.010051; 0.014786;,
      -0.013229;-0.010051; 0.020574;,
      -0.013229;-0.016607; 0.020574;,
       0.009092;-0.016378; 0.014786;,
       0.009092;-0.016378; 0.013812;,
      -0.009092;-0.016378; 0.013812;,
      -0.009092;-0.016378; 0.014786;,
       0.013229;-0.010051; 0.032563;,
       0.013229;-0.014214; 0.032563;,
       0.010478;-0.013125; 0.038211;,
       0.010478;-0.010051; 0.038211;,
       0.013229;-0.010051; 0.032563;,
       0.014398;-0.010051; 0.026804;,
       0.014398;-0.015317; 0.026804;,
       0.013229;-0.014214; 0.032563;,
       0.014398;-0.010051; 0.026804;,
       0.013229;-0.010051; 0.020574;,
       0.013229;-0.016607; 0.020574;,
       0.014398;-0.015317; 0.026804;,
      -0.013229;-0.014214; 0.032563;,
      -0.013229;-0.010051; 0.032563;,
      -0.010478;-0.010051; 0.038211;,
      -0.010478;-0.013125; 0.038211;,
      -0.014398;-0.015317; 0.026804;,
      -0.014398;-0.010051; 0.026804;,
      -0.013229;-0.010051; 0.032563;,
      -0.013229;-0.014214; 0.032563;,
      -0.013229;-0.016607; 0.020574;,
      -0.013229;-0.010051; 0.020574;,
      -0.014398;-0.010051; 0.026804;,
      -0.014398;-0.015317; 0.026804;,
      -0.012522;-0.010051; 0.026782;,
      -0.012524;-0.015321; 0.026782;,
      -0.011528;-0.014386; 0.031693;,
      -0.011532;-0.010051; 0.031663;,
      -0.010478;-0.013125; 0.038211;,
      -0.010478;-0.010051; 0.038211;,
       0.010478;-0.010051; 0.038211;,
       0.010478;-0.013125; 0.038211;,
       0.009092;-0.016378; 0.014786;,
       0.010595;-0.017742; 0.014786;,
       0.010478;-0.010051; 0.014786;,
       0.009092;-0.011436; 0.014786;,
      -0.009092;-0.016378; 0.014786;,
      -0.010595;-0.017742; 0.014786;,
       0.010595;-0.017742; 0.014786;,
       0.009092;-0.016378; 0.014786;,
      -0.009092;-0.011436; 0.014786;,
      -0.010478;-0.010051; 0.014786;,
      -0.010595;-0.017742; 0.014786;,
      -0.009092;-0.016378; 0.014786;,
       0.009092;-0.011436; 0.014786;,
       0.010478;-0.010051; 0.014786;,
      -0.010478;-0.010051; 0.014786;,
      -0.009092;-0.011436; 0.014786;,
      -0.009092;-0.016378; 0.014786;,
      -0.009092;-0.016378; 0.013812;,
      -0.009092;-0.011436; 0.013812;,
      -0.009092;-0.011436; 0.014786;,
       0.009092;-0.011436; 0.014786;,
       0.009092;-0.011436; 0.013812;,
       0.009092;-0.016378; 0.013812;,
       0.009092;-0.016378; 0.014786;,
      -0.009092;-0.011436; 0.014786;,
      -0.009092;-0.011436; 0.013812;,
       0.009092;-0.011436; 0.013812;,
       0.009092;-0.011436; 0.014786;,
       0.012260;-0.020100;-0.000244;,
      -0.012260;-0.020100;-0.000244;,
      -0.012260;-0.020100; 0.007485;,
       0.012260;-0.020100; 0.007485;,
      -0.012260;-0.020100;-0.000244;,
      -0.012260; 0.026299;-0.000244;,
      -0.012260; 0.026299; 0.007485;,
      -0.012260;-0.020100; 0.007485;,
      -0.012260; 0.026299;-0.000244;,
       0.012260; 0.026299;-0.000244;,
       0.012260; 0.026299; 0.007485;,
      -0.012260; 0.026299; 0.007485;,
       0.012260; 0.026299;-0.000244;,
       0.012260;-0.020100;-0.000244;,
       0.012260;-0.020100; 0.007485;,
       0.012260; 0.026299; 0.007485;,
      -0.012260;-0.020100;-0.000244;,
       0.012260;-0.020100;-0.000244;,
       0.012260; 0.026299;-0.000244;,
      -0.012260; 0.026299;-0.000244;,
       0.012260; 0.026299; 0.007485;,
       0.010194; 0.022390; 0.007485;,
      -0.010194; 0.022390; 0.007485;,
      -0.012260; 0.026299; 0.007485;,
      -0.010194;-0.016190; 0.007485;,
      -0.010194;-0.016190; 0.009563;,
       0.010194;-0.016190; 0.009563;,
       0.010194;-0.016190; 0.007485;,
      -0.012260;-0.020100; 0.007485;,
      -0.010194;-0.016190; 0.007485;,
       0.010194;-0.016190; 0.007485;,
       0.012260;-0.020100; 0.007485;,
       0.012260;-0.020100; 0.007485;,
       0.010194;-0.016190; 0.007485;,
       0.010194; 0.022390; 0.007485;,
       0.012260; 0.026299; 0.007485;,
      -0.012260; 0.026299; 0.007485;,
      -0.010194; 0.022390; 0.007485;,
      -0.010194;-0.016190; 0.007485;,
      -0.012260;-0.020100; 0.007485;,
       0.010194;-0.016190; 0.009563;,
       0.012249;-0.020079; 0.009563;,
       0.012249; 0.026404; 0.009563;,
       0.010587; 0.026404; 0.009563;,
       0.010194; 0.022390; 0.009563;,
       0.010194;-0.016190; 0.007485;,
       0.010194;-0.016190; 0.009563;,
       0.010194; 0.022390; 0.009563;,
       0.010194; 0.022390; 0.007485;,
      -0.010194; 0.022390; 0.007485;,
      -0.010194; 0.022390; 0.009563;,
      -0.010194;-0.016190; 0.009563;,
      -0.010194;-0.016190; 0.007485;,
       0.010194; 0.022390; 0.007485;,
       0.010194; 0.022390; 0.009563;,
      -0.010194; 0.022390; 0.009563;,
      -0.010194; 0.022390; 0.007485;,
       0.012249; 0.043371; 0.011357;,
       0.012249; 0.043371; 0.013812;,
      -0.012249; 0.043371; 0.013812;,
      -0.012249; 0.043371; 0.011357;,
      -0.010194; 0.022390; 0.009563;,
      -0.010587; 0.026404; 0.009563;,
      -0.012249; 0.026404; 0.009563;,
      -0.012249;-0.020079; 0.009563;,
      -0.010194;-0.016190; 0.009563;,
       0.010194; 0.022390; 0.009563;,
       0.010587; 0.026404; 0.009563;,
      -0.010587; 0.026404; 0.009563;,
      -0.010194; 0.022390; 0.009563;,
      -0.010194;-0.016190; 0.009563;,
      -0.012249;-0.020079; 0.009563;,
       0.012249;-0.020079; 0.009563;,
       0.010194;-0.016190; 0.009563;,
       0.012249; 0.028387; 0.016645;,
       0.009133; 0.030370; 0.019478;,
       0.009133; 0.042238; 0.019478;,
       0.012249; 0.042804; 0.016645;,
      -0.012249;-0.020079; 0.009563;,
      -0.012249;-0.018001; 0.013812;,
       0.012249;-0.018001; 0.013812;,
       0.012249;-0.020079; 0.009563;,
       0.012249;-0.020079; 0.009563;,
       0.012249;-0.018001; 0.013812;,
       0.012249; 0.026404; 0.013812;,
       0.012249; 0.026404; 0.009563;,
      -0.012249; 0.043371; 0.011357;,
      -0.012249; 0.043371; 0.013812;,
      -0.012249; 0.026404; 0.013812;,
      -0.012249; 0.026404; 0.009563;,
      -0.009133; 0.042238; 0.019478;,
       0.009133; 0.042238; 0.019478;,
       0.009133; 0.030370; 0.019478;,
      -0.009133; 0.030370; 0.019478;,
       0.010587; 0.026404; 0.009563;,
       0.012249; 0.043371; 0.011357;,
      -0.012249; 0.043371; 0.011357;,
      -0.010587; 0.026404; 0.009563;,
       0.012249; 0.026404; 0.013812;,
       0.012249; 0.043371; 0.013812;,
       0.012249; 0.043371; 0.011357;,
       0.012249; 0.026404; 0.009563;,
       0.012249; 0.026404; 0.009563;,
       0.012249; 0.043371; 0.011357;,
       0.010587; 0.026404; 0.009563;,
      -0.012249; 0.026404; 0.013812;,
      -0.012249;-0.018001; 0.013812;,
      -0.012249;-0.020079; 0.009563;,
      -0.012249; 0.026404; 0.009563;,
       0.012249; 0.026404; 0.013812;,
       0.009092;-0.011436; 0.013812;,
      -0.009092;-0.011436; 0.013812;,
      -0.012249; 0.026404; 0.013812;,
      -0.010587; 0.026404; 0.009563;,
      -0.012249; 0.043371; 0.011357;,
      -0.012249; 0.026404; 0.009563;,
      -0.012249; 0.028387; 0.016645;,
      -0.009133; 0.030370; 0.019478;,
       0.009133; 0.030370; 0.019478;,
       0.012249; 0.028387; 0.016645;,
      -0.012249; 0.042804; 0.016645;,
      -0.009133; 0.042238; 0.019478;,
      -0.009133; 0.030370; 0.019478;,
      -0.012249; 0.028387; 0.016645;,
       0.012249; 0.042804; 0.016645;,
       0.009133; 0.042238; 0.019478;,
      -0.009133; 0.042238; 0.019478;,
      -0.012249; 0.042804; 0.016645;,
       0.012249; 0.043371; 0.013812;,
       0.012249; 0.042804; 0.016645;,
      -0.012249; 0.042804; 0.016645;,
      -0.012249; 0.043371; 0.013812;,
      -0.012249; 0.043371; 0.013812;,
      -0.012249; 0.042804; 0.016645;,
      -0.012249; 0.028387; 0.016645;,
      -0.012249; 0.026404; 0.013812;,
      -0.012249; 0.026404; 0.013812;,
      -0.012249; 0.028387; 0.016645;,
       0.012249; 0.028387; 0.016645;,
       0.012249; 0.026404; 0.013812;,
       0.012249; 0.026404; 0.013812;,
       0.012249; 0.028387; 0.016645;,
       0.012249; 0.042804; 0.016645;,
       0.012249; 0.043371; 0.013812;,
      -0.012249;-0.018001; 0.013812;,
      -0.012249; 0.026404; 0.013812;,
      -0.009092;-0.011436; 0.013812;,
      -0.009092;-0.016378; 0.013812;,
      -0.009444;-0.010051; 0.017075;,
      -0.010478;-0.010051; 0.014786;,
       0.010478;-0.010051; 0.014786;,
       0.009444;-0.010051; 0.017075;,
       0.009457;-0.010051; 0.035922;,
       0.010478;-0.010051; 0.038211;,
      -0.010478;-0.010051; 0.038211;,
      -0.009457;-0.010051; 0.035922;,
      -0.011532;-0.010051; 0.031663;,
      -0.013229;-0.010051; 0.032563;,
      -0.014398;-0.010051; 0.026804;,
      -0.012522;-0.010051; 0.026782;,
       0.012522;-0.010051; 0.026782;,
       0.014398;-0.010051; 0.026804;,
       0.013229;-0.010051; 0.032563;,
       0.011532;-0.010051; 0.031663;,
      -0.012522;-0.010051; 0.026782;,
      -0.014398;-0.010051; 0.026804;,
      -0.013229;-0.010051; 0.020574;,
      -0.011521;-0.010051; 0.021444;,
       0.011521;-0.010051; 0.021444;,
       0.013229;-0.010051; 0.020574;,
       0.014398;-0.010051; 0.026804;,
       0.012522;-0.010051; 0.026782;,
      -0.009457;-0.010051; 0.035922;,
      -0.010478;-0.010051; 0.038211;,
      -0.013229;-0.010051; 0.032563;,
      -0.011532;-0.010051; 0.031663;,
       0.011532;-0.010051; 0.031663;,
       0.013229;-0.010051; 0.032563;,
       0.010478;-0.010051; 0.038211;,
       0.009457;-0.010051; 0.035922;,
       0.009444;-0.010051; 0.017075;,
       0.010478;-0.010051; 0.014786;,
       0.013229;-0.010051; 0.020574;,
       0.011521;-0.010051; 0.021444;,
      -0.011521;-0.010051; 0.021444;,
      -0.013229;-0.010051; 0.020574;,
      -0.010478;-0.010051; 0.014786;,
      -0.009444;-0.010051; 0.017075;,
      -0.012524;-0.015321; 0.026782;,
      -0.014398;-0.015317; 0.026804;,
      -0.013229;-0.014214; 0.032563;,
      -0.011528;-0.014386; 0.031693;,
      -0.011528;-0.014386; 0.031693;,
      -0.013229;-0.014214; 0.032563;,
      -0.010478;-0.013125; 0.038211;,
      -0.009447;-0.013568; 0.035965;,
       0.009528;-0.017299; 0.017032;,
       0.010595;-0.017742; 0.014786;,
      -0.010595;-0.017742; 0.014786;,
      -0.009528;-0.017299; 0.017032;,
      -0.011513;-0.016446; 0.021392;,
      -0.013229;-0.016607; 0.020574;,
      -0.014398;-0.015317; 0.026804;,
      -0.012524;-0.015321; 0.026782;,
      -0.009528;-0.017299; 0.017032;,
      -0.010595;-0.017742; 0.014786;,
      -0.013229;-0.016607; 0.020574;,
      -0.011513;-0.016446; 0.021392;,
       0.011528;-0.014386; 0.031693;,
       0.013229;-0.014214; 0.032563;,
       0.014398;-0.015317; 0.026804;,
       0.012524;-0.015321; 0.026782;,
       0.012524;-0.015321; 0.026782;,
       0.014398;-0.015317; 0.026804;,
       0.013229;-0.016607; 0.020574;,
       0.011513;-0.016446; 0.021392;,
      -0.009447;-0.013568; 0.035965;,
      -0.010478;-0.013125; 0.038211;,
       0.010478;-0.013125; 0.038211;,
       0.009447;-0.013568; 0.035965;,
       0.009447;-0.013568; 0.035965;,
       0.010478;-0.013125; 0.038211;,
       0.013229;-0.014214; 0.032563;,
       0.011528;-0.014386; 0.031693;,
       0.011513;-0.016446; 0.021392;,
       0.013229;-0.016607; 0.020574;,
       0.010595;-0.017742; 0.014786;,
       0.009528;-0.017299; 0.017032;,
      -0.011532;-0.010051; 0.031663;,
      -0.011528;-0.014386; 0.031693;,
      -0.009447;-0.013568; 0.035965;,
      -0.009457;-0.010051; 0.035922;,
      -0.012522;-0.010051; 0.026782;,
      -0.011521;-0.010051; 0.021444;,
      -0.011513;-0.016446; 0.021392;,
      -0.012524;-0.015321; 0.026782;,
      -0.011521;-0.010051; 0.021444;,
      -0.009444;-0.010051; 0.017075;,
      -0.009528;-0.017299; 0.017032;,
      -0.011513;-0.016446; 0.021392;,
       0.009444;-0.010051; 0.017075;,
       0.009528;-0.017299; 0.017032;,
      -0.009528;-0.017299; 0.017032;,
      -0.009444;-0.010051; 0.017075;,
       0.009444;-0.010051; 0.017075;,
       0.011521;-0.010051; 0.021444;,
       0.011513;-0.016446; 0.021392;,
       0.009528;-0.017299; 0.017032;,
       0.012522;-0.010051; 0.026782;,
       0.012524;-0.015321; 0.026782;,
       0.011513;-0.016446; 0.021392;,
       0.011521;-0.010051; 0.021444;,
       0.011532;-0.010051; 0.031663;,
       0.011528;-0.014386; 0.031693;,
       0.012524;-0.015321; 0.026782;,
       0.012522;-0.010051; 0.026782;,
       0.011532;-0.010051; 0.031663;,
       0.009457;-0.010051; 0.035922;,
       0.009447;-0.013568; 0.035965;,
       0.011528;-0.014386; 0.031693;,
      -0.009457;-0.010051; 0.035922;,
      -0.009447;-0.013568; 0.035965;,
       0.009447;-0.013568; 0.035965;,
       0.009457;-0.010051; 0.035922;,
       0.012249;-0.018001; 0.013812;,
       0.009092;-0.016378; 0.013812;,
       0.009092;-0.011436; 0.013812;,
       0.012249; 0.026404; 0.013812;,
       0.012249;-0.018001; 0.013812;,
      -0.012249;-0.018001; 0.013812;,
      -0.009092;-0.016378; 0.013812;,
       0.009092;-0.016378; 0.013812;,
       0.011517;-0.013794; 0.021418;,
       0.009486;-0.014220; 0.017054;,
      -0.009486;-0.014220; 0.017054;,
      -0.011517;-0.013794; 0.021418;,
       0.011517;-0.012270; 0.021418;,
      -0.011517;-0.012270; 0.021418;,
      -0.009486;-0.012697; 0.017054;,
       0.009486;-0.012697; 0.017054;,
       0.009486;-0.014220; 0.017054;,
       0.011517;-0.013794; 0.021418;,
       0.011517;-0.012270; 0.021418;,
       0.009486;-0.012697; 0.017054;,
       0.011530;-0.012764; 0.031678;,
       0.009452;-0.012355; 0.035943;,
       0.009452;-0.010832; 0.035943;,
       0.011530;-0.011240; 0.031678;,
      -0.009452;-0.012355; 0.035943;,
      -0.011530;-0.012764; 0.031678;,
      -0.011530;-0.011240; 0.031678;,
      -0.009452;-0.010832; 0.035943;,
      -0.009486;-0.014220; 0.017054;,
       0.009486;-0.014220; 0.017054;,
       0.009486;-0.012697; 0.017054;,
      -0.009486;-0.012697; 0.017054;,
       0.012523;-0.013231; 0.026782;,
       0.011530;-0.012764; 0.031678;,
       0.011530;-0.011240; 0.031678;,
       0.012523;-0.011708; 0.026782;,
      -0.011530;-0.012764; 0.031678;,
      -0.012523;-0.013231; 0.026782;,
      -0.012523;-0.011708; 0.026782;,
      -0.011530;-0.011240; 0.031678;,
      -0.011517;-0.013794; 0.021418;,
      -0.009486;-0.014220; 0.017054;,
      -0.009486;-0.012697; 0.017054;,
      -0.011517;-0.012270; 0.021418;,
       0.011517;-0.013794; 0.021418;,
       0.012523;-0.013231; 0.026782;,
       0.012523;-0.011708; 0.026782;,
       0.011517;-0.012270; 0.021418;,
       0.009452;-0.012355; 0.035943;,
      -0.009452;-0.012355; 0.035943;,
      -0.009452;-0.010832; 0.035943;,
       0.009452;-0.010832; 0.035943;,
      -0.012523;-0.013231; 0.026782;,
      -0.011517;-0.013794; 0.021418;,
      -0.011517;-0.012270; 0.021418;,
      -0.012523;-0.011708; 0.026782;,
       0.009452;-0.010832; 0.035943;,
      -0.009452;-0.010832; 0.035943;,
      -0.011530;-0.011240; 0.031678;,
       0.011530;-0.011240; 0.031678;,
       0.011530;-0.011240; 0.031678;,
      -0.011530;-0.011240; 0.031678;,
      -0.012523;-0.011708; 0.026782;,
       0.012523;-0.011708; 0.026782;,
       0.012523;-0.011708; 0.026782;,
      -0.012523;-0.011708; 0.026782;,
      -0.011517;-0.012270; 0.021418;,
       0.011517;-0.012270; 0.021418;,
       0.009452;-0.012355; 0.035943;,
       0.011530;-0.012764; 0.031678;,
      -0.011530;-0.012764; 0.031678;,
      -0.009452;-0.012355; 0.035943;,
       0.011530;-0.012764; 0.031678;,
       0.012523;-0.013231; 0.026782;,
      -0.012523;-0.013231; 0.026782;,
      -0.011530;-0.012764; 0.031678;,
       0.012523;-0.013231; 0.026782;,
       0.011517;-0.013794; 0.021418;,
      -0.011517;-0.013794; 0.021418;,
      -0.012523;-0.013231; 0.026782;,
       0.010478;-0.010051; 0.014786;,
       0.010595;-0.017742; 0.014786;,
       0.013229;-0.016607; 0.020574;,
       0.013229;-0.010051; 0.020574;;
      104;
      4;3,2,1,0;,
      4;7,6,5,4;,
      4;11,10,9,8;,
      4;15,14,13,12;,
      4;19,18,17,16;,
      4;23,22,21,20;,
      4;27,26,25,24;,
      4;31,30,29,28;,
      4;35,34,33,32;,
      4;39,38,37,36;,
      4;43,42,41,40;,
      4;47,46,45,44;,
      4;51,50,49,48;,
      4;55,54,53,52;,
      4;59,58,57,56;,
      4;63,62,61,60;,
      4;67,66,65,64;,
      4;71,70,69,68;,
      4;75,74,73,72;,
      4;79,78,77,76;,
      4;83,82,81,80;,
      4;87,86,85,84;,
      4;91,90,89,88;,
      4;95,94,93,92;,
      4;99,98,97,96;,
      4;103,102,101,100;,
      4;107,106,105,104;,
      5;112,111,110,109,108;,
      4;116,115,114,113;,
      4;120,119,118,117;,
      4;124,123,122,121;,
      4;128,127,126,125;,
      5;133,132,131,130,129;,
      4;137,136,135,134;,
      4;141,140,139,138;,
      4;145,144,143,142;,
      4;149,148,147,146;,
      4;153,152,151,150;,
      4;157,156,155,154;,
      4;161,160,159,158;,
      4;165,164,163,162;,
      4;169,168,167,166;,
      3;172,171,170;,
      4;176,175,174,173;,
      4;180,179,178,177;,
      3;183,182,181;,
      4;187,186,185,184;,
      4;191,190,189,188;,
      4;195,194,193,192;,
      4;199,198,197,196;,
      4;203,202,201,200;,
      4;207,206,205,204;,
      4;211,210,209,208;,
      4;215,214,213,212;,
      4;219,218,217,216;,
      4;223,222,221,220;,
      4;227,226,225,224;,
      4;231,230,229,228;,
      4;235,234,233,232;,
      4;239,238,237,236;,
      4;243,242,241,240;,
      4;247,246,245,244;,
      4;251,250,249,248;,
      4;255,254,253,252;,
      4;259,258,257,256;,
      4;263,262,261,260;,
      4;267,266,265,264;,
      4;271,270,269,268;,
      4;275,274,273,272;,
      4;279,278,277,276;,
      4;283,282,281,280;,
      4;287,286,285,284;,
      4;291,290,289,288;,
      4;295,294,293,292;,
      4;299,298,297,296;,
      4;303,302,301,300;,
      4;307,306,305,304;,
      4;311,310,309,308;,
      4;315,314,313,312;,
      4;319,318,317,316;,
      4;323,322,321,320;,
      4;327,326,325,324;,
      4;331,330,329,328;,
      4;335,334,333,332;,
      4;339,338,337,336;,
      4;343,342,341,340;,
      4;347,346,345,344;,
      4;351,350,349,348;,
      4;355,354,353,352;,
      4;359,358,357,356;,
      4;363,362,361,360;,
      4;367,366,365,364;,
      4;371,370,369,368;,
      4;375,374,373,372;,
      4;379,378,377,376;,
      4;383,382,381,380;,
      4;387,386,385,384;,
      4;391,390,389,388;,
      4;395,394,393,392;,
      4;399,398,397,396;,
      4;403,402,401,400;,
      4;407,406,405,404;,
      4;411,410,409,408;,
      4;415,414,413,412;;
      MeshNormals {
        416;
         0.435367; 0.666755; 0.604891;,
         0.424359;-0.606420; 0.672439;,
         0.697601;-0.680552; 0.224058;,
         0.715352; 0.691286; 0.101954;,
        -0.301511; 0.301511; 0.904534;,
        -0.301511; 0.301511;-0.904534;,
         0.301511; 0.301511;-0.904534;,
         0.301511; 0.301511; 0.904534;,
        -0.694606;-0.679783;-0.235408;,
        -0.680499; 0.647007;-0.343952;,
        -0.422733; 0.533039;-0.732916;,
        -0.422113;-0.605003;-0.675123;,
        -0.694606;-0.679783;-0.235408;,
        -0.745573;-0.666401;-0.005511;,
        -0.748066; 0.653077;-0.117844;,
        -0.680499; 0.647007;-0.343952;,
        -0.745573;-0.666401;-0.005511;,
        -0.697601;-0.680552; 0.224058;,
        -0.715352; 0.691286; 0.101954;,
        -0.748066; 0.653077;-0.117844;,
         0.680499; 0.647007;-0.343952;,
         0.694606;-0.679783;-0.235408;,
         0.422113;-0.605003;-0.675123;,
         0.422733; 0.533039;-0.732916;,
         0.748066; 0.653077;-0.117844;,
         0.745573;-0.666401;-0.005511;,
         0.694606;-0.679783;-0.235408;,
         0.680499; 0.647007;-0.343952;,
         0.715352; 0.691286; 0.101954;,
         0.697601;-0.680552; 0.224058;,
         0.745573;-0.666401;-0.005511;,
         0.748066; 0.653077;-0.117844;,
        -0.658291;-0.752749; 0.004819;,
        -0.659102; 0.735375;-0.157506;,
        -0.663423; 0.744776; 0.071959;,
        -0.641134;-0.736178; 0.216771;,
         0.422733; 0.533039;-0.732916;,
         0.422113;-0.605003;-0.675123;,
        -0.422113;-0.605003;-0.675123;,
        -0.422733; 0.533039;-0.732916;,
        -0.301511; 0.301511; 0.904534;,
        -0.435367; 0.666755; 0.604891;,
        -0.424359;-0.606420; 0.672439;,
        -0.301511;-0.301511; 0.904534;,
         0.301511; 0.301511; 0.904534;,
         0.435367; 0.666755; 0.604891;,
        -0.435367; 0.666755; 0.604891;,
        -0.301511; 0.301511; 0.904534;,
         0.301511;-0.301511; 0.904534;,
         0.424359;-0.606420; 0.672439;,
         0.435367; 0.666755; 0.604891;,
         0.301511; 0.301511; 0.904534;,
        -0.301511;-0.301511; 0.904534;,
        -0.424359;-0.606420; 0.672439;,
         0.424359;-0.606420; 0.672439;,
         0.301511;-0.301511; 0.904534;,
         0.301511; 0.301511; 0.904534;,
         0.301511; 0.301511;-0.904534;,
         0.301511;-0.301511;-0.904534;,
         0.301511;-0.301511; 0.904534;,
        -0.301511;-0.301511; 0.904534;,
        -0.301511;-0.301511;-0.904534;,
        -0.301511; 0.301511;-0.904534;,
        -0.301511; 0.301511; 0.904534;,
         0.301511;-0.301511; 0.904534;,
         0.301511;-0.301511;-0.904534;,
        -0.301511;-0.301511;-0.904534;,
        -0.301511;-0.301511; 0.904534;,
        -0.577350; 0.577350; 0.577350;,
         0.577350; 0.577350; 0.577350;,
         0.577350; 0.577351;-0.577350;,
        -0.577350; 0.577351;-0.577350;,
         0.577350; 0.577350; 0.577350;,
         0.577350;-0.577350; 0.577350;,
         0.577350;-0.577350;-0.577350;,
         0.577350; 0.577351;-0.577350;,
         0.577350;-0.577350; 0.577350;,
        -0.577350;-0.577350; 0.577350;,
        -0.577350;-0.577350;-0.577350;,
         0.577350;-0.577350;-0.577350;,
        -0.577350;-0.577350; 0.577350;,
        -0.577350; 0.577350; 0.577350;,
        -0.577350; 0.577351;-0.577350;,
        -0.577350;-0.577350;-0.577350;,
         0.577350; 0.577350; 0.577350;,
        -0.577350; 0.577350; 0.577350;,
        -0.577350;-0.577350; 0.577350;,
         0.577350;-0.577350; 0.577350;,
        -0.577350;-0.577350;-0.577350;,
        -0.301512;-0.301511;-0.904534;,
         0.301511;-0.301511;-0.904534;,
         0.577350;-0.577350;-0.577350;,
         0.301511; 0.301512;-0.904534;,
         0.301511; 0.301511; 0.904534;,
        -0.301511; 0.301511; 0.904534;,
        -0.301511; 0.301511;-0.904534;,
         0.577350; 0.577351;-0.577350;,
         0.301511; 0.301512;-0.904534;,
        -0.301511; 0.301511;-0.904534;,
        -0.577350; 0.577351;-0.577350;,
        -0.577350; 0.577351;-0.577350;,
        -0.301511; 0.301511;-0.904534;,
        -0.301512;-0.301511;-0.904534;,
        -0.577350;-0.577350;-0.577350;,
         0.577350;-0.577350;-0.577350;,
         0.301511;-0.301511;-0.904534;,
         0.301511; 0.301512;-0.904534;,
         0.577350; 0.577351;-0.577350;,
        -0.301511; 0.301511; 0.904534;,
        -0.557128; 0.704477; 0.439683;,
        -0.695447;-0.037831; 0.717581;,
         0.000000;-0.052648; 0.998613;,
        -0.301511;-0.301512; 0.904534;,
        -0.301511; 0.301511;-0.904534;,
        -0.301511; 0.301511; 0.904534;,
        -0.301511;-0.301512; 0.904534;,
        -0.301512;-0.301511;-0.904534;,
         0.301511;-0.301511;-0.904534;,
         0.301511;-0.301512; 0.904534;,
         0.301511; 0.301511; 0.904534;,
         0.301511; 0.301512;-0.904534;,
        -0.301512;-0.301511;-0.904534;,
        -0.301511;-0.301512; 0.904534;,
         0.301511;-0.301512; 0.904534;,
         0.301511;-0.301511;-0.904534;,
        -0.583093;-0.603904; 0.543417;,
        -0.685572;-0.724457;-0.071785;,
         0.685572;-0.724457;-0.071785;,
         0.583093;-0.603904; 0.543417;,
         0.301511;-0.301512; 0.904534;,
         0.000000;-0.052648; 0.998613;,
         0.695447;-0.037831; 0.717581;,
         0.557128; 0.704477; 0.439683;,
         0.301511; 0.301511; 0.904534;,
        -0.301511;-0.301512; 0.904534;,
         0.000000;-0.052648; 0.998613;,
         0.000000;-0.052648; 0.998613;,
         0.301511;-0.301512; 0.904534;,
         0.301511; 0.301511; 0.904534;,
         0.557128; 0.704477; 0.439683;,
        -0.557128; 0.704477; 0.439683;,
        -0.301511; 0.301511; 0.904534;,
        -0.703988; 0.472067;-0.530617;,
        -0.272861; 0.380773;-0.883492;,
        -0.272360;-0.557658;-0.784116;,
        -0.707297;-0.587886;-0.392583;,
         0.557128; 0.704477; 0.439683;,
         0.605115; 0.421528;-0.675389;,
        -0.605115; 0.421528;-0.675389;,
        -0.557128; 0.704477; 0.439683;,
        -0.557128; 0.704477; 0.439683;,
        -0.605115; 0.421528;-0.675389;,
        -0.827174; 0.259518;-0.498432;,
        -0.695447;-0.037831; 0.717581;,
         0.583093;-0.603904; 0.543417;,
         0.685572;-0.724457;-0.071785;,
         0.827174; 0.259518;-0.498432;,
         0.695447;-0.037831; 0.717581;,
         0.272360;-0.557658;-0.784116;,
        -0.272360;-0.557658;-0.784116;,
        -0.272861; 0.380773;-0.883492;,
         0.272861; 0.380773;-0.883492;,
         0.000000;-0.052648; 0.998613;,
        -0.583093;-0.603904; 0.543417;,
         0.583093;-0.603904; 0.543417;,
         0.000000;-0.052648; 0.998613;,
        -0.827174; 0.259518;-0.498432;,
        -0.685572;-0.724457;-0.071785;,
        -0.583093;-0.603904; 0.543417;,
        -0.695447;-0.037831; 0.717581;,
        -0.695447;-0.037831; 0.717581;,
        -0.583093;-0.603904; 0.543417;,
         0.000000;-0.052648; 0.998613;,
         0.827174; 0.259518;-0.498432;,
         0.605115; 0.421528;-0.675389;,
         0.557128; 0.704477; 0.439683;,
         0.695447;-0.037831; 0.717581;,
        -0.827174; 0.259518;-0.498432;,
        -0.301511;-0.301511;-0.904534;,
         0.301511;-0.301511;-0.904534;,
         0.827174; 0.259518;-0.498432;,
         0.000000;-0.052648; 0.998613;,
         0.583093;-0.603904; 0.543417;,
         0.695447;-0.037831; 0.717581;,
         0.703988; 0.472067;-0.530617;,
         0.272861; 0.380773;-0.883492;,
        -0.272861; 0.380773;-0.883492;,
        -0.703988; 0.472067;-0.530617;,
         0.707297;-0.587886;-0.392583;,
         0.272360;-0.557658;-0.784116;,
         0.272861; 0.380773;-0.883492;,
         0.703988; 0.472067;-0.530617;,
        -0.707297;-0.587886;-0.392583;,
        -0.272360;-0.557658;-0.784116;,
         0.272360;-0.557658;-0.784116;,
         0.707297;-0.587886;-0.392583;,
        -0.685572;-0.724457;-0.071785;,
        -0.707297;-0.587886;-0.392583;,
         0.707297;-0.587886;-0.392583;,
         0.685572;-0.724457;-0.071785;,
         0.685572;-0.724457;-0.071785;,
         0.707297;-0.587886;-0.392583;,
         0.703988; 0.472067;-0.530617;,
         0.827174; 0.259518;-0.498432;,
         0.827174; 0.259518;-0.498432;,
         0.703988; 0.472067;-0.530617;,
        -0.703988; 0.472067;-0.530617;,
        -0.827174; 0.259518;-0.498432;,
        -0.827174; 0.259518;-0.498432;,
        -0.703988; 0.472067;-0.530617;,
        -0.707297;-0.587886;-0.392583;,
        -0.685572;-0.724457;-0.071785;,
         0.605115; 0.421528;-0.675389;,
         0.827174; 0.259518;-0.498432;,
         0.301511;-0.301511;-0.904534;,
         0.301511; 0.301511;-0.904534;,
        -0.284186;-0.847515;-0.448283;,
         0.424359;-0.606420; 0.672439;,
        -0.424359;-0.606420; 0.672439;,
         0.284186;-0.847515;-0.448283;,
         0.284200;-0.845832; 0.451441;,
        -0.422113;-0.605003;-0.675123;,
         0.422113;-0.605003;-0.675123;,
        -0.284200;-0.845832; 0.451441;,
        -0.641134;-0.736178; 0.216771;,
         0.694606;-0.679783;-0.235408;,
         0.745573;-0.666401;-0.005511;,
        -0.658291;-0.752749; 0.004819;,
         0.658290;-0.752749; 0.004819;,
        -0.745573;-0.666401;-0.005511;,
        -0.694606;-0.679783;-0.235408;,
         0.641134;-0.736178; 0.216771;,
        -0.658291;-0.752749; 0.004819;,
         0.745573;-0.666401;-0.005511;,
         0.697601;-0.680552; 0.224058;,
        -0.644875;-0.735805;-0.206706;,
         0.644875;-0.735805;-0.206706;,
        -0.697601;-0.680552; 0.224058;,
        -0.745573;-0.666401;-0.005511;,
         0.658290;-0.752749; 0.004819;,
        -0.284200;-0.845832; 0.451441;,
         0.422113;-0.605003;-0.675123;,
         0.694606;-0.679783;-0.235408;,
        -0.641134;-0.736178; 0.216771;,
         0.641134;-0.736178; 0.216771;,
        -0.694606;-0.679783;-0.235408;,
        -0.422113;-0.605003;-0.675123;,
         0.284200;-0.845832; 0.451441;,
         0.284186;-0.847515;-0.448283;,
        -0.424359;-0.606420; 0.672439;,
        -0.697601;-0.680552; 0.224058;,
         0.644875;-0.735805;-0.206706;,
        -0.644875;-0.735805;-0.206706;,
         0.697601;-0.680552; 0.224058;,
         0.424359;-0.606420; 0.672439;,
        -0.284186;-0.847515;-0.448283;,
        -0.659102; 0.735375;-0.157506;,
         0.748066; 0.653077;-0.117844;,
         0.680499; 0.647007;-0.343952;,
        -0.663423; 0.744776; 0.071959;,
        -0.663423; 0.744776; 0.071959;,
         0.680499; 0.647007;-0.343952;,
         0.422733; 0.533039;-0.732916;,
        -0.326666; 0.889540; 0.319386;,
         0.237574; 0.794498;-0.558867;,
        -0.435367; 0.666755; 0.604891;,
         0.435367; 0.666755; 0.604891;,
        -0.237574; 0.794498;-0.558867;,
        -0.618096; 0.703200;-0.351380;,
         0.715352; 0.691286; 0.101954;,
         0.748066; 0.653077;-0.117844;,
        -0.659102; 0.735375;-0.157506;,
        -0.237574; 0.794498;-0.558867;,
         0.435367; 0.666755; 0.604891;,
         0.715352; 0.691286; 0.101954;,
        -0.618096; 0.703200;-0.351380;,
         0.663423; 0.744776; 0.071959;,
        -0.680499; 0.647007;-0.343952;,
        -0.748066; 0.653077;-0.117844;,
         0.659102; 0.735375;-0.157506;,
         0.659102; 0.735375;-0.157506;,
        -0.748066; 0.653077;-0.117844;,
        -0.715352; 0.691286; 0.101954;,
         0.618096; 0.703200;-0.351380;,
        -0.326666; 0.889540; 0.319386;,
         0.422733; 0.533039;-0.732916;,
        -0.422733; 0.533039;-0.732916;,
         0.326666; 0.889540; 0.319387;,
         0.326666; 0.889540; 0.319387;,
        -0.422733; 0.533039;-0.732916;,
        -0.680499; 0.647007;-0.343952;,
         0.663423; 0.744776; 0.071959;,
         0.618096; 0.703200;-0.351380;,
        -0.715352; 0.691286; 0.101954;,
        -0.435367; 0.666755; 0.604891;,
         0.237574; 0.794498;-0.558867;,
        -0.641134;-0.736178; 0.216771;,
        -0.663423; 0.744776; 0.071959;,
        -0.326666; 0.889540; 0.319386;,
        -0.284200;-0.845832; 0.451441;,
        -0.658291;-0.752749; 0.004819;,
        -0.644875;-0.735805;-0.206706;,
        -0.618096; 0.703200;-0.351380;,
        -0.659102; 0.735375;-0.157506;,
        -0.644875;-0.735805;-0.206706;,
        -0.284186;-0.847515;-0.448283;,
        -0.237574; 0.794498;-0.558867;,
        -0.618096; 0.703200;-0.351380;,
         0.284186;-0.847515;-0.448283;,
         0.237574; 0.794498;-0.558867;,
        -0.237574; 0.794498;-0.558867;,
        -0.284186;-0.847515;-0.448283;,
         0.284186;-0.847515;-0.448283;,
         0.644875;-0.735805;-0.206706;,
         0.618096; 0.703200;-0.351380;,
         0.237574; 0.794498;-0.558867;,
         0.658290;-0.752749; 0.004819;,
         0.659102; 0.735375;-0.157506;,
         0.618096; 0.703200;-0.351380;,
         0.644875;-0.735805;-0.206706;,
         0.641134;-0.736178; 0.216771;,
         0.663423; 0.744776; 0.071959;,
         0.659102; 0.735375;-0.157506;,
         0.658290;-0.752749; 0.004819;,
         0.641134;-0.736178; 0.216771;,
         0.284200;-0.845832; 0.451441;,
         0.326666; 0.889540; 0.319387;,
         0.663423; 0.744776; 0.071959;,
        -0.284200;-0.845832; 0.451441;,
        -0.326666; 0.889540; 0.319386;,
         0.326666; 0.889540; 0.319387;,
         0.284200;-0.845832; 0.451441;,
        -0.605115; 0.421528;-0.675389;,
        -0.301511; 0.301511;-0.904534;,
        -0.301511;-0.301511;-0.904534;,
        -0.827174; 0.259518;-0.498432;,
        -0.605115; 0.421528;-0.675389;,
         0.605115; 0.421528;-0.675389;,
         0.301511; 0.301511;-0.904534;,
        -0.301511; 0.301511;-0.904534;,
        -0.706049; 0.689341; 0.162184;,
        -0.429502; 0.637526; 0.639601;,
         0.429502; 0.637526; 0.639601;,
         0.706049; 0.689341; 0.162184;,
        -0.690795;-0.665054; 0.283733;,
         0.690795;-0.665054; 0.283733;,
         0.428502;-0.568275; 0.702460;,
        -0.428502;-0.568275; 0.702460;,
        -0.429502; 0.637526; 0.639601;,
        -0.706049; 0.689341; 0.162184;,
        -0.690795;-0.665054; 0.283733;,
        -0.428502;-0.568275; 0.702460;,
        -0.686811; 0.666092;-0.290882;,
        -0.421797; 0.570112;-0.705024;,
        -0.423208;-0.638207;-0.643107;,
        -0.703061;-0.688454;-0.178148;,
         0.421797; 0.570112;-0.705024;,
         0.686811; 0.666092;-0.290882;,
         0.703061;-0.688454;-0.178148;,
         0.423208;-0.638207;-0.643107;,
         0.429502; 0.637526; 0.639601;,
        -0.429502; 0.637526; 0.639601;,
        -0.428502;-0.568275; 0.702460;,
         0.428502;-0.568275; 0.702460;,
        -0.746552; 0.662358;-0.062793;,
        -0.686811; 0.666092;-0.290882;,
        -0.703061;-0.688454;-0.178148;,
        -0.744982;-0.665050; 0.052060;,
         0.686811; 0.666092;-0.290882;,
         0.746552; 0.662358;-0.062793;,
         0.744982;-0.665050; 0.052060;,
         0.703061;-0.688454;-0.178148;,
         0.706049; 0.689341; 0.162184;,
         0.429502; 0.637526; 0.639601;,
         0.428502;-0.568275; 0.702460;,
         0.690795;-0.665054; 0.283733;,
        -0.706049; 0.689341; 0.162184;,
        -0.746552; 0.662358;-0.062793;,
        -0.744982;-0.665050; 0.052060;,
        -0.690795;-0.665054; 0.283733;,
        -0.421797; 0.570112;-0.705024;,
         0.421797; 0.570112;-0.705024;,
         0.423208;-0.638207;-0.643107;,
        -0.423208;-0.638207;-0.643107;,
         0.746552; 0.662358;-0.062793;,
         0.706049; 0.689341; 0.162184;,
         0.690795;-0.665054; 0.283733;,
         0.744982;-0.665050; 0.052060;,
        -0.423208;-0.638207;-0.643107;,
         0.423208;-0.638207;-0.643107;,
         0.703061;-0.688454;-0.178148;,
        -0.703061;-0.688454;-0.178148;,
        -0.703061;-0.688454;-0.178148;,
         0.703061;-0.688454;-0.178148;,
         0.744982;-0.665050; 0.052060;,
        -0.744982;-0.665050; 0.052060;,
        -0.744982;-0.665050; 0.052060;,
         0.744982;-0.665050; 0.052060;,
         0.690795;-0.665054; 0.283733;,
        -0.690795;-0.665054; 0.283733;,
        -0.421797; 0.570112;-0.705024;,
        -0.686811; 0.666092;-0.290882;,
         0.686811; 0.666092;-0.290882;,
         0.421797; 0.570112;-0.705024;,
        -0.686811; 0.666092;-0.290882;,
        -0.746552; 0.662358;-0.062793;,
         0.746552; 0.662358;-0.062793;,
         0.686811; 0.666092;-0.290882;,
        -0.746552; 0.662358;-0.062793;,
        -0.706049; 0.689341; 0.162184;,
         0.706049; 0.689341; 0.162184;,
         0.746552; 0.662358;-0.062793;,
        -0.424359;-0.606420; 0.672439;,
        -0.435367; 0.666755; 0.604891;,
        -0.715352; 0.691286; 0.101954;,
        -0.697601;-0.680552; 0.224058;;
        104;
        4;3,2,1,0;,
        4;7,6,5,4;,
        4;11,10,9,8;,
        4;15,14,13,12;,
        4;19,18,17,16;,
        4;23,22,21,20;,
        4;27,26,25,24;,
        4;31,30,29,28;,
        4;35,34,33,32;,
        4;39,38,37,36;,
        4;43,42,41,40;,
        4;47,46,45,44;,
        4;51,50,49,48;,
        4;55,54,53,52;,
        4;59,58,57,56;,
        4;63,62,61,60;,
        4;67,66,65,64;,
        4;71,70,69,68;,
        4;75,74,73,72;,
        4;79,78,77,76;,
        4;83,82,81,80;,
        4;87,86,85,84;,
        4;91,90,89,88;,
        4;95,94,93,92;,
        4;99,98,97,96;,
        4;103,102,101,100;,
        4;107,106,105,104;,
        5;112,111,110,109,108;,
        4;116,115,114,113;,
        4;120,119,118,117;,
        4;124,123,122,121;,
        4;128,127,126,125;,
        5;133,132,131,130,129;,
        4;137,136,135,134;,
        4;141,140,139,138;,
        4;145,144,143,142;,
        4;149,148,147,146;,
        4;153,152,151,150;,
        4;157,156,155,154;,
        4;161,160,159,158;,
        4;165,164,163,162;,
        4;169,168,167,166;,
        3;172,171,170;,
        4;176,175,174,173;,
        4;180,179,178,177;,
        3;183,182,181;,
        4;187,186,185,184;,
        4;191,190,189,188;,
        4;195,194,193,192;,
        4;199,198,197,196;,
        4;203,202,201,200;,
        4;207,206,205,204;,
        4;211,210,209,208;,
        4;215,214,213,212;,
        4;219,218,217,216;,
        4;223,222,221,220;,
        4;227,226,225,224;,
        4;231,230,229,228;,
        4;235,234,233,232;,
        4;239,238,237,236;,
        4;243,242,241,240;,
        4;247,246,245,244;,
        4;251,250,249,248;,
        4;255,254,253,252;,
        4;259,258,257,256;,
        4;263,262,261,260;,
        4;267,266,265,264;,
        4;271,270,269,268;,
        4;275,274,273,272;,
        4;279,278,277,276;,
        4;283,282,281,280;,
        4;287,286,285,284;,
        4;291,290,289,288;,
        4;295,294,293,292;,
        4;299,298,297,296;,
        4;303,302,301,300;,
        4;307,306,305,304;,
        4;311,310,309,308;,
        4;315,314,313,312;,
        4;319,318,317,316;,
        4;323,322,321,320;,
        4;327,326,325,324;,
        4;331,330,329,328;,
        4;335,334,333,332;,
        4;339,338,337,336;,
        4;343,342,341,340;,
        4;347,346,345,344;,
        4;351,350,349,348;,
        4;355,354,353,352;,
        4;359,358,357,356;,
        4;363,362,361,360;,
        4;367,366,365,364;,
        4;371,370,369,368;,
        4;375,374,373,372;,
        4;379,378,377,376;,
        4;383,382,381,380;,
        4;387,386,385,384;,
        4;391,390,389,388;,
        4;395,394,393,392;,
        4;399,398,397,396;,
        4;403,402,401,400;,
        4;407,406,405,404;,
        4;411,410,409,408;,
        4;415,414,413,412;;
      }
      MeshTextureCoords {
        416;
         0.914240; 0.010935;,
         0.989468; 0.010942;,
         0.989060; 0.073609;,
         0.924941; 0.073191;,
         0.675712; 0.651244;,
         0.685232; 0.651244;,
         0.685232; 0.829078;,
         0.675712; 0.829078;,
         0.967235; 0.357421;,
         0.926522; 0.357421;,
         0.937169; 0.295984;,
         0.967235; 0.295984;,
         0.967235; 0.357421;,
         0.967235; 0.414893;,
         0.915735; 0.414893;,
         0.926522; 0.357421;,
         0.967235; 0.414893;,
         0.967235; 0.476885;,
         0.903116; 0.476885;,
         0.915735; 0.414893;,
         0.947570; 0.192805;,
         0.988281; 0.193070;,
         0.987881; 0.254505;,
         0.957816; 0.254309;,
         0.937156; 0.135264;,
         0.988656; 0.135599;,
         0.988281; 0.193070;,
         0.947570; 0.192805;,
         0.924941; 0.073191;,
         0.989060; 0.073609;,
         0.988656; 0.135599;,
         0.937156; 0.135264;,
         0.536185; 0.329952;,
         0.484643; 0.329952;,
         0.493796; 0.280954;,
         0.536189; 0.281254;,
         0.881042; 0.244484;,
         0.881042; 0.274550;,
         0.676112; 0.274550;,
         0.676112; 0.244484;,
         0.743840; 0.658800;,
         0.730499; 0.644108;,
         0.805717; 0.645251;,
         0.792169; 0.658800;,
         0.743840; 0.836633;,
         0.730499; 0.851326;,
         0.730499; 0.644108;,
         0.743840; 0.658800;,
         0.792169; 0.836633;,
         0.805717; 0.850182;,
         0.730499; 0.851326;,
         0.743840; 0.836633;,
         0.792169; 0.658800;,
         0.805717; 0.645251;,
         0.805717; 0.850182;,
         0.792169; 0.836633;,
         0.869568; 0.896556;,
         0.879088; 0.896556;,
         0.879088; 0.944884;,
         0.869568; 0.944884;,
         0.879091; 0.998332;,
         0.869571; 0.998332;,
         0.869571; 0.950003;,
         0.879091; 0.950003;,
         0.827813; 0.510008;,
         0.827813; 0.519528;,
         0.649980; 0.519528;,
         0.649980; 0.510008;,
         0.866230; 0.998334;,
         0.626434; 0.998334;,
         0.626434; 0.922742;,
         0.866230; 0.922742;,
         0.920497; 0.143165;,
         0.466742; 0.143165;,
         0.466742; 0.067573;,
         0.920497; 0.067573;,
         0.542626; 0.753354;,
         0.542626; 0.513559;,
         0.618218; 0.513559;,
         0.618218; 0.753354;,
         0.001670; 0.060894;,
         0.455426; 0.060894;,
         0.455426; 0.136486;,
         0.001670; 0.136485;,
         0.001676; 0.753364;,
         0.001676; 0.513569;,
         0.455431; 0.513569;,
         0.455431; 0.753364;,
         0.866227; 0.468987;,
         0.846020; 0.507222;,
         0.646640; 0.507222;,
         0.626434; 0.468987;,
         0.997230; 0.998331;,
         0.976913; 0.998331;,
         0.976913; 0.798949;,
         0.997230; 0.798948;,
         0.626434; 0.922742;,
         0.646640; 0.884506;,
         0.846024; 0.884506;,
         0.866230; 0.922742;,
         0.881502; 0.042786;,
         0.843267; 0.062992;,
         0.465982; 0.062993;,
         0.427746; 0.042786;,
         0.626434; 0.468987;,
         0.646640; 0.507222;,
         0.646640; 0.884506;,
         0.626434; 0.922742;,
         0.585067; 0.978236;,
         0.623097; 0.998334;,
         0.168521; 0.998334;,
         0.168521; 0.982082;,
         0.207783; 0.978236;,
         0.382301; 0.038495;,
         0.382301; 0.018178;,
         0.759585; 0.018178;,
         0.759585; 0.038495;,
         0.378957; 0.035991;,
         0.378957; 0.056308;,
         0.001673; 0.056308;,
         0.001673; 0.035991;,
         0.809059; 0.640831;,
         0.829376; 0.640831;,
         0.829376; 0.840214;,
         0.809059; 0.840214;,
         0.458769; 0.513781;,
         0.482780; 0.513781;,
         0.482780; 0.753359;,
         0.458769; 0.753359;,
         0.207783; 0.778854;,
         0.168521; 0.775008;,
         0.168521; 0.758755;,
         0.623097; 0.758756;,
         0.585067; 0.778854;,
         0.207783; 0.978236;,
         0.168521; 0.982082;,
         0.168521; 0.775008;,
         0.207783; 0.778854;,
         0.585067; 0.778854;,
         0.623097; 0.758756;,
         0.623097; 0.998334;,
         0.585067; 0.978236;,
         0.395761; 0.208812;,
         0.372144; 0.247728;,
         0.256735; 0.235523;,
         0.255556; 0.193985;,
         0.973571; 0.998335;,
         0.927314; 0.998335;,
         0.927314; 0.758757;,
         0.973571; 0.758757;,
         0.874385; 0.189779;,
         0.849811; 0.228969;,
         0.417960; 0.183300;,
         0.422331; 0.141973;,
         0.540828; 0.290131;,
         0.564705; 0.287606;,
         0.582154; 0.452607;,
         0.540828; 0.456978;,
         0.575380; 0.795198;,
         0.575380; 0.973832;,
         0.459328; 0.973832;,
         0.459328; 0.795198;,
         0.168521; 0.982082;,
         0.001674; 0.998334;,
         0.001674; 0.758755;,
         0.168521; 0.775008;,
         0.417960; 0.183300;,
         0.252959; 0.165851;,
         0.255484; 0.141973;,
         0.422331; 0.141973;,
         0.168521; 0.998334;,
         0.001674; 0.998334;,
         0.168521; 0.982082;,
         0.923968; 0.542744;,
         0.923968; 0.977004;,
         0.882411; 0.997321;,
         0.882411; 0.542745;,
         0.001675; 0.268810;,
         0.371730; 0.299683;,
         0.371730; 0.477516;,
         0.001675; 0.508389;,
         0.168521; 0.775008;,
         0.001674; 0.758755;,
         0.168521; 0.758755;,
         0.001672; 0.229599;,
         0.032144; 0.195781;,
         0.210778; 0.195781;,
         0.241251; 0.229599;,
         0.592839; 0.290203;,
         0.634377; 0.291382;,
         0.646582; 0.406791;,
         0.607666; 0.430408;,
         0.511034; 0.513781;,
         0.539287; 0.544253;,
         0.539287; 0.722887;,
         0.511034; 0.753359;,
         0.482780; 0.513781;,
         0.511034; 0.513781;,
         0.511034; 0.753359;,
         0.482780; 0.753359;,
         0.564705; 0.287606;,
         0.592839; 0.290203;,
         0.607666; 0.430408;,
         0.582154; 0.452607;,
         0.001672; 0.263417;,
         0.001672; 0.229599;,
         0.241251; 0.229599;,
         0.241251; 0.263417;,
         0.417960; 0.183300;,
         0.395761; 0.208812;,
         0.255556; 0.193985;,
         0.252959; 0.165851;,
         0.435934; 0.508389;,
         0.001675; 0.508389;,
         0.371730; 0.477516;,
         0.420058; 0.477516;,
         0.672378; 0.831831;,
         0.649989; 0.841940;,
         0.649978; 0.637010;,
         0.672368; 0.647116;,
         0.856674; 0.646979;,
         0.879063; 0.636997;,
         0.879074; 0.841927;,
         0.856684; 0.831948;,
         0.815033; 0.852239;,
         0.823843; 0.868834;,
         0.767520; 0.880269;,
         0.767309; 0.861928;,
         0.767296; 0.617008;,
         0.767504; 0.598667;,
         0.823829; 0.610097;,
         0.815021; 0.626693;,
         0.767309; 0.861928;,
         0.767520; 0.880269;,
         0.706591; 0.868840;,
         0.715100; 0.852135;,
         0.715088; 0.626807;,
         0.706577; 0.610103;,
         0.767504; 0.598667;,
         0.767296; 0.617008;,
         0.856684; 0.831948;,
         0.879074; 0.841927;,
         0.823843; 0.868834;,
         0.815033; 0.852239;,
         0.815021; 0.626693;,
         0.823829; 0.610097;,
         0.879063; 0.636997;,
         0.856674; 0.646979;,
         0.672368; 0.647116;,
         0.649978; 0.637010;,
         0.706577; 0.610103;,
         0.715088; 0.626807;,
         0.715100; 0.852135;,
         0.706591; 0.868840;,
         0.649989; 0.841940;,
         0.672378; 0.831831;,
         0.553084; 0.463310;,
         0.552871; 0.481631;,
         0.495523; 0.470199;,
         0.504200; 0.453565;,
         0.504200; 0.453565;,
         0.495523; 0.470199;,
         0.439274; 0.443295;,
         0.461663; 0.433219;,
         0.650381; 0.247649;,
         0.672770; 0.237221;,
         0.672770; 0.444439;,
         0.650381; 0.434011;,
         0.606929; 0.453416;,
         0.615092; 0.470198;,
         0.552871; 0.481631;,
         0.553084; 0.463310;,
         0.650381; 0.434011;,
         0.672770; 0.444439;,
         0.615092; 0.470198;,
         0.606929; 0.453416;,
         0.504200; 0.228095;,
         0.495523; 0.211461;,
         0.552871; 0.200029;,
         0.553084; 0.218350;,
         0.553084; 0.218350;,
         0.552871; 0.200029;,
         0.615092; 0.211461;,
         0.606930; 0.228243;,
         0.461663; 0.433219;,
         0.439274; 0.443295;,
         0.439274; 0.238365;,
         0.461663; 0.248441;,
         0.461663; 0.248441;,
         0.439274; 0.238365;,
         0.495523; 0.211461;,
         0.504200; 0.228095;,
         0.606930; 0.228243;,
         0.615092; 0.211461;,
         0.672770; 0.237221;,
         0.650381; 0.247649;,
         0.536189; 0.281254;,
         0.493796; 0.280954;,
         0.501809; 0.234487;,
         0.536208; 0.234924;,
         0.536185; 0.329952;,
         0.536189; 0.383072;,
         0.473650; 0.383584;,
         0.484643; 0.329952;,
         0.536189; 0.383072;,
         0.536208; 0.430373;,
         0.465318; 0.430437;,
         0.473650; 0.383584;,
         0.650822; 0.595240;,
         0.649999; 0.524354;,
         0.836361; 0.524354;,
         0.835537; 0.595240;,
         0.998331; 0.557459;,
         0.998312; 0.604760;,
         0.935773; 0.604249;,
         0.927441; 0.557396;,
         0.998308; 0.657880;,
         0.946766; 0.657880;,
         0.935773; 0.604249;,
         0.998312; 0.604760;,
         0.998312; 0.706578;,
         0.955919; 0.706879;,
         0.946766; 0.657880;,
         0.998308; 0.657880;,
         0.998312; 0.706578;,
         0.998331; 0.752909;,
         0.963932; 0.753346;,
         0.955919; 0.706879;,
         0.689688; 0.650783;,
         0.724091; 0.650878;,
         0.724090; 0.835657;,
         0.689688; 0.835752;,
         0.435934; 0.268810;,
         0.420058; 0.299683;,
         0.371730; 0.299683;,
         0.001675; 0.268810;,
         0.435934; 0.268810;,
         0.435934; 0.508389;,
         0.420058; 0.477516;,
         0.420058; 0.299683;,
         0.911092; 0.420969;,
         0.891235; 0.463854;,
         0.705697; 0.463854;,
         0.685841; 0.420968;,
         0.446176; 0.831091;,
         0.220926; 0.831091;,
         0.240782; 0.788206;,
         0.426320; 0.788206;,
         0.199780; 0.191875;,
         0.152522; 0.192153;,
         0.151120; 0.177323;,
         0.198378; 0.177044;,
         0.049804; 0.191750;,
         0.003233; 0.192140;,
         0.001831; 0.177310;,
         0.048401; 0.176919;,
         0.985852; 0.356222;,
         0.985462; 0.402792;,
         0.970632; 0.401389;,
         0.971022; 0.354819;,
         0.847610; 0.645763;,
         0.847610; 0.831302;,
         0.832713; 0.831302;,
         0.832713; 0.645763;,
         0.098866; 0.191704;,
         0.049804; 0.191750;,
         0.048401; 0.176919;,
         0.097464; 0.176874;,
         0.985462; 0.402792;,
         0.985417; 0.451854;,
         0.970586; 0.450452;,
         0.970632; 0.401389;,
         0.985865; 0.505510;,
         0.985587; 0.552769;,
         0.970756; 0.551366;,
         0.971035; 0.504108;,
         0.152522; 0.192153;,
         0.098866; 0.191704;,
         0.097464; 0.176874;,
         0.151120; 0.177323;,
         0.001674; 0.157219;,
         0.186548; 0.157219;,
         0.186548; 0.172116;,
         0.001674; 0.172116;,
         0.985417; 0.451854;,
         0.985865; 0.505510;,
         0.971035; 0.504108;,
         0.970586; 0.450452;,
         0.425988; 0.973836;,
         0.241114; 0.973836;,
         0.220797; 0.931929;,
         0.446305; 0.931929;,
         0.446305; 0.931929;,
         0.220797; 0.931929;,
         0.211081; 0.883838;,
         0.456021; 0.883838;,
         0.456021; 0.883838;,
         0.211081; 0.883838;,
         0.220926; 0.831091;,
         0.446176; 0.831091;,
         0.890904; 0.278224;,
         0.911220; 0.320131;,
         0.685712; 0.320131;,
         0.706029; 0.278224;,
         0.911220; 0.320131;,
         0.920936; 0.368222;,
         0.675996; 0.368222;,
         0.685712; 0.320131;,
         0.920936; 0.368222;,
         0.911092; 0.420969;,
         0.685841; 0.420968;,
         0.675996; 0.368222;,
         0.967235; 0.539553;,
         0.892009; 0.539070;,
         0.903116; 0.476885;,
         0.967235; 0.476885;;
      }
      MeshMaterialList {
        1;
        104;
        0,
        0,
        0,
        0,
        0,
        0,
        0,
        0,
        0,
        0,
        0,
        0,
        0,
        0,
        0,
        0,
        0,
        0,
        0,
        0,
        0,
        0,
        0,
        0,
        0,
        0,
        0,
        0,
        0,
        0,
        0,
        0,
        0,
        0,
        0,
        0,
        0,
        0,
        0,
        0,
        0,
        0,
        0,
        0,
        0,
        0,
        0,
        0,
        0,
        0,
        0,
        0,
        0,
        0,
        0,
        0,
        0,
        0,
        0,
        0,
        0,
        0,
        0,
        0,
        0,
        0,
        0,
        0,
        0,
        0,
        0,
        0,
        0,
        0,
        0,
        0,
        0,
        0,
        0,
        0,
        0,
        0,
        0,
        0,
        0,
        0,
        0,
        0,
        0,
        0,
        0,
        0,
        0,
        0,
        0,
        0,
        0,
        0,
        0,
        0,
        0,
        0,
        0,
        0;
        Material Crosshair1 {
           0.800000; 0.800000; 0.800000; 1.000000;;
           225.000000;
           0.500000; 0.500000; 0.500000;;
           0.000000; 0.000000; 0.000000;;
        }
      }
    }
  }
}
