xof 0303txt 0032

Frame Root {
  FrameTransformMatrix {
     1.000000, 0.000000, 0.000000, 0.000000,
     0.000000,-0.000000, 1.000000, 0.000000,
     0.000000, 1.000000, 0.000000, 0.000000,
     0.000000, 0.000000, 0.000000, 1.000000;;
  }
  Frame Laser1_x_Root_Laser1 {
    FrameTransformMatrix {
      -0.000000, 0.000000,-1.000000, 0.000000,
      -1.000000,-0.000000, 0.000000, 0.000000,
      -0.000000, 1.000000, 0.000000, 0.000000,
       0.000000, 0.000000, 0.000000, 1.000000;;
    }
    Mesh {
      678;
       0.003945; 0.006833; 0.005586;,
       0.003417; 0.005919; 0.006835;,
       0.000000; 0.006835; 0.006835;,
       0.000000; 0.007890; 0.005586;,
       0.006833; 0.003945; 0.005586;,
       0.005919; 0.003417; 0.006835;,
       0.003417; 0.005919; 0.006835;,
       0.003945; 0.006833; 0.005586;,
       0.007890; 0.000000; 0.005586;,
       0.006835; 0.000000; 0.006835;,
       0.005919; 0.003417; 0.006835;,
       0.006833; 0.003945; 0.005586;,
       0.006833;-0.003945; 0.005586;,
       0.005919;-0.003417; 0.006835;,
       0.006835; 0.000000; 0.006835;,
       0.007890; 0.000000; 0.005586;,
       0.003945;-0.006833; 0.005586;,
       0.003417;-0.005919; 0.006835;,
       0.005919;-0.003417; 0.006835;,
       0.006833;-0.003945; 0.005586;,
       0.000000;-0.007890; 0.005586;,
       0.000000;-0.006835; 0.006835;,
       0.003417;-0.005919; 0.006835;,
       0.003945;-0.006833; 0.005586;,
      -0.003945;-0.006833; 0.005586;,
      -0.003417;-0.005919; 0.006835;,
       0.000000;-0.006835; 0.006835;,
       0.000000;-0.007890; 0.005586;,
      -0.006833;-0.003945; 0.005586;,
      -0.005919;-0.003417; 0.006835;,
      -0.003417;-0.005919; 0.006835;,
      -0.003945;-0.006833; 0.005586;,
      -0.007890; 0.000000; 0.005586;,
      -0.006835; 0.000000; 0.006835;,
      -0.005919;-0.003417; 0.006835;,
      -0.006833;-0.003945; 0.005586;,
      -0.006833; 0.003945; 0.005586;,
      -0.005919; 0.003417; 0.006835;,
      -0.006835; 0.000000; 0.006835;,
      -0.007890; 0.000000; 0.005586;,
       0.000000; 0.001865; 0.005420;,
      -0.000932; 0.001616; 0.005420;,
      -0.000932; 0.001616; 0.006835;,
       0.000000; 0.001865; 0.006835;,
      -0.003945; 0.006833; 0.005586;,
      -0.003417; 0.005919; 0.006835;,
      -0.005919; 0.003417; 0.006835;,
      -0.006833; 0.003945; 0.005586;,
       0.000000; 0.007890; 0.005586;,
       0.000000; 0.006835; 0.006835;,
      -0.003417; 0.005919; 0.006835;,
      -0.003945; 0.006833; 0.005586;,
      -0.003945;-0.006833; 0.004144;,
      -0.006833;-0.003945; 0.004144;,
      -0.006833;-0.003945; 0.005586;,
      -0.003945;-0.006833; 0.005586;,
       0.008662; 0.000000; 0.004144;,
       0.007501;-0.004330; 0.004144;,
       0.006833;-0.003945; 0.004144;,
       0.007890; 0.000000; 0.004144;,
       0.000000;-0.007890; 0.004144;,
      -0.003945;-0.006833; 0.004144;,
      -0.003945;-0.006833; 0.005586;,
       0.000000;-0.007890; 0.005586;,
       0.003945;-0.006833; 0.004144;,
       0.000000;-0.007890; 0.004144;,
       0.000000;-0.007890; 0.005586;,
       0.003945;-0.006833; 0.005586;,
       0.006833;-0.003945; 0.004144;,
       0.003945;-0.006833; 0.004144;,
       0.003945;-0.006833; 0.005586;,
       0.006833;-0.003945; 0.005586;,
       0.007890; 0.000000; 0.004144;,
       0.006833;-0.003945; 0.004144;,
       0.006833;-0.003945; 0.005586;,
       0.007890; 0.000000; 0.005586;,
      -0.003945; 0.006833; 0.004144;,
       0.000000; 0.007890; 0.004144;,
       0.000000; 0.007890; 0.005586;,
      -0.003945; 0.006833; 0.005586;,
       0.000000; 0.007890; 0.004144;,
       0.003945; 0.006833; 0.004144;,
       0.003945; 0.006833; 0.005586;,
       0.000000; 0.007890; 0.005586;,
       0.006833; 0.003945; 0.004144;,
       0.007890; 0.000000; 0.004144;,
       0.007890; 0.000000; 0.005586;,
       0.006833; 0.003945; 0.005586;,
      -0.006833; 0.003945; 0.004144;,
      -0.003945; 0.006833; 0.004144;,
      -0.003945; 0.006833; 0.005586;,
      -0.006833; 0.003945; 0.005586;,
       0.003945; 0.006833; 0.004144;,
       0.006833; 0.003945; 0.004144;,
       0.006833; 0.003945; 0.005586;,
       0.003945; 0.006833; 0.005586;,
      -0.007890; 0.000000; 0.004144;,
      -0.006833; 0.003945; 0.004144;,
      -0.006833; 0.003945; 0.005586;,
      -0.007890; 0.000000; 0.005586;,
      -0.006833;-0.003945; 0.004144;,
      -0.007890; 0.000000; 0.004144;,
      -0.007890; 0.000000; 0.005586;,
      -0.006833;-0.003945; 0.005586;,
      -0.007501; 0.004330; 0.004144;,
      -0.004330; 0.007501; 0.004144;,
      -0.003945; 0.006833; 0.004144;,
      -0.006833; 0.003945; 0.004144;,
       0.000000; 0.008662; 0.004144;,
       0.004330; 0.007501; 0.004144;,
       0.003945; 0.006833; 0.004144;,
       0.000000; 0.007890; 0.004144;,
      -0.004330;-0.007501; 0.004144;,
      -0.007501;-0.004330; 0.004144;,
      -0.006833;-0.003945; 0.004144;,
      -0.003945;-0.006833; 0.004144;,
       0.007501;-0.004330; 0.004144;,
       0.004330;-0.007501; 0.004144;,
       0.003945;-0.006833; 0.004144;,
       0.006833;-0.003945; 0.004144;,
      -0.004330; 0.007501; 0.004144;,
       0.000000; 0.008662; 0.004144;,
       0.000000; 0.007890; 0.004144;,
      -0.003945; 0.006833; 0.004144;,
       0.004330; 0.007501; 0.004144;,
       0.007501; 0.004330; 0.004144;,
       0.006833; 0.003945; 0.004144;,
       0.003945; 0.006833; 0.004144;,
      -0.007501;-0.004330; 0.004144;,
      -0.008662; 0.000000; 0.004144;,
      -0.007890; 0.000000; 0.004144;,
      -0.006833;-0.003945; 0.004144;,
       0.004330;-0.007501; 0.004144;,
       0.000000;-0.008662; 0.004144;,
       0.000000;-0.007890; 0.004144;,
       0.003945;-0.006833; 0.004144;,
       0.007501; 0.004330; 0.004144;,
       0.008662; 0.000000; 0.004144;,
       0.007890; 0.000000; 0.004144;,
       0.006833; 0.003945; 0.004144;,
      -0.008662; 0.000000; 0.004144;,
      -0.007501; 0.004330; 0.004144;,
      -0.006833; 0.003945; 0.004144;,
      -0.007890; 0.000000; 0.004144;,
       0.000000;-0.008662; 0.004144;,
      -0.004330;-0.007501; 0.004144;,
      -0.003945;-0.006833; 0.004144;,
       0.000000;-0.007890; 0.004144;,
       0.000000;-0.007106;-0.056847;,
      -0.003554;-0.006155;-0.056847;,
      -0.004330;-0.007501;-0.055751;,
       0.000000;-0.008662;-0.055751;,
      -0.004330; 0.007501;-0.055751;,
       0.000000; 0.008662;-0.055751;,
       0.000000; 0.008662; 0.004144;,
      -0.004330; 0.007501; 0.004144;,
       0.004330; 0.007501;-0.055751;,
       0.007501; 0.004330;-0.055751;,
       0.007501; 0.004330; 0.004144;,
       0.004330; 0.007501; 0.004144;,
       0.004330;-0.007501;-0.055751;,
       0.000000;-0.008662;-0.055751;,
       0.000000;-0.008662; 0.004144;,
       0.004330;-0.007501; 0.004144;,
      -0.003554; 0.006155;-0.056847;,
      -0.006155; 0.003554;-0.056847;,
      -0.007106; 0.000000;-0.056847;,
      -0.006155;-0.003554;-0.056847;,
      -0.003554;-0.006155;-0.056847;,
       0.000000;-0.007106;-0.056847;,
       0.003554;-0.006155;-0.056847;,
       0.006155;-0.003554;-0.056847;,
       0.007106; 0.000000;-0.056847;,
       0.006155; 0.003554;-0.056847;,
       0.003554; 0.006155;-0.056847;,
       0.000000; 0.007106;-0.056847;,
       0.007106; 0.000000;-0.056847;,
       0.006155;-0.003554;-0.056847;,
       0.007501;-0.004330;-0.055751;,
       0.008662; 0.000000;-0.055751;,
      -0.006155; 0.003554;-0.056847;,
      -0.003554; 0.006155;-0.056847;,
      -0.004330; 0.007501;-0.055751;,
      -0.007501; 0.004330;-0.055751;,
       0.000000; 0.007106;-0.056847;,
       0.003554; 0.006155;-0.056847;,
       0.004330; 0.007501;-0.055751;,
       0.000000; 0.008662;-0.055751;,
      -0.003554;-0.006155;-0.056847;,
      -0.006155;-0.003554;-0.056847;,
      -0.007501;-0.004330;-0.055751;,
      -0.004330;-0.007501;-0.055751;,
       0.006155;-0.003554;-0.056847;,
       0.003554;-0.006155;-0.056847;,
       0.004330;-0.007501;-0.055751;,
       0.007501;-0.004330;-0.055751;,
      -0.003554; 0.006155;-0.056847;,
       0.000000; 0.007106;-0.056847;,
       0.000000; 0.008662;-0.055751;,
      -0.004330; 0.007501;-0.055751;,
       0.003554; 0.006155;-0.056847;,
       0.006155; 0.003554;-0.056847;,
       0.007501; 0.004330;-0.055751;,
       0.004330; 0.007501;-0.055751;,
      -0.006155;-0.003554;-0.056847;,
      -0.007106; 0.000000;-0.056847;,
      -0.008662; 0.000000;-0.055751;,
      -0.007501;-0.004330;-0.055751;,
       0.003554;-0.006155;-0.056847;,
       0.000000;-0.007106;-0.056847;,
       0.000000;-0.008662;-0.055751;,
       0.004330;-0.007501;-0.055751;,
       0.006155; 0.003554;-0.056847;,
       0.007106; 0.000000;-0.056847;,
       0.008662; 0.000000;-0.055751;,
       0.007501; 0.004330;-0.055751;,
      -0.007106; 0.000000;-0.056847;,
      -0.006155; 0.003554;-0.056847;,
      -0.007501; 0.004330;-0.055751;,
      -0.008662; 0.000000;-0.055751;,
       0.000000;-0.008662;-0.055751;,
      -0.004330;-0.007501;-0.055751;,
      -0.004330;-0.007501; 0.004144;,
       0.000000;-0.008662; 0.004144;,
      -0.008662; 0.000000;-0.055751;,
      -0.007501; 0.004330;-0.055751;,
      -0.007501; 0.004330; 0.004144;,
      -0.008662; 0.000000; 0.004144;,
       0.007501; 0.004330;-0.055751;,
       0.008662; 0.000000;-0.055751;,
       0.008662; 0.000000; 0.004144;,
       0.007501; 0.004330; 0.004144;,
      -0.007501;-0.004330;-0.055751;,
      -0.008662; 0.000000;-0.055751;,
      -0.008662; 0.000000; 0.004144;,
      -0.007501;-0.004330; 0.004144;,
      -0.007501;-0.004330;-0.055751;,
      -0.007501;-0.004330; 0.004144;,
      -0.004330;-0.007501; 0.004144;,
      -0.004330;-0.007501;-0.055751;,
       0.004330; 0.007501;-0.055751;,
       0.004330; 0.007501; 0.004144;,
       0.000000; 0.008662; 0.004144;,
       0.000000; 0.008662;-0.055751;,
      -0.004330; 0.007501;-0.055751;,
      -0.004330; 0.007501; 0.004144;,
      -0.007501; 0.004330; 0.004144;,
      -0.007501; 0.004330;-0.055751;,
       0.007501;-0.004330;-0.055751;,
       0.007501;-0.004330; 0.004144;,
       0.008662; 0.000000; 0.004144;,
       0.008662; 0.000000;-0.055751;,
       0.007501;-0.004330; 0.004144;,
       0.007501;-0.004330;-0.055751;,
       0.004330;-0.007501;-0.055751;,
       0.004330;-0.007501; 0.004144;,
       0.000000; 0.006835; 0.006835;,
       0.003417; 0.005919; 0.006835;,
       0.000932; 0.001616; 0.006835;,
       0.000000; 0.001865; 0.006835;,
       0.003417; 0.005919; 0.006835;,
       0.005919; 0.003417; 0.006835;,
       0.001616; 0.000932; 0.006835;,
       0.000932; 0.001616; 0.006835;,
       0.005919; 0.003417; 0.006835;,
       0.006835; 0.000000; 0.006835;,
       0.001865; 0.000000; 0.006835;,
       0.001616; 0.000932; 0.006835;,
       0.006835; 0.000000; 0.006835;,
       0.005919;-0.003417; 0.006835;,
       0.001616;-0.000932; 0.006835;,
       0.001865; 0.000000; 0.006835;,
       0.005919;-0.003417; 0.006835;,
       0.003417;-0.005919; 0.006835;,
       0.000932;-0.001616; 0.006835;,
       0.001616;-0.000932; 0.006835;,
       0.003417;-0.005919; 0.006835;,
       0.000000;-0.006835; 0.006835;,
       0.000000;-0.001865; 0.006835;,
       0.000932;-0.001616; 0.006835;,
       0.000000;-0.006835; 0.006835;,
      -0.003417;-0.005919; 0.006835;,
      -0.000932;-0.001616; 0.006835;,
       0.000000;-0.001865; 0.006835;,
      -0.003417;-0.005919; 0.006835;,
      -0.005919;-0.003417; 0.006835;,
      -0.001616;-0.000932; 0.006835;,
      -0.000932;-0.001616; 0.006835;,
      -0.005919;-0.003417; 0.006835;,
      -0.006835; 0.000000; 0.006835;,
      -0.001865; 0.000000; 0.006835;,
      -0.001616;-0.000932; 0.006835;,
      -0.006835; 0.000000; 0.006835;,
      -0.005919; 0.003417; 0.006835;,
      -0.001616; 0.000932; 0.006835;,
      -0.001865; 0.000000; 0.006835;,
      -0.005919; 0.003417; 0.006835;,
      -0.003417; 0.005919; 0.006835;,
      -0.000932; 0.001616; 0.006835;,
      -0.001616; 0.000932; 0.006835;,
      -0.003417; 0.005919; 0.006835;,
       0.000000; 0.006835; 0.006835;,
       0.000000; 0.001865; 0.006835;,
      -0.000932; 0.001616; 0.006835;,
       0.001616; 0.000932; 0.005420;,
       0.001865; 0.000000; 0.005420;,
       0.001616;-0.000932; 0.005420;,
       0.000932;-0.001616; 0.005420;,
       0.000000;-0.001865; 0.005420;,
      -0.000932;-0.001616; 0.005420;,
      -0.001616;-0.000932; 0.005420;,
      -0.001865; 0.000000; 0.005420;,
      -0.001616; 0.000932; 0.005420;,
      -0.000932; 0.001616; 0.005420;,
       0.000000; 0.001865; 0.005420;,
       0.000932; 0.001616; 0.005420;,
       0.001616; 0.000932; 0.005420;,
       0.000932; 0.001616; 0.005420;,
       0.000932; 0.001616; 0.006835;,
       0.001616; 0.000932; 0.006835;,
      -0.001865; 0.000000; 0.005420;,
      -0.001616;-0.000932; 0.005420;,
      -0.001616;-0.000932; 0.006835;,
      -0.001865; 0.000000; 0.006835;,
       0.000000;-0.001865; 0.005420;,
       0.000932;-0.001616; 0.005420;,
       0.000932;-0.001616; 0.006835;,
       0.000000;-0.001865; 0.006835;,
       0.001865; 0.000000; 0.005420;,
       0.001616; 0.000932; 0.005420;,
       0.001616; 0.000932; 0.006835;,
       0.001865; 0.000000; 0.006835;,
      -0.001616; 0.000932; 0.005420;,
      -0.001865; 0.000000; 0.005420;,
      -0.001865; 0.000000; 0.006835;,
      -0.001616; 0.000932; 0.006835;,
      -0.000932;-0.001616; 0.005420;,
       0.000000;-0.001865; 0.005420;,
       0.000000;-0.001865; 0.006835;,
      -0.000932;-0.001616; 0.006835;,
       0.001616;-0.000932; 0.005420;,
       0.001865; 0.000000; 0.005420;,
       0.001865; 0.000000; 0.006835;,
       0.001616;-0.000932; 0.006835;,
      -0.000932; 0.001616; 0.005420;,
      -0.001616; 0.000932; 0.005420;,
      -0.001616; 0.000932; 0.006835;,
      -0.000932; 0.001616; 0.006835;,
       0.000932; 0.001616; 0.005420;,
       0.000000; 0.001865; 0.005420;,
       0.000000; 0.001865; 0.006835;,
       0.000932; 0.001616; 0.006835;,
      -0.001616;-0.000932; 0.005420;,
      -0.000932;-0.001616; 0.005420;,
      -0.000932;-0.001616; 0.006835;,
      -0.001616;-0.000932; 0.006835;,
       0.000932;-0.001616; 0.005420;,
       0.001616;-0.000932; 0.005420;,
       0.001616;-0.000932; 0.006835;,
       0.000932;-0.001616; 0.006835;,
       0.010583; 0.005621;-0.009687;,
       0.010581; 0.005621;-0.027536;,
       0.010581; 0.008052;-0.027536;,
       0.010583; 0.008052;-0.009687;,
       0.016082; 0.008052;-0.009687;,
       0.010583; 0.008052;-0.009687;,
       0.010581; 0.008052;-0.027536;,
       0.016082; 0.008052;-0.027536;,
       0.016082;-0.008052;-0.027536;,
       0.010581;-0.008052;-0.027536;,
       0.010583;-0.008052;-0.009687;,
       0.016082;-0.008052;-0.009687;,
       0.016082; 0.008052;-0.027536;,
       0.010581; 0.008052;-0.027536;,
       0.010581; 0.005621;-0.027536;,
       0.011089; 0.005830;-0.027536;,
       0.013732; 0.005830;-0.027536;,
       0.013732; 0.003440;-0.027536;,
       0.016082; 0.003440;-0.027536;,
       0.016082; 0.003440;-0.009687;,
       0.013732; 0.003440;-0.009687;,
       0.013732; 0.005830;-0.009687;,
       0.011089; 0.005830;-0.009687;,
       0.010583; 0.005621;-0.009687;,
       0.010583; 0.008052;-0.009687;,
       0.016082; 0.008052;-0.009687;,
       0.016082;-0.008052;-0.027536;,
       0.016082;-0.008052;-0.009687;,
       0.016082;-0.003440;-0.009687;,
       0.016082;-0.003440;-0.027536;,
       0.016082;-0.008052;-0.009687;,
       0.010583;-0.008052;-0.009687;,
       0.010583;-0.005621;-0.009687;,
       0.011089;-0.005830;-0.009687;,
       0.013732;-0.005830;-0.009687;,
       0.013732;-0.003440;-0.009687;,
       0.016082;-0.003440;-0.009687;,
       0.016082; 0.003440;-0.027536;,
       0.016082; 0.003440;-0.009687;,
       0.016082; 0.008052;-0.009687;,
       0.016082; 0.008052;-0.027536;,
       0.016082;-0.003440;-0.027536;,
       0.013732;-0.003440;-0.027536;,
       0.013732;-0.005830;-0.027536;,
       0.011089;-0.005830;-0.027536;,
       0.010581;-0.005621;-0.027536;,
       0.010581;-0.008052;-0.027536;,
       0.016082;-0.008052;-0.027536;,
      -0.005057;-0.008760;-0.009435;,
       0.000000;-0.010116;-0.009435;,
       0.000000;-0.010116;-0.027145;,
      -0.005057;-0.008760;-0.027145;,
      -0.008760; 0.005057;-0.009435;,
      -0.010116; 0.000000;-0.009435;,
      -0.010116; 0.000000;-0.027145;,
      -0.008760; 0.005057;-0.027145;,
       0.013732;-0.003440;-0.009687;,
       0.013732;-0.005830;-0.009687;,
       0.013732;-0.005830;-0.007576;,
       0.000000;-0.010116;-0.009435;,
       0.005057;-0.008760;-0.009435;,
       0.005057;-0.008760;-0.027145;,
       0.000000;-0.010116;-0.027145;,
      -0.010116; 0.000000;-0.009435;,
      -0.008760;-0.005057;-0.009435;,
      -0.008760;-0.005057;-0.027145;,
      -0.010116; 0.000000;-0.027145;,
       0.009212; 0.005057;-0.009435;,
       0.005057; 0.008760;-0.009435;,
       0.005057; 0.008760;-0.027145;,
       0.009212; 0.005057;-0.027145;,
       0.000000; 0.010116;-0.009435;,
      -0.005057; 0.008760;-0.009435;,
      -0.005057; 0.008760;-0.027145;,
       0.000000; 0.010116;-0.027145;,
       0.005057;-0.008760;-0.009435;,
       0.009212;-0.005057;-0.009435;,
       0.009212;-0.005057;-0.027145;,
       0.005057;-0.008760;-0.027145;,
      -0.008760;-0.005057;-0.009435;,
      -0.005057;-0.008760;-0.009435;,
      -0.005057;-0.008760;-0.027145;,
      -0.008760;-0.005057;-0.027145;,
       0.005057; 0.008760;-0.009435;,
       0.000000; 0.010116;-0.009435;,
       0.000000; 0.010116;-0.027145;,
       0.005057; 0.008760;-0.027145;,
      -0.005057; 0.008760;-0.009435;,
      -0.008760; 0.005057;-0.009435;,
      -0.008760; 0.005057;-0.027145;,
      -0.005057; 0.008760;-0.027145;,
       0.011089; 0.005830;-0.007576;,
       0.011089;-0.005830;-0.007576;,
       0.009212;-0.005057;-0.009435;,
       0.009212; 0.005057;-0.009435;,
       0.013732;-0.005830;-0.007576;,
       0.013732;-0.005830;-0.009687;,
       0.011089;-0.005830;-0.009687;,
       0.011089;-0.005830;-0.007576;,
       0.011089;-0.005830;-0.028313;,
       0.011089; 0.005830;-0.028313;,
       0.009212; 0.005057;-0.027145;,
       0.009212;-0.005057;-0.027145;,
       0.010581;-0.005621;-0.027536;,
       0.011089;-0.005830;-0.027536;,
       0.011089;-0.005830;-0.028313;,
       0.010583; 0.005621;-0.009687;,
       0.011089; 0.005830;-0.009687;,
       0.011089; 0.005830;-0.007576;,
       0.013732;-0.005830;-0.028313;,
       0.013732; 0.005830;-0.028313;,
       0.011089; 0.005830;-0.028313;,
       0.011089;-0.005830;-0.028313;,
       0.013732; 0.005830;-0.028313;,
       0.013732; 0.005830;-0.027536;,
       0.011089; 0.005830;-0.027536;,
       0.011089; 0.005830;-0.028313;,
       0.008034;-0.004412;-0.009435;,
       0.008034; 0.004412;-0.009435;,
       0.009212; 0.005057;-0.009435;,
       0.009212;-0.005057;-0.009435;,
       0.004412;-0.007641;-0.009435;,
       0.008034;-0.004412;-0.009435;,
       0.009212;-0.005057;-0.009435;,
       0.005057;-0.008760;-0.009435;,
       0.009212; 0.005057;-0.027145;,
       0.008034; 0.004412;-0.027145;,
       0.008034;-0.004412;-0.027145;,
       0.009212;-0.005057;-0.027145;,
       0.004412; 0.007641;-0.009435;,
       0.000000; 0.008822;-0.009435;,
       0.000000; 0.010116;-0.009435;,
       0.005057; 0.008760;-0.009435;,
       0.008034; 0.004412;-0.009435;,
       0.004412; 0.007641;-0.009435;,
       0.005057; 0.008760;-0.009435;,
       0.009212; 0.005057;-0.009435;,
      -0.004412; 0.007641;-0.009435;,
      -0.007641; 0.004412;-0.009435;,
      -0.008760; 0.005057;-0.009435;,
      -0.005057; 0.008760;-0.009435;,
      -0.008822; 0.000000;-0.027145;,
      -0.007641; 0.004412;-0.027145;,
      -0.008760; 0.005057;-0.027145;,
      -0.010116; 0.000000;-0.027145;,
       0.008034; 0.004412;-0.027145;,
       0.008034; 0.004412;-0.009435;,
       0.008034;-0.004412;-0.009435;,
       0.008034;-0.004412;-0.027145;,
      -0.004412;-0.007641;-0.027145;,
      -0.007641;-0.004412;-0.027145;,
      -0.008760;-0.005057;-0.027145;,
      -0.005057;-0.008760;-0.027145;,
       0.004412;-0.007641;-0.027145;,
       0.000000;-0.008822;-0.027145;,
       0.000000;-0.010116;-0.027145;,
       0.005057;-0.008760;-0.027145;,
      -0.004412;-0.007641;-0.009435;,
       0.000000;-0.008822;-0.009435;,
       0.000000;-0.010116;-0.009435;,
      -0.005057;-0.008760;-0.009435;,
      -0.004412; 0.007641;-0.027145;,
       0.000000; 0.008822;-0.027145;,
       0.000000; 0.010116;-0.027145;,
      -0.005057; 0.008760;-0.027145;,
       0.000000; 0.008822;-0.009435;,
      -0.004412; 0.007641;-0.009435;,
      -0.005057; 0.008760;-0.009435;,
       0.000000; 0.010116;-0.009435;,
       0.000000;-0.008822;-0.009435;,
       0.004412;-0.007641;-0.009435;,
       0.005057;-0.008760;-0.009435;,
       0.000000;-0.010116;-0.009435;,
       0.004412; 0.007641;-0.027145;,
       0.008034; 0.004412;-0.027145;,
       0.009212; 0.005057;-0.027145;,
       0.005057; 0.008760;-0.027145;,
       0.000000;-0.008822;-0.027145;,
      -0.004412;-0.007641;-0.027145;,
      -0.005057;-0.008760;-0.027145;,
       0.000000;-0.010116;-0.027145;,
      -0.007641;-0.004412;-0.009435;,
      -0.004412;-0.007641;-0.009435;,
      -0.005057;-0.008760;-0.009435;,
      -0.008760;-0.005057;-0.009435;,
       0.008034;-0.004412;-0.027145;,
       0.004412;-0.007641;-0.027145;,
       0.005057;-0.008760;-0.027145;,
       0.009212;-0.005057;-0.027145;,
      -0.008822; 0.000000;-0.009435;,
      -0.007641;-0.004412;-0.009435;,
      -0.008760;-0.005057;-0.009435;,
      -0.010116; 0.000000;-0.009435;,
      -0.007641; 0.004412;-0.009435;,
      -0.008822; 0.000000;-0.009435;,
      -0.010116; 0.000000;-0.009435;,
      -0.008760; 0.005057;-0.009435;,
      -0.007641; 0.004412;-0.027145;,
      -0.004412; 0.007641;-0.027145;,
      -0.005057; 0.008760;-0.027145;,
      -0.008760; 0.005057;-0.027145;,
       0.000000; 0.008822;-0.027145;,
       0.004412; 0.007641;-0.027145;,
       0.005057; 0.008760;-0.027145;,
       0.000000; 0.010116;-0.027145;,
      -0.007641;-0.004412;-0.027145;,
      -0.008822; 0.000000;-0.027145;,
      -0.010116; 0.000000;-0.027145;,
      -0.008760;-0.005057;-0.027145;,
      -0.008822; 0.000000;-0.009435;,
      -0.008822; 0.000000;-0.027145;,
      -0.007641;-0.004412;-0.027145;,
      -0.007641;-0.004412;-0.009435;,
      -0.007641; 0.004412;-0.027145;,
      -0.008822; 0.000000;-0.027145;,
      -0.008822; 0.000000;-0.009435;,
      -0.007641; 0.004412;-0.009435;,
      -0.004412; 0.007641;-0.009435;,
      -0.004412; 0.007641;-0.027145;,
      -0.007641; 0.004412;-0.027145;,
      -0.007641; 0.004412;-0.009435;,
       0.000000; 0.008822;-0.009435;,
       0.000000; 0.008822;-0.027145;,
      -0.004412; 0.007641;-0.027145;,
      -0.004412; 0.007641;-0.009435;,
       0.004412; 0.007641;-0.009435;,
       0.004412; 0.007641;-0.027145;,
       0.000000; 0.008822;-0.027145;,
       0.000000; 0.008822;-0.009435;,
       0.008034; 0.004412;-0.009435;,
       0.008034; 0.004412;-0.027145;,
       0.004412; 0.007641;-0.027145;,
       0.004412; 0.007641;-0.009435;,
       0.004412;-0.007641;-0.009435;,
       0.004412;-0.007641;-0.027145;,
       0.008034;-0.004412;-0.027145;,
       0.008034;-0.004412;-0.009435;,
       0.000000;-0.008822;-0.009435;,
       0.000000;-0.008822;-0.027145;,
       0.004412;-0.007641;-0.027145;,
       0.004412;-0.007641;-0.009435;,
      -0.004412;-0.007641;-0.009435;,
      -0.004412;-0.007641;-0.027145;,
       0.000000;-0.008822;-0.027145;,
       0.000000;-0.008822;-0.009435;,
      -0.004412;-0.007641;-0.027145;,
      -0.004412;-0.007641;-0.009435;,
      -0.007641;-0.004412;-0.009435;,
      -0.007641;-0.004412;-0.027145;,
       0.011089; 0.005830;-0.007576;,
       0.013732; 0.005830;-0.007576;,
       0.013732;-0.005830;-0.007576;,
       0.011089;-0.005830;-0.007576;,
       0.010583;-0.008052;-0.009687;,
       0.010581;-0.008052;-0.027536;,
       0.010581;-0.005621;-0.027536;,
       0.010583;-0.005621;-0.009687;,
       0.013732;-0.005830;-0.028313;,
       0.011089;-0.005830;-0.028313;,
       0.011089;-0.005830;-0.027536;,
       0.013732;-0.005830;-0.027536;,
       0.016082;-0.003440;-0.027536;,
       0.016082;-0.003440;-0.009687;,
       0.013732;-0.003440;-0.009687;,
       0.013732;-0.003440;-0.027536;,
       0.013732; 0.005830;-0.007576;,
       0.011089; 0.005830;-0.007576;,
       0.011089; 0.005830;-0.009687;,
       0.013732; 0.005830;-0.009687;,
       0.016082; 0.003440;-0.009687;,
       0.016082; 0.003440;-0.027536;,
       0.013732; 0.003440;-0.027536;,
       0.013732; 0.003440;-0.009687;,
       0.010583;-0.005621;-0.009687;,
       0.009212;-0.005057;-0.009435;,
       0.011089;-0.005830;-0.007576;,
       0.010583;-0.005621;-0.009687;,
       0.011089;-0.005830;-0.007576;,
       0.011089;-0.005830;-0.009687;,
       0.010583;-0.005621;-0.009687;,
       0.010581;-0.005621;-0.027536;,
       0.009212;-0.005057;-0.027145;,
       0.009212;-0.005057;-0.009435;,
       0.010581;-0.005621;-0.027536;,
       0.011089;-0.005830;-0.028313;,
       0.009212;-0.005057;-0.027145;,
       0.010581; 0.005621;-0.027536;,
       0.009212; 0.005057;-0.027145;,
       0.011089; 0.005830;-0.028313;,
       0.010581; 0.005621;-0.027536;,
       0.011089; 0.005830;-0.028313;,
       0.011089; 0.005830;-0.027536;,
       0.010581; 0.005621;-0.027536;,
       0.010583; 0.005621;-0.009687;,
       0.009212; 0.005057;-0.009435;,
       0.009212; 0.005057;-0.027145;,
       0.010583; 0.005621;-0.009687;,
       0.011089; 0.005830;-0.007576;,
       0.009212; 0.005057;-0.009435;,
       0.013732;-0.003440;-0.009687;,
       0.013732; 0.003440;-0.009687;,
       0.013732; 0.003440;-0.027536;,
       0.013732;-0.003440;-0.027536;,
       0.013732;-0.005830;-0.027536;,
       0.013732;-0.003440;-0.027536;,
       0.013732; 0.003440;-0.027536;,
       0.013732; 0.005830;-0.027536;,
       0.013732; 0.005830;-0.028313;,
       0.013732;-0.005830;-0.028313;,
       0.013732;-0.005830;-0.007576;,
       0.013732; 0.003440;-0.009687;,
       0.013732;-0.003440;-0.009687;,
       0.013732; 0.005830;-0.007576;,
       0.013732; 0.005830;-0.009687;,
       0.013732; 0.003440;-0.009687;,
       0.013732; 0.005830;-0.007576;,
       0.013732; 0.003440;-0.009687;,
       0.013732;-0.005830;-0.007576;;
      165;
      4;3,2,1,0;,
      4;7,6,5,4;,
      4;11,10,9,8;,
      4;15,14,13,12;,
      4;19,18,17,16;,
      4;23,22,21,20;,
      4;27,26,25,24;,
      4;31,30,29,28;,
      4;35,34,33,32;,
      4;39,38,37,36;,
      4;43,42,41,40;,
      4;47,46,45,44;,
      4;51,50,49,48;,
      4;55,54,53,52;,
      4;59,58,57,56;,
      4;63,62,61,60;,
      4;67,66,65,64;,
      4;71,70,69,68;,
      4;75,74,73,72;,
      4;79,78,77,76;,
      4;83,82,81,80;,
      4;87,86,85,84;,
      4;91,90,89,88;,
      4;95,94,93,92;,
      4;99,98,97,96;,
      4;103,102,101,100;,
      4;107,106,105,104;,
      4;111,110,109,108;,
      4;115,114,113,112;,
      4;119,118,117,116;,
      4;123,122,121,120;,
      4;127,126,125,124;,
      4;131,130,129,128;,
      4;135,134,133,132;,
      4;139,138,137,136;,
      4;143,142,141,140;,
      4;147,146,145,144;,
      4;151,150,149,148;,
      4;155,154,153,152;,
      4;159,158,157,156;,
      4;163,162,161,160;,
      12;175,174,173,172,171,170,169,168,167,166,165,164;,
      4;179,178,177,176;,
      4;183,182,181,180;,
      4;187,186,185,184;,
      4;191,190,189,188;,
      4;195,194,193,192;,
      4;199,198,197,196;,
      4;203,202,201,200;,
      4;207,206,205,204;,
      4;211,210,209,208;,
      4;215,214,213,212;,
      4;219,218,217,216;,
      4;223,222,221,220;,
      4;227,226,225,224;,
      4;231,230,229,228;,
      4;235,234,233,232;,
      4;239,238,237,236;,
      4;243,242,241,240;,
      4;247,246,245,244;,
      4;251,250,249,248;,
      4;255,254,253,252;,
      4;259,258,257,256;,
      4;263,262,261,260;,
      4;267,266,265,264;,
      4;271,270,269,268;,
      4;275,274,273,272;,
      4;279,278,277,276;,
      4;283,282,281,280;,
      4;287,286,285,284;,
      4;291,290,289,288;,
      4;295,294,293,292;,
      4;299,298,297,296;,
      4;303,302,301,300;,
      12;315,314,313,312,311,310,309,308,307,306,305,304;,
      4;319,318,317,316;,
      4;323,322,321,320;,
      4;327,326,325,324;,
      4;331,330,329,328;,
      4;335,334,333,332;,
      4;339,338,337,336;,
      4;343,342,341,340;,
      4;347,346,345,344;,
      4;351,350,349,348;,
      4;355,354,353,352;,
      4;359,358,357,356;,
      4;363,362,361,360;,
      4;367,366,365,364;,
      4;371,370,369,368;,
      7;378,377,376,375,374,373,372;,
      7;385,384,383,382,381,380,379;,
      4;389,388,387,386;,
      7;396,395,394,393,392,391,390;,
      4;400,399,398,397;,
      7;407,406,405,404,403,402,401;,
      4;411,410,409,408;,
      4;415,414,413,412;,
      3;418,417,416;,
      4;422,421,420,419;,
      4;426,425,424,423;,
      4;430,429,428,427;,
      4;434,433,432,431;,
      4;438,437,436,435;,
      4;442,441,440,439;,
      4;446,445,444,443;,
      4;450,449,448,447;,
      4;454,453,452,451;,
      4;458,457,456,455;,
      4;462,461,460,459;,
      3;465,464,463;,
      3;468,467,466;,
      4;472,471,470,469;,
      4;476,475,474,473;,
      4;480,479,478,477;,
      4;484,483,482,481;,
      4;488,487,486,485;,
      4;492,491,490,489;,
      4;496,495,494,493;,
      4;500,499,498,497;,
      4;504,503,502,501;,
      4;508,507,506,505;,
      4;512,511,510,509;,
      4;516,515,514,513;,
      4;520,519,518,517;,
      4;524,523,522,521;,
      4;528,527,526,525;,
      4;532,531,530,529;,
      4;536,535,534,533;,
      4;540,539,538,537;,
      4;544,543,542,541;,
      4;548,547,546,545;,
      4;552,551,550,549;,
      4;556,555,554,553;,
      4;560,559,558,557;,
      4;564,563,562,561;,
      4;568,567,566,565;,
      4;572,571,570,569;,
      4;576,575,574,573;,
      4;580,579,578,577;,
      4;584,583,582,581;,
      4;588,587,586,585;,
      4;592,591,590,589;,
      4;596,595,594,593;,
      4;600,599,598,597;,
      4;604,603,602,601;,
      4;608,607,606,605;,
      4;612,611,610,609;,
      4;616,615,614,613;,
      4;620,619,618,617;,
      4;624,623,622,621;,
      4;628,627,626,625;,
      4;632,631,630,629;,
      3;635,634,633;,
      3;638,637,636;,
      4;642,641,640,639;,
      3;645,644,643;,
      3;648,647,646;,
      3;651,650,649;,
      4;655,654,653,652;,
      3;658,657,656;,
      4;662,661,660,659;,
      6;668,667,666,665,664,663;,
      3;671,670,669;,
      3;674,673,672;,
      3;677,676,675;;
      MeshNormals {
        678;
        -0.200625;-0.748560;-0.631987;,
        -0.200625;-0.748560;-0.631987;,
        -0.200625;-0.748560;-0.631987;,
        -0.200625;-0.748560;-0.631987;,
        -0.547885;-0.547885;-0.632174;,
        -0.547885;-0.547885;-0.632174;,
        -0.547885;-0.547885;-0.632174;,
        -0.547885;-0.547885;-0.632174;,
        -0.748560;-0.200625;-0.631987;,
        -0.748560;-0.200625;-0.631987;,
        -0.748560;-0.200625;-0.631987;,
        -0.748560;-0.200625;-0.631987;,
        -0.748560; 0.200625;-0.631987;,
        -0.748560; 0.200625;-0.631987;,
        -0.748560; 0.200625;-0.631987;,
        -0.748560; 0.200625;-0.631987;,
        -0.547885; 0.547885;-0.632174;,
        -0.547885; 0.547885;-0.632174;,
        -0.547885; 0.547885;-0.632174;,
        -0.547885; 0.547885;-0.632174;,
        -0.200625; 0.748560;-0.631987;,
        -0.200625; 0.748560;-0.631987;,
        -0.200625; 0.748560;-0.631987;,
        -0.200625; 0.748560;-0.631987;,
         0.200625; 0.748560;-0.631987;,
         0.200625; 0.748560;-0.631987;,
         0.200625; 0.748560;-0.631987;,
         0.200625; 0.748560;-0.631987;,
         0.547885; 0.547885;-0.632174;,
         0.547885; 0.547885;-0.632174;,
         0.547885; 0.547885;-0.632174;,
         0.547885; 0.547885;-0.632174;,
         0.748560; 0.200625;-0.631987;,
         0.748560; 0.200625;-0.631987;,
         0.748560; 0.200625;-0.631987;,
         0.748560; 0.200625;-0.631987;,
         0.748560;-0.200625;-0.631987;,
         0.748560;-0.200625;-0.631987;,
         0.748560;-0.200625;-0.631987;,
         0.748560;-0.200625;-0.631987;,
        -0.258012; 0.966142; 0.000000;,
        -0.258012; 0.966142; 0.000000;,
        -0.258012; 0.966142; 0.000000;,
        -0.258012; 0.966142; 0.000000;,
         0.547885;-0.547885;-0.632174;,
         0.547885;-0.547885;-0.632174;,
         0.547885;-0.547885;-0.632174;,
         0.547885;-0.547885;-0.632174;,
         0.200625;-0.748560;-0.631987;,
         0.200625;-0.748560;-0.631987;,
         0.200625;-0.748560;-0.631987;,
         0.200625;-0.748560;-0.631987;,
         0.707107; 0.707107; 0.000000;,
         0.707107; 0.707107; 0.000000;,
         0.707107; 0.707107; 0.000000;,
         0.707107; 0.707107; 0.000000;,
         0.000000; 0.000000;-1.000000;,
         0.000000; 0.000000;-1.000000;,
         0.000000; 0.000000;-1.000000;,
         0.000000; 0.000000;-1.000000;,
         0.258797; 0.965932; 0.000000;,
         0.258797; 0.965932; 0.000000;,
         0.258797; 0.965932; 0.000000;,
         0.258797; 0.965932; 0.000000;,
        -0.258797; 0.965932; 0.000000;,
        -0.258797; 0.965932; 0.000000;,
        -0.258797; 0.965932; 0.000000;,
        -0.258797; 0.965932; 0.000000;,
        -0.707107; 0.707107; 0.000000;,
        -0.707107; 0.707107; 0.000000;,
        -0.707107; 0.707107; 0.000000;,
        -0.707107; 0.707107; 0.000000;,
        -0.965932; 0.258797; 0.000000;,
        -0.965932; 0.258797; 0.000000;,
        -0.965932; 0.258797; 0.000000;,
        -0.965932; 0.258797; 0.000000;,
         0.258797;-0.965932; 0.000000;,
         0.258797;-0.965932; 0.000000;,
         0.258797;-0.965932; 0.000000;,
         0.258797;-0.965932; 0.000000;,
        -0.258797;-0.965932; 0.000000;,
        -0.258797;-0.965932; 0.000000;,
        -0.258797;-0.965932; 0.000000;,
        -0.258797;-0.965932; 0.000000;,
        -0.965932;-0.258797; 0.000000;,
        -0.965932;-0.258797; 0.000000;,
        -0.965932;-0.258797; 0.000000;,
        -0.965932;-0.258797; 0.000000;,
         0.707107;-0.707107; 0.000000;,
         0.707107;-0.707107; 0.000000;,
         0.707107;-0.707107; 0.000000;,
         0.707107;-0.707107; 0.000000;,
        -0.707107;-0.707107; 0.000000;,
        -0.707107;-0.707107; 0.000000;,
        -0.707107;-0.707107; 0.000000;,
        -0.707107;-0.707107; 0.000000;,
         0.965932;-0.258797; 0.000000;,
         0.965932;-0.258797; 0.000000;,
         0.965932;-0.258797; 0.000000;,
         0.965932;-0.258797; 0.000000;,
         0.965932; 0.258797; 0.000000;,
         0.965932; 0.258797; 0.000000;,
         0.965932; 0.258797; 0.000000;,
         0.965932; 0.258797; 0.000000;,
         0.000000; 0.000000;-1.000000;,
         0.000000; 0.000000;-1.000000;,
         0.000000; 0.000000;-1.000000;,
         0.000000; 0.000000;-1.000000;,
         0.000000; 0.000000;-1.000000;,
         0.000000; 0.000000;-1.000000;,
         0.000000; 0.000000;-1.000000;,
         0.000000; 0.000000;-1.000000;,
         0.000000; 0.000000;-1.000000;,
         0.000000; 0.000000;-1.000000;,
         0.000000; 0.000000;-1.000000;,
         0.000000; 0.000000;-1.000000;,
         0.000000; 0.000000;-1.000000;,
         0.000000; 0.000000;-1.000000;,
         0.000000; 0.000000;-1.000000;,
         0.000000; 0.000000;-1.000000;,
        -0.000000; 0.000000;-1.000000;,
        -0.000000; 0.000000;-1.000000;,
        -0.000000; 0.000000;-1.000000;,
        -0.000000; 0.000000;-1.000000;,
         0.000000; 0.000000;-1.000000;,
         0.000000; 0.000000;-1.000000;,
         0.000000; 0.000000;-1.000000;,
         0.000000; 0.000000;-1.000000;,
         0.000000; 0.000000;-1.000000;,
         0.000000; 0.000000;-1.000000;,
         0.000000; 0.000000;-1.000000;,
         0.000000; 0.000000;-1.000000;,
         0.000000; 0.000000;-1.000000;,
         0.000000; 0.000000;-1.000000;,
         0.000000; 0.000000;-1.000000;,
         0.000000; 0.000000;-1.000000;,
         0.000000; 0.000000;-1.000000;,
         0.000000; 0.000000;-1.000000;,
         0.000000; 0.000000;-1.000000;,
         0.000000; 0.000000;-1.000000;,
         0.000000; 0.000000;-1.000000;,
         0.000000; 0.000000;-1.000000;,
         0.000000; 0.000000;-1.000000;,
         0.000000; 0.000000;-1.000000;,
         0.000000; 0.000000;-1.000000;,
         0.000000; 0.000000;-1.000000;,
         0.000000; 0.000000;-1.000000;,
         0.000000; 0.000000;-1.000000;,
         0.152537; 0.569307; 0.807851;,
         0.152537; 0.569307; 0.807851;,
         0.152537; 0.569307; 0.807851;,
         0.152537; 0.569307; 0.807851;,
         0.258977;-0.965883; 0.000000;,
         0.258977;-0.965883; 0.000000;,
         0.258977;-0.965883; 0.000000;,
         0.258977;-0.965883; 0.000000;,
        -0.707107;-0.707107; 0.000000;,
        -0.707107;-0.707107; 0.000000;,
        -0.707107;-0.707107; 0.000000;,
        -0.707107;-0.707107; 0.000000;,
        -0.258977; 0.965883; 0.000000;,
        -0.258977; 0.965883; 0.000000;,
        -0.258977; 0.965883; 0.000000;,
        -0.258977; 0.965883; 0.000000;,
        -0.000000; 0.000000; 1.000000;,
        -0.000000; 0.000000; 1.000000;,
        -0.000000; 0.000000; 1.000000;,
        -0.000000; 0.000000; 1.000000;,
        -0.000000; 0.000000; 1.000000;,
        -0.000000; 0.000000; 1.000000;,
        -0.000000; 0.000000; 1.000000;,
        -0.000000; 0.000000; 1.000000;,
        -0.000000; 0.000000; 1.000000;,
        -0.000000; 0.000000; 1.000000;,
        -0.000000; 0.000000; 1.000000;,
        -0.000000; 0.000000; 1.000000;,
        -0.569307; 0.152538; 0.807850;,
        -0.569307; 0.152538; 0.807850;,
        -0.569307; 0.152538; 0.807850;,
        -0.569307; 0.152538; 0.807850;,
         0.416954;-0.416953; 0.807651;,
         0.416954;-0.416953; 0.807651;,
         0.416954;-0.416953; 0.807651;,
         0.416954;-0.416953; 0.807651;,
        -0.152537;-0.569307; 0.807851;,
        -0.152537;-0.569307; 0.807851;,
        -0.152537;-0.569307; 0.807851;,
        -0.152537;-0.569307; 0.807851;,
         0.416954; 0.416953; 0.807651;,
         0.416954; 0.416953; 0.807651;,
         0.416954; 0.416953; 0.807651;,
         0.416954; 0.416953; 0.807651;,
        -0.416954; 0.416953; 0.807651;,
        -0.416954; 0.416953; 0.807651;,
        -0.416954; 0.416953; 0.807651;,
        -0.416954; 0.416953; 0.807651;,
         0.152537;-0.569307; 0.807851;,
         0.152537;-0.569307; 0.807851;,
         0.152537;-0.569307; 0.807851;,
         0.152537;-0.569307; 0.807851;,
        -0.416954;-0.416953; 0.807651;,
        -0.416954;-0.416953; 0.807651;,
        -0.416954;-0.416953; 0.807651;,
        -0.416954;-0.416953; 0.807651;,
         0.569307; 0.152538; 0.807850;,
         0.569307; 0.152538; 0.807850;,
         0.569307; 0.152538; 0.807850;,
         0.569307; 0.152538; 0.807850;,
        -0.152537; 0.569307; 0.807851;,
        -0.152537; 0.569307; 0.807851;,
        -0.152537; 0.569307; 0.807851;,
        -0.152537; 0.569307; 0.807851;,
        -0.569307;-0.152538; 0.807850;,
        -0.569307;-0.152538; 0.807850;,
        -0.569307;-0.152538; 0.807850;,
        -0.569307;-0.152538; 0.807850;,
         0.569307;-0.152538; 0.807850;,
         0.569307;-0.152538; 0.807850;,
         0.569307;-0.152538; 0.807850;,
         0.569307;-0.152538; 0.807850;,
         0.258977; 0.965883; 0.000000;,
         0.258977; 0.965883; 0.000000;,
         0.258977; 0.965883; 0.000000;,
         0.258977; 0.965883; 0.000000;,
         0.965883;-0.258978; 0.000000;,
         0.965883;-0.258978; 0.000000;,
         0.965883;-0.258978; 0.000000;,
         0.965883;-0.258978; 0.000000;,
        -0.965883;-0.258978; 0.000000;,
        -0.965883;-0.258978; 0.000000;,
        -0.965883;-0.258978; 0.000000;,
        -0.965883;-0.258978; 0.000000;,
         0.965883; 0.258978; 0.000000;,
         0.965883; 0.258978; 0.000000;,
         0.965883; 0.258978; 0.000000;,
         0.965883; 0.258978; 0.000000;,
         0.707107; 0.707107; 0.000000;,
         0.707107; 0.707107; 0.000000;,
         0.707107; 0.707107; 0.000000;,
         0.707107; 0.707107; 0.000000;,
        -0.258977;-0.965883; 0.000000;,
        -0.258977;-0.965883; 0.000000;,
        -0.258977;-0.965883; 0.000000;,
        -0.258977;-0.965883; 0.000000;,
         0.707107;-0.707107; 0.000000;,
         0.707107;-0.707107; 0.000000;,
         0.707107;-0.707107; 0.000000;,
         0.707107;-0.707107; 0.000000;,
        -0.965883; 0.258978; 0.000000;,
        -0.965883; 0.258978; 0.000000;,
        -0.965883; 0.258978; 0.000000;,
        -0.965883; 0.258978; 0.000000;,
        -0.707107; 0.707107; 0.000000;,
        -0.707107; 0.707107; 0.000000;,
        -0.707107; 0.707107; 0.000000;,
        -0.707107; 0.707107; 0.000000;,
        -0.000000; 0.000000;-1.000000;,
        -0.000000; 0.000000;-1.000000;,
        -0.000000; 0.000000;-1.000000;,
        -0.000000; 0.000000;-1.000000;,
        -0.000000; 0.000000;-1.000000;,
        -0.000000; 0.000000;-1.000000;,
        -0.000000; 0.000000;-1.000000;,
        -0.000000; 0.000000;-1.000000;,
         0.000000; 0.000000;-1.000000;,
         0.000000; 0.000000;-1.000000;,
         0.000000; 0.000000;-1.000000;,
         0.000000; 0.000000;-1.000000;,
         0.000000; 0.000000;-1.000000;,
         0.000000; 0.000000;-1.000000;,
         0.000000; 0.000000;-1.000000;,
         0.000000; 0.000000;-1.000000;,
         0.000000; 0.000000;-1.000000;,
         0.000000; 0.000000;-1.000000;,
         0.000000; 0.000000;-1.000000;,
         0.000000; 0.000000;-1.000000;,
        -0.000000; 0.000000;-1.000000;,
        -0.000000; 0.000000;-1.000000;,
        -0.000000; 0.000000;-1.000000;,
        -0.000000; 0.000000;-1.000000;,
         0.000000; 0.000000;-1.000000;,
         0.000000; 0.000000;-1.000000;,
         0.000000; 0.000000;-1.000000;,
         0.000000; 0.000000;-1.000000;,
         0.000000; 0.000000;-1.000000;,
         0.000000; 0.000000;-1.000000;,
         0.000000; 0.000000;-1.000000;,
         0.000000; 0.000000;-1.000000;,
        -0.000000; 0.000000;-1.000000;,
        -0.000000; 0.000000;-1.000000;,
        -0.000000; 0.000000;-1.000000;,
        -0.000000; 0.000000;-1.000000;,
        -0.000000; 0.000000;-1.000000;,
        -0.000000; 0.000000;-1.000000;,
        -0.000000; 0.000000;-1.000000;,
        -0.000000; 0.000000;-1.000000;,
        -0.000000; 0.000000;-1.000000;,
        -0.000000; 0.000000;-1.000000;,
        -0.000000; 0.000000;-1.000000;,
        -0.000000; 0.000000;-1.000000;,
         0.000000; 0.000000;-1.000000;,
         0.000000; 0.000000;-1.000000;,
         0.000000; 0.000000;-1.000000;,
         0.000000; 0.000000;-1.000000;,
        -0.000000; 0.000000;-1.000000;,
        -0.000000; 0.000000;-1.000000;,
        -0.000000; 0.000000;-1.000000;,
        -0.000000; 0.000000;-1.000000;,
        -0.000000; 0.000000;-1.000000;,
        -0.000000; 0.000000;-1.000000;,
        -0.000000; 0.000000;-1.000000;,
        -0.000000; 0.000000;-1.000000;,
        -0.000000; 0.000000;-1.000000;,
        -0.000000; 0.000000;-1.000000;,
        -0.000000; 0.000000;-1.000000;,
        -0.000000; 0.000000;-1.000000;,
         0.707107; 0.707107; 0.000000;,
         0.707107; 0.707107; 0.000000;,
         0.707107; 0.707107; 0.000000;,
         0.707107; 0.707107; 0.000000;,
        -0.966142;-0.258012; 0.000000;,
        -0.966142;-0.258012; 0.000000;,
        -0.966142;-0.258012; 0.000000;,
        -0.966142;-0.258012; 0.000000;,
         0.258012;-0.966142; 0.000000;,
         0.258012;-0.966142; 0.000000;,
         0.258012;-0.966142; 0.000000;,
         0.258012;-0.966142; 0.000000;,
         0.966142; 0.258012; 0.000000;,
         0.966142; 0.258012; 0.000000;,
         0.966142; 0.258012; 0.000000;,
         0.966142; 0.258012; 0.000000;,
        -0.966142; 0.258012; 0.000000;,
        -0.966142; 0.258012; 0.000000;,
        -0.966142; 0.258012; 0.000000;,
        -0.966142; 0.258012; 0.000000;,
        -0.258012;-0.966142; 0.000000;,
        -0.258012;-0.966142; 0.000000;,
        -0.258012;-0.966142; 0.000000;,
        -0.258012;-0.966142; 0.000000;,
         0.966142;-0.258012; 0.000000;,
         0.966142;-0.258012; 0.000000;,
         0.966142;-0.258012; 0.000000;,
         0.966142;-0.258012; 0.000000;,
        -0.707107; 0.707107; 0.000000;,
        -0.707107; 0.707107; 0.000000;,
        -0.707107; 0.707107; 0.000000;,
        -0.707107; 0.707107; 0.000000;,
         0.258012; 0.966142; 0.000000;,
         0.258012; 0.966142; 0.000000;,
         0.258012; 0.966142; 0.000000;,
         0.258012; 0.966142; 0.000000;,
        -0.707107;-0.707107; 0.000000;,
        -0.707107;-0.707107; 0.000000;,
        -0.707107;-0.707107; 0.000000;,
        -0.707107;-0.707107; 0.000000;,
         0.707107;-0.707107; 0.000000;,
         0.707107;-0.707107; 0.000000;,
         0.707107;-0.707107; 0.000000;,
         0.707107;-0.707107; 0.000000;,
         1.000000; 0.000000;-0.000076;,
         1.000000; 0.000000;-0.000076;,
         1.000000; 0.000000;-0.000076;,
         1.000000; 0.000000;-0.000076;,
         0.000000;-1.000000; 0.000000;,
         0.000000;-1.000000; 0.000000;,
         0.000000;-1.000000; 0.000000;,
         0.000000;-1.000000; 0.000000;,
         0.000000; 1.000000; 0.000000;,
         0.000000; 1.000000; 0.000000;,
         0.000000; 1.000000; 0.000000;,
         0.000000; 1.000000; 0.000000;,
         0.000000; 0.000000; 1.000000;,
         0.000000; 0.000000; 1.000000;,
         0.000000; 0.000000; 1.000000;,
         0.000000; 0.000000; 1.000000;,
         0.000000; 0.000000; 1.000000;,
         0.000000; 0.000000; 1.000000;,
         0.000000; 0.000000; 1.000000;,
        -0.000000; 0.000000;-1.000000;,
        -0.000000; 0.000000;-1.000000;,
        -0.000000; 0.000000;-1.000000;,
        -0.000000; 0.000000;-1.000000;,
        -0.000000; 0.000000;-1.000000;,
        -0.000000; 0.000000;-1.000000;,
        -0.000000; 0.000000;-1.000000;,
        -1.000000; 0.000000; 0.000000;,
        -1.000000; 0.000000; 0.000000;,
        -1.000000; 0.000000; 0.000000;,
        -1.000000; 0.000000; 0.000000;,
        -0.000000; 0.000000;-1.000000;,
        -0.000000; 0.000000;-1.000000;,
        -0.000000; 0.000000;-1.000000;,
        -0.000000; 0.000000;-1.000000;,
        -0.000000; 0.000000;-1.000000;,
        -0.000000; 0.000000;-1.000000;,
        -0.000000; 0.000000;-1.000000;,
        -1.000000; 0.000000; 0.000000;,
        -1.000000; 0.000000; 0.000000;,
        -1.000000; 0.000000; 0.000000;,
        -1.000000; 0.000000; 0.000000;,
         0.000000; 0.000000; 1.000000;,
         0.000000; 0.000000; 1.000000;,
         0.000000; 0.000000; 1.000000;,
         0.000000; 0.000000; 1.000000;,
         0.000000; 0.000000; 1.000000;,
         0.000000; 0.000000; 1.000000;,
         0.000000; 0.000000; 1.000000;,
         0.258981; 0.965882; 0.000000;,
         0.258981; 0.965882; 0.000000;,
         0.258981; 0.965882; 0.000000;,
         0.258981; 0.965882; 0.000000;,
         0.965882;-0.258981; 0.000000;,
         0.965882;-0.258981; 0.000000;,
         0.965882;-0.258981; 0.000000;,
         0.965882;-0.258981; 0.000000;,
        -1.000000; 0.000000; 0.000000;,
        -1.000000; 0.000000; 0.000000;,
        -1.000000; 0.000000; 0.000000;,
        -0.258981; 0.965882; 0.000000;,
        -0.258981; 0.965882; 0.000000;,
        -0.258981; 0.965882; 0.000000;,
        -0.258981; 0.965882; 0.000000;,
         0.965882; 0.258981; 0.000000;,
         0.965882; 0.258981; 0.000000;,
         0.965882; 0.258981; 0.000000;,
         0.965882; 0.258981; 0.000000;,
        -0.665329;-0.746550; 0.000000;,
        -0.665329;-0.746550; 0.000000;,
        -0.665329;-0.746550; 0.000000;,
        -0.665329;-0.746550; 0.000000;,
         0.258981;-0.965882; 0.000000;,
         0.258981;-0.965882; 0.000000;,
         0.258981;-0.965882; 0.000000;,
         0.258981;-0.965882; 0.000000;,
        -0.665329; 0.746550; 0.000000;,
        -0.665329; 0.746550; 0.000000;,
        -0.665329; 0.746550; 0.000000;,
        -0.665329; 0.746550; 0.000000;,
         0.707107; 0.707107; 0.000000;,
         0.707107; 0.707107; 0.000000;,
         0.707107; 0.707107; 0.000000;,
         0.707107; 0.707107; 0.000000;,
        -0.258981;-0.965882; 0.000000;,
        -0.258981;-0.965882; 0.000000;,
        -0.258981;-0.965882; 0.000000;,
        -0.258981;-0.965882; 0.000000;,
         0.707107;-0.707107; 0.000000;,
         0.707107;-0.707107; 0.000000;,
         0.707107;-0.707107; 0.000000;,
         0.707107;-0.707107; 0.000000;,
         0.703770; 0.000000;-0.710428;,
         0.703770; 0.000000;-0.710428;,
         0.703770; 0.000000;-0.710428;,
         0.703770; 0.000000;-0.710428;,
         0.000000; 1.000000; 0.000000;,
         0.000000; 1.000000; 0.000000;,
         0.000000; 1.000000; 0.000000;,
         0.000000; 1.000000; 0.000000;,
         0.528291; 0.000000; 0.849063;,
         0.528291; 0.000000; 0.849063;,
         0.528291; 0.000000; 0.849064;,
         0.528291; 0.000000; 0.849064;,
         0.379882; 0.925035; 0.000000;,
         0.379882; 0.925035; 0.000000;,
         0.379882; 0.925035; 0.000000;,
         0.380750;-0.924678; 0.000000;,
         0.380750;-0.924678; 0.000000;,
         0.380750;-0.924678; 0.000000;,
         0.000000; 0.000000; 1.000000;,
         0.000000; 0.000000; 1.000000;,
         0.000000; 0.000000; 1.000000;,
         0.000000; 0.000000; 1.000000;,
         0.000000;-1.000000; 0.000000;,
         0.000000;-1.000000; 0.000000;,
         0.000000;-1.000000; 0.000000;,
         0.000000;-1.000000; 0.000000;,
        -0.000001; 0.000000;-1.000000;,
        -0.000001; 0.000000;-1.000000;,
        -0.000001; 0.000000;-1.000000;,
        -0.000001; 0.000000;-1.000000;,
        -0.000001; 0.000000;-1.000000;,
        -0.000001; 0.000000;-1.000000;,
        -0.000001; 0.000000;-1.000000;,
        -0.000001; 0.000000;-1.000000;,
        -0.000001; 0.000000; 1.000000;,
        -0.000001; 0.000000; 1.000000;,
        -0.000001; 0.000000; 1.000000;,
        -0.000001; 0.000000; 1.000000;,
         0.000000; 0.000000;-1.000000;,
         0.000000; 0.000000;-1.000000;,
         0.000000; 0.000000;-1.000000;,
         0.000000; 0.000000;-1.000000;,
         0.000000; 0.000000;-1.000000;,
         0.000000; 0.000000;-1.000000;,
         0.000000; 0.000000;-1.000000;,
         0.000000; 0.000000;-1.000000;,
         0.000001; 0.000000;-1.000000;,
         0.000001; 0.000000;-1.000000;,
         0.000001; 0.000000;-1.000000;,
         0.000001; 0.000000;-1.000000;,
         0.000000; 0.000000; 1.000000;,
         0.000000; 0.000000; 1.000000;,
         0.000000; 0.000000; 1.000000;,
         0.000000; 0.000000; 1.000000;,
         1.000000; 0.000000; 0.000000;,
         1.000000; 0.000000; 0.000000;,
         1.000000; 0.000000; 0.000000;,
         1.000000; 0.000000; 0.000000;,
        -0.000001; 0.000000; 1.000000;,
        -0.000001; 0.000000; 1.000000;,
        -0.000001; 0.000000; 1.000000;,
        -0.000001; 0.000000; 1.000000;,
        -0.000001; 0.000000; 1.000000;,
        -0.000001; 0.000000; 1.000000;,
        -0.000001; 0.000000; 1.000000;,
        -0.000001; 0.000000; 1.000000;,
         0.000000; 0.000000;-1.000000;,
         0.000000; 0.000000;-1.000000;,
         0.000000; 0.000000;-1.000000;,
         0.000000; 0.000000;-1.000000;,
         0.000001; 0.000000; 1.000000;,
         0.000001; 0.000000; 1.000000;,
         0.000001; 0.000000; 1.000000;,
         0.000001; 0.000000; 1.000000;,
        -0.000000; 0.000000;-1.000000;,
        -0.000000; 0.000000;-1.000000;,
        -0.000000; 0.000000;-1.000000;,
        -0.000000; 0.000000;-1.000000;,
         0.000000; 0.000000;-1.000000;,
         0.000000; 0.000000;-1.000000;,
         0.000000; 0.000000;-1.000000;,
         0.000000; 0.000000;-1.000000;,
         0.000001; 0.000000; 1.000000;,
         0.000001; 0.000000; 1.000000;,
         0.000001; 0.000000; 1.000000;,
         0.000001; 0.000000; 1.000000;,
         0.000001; 0.000000; 1.000000;,
         0.000001; 0.000000; 1.000000;,
         0.000001; 0.000000; 1.000000;,
         0.000001; 0.000000; 1.000000;,
         0.000000; 0.000000;-1.000000;,
         0.000000; 0.000000;-1.000000;,
         0.000000; 0.000000;-1.000000;,
         0.000000; 0.000000;-1.000000;,
         0.000000; 0.000000; 1.000000;,
         0.000000; 0.000000; 1.000000;,
         0.000000; 0.000000; 1.000000;,
         0.000000; 0.000000; 1.000000;,
         0.000000; 0.000000;-1.000000;,
         0.000000; 0.000000;-1.000000;,
         0.000000; 0.000000;-1.000000;,
         0.000000; 0.000000;-1.000000;,
         0.000000; 0.000000;-1.000000;,
         0.000000; 0.000000;-1.000000;,
         0.000000; 0.000000;-1.000000;,
         0.000000; 0.000000;-1.000000;,
         0.000000; 0.000000; 1.000000;,
         0.000000; 0.000000; 1.000000;,
         0.000000; 0.000000; 1.000000;,
         0.000000; 0.000000; 1.000000;,
        -0.000001; 0.000000; 1.000000;,
        -0.000001; 0.000000; 1.000000;,
        -0.000001; 0.000000; 1.000000;,
        -0.000001; 0.000000; 1.000000;,
         0.000000; 0.000000; 1.000000;,
         0.000000; 0.000000; 1.000000;,
         0.000000; 0.000000; 1.000000;,
         0.000000; 0.000000; 1.000000;,
        -0.965964;-0.258677; 0.000000;,
        -0.965964;-0.258677; 0.000000;,
        -0.965964;-0.258677; 0.000000;,
        -0.965964;-0.258677; 0.000000;,
        -0.965964; 0.258677; 0.000000;,
        -0.965964; 0.258677; 0.000000;,
        -0.965964; 0.258677; 0.000000;,
        -0.965964; 0.258677; 0.000000;,
        -0.707107; 0.707107; 0.000000;,
        -0.707107; 0.707107; 0.000000;,
        -0.707107; 0.707107; 0.000000;,
        -0.707107; 0.707107; 0.000000;,
        -0.258677; 0.965964; 0.000000;,
        -0.258677; 0.965964; 0.000000;,
        -0.258677; 0.965964; 0.000000;,
        -0.258677; 0.965964; 0.000000;,
         0.258677; 0.965964; 0.000000;,
         0.258677; 0.965964; 0.000000;,
         0.258677; 0.965964; 0.000000;,
         0.258677; 0.965964; 0.000000;,
         0.665367; 0.746516; 0.000000;,
         0.665367; 0.746516; 0.000000;,
         0.665367; 0.746516; 0.000000;,
         0.665367; 0.746516; 0.000000;,
         0.665367;-0.746516; 0.000000;,
         0.665367;-0.746516; 0.000000;,
         0.665367;-0.746516; 0.000000;,
         0.665367;-0.746516; 0.000000;,
         0.258677;-0.965964; 0.000000;,
         0.258677;-0.965964; 0.000000;,
         0.258677;-0.965964; 0.000000;,
         0.258677;-0.965964; 0.000000;,
        -0.258677;-0.965964; 0.000000;,
        -0.258677;-0.965964; 0.000000;,
        -0.258677;-0.965964; 0.000000;,
        -0.258677;-0.965964; 0.000000;,
        -0.707107;-0.707107; 0.000000;,
        -0.707107;-0.707107; 0.000000;,
        -0.707107;-0.707107; 0.000000;,
        -0.707107;-0.707107; 0.000000;,
         0.000000; 0.000000;-1.000000;,
         0.000000; 0.000000;-1.000000;,
         0.000000; 0.000000;-1.000000;,
         0.000000; 0.000000;-1.000000;,
         1.000000; 0.000000;-0.000076;,
         1.000000; 0.000000;-0.000076;,
         1.000000; 0.000000;-0.000076;,
         1.000000; 0.000000;-0.000076;,
         0.000000; 1.000000; 0.000000;,
         0.000000; 1.000000; 0.000000;,
         0.000000; 1.000000; 0.000000;,
         0.000000; 1.000000; 0.000000;,
         0.000000;-1.000000; 0.000000;,
         0.000000;-1.000000; 0.000000;,
         0.000000;-1.000000; 0.000000;,
         0.000000;-1.000000; 0.000000;,
         0.000000;-1.000000; 0.000000;,
         0.000000;-1.000000; 0.000000;,
         0.000000;-1.000000; 0.000000;,
         0.000000;-1.000000; 0.000000;,
         0.000000; 1.000000; 0.000000;,
         0.000000; 1.000000; 0.000000;,
         0.000000; 1.000000; 0.000000;,
         0.000000; 1.000000; 0.000000;,
         0.380661; 0.924714; 0.000024;,
         0.380661; 0.924715; 0.000024;,
         0.380661; 0.924715; 0.000024;,
         0.380750; 0.924678; 0.000000;,
         0.380750; 0.924678; 0.000000;,
         0.380750; 0.924678; 0.000000;,
         0.380816; 0.924651;-0.000014;,
         0.380816; 0.924651;-0.000014;,
         0.380816; 0.924651;-0.000014;,
         0.380816; 0.924651;-0.000014;,
         0.381229; 0.924480; 0.001032;,
         0.381229; 0.924480; 0.001032;,
         0.381229; 0.924480; 0.001032;,
         0.381229;-0.924480; 0.001032;,
         0.381229;-0.924480; 0.001032;,
         0.381229;-0.924480; 0.001032;,
         0.379882;-0.925035; 0.000000;,
         0.379882;-0.925035; 0.000000;,
         0.379882;-0.925035; 0.000000;,
         0.380816;-0.924651;-0.000014;,
         0.380816;-0.924651;-0.000014;,
         0.380816;-0.924651;-0.000014;,
         0.380816;-0.924651;-0.000014;,
         0.380661;-0.924714; 0.000024;,
         0.380661;-0.924715; 0.000024;,
         0.380661;-0.924715; 0.000024;,
        -1.000000; 0.000000; 0.000000;,
        -1.000000; 0.000000; 0.000000;,
        -1.000000; 0.000000; 0.000000;,
        -1.000000; 0.000000; 0.000000;,
        -1.000000; 0.000000; 0.000000;,
        -1.000000; 0.000000; 0.000000;,
        -1.000000; 0.000000; 0.000000;,
        -1.000000; 0.000000; 0.000000;,
        -1.000000; 0.000000; 0.000000;,
        -1.000000; 0.000000; 0.000000;,
        -1.000000; 0.000000; 0.000000;,
        -1.000000; 0.000000; 0.000000;,
        -1.000000; 0.000000; 0.000000;,
        -1.000000; 0.000000; 0.000000;,
        -1.000000; 0.000000; 0.000000;,
        -1.000000; 0.000000; 0.000000;,
        -1.000000; 0.000000; 0.000000;,
        -1.000000; 0.000000; 0.000000;,
        -1.000000; 0.000000; 0.000000;;
        165;
        4;3,2,1,0;,
        4;7,6,5,4;,
        4;11,10,9,8;,
        4;15,14,13,12;,
        4;19,18,17,16;,
        4;23,22,21,20;,
        4;27,26,25,24;,
        4;31,30,29,28;,
        4;35,34,33,32;,
        4;39,38,37,36;,
        4;43,42,41,40;,
        4;47,46,45,44;,
        4;51,50,49,48;,
        4;55,54,53,52;,
        4;59,58,57,56;,
        4;63,62,61,60;,
        4;67,66,65,64;,
        4;71,70,69,68;,
        4;75,74,73,72;,
        4;79,78,77,76;,
        4;83,82,81,80;,
        4;87,86,85,84;,
        4;91,90,89,88;,
        4;95,94,93,92;,
        4;99,98,97,96;,
        4;103,102,101,100;,
        4;107,106,105,104;,
        4;111,110,109,108;,
        4;115,114,113,112;,
        4;119,118,117,116;,
        4;123,122,121,120;,
        4;127,126,125,124;,
        4;131,130,129,128;,
        4;135,134,133,132;,
        4;139,138,137,136;,
        4;143,142,141,140;,
        4;147,146,145,144;,
        4;151,150,149,148;,
        4;155,154,153,152;,
        4;159,158,157,156;,
        4;163,162,161,160;,
        12;175,174,173,172,171,170,169,168,167,166,165,164;,
        4;179,178,177,176;,
        4;183,182,181,180;,
        4;187,186,185,184;,
        4;191,190,189,188;,
        4;195,194,193,192;,
        4;199,198,197,196;,
        4;203,202,201,200;,
        4;207,206,205,204;,
        4;211,210,209,208;,
        4;215,214,213,212;,
        4;219,218,217,216;,
        4;223,222,221,220;,
        4;227,226,225,224;,
        4;231,230,229,228;,
        4;235,234,233,232;,
        4;239,238,237,236;,
        4;243,242,241,240;,
        4;247,246,245,244;,
        4;251,250,249,248;,
        4;255,254,253,252;,
        4;259,258,257,256;,
        4;263,262,261,260;,
        4;267,266,265,264;,
        4;271,270,269,268;,
        4;275,274,273,272;,
        4;279,278,277,276;,
        4;283,282,281,280;,
        4;287,286,285,284;,
        4;291,290,289,288;,
        4;295,294,293,292;,
        4;299,298,297,296;,
        4;303,302,301,300;,
        12;315,314,313,312,311,310,309,308,307,306,305,304;,
        4;319,318,317,316;,
        4;323,322,321,320;,
        4;327,326,325,324;,
        4;331,330,329,328;,
        4;335,334,333,332;,
        4;339,338,337,336;,
        4;343,342,341,340;,
        4;347,346,345,344;,
        4;351,350,349,348;,
        4;355,354,353,352;,
        4;359,358,357,356;,
        4;363,362,361,360;,
        4;367,366,365,364;,
        4;371,370,369,368;,
        7;378,377,376,375,374,373,372;,
        7;385,384,383,382,381,380,379;,
        4;389,388,387,386;,
        7;396,395,394,393,392,391,390;,
        4;400,399,398,397;,
        7;407,406,405,404,403,402,401;,
        4;411,410,409,408;,
        4;415,414,413,412;,
        3;418,417,416;,
        4;422,421,420,419;,
        4;426,425,424,423;,
        4;430,429,428,427;,
        4;434,433,432,431;,
        4;438,437,436,435;,
        4;442,441,440,439;,
        4;446,445,444,443;,
        4;450,449,448,447;,
        4;454,453,452,451;,
        4;458,457,456,455;,
        4;462,461,460,459;,
        3;465,464,463;,
        3;468,467,466;,
        4;472,471,470,469;,
        4;476,475,474,473;,
        4;480,479,478,477;,
        4;484,483,482,481;,
        4;488,487,486,485;,
        4;492,491,490,489;,
        4;496,495,494,493;,
        4;500,499,498,497;,
        4;504,503,502,501;,
        4;508,507,506,505;,
        4;512,511,510,509;,
        4;516,515,514,513;,
        4;520,519,518,517;,
        4;524,523,522,521;,
        4;528,527,526,525;,
        4;532,531,530,529;,
        4;536,535,534,533;,
        4;540,539,538,537;,
        4;544,543,542,541;,
        4;548,547,546,545;,
        4;552,551,550,549;,
        4;556,555,554,553;,
        4;560,559,558,557;,
        4;564,563,562,561;,
        4;568,567,566,565;,
        4;572,571,570,569;,
        4;576,575,574,573;,
        4;580,579,578,577;,
        4;584,583,582,581;,
        4;588,587,586,585;,
        4;592,591,590,589;,
        4;596,595,594,593;,
        4;600,599,598,597;,
        4;604,603,602,601;,
        4;608,607,606,605;,
        4;612,611,610,609;,
        4;616,615,614,613;,
        4;620,619,618,617;,
        4;624,623,622,621;,
        4;628,627,626,625;,
        4;632,631,630,629;,
        3;635,634,633;,
        3;638,637,636;,
        4;642,641,640,639;,
        3;645,644,643;,
        3;648,647,646;,
        3;651,650,649;,
        4;655,654,653,652;,
        3;658,657,656;,
        4;662,661,660,659;,
        6;668,667,666,665,664,663;,
        3;671,670,669;,
        3;674,673,672;,
        3;677,676,675;;
      }
      MeshTextureCoords {
        678;
         0.585783; 1.079346;,
         0.579909; 1.096202;,
         0.541809; 1.089754;,
         0.541809; 1.071904;,
         0.624859; 1.100842;,
         0.613766; 1.114827;,
         0.579909; 1.096202;,
         0.585783; 1.079346;,
         0.654686; 1.133999;,
         0.639609; 1.143555;,
         0.613766; 1.114827;,
         0.624859; 1.100842;,
         0.458765; 1.069424;,
         0.469858; 1.083409;,
         0.444015; 1.112137;,
         0.428938; 1.102581;,
         0.497841; 1.047927;,
         0.503715; 1.064784;,
         0.469858; 1.083409;,
         0.458765; 1.069424;,
         0.541815; 1.040486;,
         0.541815; 1.058336;,
         0.503715; 1.064784;,
         0.497841; 1.047927;,
         0.585788; 1.047927;,
         0.579915; 1.064784;,
         0.541815; 1.058336;,
         0.541815; 1.040486;,
         0.624865; 1.069424;,
         0.613772; 1.083409;,
         0.579915; 1.064784;,
         0.585788; 1.047927;,
         0.654692; 1.102581;,
         0.639615; 1.112137;,
         0.613772; 1.083409;,
         0.624865; 1.069424;,
         0.458759; 1.100842;,
         0.469852; 1.114827;,
         0.444009; 1.143555;,
         0.428932; 1.133999;,
         0.941503; 1.453724;,
         0.941503; 1.443179;,
         0.956957; 1.443179;,
         0.956957; 1.453724;,
         0.497836; 1.079346;,
         0.503709; 1.096202;,
         0.469852; 1.114827;,
         0.458759; 1.100842;,
         0.541809; 1.071904;,
         0.541809; 1.089754;,
         0.503709; 1.096202;,
         0.497836; 1.079346;,
         0.648772; 1.004723;,
         0.693371; 1.004723;,
         0.693371; 1.020467;,
         0.648772; 1.020467;,
         0.855411; 1.435996;,
         0.902711; 1.448670;,
         0.898490; 1.455981;,
         0.855411; 1.444438;,
         0.604173; 1.004723;,
         0.648772; 1.004723;,
         0.648772; 1.020467;,
         0.604173; 1.020467;,
         0.559575; 1.004723;,
         0.604173; 1.004723;,
         0.604173; 1.020467;,
         0.559575; 1.020467;,
         0.514976; 1.004723;,
         0.559575; 1.004723;,
         0.559575; 1.020467;,
         0.514976; 1.020467;,
         0.470378; 1.004723;,
         0.514976; 1.004723;,
         0.514976; 1.020467;,
         0.470378; 1.020467;,
         0.288841; 1.006810;,
         0.333440; 1.006810;,
         0.333440; 1.022554;,
         0.288841; 1.022554;,
         0.333440; 1.006810;,
         0.378038; 1.006810;,
         0.378038; 1.022554;,
         0.333440; 1.022554;,
         0.422637; 1.006810;,
         0.467236; 1.006810;,
         0.467236; 1.022554;,
         0.422637; 1.022554;,
         0.244242; 1.006810;,
         0.288841; 1.006810;,
         0.288841; 1.022554;,
         0.244242; 1.022554;,
         0.378038; 1.006810;,
         0.422637; 1.006810;,
         0.422637; 1.022554;,
         0.378038; 1.022554;,
         0.199644; 1.006810;,
         0.244242; 1.006810;,
         0.244242; 1.022554;,
         0.199644; 1.022554;,
         0.693371; 1.004723;,
         0.737969; 1.004723;,
         0.737969; 1.020467;,
         0.693371; 1.020467;,
         0.584629; 1.107328;,
         0.619255; 1.141954;,
         0.611944; 1.146175;,
         0.580408; 1.114639;,
         0.631929; 1.189254;,
         0.619256; 1.236554;,
         0.611945; 1.232333;,
         0.623487; 1.189254;,
         0.937337; 1.577896;,
         0.902711; 1.612522;,
         0.898490; 1.605211;,
         0.930026; 1.573675;,
         0.902711; 1.448670;,
         0.937337; 1.483296;,
         0.930026; 1.487517;,
         0.898490; 1.455981;,
         0.619255; 1.141954;,
         0.631929; 1.189254;,
         0.623487; 1.189254;,
         0.611944; 1.146175;,
         0.619256; 1.236554;,
         0.584630; 1.271180;,
         0.580409; 1.263869;,
         0.611945; 1.232333;,
         0.902711; 1.612522;,
         0.855411; 1.625197;,
         0.855411; 1.616755;,
         0.898490; 1.605211;,
         0.937337; 1.483296;,
         0.950011; 1.530596;,
         0.941569; 1.530596;,
         0.930026; 1.487517;,
         0.584630; 1.271180;,
         0.537330; 1.283855;,
         0.537330; 1.275413;,
         0.580409; 1.263869;,
         0.537330; 1.094654;,
         0.584629; 1.107328;,
         0.580408; 1.114639;,
         0.537330; 1.103096;,
         0.950011; 1.530596;,
         0.937337; 1.577896;,
         0.930026; 1.573675;,
         0.941569; 1.530596;,
         0.894550; 1.694182;,
         0.903050; 1.733446;,
         0.884127; 1.742042;,
         0.873766; 1.694182;,
         0.655708; 1.802549;,
         0.655708; 1.851519;,
         0.001573; 1.851519;,
         0.001573; 1.802550;,
         0.655708; 1.900488;,
         0.655708; 1.949458;,
         0.001573; 1.949455;,
         0.001573; 1.900487;,
         0.655708; 1.505177;,
         0.655708; 1.554147;,
         0.001573; 1.554147;,
         0.001573; 1.505179;,
         0.680417; 1.399505;,
         0.645625; 1.379418;,
         0.625538; 1.344627;,
         0.625538; 1.304453;,
         0.645625; 1.269662;,
         0.680417; 1.249575;,
         0.720590; 1.249575;,
         0.755382; 1.269662;,
         0.775469; 1.304453;,
         0.775469; 1.344627;,
         0.755382; 1.379418;,
         0.720590; 1.399505;,
         0.962189; 1.603252;,
         0.927027; 1.622684;,
         0.913353; 1.607032;,
         0.956213; 1.583346;,
         0.563014; 1.220607;,
         0.539037; 1.252841;,
         0.520114; 1.244245;,
         0.549340; 1.204955;,
         0.530537; 1.292105;,
         0.539037; 1.331370;,
         0.520114; 1.339965;,
         0.509753; 1.292105;,
         0.903050; 1.733446;,
         0.927027; 1.765680;,
         0.913353; 1.781332;,
         0.884127; 1.742042;,
         0.927027; 1.622684;,
         0.903050; 1.654917;,
         0.884127; 1.646322;,
         0.913353; 1.607032;,
         0.539037; 1.252841;,
         0.530537; 1.292105;,
         0.509753; 1.292105;,
         0.520114; 1.244245;,
         0.539037; 1.331370;,
         0.563014; 1.363603;,
         0.549340; 1.379256;,
         0.520114; 1.339965;,
         0.927027; 1.765680;,
         0.962189; 1.785111;,
         0.956213; 1.805017;,
         0.913353; 1.781332;,
         0.903050; 1.654917;,
         0.894550; 1.694182;,
         0.873766; 1.694182;,
         0.884127; 1.646322;,
         0.563014; 1.363603;,
         0.598176; 1.383035;,
         0.592200; 1.402941;,
         0.549340; 1.379256;,
         0.598176; 1.201176;,
         0.563014; 1.220607;,
         0.549340; 1.204955;,
         0.592200; 1.181270;,
         0.655708; 1.554147;,
         0.655708; 1.603116;,
         0.001573; 1.603116;,
         0.001573; 1.554147;,
         0.655708; 1.704610;,
         0.655708; 1.753580;,
         0.001573; 1.753582;,
         0.001573; 1.704614;,
         0.655708; 1.949458;,
         0.655708; 1.998427;,
         0.001573; 1.998424;,
         0.001573; 1.949455;,
         0.655708; 1.652086;,
         0.655708; 1.701055;,
         0.001573; 1.701052;,
         0.001573; 1.652084;,
         0.655708; 1.652086;,
         0.001573; 1.652084;,
         0.001573; 1.603116;,
         0.655708; 1.603116;,
         0.655708; 1.900488;,
         0.001573; 1.900487;,
         0.001573; 1.851519;,
         0.655708; 1.851519;,
         0.655708; 1.802549;,
         0.001573; 1.802550;,
         0.001573; 1.753582;,
         0.655708; 1.753580;,
         0.655708; 1.456209;,
         0.001573; 1.456209;,
         0.001573; 1.407241;,
         0.655708; 1.407240;,
         0.001573; 1.456209;,
         0.655708; 1.456209;,
         0.655708; 1.505177;,
         0.001573; 1.505179;,
         0.911069; 1.428823;,
         0.872427; 1.428823;,
         0.886476; 1.376394;,
         0.897021; 1.376394;,
         0.872427; 1.428823;,
         0.838963; 1.409503;,
         0.877344; 1.371122;,
         0.886476; 1.376394;,
         0.838963; 1.409503;,
         0.819642; 1.376038;,
         0.872071; 1.361989;,
         0.877344; 1.371122;,
         0.819642; 1.376038;,
         0.819642; 1.337396;,
         0.872071; 1.351445;,
         0.872071; 1.361989;,
         0.819642; 1.337396;,
         0.838963; 1.303931;,
         0.877344; 1.342312;,
         0.872071; 1.351445;,
         0.838963; 1.303931;,
         0.872427; 1.284611;,
         0.886476; 1.337040;,
         0.877344; 1.342312;,
         0.872427; 1.284611;,
         0.911069; 1.284611;,
         0.897021; 1.337040;,
         0.886476; 1.337040;,
         0.911069; 1.284611;,
         0.944534; 1.303931;,
         0.906153; 1.342312;,
         0.897021; 1.337040;,
         0.944534; 1.303931;,
         0.963855; 1.337396;,
         0.911425; 1.351445;,
         0.906153; 1.342312;,
         0.963855; 1.337396;,
         0.963855; 1.376038;,
         0.911425; 1.361989;,
         0.911425; 1.351445;,
         0.963855; 1.376038;,
         0.944534; 1.409503;,
         0.906153; 1.371122;,
         0.911425; 1.361989;,
         0.944534; 1.409503;,
         0.911069; 1.428823;,
         0.897021; 1.376394;,
         0.906153; 1.371122;,
         0.934097; 1.714627;,
         0.924967; 1.719904;,
         0.914422; 1.719909;,
         0.905287; 1.714641;,
         0.900010; 1.705511;,
         0.900005; 1.694966;,
         0.905273; 1.685831;,
         0.914403; 1.680555;,
         0.924948; 1.680550;,
         0.934083; 1.685818;,
         0.939360; 1.694947;,
         0.939365; 1.705492;,
         0.941503; 1.474814;,
         0.941503; 1.464269;,
         0.956957; 1.464269;,
         0.956957; 1.474814;,
         0.827387; 1.416255;,
         0.816842; 1.416255;,
         0.816842; 1.400801;,
         0.827387; 1.400801;,
         0.795752; 1.416255;,
         0.785207; 1.416255;,
         0.785207; 1.400801;,
         0.795752; 1.400801;,
         0.941503; 1.485359;,
         0.941503; 1.474814;,
         0.956957; 1.474814;,
         0.956957; 1.485359;,
         0.941503; 1.432634;,
         0.941503; 1.422089;,
         0.956957; 1.422089;,
         0.956957; 1.432634;,
         0.806297; 1.416255;,
         0.795752; 1.416255;,
         0.795752; 1.400801;,
         0.806297; 1.400801;,
         0.774662; 1.416255;,
         0.764118; 1.416255;,
         0.764118; 1.400801;,
         0.774662; 1.400801;,
         0.941503; 1.443179;,
         0.941503; 1.432634;,
         0.956957; 1.432634;,
         0.956957; 1.443179;,
         0.941503; 1.464269;,
         0.941503; 1.453724;,
         0.956957; 1.453724;,
         0.956957; 1.464269;,
         0.816842; 1.416255;,
         0.806297; 1.416255;,
         0.806297; 1.400801;,
         0.816842; 1.400801;,
         0.785207; 1.416255;,
         0.774662; 1.416255;,
         0.774662; 1.400801;,
         0.785207; 1.400801;,
         0.600593; 1.025324;,
         0.795531; 1.025324;,
         0.795531; 1.051877;,
         0.600593; 1.051877;,
         0.426153; 1.081851;,
         0.426153; 1.141923;,
         0.231215; 1.141923;,
         0.231215; 1.081851;,
         0.426153; 1.146766;,
         0.426153; 1.206839;,
         0.231215; 1.206839;,
         0.231215; 1.146766;,
         0.592113; 1.299644;,
         0.592113; 1.359717;,
         0.565560; 1.359717;,
         0.567838; 1.354180;,
         0.567838; 1.325324;,
         0.541743; 1.325324;,
         0.541743; 1.299644;,
         0.916837; 1.159335;,
         0.916837; 1.185014;,
         0.890741; 1.185014;,
         0.890741; 1.213870;,
         0.893019; 1.219408;,
         0.866466; 1.219408;,
         0.866466; 1.159335;,
         0.231215; 1.026635;,
         0.426154; 1.026635;,
         0.426154; 1.077006;,
         0.231215; 1.077006;,
         0.959655; 1.280141;,
         0.899582; 1.280141;,
         0.899582; 1.253588;,
         0.905119; 1.255866;,
         0.933975; 1.255866;,
         0.933975; 1.229771;,
         0.959655; 1.229771;,
         0.196509; 1.074916;,
         0.001571; 1.074916;,
         0.001571; 1.024545;,
         0.196509; 1.024545;,
         0.828981; 1.268232;,
         0.828981; 1.293911;,
         0.802885; 1.293911;,
         0.802885; 1.322767;,
         0.805163; 1.328305;,
         0.778610; 1.328305;,
         0.778610; 1.268232;,
         0.658850; 1.594559;,
         0.658850; 1.537375;,
         0.852267; 1.537375;,
         0.852267; 1.594559;,
         0.658850; 1.766110;,
         0.658850; 1.708927;,
         0.852267; 1.708927;,
         0.852267; 1.766110;,
         0.024637; 1.180748;,
         0.024637; 1.206844;,
         0.001575; 1.206844;,
         0.658850; 1.537375;,
         0.658850; 1.480192;,
         0.852267; 1.480192;,
         0.852267; 1.537375;,
         0.658850; 1.708927;,
         0.658850; 1.651743;,
         0.852267; 1.651743;,
         0.852267; 1.708927;,
         0.658850; 1.998434;,
         0.658850; 1.937661;,
         0.852267; 1.937662;,
         0.852266; 1.998434;,
         0.658850; 1.880478;,
         0.658850; 1.823294;,
         0.852267; 1.823294;,
         0.852267; 1.880478;,
         0.658850; 1.480192;,
         0.658850; 1.419419;,
         0.852267; 1.419419;,
         0.852267; 1.480192;,
         0.658850; 1.651743;,
         0.658850; 1.594559;,
         0.852267; 1.594559;,
         0.852267; 1.651743;,
         0.658850; 1.937661;,
         0.658850; 1.880478;,
         0.852267; 1.880478;,
         0.852267; 1.937662;,
         0.658850; 1.823294;,
         0.658850; 1.766110;,
         0.852267; 1.766110;,
         0.852267; 1.823294;,
         0.834466; 1.235635;,
         0.834466; 1.108296;,
         0.863330; 1.116730;,
         0.863330; 1.227200;,
         0.871409; 1.772723;,
         0.894471; 1.772723;,
         0.894471; 1.801579;,
         0.871409; 1.801579;,
         0.887390; 1.595717;,
         0.887390; 1.468378;,
         0.911539; 1.476813;,
         0.911539; 1.587283;,
         0.969148; 1.105830;,
         0.963160; 1.105830;,
         0.963160; 1.097336;,
         0.992443; 1.786614;,
         0.998431; 1.786614;,
         0.998431; 1.809676;,
         0.971623; 1.642830;,
         0.971623; 1.770169;,
         0.942767; 1.770169;,
         0.942767; 1.642830;,
         0.998168; 1.998428;,
         0.989675; 1.998428;,
         0.989675; 1.969572;,
         0.998168; 1.969572;,
         0.868265; 1.697085;,
         0.868265; 1.793436;,
         0.855406; 1.800496;,
         0.855406; 1.690025;,
         0.772601; 1.377685;,
         0.801695; 1.333378;,
         0.815942; 1.336869;,
         0.782585; 1.387669;,
         0.830980; 1.254884;,
         0.834471; 1.240637;,
         0.927539; 1.215699;,
         0.937686; 1.226292;,
         0.729408; 1.216486;,
         0.679533; 1.216486;,
         0.675879; 1.202848;,
         0.733063; 1.202848;,
         0.776758; 1.240310;,
         0.729408; 1.216486;,
         0.733063; 1.202848;,
         0.787351; 1.230163;,
         0.636340; 1.241424;,
         0.611403; 1.284617;,
         0.597765; 1.280963;,
         0.626356; 1.231440;,
         0.833357; 1.050344;,
         0.790164; 1.075282;,
         0.780181; 1.065298;,
         0.829703; 1.036706;,
         0.951754; 1.805014;,
         0.951754; 1.998431;,
         0.855402; 1.998431;,
         0.855402; 1.805014;,
         0.926426; 1.075282;,
         0.883232; 1.050344;,
         0.886887; 1.036706;,
         0.936409; 1.065298;,
         0.951363; 1.168350;,
         0.951363; 1.118475;,
         0.965001; 1.114820;,
         0.965001; 1.172004;,
         0.679533; 1.402622;,
         0.729408; 1.402622;,
         0.733062; 1.416261;,
         0.675879; 1.416261;,
         0.765227; 1.118475;,
         0.765227; 1.168350;,
         0.751589; 1.172004;,
         0.751589; 1.114820;,
         0.679533; 1.216486;,
         0.636340; 1.241424;,
         0.626356; 1.231440;,
         0.675879; 1.202848;,
         0.729408; 1.402622;,
         0.772601; 1.377685;,
         0.782585; 1.387669;,
         0.733062; 1.416261;,
         0.790164; 1.211543;,
         0.834471; 1.240637;,
         0.830980; 1.254884;,
         0.780181; 1.221527;,
         0.951363; 1.118475;,
         0.926426; 1.075282;,
         0.936409; 1.065298;,
         0.965001; 1.114820;,
         0.636340; 1.377685;,
         0.679533; 1.402622;,
         0.675879; 1.416261;,
         0.626356; 1.387669;,
         0.927539; 1.215699;,
         0.951363; 1.168350;,
         0.965001; 1.172004;,
         0.937686; 1.226292;,
         0.611403; 1.334492;,
         0.636340; 1.377685;,
         0.626356; 1.387669;,
         0.597765; 1.338146;,
         0.611403; 1.284617;,
         0.611403; 1.334492;,
         0.597765; 1.338146;,
         0.597765; 1.280963;,
         0.790164; 1.075282;,
         0.765227; 1.118475;,
         0.751589; 1.114820;,
         0.780181; 1.065298;,
         0.765227; 1.168350;,
         0.790164; 1.211543;,
         0.780181; 1.221527;,
         0.751589; 1.172004;,
         0.883232; 1.050344;,
         0.833357; 1.050344;,
         0.829703; 1.036706;,
         0.886887; 1.036706;,
         0.254079; 1.210274;,
         0.254079; 1.403691;,
         0.204204; 1.403691;,
         0.204204; 1.210274;,
         0.303954; 1.403691;,
         0.254079; 1.403691;,
         0.254079; 1.210274;,
         0.303954; 1.210274;,
         0.353829; 1.210274;,
         0.353829; 1.403691;,
         0.303954; 1.403691;,
         0.303954; 1.210274;,
         0.403704; 1.210274;,
         0.403704; 1.403691;,
         0.353829; 1.403691;,
         0.353829; 1.210274;,
         0.453579; 1.210274;,
         0.453579; 1.403691;,
         0.403704; 1.403691;,
         0.403704; 1.210274;,
         0.506584; 1.210274;,
         0.506584; 1.403691;,
         0.453579; 1.403691;,
         0.453579; 1.210274;,
         0.054578; 1.210274;,
         0.054578; 1.403691;,
         0.001573; 1.403691;,
         0.001573; 1.210274;,
         0.104454; 1.210274;,
         0.104454; 1.403691;,
         0.054578; 1.403691;,
         0.054578; 1.210274;,
         0.154329; 1.210274;,
         0.154328; 1.403691;,
         0.104454; 1.403691;,
         0.104454; 1.210274;,
         0.154328; 1.403691;,
         0.154329; 1.210274;,
         0.204204; 1.210274;,
         0.204204; 1.403691;,
         0.855402; 1.477393;,
         0.884258; 1.477393;,
         0.884258; 1.604732;,
         0.855402; 1.604732;,
         0.959985; 1.998430;,
         0.959985; 1.803492;,
         0.986538; 1.803492;,
         0.986538; 1.998430;,
         0.811379; 1.293911;,
         0.811379; 1.322767;,
         0.802885; 1.322767;,
         0.802885; 1.293911;,
         0.960650; 1.585887;,
         0.960650; 1.390949;,
         0.986330; 1.390949;,
         0.986330; 1.585887;,
         0.937342; 1.675932;,
         0.908486; 1.675932;,
         0.908486; 1.652870;,
         0.937342; 1.652870;,
         0.024637; 1.079921;,
         0.219575; 1.079921;,
         0.219575; 1.105600;,
         0.024637; 1.105600;,
         0.969148; 1.300768;,
         0.985330; 1.303513;,
         0.963160; 1.323830;,
         0.969148; 1.300768;,
         0.963160; 1.323830;,
         0.963160; 1.300768;,
         0.969148; 1.300768;,
         0.969148; 1.105830;,
         0.985330; 1.110096;,
         0.985330; 1.303513;,
         0.969148; 1.105830;,
         0.963160; 1.097336;,
         0.985330; 1.110096;,
         0.992443; 1.591677;,
         0.976261; 1.595943;,
         0.998431; 1.583183;,
         0.992443; 1.591677;,
         0.998431; 1.583183;,
         0.998431; 1.591677;,
         0.992443; 1.591677;,
         0.992443; 1.786614;,
         0.976261; 1.789359;,
         0.976261; 1.595943;,
         0.992443; 1.786614;,
         0.998431; 1.809676;,
         0.976261; 1.789359;,
         0.024637; 1.180748;,
         0.024637; 1.105600;,
         0.219575; 1.105600;,
         0.219575; 1.180748;,
         0.219575; 1.206844;,
         0.219575; 1.180748;,
         0.219575; 1.105600;,
         0.219575; 1.079505;,
         0.228068; 1.079505;,
         0.228068; 1.206844;,
         0.001575; 1.206844;,
         0.024637; 1.105600;,
         0.024637; 1.180748;,
         0.001575; 1.079505;,
         0.024637; 1.079505;,
         0.024637; 1.105600;,
         0.001575; 1.079505;,
         0.024637; 1.105600;,
         0.001575; 1.206844;;
      }
      MeshMaterialList {
        1;
        165;
        0,
        0,
        0,
        0,
        0,
        0,
        0,
        0,
        0,
        0,
        0,
        0,
        0,
        0,
        0,
        0,
        0,
        0,
        0,
        0,
        0,
        0,
        0,
        0,
        0,
        0,
        0,
        0,
        0,
        0,
        0,
        0,
        0,
        0,
        0,
        0,
        0,
        0,
        0,
        0,
        0,
        0,
        0,
        0,
        0,
        0,
        0,
        0,
        0,
        0,
        0,
        0,
        0,
        0,
        0,
        0,
        0,
        0,
        0,
        0,
        0,
        0,
        0,
        0,
        0,
        0,
        0,
        0,
        0,
        0,
        0,
        0,
        0,
        0,
        0,
        0,
        0,
        0,
        0,
        0,
        0,
        0,
        0,
        0,
        0,
        0,
        0,
        0,
        0,
        0,
        0,
        0,
        0,
        0,
        0,
        0,
        0,
        0,
        0,
        0,
        0,
        0,
        0,
        0,
        0,
        0,
        0,
        0,
        0,
        0,
        0,
        0,
        0,
        0,
        0,
        0,
        0,
        0,
        0,
        0,
        0,
        0,
        0,
        0,
        0,
        0,
        0,
        0,
        0,
        0,
        0,
        0,
        0,
        0,
        0,
        0,
        0,
        0,
        0,
        0,
        0,
        0,
        0,
        0,
        0,
        0,
        0,
        0,
        0,
        0,
        0,
        0,
        0,
        0,
        0,
        0,
        0,
        0,
        0,
        0,
        0,
        0,
        0,
        0,
        0;
        Material Lazer1_001 {
           0.800000; 0.800000; 0.800000; 1.000000;;
           323.999994;
           0.250000; 0.250000; 0.250000;;
           0.000000; 0.000000; 0.000000;;
        }
      }
    }
  }
}
