xof 0303txt 0032

Frame Root {
  FrameTransformMatrix {
     1.000000, 0.000000, 0.000000, 0.000000,
     0.000000,-0.000000, 1.000000, 0.000000,
     0.000000, 1.000000, 0.000000, 0.000000,
     0.000000, 0.000000, 0.000000, 1.000000;;
  }
  Frame Cube_001 {
    FrameTransformMatrix {
       1.000000, 0.000000, 0.000000, 0.000000,
       0.000000, 1.000000, 0.000000, 0.000000,
       0.000000, 0.000000, 1.000000, 0.000000,
       0.000000, 0.000000, 0.000000, 1.000000;;
    }
    Mesh {
      288;
      -0.011287; 0.010461; 0.013185;,
       0.011287; 0.010461; 0.013185;,
       0.011287;-0.001199; 0.014290;,
      -0.011287;-0.001199; 0.014290;,
       0.011287; 0.008290; 0.011204;,
       0.011287;-0.001282; 0.012013;,
       0.011287;-0.001199; 0.014290;,
       0.011287; 0.010461; 0.013185;,
      -0.011287;-0.001199;-0.014290;,
      -0.011287;-0.001199;-0.030624;,
       0.011287;-0.001199;-0.030624;,
       0.011287;-0.001199;-0.014290;,
      -0.011287; 0.008290;-0.011204;,
       0.011287; 0.008290;-0.011204;,
       0.011287;-0.001282;-0.012013;,
      -0.011287;-0.001282;-0.012013;,
       0.011287;-0.001199; 0.014290;,
       0.011287;-0.001199; 0.032389;,
      -0.011287;-0.001199; 0.032389;,
      -0.011287;-0.001199; 0.014290;,
      -0.011287; 0.008290;-0.011204;,
      -0.011287;-0.001282;-0.012013;,
      -0.011287;-0.001199;-0.014290;,
      -0.011287; 0.010461;-0.013185;,
      -0.011287; 0.014229; 0.005935;,
      -0.011287; 0.015455; 0.000000;,
      -0.011287; 0.017625; 0.000000;,
      -0.011287; 0.016400; 0.006984;,
      -0.011287; 0.014229; 0.005935;,
       0.011287; 0.014229; 0.005935;,
       0.011287; 0.015455;-0.000000;,
      -0.011287; 0.015455; 0.000000;,
       0.011287; 0.014229;-0.005935;,
       0.011287; 0.015455;-0.000000;,
       0.011287; 0.017625;-0.000000;,
       0.011287; 0.016400;-0.006984;,
      -0.011287; 0.016400;-0.006984;,
       0.011287; 0.016400;-0.006984;,
       0.011287; 0.017625;-0.000000;,
      -0.011287; 0.017625; 0.000000;,
      -0.011287;-0.001282; 0.012013;,
       0.011287;-0.001282; 0.012013;,
       0.011287; 0.008290; 0.011204;,
      -0.011287; 0.008290; 0.011204;,
      -0.011287;-0.001282; 0.012013;,
      -0.011287; 0.008290; 0.011204;,
      -0.011287; 0.010461; 0.013185;,
      -0.011287;-0.001199; 0.014290;,
       0.011287; 0.014229; 0.005935;,
       0.011287; 0.008290; 0.011204;,
       0.011287; 0.010461; 0.013185;,
       0.011287; 0.016400; 0.006984;,
      -0.011287; 0.016400; 0.006984;,
       0.011287; 0.016400; 0.006984;,
       0.011287; 0.010461; 0.013185;,
      -0.011287; 0.010461; 0.013185;,
      -0.011287;-0.001199;-0.014290;,
       0.011287;-0.001199;-0.014290;,
       0.011287; 0.010461;-0.013185;,
      -0.011287; 0.010461;-0.013185;,
       0.011287;-0.001282;-0.012013;,
       0.011287; 0.008290;-0.011204;,
       0.011287; 0.010461;-0.013185;,
       0.011287;-0.001199;-0.014290;,
      -0.011287; 0.014229;-0.005935;,
      -0.011287; 0.008290;-0.011204;,
      -0.011287; 0.010461;-0.013185;,
      -0.011287; 0.016400;-0.006984;,
      -0.011287; 0.014229;-0.005935;,
       0.011287; 0.014229;-0.005935;,
       0.011287; 0.008290;-0.011204;,
      -0.011287; 0.008290;-0.011204;,
       0.011287;-0.003135; 0.012727;,
      -0.011287;-0.003135; 0.012727;,
      -0.011287;-0.003473; 0.014290;,
       0.011287;-0.003473; 0.014290;,
      -0.011287;-0.003135;-0.012727;,
       0.011287;-0.003135;-0.012727;,
       0.011287;-0.003473;-0.014290;,
      -0.011287;-0.003473;-0.014290;,
      -0.011287;-0.001199; 0.014290;,
      -0.011287;-0.003473; 0.014290;,
      -0.011287;-0.003135; 0.012727;,
      -0.011287;-0.001282; 0.012013;,
       0.011287;-0.001282; 0.012013;,
       0.011287;-0.003135; 0.012727;,
       0.011287;-0.003473; 0.014290;,
       0.011287;-0.001199; 0.014290;,
       0.011287;-0.001199;-0.014290;,
       0.011287;-0.003473;-0.014290;,
       0.011287;-0.003135;-0.012727;,
       0.011287;-0.001282;-0.012013;,
      -0.011287;-0.001282;-0.012013;,
      -0.011287;-0.003135;-0.012727;,
      -0.011287;-0.003473;-0.014290;,
      -0.011287;-0.001199;-0.014290;,
       0.011287;-0.001282;-0.012013;,
       0.011287;-0.003135;-0.012727;,
      -0.011287;-0.003135;-0.012727;,
      -0.011287;-0.001282;-0.012013;,
      -0.011287;-0.001282; 0.012013;,
      -0.011287;-0.003135; 0.012727;,
       0.011287;-0.003135; 0.012727;,
       0.011287;-0.001282; 0.012013;,
      -0.011287;-0.001199;-0.030624;,
      -0.011287;-0.003473;-0.030624;,
       0.011287;-0.003473;-0.030624;,
       0.011287;-0.001199;-0.030624;,
      -0.011287;-0.003473;-0.014290;,
      -0.011287;-0.003473;-0.030624;,
      -0.011287;-0.001199;-0.030624;,
      -0.011287;-0.001199;-0.014290;,
       0.011287;-0.003473;-0.014290;,
       0.011287;-0.003473;-0.030624;,
      -0.011287;-0.003473;-0.030624;,
      -0.011287;-0.003473;-0.014290;,
       0.011287;-0.001199;-0.014290;,
       0.011287;-0.001199;-0.030624;,
       0.011287;-0.003473;-0.030624;,
       0.011287;-0.003473;-0.014290;,
       0.011287;-0.001199; 0.032389;,
       0.011287;-0.003473; 0.032389;,
      -0.011287;-0.003473; 0.032389;,
      -0.011287;-0.001199; 0.032389;,
      -0.011287;-0.003473; 0.014290;,
      -0.011287;-0.003473; 0.032389;,
       0.011287;-0.003473; 0.032389;,
       0.011287;-0.003473; 0.014290;,
       0.011287;-0.003473; 0.014290;,
       0.011287;-0.003473; 0.032389;,
       0.011287;-0.001199; 0.032389;,
       0.011287;-0.001199; 0.014290;,
      -0.011287;-0.001199; 0.014290;,
      -0.011287;-0.001199; 0.032389;,
      -0.011287;-0.003473; 0.032389;,
      -0.011287;-0.003473; 0.014290;,
      -0.011287; 0.015455; 0.000000;,
       0.011287; 0.015455;-0.000000;,
       0.011287; 0.014229;-0.005935;,
      -0.011287; 0.014229;-0.005935;,
      -0.011287; 0.015455; 0.000000;,
      -0.011287; 0.014229;-0.005935;,
      -0.011287; 0.016400;-0.006984;,
      -0.011287; 0.017625; 0.000000;,
      -0.011287; 0.010461;-0.013185;,
       0.011287; 0.010461;-0.013185;,
       0.011287; 0.016400;-0.006984;,
      -0.011287; 0.016400;-0.006984;,
       0.011287; 0.008290;-0.011204;,
       0.011287; 0.014229;-0.005935;,
       0.011287; 0.016400;-0.006984;,
       0.011287; 0.010461;-0.013185;,
      -0.011287; 0.017625; 0.000000;,
       0.011287; 0.017625;-0.000000;,
       0.011287; 0.016400; 0.006984;,
      -0.011287; 0.016400; 0.006984;,
       0.011287; 0.015455;-0.000000;,
       0.011287; 0.014229; 0.005935;,
       0.011287; 0.016400; 0.006984;,
       0.011287; 0.017625;-0.000000;,
      -0.011287; 0.008290; 0.011204;,
       0.011287; 0.008290; 0.011204;,
       0.011287; 0.014229; 0.005935;,
      -0.011287; 0.014229; 0.005935;,
      -0.011287; 0.008290; 0.011204;,
      -0.011287; 0.014229; 0.005935;,
      -0.011287; 0.016400; 0.006984;,
      -0.011287; 0.010461; 0.013185;,
       0.028072;-0.001226; 0.011287;,
      -0.034066;-0.001226; 0.011287;,
      -0.034066; 0.011098; 0.011287;,
       0.028072; 0.011098; 0.011287;,
      -0.034066; 0.009971; 0.010160;,
      -0.036472; 0.009971; 0.010160;,
      -0.036472; 0.009971;-0.010160;,
      -0.034066; 0.009971;-0.010160;,
      -0.034066;-0.001226;-0.011287;,
       0.028072;-0.001226;-0.011287;,
       0.028072; 0.011098;-0.011287;,
      -0.034066; 0.011098;-0.011287;,
       0.028072; 0.011098;-0.011287;,
       0.032305; 0.009215;-0.007838;,
       0.032305; 0.009215; 0.007838;,
       0.028072; 0.011098; 0.011287;,
      -0.034066;-0.001226; 0.011287;,
       0.028072;-0.001226; 0.011287;,
       0.028072;-0.001226;-0.011287;,
      -0.034066;-0.001226;-0.011287;,
      -0.034066; 0.011098;-0.011287;,
       0.028072; 0.011098;-0.011287;,
       0.028072; 0.011098; 0.011287;,
      -0.034066; 0.011098; 0.011287;,
       0.032305; 0.000657;-0.007838;,
       0.032305; 0.000657; 0.007838;,
       0.032305; 0.009215; 0.007838;,
       0.032305; 0.009215;-0.007838;,
       0.028072;-0.001226;-0.011287;,
       0.032305; 0.000657;-0.007838;,
       0.032305; 0.009215;-0.007838;,
       0.028072; 0.011098;-0.011287;,
       0.028072; 0.011098; 0.011287;,
       0.032305; 0.009215; 0.007838;,
       0.032305; 0.000657; 0.007838;,
       0.028072;-0.001226; 0.011287;,
       0.028072;-0.001226; 0.011287;,
       0.032305; 0.000657; 0.007838;,
       0.032305; 0.000657;-0.007838;,
       0.028072;-0.001226;-0.011287;,
      -0.034066; 0.009971; 0.010160;,
      -0.034066; 0.011098; 0.011287;,
      -0.034066;-0.001226; 0.011287;,
      -0.034066;-0.000100; 0.010160;,
      -0.034066;-0.000100; 0.010160;,
      -0.034066;-0.001226; 0.011287;,
      -0.034066;-0.001226;-0.011287;,
      -0.034066;-0.000100;-0.010160;,
      -0.034066; 0.009971;-0.010160;,
      -0.034066; 0.011098;-0.011287;,
      -0.034066; 0.011098; 0.011287;,
      -0.034066; 0.009971; 0.010160;,
      -0.034066;-0.000100;-0.010160;,
      -0.034066;-0.001226;-0.011287;,
      -0.034066; 0.011098;-0.011287;,
      -0.034066; 0.009971;-0.010160;,
      -0.036472;-0.000100; 0.010160;,
      -0.036472;-0.000100;-0.010160;,
      -0.036472; 0.009971;-0.010160;,
      -0.036472; 0.009971; 0.010160;,
      -0.034066;-0.000100; 0.010160;,
      -0.036472;-0.000100; 0.010160;,
      -0.036472; 0.009971; 0.010160;,
      -0.034066; 0.009971; 0.010160;,
      -0.034066; 0.009971;-0.010160;,
      -0.036472; 0.009971;-0.010160;,
      -0.036472;-0.000100;-0.010160;,
      -0.034066;-0.000100;-0.010160;,
      -0.034066;-0.000100;-0.010160;,
      -0.036472;-0.000100;-0.010160;,
      -0.036472;-0.000100; 0.010160;,
      -0.034066;-0.000100; 0.010160;,
      -0.036410;-0.000018; 0.000000;,
      -0.036410; 0.001431;-0.003498;,
      -0.038394; 0.002770;-0.002159;,
      -0.038394; 0.001876; 0.000000;,
      -0.036410; 0.001431;-0.003498;,
      -0.036410; 0.004930;-0.004947;,
      -0.038394; 0.004930;-0.003054;,
      -0.038394; 0.002770;-0.002159;,
      -0.036410; 0.004930;-0.004947;,
      -0.036410; 0.008428;-0.003498;,
      -0.038394; 0.007089;-0.002159;,
      -0.038394; 0.004930;-0.003054;,
      -0.036410; 0.008428;-0.003498;,
      -0.036410; 0.009877; 0.000000;,
      -0.038394; 0.007983; 0.000000;,
      -0.038394; 0.007089;-0.002159;,
      -0.036410; 0.009877; 0.000000;,
      -0.036410; 0.008428; 0.003498;,
      -0.038394; 0.007089; 0.002159;,
      -0.038394; 0.007983; 0.000000;,
      -0.036410; 0.008428; 0.003498;,
      -0.036410; 0.004930; 0.004947;,
      -0.038394; 0.004930; 0.003054;,
      -0.038394; 0.007089; 0.002159;,
      -0.038394; 0.002770;-0.002159;,
      -0.038394; 0.004930;-0.003054;,
      -0.038394; 0.007089;-0.002159;,
      -0.038394; 0.007983; 0.000000;,
      -0.038394; 0.007089; 0.002159;,
      -0.038394; 0.004930; 0.003054;,
      -0.038394; 0.002770; 0.002159;,
      -0.038394; 0.001876; 0.000000;,
      -0.036410; 0.004930; 0.004947;,
      -0.036410; 0.001431; 0.003498;,
      -0.038394; 0.002770; 0.002159;,
      -0.038394; 0.004930; 0.003054;,
      -0.036410; 0.001431; 0.003498;,
      -0.036410;-0.000018; 0.000000;,
      -0.038394; 0.001876; 0.000000;,
      -0.038394; 0.002770; 0.002159;,
      -0.036410;-0.000018; 0.000000;,
      -0.036410; 0.001431; 0.003498;,
      -0.036410; 0.004930; 0.004947;,
      -0.036410; 0.008428; 0.003498;,
      -0.036410; 0.009877; 0.000000;,
      -0.036410; 0.008428;-0.003498;,
      -0.036410; 0.004930;-0.004947;,
      -0.036410; 0.001431;-0.003498;;
      70;
      4;3,2,1,0;,
      4;7,6,5,4;,
      4;11,10,9,8;,
      4;15,14,13,12;,
      4;19,18,17,16;,
      4;23,22,21,20;,
      4;27,26,25,24;,
      4;31,30,29,28;,
      4;35,34,33,32;,
      4;39,38,37,36;,
      4;43,42,41,40;,
      4;47,46,45,44;,
      4;51,50,49,48;,
      4;55,54,53,52;,
      4;59,58,57,56;,
      4;63,62,61,60;,
      4;67,66,65,64;,
      4;71,70,69,68;,
      4;75,74,73,72;,
      4;79,78,77,76;,
      4;83,82,81,80;,
      4;87,86,85,84;,
      4;91,90,89,88;,
      4;95,94,93,92;,
      4;99,98,97,96;,
      4;103,102,101,100;,
      4;107,106,105,104;,
      4;111,110,109,108;,
      4;115,114,113,112;,
      4;119,118,117,116;,
      4;123,122,121,120;,
      4;127,126,125,124;,
      4;131,130,129,128;,
      4;135,134,133,132;,
      4;139,138,137,136;,
      4;143,142,141,140;,
      4;147,146,145,144;,
      4;151,150,149,148;,
      4;155,154,153,152;,
      4;159,158,157,156;,
      4;163,162,161,160;,
      4;167,166,165,164;,
      4;171,170,169,168;,
      4;175,174,173,172;,
      4;179,178,177,176;,
      4;183,182,181,180;,
      4;187,186,185,184;,
      4;191,190,189,188;,
      4;195,194,193,192;,
      4;199,198,197,196;,
      4;203,202,201,200;,
      4;207,206,205,204;,
      4;211,210,209,208;,
      4;215,214,213,212;,
      4;219,218,217,216;,
      4;223,222,221,220;,
      4;227,226,225,224;,
      4;231,230,229,228;,
      4;235,234,233,232;,
      4;239,238,237,236;,
      4;243,242,241,240;,
      4;247,246,245,244;,
      4;251,250,249,248;,
      4;255,254,253,252;,
      4;259,258,257,256;,
      4;263,262,261,260;,
      8;271,270,269,268,267,266,265,264;,
      4;275,274,273,272;,
      4;279,278,277,276;,
      8;287,286,285,284,283,282,281,280;;
      MeshNormals {
        288;
         0.636401;-0.336016;-0.694325;,
        -0.636401;-0.336016;-0.694325;,
        -0.893261;-0.332541;-0.302493;,
         0.893260;-0.332541;-0.302493;,
        -0.785404; 0.243867; 0.568920;,
        -0.676645; 0.165008; 0.717582;,
        -0.893261;-0.332541;-0.302493;,
        -0.636401;-0.336016;-0.694325;,
         0.893260;-0.332541; 0.302493;,
         0.577350;-0.577350; 0.577350;,
        -0.577350;-0.577350; 0.577350;,
        -0.893260;-0.332541; 0.302493;,
         0.785404; 0.243867;-0.568920;,
        -0.785404; 0.243867;-0.568920;,
        -0.676645; 0.165008;-0.717582;,
         0.676645; 0.165008;-0.717582;,
        -0.893261;-0.332541;-0.302493;,
        -0.577350;-0.577350;-0.577350;,
         0.577350;-0.577350;-0.577350;,
         0.893260;-0.332541;-0.302493;,
         0.785404; 0.243867;-0.568920;,
         0.676645; 0.165008;-0.717582;,
         0.893260;-0.332541; 0.302493;,
         0.636401;-0.336016; 0.694325;,
         0.785428; 0.535800; 0.309875;,
         0.755561; 0.655078; 0.000000;,
         0.670210;-0.742172;-0.000000;,
         0.647121;-0.680143;-0.344442;,
         0.785428; 0.535800; 0.309875;,
        -0.785428; 0.535800; 0.309875;,
        -0.755561; 0.655078;-0.000000;,
         0.755561; 0.655078; 0.000000;,
        -0.785428; 0.535800;-0.309875;,
        -0.755561; 0.655078;-0.000000;,
        -0.670210;-0.742172; 0.000000;,
        -0.647121;-0.680143; 0.344442;,
         0.647121;-0.680143; 0.344442;,
        -0.647121;-0.680143; 0.344442;,
        -0.670210;-0.742172; 0.000000;,
         0.670210;-0.742172;-0.000000;,
         0.676645; 0.165008; 0.717582;,
        -0.676645; 0.165008; 0.717582;,
        -0.785404; 0.243867; 0.568920;,
         0.785404; 0.243867; 0.568920;,
         0.676645; 0.165008; 0.717582;,
         0.785404; 0.243867; 0.568920;,
         0.636401;-0.336016;-0.694325;,
         0.893260;-0.332541;-0.302493;,
        -0.785428; 0.535800; 0.309875;,
        -0.785404; 0.243867; 0.568920;,
        -0.636401;-0.336016;-0.694325;,
        -0.647121;-0.680143;-0.344442;,
         0.647121;-0.680143;-0.344442;,
        -0.647121;-0.680143;-0.344442;,
        -0.636401;-0.336016;-0.694325;,
         0.636401;-0.336016;-0.694325;,
         0.893260;-0.332541; 0.302493;,
        -0.893260;-0.332541; 0.302493;,
        -0.636401;-0.336016; 0.694325;,
         0.636401;-0.336016; 0.694325;,
        -0.676645; 0.165008;-0.717582;,
        -0.785404; 0.243867;-0.568920;,
        -0.636401;-0.336016; 0.694325;,
        -0.893260;-0.332541; 0.302493;,
         0.785428; 0.535800;-0.309875;,
         0.785404; 0.243867;-0.568920;,
         0.636401;-0.336016; 0.694325;,
         0.647121;-0.680143; 0.344442;,
         0.785428; 0.535800;-0.309875;,
        -0.785428; 0.535800;-0.309875;,
        -0.785404; 0.243867;-0.568920;,
         0.785404; 0.243867;-0.568920;,
        -0.614205; 0.599444; 0.513244;,
         0.614205; 0.599444; 0.513244;,
         0.683929; 0.725409; 0.077607;,
        -0.683929; 0.725409; 0.077607;,
         0.614205; 0.599444;-0.513244;,
        -0.614205; 0.599444;-0.513244;,
        -0.683929; 0.725409;-0.077607;,
         0.683929; 0.725409;-0.077607;,
         0.893260;-0.332541;-0.302493;,
         0.683929; 0.725409; 0.077607;,
         0.614205; 0.599444; 0.513244;,
         0.676645; 0.165008; 0.717582;,
        -0.676645; 0.165008; 0.717582;,
        -0.614205; 0.599444; 0.513244;,
        -0.683929; 0.725409; 0.077607;,
        -0.893261;-0.332541;-0.302493;,
        -0.893260;-0.332541; 0.302493;,
        -0.683929; 0.725409;-0.077607;,
        -0.614205; 0.599444;-0.513244;,
        -0.676645; 0.165008;-0.717582;,
         0.676645; 0.165008;-0.717582;,
         0.614205; 0.599444;-0.513244;,
         0.683929; 0.725409;-0.077607;,
         0.893260;-0.332541; 0.302493;,
        -0.676645; 0.165008;-0.717582;,
        -0.614205; 0.599444;-0.513244;,
         0.614205; 0.599444;-0.513244;,
         0.676645; 0.165008;-0.717582;,
         0.676645; 0.165008; 0.717582;,
         0.614205; 0.599444; 0.513244;,
        -0.614205; 0.599444; 0.513244;,
        -0.676645; 0.165008; 0.717582;,
         0.577350;-0.577350; 0.577350;,
         0.577350; 0.577350; 0.577350;,
        -0.577350; 0.577350; 0.577350;,
        -0.577350;-0.577350; 0.577350;,
         0.683929; 0.725409;-0.077607;,
         0.577350; 0.577350; 0.577350;,
         0.577350;-0.577350; 0.577350;,
         0.893260;-0.332541; 0.302493;,
        -0.683929; 0.725409;-0.077607;,
        -0.577350; 0.577350; 0.577350;,
         0.577350; 0.577350; 0.577350;,
         0.683929; 0.725409;-0.077607;,
        -0.893260;-0.332541; 0.302493;,
        -0.577350;-0.577350; 0.577350;,
        -0.577350; 0.577350; 0.577350;,
        -0.683929; 0.725409;-0.077607;,
        -0.577350;-0.577350;-0.577350;,
        -0.577350; 0.577350;-0.577350;,
         0.577350; 0.577350;-0.577350;,
         0.577350;-0.577350;-0.577350;,
         0.683929; 0.725409; 0.077607;,
         0.577350; 0.577350;-0.577350;,
        -0.577350; 0.577350;-0.577350;,
        -0.683929; 0.725409; 0.077607;,
        -0.683929; 0.725409; 0.077607;,
        -0.577350; 0.577350;-0.577350;,
        -0.577350;-0.577350;-0.577350;,
        -0.893261;-0.332541;-0.302493;,
         0.893260;-0.332541;-0.302493;,
         0.577350;-0.577350;-0.577350;,
         0.577350; 0.577350;-0.577350;,
         0.683929; 0.725409; 0.077607;,
         0.755561; 0.655078; 0.000000;,
        -0.755561; 0.655078;-0.000000;,
        -0.785428; 0.535800;-0.309875;,
         0.785428; 0.535800;-0.309875;,
         0.755561; 0.655078; 0.000000;,
         0.785428; 0.535800;-0.309875;,
         0.647121;-0.680143; 0.344442;,
         0.670210;-0.742172;-0.000000;,
         0.636401;-0.336016; 0.694325;,
        -0.636401;-0.336016; 0.694325;,
        -0.647121;-0.680143; 0.344442;,
         0.647121;-0.680143; 0.344442;,
        -0.785404; 0.243867;-0.568920;,
        -0.785428; 0.535800;-0.309875;,
        -0.647121;-0.680143; 0.344442;,
        -0.636401;-0.336016; 0.694325;,
         0.670210;-0.742172;-0.000000;,
        -0.670210;-0.742172; 0.000000;,
        -0.647121;-0.680143;-0.344442;,
         0.647121;-0.680143;-0.344442;,
        -0.755561; 0.655078;-0.000000;,
        -0.785428; 0.535800; 0.309875;,
        -0.647121;-0.680143;-0.344442;,
        -0.670210;-0.742172; 0.000000;,
         0.785404; 0.243867; 0.568920;,
        -0.785404; 0.243867; 0.568920;,
        -0.785428; 0.535800; 0.309875;,
         0.785428; 0.535800; 0.309875;,
         0.785404; 0.243867; 0.568920;,
         0.785428; 0.535800; 0.309875;,
         0.647121;-0.680143;-0.344442;,
         0.636401;-0.336016;-0.694325;,
        -0.314552; 0.656171;-0.685927;,
         0.577350; 0.577350;-0.577350;,
         0.577350;-0.577350;-0.577350;,
        -0.314552;-0.656171;-0.685928;,
         0.904534;-0.301511;-0.301511;,
         0.577350;-0.577350;-0.577350;,
         0.577350;-0.577350; 0.577350;,
         0.904534;-0.301511; 0.301511;,
         0.577350; 0.577350; 0.577350;,
        -0.314552; 0.656171; 0.685927;,
        -0.314552;-0.656171; 0.685928;,
         0.577350;-0.577350; 0.577350;,
        -0.314552;-0.656171; 0.685928;,
        -0.826414;-0.454702; 0.332093;,
        -0.826414;-0.454702;-0.332093;,
        -0.314552;-0.656171;-0.685928;,
         0.577350; 0.577350;-0.577350;,
        -0.314552; 0.656171;-0.685927;,
        -0.314552; 0.656171; 0.685927;,
         0.577350; 0.577350; 0.577350;,
         0.577350;-0.577350; 0.577350;,
        -0.314552;-0.656171; 0.685928;,
        -0.314552;-0.656171;-0.685928;,
         0.577350;-0.577350;-0.577350;,
        -0.826414; 0.454701; 0.332094;,
        -0.826414; 0.454701;-0.332093;,
        -0.826414;-0.454702;-0.332093;,
        -0.826414;-0.454702; 0.332093;,
        -0.314552; 0.656171; 0.685927;,
        -0.826414; 0.454701; 0.332094;,
        -0.826414;-0.454702; 0.332093;,
        -0.314552;-0.656171; 0.685928;,
        -0.314552;-0.656171;-0.685928;,
        -0.826414;-0.454702;-0.332093;,
        -0.826414; 0.454701;-0.332093;,
        -0.314552; 0.656171;-0.685927;,
        -0.314552; 0.656171;-0.685927;,
        -0.826414; 0.454701;-0.332093;,
        -0.826414; 0.454701; 0.332094;,
        -0.314552; 0.656171; 0.685927;,
         0.904534;-0.301511;-0.301511;,
         0.577350;-0.577350;-0.577350;,
         0.577350; 0.577350;-0.577350;,
         0.904534; 0.301511;-0.301511;,
         0.904534; 0.301511;-0.301511;,
         0.577350; 0.577350;-0.577350;,
         0.577350; 0.577350; 0.577350;,
         0.904534; 0.301511; 0.301511;,
         0.904534;-0.301511; 0.301511;,
         0.577350;-0.577350; 0.577350;,
         0.577350;-0.577350;-0.577350;,
         0.904534;-0.301511;-0.301511;,
         0.904534; 0.301511; 0.301511;,
         0.577350; 0.577350; 0.577350;,
         0.577350;-0.577350; 0.577350;,
         0.904534;-0.301511; 0.301511;,
         0.577350; 0.577350;-0.577350;,
         0.577350; 0.577350; 0.577350;,
         0.577350;-0.577350; 0.577350;,
         0.577350;-0.577350;-0.577350;,
         0.904534; 0.301511;-0.301511;,
         0.577350; 0.577350;-0.577350;,
         0.577350;-0.577350;-0.577350;,
         0.904534;-0.301511;-0.301511;,
         0.904534;-0.301511; 0.301511;,
         0.577350;-0.577350; 0.577350;,
         0.577350; 0.577350; 0.577350;,
         0.904534; 0.301511; 0.301511;,
         0.904534; 0.301511; 0.301511;,
         0.577350; 0.577350; 0.577350;,
         0.577350; 0.577350;-0.577350;,
         0.904534; 0.301511;-0.301511;,
        -0.330332; 0.943865; 0.000000;,
        -0.330332; 0.667413; 0.667413;,
         0.882770; 0.332202; 0.332202;,
         0.882771; 0.469804; 0.000000;,
        -0.330332; 0.667413; 0.667413;,
        -0.330332;-0.000000; 0.943865;,
         0.882770;-0.000000; 0.469805;,
         0.882770; 0.332202; 0.332202;,
        -0.330332;-0.000000; 0.943865;,
        -0.330333;-0.667413; 0.667413;,
         0.882770;-0.332202; 0.332203;,
         0.882770;-0.000000; 0.469805;,
        -0.330333;-0.667413; 0.667413;,
        -0.330332;-0.943865; 0.000000;,
         0.882770;-0.469805; 0.000000;,
         0.882770;-0.332202; 0.332203;,
        -0.330332;-0.943865; 0.000000;,
        -0.330333;-0.667413;-0.667413;,
         0.882770;-0.332202;-0.332203;,
         0.882770;-0.469805; 0.000000;,
        -0.330333;-0.667413;-0.667413;,
        -0.330332;-0.000000;-0.943865;,
         0.882770;-0.000000;-0.469805;,
         0.882770;-0.332202;-0.332203;,
         0.882770; 0.332202; 0.332202;,
         0.882770;-0.000000; 0.469805;,
         0.882770;-0.332202; 0.332203;,
         0.882770;-0.469805; 0.000000;,
         0.882770;-0.332202;-0.332203;,
         0.882770;-0.000000;-0.469805;,
         0.882770; 0.332202;-0.332202;,
         0.882771; 0.469804; 0.000000;,
        -0.330332;-0.000000;-0.943865;,
        -0.330332; 0.667414;-0.667413;,
         0.882770; 0.332202;-0.332202;,
         0.882770;-0.000000;-0.469805;,
        -0.330332; 0.667414;-0.667413;,
        -0.330332; 0.943865; 0.000000;,
         0.882771; 0.469804; 0.000000;,
         0.882770; 0.332202;-0.332202;,
        -0.330332; 0.943865; 0.000000;,
        -0.330332; 0.667414;-0.667413;,
        -0.330332;-0.000000;-0.943865;,
        -0.330333;-0.667413;-0.667413;,
        -0.330332;-0.943865; 0.000000;,
        -0.330333;-0.667413; 0.667413;,
        -0.330332;-0.000000; 0.943865;,
        -0.330332; 0.667413; 0.667413;;
        70;
        4;3,2,1,0;,
        4;7,6,5,4;,
        4;11,10,9,8;,
        4;15,14,13,12;,
        4;19,18,17,16;,
        4;23,22,21,20;,
        4;27,26,25,24;,
        4;31,30,29,28;,
        4;35,34,33,32;,
        4;39,38,37,36;,
        4;43,42,41,40;,
        4;47,46,45,44;,
        4;51,50,49,48;,
        4;55,54,53,52;,
        4;59,58,57,56;,
        4;63,62,61,60;,
        4;67,66,65,64;,
        4;71,70,69,68;,
        4;75,74,73,72;,
        4;79,78,77,76;,
        4;83,82,81,80;,
        4;87,86,85,84;,
        4;91,90,89,88;,
        4;95,94,93,92;,
        4;99,98,97,96;,
        4;103,102,101,100;,
        4;107,106,105,104;,
        4;111,110,109,108;,
        4;115,114,113,112;,
        4;119,118,117,116;,
        4;123,122,121,120;,
        4;127,126,125,124;,
        4;131,130,129,128;,
        4;135,134,133,132;,
        4;139,138,137,136;,
        4;143,142,141,140;,
        4;147,146,145,144;,
        4;151,150,149,148;,
        4;155,154,153,152;,
        4;159,158,157,156;,
        4;163,162,161,160;,
        4;167,166,165,164;,
        4;171,170,169,168;,
        4;175,174,173,172;,
        4;179,178,177,176;,
        4;183,182,181,180;,
        4;187,186,185,184;,
        4;191,190,189,188;,
        4;195,194,193,192;,
        4;199,198,197,196;,
        4;203,202,201,200;,
        4;207,206,205,204;,
        4;211,210,209,208;,
        4;215,214,213,212;,
        4;219,218,217,216;,
        4;223,222,221,220;,
        4;227,226,225,224;,
        4;231,230,229,228;,
        4;235,234,233,232;,
        4;239,238,237,236;,
        4;243,242,241,240;,
        4;247,246,245,244;,
        4;251,250,249,248;,
        4;255,254,253,252;,
        4;259,258,257,256;,
        4;263,262,261,260;,
        8;271,270,269,268,267,266,265,264;,
        4;275,274,273,272;,
        4;279,278,277,276;,
        8;287,286,285,284,283,282,281,280;;
      }
      MeshTextureCoords {
        288;
         0.999517; 0.418596;,
         0.999517; 0.611593;,
         0.899387; 0.611593;,
         0.899387; 0.418596;,
         0.655254; 0.543995;,
         0.591915; 0.491712;,
         0.603591; 0.476110;,
         0.680150; 0.540645;,
         0.194445; 0.254619;,
         0.194445; 0.114971;,
         0.387442; 0.114971;,
         0.387442; 0.254619;,
         0.581404; 0.879817;,
         0.388407; 0.879817;,
         0.388407; 0.797687;,
         0.581404; 0.797687;,
         0.776331; 0.143869;,
         0.931074; 0.143869;,
         0.931074; 0.336866;,
         0.776331; 0.336866;,
         0.763252; 0.556312;,
         0.701734; 0.501898;,
         0.713935; 0.486704;,
         0.788248; 0.553813;,
         0.671345; 0.727404;,
         0.651059; 0.679725;,
         0.666314; 0.669157;,
         0.691707; 0.724209;,
         0.581404; 0.612755;,
         0.388407; 0.612755;,
         0.388407; 0.560939;,
         0.581404; 0.560939;,
         0.777085; 0.739819;,
         0.755183; 0.692860;,
         0.770069; 0.681778;,
         0.797326; 0.735932;,
         0.871702; 0.999517;,
         0.871702; 0.806520;,
         0.932328; 0.806520;,
         0.932328; 0.999517;,
         0.581404; 0.762769;,
         0.388407; 0.762769;,
         0.388407; 0.680639;,
         0.581404; 0.680639;,
         0.591915; 0.845637;,
         0.655254; 0.793353;,
         0.680150; 0.796703;,
         0.603591; 0.861239;,
         0.671345; 0.609945;,
         0.655254; 0.543995;,
         0.680150; 0.540645;,
         0.691707; 0.613140;,
         0.581404; 0.193993;,
         0.388407; 0.193993;,
         0.388407; 0.120583;,
         0.581404; 0.120583;,
         0.898422; 0.418596;,
         0.898422; 0.611593;,
         0.798291; 0.611593;,
         0.798291; 0.418596;,
         0.701734; 0.860694;,
         0.763252; 0.806280;,
         0.788248; 0.808778;,
         0.713935; 0.875888;,
         0.777084; 0.622772;,
         0.763252; 0.556312;,
         0.788248; 0.553813;,
         0.797326; 0.626660;,
         0.581404; 0.947702;,
         0.388407; 0.947702;,
         0.388407; 0.879817;,
         0.581404; 0.879817;,
         0.775366; 0.336866;,
         0.582369; 0.336866;,
         0.582369; 0.323187;,
         0.775366; 0.323187;,
         0.000483; 0.101292;,
         0.193479; 0.101292;,
         0.193479; 0.114971;,
         0.000483; 0.114971;,
         0.603591; 0.861239;,
         0.587604; 0.872313;,
         0.582369; 0.859675;,
         0.591915; 0.845637;,
         0.591915; 0.491712;,
         0.582369; 0.477674;,
         0.587604; 0.465035;,
         0.603591; 0.476110;,
         0.713935; 0.875888;,
         0.698335; 0.887501;,
         0.692673; 0.875049;,
         0.701734; 0.860694;,
         0.701734; 0.501898;,
         0.692673; 0.487542;,
         0.698335; 0.475090;,
         0.713935; 0.486704;,
         0.388407; 0.797687;,
         0.388407; 0.780711;,
         0.581404; 0.780711;,
         0.581404; 0.797687;,
         0.581404; 0.762769;,
         0.581404; 0.779746;,
         0.388407; 0.779746;,
         0.388407; 0.762769;,
         0.388407; 0.119617;,
         0.388407; 0.100169;,
         0.581404; 0.100169;,
         0.581404; 0.119617;,
         0.698335; 0.475090;,
         0.781726; 0.363074;,
         0.797326; 0.374688;,
         0.713935; 0.486704;,
         0.193479; 0.114971;,
         0.193480; 0.254619;,
         0.000483; 0.254619;,
         0.000483; 0.114971;,
         0.713935; 0.875888;,
         0.797326; 0.987904;,
         0.781726; 0.999517;,
         0.698335; 0.887501;,
         0.000483; 0.100326;,
         0.000483; 0.080878;,
         0.193480; 0.080878;,
         0.193480; 0.100327;,
         0.582369; 0.323187;,
         0.582369; 0.168444;,
         0.775366; 0.168444;,
         0.775366; 0.323187;,
         0.587604; 0.465035;,
         0.675720; 0.337832;,
         0.691707; 0.348906;,
         0.603591; 0.476110;,
         0.603591; 0.861239;,
         0.691707; 0.988443;,
         0.675720; 0.999517;,
         0.587604; 0.872313;,
         0.581404; 0.999517;,
         0.388407; 0.999517;,
         0.388407; 0.947702;,
         0.581404; 0.947702;,
         0.755183; 0.669731;,
         0.777084; 0.622772;,
         0.797326; 0.626660;,
         0.770069; 0.680813;,
         0.798291; 0.999517;,
         0.798291; 0.806520;,
         0.871702; 0.806520;,
         0.871702; 0.999517;,
         0.763252; 0.806280;,
         0.777085; 0.739819;,
         0.797326; 0.735932;,
         0.788248; 0.808778;,
         0.581404; 0.254619;,
         0.388407; 0.254619;,
         0.388407; 0.193993;,
         0.581404; 0.193993;,
         0.651059; 0.657624;,
         0.671345; 0.609945;,
         0.691707; 0.613140;,
         0.666314; 0.668192;,
         0.581404; 0.680639;,
         0.388407; 0.680639;,
         0.388407; 0.612755;,
         0.581404; 0.612755;,
         0.655254; 0.793353;,
         0.671345; 0.727404;,
         0.691707; 0.724209;,
         0.680150; 0.796703;,
         0.000483; 0.255584;,
         0.531749; 0.255584;,
         0.531749; 0.360952;,
         0.000483; 0.360952;,
         0.952613; 0.336866;,
         0.932039; 0.336866;,
         0.932039; 0.163130;,
         0.952613; 0.163130;,
         0.000483; 0.361917;,
         0.531749; 0.361917;,
         0.531749; 0.467285;,
         0.000483; 0.467285;,
         0.904624; 0.612558;,
         0.944237; 0.642046;,
         0.944237; 0.776068;,
         0.904624; 0.805555;,
         0.193480; 0.468250;,
         0.193480; 0.999517;,
         0.000483; 0.999517;,
         0.000483; 0.468250;,
         0.387442; 0.468250;,
         0.387442; 0.999517;,
         0.194445; 0.999517;,
         0.194445; 0.468250;,
         0.655539; 0.033457;,
         0.655539; 0.167479;,
         0.582369; 0.167479;,
         0.582369; 0.033457;,
         0.703190; 0.167479;,
         0.656505; 0.151380;,
         0.656505; 0.078210;,
         0.703190; 0.062111;,
         0.750840; 0.167479;,
         0.704155; 0.151380;,
         0.704155; 0.078210;,
         0.750840; 0.062111;,
         0.572327; 0.467285;,
         0.532715; 0.437798;,
         0.532715; 0.303776;,
         0.572327; 0.274288;,
         0.807921; 0.622188;,
         0.798291; 0.612558;,
         0.903659; 0.612558;,
         0.894029; 0.622188;,
         0.894029; 0.622188;,
         0.903659; 0.612558;,
         0.903659; 0.805555;,
         0.894029; 0.795925;,
         0.807921; 0.795925;,
         0.798291; 0.805555;,
         0.798291; 0.612558;,
         0.807921; 0.622188;,
         0.894029; 0.795925;,
         0.903659; 0.805555;,
         0.798291; 0.805555;,
         0.807921; 0.795925;,
         0.388407; 0.473866;,
         0.562144; 0.473866;,
         0.562144; 0.559974;,
         0.388407; 0.559974;,
         0.751805; 0.081371;,
         0.772379; 0.081371;,
         0.772379; 0.167479;,
         0.751805; 0.167479;,
         0.934231; 0.142904;,
         0.913657; 0.142904;,
         0.913657; 0.056797;,
         0.934231; 0.056797;,
         0.953867; 0.999517;,
         0.933293; 0.999517;,
         0.933293; 0.825781;,
         0.953867; 0.825781;,
         0.808154; 0.142904;,
         0.784884; 0.120398;,
         0.805061; 0.108447;,
         0.819425; 0.122339;,
         0.784884; 0.120398;,
         0.776331; 0.089174;,
         0.799782; 0.089174;,
         0.805061; 0.108447;,
         0.776331; 0.089174;,
         0.784884; 0.057951;,
         0.805061; 0.069901;,
         0.799782; 0.089174;,
         0.784884; 0.057951;,
         0.808154; 0.035444;,
         0.819425; 0.056009;,
         0.805061; 0.069901;,
         0.852213; 0.142904;,
         0.828943; 0.120398;,
         0.849120; 0.108447;,
         0.863484; 0.122339;,
         0.828943; 0.120398;,
         0.820390; 0.089174;,
         0.843841; 0.089174;,
         0.849120; 0.108447;,
         0.912692; 0.128774;,
         0.898562; 0.142904;,
         0.878579; 0.142904;,
         0.864449; 0.128774;,
         0.864449; 0.108791;,
         0.878579; 0.094661;,
         0.898562; 0.094661;,
         0.912692; 0.108791;,
         0.820390; 0.089174;,
         0.828943; 0.057951;,
         0.849120; 0.069901;,
         0.843841; 0.089174;,
         0.828943; 0.057951;,
         0.852213; 0.035444;,
         0.863484; 0.056009;,
         0.849120; 0.069901;,
         0.821183; 0.339474;,
         0.853556; 0.339474;,
         0.876448; 0.362365;,
         0.876448; 0.394739;,
         0.853556; 0.417630;,
         0.821183; 0.417630;,
         0.798291; 0.394739;,
         0.798291; 0.362365;;
      }
      MeshMaterialList {
        1;
        70;
        0,
        0,
        0,
        0,
        0,
        0,
        0,
        0,
        0,
        0,
        0,
        0,
        0,
        0,
        0,
        0,
        0,
        0,
        0,
        0,
        0,
        0,
        0,
        0,
        0,
        0,
        0,
        0,
        0,
        0,
        0,
        0,
        0,
        0,
        0,
        0,
        0,
        0,
        0,
        0,
        0,
        0,
        0,
        0,
        0,
        0,
        0,
        0,
        0,
        0,
        0,
        0,
        0,
        0,
        0,
        0,
        0,
        0,
        0,
        0,
        0,
        0,
        0,
        0,
        0,
        0,
        0,
        0,
        0,
        0;
        Material Material_001 {
           0.800000; 0.800000; 0.800000; 1.000000;;
           323.999994;
           0.500000; 0.500000; 0.500000;;
           0.000000; 0.000000; 0.000000;;
        }
      }
    }
  }
}
