xof 0303txt 0032

Frame Root {
  FrameTransformMatrix {
     1.000000, 0.000000, 0.000000, 0.000000,
     0.000000,-0.000000, 1.000000, 0.000000,
     0.000000, 1.000000, 0.000000, 0.000000,
     0.000000, 0.000000, 0.000000, 1.000000;;
  }
  Frame StockAR5_x_Root_DOUBLESTAR_low_Cylinder_001 {
    FrameTransformMatrix {
       1.000000, 0.000000, 0.000000, 0.000000,
       0.000000, 1.000000, 0.000000, 0.000000,
       0.000000, 0.000000, 1.000000, 0.000000,
       0.000000, 0.000000, 0.000000, 1.000000;;
    }
    Mesh {
      706;
      -0.046638; 0.004217; 0.062584;,
      -0.042060; 0.004217; 0.068058;,
      -0.042060;-0.003928; 0.068058;,
      -0.046638;-0.003928; 0.062584;,
      -0.046638;-0.003928; 0.062584;,
      -0.042060;-0.003928; 0.068058;,
      -0.043202;-0.003928; 0.060346;,
      -0.046638; 0.004217; 0.062584;,
      -0.043202; 0.004217; 0.060346;,
      -0.042060; 0.004217; 0.068058;,
      -0.043202;-0.003928; 0.060346;,
      -0.042060;-0.003928; 0.068058;,
      -0.039703;-0.003928; 0.068058;,
      -0.039625;-0.003928; 0.060346;,
      -0.042060;-0.003928; 0.068058;,
      -0.042060; 0.004217; 0.068058;,
      -0.039703; 0.004217; 0.068058;,
      -0.040794; 0.000144; 0.068058;,
      -0.039703;-0.003928; 0.068058;,
      -0.043202; 0.004217; 0.060346;,
      -0.043202;-0.003928; 0.060346;,
      -0.039625;-0.003928; 0.060346;,
      -0.040716; 0.000144; 0.060346;,
      -0.039625; 0.004217; 0.060346;,
      -0.042060; 0.004217; 0.068058;,
      -0.043202; 0.004217; 0.060346;,
      -0.039625; 0.004217; 0.060346;,
      -0.039703; 0.004217; 0.068058;,
      -0.043202; 0.004217; 0.060346;,
      -0.046638; 0.004217; 0.062584;,
      -0.046638; 0.004217; 0.037470;,
      -0.043202; 0.004217; 0.033211;,
      -0.046638; 0.004217; 0.062584;,
      -0.046638;-0.003928; 0.062584;,
      -0.046638;-0.003928; 0.037470;,
      -0.046638; 0.004217; 0.037470;,
      -0.046638;-0.003928; 0.062584;,
      -0.043202;-0.003928; 0.060346;,
      -0.043202;-0.003928; 0.033211;,
      -0.046638;-0.003928; 0.037470;,
      -0.043202;-0.003928; 0.060346;,
      -0.043202; 0.004217; 0.060346;,
      -0.043202; 0.004217; 0.033211;,
      -0.043202;-0.003928; 0.033211;,
      -0.043202;-0.003928; 0.033211;,
      -0.042060;-0.003928; 0.019475;,
      -0.046638;-0.003928; 0.037470;,
      -0.042060; 0.004217; 0.019475;,
      -0.043202; 0.004217; 0.033211;,
      -0.046638; 0.004217; 0.037470;,
      -0.039274;-0.003928; 0.019475;,
      -0.042060;-0.003928; 0.019475;,
      -0.043202;-0.003928; 0.033211;,
      -0.039390;-0.003928; 0.033211;,
      -0.039274; 0.004217; 0.019475;,
      -0.042060; 0.004217; 0.019475;,
      -0.042060;-0.003928; 0.019475;,
      -0.039274;-0.003928; 0.019475;,
      -0.040304; 0.000144; 0.019475;,
      -0.039390;-0.003928; 0.033211;,
      -0.043202;-0.003928; 0.033211;,
      -0.043202; 0.004217; 0.033211;,
      -0.039390; 0.004217; 0.033211;,
      -0.040442; 0.000144; 0.033211;,
      -0.039390; 0.004217; 0.033211;,
      -0.043202; 0.004217; 0.033211;,
      -0.042060; 0.004217; 0.019475;,
      -0.039274; 0.004217; 0.019475;,
      -0.046638; 0.004217; 0.037470;,
      -0.046638;-0.003928; 0.037470;,
      -0.042060;-0.003928; 0.019475;,
      -0.042060; 0.004217; 0.019475;,
      -0.029646;-0.009575;-0.074157;,
      -0.029646;-0.009575;-0.084830;,
      -0.034506;-0.008273;-0.084830;,
      -0.034506;-0.008273;-0.074157;,
      -0.034506;-0.008273;-0.074157;,
      -0.034506;-0.008273;-0.084830;,
      -0.038064;-0.004715;-0.084830;,
      -0.038064;-0.004715;-0.074157;,
      -0.038064;-0.004715;-0.074157;,
      -0.038064;-0.004715;-0.084830;,
      -0.039366; 0.000144;-0.084830;,
      -0.039366; 0.000144;-0.074157;,
      -0.039366; 0.000144;-0.074157;,
      -0.039366; 0.000144;-0.084830;,
      -0.038064; 0.005004;-0.084830;,
      -0.038064; 0.005004;-0.074157;,
      -0.038064; 0.005004;-0.074157;,
      -0.038064; 0.005004;-0.084830;,
      -0.034506; 0.008562;-0.084830;,
      -0.034506; 0.008562;-0.074157;,
      -0.034506; 0.008562;-0.074157;,
      -0.034506; 0.008562;-0.084830;,
      -0.029646; 0.009864;-0.084830;,
      -0.029646; 0.009864;-0.074157;,
      -0.029646; 0.009864;-0.074157;,
      -0.029646; 0.009864;-0.084830;,
      -0.024787; 0.008562;-0.084830;,
      -0.024787; 0.008562;-0.074157;,
      -0.024787; 0.008562;-0.074157;,
      -0.024787; 0.008562;-0.084830;,
      -0.021229; 0.005004;-0.084830;,
      -0.021229; 0.005004;-0.074157;,
      -0.021229; 0.005004;-0.074157;,
      -0.021229; 0.005004;-0.084830;,
      -0.019927; 0.000144;-0.084830;,
      -0.019927; 0.000144;-0.074157;,
      -0.019927; 0.000144;-0.074157;,
      -0.019927; 0.000144;-0.084830;,
      -0.021229;-0.004715;-0.084830;,
      -0.021229;-0.004715;-0.074157;,
      -0.019927; 0.000144;-0.074157;,
      -0.021229;-0.004715;-0.074157;,
      -0.019398;-0.005772;-0.074157;,
      -0.017813; 0.000144;-0.074157;,
      -0.021229;-0.004715;-0.074157;,
      -0.021229;-0.004715;-0.084830;,
      -0.024787;-0.008273;-0.084830;,
      -0.024787;-0.008273;-0.074157;,
      -0.024787;-0.008273;-0.074157;,
      -0.024787;-0.008273;-0.084830;,
      -0.029646;-0.009575;-0.084830;,
      -0.029646;-0.009575;-0.074157;,
      -0.034506;-0.008273;-0.084830;,
      -0.029646;-0.009575;-0.084830;,
      -0.024787;-0.008273;-0.084830;,
      -0.021229;-0.004715;-0.084830;,
      -0.019927; 0.000144;-0.084830;,
      -0.021229; 0.005004;-0.084830;,
      -0.024787; 0.008562;-0.084830;,
      -0.029646; 0.009864;-0.084830;,
      -0.034506; 0.008562;-0.084830;,
      -0.038064; 0.005004;-0.084830;,
      -0.039366; 0.000144;-0.084830;,
      -0.038064;-0.004715;-0.084830;,
      -0.019398;-0.005772;-0.074157;,
      -0.023730;-0.010104;-0.074157;,
      -0.023730;-0.010104;-0.060966;,
      -0.019398;-0.005772;-0.060966;,
      -0.021229; 0.005004;-0.074157;,
      -0.019927; 0.000144;-0.074157;,
      -0.017813; 0.000144;-0.074157;,
      -0.019398; 0.006061;-0.074157;,
      -0.024787; 0.008562;-0.074157;,
      -0.021229; 0.005004;-0.074157;,
      -0.019398; 0.006061;-0.074157;,
      -0.023730; 0.010392;-0.074157;,
      -0.029646; 0.009864;-0.074157;,
      -0.024787; 0.008562;-0.074157;,
      -0.023730; 0.010392;-0.074157;,
      -0.029646; 0.011978;-0.074157;,
      -0.034506; 0.008562;-0.074157;,
      -0.029646; 0.009864;-0.074157;,
      -0.029646; 0.011978;-0.074157;,
      -0.035563; 0.010392;-0.074157;,
      -0.038064; 0.005004;-0.074157;,
      -0.034506; 0.008562;-0.074157;,
      -0.035563; 0.010392;-0.074157;,
      -0.039895; 0.006061;-0.074157;,
      -0.039366; 0.000144;-0.074157;,
      -0.038064; 0.005004;-0.074157;,
      -0.039895; 0.006061;-0.074157;,
      -0.041480; 0.000144;-0.074157;,
      -0.024787;-0.008273;-0.074157;,
      -0.029646;-0.009575;-0.074157;,
      -0.029646;-0.011689;-0.074157;,
      -0.023730;-0.010104;-0.074157;,
      -0.029646;-0.009575;-0.074157;,
      -0.034506;-0.008273;-0.074157;,
      -0.035563;-0.010104;-0.074157;,
      -0.029646;-0.011689;-0.074157;,
      -0.038064;-0.004715;-0.074157;,
      -0.039366; 0.000144;-0.074157;,
      -0.041480; 0.000144;-0.074157;,
      -0.039895;-0.005772;-0.074157;,
      -0.021229;-0.004715;-0.074157;,
      -0.024787;-0.008273;-0.074157;,
      -0.023730;-0.010104;-0.074157;,
      -0.019398;-0.005772;-0.074157;,
      -0.034506;-0.008273;-0.074157;,
      -0.038064;-0.004715;-0.074157;,
      -0.039895;-0.005772;-0.074157;,
      -0.035563;-0.010104;-0.074157;,
      -0.029646;-0.011689;-0.074157;,
      -0.035563;-0.010104;-0.074157;,
      -0.035563;-0.010104;-0.060966;,
      -0.029646;-0.011689;-0.060966;,
      -0.023730; 0.010392;-0.074157;,
      -0.019398; 0.006061;-0.074157;,
      -0.019398; 0.006061;-0.060966;,
      -0.023730; 0.010392;-0.060966;,
      -0.039895; 0.006061;-0.074157;,
      -0.035563; 0.010392;-0.074157;,
      -0.035563; 0.010392;-0.060966;,
      -0.039895; 0.006061;-0.060966;,
      -0.023730;-0.010104;-0.074157;,
      -0.029646;-0.011689;-0.074157;,
      -0.029646;-0.011689;-0.060966;,
      -0.023730;-0.010104;-0.060966;,
      -0.035563;-0.010104;-0.074157;,
      -0.039895;-0.005772;-0.074157;,
      -0.039895;-0.005772;-0.060966;,
      -0.035563;-0.010104;-0.060966;,
      -0.019398; 0.006061;-0.074157;,
      -0.017813; 0.000144;-0.074157;,
      -0.017813; 0.000144;-0.060966;,
      -0.019398; 0.006061;-0.060966;,
      -0.035563; 0.010392;-0.074157;,
      -0.029646; 0.011978;-0.074157;,
      -0.029646; 0.011978;-0.060966;,
      -0.035563; 0.010392;-0.060966;,
      -0.039895;-0.005772;-0.074157;,
      -0.041480; 0.000144;-0.074157;,
      -0.041480; 0.000144;-0.060966;,
      -0.039895;-0.005772;-0.060966;,
      -0.017813; 0.000144;-0.074157;,
      -0.019398;-0.005772;-0.074157;,
      -0.019398;-0.005772;-0.060966;,
      -0.017813; 0.000144;-0.060966;,
      -0.029646; 0.011978;-0.074157;,
      -0.023730; 0.010392;-0.074157;,
      -0.023730; 0.010392;-0.060966;,
      -0.029646; 0.011978;-0.060966;,
      -0.041480; 0.000144;-0.074157;,
      -0.039895; 0.006061;-0.074157;,
      -0.039895; 0.006061;-0.060966;,
      -0.041480; 0.000144;-0.060966;,
      -0.041480; 0.000144;-0.060966;,
      -0.039895; 0.006061;-0.060966;,
      -0.039132; 0.005621;-0.060026;,
      -0.040600; 0.000144;-0.060026;,
      -0.019398;-0.005772;-0.060966;,
      -0.023730;-0.010104;-0.060966;,
      -0.024170;-0.009342;-0.060026;,
      -0.029646;-0.011689;-0.060966;,
      -0.035563;-0.010104;-0.060966;,
      -0.035123;-0.009342;-0.060026;,
      -0.023730;-0.010104;-0.060966;,
      -0.029646;-0.011689;-0.060966;,
      -0.024170;-0.009342;-0.060026;,
      -0.035563;-0.010104;-0.060966;,
      -0.039895;-0.005772;-0.060966;,
      -0.035123;-0.009342;-0.060026;,
      -0.029646; 0.011098;-0.060026;,
      -0.024170; 0.009630;-0.060026;,
      -0.023382; 0.010994;-0.058850;,
      -0.029646; 0.012673;-0.058850;,
      -0.019398;-0.005772;-0.060966;,
      -0.024170;-0.009342;-0.060026;,
      -0.020161;-0.005332;-0.060026;,
      -0.029646;-0.011689;-0.060966;,
      -0.035123;-0.009342;-0.060026;,
      -0.029646;-0.010809;-0.060026;,
      -0.023730; 0.010392;-0.060966;,
      -0.019398; 0.006061;-0.060966;,
      -0.020161; 0.005621;-0.060026;,
      -0.024170; 0.009630;-0.060026;,
      -0.039895; 0.006061;-0.060966;,
      -0.035563; 0.010392;-0.060966;,
      -0.035123; 0.009630;-0.060026;,
      -0.039132; 0.005621;-0.060026;,
      -0.024170;-0.009342;-0.060026;,
      -0.029646;-0.011689;-0.060966;,
      -0.029646;-0.010809;-0.060026;,
      -0.035123;-0.009342;-0.060026;,
      -0.039895;-0.005772;-0.060966;,
      -0.039132;-0.005332;-0.060026;,
      -0.019398; 0.006061;-0.060966;,
      -0.017813; 0.000144;-0.060966;,
      -0.018693; 0.000144;-0.060026;,
      -0.020161; 0.005621;-0.060026;,
      -0.035563; 0.010392;-0.060966;,
      -0.029646; 0.011978;-0.060966;,
      -0.029646; 0.011098;-0.060026;,
      -0.035123; 0.009630;-0.060026;,
      -0.039895;-0.005772;-0.060966;,
      -0.041480; 0.000144;-0.060966;,
      -0.040600; 0.000144;-0.060026;,
      -0.039132;-0.005332;-0.060026;,
      -0.017813; 0.000144;-0.060966;,
      -0.019398;-0.005772;-0.060966;,
      -0.020161;-0.005332;-0.060026;,
      -0.018693; 0.000144;-0.060026;,
      -0.029646; 0.011978;-0.060966;,
      -0.023730; 0.010392;-0.060966;,
      -0.024170; 0.009630;-0.060026;,
      -0.029646; 0.011098;-0.060026;,
      -0.029646; 0.012673;-0.058850;,
      -0.023382; 0.010994;-0.058850;,
      -0.023386; 0.010994; 0.015845;,
      -0.029648; 0.012673; 0.015748;,
      -0.040600; 0.000144;-0.060026;,
      -0.039132; 0.005621;-0.060026;,
      -0.040496; 0.006408;-0.058850;,
      -0.042175; 0.000144;-0.058850;,
      -0.020161;-0.005332;-0.060026;,
      -0.024170;-0.009342;-0.060026;,
      -0.023382;-0.010705;-0.058850;,
      -0.018797;-0.006120;-0.058850;,
      -0.029646;-0.010809;-0.060026;,
      -0.035123;-0.009342;-0.060026;,
      -0.035911;-0.010705;-0.058850;,
      -0.029646;-0.012384;-0.058850;,
      -0.024170; 0.009630;-0.060026;,
      -0.020161; 0.005621;-0.060026;,
      -0.018797; 0.006408;-0.058850;,
      -0.023382; 0.010994;-0.058850;,
      -0.039132; 0.005621;-0.060026;,
      -0.035123; 0.009630;-0.060026;,
      -0.035911; 0.010994;-0.058850;,
      -0.040496; 0.006408;-0.058850;,
      -0.024170;-0.009342;-0.060026;,
      -0.029646;-0.010809;-0.060026;,
      -0.029646;-0.012384;-0.058850;,
      -0.023382;-0.010705;-0.058850;,
      -0.035123;-0.009342;-0.060026;,
      -0.039132;-0.005332;-0.060026;,
      -0.040496;-0.006120;-0.058850;,
      -0.035911;-0.010705;-0.058850;,
      -0.020161; 0.005621;-0.060026;,
      -0.018693; 0.000144;-0.060026;,
      -0.017118; 0.000144;-0.058850;,
      -0.018797; 0.006408;-0.058850;,
      -0.035123; 0.009630;-0.060026;,
      -0.029646; 0.011098;-0.060026;,
      -0.029646; 0.012673;-0.058850;,
      -0.035911; 0.010994;-0.058850;,
      -0.039132;-0.005332;-0.060026;,
      -0.040600; 0.000144;-0.060026;,
      -0.042175; 0.000144;-0.058850;,
      -0.040496;-0.006120;-0.058850;,
      -0.018693; 0.000144;-0.060026;,
      -0.020161;-0.005332;-0.060026;,
      -0.018797;-0.006120;-0.058850;,
      -0.017118; 0.000144;-0.058850;,
      -0.042175; 0.000144;-0.058850;,
      -0.040496; 0.006408;-0.058850;,
      -0.040495; 0.006408; 0.015580;,
      -0.042173; 0.000144; 0.015555;,
      -0.018797;-0.006120;-0.058850;,
      -0.023382;-0.010705;-0.058850;,
      -0.023386;-0.010705; 0.015845;,
      -0.018801;-0.006120; 0.015915;,
      -0.029646;-0.012384;-0.058850;,
      -0.035911;-0.010705;-0.058850;,
      -0.035911;-0.010705; 0.015651;,
      -0.029648;-0.012384; 0.015748;,
      -0.023382; 0.010994;-0.058850;,
      -0.018797; 0.006408;-0.058850;,
      -0.018801; 0.006408; 0.015915;,
      -0.023386; 0.010994; 0.015845;,
      -0.040496; 0.006408;-0.058850;,
      -0.035911; 0.010994;-0.058850;,
      -0.035911; 0.010994; 0.015651;,
      -0.040495; 0.006408; 0.015580;,
      -0.023382;-0.010705;-0.058850;,
      -0.029646;-0.012384;-0.058850;,
      -0.029648;-0.012384; 0.015748;,
      -0.023386;-0.010705; 0.015845;,
      -0.035911;-0.010705;-0.058850;,
      -0.040496;-0.006120;-0.058850;,
      -0.040495;-0.006120; 0.015580;,
      -0.035911;-0.010705; 0.015651;,
      -0.018797; 0.006408;-0.058850;,
      -0.017118; 0.000144;-0.058850;,
      -0.017123; 0.000144; 0.015941;,
      -0.018801; 0.006408; 0.015915;,
      -0.035911; 0.010994;-0.058850;,
      -0.029646; 0.012673;-0.058850;,
      -0.029648; 0.012673; 0.015748;,
      -0.035911; 0.010994; 0.015651;,
      -0.040496;-0.006120;-0.058850;,
      -0.042175; 0.000144;-0.058850;,
      -0.042173; 0.000144; 0.015555;,
      -0.040495;-0.006120; 0.015580;,
      -0.017118; 0.000144;-0.058850;,
      -0.018797;-0.006120;-0.058850;,
      -0.018801;-0.006120; 0.015915;,
      -0.017123; 0.000144; 0.015941;,
      -0.024192;-0.009542; 0.015832;,
      -0.029774;-0.011040; 0.015746;,
      -0.024189;-0.009542; 0.019692;,
      -0.013227;-0.008921; 0.060912;,
      -0.024054;-0.009542; 0.071719;,
      -0.010467;-0.008763; 0.061409;,
      -0.020665; 0.005737; 0.020823;,
      -0.024189; 0.009831; 0.019692;,
      -0.024192; 0.009831; 0.015832;,
      -0.020656; 0.005737; 0.015887;,
      -0.019375; 0.000144; 0.021237;,
      -0.020665; 0.005737; 0.020823;,
      -0.020656; 0.005737; 0.015887;,
      -0.019362; 0.000144; 0.015907;,
      -0.020665;-0.005448; 0.020823;,
      -0.019375; 0.000144; 0.021237;,
      -0.019362; 0.000144; 0.015907;,
      -0.020656;-0.005448; 0.015887;,
       0.041940; 0.000144; 0.040913;,
       0.040444;-0.003450; 0.040433;,
       0.040313;-0.003450; 0.064965;,
       0.041812; 0.000144; 0.064965;,
       0.040444;-0.003450; 0.040433;,
       0.036338;-0.006080; 0.039115;,
       0.036220;-0.006080; 0.064965;,
       0.040313;-0.003450; 0.064965;,
       0.036338; 0.006369; 0.039115;,
       0.040444; 0.003738; 0.040433;,
       0.040313; 0.003738; 0.064965;,
       0.036220; 0.006369; 0.064965;,
       0.040444; 0.003738; 0.040433;,
       0.041940; 0.000144; 0.040913;,
       0.041812; 0.000144; 0.064965;,
       0.040313; 0.003738; 0.064965;,
      -0.040831; 0.000144; 0.071719;,
      -0.024054; 0.009831; 0.071719;,
      -0.035239;-0.009542; 0.071719;,
      -0.009403; 0.008986; 0.029944;,
      -0.024189; 0.009831; 0.019692;,
       0.036338; 0.006369; 0.039115;,
       0.036338; 0.006369; 0.039115;,
      -0.019375; 0.000144; 0.021237;,
       0.036338;-0.006080; 0.039115;,
      -0.039625;-0.003928; 0.060346;,
      -0.039390;-0.003928; 0.033211;,
      -0.040442; 0.000144; 0.033211;,
      -0.040716; 0.000144; 0.060346;,
      -0.040495; 0.006408; 0.015580;,
      -0.035911; 0.010994; 0.015651;,
      -0.035019; 0.009831; 0.015665;,
      -0.038859; 0.005737; 0.015606;,
      -0.039390; 0.004217; 0.033211;,
      -0.039625; 0.004217; 0.060346;,
      -0.040716; 0.000144; 0.060346;,
      -0.040442; 0.000144; 0.033211;,
      -0.029648; 0.012673; 0.015748;,
      -0.023386; 0.010994; 0.015845;,
      -0.024192; 0.009831; 0.015832;,
      -0.029774; 0.011329; 0.015746;,
      -0.024189;-0.009542; 0.019692;,
      -0.020665;-0.005448; 0.020823;,
      -0.020656;-0.005448; 0.015887;,
      -0.024192;-0.009542; 0.015832;,
      -0.035911; 0.010994; 0.015651;,
      -0.029648; 0.012673; 0.015748;,
      -0.029774; 0.011329; 0.015746;,
      -0.035019; 0.009831; 0.015665;,
      -0.042173; 0.000144; 0.015555;,
      -0.040495; 0.006408; 0.015580;,
      -0.038859; 0.005737; 0.015606;,
      -0.040264; 0.000144; 0.015584;,
      -0.040495;-0.006120; 0.015580;,
      -0.042173; 0.000144; 0.015555;,
      -0.040264; 0.000144; 0.015584;,
      -0.038859;-0.005448; 0.015606;,
      -0.035911;-0.010705; 0.015651;,
      -0.040495;-0.006120; 0.015580;,
      -0.038859;-0.005448; 0.015606;,
      -0.035019;-0.009542; 0.015665;,
      -0.023386; 0.010994; 0.015845;,
      -0.018801; 0.006408; 0.015915;,
      -0.020656; 0.005737; 0.015887;,
      -0.024192; 0.009831; 0.015832;,
      -0.018801; 0.006408; 0.015915;,
      -0.017123; 0.000144; 0.015941;,
      -0.019362; 0.000144; 0.015907;,
      -0.020656; 0.005737; 0.015887;,
      -0.017123; 0.000144; 0.015941;,
      -0.018801;-0.006120; 0.015915;,
      -0.020656;-0.005448; 0.015887;,
      -0.019362; 0.000144; 0.015907;,
      -0.018801;-0.006120; 0.015915;,
      -0.023386;-0.010705; 0.015845;,
      -0.024192;-0.009542; 0.015832;,
      -0.020656;-0.005448; 0.015887;,
      -0.023386;-0.010705; 0.015845;,
      -0.029648;-0.012384; 0.015748;,
      -0.029774;-0.011040; 0.015746;,
      -0.024192;-0.009542; 0.015832;,
      -0.029648;-0.012384; 0.015748;,
      -0.035911;-0.010705; 0.015651;,
      -0.035019;-0.009542; 0.015665;,
      -0.029774;-0.011040; 0.015746;,
      -0.015987;-0.009075; 0.035089;,
      -0.009403;-0.008697; 0.029944;,
      -0.024189;-0.009542; 0.019692;,
      -0.009403; 0.008986; 0.029944;,
      -0.009403;-0.008697; 0.029944;,
      -0.015987;-0.009075; 0.035089;,
      -0.015987; 0.009363; 0.035089;,
      -0.015248;-0.009036; 0.059064;,
      -0.015248; 0.009325; 0.059064;,
      -0.015987; 0.009367; 0.056358;,
      -0.015987;-0.009078; 0.056358;,
       0.028930; 0.006794; 0.042849;,
       0.028930;-0.006505; 0.042849;,
      -0.009403;-0.008697; 0.029944;,
      -0.009403; 0.008986; 0.029944;,
      -0.004935;-0.008446; 0.060917;,
      -0.004935; 0.008735; 0.060917;,
      -0.010467; 0.009051; 0.061409;,
      -0.010467;-0.008763; 0.061409;,
      -0.010467;-0.008763; 0.061409;,
      -0.010467; 0.009051; 0.061409;,
      -0.013227; 0.009209; 0.060912;,
      -0.013227;-0.008921; 0.060912;,
      -0.015248; 0.009325; 0.059064;,
      -0.013227; 0.009209; 0.060912;,
      -0.024054; 0.009831; 0.071719;,
       0.028930; 0.006790; 0.057903;,
       0.028930;-0.006501; 0.057903;,
       0.028930;-0.006505; 0.042849;,
       0.028930; 0.006794; 0.042849;,
       0.028930;-0.006501; 0.057903;,
       0.028930; 0.006790; 0.057903;,
      -0.004935; 0.008735; 0.060917;,
      -0.004935;-0.008446; 0.060917;,
      -0.013227;-0.008921; 0.060912;,
      -0.013227; 0.009209; 0.060912;,
      -0.015248; 0.009325; 0.059064;,
      -0.015248;-0.009036; 0.059064;,
      -0.015987; 0.009363; 0.035089;,
      -0.015987;-0.009075; 0.035089;,
      -0.015987;-0.009078; 0.056358;,
      -0.015987; 0.009367; 0.056358;,
       0.040313;-0.003450; 0.064965;,
       0.036220;-0.006080; 0.064965;,
       0.036220; 0.006369; 0.064965;,
      -0.039390;-0.003928; 0.033211;,
      -0.038859;-0.005448; 0.015606;,
      -0.040264; 0.000144; 0.015584;,
      -0.040304; 0.000144; 0.019475;,
      -0.039274;-0.003928; 0.019475;,
      -0.040794; 0.000144; 0.068058;,
      -0.040831; 0.000144; 0.071719;,
      -0.039333;-0.005448; 0.071719;,
      -0.039703;-0.003928; 0.068058;,
      -0.039333; 0.005737; 0.071719;,
      -0.040831; 0.000144; 0.071719;,
      -0.040794; 0.000144; 0.068058;,
      -0.039703; 0.004217; 0.068058;,
      -0.040264; 0.000144; 0.015584;,
      -0.038859; 0.005737; 0.015606;,
      -0.039274; 0.004217; 0.019475;,
      -0.040304; 0.000144; 0.019475;,
      -0.039274; 0.004217; 0.019475;,
      -0.038859; 0.005737; 0.015606;,
      -0.039390; 0.004217; 0.033211;,
      -0.024189; 0.009831; 0.019692;,
      -0.020665; 0.005737; 0.020823;,
       0.036338; 0.006369; 0.039115;,
       0.040444; 0.003738; 0.040433;,
       0.036338; 0.006369; 0.039115;,
       0.040444;-0.003450; 0.040433;,
       0.041940; 0.000144; 0.040913;,
       0.040444; 0.003738; 0.040433;,
       0.040444;-0.003450; 0.040433;,
       0.036338;-0.006080; 0.039115;,
       0.040444;-0.003450; 0.040433;,
       0.036338; 0.006369; 0.039115;,
      -0.024189;-0.009542; 0.019692;,
       0.036338;-0.006080; 0.039115;,
      -0.020665;-0.005448; 0.020823;,
      -0.020665; 0.005737; 0.020823;,
      -0.019375; 0.000144; 0.021237;,
       0.036338; 0.006369; 0.039115;,
      -0.020665;-0.005448; 0.020823;,
       0.036338;-0.006080; 0.039115;,
      -0.019375; 0.000144; 0.021237;,
      -0.024054;-0.009542; 0.071719;,
      -0.029646;-0.011040; 0.071719;,
      -0.024054; 0.009831; 0.071719;,
      -0.029646; 0.011329; 0.071719;,
      -0.024054; 0.009831; 0.071719;,
      -0.040831; 0.000144; 0.071719;,
      -0.035239; 0.009831; 0.071719;,
      -0.029646; 0.011329; 0.071719;,
      -0.040831; 0.000144; 0.071719;,
      -0.039333; 0.005737; 0.071719;,
      -0.035239; 0.009831; 0.071719;,
      -0.040831; 0.000144; 0.071719;,
      -0.039333;-0.005448; 0.071719;,
      -0.040831; 0.000144; 0.071719;,
      -0.035239;-0.009542; 0.071719;,
      -0.029646;-0.011040; 0.071719;,
      -0.035239;-0.009542; 0.071719;,
      -0.024054; 0.009831; 0.071719;,
       0.040313; 0.003738; 0.064965;,
       0.041812; 0.000144; 0.064965;,
       0.040313;-0.003450; 0.064965;,
       0.036220; 0.006369; 0.064965;,
       0.040313; 0.003738; 0.064965;,
       0.040313;-0.003450; 0.064965;,
      -0.024054; 0.009831; 0.071719;,
       0.036220; 0.006369; 0.064965;,
      -0.024054;-0.009542; 0.071719;,
       0.036220;-0.006080; 0.064965;,
      -0.024054;-0.009542; 0.071719;,
       0.036220; 0.006369; 0.064965;,
      -0.029774; 0.011329; 0.015746;,
      -0.029646; 0.011329; 0.071719;,
      -0.035239; 0.009831; 0.071719;,
      -0.035019; 0.009831; 0.015665;,
      -0.035019; 0.009831; 0.015665;,
      -0.035239; 0.009831; 0.071719;,
      -0.039333; 0.005737; 0.071719;,
      -0.038859; 0.005737; 0.015606;,
      -0.024192; 0.009831; 0.015832;,
      -0.024189; 0.009831; 0.019692;,
      -0.029774; 0.011329; 0.015746;,
      -0.024189; 0.009831; 0.019692;,
      -0.024054; 0.009831; 0.071719;,
      -0.029646; 0.011329; 0.071719;,
      -0.029774; 0.011329; 0.015746;,
      -0.038859;-0.005448; 0.015606;,
      -0.039333;-0.005448; 0.071719;,
      -0.035239;-0.009542; 0.071719;,
      -0.035019;-0.009542; 0.015665;,
      -0.035019;-0.009542; 0.015665;,
      -0.035239;-0.009542; 0.071719;,
      -0.029646;-0.011040; 0.071719;,
      -0.029774;-0.011040; 0.015746;,
      -0.029774;-0.011040; 0.015746;,
      -0.029646;-0.011040; 0.071719;,
      -0.024054;-0.009542; 0.071719;,
      -0.024189;-0.009542; 0.019692;,
      -0.039625;-0.003928; 0.060346;,
      -0.039333;-0.005448; 0.071719;,
      -0.038859;-0.005448; 0.015606;,
      -0.039390;-0.003928; 0.033211;,
      -0.039703;-0.003928; 0.068058;,
      -0.039333;-0.005448; 0.071719;,
      -0.039625;-0.003928; 0.060346;,
      -0.039625; 0.004217; 0.060346;,
      -0.039333; 0.005737; 0.071719;,
      -0.039703; 0.004217; 0.068058;,
      -0.038859; 0.005737; 0.015606;,
      -0.039333; 0.005737; 0.071719;,
      -0.039625; 0.004217; 0.060346;,
      -0.039390; 0.004217; 0.033211;,
      -0.015987;-0.009078; 0.056358;,
      -0.024054;-0.009542; 0.071719;,
      -0.015248;-0.009036; 0.059064;,
      -0.015248;-0.009036; 0.059064;,
      -0.024054;-0.009542; 0.071719;,
      -0.013227;-0.008921; 0.060912;,
       0.036220;-0.006080; 0.064965;,
       0.028930;-0.006501; 0.057903;,
      -0.004935;-0.008446; 0.060917;,
      -0.024054;-0.009542; 0.071719;,
       0.036220;-0.006080; 0.064965;,
      -0.004935;-0.008446; 0.060917;,
      -0.004935;-0.008446; 0.060917;,
      -0.010467;-0.008763; 0.061409;,
      -0.024054;-0.009542; 0.071719;,
      -0.024054; 0.009831; 0.071719;,
      -0.024189; 0.009831; 0.019692;,
      -0.015987; 0.009367; 0.056358;,
      -0.015987; 0.009367; 0.056358;,
      -0.024189; 0.009831; 0.019692;,
      -0.015987; 0.009363; 0.035089;,
       0.036220; 0.006369; 0.064965;,
       0.028930; 0.006790; 0.057903;,
       0.036338; 0.006369; 0.039115;,
       0.028930; 0.006790; 0.057903;,
       0.028930; 0.006794; 0.042849;,
       0.036338; 0.006369; 0.039115;,
      -0.015987; 0.009363; 0.035089;,
      -0.024189; 0.009831; 0.019692;,
      -0.009403; 0.008986; 0.029944;,
       0.028930; 0.006794; 0.042849;,
      -0.009403; 0.008986; 0.029944;,
       0.036338; 0.006369; 0.039115;,
       0.036220;-0.006080; 0.064965;,
       0.036338;-0.006080; 0.039115;,
       0.028930;-0.006501; 0.057903;,
       0.028930;-0.006501; 0.057903;,
       0.036338;-0.006080; 0.039115;,
       0.028930;-0.006505; 0.042849;,
      -0.024054;-0.009542; 0.071719;,
      -0.015987;-0.009078; 0.056358;,
      -0.024189;-0.009542; 0.019692;,
      -0.015987;-0.009078; 0.056358;,
      -0.015987;-0.009075; 0.035089;,
      -0.024189;-0.009542; 0.019692;,
       0.036338;-0.006080; 0.039115;,
      -0.024189;-0.009542; 0.019692;,
      -0.009403;-0.008697; 0.029944;,
       0.028930;-0.006505; 0.042849;,
       0.036338;-0.006080; 0.039115;,
      -0.009403;-0.008697; 0.029944;,
       0.036220; 0.006369; 0.064965;,
      -0.024054; 0.009831; 0.071719;,
      -0.004935; 0.008735; 0.060917;,
       0.028930; 0.006790; 0.057903;,
       0.036220; 0.006369; 0.064965;,
      -0.004935; 0.008735; 0.060917;,
      -0.010467; 0.009051; 0.061409;,
      -0.004935; 0.008735; 0.060917;,
      -0.024054; 0.009831; 0.071719;,
      -0.015987; 0.009367; 0.056358;,
      -0.015248; 0.009325; 0.059064;,
      -0.024054; 0.009831; 0.071719;,
      -0.010467; 0.009051; 0.061409;,
      -0.024054; 0.009831; 0.071719;,
      -0.013227; 0.009209; 0.060912;;
      189;
      4;3,2,1,0;,
      3;6,5,4;,
      3;9,8,7;,
      4;13,12,11,10;,
      5;18,17,16,15,14;,
      5;23,22,21,20,19;,
      4;27,26,25,24;,
      4;31,30,29,28;,
      4;35,34,33,32;,
      4;39,38,37,36;,
      4;43,42,41,40;,
      3;46,45,44;,
      3;49,48,47;,
      4;53,52,51,50;,
      5;58,57,56,55,54;,
      5;63,62,61,60,59;,
      4;67,66,65,64;,
      4;71,70,69,68;,
      4;75,74,73,72;,
      4;79,78,77,76;,
      4;83,82,81,80;,
      4;87,86,85,84;,
      4;91,90,89,88;,
      4;95,94,93,92;,
      4;99,98,97,96;,
      4;103,102,101,100;,
      4;107,106,105,104;,
      4;111,110,109,108;,
      4;115,114,113,112;,
      4;119,118,117,116;,
      4;123,122,121,120;,
      12;135,134,133,132,131,130,129,128,127,126,125,124;,
      4;139,138,137,136;,
      4;143,142,141,140;,
      4;147,146,145,144;,
      4;151,150,149,148;,
      4;155,154,153,152;,
      4;159,158,157,156;,
      4;163,162,161,160;,
      4;167,166,165,164;,
      4;171,170,169,168;,
      4;175,174,173,172;,
      4;179,178,177,176;,
      4;183,182,181,180;,
      4;187,186,185,184;,
      4;191,190,189,188;,
      4;195,194,193,192;,
      4;199,198,197,196;,
      4;203,202,201,200;,
      4;207,206,205,204;,
      4;211,210,209,208;,
      4;215,214,213,212;,
      4;219,218,217,216;,
      4;223,222,221,220;,
      4;227,226,225,224;,
      4;231,230,229,228;,
      3;234,233,232;,
      3;237,236,235;,
      3;240,239,238;,
      3;243,242,241;,
      4;247,246,245,244;,
      3;250,249,248;,
      3;253,252,251;,
      4;257,256,255,254;,
      4;261,260,259,258;,
      3;264,263,262;,
      3;267,266,265;,
      4;271,270,269,268;,
      4;275,274,273,272;,
      4;279,278,277,276;,
      4;283,282,281,280;,
      4;287,286,285,284;,
      4;291,290,289,288;,
      4;295,294,293,292;,
      4;299,298,297,296;,
      4;303,302,301,300;,
      4;307,306,305,304;,
      4;311,310,309,308;,
      4;315,314,313,312;,
      4;319,318,317,316;,
      4;323,322,321,320;,
      4;327,326,325,324;,
      4;331,330,329,328;,
      4;335,334,333,332;,
      4;339,338,337,336;,
      4;343,342,341,340;,
      4;347,346,345,344;,
      4;351,350,349,348;,
      4;355,354,353,352;,
      4;359,358,357,356;,
      4;363,362,361,360;,
      4;367,366,365,364;,
      4;371,370,369,368;,
      4;375,374,373,372;,
      4;379,378,377,376;,
      3;382,381,380;,
      3;385,384,383;,
      4;389,388,387,386;,
      4;393,392,391,390;,
      4;397,396,395,394;,
      4;401,400,399,398;,
      4;405,404,403,402;,
      4;409,408,407,406;,
      4;413,412,411,410;,
      3;416,415,414;,
      3;419,418,417;,
      3;422,421,420;,
      4;426,425,424,423;,
      4;430,429,428,427;,
      4;434,433,432,431;,
      4;438,437,436,435;,
      4;442,441,440,439;,
      4;446,445,444,443;,
      4;450,449,448,447;,
      4;454,453,452,451;,
      4;458,457,456,455;,
      4;462,461,460,459;,
      4;466,465,464,463;,
      4;470,469,468,467;,
      4;474,473,472,471;,
      4;478,477,476,475;,
      4;482,481,480,479;,
      3;485,484,483;,
      4;489,488,487,486;,
      4;493,492,491,490;,
      4;497,496,495,494;,
      4;501,500,499,498;,
      4;505,504,503,502;,
      3;508,507,506;,
      4;512,511,510,509;,
      4;516,515,514,513;,
      4;520,519,518,517;,
      4;524,523,522,521;,
      3;527,526,525;,
      5;532,531,530,529,528;,
      4;536,535,534,533;,
      4;540,539,538,537;,
      4;544,543,542,541;,
      3;547,546,545;,
      3;550,549,548;,
      3;553,552,551;,
      3;556,555,554;,
      3;559,558,557;,
      3;562,561,560;,
      3;565,564,563;,
      3;568,567,566;,
      3;571,570,569;,
      3;574,573,572;,
      3;577,576,575;,
      3;580,579,578;,
      3;583,582,581;,
      3;586,585,584;,
      3;589,588,587;,
      3;592,591,590;,
      3;595,594,593;,
      3;598,597,596;,
      4;602,601,600,599;,
      4;606,605,604,603;,
      3;609,608,607;,
      4;613,612,611,610;,
      4;617,616,615,614;,
      4;621,620,619,618;,
      4;625,624,623,622;,
      4;629,628,627,626;,
      3;632,631,630;,
      3;635,634,633;,
      4;639,638,637,636;,
      3;642,641,640;,
      3;645,644,643;,
      3;648,647,646;,
      3;651,650,649;,
      3;654,653,652;,
      3;657,656,655;,
      3;660,659,658;,
      3;663,662,661;,
      3;666,665,664;,
      3;669,668,667;,
      3;672,671,670;,
      3;675,674,673;,
      3;678,677,676;,
      3;681,680,679;,
      3;684,683,682;,
      3;687,686,685;,
      3;690,689,688;,
      3;693,692,691;,
      3;696,695,694;,
      3;699,698,697;,
      3;702,701,700;,
      3;705,704,703;;
      MeshNormals {
        706;
         0.767094; 0.000000;-0.641534;,
         0.767094; 0.000000;-0.641534;,
         0.767094; 0.000000;-0.641534;,
         0.767094; 0.000000;-0.641534;,
         0.000000; 1.000000;-0.000000;,
         0.000000; 1.000000;-0.000000;,
         0.000000; 1.000000;-0.000000;,
         0.000000;-1.000000; 0.000000;,
         0.000000;-1.000000; 0.000000;,
         0.000000;-1.000000; 0.000000;,
         0.000000; 1.000000;-0.000000;,
         0.000000; 1.000000;-0.000000;,
         0.000000; 1.000000;-0.000000;,
         0.000000; 1.000000;-0.000000;,
        -0.000002; 0.000000;-1.000000;,
        -0.000002; 0.000000;-1.000000;,
        -0.000002; 0.000000;-1.000000;,
        -0.000002; 0.000000;-1.000000;,
        -0.000002; 0.000000;-1.000000;,
         0.000001; 0.000000; 1.000000;,
         0.000001; 0.000000; 1.000000;,
         0.000001; 0.000000; 1.000000;,
         0.000001; 0.000000; 1.000000;,
         0.000001; 0.000000; 1.000000;,
         0.000000;-1.000000; 0.000000;,
         0.000000;-1.000000; 0.000000;,
         0.000000;-1.000000; 0.000000;,
         0.000000;-1.000000; 0.000000;,
         0.000000;-1.000000; 0.000000;,
         0.000000;-1.000000; 0.000000;,
         0.000000;-1.000000; 0.000000;,
         0.000000;-1.000000; 0.000000;,
         1.000000; 0.000000; 0.000000;,
         1.000000; 0.000000; 0.000000;,
         1.000000; 0.000000; 0.000000;,
         1.000000; 0.000000; 0.000000;,
         0.000000; 1.000000; 0.000000;,
         0.000000; 1.000000; 0.000000;,
         0.000000; 1.000000; 0.000000;,
         0.000000; 1.000000; 0.000000;,
        -1.000000; 0.000000; 0.000000;,
        -1.000000; 0.000000; 0.000000;,
        -1.000000; 0.000000; 0.000000;,
        -1.000000; 0.000000; 0.000000;,
         0.000000; 1.000000; 0.000000;,
         0.000000; 1.000000; 0.000000;,
         0.000000; 1.000000; 0.000000;,
         0.000000;-1.000000; 0.000000;,
         0.000000;-1.000000; 0.000000;,
         0.000000;-1.000000; 0.000000;,
         0.000000; 1.000000; 0.000000;,
         0.000000; 1.000000; 0.000000;,
         0.000000; 1.000000; 0.000000;,
         0.000000; 1.000000; 0.000000;,
         0.000001; 0.000000; 1.000000;,
         0.000001; 0.000000; 1.000000;,
         0.000001; 0.000000; 1.000000;,
         0.000001; 0.000000; 1.000000;,
         0.000001; 0.000000; 1.000000;,
        -0.000001; 0.000000;-1.000000;,
        -0.000001; 0.000000;-1.000000;,
        -0.000001; 0.000000;-1.000000;,
        -0.000001; 0.000000;-1.000000;,
        -0.000001; 0.000000;-1.000000;,
         0.000000;-1.000000; 0.000000;,
         0.000000;-1.000000; 0.000000;,
         0.000000;-1.000000; 0.000000;,
         0.000000;-1.000000; 0.000000;,
         0.969130; 0.000000; 0.246551;,
         0.969130; 0.000000; 0.246551;,
         0.969130; 0.000000; 0.246551;,
         0.969130; 0.000000; 0.246551;,
         0.258776; 0.965937; 0.000000;,
         0.258776; 0.965937; 0.000000;,
         0.258776; 0.965937; 0.000000;,
         0.258776; 0.965937; 0.000000;,
         0.707107; 0.707107; 0.000000;,
         0.707107; 0.707107; 0.000000;,
         0.707107; 0.707107; 0.000000;,
         0.707107; 0.707107; 0.000000;,
         0.965924; 0.258825; 0.000000;,
         0.965924; 0.258825; 0.000000;,
         0.965924; 0.258825; 0.000000;,
         0.965924; 0.258825; 0.000000;,
         0.965937;-0.258775; 0.000000;,
         0.965937;-0.258775; 0.000000;,
         0.965937;-0.258775; 0.000000;,
         0.965937;-0.258775; 0.000000;,
         0.707107;-0.707107; 0.000000;,
         0.707107;-0.707107; 0.000000;,
         0.707107;-0.707107; 0.000000;,
         0.707107;-0.707107; 0.000000;,
         0.258776;-0.965937; 0.000000;,
         0.258776;-0.965937; 0.000000;,
         0.258776;-0.965937; 0.000000;,
         0.258776;-0.965937; 0.000000;,
        -0.258826;-0.965924; 0.000000;,
        -0.258826;-0.965924; 0.000000;,
        -0.258826;-0.965924; 0.000000;,
        -0.258826;-0.965924; 0.000000;,
        -0.707107;-0.707107; 0.000000;,
        -0.707107;-0.707107; 0.000000;,
        -0.707107;-0.707107; 0.000000;,
        -0.707107;-0.707107; 0.000000;,
        -0.965937;-0.258776; 0.000000;,
        -0.965937;-0.258776; 0.000000;,
        -0.965937;-0.258776; 0.000000;,
        -0.965937;-0.258776; 0.000000;,
        -0.965924; 0.258826; 0.000000;,
        -0.965924; 0.258826; 0.000000;,
        -0.965924; 0.258826; 0.000000;,
        -0.965924; 0.258826; 0.000000;,
         0.000000; 0.000000; 1.000000;,
         0.000000; 0.000000; 1.000000;,
         0.000000; 0.000000; 1.000000;,
         0.000000; 0.000000; 1.000000;,
        -0.707107; 0.707107; 0.000000;,
        -0.707107; 0.707107; 0.000000;,
        -0.707107; 0.707107; 0.000000;,
        -0.707107; 0.707107; 0.000000;,
        -0.258826; 0.965924; 0.000000;,
        -0.258826; 0.965924; 0.000000;,
        -0.258826; 0.965924; 0.000000;,
        -0.258826; 0.965924; 0.000000;,
         0.000000; 0.000000; 1.000000;,
         0.000000; 0.000000; 1.000000;,
         0.000000; 0.000000; 1.000000;,
         0.000000; 0.000000; 1.000000;,
         0.000000; 0.000000; 1.000000;,
         0.000000; 0.000000; 1.000000;,
         0.000000; 0.000000; 1.000000;,
         0.000000; 0.000000; 1.000000;,
         0.000000; 0.000000; 1.000000;,
         0.000000; 0.000000; 1.000000;,
         0.000000; 0.000000; 1.000000;,
         0.000000; 0.000000; 1.000000;,
        -0.707107; 0.707107; 0.000000;,
        -0.707107; 0.707107; 0.000000;,
        -0.707107; 0.707107; 0.000000;,
        -0.707107; 0.707107; 0.000000;,
        -0.000003; 0.000000; 1.000000;,
        -0.000003; 0.000000; 1.000000;,
        -0.000003; 0.000000; 1.000000;,
        -0.000003; 0.000000; 1.000000;,
         0.000000; 0.000000; 1.000000;,
         0.000000; 0.000000; 1.000000;,
         0.000000; 0.000000; 1.000000;,
         0.000000; 0.000000; 1.000000;,
        -0.000001; 0.000000; 1.000000;,
        -0.000001; 0.000000; 1.000000;,
        -0.000001; 0.000000; 1.000000;,
        -0.000001; 0.000000; 1.000000;,
         0.000001; 0.000000; 1.000000;,
         0.000001; 0.000000; 1.000000;,
         0.000001; 0.000000; 1.000000;,
         0.000001; 0.000000; 1.000000;,
         0.000000; 0.000000; 1.000000;,
         0.000000; 0.000000; 1.000000;,
         0.000000; 0.000000; 1.000000;,
         0.000000; 0.000000; 1.000000;,
         0.000003; 0.000000; 1.000000;,
         0.000003; 0.000000; 1.000000;,
         0.000003; 0.000000; 1.000000;,
         0.000003; 0.000000; 1.000000;,
         0.000000; 0.000000; 1.000000;,
         0.000000; 0.000000; 1.000000;,
         0.000000; 0.000000; 1.000000;,
         0.000000; 0.000000; 1.000000;,
         0.000001; 0.000000; 1.000000;,
         0.000001; 0.000000; 1.000000;,
         0.000001; 0.000000; 1.000000;,
         0.000001; 0.000000; 1.000000;,
         0.000000; 0.000000; 1.000000;,
         0.000000; 0.000000; 1.000000;,
         0.000000; 0.000000; 1.000000;,
         0.000000; 0.000000; 1.000000;,
         0.000000; 0.000000; 1.000000;,
         0.000000; 0.000000; 1.000000;,
         0.000000; 0.000000; 1.000000;,
         0.000000; 0.000000; 1.000000;,
         0.000000; 0.000000; 1.000000;,
         0.000000; 0.000000; 1.000000;,
         0.000000; 0.000000; 1.000000;,
         0.000000; 0.000000; 1.000000;,
         0.258750; 0.965944; 0.000000;,
         0.258750; 0.965944; 0.000000;,
         0.258750; 0.965944; 0.000000;,
         0.258750; 0.965944; 0.000000;,
        -0.707025;-0.707188; 0.000000;,
        -0.707025;-0.707188; 0.000000;,
        -0.707025;-0.707188; 0.000000;,
        -0.707025;-0.707188; 0.000000;,
         0.707025;-0.707189; 0.000000;,
         0.707025;-0.707189; 0.000000;,
         0.707025;-0.707189; 0.000000;,
         0.707025;-0.707189; 0.000000;,
        -0.258791; 0.965933; 0.000000;,
        -0.258791; 0.965933; 0.000000;,
        -0.258791; 0.965933; 0.000000;,
        -0.258791; 0.965933; 0.000000;,
         0.707106; 0.707107; 0.000000;,
         0.707106; 0.707107; 0.000000;,
         0.707106; 0.707107; 0.000000;,
         0.707106; 0.707107; 0.000000;,
        -0.965944;-0.258750; 0.000000;,
        -0.965944;-0.258750; 0.000000;,
        -0.965944;-0.258750; 0.000000;,
        -0.965944;-0.258750; 0.000000;,
         0.258902;-0.965904; 0.000000;,
         0.258902;-0.965904; 0.000000;,
         0.258902;-0.965904; 0.000000;,
         0.258902;-0.965904; 0.000000;,
         0.965934; 0.258790; 0.000000;,
         0.965934; 0.258790; 0.000000;,
         0.965934; 0.258790; 0.000000;,
         0.965934; 0.258790; 0.000000;,
        -0.965933; 0.258791; 0.000000;,
        -0.965933; 0.258791; 0.000000;,
        -0.965933; 0.258791; 0.000000;,
        -0.965933; 0.258791; 0.000000;,
        -0.258943;-0.965893; 0.000000;,
        -0.258943;-0.965893; 0.000000;,
        -0.258943;-0.965893; 0.000000;,
        -0.258943;-0.965893; 0.000000;,
         0.965944;-0.258750; 0.000000;,
         0.965944;-0.258750; 0.000000;,
         0.965944;-0.258750; 0.000000;,
         0.965944;-0.258750; 0.000000;,
         0.716278;-0.191925;-0.670902;,
         0.716278;-0.191925;-0.670902;,
         0.716278;-0.191925;-0.670902;,
         0.716278;-0.191925;-0.670902;,
        -0.524494; 0.524493;-0.670681;,
        -0.524494; 0.524493;-0.670681;,
        -0.524494; 0.524493;-0.670681;,
         0.191930; 0.716501;-0.670664;,
         0.191930; 0.716501;-0.670664;,
         0.191930; 0.716501;-0.670664;,
        -0.191958; 0.716489;-0.670668;,
        -0.191958; 0.716489;-0.670668;,
        -0.191958; 0.716489;-0.670668;,
         0.524495; 0.524493;-0.670681;,
         0.524495; 0.524493;-0.670681;,
         0.524495; 0.524493;-0.670681;,
        -0.158344;-0.590713; 0.791192;,
        -0.158344;-0.590713; 0.791192;,
        -0.158344;-0.590713; 0.791192;,
        -0.158344;-0.590713; 0.791192;,
        -0.524356; 0.524223;-0.671000;,
        -0.524356; 0.524223;-0.671000;,
        -0.524356; 0.524223;-0.671000;,
         0.191901; 0.716453;-0.670723;,
         0.191901; 0.716453;-0.670723;,
         0.191901; 0.716453;-0.670723;,
        -0.524363;-0.524426;-0.670836;,
        -0.524363;-0.524426;-0.670836;,
        -0.524363;-0.524426;-0.670836;,
        -0.524363;-0.524426;-0.670836;,
         0.524362;-0.524426;-0.670836;,
         0.524362;-0.524426;-0.670836;,
         0.524362;-0.524426;-0.670836;,
         0.524362;-0.524426;-0.670836;,
        -0.191935; 0.716448;-0.670718;,
        -0.191935; 0.716448;-0.670718;,
        -0.191935; 0.716448;-0.670718;,
         0.524355; 0.524222;-0.671002;,
         0.524354; 0.524222;-0.671002;,
         0.524355; 0.524222;-0.671002;,
        -0.716280;-0.191925;-0.670901;,
        -0.716280;-0.191925;-0.670901;,
        -0.716280;-0.191925;-0.670901;,
        -0.716280;-0.191925;-0.670901;,
         0.192034;-0.716447;-0.670692;,
         0.192034;-0.716447;-0.670692;,
         0.192034;-0.716447;-0.670691;,
         0.192034;-0.716447;-0.670691;,
         0.716269; 0.191957;-0.670904;,
         0.716269; 0.191957;-0.670904;,
         0.716269; 0.191957;-0.670904;,
         0.716269; 0.191957;-0.670904;,
        -0.716270; 0.191957;-0.670902;,
        -0.716270; 0.191957;-0.670902;,
        -0.716270; 0.191957;-0.670902;,
        -0.716270; 0.191957;-0.670902;,
        -0.192065;-0.716437;-0.670692;,
        -0.192065;-0.716438;-0.670692;,
        -0.192065;-0.716438;-0.670693;,
        -0.192065;-0.716438;-0.670693;,
        -0.258939;-0.965894;-0.000010;,
        -0.258939;-0.965894;-0.000010;,
        -0.258939;-0.965894;-0.000010;,
        -0.258939;-0.965894;-0.000010;,
         0.590747;-0.158342; 0.791167;,
         0.590747;-0.158342; 0.791167;,
         0.590747;-0.158342; 0.791167;,
         0.590747;-0.158342; 0.791167;,
        -0.432480; 0.432430; 0.791180;,
        -0.432480; 0.432430; 0.791180;,
        -0.432480; 0.432430; 0.791180;,
        -0.432480; 0.432430; 0.791180;,
         0.158304; 0.590850; 0.791098;,
         0.158304; 0.590850; 0.791098;,
         0.158304; 0.590850; 0.791098;,
         0.158304; 0.590850; 0.791098;,
        -0.432480;-0.432430; 0.791180;,
        -0.432480;-0.432430; 0.791180;,
        -0.432480;-0.432430; 0.791180;,
        -0.432480;-0.432430; 0.791180;,
         0.432480;-0.432430; 0.791180;,
         0.432480;-0.432430; 0.791180;,
         0.432480;-0.432430; 0.791180;,
         0.432480;-0.432430; 0.791180;,
        -0.158330; 0.590843; 0.791098;,
        -0.158330; 0.590843; 0.791098;,
        -0.158330; 0.590843; 0.791098;,
        -0.158330; 0.590843; 0.791098;,
         0.432480; 0.432430; 0.791180;,
         0.432480; 0.432430; 0.791180;,
         0.432480; 0.432430; 0.791180;,
         0.432480; 0.432430; 0.791180;,
        -0.590747;-0.158341; 0.791167;,
        -0.590747;-0.158341; 0.791167;,
        -0.590747;-0.158341; 0.791167;,
        -0.590747;-0.158341; 0.791167;,
         0.158320;-0.590720; 0.791192;,
         0.158320;-0.590720; 0.791192;,
         0.158320;-0.590720; 0.791192;,
         0.158320;-0.590720; 0.791192;,
         0.590713; 0.158346; 0.791192;,
         0.590713; 0.158346; 0.791192;,
         0.590713; 0.158346; 0.791192;,
         0.590713; 0.158346; 0.791192;,
        -0.590713; 0.158345; 0.791192;,
        -0.590713; 0.158345; 0.791192;,
        -0.590713; 0.158345; 0.791192;,
        -0.590713; 0.158345; 0.791192;,
         0.965923;-0.258828;-0.000019;,
         0.965923;-0.258828;-0.000019;,
         0.965923;-0.258828;-0.000019;,
         0.965923;-0.258828;-0.000019;,
        -0.707107; 0.707107;-0.000038;,
        -0.707107; 0.707107;-0.000038;,
        -0.707107; 0.707107;-0.000038;,
        -0.707107; 0.707107;-0.000038;,
         0.258901; 0.965904; 0.000003;,
         0.258901; 0.965904; 0.000003;,
         0.258901; 0.965904; 0.000003;,
         0.258901; 0.965904; 0.000003;,
        -0.707184;-0.707030;-0.000038;,
        -0.707184;-0.707030;-0.000038;,
        -0.707184;-0.707030;-0.000038;,
        -0.707184;-0.707030;-0.000038;,
         0.707222;-0.706991;-0.000005;,
         0.707222;-0.706991;-0.000005;,
         0.707222;-0.706991;-0.000005;,
         0.707222;-0.706991;-0.000005;,
        -0.258939; 0.965894;-0.000010;,
        -0.258939; 0.965894;-0.000010;,
        -0.258939; 0.965894;-0.000010;,
        -0.258939; 0.965894;-0.000010;,
         0.707145; 0.707068;-0.000005;,
         0.707145; 0.707068;-0.000005;,
         0.707145; 0.707068;-0.000005;,
         0.707145; 0.707068;-0.000005;,
        -0.965923;-0.258829;-0.000058;,
        -0.965923;-0.258829;-0.000058;,
        -0.965923;-0.258829;-0.000058;,
        -0.965923;-0.258829;-0.000058;,
         0.258900;-0.965904; 0.000003;,
         0.258900;-0.965904; 0.000003;,
         0.258900;-0.965904; 0.000003;,
         0.258900;-0.965904; 0.000003;,
         0.965923; 0.258828;-0.000019;,
         0.965923; 0.258828;-0.000019;,
         0.965923; 0.258828;-0.000019;,
         0.965923; 0.258828;-0.000019;,
        -0.965923; 0.258829;-0.000058;,
        -0.965923; 0.258829;-0.000058;,
        -0.965923; 0.258829;-0.000058;,
        -0.965923; 0.258829;-0.000058;,
        -0.259195; 0.965825; 0.000201;,
        -0.259195; 0.965825; 0.000201;,
        -0.259195; 0.965825; 0.000201;,
        -0.057170; 0.998364; 0.000093;,
        -0.057170; 0.998364; 0.000093;,
        -0.057170; 0.998365; 0.000093;,
        -0.757310;-0.653056;-0.000517;,
        -0.757310;-0.653056;-0.000517;,
        -0.757310;-0.653056;-0.000517;,
        -0.757310;-0.653056;-0.000517;,
        -0.974321;-0.225152;-0.002088;,
        -0.974321;-0.225152;-0.002088;,
        -0.974321;-0.225152;-0.002088;,
        -0.974321;-0.225152;-0.002088;,
        -0.974313; 0.225190;-0.002088;,
        -0.974313; 0.225190;-0.002088;,
        -0.974313; 0.225190;-0.002088;,
        -0.974313; 0.225190;-0.002088;,
        -0.922949; 0.384890;-0.004920;,
        -0.922949; 0.384890;-0.004920;,
        -0.922949; 0.384890;-0.004920;,
        -0.922949; 0.384890;-0.004920;,
        -0.539668; 0.841874;-0.002667;,
        -0.539668; 0.841874;-0.002667;,
        -0.539668; 0.841874;-0.002667;,
        -0.539668; 0.841874;-0.002667;,
        -0.539813;-0.841780;-0.002668;,
        -0.539814;-0.841780;-0.002668;,
        -0.539814;-0.841780;-0.002668;,
        -0.539814;-0.841780;-0.002668;,
        -0.922949;-0.384890;-0.004920;,
        -0.922949;-0.384890;-0.004920;,
        -0.922949;-0.384890;-0.004920;,
        -0.922949;-0.384890;-0.004920;,
        -0.000001; 0.000000;-1.000000;,
        -0.000001; 0.000000;-1.000000;,
        -0.000001; 0.000000;-1.000000;,
        -0.057146;-0.998366; 0.000131;,
        -0.057146;-0.998366; 0.000131;,
        -0.057146;-0.998366; 0.000131;,
        -0.305548; 0.000000; 0.952177;,
        -0.305548; 0.000000; 0.952177;,
        -0.305548; 0.000000; 0.952177;,
         0.967040; 0.254465; 0.009070;,
         0.967040; 0.254465; 0.009070;,
         0.967040; 0.254465; 0.009070;,
         0.967040; 0.254465; 0.009070;,
         0.015659;-0.000222;-0.999877;,
         0.015659;-0.000222;-0.999877;,
         0.015659;-0.000222;-0.999877;,
         0.015659;-0.000222;-0.999877;,
         0.967055;-0.254406; 0.009070;,
         0.967055;-0.254406; 0.009070;,
         0.967055;-0.254406; 0.009070;,
         0.967055;-0.254406; 0.009070;,
         0.015508; 0.000218;-0.999880;,
         0.015508; 0.000218;-0.999880;,
         0.015508; 0.000218;-0.999880;,
         0.015508; 0.000218;-0.999880;,
        -0.757310; 0.653056;-0.000516;,
        -0.757310; 0.653056;-0.000516;,
        -0.757310; 0.653056;-0.000516;,
        -0.757310; 0.653056;-0.000516;,
         0.015481;-0.000056;-0.999880;,
         0.015481;-0.000056;-0.999880;,
         0.015481;-0.000056;-0.999880;,
         0.015481;-0.000056;-0.999880;,
         0.015500;-0.000067;-0.999880;,
         0.015500;-0.000067;-0.999880;,
         0.015500;-0.000067;-0.999880;,
         0.015500;-0.000067;-0.999880;,
         0.015500; 0.000067;-0.999880;,
         0.015500; 0.000067;-0.999880;,
         0.015500; 0.000067;-0.999880;,
         0.015500; 0.000067;-0.999880;,
         0.015660; 0.000222;-0.999877;,
         0.015660; 0.000222;-0.999877;,
         0.015660; 0.000222;-0.999877;,
         0.015660; 0.000222;-0.999877;,
         0.015400; 0.000009;-0.999881;,
         0.015400; 0.000009;-0.999881;,
         0.015400; 0.000009;-0.999881;,
         0.015400; 0.000009;-0.999881;,
         0.015156;-0.000080;-0.999885;,
         0.015156;-0.000080;-0.999885;,
         0.015156;-0.000080;-0.999885;,
         0.015156;-0.000080;-0.999885;,
         0.015156; 0.000080;-0.999885;,
         0.015156; 0.000080;-0.999885;,
         0.015156; 0.000080;-0.999885;,
         0.015156; 0.000080;-0.999885;,
         0.015400;-0.000009;-0.999881;,
         0.015400;-0.000009;-0.999881;,
         0.015400;-0.000009;-0.999881;,
         0.015400;-0.000009;-0.999881;,
         0.015508;-0.000218;-0.999880;,
         0.015508;-0.000218;-0.999880;,
         0.015508;-0.000218;-0.999880;,
         0.015508;-0.000218;-0.999880;,
         0.015481; 0.000056;-0.999880;,
         0.015481; 0.000056;-0.999880;,
         0.015481; 0.000056;-0.999880;,
         0.015481; 0.000056;-0.999880;,
        -0.057179; 0.998364; 0.000178;,
        -0.057179; 0.998364; 0.000178;,
        -0.057179; 0.998364; 0.000178;,
        -0.615737; 0.000000;-0.787952;,
        -0.615737; 0.000000;-0.787952;,
        -0.615737; 0.000000;-0.787952;,
        -0.615737; 0.000000;-0.787952;,
        -0.964674; 0.000000; 0.263449;,
        -0.964674; 0.000000; 0.263449;,
        -0.964673; 0.000000; 0.263449;,
        -0.964673; 0.000000; 0.263449;,
         0.319060; 0.000000;-0.947735;,
         0.319060; 0.000000;-0.947735;,
         0.319060; 0.000000;-0.947735;,
         0.319060; 0.000000;-0.947735;,
         0.088587; 0.000000; 0.996069;,
         0.088587; 0.000000; 0.996068;,
         0.088587; 0.000000; 0.996068;,
         0.088587; 0.000000; 0.996068;,
        -0.177222; 0.000000; 0.984171;,
        -0.177222; 0.000000; 0.984171;,
        -0.177222; 0.000000; 0.984171;,
        -0.177222; 0.000000; 0.984171;,
        -0.057328;-0.998355; 0.000027;,
        -0.057328;-0.998355; 0.000027;,
        -0.057328;-0.998355; 0.000027;,
         1.000000; 0.000000; 0.000000;,
         1.000000; 0.000000; 0.000000;,
         1.000000; 0.000000; 0.000000;,
         1.000000; 0.000000; 0.000000;,
         0.088650; 0.000000; 0.996063;,
         0.088650; 0.000000; 0.996063;,
         0.088650; 0.000000; 0.996063;,
         0.088650; 0.000000; 0.996063;,
        -0.674815; 0.000000; 0.737987;,
        -0.674815; 0.000000; 0.737987;,
        -0.674815; 0.000000; 0.737987;,
        -0.674815; 0.000000; 0.737987;,
        -1.000000; 0.000000; 0.000000;,
        -1.000000; 0.000000; 0.000000;,
        -1.000000; 0.000000; 0.000000;,
        -1.000000; 0.000000; 0.000000;,
         0.000002; 0.000000;-1.000000;,
         0.000002; 0.000000;-1.000000;,
         0.000002; 0.000000;-1.000000;,
         0.969688; 0.244190; 0.008707;,
         0.969688; 0.244190; 0.008707;,
         0.969688; 0.244190; 0.008707;,
         0.969688; 0.244190; 0.008707;,
         0.969688; 0.244190; 0.008707;,
         0.965891; 0.258764; 0.009789;,
         0.965891; 0.258764; 0.009789;,
         0.965891; 0.258764; 0.009789;,
         0.965891; 0.258764; 0.009789;,
         0.965905;-0.258714; 0.009778;,
         0.965905;-0.258714; 0.009778;,
         0.965905;-0.258714; 0.009778;,
         0.965905;-0.258714; 0.009778;,
         0.969660;-0.244292; 0.009004;,
         0.969660;-0.244292; 0.009004;,
         0.969660;-0.244292; 0.009004;,
         0.969660;-0.244292; 0.009004;,
         0.969760;-0.243923; 0.008190;,
         0.969760;-0.243923; 0.008190;,
         0.969760;-0.243923; 0.008190;,
        -0.305549; 0.000038; 0.952176;,
        -0.305549; 0.000038; 0.952176;,
        -0.305549; 0.000038; 0.952176;,
        -0.305632; 0.000000; 0.952150;,
        -0.305632; 0.000000; 0.952150;,
        -0.305632; 0.000000; 0.952150;,
        -0.305517; 0.000000; 0.952187;,
        -0.305517; 0.000000; 0.952187;,
        -0.305517; 0.000000; 0.952187;,
        -0.305634; 0.000000; 0.952149;,
        -0.305634; 0.000000; 0.952149;,
        -0.305634; 0.000000; 0.952149;,
        -0.305549;-0.000038; 0.952176;,
        -0.305549;-0.000038; 0.952176;,
        -0.305549;-0.000038; 0.952176;,
        -0.305549; 0.000008; 0.952176;,
        -0.305549; 0.000008; 0.952176;,
        -0.305549; 0.000008; 0.952176;,
        -0.305549;-0.000008; 0.952176;,
        -0.305549;-0.000008; 0.952176;,
        -0.305549;-0.000008; 0.952176;,
         0.000000; 0.000000;-1.000000;,
         0.000000; 0.000000;-1.000000;,
         0.000000; 0.000000;-1.000000;,
         0.000001; 0.000000;-1.000000;,
         0.000001; 0.000000;-1.000000;,
         0.000001; 0.000000;-1.000000;,
        -0.000003; 0.000000;-1.000000;,
        -0.000003; 0.000000;-1.000000;,
        -0.000003; 0.000000;-1.000000;,
         0.000000; 0.000000;-1.000000;,
         0.000000; 0.000000;-1.000000;,
         0.000000; 0.000000;-1.000000;,
         0.000000; 0.000000;-1.000000;,
         0.000000; 0.000000;-1.000000;,
         0.000000; 0.000000;-1.000000;,
         0.000000; 0.000000;-1.000000;,
         0.000000; 0.000000;-1.000000;,
         0.000000; 0.000000;-1.000000;,
         0.000003; 0.000000;-1.000000;,
         0.000003; 0.000000;-1.000000;,
         0.000003; 0.000000;-1.000000;,
        -0.000002; 0.000000;-1.000000;,
        -0.000002; 0.000000;-1.000000;,
        -0.000002; 0.000000;-1.000000;,
        -0.111358; 0.000000;-0.993780;,
        -0.111358; 0.000000;-0.993780;,
        -0.111358; 0.000000;-0.993780;,
        -0.111358; 0.000000;-0.993780;,
        -0.111358; 0.000000;-0.993780;,
        -0.111358; 0.000000;-0.993780;,
         0.266440;-0.963851; 0.000219;,
         0.266440;-0.963851; 0.000219;,
         0.266440;-0.963851; 0.000219;,
         0.266440;-0.963851; 0.000219;,
         0.718135;-0.695890; 0.004443;,
         0.718135;-0.695890; 0.004443;,
         0.718135;-0.695890; 0.004443;,
         0.718135;-0.695890; 0.004443;,
        -0.259194;-0.965825; 0.000202;,
        -0.259194;-0.965825; 0.000202;,
        -0.259194;-0.965825; 0.000202;,
        -0.259118;-0.965845; 0.000631;,
        -0.259118;-0.965846; 0.000631;,
        -0.259118;-0.965846; 0.000631;,
        -0.259118;-0.965845; 0.000631;,
         0.718135; 0.695890; 0.004443;,
         0.718135; 0.695890; 0.004443;,
         0.718135; 0.695890; 0.004443;,
         0.718135; 0.695890; 0.004443;,
         0.266441; 0.963851; 0.000219;,
         0.266441; 0.963851; 0.000219;,
         0.266441; 0.963851; 0.000219;,
         0.266441; 0.963851; 0.000219;,
        -0.259118; 0.965845; 0.000631;,
        -0.259118; 0.965845; 0.000631;,
        -0.259118; 0.965845; 0.000631;,
        -0.259118; 0.965845; 0.000631;,
         0.969360; 0.245506; 0.008256;,
         0.969360; 0.245506; 0.008256;,
         0.969360; 0.245506; 0.008256;,
         0.969360; 0.245506; 0.008256;,
         0.965921; 0.258653; 0.009769;,
         0.965921; 0.258653; 0.009769;,
         0.965921; 0.258653; 0.009769;,
         0.965920;-0.258655; 0.009769;,
         0.965920;-0.258655; 0.009769;,
         0.965920;-0.258655; 0.009769;,
         0.969360;-0.245506; 0.008256;,
         0.969360;-0.245506; 0.008256;,
         0.969360;-0.245506; 0.008256;,
         0.969360;-0.245506; 0.008256;,
        -0.057190; 0.998363; 0.000123;,
        -0.057190; 0.998363; 0.000123;,
        -0.057190; 0.998363; 0.000123;,
        -0.057027; 0.998373; 0.000237;,
        -0.057027; 0.998373; 0.000237;,
        -0.057027; 0.998373; 0.000237;,
        -0.057366; 0.998353;-0.000298;,
        -0.057366; 0.998353;-0.000298;,
        -0.057366; 0.998353;-0.000298;,
        -0.057371; 0.998353;-0.000248;,
        -0.057371; 0.998353;-0.000248;,
        -0.057371; 0.998353;-0.000248;,
        -0.057205; 0.998362; 0.000046;,
        -0.057205; 0.998362; 0.000046;,
        -0.057205; 0.998362; 0.000046;,
        -0.057142;-0.998366; 0.000148;,
        -0.057142;-0.998366; 0.000148;,
        -0.057142;-0.998366; 0.000148;,
        -0.057318;-0.998356; 0.000188;,
        -0.057318;-0.998356; 0.000188;,
        -0.057318;-0.998356; 0.000188;,
        -0.057401;-0.998351;-0.000262;,
        -0.057401;-0.998351;-0.000262;,
        -0.057401;-0.998351;-0.000262;,
        -0.057410;-0.998351;-0.000265;,
        -0.057409;-0.998351;-0.000265;,
        -0.057409;-0.998351;-0.000265;,
        -0.057108;-0.998368; 0.000075;,
        -0.057108;-0.998368; 0.000075;,
        -0.057108;-0.998368; 0.000075;,
        -0.057164;-0.998365; 0.000222;,
        -0.057164;-0.998365; 0.000222;,
        -0.057164;-0.998365; 0.000222;,
        -0.057401; 0.998351;-0.000262;,
        -0.057401; 0.998351;-0.000262;,
        -0.057401; 0.998351;-0.000262;,
        -0.057409; 0.998351;-0.000265;,
        -0.057409; 0.998351;-0.000265;,
        -0.057409; 0.998351;-0.000265;,
        -0.057142; 0.998366; 0.000148;,
        -0.057142; 0.998366; 0.000148;,
        -0.057142; 0.998366; 0.000148;,
        -0.057109; 0.998368; 0.000141;,
        -0.057109; 0.998368; 0.000141;,
        -0.057109; 0.998368; 0.000141;,
        -0.057146; 0.998366; 0.000131;,
        -0.057146; 0.998366; 0.000131;,
        -0.057146; 0.998366; 0.000131;,
        -0.057164; 0.998365; 0.000222;,
        -0.057164; 0.998365; 0.000222;,
        -0.057164; 0.998365; 0.000222;,
        -0.057371;-0.998353;-0.000248;,
        -0.057371;-0.998353;-0.000248;,
        -0.057371;-0.998353;-0.000248;,
        -0.057366;-0.998353;-0.000298;,
        -0.057366;-0.998353;-0.000298;,
        -0.057366;-0.998353;-0.000298;,
        -0.056991;-0.998375; 0.000426;,
        -0.056991;-0.998375; 0.000426;,
        -0.056991;-0.998375; 0.000426;,
        -0.057190;-0.998363; 0.000123;,
        -0.057190;-0.998363; 0.000123;,
        -0.057190;-0.998363; 0.000123;,
        -0.057184;-0.998364; 0.000171;,
        -0.057184;-0.998364; 0.000171;,
        -0.057184;-0.998364; 0.000171;;
        189;
        4;3,2,1,0;,
        3;6,5,4;,
        3;9,8,7;,
        4;13,12,11,10;,
        5;18,17,16,15,14;,
        5;23,22,21,20,19;,
        4;27,26,25,24;,
        4;31,30,29,28;,
        4;35,34,33,32;,
        4;39,38,37,36;,
        4;43,42,41,40;,
        3;46,45,44;,
        3;49,48,47;,
        4;53,52,51,50;,
        5;58,57,56,55,54;,
        5;63,62,61,60,59;,
        4;67,66,65,64;,
        4;71,70,69,68;,
        4;75,74,73,72;,
        4;79,78,77,76;,
        4;83,82,81,80;,
        4;87,86,85,84;,
        4;91,90,89,88;,
        4;95,94,93,92;,
        4;99,98,97,96;,
        4;103,102,101,100;,
        4;107,106,105,104;,
        4;111,110,109,108;,
        4;115,114,113,112;,
        4;119,118,117,116;,
        4;123,122,121,120;,
        12;135,134,133,132,131,130,129,128,127,126,125,124;,
        4;139,138,137,136;,
        4;143,142,141,140;,
        4;147,146,145,144;,
        4;151,150,149,148;,
        4;155,154,153,152;,
        4;159,158,157,156;,
        4;163,162,161,160;,
        4;167,166,165,164;,
        4;171,170,169,168;,
        4;175,174,173,172;,
        4;179,178,177,176;,
        4;183,182,181,180;,
        4;187,186,185,184;,
        4;191,190,189,188;,
        4;195,194,193,192;,
        4;199,198,197,196;,
        4;203,202,201,200;,
        4;207,206,205,204;,
        4;211,210,209,208;,
        4;215,214,213,212;,
        4;219,218,217,216;,
        4;223,222,221,220;,
        4;227,226,225,224;,
        4;231,230,229,228;,
        3;234,233,232;,
        3;237,236,235;,
        3;240,239,238;,
        3;243,242,241;,
        4;247,246,245,244;,
        3;250,249,248;,
        3;253,252,251;,
        4;257,256,255,254;,
        4;261,260,259,258;,
        3;264,263,262;,
        3;267,266,265;,
        4;271,270,269,268;,
        4;275,274,273,272;,
        4;279,278,277,276;,
        4;283,282,281,280;,
        4;287,286,285,284;,
        4;291,290,289,288;,
        4;295,294,293,292;,
        4;299,298,297,296;,
        4;303,302,301,300;,
        4;307,306,305,304;,
        4;311,310,309,308;,
        4;315,314,313,312;,
        4;319,318,317,316;,
        4;323,322,321,320;,
        4;327,326,325,324;,
        4;331,330,329,328;,
        4;335,334,333,332;,
        4;339,338,337,336;,
        4;343,342,341,340;,
        4;347,346,345,344;,
        4;351,350,349,348;,
        4;355,354,353,352;,
        4;359,358,357,356;,
        4;363,362,361,360;,
        4;367,366,365,364;,
        4;371,370,369,368;,
        4;375,374,373,372;,
        4;379,378,377,376;,
        3;382,381,380;,
        3;385,384,383;,
        4;389,388,387,386;,
        4;393,392,391,390;,
        4;397,396,395,394;,
        4;401,400,399,398;,
        4;405,404,403,402;,
        4;409,408,407,406;,
        4;413,412,411,410;,
        3;416,415,414;,
        3;419,418,417;,
        3;422,421,420;,
        4;426,425,424,423;,
        4;430,429,428,427;,
        4;434,433,432,431;,
        4;438,437,436,435;,
        4;442,441,440,439;,
        4;446,445,444,443;,
        4;450,449,448,447;,
        4;454,453,452,451;,
        4;458,457,456,455;,
        4;462,461,460,459;,
        4;466,465,464,463;,
        4;470,469,468,467;,
        4;474,473,472,471;,
        4;478,477,476,475;,
        4;482,481,480,479;,
        3;485,484,483;,
        4;489,488,487,486;,
        4;493,492,491,490;,
        4;497,496,495,494;,
        4;501,500,499,498;,
        4;505,504,503,502;,
        3;508,507,506;,
        4;512,511,510,509;,
        4;516,515,514,513;,
        4;520,519,518,517;,
        4;524,523,522,521;,
        3;527,526,525;,
        5;532,531,530,529,528;,
        4;536,535,534,533;,
        4;540,539,538,537;,
        4;544,543,542,541;,
        3;547,546,545;,
        3;550,549,548;,
        3;553,552,551;,
        3;556,555,554;,
        3;559,558,557;,
        3;562,561,560;,
        3;565,564,563;,
        3;568,567,566;,
        3;571,570,569;,
        3;574,573,572;,
        3;577,576,575;,
        3;580,579,578;,
        3;583,582,581;,
        3;586,585,584;,
        3;589,588,587;,
        3;592,591,590;,
        3;595,594,593;,
        3;598,597,596;,
        4;602,601,600,599;,
        4;606,605,604,603;,
        3;609,608,607;,
        4;613,612,611,610;,
        4;617,616,615,614;,
        4;621,620,619,618;,
        4;625,624,623,622;,
        4;629,628,627,626;,
        3;632,631,630;,
        3;635,634,633;,
        4;639,638,637,636;,
        3;642,641,640;,
        3;645,644,643;,
        3;648,647,646;,
        3;651,650,649;,
        3;654,653,652;,
        3;657,656,655;,
        3;660,659,658;,
        3;663,662,661;,
        3;666,665,664;,
        3;669,668,667;,
        3;672,671,670;,
        3;675,674,673;,
        3;678,677,676;,
        3;681,680,679;,
        3;684,683,682;,
        3;687,686,685;,
        3;690,689,688;,
        3;693,692,691;,
        3;696,695,694;,
        3;699,698,697;,
        3;702,701,700;,
        3;705,704,703;;
      }
      MeshTextureCoords {
        706;
         0.314122; 1.954971;,
         0.314123; 1.998224;,
         0.264754; 1.998224;,
         0.264754; 1.954971;,
         0.437391; 1.456970;,
         0.465429; 1.424035;,
         0.458102; 1.470717;,
         0.389754; 1.669163;,
         0.410465; 1.655416;,
         0.417792; 1.702098;,
         0.458102; 1.470717;,
         0.465429; 1.424035;,
         0.479714; 1.424159;,
         0.479780; 1.470905;,
         0.546915; 1.998224;,
         0.497546; 1.998224;,
         0.497546; 1.983938;,
         0.522231; 1.990552;,
         0.546915; 1.983938;,
         0.562586; 1.976005;,
         0.611955; 1.976005;,
         0.611955; 1.997684;,
         0.587270; 1.991070;,
         0.562586; 1.997684;,
         0.417792; 1.702098;,
         0.410465; 1.655416;,
         0.432143; 1.655228;,
         0.432077; 1.701974;,
         0.410465; 1.655416;,
         0.389754; 1.669163;,
         0.388433; 1.516937;,
         0.409038; 1.490935;,
         0.821670; 1.295018;,
         0.821670; 1.344387;,
         0.669438; 1.344387;,
         0.669438; 1.295018;,
         0.437391; 1.456970;,
         0.458102; 1.470717;,
         0.456675; 1.635198;,
         0.436070; 1.609196;,
         0.277688; 1.371784;,
         0.327057; 1.371785;,
         0.327057; 1.536272;,
         0.277688; 1.536272;,
         0.456675; 1.635198;,
         0.462874; 1.718516;,
         0.436070; 1.609196;,
         0.415237; 1.407617;,
         0.409038; 1.490935;,
         0.388433; 1.516937;,
         0.479761; 1.718663;,
         0.462874; 1.718516;,
         0.456675; 1.635198;,
         0.479780; 1.635399;,
         0.615504; 1.997722;,
         0.615504; 1.980835;,
         0.664873; 1.980835;,
         0.664873; 1.997722;,
         0.640189; 1.991479;,
         0.340781; 1.998221;,
         0.317675; 1.998221;,
         0.317675; 1.948853;,
         0.340781; 1.948853;,
         0.334400; 1.973537;,
         0.432143; 1.490735;,
         0.409038; 1.490935;,
         0.415237; 1.407617;,
         0.432123; 1.407471;,
         0.874596; 1.356235;,
         0.825227; 1.356235;,
         0.825227; 1.243677;,
         0.874596; 1.243677;,
         0.965400; 1.679310;,
         0.900703; 1.679310;,
         0.900703; 1.648812;,
         0.965400; 1.648812;,
         0.965400; 1.648812;,
         0.900703; 1.648812;,
         0.900703; 1.618314;,
         0.965400; 1.618314;,
         0.965400; 1.618314;,
         0.900703; 1.618314;,
         0.900703; 1.587817;,
         0.965400; 1.587817;,
         0.549395; 1.723424;,
         0.484698; 1.723423;,
         0.484698; 1.692926;,
         0.549395; 1.692926;,
         0.549395; 1.692926;,
         0.484698; 1.692926;,
         0.484698; 1.662428;,
         0.549395; 1.662428;,
         0.549395; 1.662428;,
         0.484698; 1.662428;,
         0.484698; 1.631930;,
         0.549395; 1.631930;,
         0.549395; 1.631930;,
         0.484698; 1.631930;,
         0.484698; 1.601432;,
         0.549395; 1.601432;,
         0.549395; 1.601432;,
         0.484698; 1.601432;,
         0.484698; 1.570935;,
         0.549395; 1.570935;,
         0.549395; 1.570935;,
         0.484698; 1.570935;,
         0.484698; 1.540437;,
         0.549395; 1.540437;,
         0.965400; 1.770803;,
         0.900703; 1.770803;,
         0.900703; 1.740305;,
         0.965400; 1.740305;,
         0.330611; 1.496865;,
         0.360070; 1.488972;,
         0.366477; 1.500069;,
         0.330611; 1.509679;,
         0.965400; 1.740305;,
         0.900703; 1.740305;,
         0.900703; 1.709807;,
         0.965400; 1.709807;,
         0.965400; 1.709807;,
         0.900703; 1.709807;,
         0.900703; 1.679310;,
         0.965400; 1.679310;,
         0.840704; 1.884407;,
         0.867116; 1.899656;,
         0.882365; 1.926068;,
         0.882365; 1.956565;,
         0.867116; 1.982977;,
         0.840704; 1.998226;,
         0.810206; 1.998226;,
         0.783794; 1.982977;,
         0.768545; 1.956565;,
         0.768545; 1.926068;,
         0.783794; 1.899656;,
         0.810206; 1.884407;,
         0.966010; 1.812571;,
         0.966010; 1.849701;,
         0.904006; 1.849701;,
         0.904006; 1.812571;,
         0.615446; 1.452324;,
         0.607553; 1.481782;,
         0.594740; 1.481782;,
         0.604350; 1.445917;,
         0.637011; 1.430759;,
         0.615446; 1.452324;,
         0.604350; 1.445917;,
         0.630605; 1.419662;,
         0.666470; 1.422865;,
         0.637011; 1.430759;,
         0.630605; 1.419662;,
         0.666470; 1.410052;,
         0.695928; 1.430759;,
         0.666470; 1.422865;,
         0.666470; 1.410052;,
         0.702335; 1.419662;,
         0.717494; 1.452324;,
         0.695928; 1.430759;,
         0.702335; 1.419662;,
         0.728590; 1.445917;,
         0.725387; 1.481782;,
         0.717494; 1.452324;,
         0.728590; 1.445917;,
         0.738200; 1.481782;,
         0.381635; 1.467407;,
         0.389528; 1.437948;,
         0.402342; 1.437948;,
         0.392732; 1.473813;,
         0.389528; 1.437948;,
         0.381635; 1.408490;,
         0.392732; 1.402083;,
         0.402342; 1.437948;,
         0.360070; 1.386925;,
         0.330611; 1.379031;,
         0.330611; 1.366218;,
         0.366477; 1.375828;,
         0.360070; 1.488972;,
         0.381635; 1.467407;,
         0.392732; 1.473813;,
         0.366477; 1.500069;,
         0.381635; 1.408490;,
         0.360070; 1.386925;,
         0.366477; 1.375828;,
         0.392732; 1.402083;,
         0.966010; 1.886831;,
         0.966010; 1.923962;,
         0.904006; 1.923962;,
         0.904006; 1.886831;,
         0.112678; 1.998227;,
         0.075548; 1.998227;,
         0.075548; 1.936223;,
         0.112678; 1.936223;,
         0.224070; 1.998227;,
         0.186939; 1.998227;,
         0.186939; 1.936223;,
         0.224070; 1.936223;,
         0.966010; 1.849701;,
         0.966010; 1.886831;,
         0.904006; 1.886831;,
         0.904006; 1.849701;,
         0.966010; 1.923962;,
         0.966010; 1.961092;,
         0.904006; 1.961092;,
         0.904006; 1.923962;,
         0.075548; 1.998227;,
         0.038417; 1.998227;,
         0.038417; 1.936223;,
         0.075548; 1.936223;,
         0.186939; 1.998227;,
         0.149809; 1.998227;,
         0.149809; 1.936223;,
         0.186939; 1.936223;,
         0.966010; 1.961092;,
         0.966010; 1.998223;,
         0.904006; 1.998223;,
         0.904006; 1.961092;,
         0.966010; 1.775440;,
         0.966010; 1.812571;,
         0.904006; 1.812571;,
         0.904006; 1.775440;,
         0.149809; 1.998227;,
         0.112678; 1.998227;,
         0.112678; 1.936223;,
         0.149809; 1.936223;,
         0.261200; 1.998227;,
         0.224070; 1.998227;,
         0.224070; 1.936223;,
         0.261200; 1.936223;,
         0.975266; 1.792010;,
         0.975266; 1.826379;,
         0.969564; 1.826379;,
         0.969564; 1.792010;,
         0.936101; 1.340176;,
         0.965024; 1.361810;,
         0.960403; 1.364478;,
         0.969299; 1.397676;,
         0.965024; 1.433541;,
         0.960404; 1.430873;,
         0.965024; 1.361810;,
         0.974634; 1.397675;,
         0.960403; 1.364478;,
         0.965024; 1.433541;,
         0.938769; 1.459796;,
         0.960404; 1.430873;,
         0.328515; 1.585146;,
         0.335643; 1.618767;,
         0.324754; 1.623602;,
         0.316602; 1.585146;,
         0.984525; 1.826380;,
         0.984525; 1.860748;,
         0.978823; 1.826380;,
         0.984525; 1.895117;,
         0.984525; 1.929486;,
         0.978823; 1.895117;,
         0.975266; 1.929486;,
         0.975266; 1.963855;,
         0.969564; 1.963855;,
         0.969564; 1.929486;,
         0.975266; 1.826379;,
         0.975266; 1.860748;,
         0.969564; 1.860748;,
         0.969564; 1.826379;,
         0.978823; 1.860748;,
         0.984525; 1.895117;,
         0.978823; 1.895117;,
         0.978823; 1.929486;,
         0.984525; 1.963854;,
         0.978823; 1.963854;,
         0.975266; 1.963855;,
         0.975266; 1.998224;,
         0.969564; 1.998224;,
         0.969564; 1.963855;,
         0.975266; 1.860748;,
         0.975266; 1.895117;,
         0.969564; 1.895117;,
         0.969564; 1.860748;,
         0.984525; 1.963854;,
         0.984525; 1.998223;,
         0.978823; 1.998223;,
         0.978823; 1.963854;,
         0.984525; 1.792011;,
         0.984525; 1.826380;,
         0.978823; 1.826380;,
         0.978823; 1.792011;,
         0.975266; 1.895117;,
         0.975266; 1.929486;,
         0.969564; 1.929486;,
         0.969564; 1.895117;,
         0.277683; 1.226450;,
         0.277684; 1.187140;,
         0.667368; 1.187161;,
         0.666781; 1.226463;,
         0.385519; 1.506425;,
         0.355801; 1.523688;,
         0.347810; 1.514851;,
         0.381802; 1.495107;,
         0.650794; 1.514212;,
         0.630637; 1.542048;,
         0.619748; 1.537214;,
         0.642804; 1.505375;,
         0.623508; 1.575670;,
         0.630637; 1.609291;,
         0.619748; 1.614125;,
         0.611595; 1.575670;,
         0.335643; 1.618767;,
         0.355801; 1.646604;,
         0.347810; 1.655441;,
         0.324754; 1.623602;,
         0.355801; 1.523688;,
         0.335643; 1.551525;,
         0.324754; 1.546690;,
         0.347810; 1.514851;,
         0.630637; 1.542048;,
         0.623508; 1.575670;,
         0.611595; 1.575670;,
         0.619748; 1.537214;,
         0.630637; 1.609291;,
         0.650794; 1.637128;,
         0.642804; 1.645965;,
         0.619748; 1.614125;,
         0.355801; 1.646604;,
         0.385519; 1.663867;,
         0.381802; 1.675185;,
         0.347810; 1.655441;,
         0.335643; 1.551525;,
         0.328515; 1.585146;,
         0.316602; 1.585146;,
         0.324754; 1.546690;,
         0.650794; 1.637128;,
         0.680513; 1.654390;,
         0.676796; 1.665709;,
         0.642804; 1.645965;,
         0.680513; 1.496949;,
         0.650794; 1.514212;,
         0.642804; 1.505375;,
         0.676796; 1.485630;,
         0.277683; 1.344382;,
         0.277683; 1.305071;,
         0.665766; 1.305070;,
         0.665608; 1.344380;,
         0.077585; 1.262079;,
         0.116895; 1.262080;,
         0.116897; 1.651764;,
         0.077592; 1.652192;,
         0.156206; 1.262082;,
         0.195516; 1.262083;,
         0.195501; 1.650595;,
         0.156199; 1.651180;,
         0.277684; 1.187140;,
         0.277684; 1.147829;,
         0.667798; 1.147856;,
         0.667368; 1.187161;,
         0.277683; 1.305071;,
         0.277683; 1.265761;,
         0.666195; 1.265765;,
         0.665766; 1.305070;,
         0.116895; 1.262080;,
         0.156206; 1.262082;,
         0.156199; 1.651180;,
         0.116897; 1.651764;,
         0.195516; 1.262083;,
         0.234827; 1.262085;,
         0.234806; 1.650168;,
         0.195501; 1.650595;,
         0.277684; 1.147829;,
         0.277686; 1.108519;,
         0.667957; 1.108546;,
         0.667798; 1.147856;,
         0.277683; 1.265761;,
         0.277683; 1.226450;,
         0.666781; 1.226463;,
         0.666195; 1.265765;,
         0.234827; 1.262085;,
         0.274137; 1.262087;,
         0.274116; 1.650013;,
         0.234806; 1.650168;,
         0.038275; 1.262079;,
         0.077585; 1.262079;,
         0.077592; 1.652192;,
         0.038282; 1.652349;,
         0.002462; 1.930423;,
         0.002190; 1.895383;,
         0.025859; 1.930607;,
         0.743955; 1.414024;,
         0.809292; 1.348118;,
         0.747010; 1.430775;,
         0.032417; 1.623266;,
         0.025816; 1.656063;,
         0.002419; 1.656256;,
         0.002496; 1.623466;,
         0.034681; 1.588460;,
         0.032417; 1.623266;,
         0.002496; 1.623466;,
         0.002371; 1.588672;,
         0.032473; 1.963402;,
         0.034750; 1.998208;,
         0.002439; 1.998009;,
         0.002550; 1.963213;,
         0.623736; 1.768419;,
         0.620692; 1.744841;,
         0.769394; 1.743680;,
         0.769530; 1.767282;,
         0.620692; 1.744841;,
         0.612607; 1.715305;,
         0.769297; 1.714182;,
         0.769394; 1.743680;,
         0.712766; 1.801329;,
         0.742301; 1.809414;,
         0.741140; 1.958117;,
         0.711642; 1.958019;,
         0.742301; 1.809414;,
         0.765879; 1.812459;,
         0.764742; 1.958252;,
         0.741140; 1.958117;,
         0.827808; 1.863131;,
         0.776862; 1.757329;,
         0.888893; 1.833718;,
         0.435192; 1.745020;,
         0.345578; 1.682644;,
         0.712766; 1.801329;,
         0.387437; 1.098281;,
         0.032764; 1.060550;,
         0.387437; 1.022817;,
         0.273019; 1.818842;,
         0.108527; 1.818813;,
         0.108587; 1.793318;,
         0.273081; 1.793287;,
         0.954042; 1.582419;,
         0.926245; 1.554625;,
         0.933298; 1.549220;,
         0.958114; 1.572497;,
         0.108518; 1.767823;,
         0.273009; 1.767733;,
         0.273081; 1.793287;,
         0.108587; 1.793318;,
         0.916071; 1.516659;,
         0.926245; 1.478693;,
         0.933298; 1.483581;,
         0.924215; 1.517424;,
         0.025859; 1.930607;,
         0.032473; 1.963402;,
         0.002550; 1.963213;,
         0.002462; 1.930423;,
         0.926245; 1.554625;,
         0.916071; 1.516659;,
         0.924215; 1.517424;,
         0.933298; 1.549220;,
         0.992013; 1.592592;,
         0.954042; 1.582419;,
         0.958114; 1.572497;,
         0.992013; 1.581017;,
         0.684370; 1.521969;,
         0.722341; 1.511796;,
         0.722341; 1.523371;,
         0.688442; 1.531891;,
         0.656573; 1.549762;,
         0.684370; 1.521969;,
         0.688442; 1.531891;,
         0.663626; 1.555167;,
         0.926245; 1.478693;,
         0.954042; 1.450899;,
         0.958114; 1.462148;,
         0.933298; 1.483581;,
         0.954042; 1.450899;,
         0.992013; 1.440726;,
         0.992013; 1.454303;,
         0.958114; 1.462148;,
         0.722341; 1.663661;,
         0.684370; 1.653488;,
         0.688442; 1.642239;,
         0.722341; 1.650084;,
         0.684370; 1.653488;,
         0.656573; 1.625695;,
         0.663626; 1.620806;,
         0.688442; 1.642239;,
         0.656573; 1.625695;,
         0.646399; 1.587729;,
         0.654543; 1.586964;,
         0.663626; 1.620806;,
         0.646399; 1.587729;,
         0.656573; 1.549762;,
         0.663626; 1.555167;,
         0.654543; 1.586964;,
         0.587381; 1.397671;,
         0.556297; 1.437732;,
         0.493922; 1.348118;,
         0.721677; 1.180335;,
         0.721677; 1.287522;,
         0.671023; 1.289811;,
         0.671023; 1.178045;,
         0.836127; 1.114344;,
         0.836127; 1.003048;,
         0.853128; 1.002793;,
         0.853128; 1.114598;,
         0.654384; 1.830791;,
         0.654384; 1.911402;,
         0.409207; 1.924691;,
         0.409207; 1.817503;,
         0.768859; 1.110767;,
         0.768859; 1.006624;,
         0.802525; 1.004705;,
         0.802525; 1.112687;,
         0.802525; 1.112687;,
         0.802525; 1.004705;,
         0.819526; 1.003747;,
         0.819526; 1.113644;,
         0.399245; 1.921439;,
         0.411484; 1.932678;,
         0.345578; 1.998014;,
         0.916193; 1.234180;,
         0.996757; 1.234180;,
         0.996781; 1.325432;,
         0.916169; 1.325431;,
         0.562768; 1.098978;,
         0.562768; 1.018414;,
         0.768859; 1.006624;,
         0.768859; 1.110767;,
         0.819526; 1.113644;,
         0.819526; 1.003747;,
         0.836127; 1.003048;,
         0.836127; 1.114344;,
         0.982053; 1.002812;,
         0.982053; 1.114579;,
         0.853128; 1.114598;,
         0.853128; 1.002793;,
         0.886483; 1.371987;,
         0.900530; 1.397925;,
         0.825277; 1.392283;,
         0.108527; 1.818813;,
         0.001780; 1.828291;,
         0.001733; 1.793337;,
         0.025319; 1.793332;,
         0.025257; 1.818794;,
         0.319826; 1.793279;,
         0.342022; 1.793274;,
         0.341937; 1.828369;,
         0.319764; 1.818833;,
         0.341924; 1.758180;,
         0.342022; 1.793274;,
         0.319826; 1.793279;,
         0.319754; 1.767724;,
         0.001733; 1.793337;,
         0.001776; 1.758385;,
         0.025254; 1.767873;,
         0.025319; 1.793332;,
         0.025254; 1.767873;,
         0.001776; 1.758385;,
         0.108518; 1.767823;,
         0.002116; 1.119265;,
         0.024552; 1.094449;,
         0.387437; 1.098281;,
         0.413579; 1.082334;,
         0.387437; 1.098281;,
         0.413579; 1.038764;,
         0.423099; 1.060549;,
         0.413579; 1.082334;,
         0.413579; 1.038764;,
         0.387437; 1.022817;,
         0.413579; 1.038764;,
         0.387437; 1.098281;,
         0.002116; 1.001836;,
         0.387437; 1.022817;,
         0.024552; 1.026651;,
         0.024552; 1.094449;,
         0.032764; 1.060550;,
         0.387437; 1.098281;,
         0.024552; 1.026651;,
         0.387437; 1.022817;,
         0.032764; 1.060550;,
         0.893963; 1.766110;,
         0.900486; 1.800593;,
         0.776862; 1.757329;,
         0.765270; 1.790454;,
         0.776862; 1.757329;,
         0.827808; 1.863131;,
         0.771793; 1.824937;,
         0.765270; 1.790454;,
         0.827808; 1.863131;,
         0.794683; 1.851539;,
         0.771793; 1.824937;,
         0.827808; 1.863131;,
         0.862291; 1.856608;,
         0.827808; 1.863131;,
         0.888893; 1.833718;,
         0.900486; 1.800593;,
         0.888893; 1.833718;,
         0.776862; 1.757329;,
         0.843036; 1.368729;,
         0.865439; 1.361300;,
         0.886483; 1.371987;,
         0.825277; 1.392283;,
         0.843036; 1.368729;,
         0.886483; 1.371987;,
         0.776862; 1.757329;,
         0.825277; 1.392283;,
         0.893963; 1.766110;,
         0.900530; 1.397925;,
         0.893963; 1.766110;,
         0.825277; 1.392283;,
         0.002160; 1.691295;,
         0.341431; 1.687994;,
         0.341695; 1.723087;,
         0.001918; 1.724362;,
         0.001918; 1.724362;,
         0.341695; 1.723087;,
         0.341924; 1.758180;,
         0.001776; 1.758385;,
         0.002419; 1.656256;,
         0.025816; 1.656063;,
         0.002160; 1.691295;,
         0.025816; 1.656063;,
         0.341167; 1.652900;,
         0.341431; 1.687994;,
         0.002160; 1.691295;,
         0.001780; 1.828291;,
         0.341937; 1.828369;,
         0.341721; 1.863463;,
         0.001935; 1.862315;,
         0.001935; 1.862315;,
         0.341721; 1.863463;,
         0.341470; 1.898557;,
         0.002190; 1.895383;,
         0.002190; 1.895383;,
         0.341470; 1.898557;,
         0.341219; 1.933652;,
         0.025859; 1.930607;,
         0.273019; 1.818842;,
         0.341937; 1.828369;,
         0.001780; 1.828291;,
         0.108527; 1.818813;,
         0.319764; 1.818833;,
         0.341937; 1.828369;,
         0.273019; 1.818842;,
         0.273009; 1.767733;,
         0.341924; 1.758180;,
         0.319754; 1.767724;,
         0.001776; 1.758385;,
         0.341924; 1.758180;,
         0.273009; 1.767733;,
         0.108518; 1.767823;,
         0.716306; 1.397337;,
         0.809292; 1.348118;,
         0.732717; 1.401784;,
         0.732717; 1.401784;,
         0.809292; 1.348118;,
         0.743955; 1.414024;,
         0.769297; 1.714182;,
         0.726376; 1.670036;,
         0.744113; 1.464371;,
         0.809292; 1.348118;,
         0.769297; 1.714182;,
         0.744113; 1.464371;,
         0.744113; 1.464371;,
         0.747010; 1.430775;,
         0.809292; 1.348118;,
         0.345578; 1.998014;,
         0.345578; 1.682644;,
         0.394797; 1.905029;,
         0.394797; 1.905029;,
         0.345578; 1.682644;,
         0.395132; 1.776104;,
         0.711642; 1.958019;,
         0.667496; 1.915099;,
         0.712766; 1.801329;,
         0.667496; 1.915099;,
         0.667731; 1.823848;,
         0.712766; 1.801329;,
         0.395132; 1.776104;,
         0.345578; 1.682644;,
         0.435192; 1.745020;,
         0.667731; 1.823848;,
         0.435192; 1.745020;,
         0.712766; 1.801329;,
         0.769297; 1.714182;,
         0.612607; 1.715305;,
         0.726376; 1.670036;,
         0.726376; 1.670036;,
         0.612607; 1.715305;,
         0.635126; 1.670271;,
         0.809292; 1.348118;,
         0.716306; 1.397337;,
         0.493922; 1.348118;,
         0.716306; 1.397337;,
         0.587381; 1.397671;,
         0.493922; 1.348118;,
         0.612607; 1.715305;,
         0.493922; 1.348118;,
         0.556297; 1.437732;,
         0.635126; 1.670271;,
         0.612607; 1.715305;,
         0.556297; 1.437732;,
         0.711642; 1.958019;,
         0.345578; 1.998014;,
         0.461831; 1.932836;,
         0.667496; 1.915099;,
         0.711642; 1.958019;,
         0.461831; 1.932836;,
         0.428236; 1.935733;,
         0.461831; 1.932836;,
         0.345578; 1.998014;,
         0.394797; 1.905029;,
         0.399245; 1.921439;,
         0.345578; 1.998014;,
         0.428236; 1.935733;,
         0.345578; 1.998014;,
         0.411484; 1.932678;;
      }
      MeshMaterialList {
        1;
        189;
        0,
        0,
        0,
        0,
        0,
        0,
        0,
        0,
        0,
        0,
        0,
        0,
        0,
        0,
        0,
        0,
        0,
        0,
        0,
        0,
        0,
        0,
        0,
        0,
        0,
        0,
        0,
        0,
        0,
        0,
        0,
        0,
        0,
        0,
        0,
        0,
        0,
        0,
        0,
        0,
        0,
        0,
        0,
        0,
        0,
        0,
        0,
        0,
        0,
        0,
        0,
        0,
        0,
        0,
        0,
        0,
        0,
        0,
        0,
        0,
        0,
        0,
        0,
        0,
        0,
        0,
        0,
        0,
        0,
        0,
        0,
        0,
        0,
        0,
        0,
        0,
        0,
        0,
        0,
        0,
        0,
        0,
        0,
        0,
        0,
        0,
        0,
        0,
        0,
        0,
        0,
        0,
        0,
        0,
        0,
        0,
        0,
        0,
        0,
        0,
        0,
        0,
        0,
        0,
        0,
        0,
        0,
        0,
        0,
        0,
        0,
        0,
        0,
        0,
        0,
        0,
        0,
        0,
        0,
        0,
        0,
        0,
        0,
        0,
        0,
        0,
        0,
        0,
        0,
        0,
        0,
        0,
        0,
        0,
        0,
        0,
        0,
        0,
        0,
        0,
        0,
        0,
        0,
        0,
        0,
        0,
        0,
        0,
        0,
        0,
        0,
        0,
        0,
        0,
        0,
        0,
        0,
        0,
        0,
        0,
        0,
        0,
        0,
        0,
        0,
        0,
        0,
        0,
        0,
        0,
        0,
        0,
        0,
        0,
        0,
        0,
        0,
        0,
        0,
        0,
        0,
        0,
        0,
        0,
        0,
        0,
        0,
        0,
        0;
        Material DOUBLESTAR_002 {
           0.800000; 0.800000; 0.800000; 1.000000;;
           323.999994;
           0.250000; 0.250000; 0.250000;;
           0.000000; 0.000000; 0.000000;;
        }
      }
    }
  }
}
