xof 0303txt 0032

Frame Root {
  FrameTransformMatrix {
     1.000000, 0.000000, 0.000000, 0.000000,
     0.000000,-0.000000, 1.000000, 0.000000,
     0.000000, 1.000000, 0.000000, 0.000000,
     0.000000, 0.000000, 0.000000, 1.000000;;
  }
  Frame Cylinder_001 {
    FrameTransformMatrix {
       1.000000, 0.000000, 0.000000, 0.000000,
       0.000000, 1.000000, 0.000000, 0.000000,
       0.000000, 0.000000, 1.000000, 0.000000,
       0.000000, 0.000000, 0.000000, 1.000000;;
    }
    Mesh {
      496;
       0.043992;-0.000000;-0.012300;,
       0.043470;-0.004587;-0.013412;,
       0.026862;-0.004587;-0.005611;,
       0.027384;-0.000000;-0.004499;,
       0.043470;-0.004587;-0.013412;,
       0.042042;-0.007945;-0.016452;,
       0.025434;-0.007945;-0.008651;,
       0.026862;-0.004587;-0.005611;,
       0.042042;-0.007945;-0.016452;,
       0.040092;-0.009174;-0.020604;,
       0.023484;-0.009174;-0.012803;,
       0.025434;-0.007945;-0.008651;,
       0.040092;-0.009174;-0.020604;,
       0.038142;-0.007945;-0.024756;,
       0.021534;-0.007945;-0.016955;,
       0.023484;-0.009174;-0.012803;,
       0.038142;-0.007945;-0.024756;,
       0.036714;-0.004587;-0.027795;,
       0.020106;-0.004587;-0.019994;,
       0.021534;-0.007945;-0.016955;,
       0.036714;-0.004587;-0.027795;,
       0.036191;-0.000000;-0.028908;,
       0.019583;-0.000000;-0.021107;,
       0.020106;-0.004587;-0.019994;,
       0.036191;-0.000000;-0.028908;,
       0.036714; 0.004587;-0.027795;,
       0.020106; 0.004587;-0.019994;,
       0.019583;-0.000000;-0.021107;,
       0.036714; 0.004587;-0.027795;,
       0.038142; 0.007945;-0.024756;,
       0.021534; 0.007945;-0.016955;,
       0.020106; 0.004587;-0.019994;,
       0.038142; 0.007945;-0.024756;,
       0.040092; 0.009174;-0.020604;,
       0.023484; 0.009174;-0.012803;,
       0.021534; 0.007945;-0.016955;,
       0.040092; 0.009174;-0.020604;,
       0.042042; 0.007945;-0.016452;,
       0.025434; 0.007945;-0.008651;,
       0.023484; 0.009174;-0.012803;,
       0.020439; 0.002933;-0.016985;,
      -0.004510; 0.002933;-0.005266;,
      -0.004844; 0.000000;-0.005978;,
       0.020105;-0.000000;-0.017697;,
       0.042042; 0.007945;-0.016452;,
       0.043470; 0.004587;-0.013412;,
       0.026862; 0.004587;-0.005611;,
       0.025434; 0.007945;-0.008651;,
       0.043470; 0.004587;-0.013412;,
       0.043992;-0.000000;-0.012300;,
       0.027384;-0.000000;-0.004499;,
       0.026862; 0.004587;-0.005611;,
       0.043992;-0.000000;-0.012300;,
       0.043470; 0.004587;-0.013412;,
       0.042042; 0.007945;-0.016452;,
       0.040092; 0.009174;-0.020604;,
       0.038142; 0.007945;-0.024756;,
       0.036714; 0.004587;-0.027795;,
       0.036191;-0.000000;-0.028908;,
       0.036714;-0.004587;-0.027795;,
       0.038142;-0.007945;-0.024756;,
       0.040092;-0.009174;-0.020604;,
       0.042042;-0.007945;-0.016452;,
       0.043470;-0.004587;-0.013412;,
       0.025093;-0.000000;-0.007078;,
       0.027384;-0.000000;-0.004499;,
       0.026862;-0.004587;-0.005611;,
       0.024759;-0.002933;-0.007789;,
       0.024759;-0.002933;-0.007789;,
       0.026862;-0.004587;-0.005611;,
       0.025434;-0.007945;-0.008651;,
       0.023846;-0.005080;-0.009733;,
       0.023846;-0.005080;-0.009733;,
       0.025434;-0.007945;-0.008651;,
       0.023484;-0.009174;-0.012803;,
       0.022599;-0.005866;-0.012387;,
       0.022599;-0.005866;-0.012387;,
       0.023484;-0.009174;-0.012803;,
       0.021534;-0.007945;-0.016955;,
       0.021352;-0.005080;-0.015042;,
       0.021352;-0.005080;-0.015042;,
       0.021534;-0.007945;-0.016955;,
       0.020106;-0.004587;-0.019994;,
       0.020439;-0.002933;-0.016985;,
       0.020439;-0.002933;-0.016985;,
       0.020106;-0.004587;-0.019994;,
       0.019583;-0.000000;-0.021107;,
       0.020105;-0.000000;-0.017697;,
       0.020105;-0.000000;-0.017697;,
       0.019583;-0.000000;-0.021107;,
       0.020106; 0.004587;-0.019994;,
       0.020439; 0.002933;-0.016985;,
       0.020439; 0.002933;-0.016985;,
       0.020106; 0.004587;-0.019994;,
       0.021534; 0.007945;-0.016955;,
       0.021352; 0.005080;-0.015042;,
       0.021352; 0.005080;-0.015042;,
       0.021534; 0.007945;-0.016955;,
       0.023484; 0.009174;-0.012803;,
       0.022599; 0.005866;-0.012387;,
       0.022599; 0.005866;-0.012387;,
       0.023484; 0.009174;-0.012803;,
       0.025434; 0.007945;-0.008651;,
       0.023846; 0.005080;-0.009733;,
       0.023846; 0.005080;-0.009733;,
       0.025434; 0.007945;-0.008651;,
       0.026862; 0.004587;-0.005611;,
       0.024759; 0.002933;-0.007789;,
       0.024759; 0.002933;-0.007789;,
       0.026862; 0.004587;-0.005611;,
       0.027384;-0.000000;-0.004499;,
       0.025093;-0.000000;-0.007078;,
      -0.000191;-0.002933; 0.003930;,
      -0.001103;-0.005080; 0.001986;,
      -0.002350;-0.005866;-0.000668;,
      -0.003597;-0.005080;-0.003323;,
      -0.004510;-0.002933;-0.005266;,
      -0.004844; 0.000000;-0.005978;,
      -0.004510; 0.002933;-0.005266;,
      -0.003597; 0.005080;-0.003323;,
      -0.002350; 0.005866;-0.000668;,
      -0.001103; 0.005080; 0.001986;,
      -0.000191; 0.002933; 0.003930;,
       0.000144; 0.000000; 0.004641;,
       0.021352;-0.005080;-0.015042;,
      -0.003597;-0.005080;-0.003323;,
      -0.002350;-0.005866;-0.000668;,
       0.022599;-0.005866;-0.012387;,
       0.024759; 0.002933;-0.007789;,
      -0.000191; 0.002933; 0.003930;,
      -0.001103; 0.005080; 0.001986;,
       0.023846; 0.005080;-0.009733;,
       0.024759;-0.002933;-0.007789;,
      -0.000191;-0.002933; 0.003930;,
       0.000144; 0.000000; 0.004641;,
       0.025093;-0.000000;-0.007078;,
       0.021352; 0.005080;-0.015042;,
      -0.003597; 0.005080;-0.003323;,
      -0.004510; 0.002933;-0.005266;,
       0.020439; 0.002933;-0.016985;,
       0.020439;-0.002933;-0.016985;,
      -0.004510;-0.002933;-0.005266;,
      -0.003597;-0.005080;-0.003323;,
       0.021352;-0.005080;-0.015042;,
       0.025093;-0.000000;-0.007078;,
       0.000144; 0.000000; 0.004641;,
      -0.000191; 0.002933; 0.003930;,
       0.024759; 0.002933;-0.007789;,
       0.023846;-0.005080;-0.009733;,
      -0.001103;-0.005080; 0.001986;,
      -0.000191;-0.002933; 0.003930;,
       0.024759;-0.002933;-0.007789;,
       0.022599; 0.005866;-0.012387;,
      -0.002350; 0.005866;-0.000668;,
      -0.003597; 0.005080;-0.003323;,
       0.021352; 0.005080;-0.015042;,
       0.020105;-0.000000;-0.017697;,
      -0.004844; 0.000000;-0.005978;,
      -0.004510;-0.002933;-0.005266;,
       0.020439;-0.002933;-0.016985;,
       0.022599;-0.005866;-0.012387;,
      -0.002350;-0.005866;-0.000668;,
      -0.001103;-0.005080; 0.001986;,
       0.023846;-0.005080;-0.009733;,
       0.023846; 0.005080;-0.009733;,
      -0.001103; 0.005080; 0.001986;,
      -0.002350; 0.005866;-0.000668;,
       0.022599; 0.005866;-0.012387;,
      -0.031659; 0.000000; 0.042370;,
      -0.025651; 0.000000; 0.051975;,
      -0.023811;-0.006414; 0.048149;,
      -0.029491;-0.006414; 0.040298;,
      -0.010600;-0.006414;-0.085685;,
      -0.011985;-0.008589;-0.103303;,
      -0.025175;-0.008589;-0.101632;,
      -0.019952;-0.006414;-0.084500;,
      -0.011985;-0.008589;-0.103303;,
      -0.010342; 0.000000;-0.103511;,
      -0.025175; 0.000000;-0.101632;,
      -0.025175;-0.008589;-0.101632;,
       0.003517;-0.000000;-0.087474;,
       0.004491;-0.000000;-0.105391;,
       0.001204;-0.008589;-0.104974;,
      -0.001248;-0.006414;-0.086870;,
      -0.019952;-0.006414;-0.084500;,
      -0.025175;-0.008589;-0.101632;,
      -0.025175; 0.000000;-0.101632;,
      -0.022449; 0.000000;-0.084183;,
      -0.011899; 0.000000; 0.054171;,
      -0.011307;-0.006414; 0.050503;,
      -0.023811;-0.006414; 0.048149;,
      -0.025651; 0.000000; 0.051975;,
      -0.008271;-0.006414; 0.036407;,
      -0.011307;-0.006414; 0.050503;,
       0.013079;-0.006414; 0.048664;,
       0.011551;-0.006414; 0.038281;,
       0.018345;-0.006414; 0.037229;,
       0.060670;-0.006414; 0.026090;,
       0.057117;-0.006414; 0.019660;,
       0.007511;-0.006414; 0.032042;,
      -0.001611;-0.006414; 0.022643;,
       0.000238;-0.006414; 0.031393;,
       0.003376;-0.000000; 0.026134;,
       0.001684;-0.000000; 0.017833;,
      -0.016394;-0.006414; 0.016698;,
      -0.016069;-0.006414; 0.026154;,
       0.000238;-0.006414; 0.031393;,
      -0.001611;-0.006414; 0.022643;,
      -0.033674; 0.000000; 0.011068;,
      -0.034872; 0.000000; 0.021232;,
      -0.032376;-0.006414; 0.020915;,
      -0.031178;-0.006414; 0.010752;,
       0.060670;-0.006414; 0.026090;,
       0.058277;-0.006414; 0.033842;,
       0.063424;-0.000000; 0.035321;,
       0.064978;-0.000000; 0.023449;,
       0.030536;-0.000000; 0.045610;,
       0.063424;-0.000000; 0.035321;,
       0.058277;-0.006414; 0.033842;,
       0.029179;-0.006414; 0.042416;,
       0.007511;-0.006414; 0.032042;,
       0.057117;-0.006414; 0.019660;,
       0.060586;-0.000000; 0.012899;,
       0.010701;-0.000000; 0.026549;,
      -0.022449; 0.000000;-0.084183;,
      -0.033674; 0.000000; 0.011068;,
      -0.031178;-0.006414; 0.010752;,
      -0.019952;-0.006414;-0.084500;,
      -0.010600;-0.006414;-0.085685;,
      -0.016394;-0.006414; 0.016698;,
      -0.001611;-0.006414; 0.022643;,
      -0.001248;-0.006414;-0.086870;,
      -0.001248;-0.006414;-0.086870;,
      -0.001611;-0.006414; 0.022643;,
       0.001684;-0.000000; 0.017833;,
       0.003517;-0.000000;-0.087474;,
       0.000238;-0.006414; 0.031393;,
       0.007511;-0.006414; 0.032042;,
       0.010701;-0.000000; 0.026549;,
       0.003376;-0.000000; 0.026134;,
       0.013735;-0.000000; 0.052174;,
       0.030536;-0.000000; 0.045610;,
       0.029179;-0.006414; 0.042416;,
       0.013079;-0.006414; 0.048664;,
       0.011551;-0.006414; 0.038281;,
       0.018345;-0.006414; 0.037229;,
       0.007511;-0.006414; 0.032042;,
       0.000238;-0.006414; 0.031393;,
      -0.019952;-0.006414;-0.084500;,
      -0.031178;-0.006414; 0.010752;,
      -0.016394;-0.006414; 0.016698;,
      -0.010600;-0.006414;-0.085685;,
      -0.031178;-0.006414; 0.010752;,
      -0.032376;-0.006414; 0.020915;,
      -0.016069;-0.006414; 0.026154;,
      -0.016394;-0.006414; 0.016698;,
      -0.029491;-0.006414; 0.040298;,
      -0.023811;-0.006414; 0.048149;,
      -0.011307;-0.006414; 0.050503;,
      -0.008271;-0.006414; 0.036407;,
       0.013735;-0.000000; 0.052174;,
       0.013079;-0.006414; 0.048664;,
      -0.011307;-0.006414; 0.050503;,
      -0.011899; 0.000000; 0.054171;,
       0.001204;-0.008589;-0.104974;,
       0.004491;-0.000000;-0.105391;,
      -0.010342; 0.000000;-0.103511;,
      -0.011985;-0.008589;-0.103303;,
      -0.001248;-0.006414;-0.086870;,
       0.001204;-0.008589;-0.104974;,
      -0.011985;-0.008589;-0.103303;,
      -0.010600;-0.006414;-0.085685;,
      -0.032376;-0.006414; 0.020915;,
      -0.029491;-0.006414; 0.040298;,
      -0.008271;-0.006414; 0.036407;,
      -0.016069;-0.006414; 0.026154;,
       0.013079;-0.006414; 0.048664;,
       0.029179;-0.006414; 0.042416;,
       0.018345;-0.006414; 0.037229;,
       0.011551;-0.006414; 0.038281;,
       0.057117;-0.006414; 0.019660;,
       0.060670;-0.006414; 0.026090;,
       0.064978;-0.000000; 0.023449;,
       0.060586;-0.000000; 0.012899;,
       0.029179;-0.006414; 0.042416;,
       0.058277;-0.006414; 0.033842;,
       0.060670;-0.006414; 0.026090;,
       0.018345;-0.006414; 0.037229;,
      -0.016069;-0.006414; 0.026154;,
      -0.008271;-0.006414; 0.036407;,
       0.011551;-0.006414; 0.038281;,
       0.000238;-0.006414; 0.031393;,
      -0.034872; 0.000000; 0.021232;,
      -0.031659; 0.000000; 0.042370;,
      -0.029491;-0.006414; 0.040298;,
      -0.032376;-0.006414; 0.020915;,
      -0.031659; 0.000000; 0.042370;,
      -0.029491; 0.006414; 0.040298;,
      -0.023811; 0.006414; 0.048149;,
      -0.025651; 0.000000; 0.051975;,
      -0.010600; 0.006414;-0.085685;,
      -0.019952; 0.006414;-0.084500;,
      -0.025175; 0.008589;-0.101632;,
      -0.011985; 0.008589;-0.103303;,
      -0.011985; 0.008589;-0.103303;,
      -0.025175; 0.008589;-0.101632;,
      -0.025175; 0.000000;-0.101632;,
      -0.010342; 0.000000;-0.103511;,
       0.003517;-0.000000;-0.087474;,
      -0.001248; 0.006414;-0.086870;,
       0.001204; 0.008589;-0.104974;,
       0.004491;-0.000000;-0.105391;,
      -0.019952; 0.006414;-0.084500;,
      -0.022449; 0.000000;-0.084183;,
      -0.025175; 0.000000;-0.101632;,
      -0.025175; 0.008589;-0.101632;,
      -0.011899; 0.000000; 0.054171;,
      -0.025651; 0.000000; 0.051975;,
      -0.023811; 0.006414; 0.048149;,
      -0.011307; 0.006414; 0.050503;,
      -0.008271; 0.006414; 0.036407;,
       0.011551; 0.006414; 0.038281;,
       0.013079; 0.006414; 0.048664;,
      -0.011307; 0.006414; 0.050503;,
       0.018345; 0.006414; 0.037229;,
       0.007511; 0.006414; 0.032042;,
       0.057117; 0.006414; 0.019660;,
       0.060670; 0.006414; 0.026090;,
      -0.001611; 0.006414; 0.022643;,
       0.001684;-0.000000; 0.017833;,
       0.003376;-0.000000; 0.026134;,
       0.000238; 0.006414; 0.031393;,
      -0.016394; 0.006414; 0.016698;,
      -0.001611; 0.006414; 0.022643;,
       0.000238; 0.006414; 0.031393;,
      -0.016069; 0.006414; 0.026154;,
      -0.033674; 0.000000; 0.011068;,
      -0.031178; 0.006414; 0.010752;,
      -0.032376; 0.006414; 0.020915;,
      -0.034872; 0.000000; 0.021232;,
       0.060670; 0.006414; 0.026090;,
       0.064978;-0.000000; 0.023449;,
       0.063424;-0.000000; 0.035321;,
       0.058277; 0.006414; 0.033842;,
       0.030536;-0.000000; 0.045610;,
       0.029179; 0.006414; 0.042416;,
       0.058277; 0.006414; 0.033842;,
       0.063424;-0.000000; 0.035321;,
       0.007511; 0.006414; 0.032042;,
       0.010701;-0.000000; 0.026549;,
       0.060586;-0.000000; 0.012899;,
       0.057117; 0.006414; 0.019660;,
      -0.022449; 0.000000;-0.084183;,
      -0.019952; 0.006414;-0.084500;,
      -0.031178; 0.006414; 0.010752;,
      -0.033674; 0.000000; 0.011068;,
      -0.010600; 0.006414;-0.085685;,
      -0.001248; 0.006414;-0.086870;,
      -0.001611; 0.006414; 0.022643;,
      -0.016394; 0.006414; 0.016698;,
      -0.001248; 0.006414;-0.086870;,
       0.003517;-0.000000;-0.087474;,
       0.001684;-0.000000; 0.017833;,
      -0.001611; 0.006414; 0.022643;,
       0.000238; 0.006414; 0.031393;,
       0.003376;-0.000000; 0.026134;,
       0.010701;-0.000000; 0.026549;,
       0.007511; 0.006414; 0.032042;,
       0.013735;-0.000000; 0.052174;,
       0.013079; 0.006414; 0.048664;,
       0.029179; 0.006414; 0.042416;,
       0.030536;-0.000000; 0.045610;,
       0.011551; 0.006414; 0.038281;,
       0.000238; 0.006414; 0.031393;,
       0.007511; 0.006414; 0.032042;,
       0.018345; 0.006414; 0.037229;,
      -0.019952; 0.006414;-0.084500;,
      -0.010600; 0.006414;-0.085685;,
      -0.016394; 0.006414; 0.016698;,
      -0.031178; 0.006414; 0.010752;,
      -0.031178; 0.006414; 0.010752;,
      -0.016394; 0.006414; 0.016698;,
      -0.016069; 0.006414; 0.026154;,
      -0.032376; 0.006414; 0.020915;,
      -0.029491; 0.006414; 0.040298;,
      -0.008271; 0.006414; 0.036407;,
      -0.011307; 0.006414; 0.050503;,
      -0.023811; 0.006414; 0.048149;,
       0.013735;-0.000000; 0.052174;,
      -0.011899; 0.000000; 0.054171;,
      -0.011307; 0.006414; 0.050503;,
       0.013079; 0.006414; 0.048664;,
       0.001204; 0.008589;-0.104974;,
      -0.011985; 0.008589;-0.103303;,
      -0.010342; 0.000000;-0.103511;,
       0.004491;-0.000000;-0.105391;,
      -0.001248; 0.006414;-0.086870;,
      -0.010600; 0.006414;-0.085685;,
      -0.011985; 0.008589;-0.103303;,
       0.001204; 0.008589;-0.104974;,
      -0.032376; 0.006414; 0.020915;,
      -0.016069; 0.006414; 0.026154;,
      -0.008271; 0.006414; 0.036407;,
      -0.029491; 0.006414; 0.040298;,
       0.013079; 0.006414; 0.048664;,
       0.011551; 0.006414; 0.038281;,
       0.018345; 0.006414; 0.037229;,
       0.029179; 0.006414; 0.042416;,
       0.057117; 0.006414; 0.019660;,
       0.060586;-0.000000; 0.012899;,
       0.064978;-0.000000; 0.023449;,
       0.060670; 0.006414; 0.026090;,
       0.029179; 0.006414; 0.042416;,
       0.018345; 0.006414; 0.037229;,
       0.060670; 0.006414; 0.026090;,
       0.058277; 0.006414; 0.033842;,
      -0.016069; 0.006414; 0.026154;,
       0.000238; 0.006414; 0.031393;,
       0.011551; 0.006414; 0.038281;,
      -0.008271; 0.006414; 0.036407;,
      -0.034872; 0.000000; 0.021232;,
      -0.032376; 0.006414; 0.020915;,
      -0.029491; 0.006414; 0.040298;,
      -0.031659; 0.000000; 0.042370;,
       0.045623;-0.000000; 0.022485;,
       0.046264;-0.002634; 0.022189;,
      -0.008610;-0.002634;-0.080771;,
      -0.009251; 0.000000;-0.080475;,
       0.046264;-0.002634; 0.022189;,
       0.048014;-0.004562; 0.021381;,
      -0.006859;-0.004562;-0.081579;,
      -0.008610;-0.002634;-0.080771;,
       0.048014;-0.004562; 0.021381;,
       0.050406;-0.005268; 0.020277;,
      -0.004468;-0.005268;-0.082683;,
      -0.006859;-0.004562;-0.081579;,
       0.050406;-0.005268; 0.020277;,
       0.052798;-0.004562; 0.019173;,
      -0.002076;-0.004562;-0.083786;,
      -0.004468;-0.005268;-0.082683;,
       0.052798;-0.004562; 0.019173;,
       0.054549;-0.002634; 0.018365;,
      -0.000325;-0.002634;-0.084595;,
      -0.002076;-0.004562;-0.083786;,
       0.054549;-0.002634; 0.018365;,
       0.055189;-0.000000; 0.018069;,
       0.000316; 0.000000;-0.084890;,
      -0.000325;-0.002634;-0.084595;,
       0.055189;-0.000000; 0.018069;,
       0.054549; 0.002634; 0.018365;,
      -0.000325; 0.002634;-0.084595;,
       0.000316; 0.000000;-0.084890;,
       0.054549; 0.002634; 0.018365;,
       0.052798; 0.004562; 0.019173;,
      -0.002076; 0.004562;-0.083786;,
      -0.000325; 0.002634;-0.084595;,
       0.052798; 0.004562; 0.019173;,
       0.050406; 0.005268; 0.020277;,
      -0.004468; 0.005268;-0.082683;,
      -0.002076; 0.004562;-0.083786;,
       0.050406; 0.005268; 0.020277;,
       0.048014; 0.004562; 0.021381;,
      -0.006859; 0.004562;-0.081579;,
      -0.004468; 0.005268;-0.082683;,
      -0.008610;-0.002634;-0.080771;,
      -0.006859;-0.004562;-0.081579;,
      -0.004468;-0.005268;-0.082683;,
      -0.002076;-0.004562;-0.083786;,
      -0.000325;-0.002634;-0.084595;,
       0.000316; 0.000000;-0.084890;,
      -0.000325; 0.002634;-0.084595;,
      -0.002076; 0.004562;-0.083786;,
      -0.004468; 0.005268;-0.082683;,
      -0.006859; 0.004562;-0.081579;,
      -0.008610; 0.002634;-0.080771;,
      -0.009251; 0.000000;-0.080475;,
       0.048014; 0.004562; 0.021381;,
       0.046264; 0.002634; 0.022189;,
      -0.008610; 0.002634;-0.080771;,
      -0.006859; 0.004562;-0.081579;,
       0.046264; 0.002634; 0.022189;,
       0.045623;-0.000000; 0.022485;,
      -0.009251; 0.000000;-0.080475;,
      -0.008610; 0.002634;-0.080771;,
       0.045623;-0.000000; 0.022485;,
       0.046264; 0.002634; 0.022189;,
       0.048014; 0.004562; 0.021381;,
       0.050406; 0.005268; 0.020277;,
       0.052798; 0.004562; 0.019173;,
       0.054549; 0.002634; 0.018365;,
       0.055189;-0.000000; 0.018069;,
       0.054549;-0.002634; 0.018365;,
       0.052798;-0.004562; 0.019173;,
       0.050406;-0.005268; 0.020277;,
       0.048014;-0.004562; 0.021381;,
       0.046264;-0.002634; 0.022189;;
      116;
      4;3,2,1,0;,
      4;7,6,5,4;,
      4;11,10,9,8;,
      4;15,14,13,12;,
      4;19,18,17,16;,
      4;23,22,21,20;,
      4;27,26,25,24;,
      4;31,30,29,28;,
      4;35,34,33,32;,
      4;39,38,37,36;,
      4;43,42,41,40;,
      4;47,46,45,44;,
      4;51,50,49,48;,
      12;63,62,61,60,59,58,57,56,55,54,53,52;,
      4;67,66,65,64;,
      4;71,70,69,68;,
      4;75,74,73,72;,
      4;79,78,77,76;,
      4;83,82,81,80;,
      4;87,86,85,84;,
      4;91,90,89,88;,
      4;95,94,93,92;,
      4;99,98,97,96;,
      4;103,102,101,100;,
      4;107,106,105,104;,
      4;111,110,109,108;,
      12;123,122,121,120,119,118,117,116,115,114,113,112;,
      4;127,126,125,124;,
      4;131,130,129,128;,
      4;135,134,133,132;,
      4;139,138,137,136;,
      4;143,142,141,140;,
      4;147,146,145,144;,
      4;151,150,149,148;,
      4;155,154,153,152;,
      4;159,158,157,156;,
      4;163,162,161,160;,
      4;167,166,165,164;,
      4;171,170,169,168;,
      4;175,174,173,172;,
      4;179,178,177,176;,
      4;183,182,181,180;,
      4;187,186,185,184;,
      4;191,190,189,188;,
      4;195,194,193,192;,
      4;199,198,197,196;,
      4;203,202,201,200;,
      4;207,206,205,204;,
      4;211,210,209,208;,
      4;215,214,213,212;,
      4;219,218,217,216;,
      4;223,222,221,220;,
      4;227,226,225,224;,
      4;231,230,229,228;,
      4;235,234,233,232;,
      4;239,238,237,236;,
      4;243,242,241,240;,
      4;247,246,245,244;,
      4;251,250,249,248;,
      4;255,254,253,252;,
      4;259,258,257,256;,
      4;263,262,261,260;,
      4;267,266,265,264;,
      4;271,270,269,268;,
      4;275,274,273,272;,
      4;279,278,277,276;,
      4;283,282,281,280;,
      4;287,286,285,284;,
      4;291,290,289,288;,
      4;295,294,293,292;,
      4;299,298,297,296;,
      4;303,302,301,300;,
      4;307,306,305,304;,
      4;311,310,309,308;,
      4;315,314,313,312;,
      4;319,318,317,316;,
      4;323,322,321,320;,
      4;327,326,325,324;,
      4;331,330,329,328;,
      4;335,334,333,332;,
      4;339,338,337,336;,
      4;343,342,341,340;,
      4;347,346,345,344;,
      4;351,350,349,348;,
      4;355,354,353,352;,
      4;359,358,357,356;,
      4;363,362,361,360;,
      4;367,366,365,364;,
      4;371,370,369,368;,
      4;375,374,373,372;,
      4;379,378,377,376;,
      4;383,382,381,380;,
      4;387,386,385,384;,
      4;391,390,389,388;,
      4;395,394,393,392;,
      4;399,398,397,396;,
      4;403,402,401,400;,
      4;407,406,405,404;,
      4;411,410,409,408;,
      4;415,414,413,412;,
      4;419,418,417,416;,
      4;423,422,421,420;,
      4;427,426,425,424;,
      4;431,430,429,428;,
      4;435,434,433,432;,
      4;439,438,437,436;,
      4;443,442,441,440;,
      4;447,446,445,444;,
      4;451,450,449,448;,
      4;455,454,453,452;,
      4;459,458,457,456;,
      4;463,462,461,460;,
      12;475,474,473,472,471,470,469,468,467,466,465,464;,
      4;479,478,477,476;,
      4;483,482,481,480;,
      12;495,494,493,492,491,490,489,488,487,486,485,484;;
      MeshNormals {
        496;
        -0.913157; 0.000000;-0.407609;,
        -0.870030; 0.378581;-0.315792;,
         0.196457; 0.415812;-0.887978;,
         0.149088; 0.000000;-0.988824;,
        -0.870030; 0.378581;-0.315792;,
        -0.752204; 0.655722;-0.064945;,
         0.325870; 0.720208;-0.612462;,
         0.196457; 0.415812;-0.887978;,
        -0.752204; 0.655722;-0.064945;,
        -0.591251; 0.757163; 0.277717;,
         0.502651; 0.831624;-0.236101;,
         0.325870; 0.720208;-0.612462;,
        -0.591251; 0.757163; 0.277717;,
        -0.430299; 0.655722; 0.620380;,
         0.679432; 0.720208; 0.140261;,
         0.502651; 0.831624;-0.236101;,
        -0.430299; 0.655722; 0.620380;,
        -0.312473; 0.378581; 0.871227;,
         0.808845; 0.415813; 0.415777;,
         0.679432; 0.720208; 0.140261;,
        -0.312473; 0.378581; 0.871227;,
        -0.269346;-0.000000; 0.963043;,
         0.856213;-0.000000; 0.516623;,
         0.808845; 0.415813; 0.415777;,
        -0.269346;-0.000000; 0.963043;,
        -0.312473;-0.378581; 0.871227;,
         0.808845;-0.415812; 0.415777;,
         0.856213;-0.000000; 0.516623;,
        -0.312473;-0.378581; 0.871227;,
        -0.430299;-0.655722; 0.620381;,
         0.679432;-0.720208; 0.140261;,
         0.808845;-0.415812; 0.415777;,
        -0.430299;-0.655722; 0.620381;,
        -0.591251;-0.757162; 0.277717;,
         0.502651;-0.831624;-0.236101;,
         0.679432;-0.720208; 0.140261;,
        -0.591251;-0.757162; 0.277717;,
        -0.752204;-0.655722;-0.064946;,
         0.325870;-0.720208;-0.612462;,
         0.502651;-0.831624;-0.236101;,
         0.868634;-0.379601; 0.318399;,
         0.870029;-0.378581; 0.315792;,
         0.913157;-0.000000; 0.407609;,
         0.911877;-0.000000; 0.410463;,
        -0.752204;-0.655722;-0.064946;,
        -0.870030;-0.378581;-0.315792;,
         0.196457;-0.415812;-0.887978;,
         0.325870;-0.720208;-0.612462;,
        -0.870030;-0.378581;-0.315792;,
        -0.913157; 0.000000;-0.407609;,
         0.149088; 0.000000;-0.988824;,
         0.196457;-0.415812;-0.887978;,
        -0.913157; 0.000000;-0.407609;,
        -0.870030;-0.378581;-0.315792;,
        -0.752204;-0.655722;-0.064946;,
        -0.591251;-0.757162; 0.277717;,
        -0.430299;-0.655722; 0.620381;,
        -0.312473;-0.378581; 0.871227;,
        -0.269346;-0.000000; 0.963043;,
        -0.312473; 0.378581; 0.871227;,
        -0.430299; 0.655722; 0.620380;,
        -0.591251; 0.757163; 0.277717;,
        -0.752204; 0.655722;-0.064945;,
        -0.870030; 0.378581;-0.315792;,
         0.266333;-0.000000;-0.963881;,
         0.149088; 0.000000;-0.988824;,
         0.196457; 0.415812;-0.887978;,
         0.309576; 0.379601;-0.871818;,
         0.309576; 0.379601;-0.871818;,
         0.196457; 0.415812;-0.887978;,
         0.325870; 0.720208;-0.612462;,
         0.427719; 0.657488;-0.620295;,
         0.427719; 0.657488;-0.620295;,
         0.325870; 0.720208;-0.612462;,
         0.502651; 0.831624;-0.236101;,
         0.589105; 0.759202;-0.276709;,
         0.589105; 0.759202;-0.276709;,
         0.502651; 0.831624;-0.236101;,
         0.679432; 0.720208; 0.140261;,
         0.750491; 0.657488; 0.066877;,
         0.750491; 0.657488; 0.066877;,
         0.679432; 0.720208; 0.140261;,
         0.808845; 0.415813; 0.415777;,
         0.868634; 0.379601; 0.318399;,
         0.868634; 0.379601; 0.318399;,
         0.808845; 0.415813; 0.415777;,
         0.856213;-0.000000; 0.516623;,
         0.911877;-0.000000; 0.410463;,
         0.911877;-0.000000; 0.410463;,
         0.856213;-0.000000; 0.516623;,
         0.808845;-0.415812; 0.415777;,
         0.868634;-0.379601; 0.318399;,
         0.868634;-0.379601; 0.318399;,
         0.808845;-0.415812; 0.415777;,
         0.679432;-0.720208; 0.140261;,
         0.750491;-0.657488; 0.066877;,
         0.750491;-0.657488; 0.066877;,
         0.679432;-0.720208; 0.140261;,
         0.502651;-0.831624;-0.236101;,
         0.589105;-0.759202;-0.276709;,
         0.589105;-0.759202;-0.276709;,
         0.502651;-0.831624;-0.236101;,
         0.325870;-0.720208;-0.612462;,
         0.427719;-0.657488;-0.620295;,
         0.427719;-0.657488;-0.620295;,
         0.325870;-0.720208;-0.612462;,
         0.196457;-0.415812;-0.887978;,
         0.309576;-0.379601;-0.871817;,
         0.309576;-0.379601;-0.871817;,
         0.196457;-0.415812;-0.887978;,
         0.149088; 0.000000;-0.988824;,
         0.266333;-0.000000;-0.963881;,
         0.312473; 0.378581;-0.871227;,
         0.430299; 0.655722;-0.620380;,
         0.591252; 0.757162;-0.277717;,
         0.752204; 0.655722; 0.064946;,
         0.870030; 0.378581; 0.315792;,
         0.913157;-0.000000; 0.407609;,
         0.870029;-0.378581; 0.315792;,
         0.752204;-0.655722; 0.064946;,
         0.591251;-0.757162;-0.277717;,
         0.430299;-0.655722;-0.620380;,
         0.312474;-0.378581;-0.871227;,
         0.269346;-0.000000;-0.963043;,
         0.750491; 0.657488; 0.066877;,
         0.752204; 0.655722; 0.064946;,
         0.591252; 0.757162;-0.277717;,
         0.589105; 0.759202;-0.276709;,
         0.309576;-0.379601;-0.871817;,
         0.312474;-0.378581;-0.871227;,
         0.430299;-0.655722;-0.620380;,
         0.427719;-0.657488;-0.620295;,
         0.309576; 0.379601;-0.871818;,
         0.312473; 0.378581;-0.871227;,
         0.269346;-0.000000;-0.963043;,
         0.266333;-0.000000;-0.963881;,
         0.750491;-0.657488; 0.066877;,
         0.752204;-0.655722; 0.064946;,
         0.870029;-0.378581; 0.315792;,
         0.868634;-0.379601; 0.318399;,
         0.868634; 0.379601; 0.318399;,
         0.870030; 0.378581; 0.315792;,
         0.752204; 0.655722; 0.064946;,
         0.750491; 0.657488; 0.066877;,
         0.266333;-0.000000;-0.963881;,
         0.269346;-0.000000;-0.963043;,
         0.312474;-0.378581;-0.871227;,
         0.309576;-0.379601;-0.871817;,
         0.427719; 0.657488;-0.620295;,
         0.430299; 0.655722;-0.620380;,
         0.312473; 0.378581;-0.871227;,
         0.309576; 0.379601;-0.871818;,
         0.589105;-0.759202;-0.276709;,
         0.591251;-0.757162;-0.277717;,
         0.752204;-0.655722; 0.064946;,
         0.750491;-0.657488; 0.066877;,
         0.911877;-0.000000; 0.410463;,
         0.913157;-0.000000; 0.407609;,
         0.870030; 0.378581; 0.315792;,
         0.868634; 0.379601; 0.318399;,
         0.589105; 0.759202;-0.276709;,
         0.591252; 0.757162;-0.277717;,
         0.430299; 0.655722;-0.620380;,
         0.427719; 0.657488;-0.620295;,
         0.427719;-0.657488;-0.620295;,
         0.430299;-0.655722;-0.620380;,
         0.591251;-0.757162;-0.277717;,
         0.589105;-0.759202;-0.276709;,
         0.925183; 0.000000;-0.379521;,
         0.533003; 0.000000;-0.846113;,
         0.321027; 0.822288;-0.469877;,
         0.559777; 0.804023;-0.200494;,
        -0.007704; 0.998121;-0.060788;,
         0.083285; 0.749105; 0.657194;,
         0.628029; 0.653564; 0.422413;,
         0.554852; 0.828013;-0.080832;,
         0.083285; 0.749105; 0.657194;,
         0.125723;-0.000000; 0.992065;,
         0.818532;-0.000000; 0.574462;,
         0.628029; 0.653564; 0.422413;,
        -0.997331; 0.000000;-0.073017;,
        -0.752851; 0.000000; 0.658191;,
        -0.405233; 0.718535; 0.565238;,
        -0.494034; 0.866403;-0.072637;,
         0.554852; 0.828013;-0.080832;,
         0.628029; 0.653564; 0.422413;,
         0.818532;-0.000000; 0.574462;,
         0.998203;-0.000000;-0.059927;,
         0.051072; 0.000000;-0.998695;,
         0.022234; 0.849958;-0.526381;,
         0.321027; 0.822288;-0.469877;,
         0.533003; 0.000000;-0.846113;,
         0.000000; 1.000000; 0.000000;,
         0.022234; 0.849958;-0.526381;,
        -0.121101; 0.841478;-0.526545;,
         0.000000; 1.000000;-0.000000;,
         0.000000; 1.000000;-0.000000;,
        -0.512834; 0.857920; 0.031237;,
        -0.190416; 0.876957; 0.441235;,
         0.018503; 0.924396; 0.380985;,
        -0.449456; 0.891220; 0.060952;,
        -0.153835; 0.969976; 0.188363;,
        -0.716462; 0.000000; 0.697626;,
        -0.998156; 0.000000; 0.060707;,
         0.000000; 1.000000; 0.000000;,
         0.000000; 1.000000;-0.000000;,
        -0.153835; 0.969976; 0.188363;,
        -0.449456; 0.891220; 0.060952;,
         0.993127;-0.000000; 0.117045;,
         0.999813; 0.000000;-0.019360;,
         0.595872; 0.803045;-0.007482;,
         0.563626; 0.823355; 0.066426;,
        -0.512834; 0.857920; 0.031237;,
        -0.371470; 0.823428;-0.428924;,
        -0.795537;-0.000000;-0.605904;,
        -0.986415; 0.000000; 0.164274;,
        -0.326201; 0.000000;-0.945300;,
        -0.795537;-0.000000;-0.605904;,
        -0.371470; 0.823428;-0.428924;,
        -0.166597; 0.861124;-0.480323;,
         0.018503; 0.924396; 0.380985;,
        -0.190416; 0.876957; 0.441235;,
        -0.421611; 0.000000; 0.906777;,
         0.136263; 0.000000; 0.990673;,
         0.998203;-0.000000;-0.059927;,
         0.993127;-0.000000; 0.117045;,
         0.563626; 0.823355; 0.066426;,
         0.554852; 0.828013;-0.080832;,
        -0.007704; 0.998121;-0.060788;,
         0.000000; 1.000000; 0.000000;,
        -0.449456; 0.891220; 0.060952;,
        -0.494034; 0.866403;-0.072637;,
        -0.494034; 0.866403;-0.072637;,
        -0.449456; 0.891220; 0.060952;,
        -0.998156; 0.000000; 0.060707;,
        -0.997331; 0.000000;-0.073017;,
        -0.153835; 0.969976; 0.188363;,
         0.018503; 0.924396; 0.380985;,
         0.136263; 0.000000; 0.990673;,
        -0.716462; 0.000000; 0.697626;,
        -0.220652;-0.000000;-0.975353;,
        -0.326201; 0.000000;-0.945300;,
        -0.166597; 0.861124;-0.480323;,
        -0.121101; 0.841478;-0.526545;,
         0.000000; 1.000000;-0.000000;,
         0.000000; 1.000000;-0.000000;,
         0.018503; 0.924396; 0.380985;,
        -0.153835; 0.969976; 0.188363;,
         0.554852; 0.828013;-0.080832;,
         0.563626; 0.823355; 0.066426;,
         0.000000; 1.000000; 0.000000;,
        -0.007704; 0.998121;-0.060788;,
         0.563626; 0.823355; 0.066426;,
         0.595872; 0.803045;-0.007482;,
         0.000000; 1.000000;-0.000000;,
         0.000000; 1.000000; 0.000000;,
         0.559777; 0.804023;-0.200494;,
         0.321027; 0.822288;-0.469877;,
         0.022234; 0.849958;-0.526381;,
         0.000000; 1.000000; 0.000000;,
        -0.220652;-0.000000;-0.975353;,
        -0.121101; 0.841478;-0.526545;,
         0.022234; 0.849958;-0.526381;,
         0.051072; 0.000000;-0.998695;,
        -0.405233; 0.718535; 0.565238;,
        -0.752851; 0.000000; 0.658191;,
         0.125723;-0.000000; 0.992065;,
         0.083285; 0.749105; 0.657194;,
        -0.494034; 0.866403;-0.072637;,
        -0.405233; 0.718535; 0.565238;,
         0.083285; 0.749105; 0.657194;,
        -0.007704; 0.998121;-0.060788;,
         0.595872; 0.803045;-0.007482;,
         0.559777; 0.804023;-0.200494;,
         0.000000; 1.000000; 0.000000;,
         0.000000; 1.000000;-0.000000;,
        -0.121101; 0.841478;-0.526545;,
        -0.166597; 0.861124;-0.480323;,
         0.000000; 1.000000;-0.000000;,
         0.000000; 1.000000;-0.000000;,
        -0.190416; 0.876957; 0.441235;,
        -0.512834; 0.857920; 0.031237;,
        -0.986415; 0.000000; 0.164274;,
        -0.421611; 0.000000; 0.906777;,
        -0.166597; 0.861124;-0.480323;,
        -0.371470; 0.823428;-0.428924;,
        -0.512834; 0.857920; 0.031237;,
         0.000000; 1.000000;-0.000000;,
         0.000000; 1.000000;-0.000000;,
         0.000000; 1.000000; 0.000000;,
         0.000000; 1.000000;-0.000000;,
        -0.153835; 0.969976; 0.188363;,
         0.999813; 0.000000;-0.019360;,
         0.925183; 0.000000;-0.379521;,
         0.559777; 0.804023;-0.200494;,
         0.595872; 0.803045;-0.007482;,
         0.925183; 0.000000;-0.379521;,
         0.559777;-0.804022;-0.200494;,
         0.321027;-0.822288;-0.469876;,
         0.533003; 0.000000;-0.846113;,
        -0.007704;-0.998121;-0.060788;,
         0.554852;-0.828013;-0.080832;,
         0.628030;-0.653564; 0.422413;,
         0.083285;-0.749105; 0.657194;,
         0.083285;-0.749105; 0.657194;,
         0.628030;-0.653564; 0.422413;,
         0.818532;-0.000000; 0.574462;,
         0.125723;-0.000000; 0.992065;,
        -0.997331; 0.000000;-0.073017;,
        -0.494035;-0.866403;-0.072637;,
        -0.405233;-0.718535; 0.565238;,
        -0.752851; 0.000000; 0.658191;,
         0.554852;-0.828013;-0.080832;,
         0.998203;-0.000000;-0.059927;,
         0.818532;-0.000000; 0.574462;,
         0.628030;-0.653564; 0.422413;,
         0.051072; 0.000000;-0.998695;,
         0.533003; 0.000000;-0.846113;,
         0.321027;-0.822288;-0.469876;,
         0.022234;-0.849958;-0.526381;,
        -0.000000;-1.000000; 0.000000;,
        -0.000000;-1.000000; 0.000000;,
        -0.121101;-0.841478;-0.526545;,
         0.022234;-0.849958;-0.526381;,
        -0.000000;-1.000000;-0.000000;,
         0.018503;-0.924396; 0.380985;,
        -0.190416;-0.876957; 0.441235;,
        -0.512834;-0.857919; 0.031237;,
        -0.449456;-0.891220; 0.060952;,
        -0.998156; 0.000000; 0.060707;,
        -0.716462; 0.000000; 0.697626;,
        -0.153836;-0.969976; 0.188363;,
        -0.000000;-1.000000; 0.000000;,
        -0.449456;-0.891220; 0.060952;,
        -0.153836;-0.969976; 0.188363;,
        -0.000000;-1.000000; 0.000000;,
         0.993127;-0.000000; 0.117045;,
         0.563626;-0.823355; 0.066426;,
         0.595872;-0.803045;-0.007482;,
         0.999813; 0.000000;-0.019360;,
        -0.512834;-0.857919; 0.031237;,
        -0.986415; 0.000000; 0.164274;,
        -0.795537;-0.000000;-0.605904;,
        -0.371470;-0.823428;-0.428924;,
        -0.326201; 0.000000;-0.945300;,
        -0.166597;-0.861124;-0.480323;,
        -0.371470;-0.823428;-0.428924;,
        -0.795537;-0.000000;-0.605904;,
         0.018503;-0.924396; 0.380985;,
         0.136263; 0.000000; 0.990673;,
        -0.421611; 0.000000; 0.906777;,
        -0.190416;-0.876957; 0.441235;,
         0.998203;-0.000000;-0.059927;,
         0.554852;-0.828013;-0.080832;,
         0.563626;-0.823355; 0.066426;,
         0.993127;-0.000000; 0.117045;,
        -0.007704;-0.998121;-0.060788;,
        -0.494035;-0.866403;-0.072637;,
        -0.449456;-0.891220; 0.060952;,
        -0.000000;-1.000000; 0.000000;,
        -0.494035;-0.866403;-0.072637;,
        -0.997331; 0.000000;-0.073017;,
        -0.998156; 0.000000; 0.060707;,
        -0.449456;-0.891220; 0.060952;,
        -0.153836;-0.969976; 0.188363;,
        -0.716462; 0.000000; 0.697626;,
         0.136263; 0.000000; 0.990673;,
         0.018503;-0.924396; 0.380985;,
        -0.220652;-0.000000;-0.975353;,
        -0.121101;-0.841478;-0.526545;,
        -0.166597;-0.861124;-0.480323;,
        -0.326201; 0.000000;-0.945300;,
        -0.000000;-1.000000; 0.000000;,
        -0.153836;-0.969976; 0.188363;,
         0.018503;-0.924396; 0.380985;,
        -0.000000;-1.000000;-0.000000;,
         0.554852;-0.828013;-0.080832;,
        -0.007704;-0.998121;-0.060788;,
        -0.000000;-1.000000; 0.000000;,
         0.563626;-0.823355; 0.066426;,
         0.563626;-0.823355; 0.066426;,
        -0.000000;-1.000000; 0.000000;,
        -0.000000;-1.000000; 0.000000;,
         0.595872;-0.803045;-0.007482;,
         0.559777;-0.804022;-0.200494;,
        -0.000000;-1.000000; 0.000000;,
         0.022234;-0.849958;-0.526381;,
         0.321027;-0.822288;-0.469876;,
        -0.220652;-0.000000;-0.975353;,
         0.051072; 0.000000;-0.998695;,
         0.022234;-0.849958;-0.526381;,
        -0.121101;-0.841478;-0.526545;,
        -0.405233;-0.718535; 0.565238;,
         0.083285;-0.749105; 0.657194;,
         0.125723;-0.000000; 0.992065;,
        -0.752851; 0.000000; 0.658191;,
        -0.494035;-0.866403;-0.072637;,
        -0.007704;-0.998121;-0.060788;,
         0.083285;-0.749105; 0.657194;,
        -0.405233;-0.718535; 0.565238;,
         0.595872;-0.803045;-0.007482;,
        -0.000000;-1.000000; 0.000000;,
        -0.000000;-1.000000; 0.000000;,
         0.559777;-0.804022;-0.200494;,
        -0.121101;-0.841478;-0.526545;,
        -0.000000;-1.000000; 0.000000;,
        -0.000000;-1.000000;-0.000000;,
        -0.166597;-0.861124;-0.480323;,
        -0.190416;-0.876957; 0.441235;,
        -0.421611; 0.000000; 0.906777;,
        -0.986415; 0.000000; 0.164274;,
        -0.512834;-0.857919; 0.031237;,
        -0.166597;-0.861124;-0.480323;,
        -0.000000;-1.000000;-0.000000;,
        -0.512834;-0.857919; 0.031237;,
        -0.371470;-0.823428;-0.428924;,
        -0.000000;-1.000000; 0.000000;,
        -0.153836;-0.969976; 0.188363;,
        -0.000000;-1.000000; 0.000000;,
        -0.000000;-1.000000; 0.000000;,
         0.999813; 0.000000;-0.019360;,
         0.595872;-0.803045;-0.007482;,
         0.559777;-0.804022;-0.200494;,
         0.925183; 0.000000;-0.379521;,
         0.387820;-0.000000;-0.921735;,
         0.299631; 0.373556;-0.877882;,
         0.875267; 0.383305; 0.294932;,
         0.968571;-0.000000; 0.248738;,
         0.299631; 0.373556;-0.877882;,
         0.056594; 0.650845;-0.757098;,
         0.622000; 0.660594; 0.420394;,
         0.875267; 0.383305; 0.294932;,
         0.056594; 0.650845;-0.757098;,
        -0.280146; 0.757310;-0.589915;,
         0.280146; 0.757310; 0.589915;,
         0.622000; 0.660594; 0.420394;,
        -0.280146; 0.757310;-0.589915;,
        -0.622000; 0.660595;-0.420394;,
        -0.056594; 0.650846; 0.757098;,
         0.280146; 0.757310; 0.589915;,
        -0.622000; 0.660595;-0.420394;,
        -0.875267; 0.383306;-0.294931;,
        -0.299631; 0.373556; 0.877882;,
        -0.056594; 0.650846; 0.757098;,
        -0.875267; 0.383306;-0.294931;,
        -0.968570; 0.000001;-0.248739;,
        -0.387820; 0.000000; 0.921735;,
        -0.299631; 0.373556; 0.877882;,
        -0.968570; 0.000001;-0.248739;,
        -0.875267;-0.383305;-0.294931;,
        -0.299631;-0.373556; 0.877882;,
        -0.387820; 0.000000; 0.921735;,
        -0.875267;-0.383305;-0.294931;,
        -0.622000;-0.660595;-0.420394;,
        -0.056594;-0.650846; 0.757098;,
        -0.299631;-0.373556; 0.877882;,
        -0.622000;-0.660595;-0.420394;,
        -0.280146;-0.757310;-0.589915;,
         0.280146;-0.757310; 0.589915;,
        -0.056594;-0.650846; 0.757098;,
        -0.280146;-0.757310;-0.589915;,
         0.056593;-0.650845;-0.757098;,
         0.622000;-0.660594; 0.420394;,
         0.280146;-0.757310; 0.589915;,
         0.875267; 0.383305; 0.294932;,
         0.622000; 0.660594; 0.420394;,
         0.280146; 0.757310; 0.589915;,
        -0.056594; 0.650846; 0.757098;,
        -0.299631; 0.373556; 0.877882;,
        -0.387820; 0.000000; 0.921735;,
        -0.299631;-0.373556; 0.877882;,
        -0.056594;-0.650846; 0.757098;,
         0.280146;-0.757310; 0.589915;,
         0.622000;-0.660594; 0.420394;,
         0.875267;-0.383306; 0.294932;,
         0.968571;-0.000000; 0.248738;,
         0.056593;-0.650845;-0.757098;,
         0.299632;-0.373556;-0.877882;,
         0.875267;-0.383306; 0.294932;,
         0.622000;-0.660594; 0.420394;,
         0.299632;-0.373556;-0.877882;,
         0.387820;-0.000000;-0.921735;,
         0.968571;-0.000000; 0.248738;,
         0.875267;-0.383306; 0.294932;,
         0.387820;-0.000000;-0.921735;,
         0.299632;-0.373556;-0.877882;,
         0.056593;-0.650845;-0.757098;,
        -0.280146;-0.757310;-0.589915;,
        -0.622000;-0.660595;-0.420394;,
        -0.875267;-0.383305;-0.294931;,
        -0.968570; 0.000001;-0.248739;,
        -0.875267; 0.383306;-0.294931;,
        -0.622000; 0.660595;-0.420394;,
        -0.280146; 0.757310;-0.589915;,
         0.056594; 0.650845;-0.757098;,
         0.299631; 0.373556;-0.877882;;
        116;
        4;3,2,1,0;,
        4;7,6,5,4;,
        4;11,10,9,8;,
        4;15,14,13,12;,
        4;19,18,17,16;,
        4;23,22,21,20;,
        4;27,26,25,24;,
        4;31,30,29,28;,
        4;35,34,33,32;,
        4;39,38,37,36;,
        4;43,42,41,40;,
        4;47,46,45,44;,
        4;51,50,49,48;,
        12;63,62,61,60,59,58,57,56,55,54,53,52;,
        4;67,66,65,64;,
        4;71,70,69,68;,
        4;75,74,73,72;,
        4;79,78,77,76;,
        4;83,82,81,80;,
        4;87,86,85,84;,
        4;91,90,89,88;,
        4;95,94,93,92;,
        4;99,98,97,96;,
        4;103,102,101,100;,
        4;107,106,105,104;,
        4;111,110,109,108;,
        12;123,122,121,120,119,118,117,116,115,114,113,112;,
        4;127,126,125,124;,
        4;131,130,129,128;,
        4;135,134,133,132;,
        4;139,138,137,136;,
        4;143,142,141,140;,
        4;147,146,145,144;,
        4;151,150,149,148;,
        4;155,154,153,152;,
        4;159,158,157,156;,
        4;163,162,161,160;,
        4;167,166,165,164;,
        4;171,170,169,168;,
        4;175,174,173,172;,
        4;179,178,177,176;,
        4;183,182,181,180;,
        4;187,186,185,184;,
        4;191,190,189,188;,
        4;195,194,193,192;,
        4;199,198,197,196;,
        4;203,202,201,200;,
        4;207,206,205,204;,
        4;211,210,209,208;,
        4;215,214,213,212;,
        4;219,218,217,216;,
        4;223,222,221,220;,
        4;227,226,225,224;,
        4;231,230,229,228;,
        4;235,234,233,232;,
        4;239,238,237,236;,
        4;243,242,241,240;,
        4;247,246,245,244;,
        4;251,250,249,248;,
        4;255,254,253,252;,
        4;259,258,257,256;,
        4;263,262,261,260;,
        4;267,266,265,264;,
        4;271,270,269,268;,
        4;275,274,273,272;,
        4;279,278,277,276;,
        4;283,282,281,280;,
        4;287,286,285,284;,
        4;291,290,289,288;,
        4;295,294,293,292;,
        4;299,298,297,296;,
        4;303,302,301,300;,
        4;307,306,305,304;,
        4;311,310,309,308;,
        4;315,314,313,312;,
        4;319,318,317,316;,
        4;323,322,321,320;,
        4;327,326,325,324;,
        4;331,330,329,328;,
        4;335,334,333,332;,
        4;339,338,337,336;,
        4;343,342,341,340;,
        4;347,346,345,344;,
        4;351,350,349,348;,
        4;355,354,353,352;,
        4;359,358,357,356;,
        4;363,362,361,360;,
        4;367,366,365,364;,
        4;371,370,369,368;,
        4;375,374,373,372;,
        4;379,378,377,376;,
        4;383,382,381,380;,
        4;387,386,385,384;,
        4;391,390,389,388;,
        4;395,394,393,392;,
        4;399,398,397,396;,
        4;403,402,401,400;,
        4;407,406,405,404;,
        4;411,410,409,408;,
        4;415,414,413,412;,
        4;419,418,417,416;,
        4;423,422,421,420;,
        4;427,426,425,424;,
        4;431,430,429,428;,
        4;435,434,433,432;,
        4;439,438,437,436;,
        4;443,442,441,440;,
        4;447,446,445,444;,
        4;451,450,449,448;,
        4;455,454,453,452;,
        4;459,458,457,456;,
        4;463,462,461,460;,
        12;475,474,473,472,471,470,469,468,467,466,465,464;,
        4;479,478,477,476;,
        4;483,482,481,480;,
        12;495,494,493,492,491,490,489,488,487,486,485,484;;
      }
      MeshTextureCoords {
        496;
         0.650805; 0.174194;,
         0.650805; 0.197476;,
         0.560849; 0.197476;,
         0.560849; 0.174194;,
         0.650805; 0.197476;,
         0.650805; 0.220758;,
         0.560849; 0.220758;,
         0.560849; 0.197476;,
         0.650805; 0.220758;,
         0.650805; 0.244040;,
         0.560849; 0.244040;,
         0.560849; 0.220758;,
         0.650805; 0.244040;,
         0.650805; 0.267322;,
         0.560849; 0.267322;,
         0.560849; 0.244040;,
         0.650805; 0.267322;,
         0.650805; 0.290604;,
         0.560849; 0.290604;,
         0.560849; 0.267322;,
         0.650805; 0.290604;,
         0.650805; 0.313886;,
         0.560849; 0.313886;,
         0.560849; 0.290604;,
         0.088914; 0.315997;,
         0.088914; 0.292715;,
         0.178870; 0.292715;,
         0.178870; 0.315997;,
         0.088914; 0.292715;,
         0.088914; 0.269432;,
         0.178870; 0.269432;,
         0.178870; 0.292715;,
         0.088914; 0.269432;,
         0.088914; 0.246150;,
         0.178870; 0.246150;,
         0.178870; 0.269432;,
         0.088914; 0.246150;,
         0.088914; 0.222868;,
         0.178870; 0.222868;,
         0.178870; 0.246150;,
         0.409310; 0.164659;,
         0.544447; 0.164659;,
         0.544447; 0.179545;,
         0.409310; 0.179545;,
         0.088914; 0.222868;,
         0.088914; 0.199586;,
         0.178870; 0.199586;,
         0.178870; 0.222868;,
         0.088914; 0.199586;,
         0.088914; 0.176304;,
         0.178870; 0.176304;,
         0.178870; 0.199586;,
         0.777252; 0.138909;,
         0.800535; 0.138909;,
         0.820698; 0.150550;,
         0.832339; 0.170713;,
         0.832339; 0.193995;,
         0.820698; 0.214158;,
         0.800535; 0.225799;,
         0.777252; 0.225799;,
         0.757090; 0.214158;,
         0.745449; 0.193995;,
         0.745449; 0.170713;,
         0.757090; 0.150550;,
         0.605778; 0.147456;,
         0.604666; 0.164333;,
         0.582541; 0.157083;,
         0.591632; 0.142821;,
         0.591632; 0.142821;,
         0.582541; 0.157083;,
         0.566628; 0.140088;,
         0.581458; 0.131955;,
         0.581458; 0.131955;,
         0.566628; 0.140088;,
         0.560849; 0.117534;,
         0.577763; 0.117534;,
         0.577763; 0.117534;,
         0.560849; 0.117534;,
         0.566628; 0.094981;,
         0.581458; 0.103114;,
         0.581458; 0.103114;,
         0.566628; 0.094981;,
         0.582541; 0.077985;,
         0.591632; 0.092248;,
         0.591632; 0.092248;,
         0.582541; 0.077985;,
         0.604666; 0.070736;,
         0.605778; 0.087613;,
         0.133843; 0.149566;,
         0.132731; 0.166443;,
         0.110606; 0.159194;,
         0.119696; 0.144931;,
         0.119696; 0.144931;,
         0.110606; 0.159194;,
         0.094693; 0.142198;,
         0.109522; 0.134065;,
         0.109522; 0.134065;,
         0.094693; 0.142198;,
         0.088914; 0.119645;,
         0.105827; 0.119645;,
         0.105827; 0.119645;,
         0.088914; 0.119645;,
         0.094693; 0.097091;,
         0.109522; 0.105224;,
         0.109522; 0.105224;,
         0.094693; 0.097091;,
         0.110606; 0.080096;,
         0.119696; 0.094358;,
         0.119696; 0.094358;,
         0.110606; 0.080096;,
         0.132731; 0.072846;,
         0.133843; 0.089723;,
         0.780669; 0.073493;,
         0.793561; 0.080936;,
         0.801004; 0.093827;,
         0.801004; 0.108713;,
         0.793561; 0.121605;,
         0.780669; 0.129048;,
         0.765783; 0.129048;,
         0.752892; 0.121605;,
         0.745449; 0.108713;,
         0.745449; 0.093827;,
         0.752891; 0.080936;,
         0.765783; 0.073493;,
         0.409310; 0.219178;,
         0.544447; 0.219178;,
         0.544447; 0.234064;,
         0.409310; 0.234064;,
         0.409310; 0.105115;,
         0.544447; 0.105115;,
         0.544447; 0.120001;,
         0.409310; 0.120001;,
         0.409310; 0.263836;,
         0.544447; 0.263836;,
         0.544447; 0.278722;,
         0.409310; 0.278722;,
         0.409310; 0.149773;,
         0.544447; 0.149773;,
         0.544447; 0.164659;,
         0.409310; 0.164659;,
         0.409310; 0.204292;,
         0.544447; 0.204292;,
         0.544447; 0.219178;,
         0.409310; 0.219178;,
         0.409310; 0.090228;,
         0.544447; 0.090229;,
         0.544447; 0.105115;,
         0.409310; 0.105115;,
         0.409310; 0.248950;,
         0.544447; 0.248950;,
         0.544447; 0.263836;,
         0.409310; 0.263836;,
         0.409310; 0.134887;,
         0.544447; 0.134887;,
         0.544447; 0.149773;,
         0.409310; 0.149773;,
         0.409310; 0.189406;,
         0.544447; 0.189406;,
         0.544447; 0.204292;,
         0.409310; 0.204292;,
         0.409310; 0.234064;,
         0.544447; 0.234064;,
         0.544447; 0.248950;,
         0.409310; 0.248950;,
         0.409310; 0.120001;,
         0.544447; 0.120001;,
         0.544447; 0.134887;,
         0.409310; 0.134887;,
         0.660666; 0.137327;,
         0.665993; 0.082036;,
         0.700792; 0.096560;,
         0.694788; 0.143686;,
         0.360800; 0.908486;,
         0.349685; 0.995070;,
         0.285502; 0.983727;,
         0.315290; 0.900443;,
         0.240700; 0.152952;,
         0.282809; 0.144830;,
         0.282809; 0.218130;,
         0.240700; 0.218130;,
         0.555133; 0.411606;,
         0.550685; 0.323749;,
         0.595815; 0.324382;,
         0.594305; 0.414571;,
         0.013250; 0.146223;,
         0.004930; 0.058165;,
         0.047024; 0.059288;,
         0.047024; 0.145867;,
         0.728940; 0.035021;,
         0.728940; 0.071359;,
         0.666567; 0.072175;,
         0.660666; 0.034932;,
         0.735588; 0.593563;,
         0.669442; 0.618509;,
         0.660666; 0.498940;,
         0.712116; 0.498815;,
         0.747643; 0.447175;,
         0.783699; 0.235660;,
         0.816638; 0.250225;,
         0.777668; 0.497834;,
         0.595815; 0.951464;,
         0.591262; 0.995070;,
         0.556283; 0.969253;,
         0.560434; 0.927929;,
         0.004930; 0.397334;,
         0.006848; 0.350985;,
         0.086970; 0.325858;,
         0.077610; 0.368690;,
         0.860144; 0.944898;,
         0.860144; 0.995070;,
         0.826499; 0.992097;,
         0.826499; 0.941926;,
         0.873942; 0.053649;,
         0.870005; 0.014072;,
         0.910814; 0.010525;,
         0.910814; 0.069227;,
         0.919371; 0.781152;,
         0.924934; 0.612301;,
         0.958801; 0.635344;,
         0.955005; 0.784015;,
         0.330105; 0.314577;,
         0.332878; 0.063936;,
         0.375256; 0.039838;,
         0.368915; 0.293312;,
         0.860144; 0.474691;,
         0.860144; 0.944898;,
         0.826499; 0.941926;,
         0.826499; 0.471719;,
         0.029846; 0.899452;,
         0.004930; 0.397334;,
         0.077610; 0.368690;,
         0.075653; 0.905581;,
         0.594305; 0.414571;,
         0.595815; 0.951464;,
         0.560434; 0.927929;,
         0.555133; 0.411606;,
         0.337167; 0.349674;,
         0.330105; 0.314577;,
         0.368915; 0.293312;,
         0.375256; 0.328718;,
         0.913511; 0.869388;,
         0.919371; 0.781152;,
         0.955005; 0.784015;,
         0.949487; 0.868504;,
         0.745449; 0.480812;,
         0.747643; 0.447175;,
         0.777668; 0.497834;,
         0.783989; 0.533072;,
         0.315290; 0.900443;,
         0.283128; 0.431338;,
         0.356943; 0.405764;,
         0.360800; 0.908486;,
         0.283128; 0.431338;,
         0.279696; 0.381284;,
         0.360800; 0.359536;,
         0.356943; 0.405764;,
         0.222560; 0.259755;,
         0.257887; 0.227991;,
         0.320244; 0.229612;,
         0.320244; 0.300305;,
         0.913511; 0.869388;,
         0.949487; 0.868504;,
         0.958801; 0.988032;,
         0.923151; 0.995070;,
         0.240700; 0.087775;,
         0.282809; 0.071529;,
         0.282809; 0.144830;,
         0.240700; 0.152952;,
         0.075653; 0.905581;,
         0.086970; 0.995070;,
         0.022368; 0.986426;,
         0.029846; 0.899452;,
         0.188731; 0.349674;,
         0.222560; 0.259755;,
         0.320244; 0.300305;,
         0.272291; 0.341395;,
         0.660666; 0.498940;,
         0.679278; 0.416342;,
         0.712288; 0.465107;,
         0.712116; 0.498815;,
         0.854866; 0.093033;,
         0.854866; 0.129048;,
         0.814854; 0.127930;,
         0.810865; 0.072045;,
         0.679278; 0.416342;,
         0.699739; 0.269037;,
         0.735588; 0.251810;,
         0.712288; 0.465107;,
         0.816638; 0.610434;,
         0.763192; 0.576798;,
         0.745449; 0.480812;,
         0.783989; 0.533072;,
         0.667100; 0.241949;,
         0.660666; 0.137327;,
         0.694788; 0.143686;,
         0.700792; 0.239571;,
         0.004930; 0.260706;,
         0.039052; 0.254347;,
         0.045057; 0.301473;,
         0.010258; 0.315997;,
         0.269835; 0.446118;,
         0.224325; 0.454161;,
         0.194538; 0.370877;,
         0.258720; 0.359535;,
         0.230839; 0.152952;,
         0.230839; 0.218130;,
         0.188731; 0.218130;,
         0.188731; 0.144830;,
         0.610124; 0.907213;,
         0.649295; 0.904249;,
         0.650805; 0.994436;,
         0.605676; 0.995070;,
         0.921830; 0.514381;,
         0.955605; 0.514738;,
         0.955605; 0.601317;,
         0.913511; 0.602440;,
         0.477584; 0.080279;,
         0.409310; 0.080367;,
         0.415212; 0.043124;,
         0.477584; 0.043940;,
         0.735588; 0.653316;,
         0.712116; 0.748064;,
         0.660666; 0.747939;,
         0.669442; 0.628370;,
         0.747643; 0.783554;,
         0.777668; 0.732896;,
         0.816638; 0.980504;,
         0.783699; 0.995070;,
         0.650805; 0.367353;,
         0.615425; 0.390888;,
         0.611273; 0.349564;,
         0.646252; 0.323747;,
         0.096831; 0.923594;,
         0.169510; 0.952238;,
         0.178870; 0.995070;,
         0.098748; 0.969942;,
         0.903650; 0.521888;,
         0.870005; 0.524861;,
         0.870005; 0.474690;,
         0.903650; 0.471717;,
         0.749385; 0.020508;,
         0.786258; 0.004930;,
         0.786258; 0.063632;,
         0.745449; 0.060085;,
         0.875865; 0.293005;,
         0.911499; 0.290142;,
         0.915295; 0.438813;,
         0.881428; 0.461856;,
         0.925156; 0.187118;,
         0.963965; 0.208382;,
         0.970307; 0.461856;,
         0.927929; 0.437759;,
         0.903650; 0.992097;,
         0.870005; 0.995070;,
         0.870005; 0.524861;,
         0.903650; 0.521888;,
         0.121745; 0.421476;,
         0.167553; 0.415347;,
         0.169510; 0.952238;,
         0.096831; 0.923594;,
         0.649295; 0.904249;,
         0.610124; 0.907213;,
         0.615425; 0.390888;,
         0.650805; 0.367353;,
         0.932217; 0.152020;,
         0.970307; 0.172977;,
         0.963965; 0.208382;,
         0.925156; 0.187118;,
         0.870005; 0.204769;,
         0.905982; 0.205653;,
         0.911499; 0.290142;,
         0.875865; 0.293005;,
         0.745449; 0.749918;,
         0.783989; 0.697657;,
         0.777668; 0.732896;,
         0.747643; 0.783554;,
         0.224325; 0.454161;,
         0.269835; 0.446118;,
         0.265978; 0.948842;,
         0.192162; 0.923267;,
         0.192162; 0.923267;,
         0.265978; 0.948842;,
         0.269835; 0.995070;,
         0.188731; 0.973321;,
         0.443140; 0.378503;,
         0.540824; 0.337952;,
         0.540824; 0.408646;,
         0.478467; 0.410267;,
         0.870005; 0.204769;,
         0.879645; 0.079088;,
         0.915295; 0.086125;,
         0.905982; 0.205653;,
         0.230839; 0.087775;,
         0.230839; 0.152952;,
         0.188731; 0.144830;,
         0.188731; 0.071529;,
         0.167553; 0.415347;,
         0.121745; 0.421476;,
         0.114267; 0.334502;,
         0.178870; 0.325858;,
         0.409310; 0.288583;,
         0.492871; 0.296863;,
         0.540824; 0.337952;,
         0.443140; 0.378503;,
         0.660666; 0.747939;,
         0.712116; 0.748064;,
         0.712288; 0.781772;,
         0.679278; 0.830537;,
         0.969157; 0.121171;,
         0.925156; 0.142159;,
         0.929145; 0.086274;,
         0.969157; 0.085156;,
         0.679278; 0.830537;,
         0.712288; 0.781772;,
         0.735588; 0.995070;,
         0.699739; 0.977843;,
         0.816638; 0.620295;,
         0.783989; 0.697657;,
         0.745449; 0.749918;,
         0.763192; 0.653932;,
         0.011364; 0.156084;,
         0.045057; 0.158462;,
         0.039052; 0.254347;,
         0.004930; 0.260706;,
         0.540824; 0.992114;,
         0.527455; 0.992312;,
         0.527455; 0.420326;,
         0.540824; 0.420128;,
         0.527455; 0.992312;,
         0.514097; 0.992853;,
         0.514097; 0.420866;,
         0.527455; 0.420326;,
         0.514097; 0.992853;,
         0.500749; 0.993592;,
         0.500749; 0.421605;,
         0.514097; 0.420866;,
         0.500749; 0.993592;,
         0.487402; 0.994331;,
         0.487402; 0.422344;,
         0.500749; 0.421605;,
         0.487402; 0.994331;,
         0.474043; 0.994871;,
         0.474043; 0.422885;,
         0.487402; 0.422344;,
         0.474043; 0.994871;,
         0.460674; 0.995070;,
         0.460674; 0.423083;,
         0.474043; 0.422885;,
         0.450813; 0.995070;,
         0.437444; 0.994872;,
         0.437445; 0.422890;,
         0.450813; 0.423088;,
         0.437444; 0.994872;,
         0.424086; 0.994331;,
         0.424086; 0.422349;,
         0.437445; 0.422890;,
         0.424086; 0.994331;,
         0.410739; 0.993592;,
         0.410737; 0.421610;,
         0.424086; 0.422349;,
         0.410739; 0.993592;,
         0.397391; 0.992853;,
         0.397388; 0.420872;,
         0.410737; 0.421610;,
         0.956788; 0.025400;,
         0.968367; 0.032085;,
         0.975052; 0.043663;,
         0.975052; 0.057032;,
         0.968367; 0.068611;,
         0.956788; 0.075295;,
         0.943419; 0.075295;,
         0.931841; 0.068611;,
         0.925156; 0.057032;,
         0.925156; 0.043663;,
         0.931841; 0.032085;,
         0.943419; 0.025400;,
         0.397391; 0.992853;,
         0.384033; 0.992312;,
         0.384029; 0.420331;,
         0.397388; 0.420872;,
         0.384033; 0.992312;,
         0.370664; 0.992114;,
         0.370661; 0.420133;,
         0.384029; 0.420331;,
         0.494130; 0.037157;,
         0.505708; 0.030472;,
         0.519078; 0.030472;,
         0.530656; 0.037157;,
         0.537341; 0.048735;,
         0.537341; 0.062104;,
         0.530656; 0.073683;,
         0.519078; 0.080367;,
         0.505708; 0.080367;,
         0.494130; 0.073683;,
         0.487445; 0.062104;,
         0.487445; 0.048735;;
      }
      MeshMaterialList {
        1;
        116;
        0,
        0,
        0,
        0,
        0,
        0,
        0,
        0,
        0,
        0,
        0,
        0,
        0,
        0,
        0,
        0,
        0,
        0,
        0,
        0,
        0,
        0,
        0,
        0,
        0,
        0,
        0,
        0,
        0,
        0,
        0,
        0,
        0,
        0,
        0,
        0,
        0,
        0,
        0,
        0,
        0,
        0,
        0,
        0,
        0,
        0,
        0,
        0,
        0,
        0,
        0,
        0,
        0,
        0,
        0,
        0,
        0,
        0,
        0,
        0,
        0,
        0,
        0,
        0,
        0,
        0,
        0,
        0,
        0,
        0,
        0,
        0,
        0,
        0,
        0,
        0,
        0,
        0,
        0,
        0,
        0,
        0,
        0,
        0,
        0,
        0,
        0,
        0,
        0,
        0,
        0,
        0,
        0,
        0,
        0,
        0,
        0,
        0,
        0,
        0,
        0,
        0,
        0,
        0,
        0,
        0,
        0,
        0,
        0,
        0,
        0,
        0,
        0,
        0,
        0,
        0;
        Material Material_002 {
           0.800000; 0.800000; 0.800000; 1.000000;;
           323.999994;
           0.500000; 0.500000; 0.500000;;
           0.000000; 0.000000; 0.000000;;
        }
      }
    }
  }
}
