xof 0303txt 0032

Frame Root {
  FrameTransformMatrix {
     1.000000, 0.000000, 0.000000, 0.000000,
     0.000000,-0.000000, 1.000000, 0.000000,
     0.000000, 1.000000, 0.000000, 0.000000,
     0.000000, 0.000000, 0.000000, 1.000000;;
  }
  Frame Cube_Cube_001 {
    FrameTransformMatrix {
       1.000000, 0.000000, 0.000000, 0.000000,
       0.000000, 1.000000, 0.000000, 0.000000,
       0.000000, 0.000000, 1.000000, 0.000000,
       0.000000, 0.000000, 0.000000, 1.000000;;
    }
    Mesh {
      728;
      -0.006217;-0.001193;-0.097445;,
      -0.005804; 0.011150;-0.095550;,
      -0.029922; 0.010031;-0.091379;,
      -0.030452;-0.000000;-0.092724;,
      -0.018085; 0.015414;-0.011890;,
      -0.018741; 0.014511;-0.006869;,
      -0.028510; 0.014613;-0.011996;,
      -0.028707; 0.014613;-0.016436;,
      -0.018741; 0.014511;-0.006869;,
      -0.020656;-0.000000;-0.006869;,
      -0.029092;-0.000000;-0.011996;,
      -0.028510; 0.014613;-0.011996;,
       0.077617; 0.000000;-0.074662;,
       0.081896; 0.000000;-0.073693;,
       0.081896; 0.007402;-0.072019;,
       0.075809; 0.007402;-0.072988;,
      -0.028707; 0.014613;-0.016436;,
      -0.028510; 0.014613;-0.011996;,
      -0.029092;-0.000000;-0.011996;,
      -0.029045;-0.000000;-0.012295;,
       0.070802; 0.000000;-0.037366;,
       0.063726; 0.000000;-0.031677;,
       0.063750; 0.008303;-0.031677;,
       0.070599; 0.008983;-0.036863;,
       0.064880; 0.010187;-0.037896;,
       0.070599; 0.008983;-0.036863;,
       0.063750; 0.008303;-0.031677;,
       0.057891; 0.008174;-0.032719;,
       0.062285; 0.000000;-0.013028;,
       0.068243; 0.000000; 0.125543;,
       0.064548; 0.008303; 0.124649;,
       0.061895; 0.008303;-0.013127;,
       0.057304; 0.012775; 0.124081;,
       0.064548; 0.008303; 0.124649;,
       0.068243; 0.000000; 0.125543;,
       0.064505; 0.000000; 0.124925;,
      -0.015411; 0.008687; 0.012480;,
      -0.017676; 0.012775; 0.116388;,
      -0.021130;-0.000000; 0.116388;,
      -0.018866;-0.000000; 0.012480;,
       0.018970; 0.009284; 0.002505;,
       0.008488; 0.009390; 0.005910;,
       0.001416; 0.009699; 0.015644;,
       0.001416; 0.010016; 0.027675;,
       0.008488; 0.010219; 0.037409;,
       0.019931; 0.010369; 0.041127;,
       0.023081; 0.010352; 0.040104;,
       0.017743; 0.011076; 0.055120;,
       0.007118; 0.011129; 0.058573;,
       0.000046; 0.011374; 0.068306;,
       0.000046; 0.011710; 0.080338;,
       0.007118; 0.012011; 0.090072;,
       0.018560; 0.012160; 0.093789;,
       0.021855; 0.012144; 0.092719;,
       0.024281; 0.012775; 0.114917;,
      -0.017676; 0.012775; 0.116388;,
      -0.015411; 0.008687; 0.012480;,
       0.033344; 0.008687;-0.022421;,
       0.075809; 0.007402;-0.072988;,
       0.081896; 0.007402;-0.072019;,
       0.079567; 0.012775;-0.065727;,
       0.074624; 0.012775;-0.066701;,
       0.081896; 0.000000;-0.073693;,
       0.081035; 0.000000;-0.069030;,
       0.079567; 0.012775;-0.065727;,
       0.081896; 0.007402;-0.072019;,
      -0.029922; 0.010031;-0.091379;,
      -0.030331; 0.014345;-0.086389;,
      -0.029657;-0.000000;-0.089446;,
      -0.030452;-0.000000;-0.092724;,
      -0.005804; 0.011150;-0.095550;,
      -0.006095; 0.017230;-0.088528;,
      -0.030331; 0.014345;-0.086389;,
      -0.029922; 0.010031;-0.091379;,
       0.051059; 0.007402;-0.081116;,
       0.075809; 0.007402;-0.072988;,
       0.074624; 0.012775;-0.066701;,
       0.049218; 0.012775;-0.074876;,
       0.061895; 0.008303;-0.013127;,
       0.064548; 0.008303; 0.124649;,
       0.057304; 0.012775; 0.124081;,
       0.055882; 0.008687;-0.014116;,
       0.024281; 0.012775; 0.114917;,
       0.057304; 0.012775; 0.124081;,
       0.064505; 0.000000; 0.124925;,
       0.026155; 0.000000; 0.115339;,
       0.039521; 0.010187;-0.046555;,
       0.064880; 0.010187;-0.037896;,
       0.057891; 0.008174;-0.032719;,
       0.037778; 0.008174;-0.041467;,
       0.051963; 0.000000;-0.082791;,
       0.077617; 0.000000;-0.074662;,
       0.075809; 0.007402;-0.072988;,
       0.051059; 0.007402;-0.081116;,
       0.049218; 0.012775;-0.074876;,
       0.074624; 0.012775;-0.066701;,
       0.064880; 0.010187;-0.037896;,
       0.039521; 0.010187;-0.046555;,
       0.074624; 0.012775;-0.066701;,
       0.079567; 0.012775;-0.065727;,
       0.070599; 0.008983;-0.036863;,
       0.064880; 0.010187;-0.037896;,
       0.081035; 0.000000;-0.069030;,
       0.070802; 0.000000;-0.037366;,
       0.070599; 0.008983;-0.036863;,
       0.079567; 0.012775;-0.065727;,
      -0.030342; 0.010416;-0.085293;,
      -0.036887; 0.010436;-0.083584;,
      -0.036215;-0.000000;-0.083727;,
      -0.029662;-0.000000;-0.085437;,
      -0.006095; 0.017230;-0.088528;,
      -0.018085; 0.015414;-0.011890;,
      -0.028707; 0.014613;-0.016436;,
      -0.030331; 0.014345;-0.086389;,
       0.063750; 0.008303;-0.031677;,
       0.061895; 0.008303;-0.013127;,
       0.055882; 0.008687;-0.014116;,
       0.057891; 0.008174;-0.032719;,
       0.037778; 0.008174;-0.041467;,
       0.033344; 0.008687;-0.022421;,
      -0.015411; 0.008687; 0.012480;,
      -0.006912; 0.011976;-0.007010;,
      -0.006912; 0.011976;-0.007010;,
      -0.015411; 0.008687; 0.012480;,
      -0.018866;-0.000000; 0.012480;,
      -0.010366;-0.000000;-0.007010;,
       0.063726; 0.000000;-0.031677;,
       0.062285; 0.000000;-0.013028;,
       0.061895; 0.008303;-0.013127;,
       0.063750; 0.008303;-0.031677;,
       0.057891; 0.008174;-0.032719;,
       0.055882; 0.008687;-0.014116;,
       0.033344; 0.008687;-0.022421;,
       0.037778; 0.008174;-0.041467;,
       0.023812; 0.014338;-0.089157;,
       0.049218; 0.012775;-0.074876;,
       0.039521; 0.010187;-0.046555;,
      -0.005177; 0.013989;-0.012010;,
       0.026308; 0.000000;-0.097027;,
       0.051963; 0.000000;-0.082791;,
       0.051059; 0.007402;-0.081116;,
       0.026308; 0.008967;-0.095351;,
      -0.005177; 0.013989;-0.012010;,
       0.039521; 0.010187;-0.046555;,
       0.037778; 0.008174;-0.041467;,
      -0.006912; 0.011976;-0.007010;,
      -0.017676; 0.012775; 0.116388;,
       0.024281; 0.012775; 0.114917;,
       0.026155; 0.000000; 0.115339;,
      -0.021130;-0.000000; 0.116388;,
       0.026308; 0.008967;-0.095351;,
       0.051059; 0.007402;-0.081116;,
       0.049218; 0.012775;-0.074876;,
       0.023812; 0.014338;-0.089157;,
       0.017743; 0.011076; 0.055120;,
       0.023081; 0.010352; 0.040104;,
       0.031374; 0.010202; 0.037409;,
       0.038445; 0.009859; 0.027675;,
       0.038445; 0.009503; 0.015644;,
       0.031374; 0.009279; 0.005910;,
       0.019931; 0.009266; 0.002192;,
       0.018970; 0.009284; 0.002505;,
       0.033344; 0.008687;-0.022421;,
       0.055882; 0.008687;-0.014116;,
       0.057304; 0.012775; 0.124081;,
       0.024281; 0.012775; 0.114917;,
       0.021855; 0.012144; 0.092719;,
       0.030003; 0.011997; 0.090072;,
       0.037075; 0.011653; 0.080338;,
       0.037075; 0.011299; 0.068306;,
       0.030003; 0.011069; 0.058573;,
       0.018560; 0.011061; 0.054854;,
       0.018560; 0.011061; 0.054854;,
       0.030003; 0.011069; 0.058573;,
       0.030003; 0.000000; 0.058573;,
       0.018919; 0.000000; 0.054971;,
       0.018560; 0.000000; 0.054854;,
       0.030003; 0.000000; 0.058573;,
       0.030003; 0.011069; 0.058573;,
       0.037075; 0.011299; 0.068306;,
       0.037075; 0.000000; 0.068306;,
       0.037075; 0.000000; 0.068306;,
       0.037075; 0.011299; 0.068306;,
       0.037075; 0.011653; 0.080338;,
       0.037075; 0.000000; 0.080338;,
       0.037075; 0.000000; 0.080338;,
       0.037075; 0.011653; 0.080338;,
       0.030003; 0.011997; 0.090072;,
       0.030003; 0.000000; 0.090072;,
       0.023384; 0.000000; 0.092221;,
       0.030003; 0.000000; 0.090072;,
       0.030003; 0.011997; 0.090072;,
       0.021855; 0.012144; 0.092719;,
       0.018560; 0.012160; 0.093789;,
       0.018560; 0.000000; 0.093789;,
       0.007118; 0.012011; 0.090072;,
       0.007118; 0.000000; 0.090072;,
       0.018560; 0.000000; 0.093789;,
       0.018560; 0.012160; 0.093789;,
       0.000046; 0.011710; 0.080338;,
       0.000046;-0.000000; 0.080338;,
       0.007118; 0.000000; 0.090072;,
       0.007118; 0.012011; 0.090072;,
       0.000046; 0.011374; 0.068306;,
       0.000046;-0.000000; 0.068306;,
       0.000046;-0.000000; 0.080338;,
       0.000046; 0.011710; 0.080338;,
       0.007118; 0.011129; 0.058573;,
       0.007118; 0.000000; 0.058573;,
       0.000046;-0.000000; 0.068306;,
       0.000046; 0.011374; 0.068306;,
       0.018560; 0.000000; 0.054854;,
       0.007118; 0.000000; 0.058573;,
       0.007118; 0.011129; 0.058573;,
       0.017743; 0.011076; 0.055120;,
       0.018560; 0.011061; 0.054854;,
       0.019931; 0.009266; 0.002192;,
       0.031374; 0.009279; 0.005910;,
       0.031374; 0.000000; 0.005910;,
       0.019931; 0.000000; 0.002192;,
       0.031374; 0.000000; 0.005910;,
       0.031374; 0.009279; 0.005910;,
       0.038445; 0.009503; 0.015644;,
       0.038445; 0.000000; 0.015644;,
       0.038445; 0.000000; 0.015644;,
       0.038445; 0.009503; 0.015644;,
       0.038445; 0.009859; 0.027675;,
       0.038445; 0.000000; 0.027675;,
       0.038445; 0.000000; 0.027675;,
       0.038445; 0.009859; 0.027675;,
       0.031374; 0.010202; 0.037409;,
       0.031374; 0.000000; 0.037409;,
       0.031374; 0.000000; 0.037409;,
       0.031374; 0.010202; 0.037409;,
       0.023081; 0.010352; 0.040104;,
       0.019931; 0.010369; 0.041127;,
       0.019931; 0.000000; 0.041127;,
       0.023972; 0.000000; 0.039814;,
       0.008488; 0.010219; 0.037409;,
       0.008488; 0.000000; 0.037409;,
       0.019931; 0.000000; 0.041127;,
       0.019931; 0.010369; 0.041127;,
       0.001416; 0.010016; 0.027675;,
       0.001416;-0.000000; 0.027675;,
       0.008488; 0.000000; 0.037409;,
       0.008488; 0.010219; 0.037409;,
       0.001416; 0.009699; 0.015644;,
       0.001416;-0.000000; 0.015644;,
       0.001416;-0.000000; 0.027675;,
       0.001416; 0.010016; 0.027675;,
       0.008488; 0.009390; 0.005910;,
       0.008488; 0.000000; 0.005910;,
       0.001416;-0.000000; 0.015644;,
       0.001416; 0.009699; 0.015644;,
       0.018970; 0.009284; 0.002505;,
       0.019931; 0.009266; 0.002192;,
       0.019931; 0.000000; 0.002192;,
       0.019480; 0.000000; 0.002339;,
       0.008488; 0.000000; 0.005910;,
       0.008488; 0.009390; 0.005910;,
      -0.030342; 0.010416;-0.085293;,
      -0.030331; 0.014345;-0.086389;,
      -0.028707; 0.014613;-0.016436;,
      -0.028621; 0.009625;-0.015864;,
      -0.028621; 0.009625;-0.015864;,
      -0.028707; 0.014613;-0.016436;,
      -0.029045;-0.000000;-0.012295;,
      -0.029157;-0.000000;-0.016077;,
      -0.029662;-0.000000;-0.085437;,
      -0.029657;-0.000000;-0.089446;,
      -0.030331; 0.014345;-0.086389;,
      -0.030342; 0.010416;-0.085293;,
      -0.036887; 0.010436;-0.083584;,
      -0.035237; 0.009336;-0.017369;,
      -0.035749;-0.000000;-0.017572;,
      -0.036215;-0.000000;-0.083727;,
      -0.028621; 0.009625;-0.015864;,
      -0.035237; 0.009336;-0.017369;,
      -0.036887; 0.010436;-0.083584;,
      -0.030342; 0.010416;-0.085293;,
      -0.029157;-0.000000;-0.016077;,
      -0.035749;-0.000000;-0.017572;,
      -0.035237; 0.009336;-0.017369;,
      -0.028621; 0.009625;-0.015864;,
      -0.006217;-0.001193;-0.097445;,
      -0.030452;-0.000000;-0.092724;,
      -0.029922;-0.010031;-0.091379;,
      -0.004686;-0.010907;-0.095351;,
      -0.018085;-0.015414;-0.011890;,
      -0.028707;-0.014613;-0.016436;,
      -0.028510;-0.014613;-0.011996;,
      -0.018741;-0.014511;-0.006869;,
      -0.018741;-0.014511;-0.006869;,
      -0.028510;-0.014613;-0.011996;,
      -0.029092;-0.000000;-0.011996;,
      -0.020656;-0.000000;-0.006869;,
       0.077617; 0.000000;-0.074662;,
       0.075809;-0.007402;-0.072988;,
       0.081896;-0.007402;-0.072019;,
       0.081896; 0.000000;-0.073693;,
      -0.028707;-0.014613;-0.016436;,
      -0.029045;-0.000000;-0.012295;,
      -0.029092;-0.000000;-0.011996;,
      -0.028510;-0.014613;-0.011996;,
       0.070802; 0.000000;-0.037366;,
       0.070599;-0.008983;-0.036863;,
       0.063750;-0.008303;-0.031677;,
       0.063726; 0.000000;-0.031677;,
       0.064880;-0.010187;-0.037896;,
       0.057891;-0.008174;-0.032719;,
       0.063750;-0.008303;-0.031677;,
       0.070599;-0.008983;-0.036863;,
       0.062285; 0.000000;-0.013028;,
       0.061895;-0.008303;-0.013127;,
       0.064548;-0.008303; 0.124649;,
       0.068243; 0.000000; 0.125543;,
       0.057304;-0.012775; 0.124081;,
       0.064505; 0.000000; 0.124925;,
       0.068243; 0.000000; 0.125543;,
       0.064548;-0.008303; 0.124649;,
      -0.015411;-0.008687; 0.012480;,
      -0.018866;-0.000000; 0.012480;,
      -0.021130;-0.000000; 0.116388;,
      -0.017676;-0.012775; 0.116388;,
       0.018970;-0.009284; 0.002505;,
       0.033344;-0.008687;-0.022421;,
      -0.015411;-0.008687; 0.012480;,
      -0.017676;-0.012775; 0.116388;,
       0.024281;-0.012775; 0.114917;,
       0.021855;-0.012144; 0.092719;,
       0.018560;-0.012160; 0.093789;,
       0.007118;-0.012011; 0.090072;,
       0.000046;-0.011710; 0.080338;,
       0.000046;-0.011374; 0.068306;,
       0.007118;-0.011129; 0.058573;,
       0.017743;-0.011076; 0.055120;,
       0.023081;-0.010352; 0.040104;,
       0.019931;-0.010369; 0.041127;,
       0.008488;-0.010219; 0.037409;,
       0.001416;-0.010016; 0.027675;,
       0.001416;-0.009699; 0.015644;,
       0.008488;-0.009390; 0.005910;,
       0.075809;-0.007402;-0.072988;,
       0.074624;-0.012775;-0.066701;,
       0.079567;-0.012775;-0.065727;,
       0.081896;-0.007402;-0.072019;,
       0.081896; 0.000000;-0.073693;,
       0.081896;-0.007402;-0.072019;,
       0.079567;-0.012775;-0.065727;,
       0.081035; 0.000000;-0.069030;,
      -0.029922;-0.010031;-0.091379;,
      -0.030452;-0.000000;-0.092724;,
      -0.029657;-0.000000;-0.089446;,
      -0.030331;-0.014345;-0.086389;,
      -0.004686;-0.010907;-0.095351;,
      -0.029922;-0.010031;-0.091379;,
      -0.030331;-0.014345;-0.086389;,
      -0.006088;-0.016280;-0.089146;,
       0.051059;-0.007402;-0.081116;,
       0.049218;-0.012775;-0.074876;,
       0.074624;-0.012775;-0.066701;,
       0.075809;-0.007402;-0.072988;,
       0.061895;-0.008303;-0.013127;,
       0.055882;-0.008687;-0.014116;,
       0.057304;-0.012775; 0.124081;,
       0.064548;-0.008303; 0.124649;,
       0.024281;-0.012775; 0.114917;,
       0.026155; 0.000000; 0.115339;,
       0.064505; 0.000000; 0.124925;,
       0.057304;-0.012775; 0.124081;,
       0.039521;-0.010187;-0.046555;,
       0.037778;-0.008174;-0.041467;,
       0.057891;-0.008174;-0.032719;,
       0.064880;-0.010187;-0.037896;,
       0.051963; 0.000000;-0.082791;,
       0.051059;-0.007402;-0.081116;,
       0.075809;-0.007402;-0.072988;,
       0.077617; 0.000000;-0.074662;,
       0.049218;-0.012775;-0.074876;,
       0.039521;-0.010187;-0.046555;,
       0.064880;-0.010187;-0.037896;,
       0.074624;-0.012775;-0.066701;,
       0.074624;-0.012775;-0.066701;,
       0.064880;-0.010187;-0.037896;,
       0.070599;-0.008983;-0.036863;,
       0.079567;-0.012775;-0.065727;,
       0.081035; 0.000000;-0.069030;,
       0.079567;-0.012775;-0.065727;,
       0.070599;-0.008983;-0.036863;,
       0.070802; 0.000000;-0.037366;,
      -0.030342;-0.010416;-0.085293;,
      -0.029662;-0.000000;-0.085437;,
      -0.036215;-0.000000;-0.083727;,
      -0.036887;-0.010436;-0.083584;,
      -0.006088;-0.016280;-0.089146;,
      -0.030331;-0.014345;-0.086389;,
      -0.028707;-0.014613;-0.016436;,
      -0.018085;-0.015414;-0.011890;,
       0.063750;-0.008303;-0.031677;,
       0.057891;-0.008174;-0.032719;,
       0.055882;-0.008687;-0.014116;,
       0.061895;-0.008303;-0.013127;,
       0.037778;-0.008174;-0.041467;,
      -0.006912;-0.011976;-0.007010;,
      -0.015411;-0.008687; 0.012480;,
       0.033344;-0.008687;-0.022421;,
      -0.006912;-0.011976;-0.007010;,
      -0.010366;-0.000000;-0.007010;,
      -0.018866;-0.000000; 0.012480;,
      -0.015411;-0.008687; 0.012480;,
       0.063726; 0.000000;-0.031677;,
       0.063750;-0.008303;-0.031677;,
       0.061895;-0.008303;-0.013127;,
       0.062285; 0.000000;-0.013028;,
       0.057891;-0.008174;-0.032719;,
       0.037778;-0.008174;-0.041467;,
       0.033344;-0.008687;-0.022421;,
       0.055882;-0.008687;-0.014116;,
       0.023812;-0.014338;-0.089157;,
      -0.005177;-0.013989;-0.012010;,
       0.039521;-0.010187;-0.046555;,
       0.049218;-0.012775;-0.074876;,
       0.026308; 0.000000;-0.097027;,
       0.026308;-0.008967;-0.095351;,
       0.051059;-0.007402;-0.081116;,
       0.051963; 0.000000;-0.082791;,
      -0.005177;-0.013989;-0.012010;,
      -0.006912;-0.011976;-0.007010;,
       0.037778;-0.008174;-0.041467;,
       0.039521;-0.010187;-0.046555;,
      -0.017676;-0.012775; 0.116388;,
      -0.021130;-0.000000; 0.116388;,
       0.026155; 0.000000; 0.115339;,
       0.024281;-0.012775; 0.114917;,
       0.026308;-0.008967;-0.095351;,
       0.023812;-0.014338;-0.089157;,
       0.049218;-0.012775;-0.074876;,
       0.051059;-0.007402;-0.081116;,
       0.017743;-0.011076; 0.055120;,
       0.018560;-0.011061; 0.054854;,
       0.030003;-0.011069; 0.058573;,
       0.037075;-0.011299; 0.068306;,
       0.037075;-0.011653; 0.080338;,
       0.030003;-0.011997; 0.090072;,
       0.021855;-0.012144; 0.092719;,
       0.024281;-0.012775; 0.114917;,
       0.057304;-0.012775; 0.124081;,
       0.055882;-0.008687;-0.014116;,
       0.033344;-0.008687;-0.022421;,
       0.018970;-0.009284; 0.002505;,
       0.019931;-0.009266; 0.002192;,
       0.031374;-0.009279; 0.005910;,
       0.038445;-0.009503; 0.015644;,
       0.038445;-0.009859; 0.027675;,
       0.031374;-0.010202; 0.037409;,
       0.023081;-0.010352; 0.040104;,
       0.018560;-0.011061; 0.054854;,
       0.018560; 0.000000; 0.054854;,
       0.018919; 0.000000; 0.054971;,
       0.030003; 0.000000; 0.058573;,
       0.030003;-0.011069; 0.058573;,
       0.030003; 0.000000; 0.058573;,
       0.037075; 0.000000; 0.068306;,
       0.037075;-0.011299; 0.068306;,
       0.030003;-0.011069; 0.058573;,
       0.037075; 0.000000; 0.068306;,
       0.037075; 0.000000; 0.080338;,
       0.037075;-0.011653; 0.080338;,
       0.037075;-0.011299; 0.068306;,
       0.037075; 0.000000; 0.080338;,
       0.030003; 0.000000; 0.090072;,
       0.030003;-0.011997; 0.090072;,
       0.037075;-0.011653; 0.080338;,
       0.023384; 0.000000; 0.092221;,
       0.018560; 0.000000; 0.093789;,
       0.018560;-0.012160; 0.093789;,
       0.021855;-0.012144; 0.092719;,
       0.030003;-0.011997; 0.090072;,
       0.030003; 0.000000; 0.090072;,
       0.007118;-0.012011; 0.090072;,
       0.018560;-0.012160; 0.093789;,
       0.018560; 0.000000; 0.093789;,
       0.007118; 0.000000; 0.090072;,
       0.000046;-0.011710; 0.080338;,
       0.007118;-0.012011; 0.090072;,
       0.007118; 0.000000; 0.090072;,
       0.000046;-0.000000; 0.080338;,
       0.000046;-0.011374; 0.068306;,
       0.000046;-0.011710; 0.080338;,
       0.000046;-0.000000; 0.080338;,
       0.000046;-0.000000; 0.068306;,
       0.007118;-0.011129; 0.058573;,
       0.000046;-0.011374; 0.068306;,
       0.000046;-0.000000; 0.068306;,
       0.007118; 0.000000; 0.058573;,
       0.018560; 0.000000; 0.054854;,
       0.018560;-0.011061; 0.054854;,
       0.017743;-0.011076; 0.055120;,
       0.007118;-0.011129; 0.058573;,
       0.007118; 0.000000; 0.058573;,
       0.019931;-0.009266; 0.002192;,
       0.019931; 0.000000; 0.002192;,
       0.031374; 0.000000; 0.005910;,
       0.031374;-0.009279; 0.005910;,
       0.031374; 0.000000; 0.005910;,
       0.038445; 0.000000; 0.015644;,
       0.038445;-0.009503; 0.015644;,
       0.031374;-0.009279; 0.005910;,
       0.038445; 0.000000; 0.015644;,
       0.038445; 0.000000; 0.027675;,
       0.038445;-0.009859; 0.027675;,
       0.038445;-0.009503; 0.015644;,
       0.038445; 0.000000; 0.027675;,
       0.031374; 0.000000; 0.037409;,
       0.031374;-0.010202; 0.037409;,
       0.038445;-0.009859; 0.027675;,
       0.031374; 0.000000; 0.037409;,
       0.023972; 0.000000; 0.039814;,
       0.019931; 0.000000; 0.041127;,
       0.019931;-0.010369; 0.041127;,
       0.023081;-0.010352; 0.040104;,
       0.031374;-0.010202; 0.037409;,
       0.008488;-0.010219; 0.037409;,
       0.019931;-0.010369; 0.041127;,
       0.019931; 0.000000; 0.041127;,
       0.008488; 0.000000; 0.037409;,
       0.001416;-0.010016; 0.027675;,
       0.008488;-0.010219; 0.037409;,
       0.008488; 0.000000; 0.037409;,
       0.001416;-0.000000; 0.027675;,
       0.001416;-0.009699; 0.015644;,
       0.001416;-0.010016; 0.027675;,
       0.001416;-0.000000; 0.027675;,
       0.001416;-0.000000; 0.015644;,
       0.008488;-0.009390; 0.005910;,
       0.001416;-0.009699; 0.015644;,
       0.001416;-0.000000; 0.015644;,
       0.008488; 0.000000; 0.005910;,
       0.018970;-0.009284; 0.002505;,
       0.008488;-0.009390; 0.005910;,
       0.008488; 0.000000; 0.005910;,
       0.019480; 0.000000; 0.002339;,
       0.019931; 0.000000; 0.002192;,
       0.019931;-0.009266; 0.002192;,
      -0.030342;-0.010416;-0.085293;,
      -0.028621;-0.009625;-0.015864;,
      -0.028707;-0.014613;-0.016436;,
      -0.030331;-0.014345;-0.086389;,
      -0.028621;-0.009625;-0.015864;,
      -0.029157;-0.000000;-0.016077;,
      -0.029045;-0.000000;-0.012295;,
      -0.028707;-0.014613;-0.016436;,
      -0.029662;-0.000000;-0.085437;,
      -0.030342;-0.010416;-0.085293;,
      -0.030331;-0.014345;-0.086389;,
      -0.029657;-0.000000;-0.089446;,
      -0.036887;-0.010436;-0.083584;,
      -0.036215;-0.000000;-0.083727;,
      -0.035749;-0.000000;-0.017572;,
      -0.035237;-0.009336;-0.017369;,
      -0.028621;-0.009625;-0.015864;,
      -0.030342;-0.010416;-0.085293;,
      -0.036887;-0.010436;-0.083584;,
      -0.035237;-0.009336;-0.017369;,
      -0.029157;-0.000000;-0.016077;,
      -0.028621;-0.009625;-0.015864;,
      -0.035237;-0.009336;-0.017369;,
      -0.035749;-0.000000;-0.017572;,
      -0.010447;-0.004962; 0.021923;,
      -0.009632;-0.004962; 0.013733;,
      -0.017821;-0.004962; 0.012919;,
      -0.018636;-0.004962; 0.021108;,
      -0.009632;-0.004962; 0.013733;,
      -0.009632; 0.004962; 0.013733;,
      -0.017821; 0.004962; 0.012919;,
      -0.017821;-0.004962; 0.012919;,
      -0.009632; 0.004962; 0.013733;,
      -0.010447; 0.004962; 0.021923;,
      -0.018636; 0.004962; 0.021108;,
      -0.017821; 0.004962; 0.012919;,
      -0.010447; 0.004962; 0.021923;,
      -0.010447;-0.004962; 0.021923;,
      -0.018636;-0.004962; 0.021108;,
      -0.018636; 0.004962; 0.021108;,
      -0.009632;-0.004962; 0.013733;,
      -0.010447;-0.004962; 0.021923;,
      -0.010447; 0.004962; 0.021923;,
      -0.009632; 0.004962; 0.013733;,
      -0.017821;-0.004962; 0.012919;,
      -0.025627;-0.003546; 0.018032;,
      -0.021993;-0.003546; 0.022657;,
      -0.018636;-0.004962; 0.021108;,
      -0.025627; 0.003546; 0.018032;,
      -0.031402; 0.003546; 0.023454;,
      -0.031402;-0.003546; 0.023454;,
      -0.025627;-0.003546; 0.018032;,
      -0.018636;-0.004962; 0.021108;,
      -0.021993;-0.003546; 0.022657;,
      -0.021993; 0.003546; 0.022657;,
      -0.018636; 0.004962; 0.021108;,
      -0.017821; 0.004962; 0.012919;,
      -0.025627; 0.003546; 0.018032;,
      -0.025627;-0.003546; 0.018032;,
      -0.017821;-0.004962; 0.012919;,
      -0.018636; 0.004962; 0.021108;,
      -0.021993; 0.003546; 0.022657;,
      -0.025627; 0.003546; 0.018032;,
      -0.017821; 0.004962; 0.012919;,
      -0.025640; 0.003546; 0.024638;,
      -0.027837; 0.003546; 0.082156;,
      -0.033660; 0.003546; 0.082986;,
      -0.031402; 0.003546; 0.023454;,
      -0.021993; 0.003546; 0.022657;,
      -0.025640; 0.003546; 0.024638;,
      -0.031402; 0.003546; 0.023454;,
      -0.025627; 0.003546; 0.018032;,
      -0.025627;-0.003546; 0.018032;,
      -0.031402;-0.003546; 0.023454;,
      -0.025640;-0.003546; 0.024638;,
      -0.021993;-0.003546; 0.022657;,
      -0.021993;-0.003546; 0.022657;,
      -0.025640;-0.003546; 0.024638;,
      -0.025640; 0.003546; 0.024638;,
      -0.021993; 0.003546; 0.022657;,
      -0.027837;-0.003546; 0.082156;,
      -0.027270;-0.003546; 0.089454;,
      -0.027270; 0.003546; 0.089454;,
      -0.027837; 0.003546; 0.082156;,
      -0.031402;-0.003546; 0.023454;,
      -0.033660;-0.003546; 0.082986;,
      -0.027837;-0.003546; 0.082156;,
      -0.025640;-0.003546; 0.024638;,
      -0.025640;-0.003546; 0.024638;,
      -0.027837;-0.003546; 0.082156;,
      -0.027837; 0.003546; 0.082156;,
      -0.025640; 0.003546; 0.024638;,
      -0.031402; 0.003546; 0.023454;,
      -0.033660; 0.003546; 0.082986;,
      -0.033660;-0.003546; 0.082986;,
      -0.031402;-0.003546; 0.023454;,
      -0.027270; 0.003546; 0.089454;,
      -0.023155; 0.003546; 0.095901;,
      -0.022920; 0.003546; 0.101780;,
      -0.031718; 0.003546; 0.093304;,
      -0.033660; 0.003546; 0.082986;,
      -0.031718; 0.003546; 0.093304;,
      -0.031718;-0.003546; 0.093304;,
      -0.033660;-0.003546; 0.082986;,
      -0.027837; 0.003546; 0.082156;,
      -0.027270; 0.003546; 0.089454;,
      -0.031718; 0.003546; 0.093304;,
      -0.033660; 0.003546; 0.082986;,
      -0.033660;-0.003546; 0.082986;,
      -0.031718;-0.003546; 0.093304;,
      -0.027270;-0.003546; 0.089454;,
      -0.027837;-0.003546; 0.082156;,
      -0.023155; 0.003546; 0.095901;,
      -0.015063; 0.004189; 0.095045;,
      -0.014784; 0.004189; 0.101989;,
      -0.022920; 0.003546; 0.101780;,
      -0.031718;-0.003546; 0.093304;,
      -0.022920;-0.003546; 0.101780;,
      -0.023155;-0.003546; 0.095901;,
      -0.027270;-0.003546; 0.089454;,
      -0.027270;-0.003546; 0.089454;,
      -0.023155;-0.003546; 0.095901;,
      -0.023155; 0.003546; 0.095901;,
      -0.027270; 0.003546; 0.089454;,
      -0.031718; 0.003546; 0.093304;,
      -0.022920; 0.003546; 0.101780;,
      -0.022920;-0.003546; 0.101780;,
      -0.031718;-0.003546; 0.093304;,
      -0.014784; 0.004189; 0.101989;,
      -0.015063; 0.004189; 0.095045;,
      -0.015063;-0.004189; 0.095045;,
      -0.014784;-0.004189; 0.101989;,
      -0.022920;-0.003546; 0.101780;,
      -0.014784;-0.004189; 0.101989;,
      -0.015063;-0.004189; 0.095045;,
      -0.023155;-0.003546; 0.095901;,
      -0.023155;-0.003546; 0.095901;,
      -0.015063;-0.004189; 0.095045;,
      -0.015063; 0.004189; 0.095045;,
      -0.023155; 0.003546; 0.095901;,
      -0.022920; 0.003546; 0.101780;,
      -0.014784; 0.004189; 0.101989;,
      -0.014784;-0.004189; 0.101989;,
      -0.022920;-0.003546; 0.101780;,
       0.023812;-0.014338;-0.089157;,
      -0.006088;-0.016280;-0.089146;,
      -0.018085;-0.015414;-0.011890;,
      -0.005177;-0.013989;-0.012010;,
       0.026308;-0.008967;-0.095351;,
      -0.004686;-0.010907;-0.095351;,
      -0.006088;-0.016280;-0.089146;,
       0.023812;-0.014338;-0.089157;,
      -0.006912;-0.011976;-0.007010;,
      -0.018741;-0.014511;-0.006869;,
      -0.020656;-0.000000;-0.006869;,
      -0.010366;-0.000000;-0.007010;,
      -0.005177;-0.013989;-0.012010;,
      -0.018085;-0.015414;-0.011890;,
      -0.018741;-0.014511;-0.006869;,
      -0.006912;-0.011976;-0.007010;,
       0.026308; 0.000000;-0.097027;,
      -0.006217;-0.001193;-0.097445;,
      -0.004686;-0.010907;-0.095351;,
       0.026308;-0.008967;-0.095351;,
       0.023812; 0.014338;-0.089157;,
      -0.005177; 0.013989;-0.012010;,
      -0.018085; 0.015414;-0.011890;,
      -0.006095; 0.017230;-0.088528;,
       0.026308; 0.008967;-0.095351;,
       0.023812; 0.014338;-0.089157;,
      -0.006095; 0.017230;-0.088528;,
      -0.005804; 0.011150;-0.095550;,
      -0.006912; 0.011976;-0.007010;,
      -0.010366;-0.000000;-0.007010;,
      -0.020656;-0.000000;-0.006869;,
      -0.018741; 0.014511;-0.006869;,
      -0.005177; 0.013989;-0.012010;,
      -0.006912; 0.011976;-0.007010;,
      -0.018741; 0.014511;-0.006869;,
      -0.018085; 0.015414;-0.011890;,
       0.026308; 0.000000;-0.097027;,
       0.026308; 0.008967;-0.095351;,
      -0.005804; 0.011150;-0.095550;,
      -0.006217;-0.001193;-0.097445;;
      164;
      4;3,2,1,0;,
      4;7,6,5,4;,
      4;11,10,9,8;,
      4;15,14,13,12;,
      4;19,18,17,16;,
      4;23,22,21,20;,
      4;27,26,25,24;,
      4;31,30,29,28;,
      4;35,34,33,32;,
      4;39,38,37,36;,
      18;57,56,55,54,53,52,51,50,49,48,47,46,45,44,43,42,41,40;,
      4;61,60,59,58;,
      4;65,64,63,62;,
      4;69,68,67,66;,
      4;73,72,71,70;,
      4;77,76,75,74;,
      4;81,80,79,78;,
      4;85,84,83,82;,
      4;89,88,87,86;,
      4;93,92,91,90;,
      4;97,96,95,94;,
      4;101,100,99,98;,
      4;105,104,103,102;,
      4;109,108,107,106;,
      4;113,112,111,110;,
      4;117,116,115,114;,
      4;121,120,119,118;,
      4;125,124,123,122;,
      4;129,128,127,126;,
      4;133,132,131,130;,
      4;137,136,135,134;,
      4;141,140,139,138;,
      4;145,144,143,142;,
      4;149,148,147,146;,
      4;153,152,151,150;,
      18;171,170,169,168,167,166,165,164,163,162,161,160,159,158,157,156,155,154;,
      5;176,175,174,173,172;,
      4;180,179,178,177;,
      4;184,183,182,181;,
      4;188,187,186,185;,
      6;194,193,192,191,190,189;,
      4;198,197,196,195;,
      4;202,201,200,199;,
      4;206,205,204,203;,
      4;210,209,208,207;,
      5;215,214,213,212,211;,
      4;219,218,217,216;,
      4;223,222,221,220;,
      4;227,226,225,224;,
      4;231,230,229,228;,
      6;237,236,235,234,233,232;,
      4;241,240,239,238;,
      4;245,244,243,242;,
      4;249,248,247,246;,
      4;253,252,251,250;,
      6;259,258,257,256,255,254;,
      4;263,262,261,260;,
      4;267,266,265,264;,
      4;271,270,269,268;,
      4;275,274,273,272;,
      4;279,278,277,276;,
      4;283,282,281,280;,
      4;287,286,285,284;,
      4;291,290,289,288;,
      4;295,294,293,292;,
      4;299,298,297,296;,
      4;303,302,301,300;,
      4;307,306,305,304;,
      4;311,310,309,308;,
      4;315,314,313,312;,
      4;319,318,317,316;,
      4;323,322,321,320;,
      18;341,340,339,338,337,336,335,334,333,332,331,330,329,328,327,326,325,324;,
      4;345,344,343,342;,
      4;349,348,347,346;,
      4;353,352,351,350;,
      4;357,356,355,354;,
      4;361,360,359,358;,
      4;365,364,363,362;,
      4;369,368,367,366;,
      4;373,372,371,370;,
      4;377,376,375,374;,
      4;381,380,379,378;,
      4;385,384,383,382;,
      4;389,388,387,386;,
      4;393,392,391,390;,
      4;397,396,395,394;,
      4;401,400,399,398;,
      4;405,404,403,402;,
      4;409,408,407,406;,
      4;413,412,411,410;,
      4;417,416,415,414;,
      4;421,420,419,418;,
      4;425,424,423,422;,
      4;429,428,427,426;,
      4;433,432,431,430;,
      4;437,436,435,434;,
      18;455,454,453,452,451,450,449,448,447,446,445,444,443,442,441,440,439,438;,
      5;460,459,458,457,456;,
      4;464,463,462,461;,
      4;468,467,466,465;,
      4;472,471,470,469;,
      6;478,477,476,475,474,473;,
      4;482,481,480,479;,
      4;486,485,484,483;,
      4;490,489,488,487;,
      4;494,493,492,491;,
      5;499,498,497,496,495;,
      4;503,502,501,500;,
      4;507,506,505,504;,
      4;511,510,509,508;,
      4;515,514,513,512;,
      6;521,520,519,518,517,516;,
      4;525,524,523,522;,
      4;529,528,527,526;,
      4;533,532,531,530;,
      4;537,536,535,534;,
      6;543,542,541,540,539,538;,
      4;547,546,545,544;,
      4;551,550,549,548;,
      4;555,554,553,552;,
      4;559,558,557,556;,
      4;563,562,561,560;,
      4;567,566,565,564;,
      4;571,570,569,568;,
      4;575,574,573,572;,
      4;579,578,577,576;,
      4;583,582,581,580;,
      4;587,586,585,584;,
      4;591,590,589,588;,
      4;595,594,593,592;,
      4;599,598,597,596;,
      4;603,602,601,600;,
      4;607,606,605,604;,
      4;611,610,609,608;,
      4;615,614,613,612;,
      4;619,618,617,616;,
      4;623,622,621,620;,
      4;627,626,625,624;,
      4;631,630,629,628;,
      4;635,634,633,632;,
      4;639,638,637,636;,
      4;643,642,641,640;,
      4;647,646,645,644;,
      4;651,650,649,648;,
      4;655,654,653,652;,
      4;659,658,657,656;,
      4;663,662,661,660;,
      4;667,666,665,664;,
      4;671,670,669,668;,
      4;675,674,673,672;,
      4;679,678,677,676;,
      4;683,682,681,680;,
      4;687,686,685,684;,
      4;691,690,689,688;,
      4;695,694,693,692;,
      4;699,698,697,696;,
      4;703,702,701,700;,
      4;707,706,705,704;,
      4;711,710,709,708;,
      4;715,714,713,712;,
      4;719,718,717,716;,
      4;723,722,721,720;,
      4;727,726,725,724;;
      MeshNormals {
        728;
         0.088506; 0.022018; 0.995832;,
         0.064408;-0.487866; 0.870539;,
         0.701986;-0.355100; 0.617348;,
         0.767955; 0.009777; 0.640429;,
        -0.019557;-0.992357;-0.121841;,
         0.132096;-0.617113;-0.775708;,
         0.675209;-0.593199;-0.438416;,
         0.737270;-0.674454;-0.039296;,
         0.132096;-0.617113;-0.775708;,
         0.267653;-0.000000;-0.963515;,
         0.857839; 0.000000;-0.513919;,
         0.675209;-0.593199;-0.438416;,
        -0.239087; 0.000000; 0.970998;,
        -0.805263; 0.000000; 0.592918;,
        -0.781972;-0.410040; 0.469454;,
        -0.208966;-0.543736; 0.812825;,
         0.737270;-0.674454;-0.039296;,
         0.675209;-0.593199;-0.438416;,
         0.857839; 0.000000;-0.513919;,
         0.999996; 0.000000;-0.002806;,
        -0.827184; 0.000000;-0.561931;,
        -0.878809;-0.000000;-0.477174;,
        -0.523170;-0.748385;-0.407692;,
        -0.629186;-0.581783;-0.515416;,
        -0.008804;-0.978944;-0.203940;,
        -0.629186;-0.581783;-0.515416;,
        -0.523170;-0.748385;-0.407692;,
         0.022667;-0.992051;-0.123781;,
        -0.999578;-0.000000;-0.029034;,
        -0.766898; 0.000000;-0.641769;,
        -0.524708;-0.517712;-0.675762;,
        -0.723353;-0.690431;-0.008087;,
         0.001208;-0.747497;-0.664265;,
        -0.524708;-0.517712;-0.675762;,
        -0.766898; 0.000000;-0.641769;,
         0.148226; 0.000000;-0.988953;,
         0.630500;-0.762009; 0.147685;,
         0.477439;-0.665328;-0.573926;,
         0.754279;-0.000000;-0.656554;,
         0.980351;-0.000000; 0.197261;,
        -0.212285;-0.721476;-0.659095;,
        -0.449561;-0.655136;-0.607200;,
        -0.727195;-0.653138;-0.211182;,
        -0.715287;-0.646612; 0.265062;,
        -0.430490;-0.637672; 0.638790;,
         0.013526;-0.633349; 0.773748;,
         0.216180;-0.697366; 0.683335;,
        -0.213093;-0.721731;-0.658556;,
        -0.448847;-0.655225;-0.607632;,
        -0.727812;-0.652267;-0.211751;,
        -0.715651;-0.645842; 0.265954;,
        -0.429478;-0.638613; 0.638531;,
         0.013532;-0.633307; 0.773783;,
         0.218522;-0.696510; 0.683463;,
         0.073314;-0.751755;-0.655355;,
         0.477439;-0.665328;-0.573926;,
         0.630500;-0.762009; 0.147685;,
        -0.050687;-0.998383;-0.025746;,
        -0.208966;-0.543736; 0.812825;,
        -0.781972;-0.410040; 0.469454;,
        -0.673871;-0.737509; 0.044476;,
        -0.098201;-0.959693; 0.263336;,
        -0.805263; 0.000000; 0.592918;,
        -0.957246; 0.000000;-0.289275;,
        -0.673871;-0.737509; 0.044476;,
        -0.781972;-0.410040; 0.469454;,
         0.701986;-0.355100; 0.617348;,
         0.701119;-0.673884; 0.233050;,
         0.999914;-0.000000;-0.013125;,
         0.767955; 0.009777; 0.640429;,
         0.064408;-0.487866; 0.870539;,
         0.019867;-0.941716; 0.335822;,
         0.701119;-0.673884; 0.233050;,
         0.701986;-0.355100; 0.617348;,
        -0.355779;-0.533055; 0.767642;,
        -0.208966;-0.543736; 0.812825;,
        -0.098201;-0.959693; 0.263336;,
        -0.159561;-0.953985; 0.253875;,
        -0.723353;-0.690431;-0.008087;,
        -0.524708;-0.517712;-0.675762;,
         0.001208;-0.747497;-0.664265;,
        -0.087795;-0.995897; 0.021914;,
         0.073314;-0.751755;-0.655355;,
         0.001208;-0.747497;-0.664265;,
         0.148226; 0.000000;-0.988953;,
         0.127345; 0.000000;-0.991859;,
        -0.052237;-0.984247;-0.168906;,
        -0.008804;-0.978944;-0.203940;,
         0.022667;-0.992051;-0.123781;,
        -0.160928;-0.947413;-0.276605;,
        -0.403383; 0.000000; 0.915031;,
        -0.239087; 0.000000; 0.970998;,
        -0.208966;-0.543736; 0.812825;,
        -0.355779;-0.533055; 0.767642;,
        -0.159561;-0.953985; 0.253875;,
        -0.098201;-0.959693; 0.263336;,
        -0.008804;-0.978944;-0.203940;,
        -0.052237;-0.984247;-0.168906;,
        -0.098201;-0.959693; 0.263336;,
        -0.673871;-0.737509; 0.044476;,
        -0.629186;-0.581783;-0.515416;,
        -0.008804;-0.978944;-0.203940;,
        -0.957246; 0.000000;-0.289275;,
        -0.827184; 0.000000;-0.561931;,
        -0.629186;-0.581783;-0.515416;,
        -0.673871;-0.737509; 0.044476;,
         0.930315;-0.215021; 0.297120;,
         0.657928;-0.591878; 0.465631;,
         0.784320;-0.000000; 0.620356;,
         0.790293;-0.000000; 0.612730;,
         0.019867;-0.941716; 0.335822;,
        -0.019557;-0.992357;-0.121841;,
         0.737270;-0.674454;-0.039296;,
         0.701119;-0.673884; 0.233050;,
        -0.523170;-0.748385;-0.407692;,
        -0.723353;-0.690431;-0.008087;,
        -0.087795;-0.995897; 0.021914;,
         0.022667;-0.992051;-0.123781;,
        -0.160928;-0.947413;-0.276605;,
        -0.050687;-0.998383;-0.025746;,
         0.630500;-0.762009; 0.147685;,
         0.043104;-0.919650;-0.390367;,
         0.043104;-0.919650;-0.390367;,
         0.630500;-0.762009; 0.147685;,
         0.980351;-0.000000; 0.197261;,
         0.761988;-0.000000;-0.647591;,
        -0.878809;-0.000000;-0.477174;,
        -0.999578;-0.000000;-0.029034;,
        -0.723353;-0.690431;-0.008087;,
        -0.523170;-0.748385;-0.407692;,
         0.022667;-0.992051;-0.123781;,
        -0.087795;-0.995897; 0.021914;,
        -0.050687;-0.998383;-0.025746;,
        -0.160928;-0.947413;-0.276605;,
        -0.163813;-0.923452; 0.346989;,
        -0.159561;-0.953985; 0.253875;,
        -0.052237;-0.984247;-0.168906;,
        -0.243957;-0.931294;-0.270510;,
        -0.255837; 0.006281; 0.966699;,
        -0.403383; 0.000000; 0.915031;,
        -0.355779;-0.533055; 0.767642;,
        -0.255354;-0.487667; 0.834850;,
        -0.243957;-0.931294;-0.270510;,
        -0.052237;-0.984247;-0.168906;,
        -0.160928;-0.947413;-0.276605;,
         0.043104;-0.919650;-0.390367;,
         0.477439;-0.665328;-0.573926;,
         0.073314;-0.751755;-0.655355;,
         0.127345; 0.000000;-0.991859;,
         0.754279;-0.000000;-0.656554;,
        -0.255354;-0.487667; 0.834850;,
        -0.355779;-0.533055; 0.767642;,
        -0.159561;-0.953985; 0.253875;,
        -0.163813;-0.923452; 0.346989;,
        -0.213093;-0.721731;-0.658556;,
         0.216180;-0.697366; 0.683335;,
         0.438217;-0.638198; 0.632984;,
         0.721281;-0.642238; 0.259392;,
         0.731682;-0.646660;-0.215575;,
         0.454830;-0.650040;-0.608751;,
        -0.004785;-0.650656;-0.759358;,
        -0.212285;-0.721476;-0.659095;,
        -0.050687;-0.998383;-0.025746;,
        -0.087795;-0.995897; 0.021914;,
         0.001208;-0.747497;-0.664265;,
         0.073314;-0.751755;-0.655355;,
         0.218522;-0.696510; 0.683463;,
         0.438183;-0.638228; 0.632978;,
         0.721297;-0.642207; 0.259424;,
         0.731633;-0.646714;-0.215580;,
         0.454837;-0.649963;-0.608828;,
        -0.004834;-0.650754;-0.759273;,
        -0.004834;-0.650754;-0.759273;,
         0.454837;-0.649963;-0.608828;,
         0.587770;-0.000000;-0.809028;,
         0.309052;-0.000000;-0.951045;,
         0.000000;-0.000000;-1.000000;,
         0.587770;-0.000000;-0.809028;,
         0.454837;-0.649963;-0.608828;,
         0.731633;-0.646714;-0.215580;,
         0.951045; 0.000000;-0.309052;,
         0.951045; 0.000000;-0.309052;,
         0.731633;-0.646714;-0.215580;,
         0.721297;-0.642207; 0.259424;,
         0.951053; 0.000000; 0.309028;,
         0.951053; 0.000000; 0.309028;,
         0.721297;-0.642207; 0.259424;,
         0.438183;-0.638228; 0.632978;,
         0.587757;-0.000000; 0.809038;,
         0.308972;-0.000000; 0.951071;,
         0.587757;-0.000000; 0.809038;,
         0.438183;-0.638228; 0.632978;,
         0.218522;-0.696510; 0.683463;,
         0.013532;-0.633307; 0.773783;,
        -0.000000; 0.000000; 1.000000;,
        -0.429478;-0.638613; 0.638531;,
        -0.587785;-0.000000; 0.809017;,
        -0.000000; 0.000000; 1.000000;,
         0.013532;-0.633307; 0.773783;,
        -0.715651;-0.645842; 0.265954;,
        -0.951064;-0.000000; 0.308995;,
        -0.587785;-0.000000; 0.809017;,
        -0.429478;-0.638613; 0.638531;,
        -0.727812;-0.652267;-0.211751;,
        -0.951056;-0.000000;-0.309019;,
        -0.951064;-0.000000; 0.308995;,
        -0.715651;-0.645842; 0.265954;,
        -0.448847;-0.655225;-0.607632;,
        -0.587798;-0.000000;-0.809008;,
        -0.951056;-0.000000;-0.309019;,
        -0.727812;-0.652267;-0.211751;,
         0.000000;-0.000000;-1.000000;,
        -0.587798;-0.000000;-0.809008;,
        -0.448847;-0.655225;-0.607632;,
        -0.213093;-0.721731;-0.658556;,
        -0.004834;-0.650754;-0.759273;,
        -0.004785;-0.650656;-0.759358;,
         0.454830;-0.650040;-0.608751;,
         0.587819; 0.000000;-0.808993;,
         0.000013; 0.000000;-1.000000;,
         0.587819; 0.000000;-0.808993;,
         0.454830;-0.650040;-0.608751;,
         0.731682;-0.646660;-0.215575;,
         0.951064; 0.000000;-0.308995;,
         0.951064; 0.000000;-0.308995;,
         0.731682;-0.646660;-0.215575;,
         0.721281;-0.642238; 0.259392;,
         0.951064; 0.000000; 0.308995;,
         0.951064; 0.000000; 0.308995;,
         0.721281;-0.642238; 0.259392;,
         0.438217;-0.638198; 0.632984;,
         0.587785; 0.000000; 0.809017;,
         0.587785; 0.000000; 0.809017;,
         0.438217;-0.638198; 0.632984;,
         0.216180;-0.697366; 0.683335;,
         0.013526;-0.633349; 0.773748;,
         0.000013;-0.000000; 1.000000;,
         0.308974; 0.000000; 0.951071;,
        -0.430490;-0.637672; 0.638790;,
        -0.587775;-0.000000; 0.809025;,
         0.000013;-0.000000; 1.000000;,
         0.013526;-0.633349; 0.773748;,
        -0.715287;-0.646612; 0.265062;,
        -0.951064;-0.000000; 0.308995;,
        -0.587775;-0.000000; 0.809025;,
        -0.430490;-0.637672; 0.638790;,
        -0.727195;-0.653138;-0.211182;,
        -0.951064;-0.000000;-0.308995;,
        -0.951064;-0.000000; 0.308995;,
        -0.715287;-0.646612; 0.265062;,
        -0.449561;-0.655136;-0.607200;,
        -0.587808;-0.000000;-0.809001;,
        -0.951064;-0.000000;-0.308995;,
        -0.727195;-0.653138;-0.211182;,
        -0.212285;-0.721476;-0.659095;,
        -0.004785;-0.650656;-0.759358;,
         0.000013; 0.000000;-1.000000;,
        -0.309025; 0.000000;-0.951054;,
        -0.587808;-0.000000;-0.809001;,
        -0.449561;-0.655136;-0.607200;,
         0.930315;-0.215021; 0.297120;,
         0.701119;-0.673884; 0.233050;,
         0.737270;-0.674454;-0.039296;,
         0.925588;-0.269641;-0.265670;,
         0.925588;-0.269641;-0.265670;,
         0.737270;-0.674454;-0.039296;,
         0.999996; 0.000000;-0.002806;,
         0.779770;-0.000000;-0.626067;,
         0.790293;-0.000000; 0.612730;,
         0.999914;-0.000000;-0.013125;,
         0.701119;-0.673884; 0.233050;,
         0.930315;-0.215021; 0.297120;,
         0.657928;-0.591878; 0.465631;,
         0.625969;-0.568363;-0.533972;,
         0.789095;-0.000000;-0.614271;,
         0.784320;-0.000000; 0.620356;,
         0.925588;-0.269641;-0.265670;,
         0.625969;-0.568363;-0.533972;,
         0.657928;-0.591878; 0.465631;,
         0.930315;-0.215021; 0.297120;,
         0.779770;-0.000000;-0.626067;,
         0.789095;-0.000000;-0.614271;,
         0.625969;-0.568363;-0.533972;,
         0.925588;-0.269641;-0.265670;,
         0.088506; 0.022018; 0.995832;,
         0.767955; 0.009777; 0.640429;,
         0.696080; 0.367684; 0.616669;,
         0.053598; 0.501960; 0.863229;,
        -0.020275; 0.992802;-0.118042;,
         0.731399; 0.680909;-0.037663;,
         0.675209; 0.593199;-0.438416;,
         0.132096; 0.617113;-0.775708;,
         0.132096; 0.617113;-0.775708;,
         0.675209; 0.593199;-0.438416;,
         0.857839; 0.000000;-0.513919;,
         0.267653;-0.000000;-0.963515;,
        -0.239087; 0.000000; 0.970998;,
        -0.208966; 0.543736; 0.812825;,
        -0.781972; 0.410040; 0.469454;,
        -0.805263; 0.000000; 0.592918;,
         0.731399; 0.680909;-0.037663;,
         0.999996; 0.000000;-0.002806;,
         0.857839; 0.000000;-0.513919;,
         0.675209; 0.593199;-0.438416;,
        -0.827184; 0.000000;-0.561931;,
        -0.629186; 0.581783;-0.515416;,
        -0.523170; 0.748385;-0.407692;,
        -0.878809;-0.000000;-0.477174;,
        -0.008804; 0.978944;-0.203940;,
         0.022667; 0.992051;-0.123781;,
        -0.523170; 0.748385;-0.407692;,
        -0.629186; 0.581783;-0.515416;,
        -0.999578;-0.000000;-0.029034;,
        -0.723353; 0.690431;-0.008087;,
        -0.524706; 0.517713;-0.675763;,
        -0.766898; 0.000000;-0.641769;,
         0.001209; 0.747497;-0.664265;,
         0.148226; 0.000000;-0.988953;,
        -0.766898; 0.000000;-0.641769;,
        -0.524706; 0.517713;-0.675763;,
         0.630501; 0.762009; 0.147685;,
         0.980351;-0.000000; 0.197261;,
         0.754279;-0.000000;-0.656554;,
         0.477439; 0.665328;-0.573926;,
        -0.212285; 0.721476;-0.659095;,
        -0.050687; 0.998383;-0.025746;,
         0.630501; 0.762009; 0.147685;,
         0.477439; 0.665328;-0.573926;,
         0.073314; 0.751755;-0.655355;,
         0.218522; 0.696510; 0.683463;,
         0.013532; 0.633307; 0.773783;,
        -0.429479; 0.638613; 0.638531;,
        -0.715651; 0.645842; 0.265954;,
        -0.727812; 0.652267;-0.211750;,
        -0.448847; 0.655225;-0.607632;,
        -0.213093; 0.721730;-0.658556;,
         0.216180; 0.697366; 0.683335;,
         0.013526; 0.633349; 0.773748;,
        -0.430490; 0.637672; 0.638790;,
        -0.715287; 0.646612; 0.265062;,
        -0.727195; 0.653138;-0.211182;,
        -0.449561; 0.655136;-0.607200;,
        -0.208966; 0.543736; 0.812825;,
        -0.098201; 0.959693; 0.263336;,
        -0.673871; 0.737509; 0.044476;,
        -0.781972; 0.410040; 0.469454;,
        -0.805263; 0.000000; 0.592918;,
        -0.781972; 0.410040; 0.469454;,
        -0.673871; 0.737509; 0.044476;,
        -0.957246; 0.000000;-0.289275;,
         0.696080; 0.367684; 0.616669;,
         0.767955; 0.009777; 0.640429;,
         0.999914;-0.000000;-0.013125;,
         0.693651; 0.681161; 0.234241;,
         0.053598; 0.501960; 0.863229;,
         0.696080; 0.367684; 0.616669;,
         0.693651; 0.681161; 0.234241;,
         0.023474; 0.936695; 0.349358;,
        -0.355779; 0.533055; 0.767642;,
        -0.159561; 0.953985; 0.253875;,
        -0.098201; 0.959693; 0.263336;,
        -0.208966; 0.543736; 0.812825;,
        -0.723353; 0.690431;-0.008087;,
        -0.087795; 0.995897; 0.021914;,
         0.001209; 0.747497;-0.664265;,
        -0.524706; 0.517713;-0.675763;,
         0.073314; 0.751755;-0.655355;,
         0.127345; 0.000000;-0.991859;,
         0.148226; 0.000000;-0.988953;,
         0.001209; 0.747497;-0.664265;,
        -0.052237; 0.984247;-0.168906;,
        -0.160928; 0.947413;-0.276605;,
         0.022667; 0.992051;-0.123781;,
        -0.008804; 0.978944;-0.203940;,
        -0.403383; 0.000000; 0.915031;,
        -0.355779; 0.533055; 0.767642;,
        -0.208966; 0.543736; 0.812825;,
        -0.239087; 0.000000; 0.970998;,
        -0.159561; 0.953985; 0.253875;,
        -0.052237; 0.984247;-0.168906;,
        -0.008804; 0.978944;-0.203940;,
        -0.098201; 0.959693; 0.263336;,
        -0.098201; 0.959693; 0.263336;,
        -0.008804; 0.978944;-0.203940;,
        -0.629186; 0.581783;-0.515416;,
        -0.673871; 0.737509; 0.044476;,
        -0.957246; 0.000000;-0.289275;,
        -0.673871; 0.737509; 0.044476;,
        -0.629186; 0.581783;-0.515416;,
        -0.827184; 0.000000;-0.561931;,
         0.930315; 0.215021; 0.297121;,
         0.790293;-0.000000; 0.612730;,
         0.784320;-0.000000; 0.620356;,
         0.657927; 0.591878; 0.465632;,
         0.023474; 0.936695; 0.349358;,
         0.693651; 0.681161; 0.234241;,
         0.731399; 0.680909;-0.037663;,
        -0.020275; 0.992802;-0.118042;,
        -0.523170; 0.748385;-0.407692;,
         0.022667; 0.992051;-0.123781;,
        -0.087795; 0.995897; 0.021914;,
        -0.723353; 0.690431;-0.008087;,
        -0.160928; 0.947413;-0.276605;,
         0.043104; 0.919650;-0.390367;,
         0.630501; 0.762009; 0.147685;,
        -0.050687; 0.998383;-0.025746;,
         0.043104; 0.919650;-0.390367;,
         0.761988;-0.000000;-0.647591;,
         0.980351;-0.000000; 0.197261;,
         0.630501; 0.762009; 0.147685;,
        -0.878809;-0.000000;-0.477174;,
        -0.523170; 0.748385;-0.407692;,
        -0.723353; 0.690431;-0.008087;,
        -0.999578;-0.000000;-0.029034;,
         0.022667; 0.992051;-0.123781;,
        -0.160928; 0.947413;-0.276605;,
        -0.050687; 0.998383;-0.025746;,
        -0.087795; 0.995897; 0.021914;,
        -0.156351; 0.925235; 0.345679;,
        -0.237202; 0.934013;-0.267122;,
        -0.052237; 0.984247;-0.168906;,
        -0.159561; 0.953985; 0.253875;,
        -0.255837; 0.006281; 0.966699;,
        -0.253997; 0.496147; 0.830255;,
        -0.355779; 0.533055; 0.767642;,
        -0.403383; 0.000000; 0.915031;,
        -0.237202; 0.934013;-0.267122;,
         0.043104; 0.919650;-0.390367;,
        -0.160928; 0.947413;-0.276605;,
        -0.052237; 0.984247;-0.168906;,
         0.477439; 0.665328;-0.573926;,
         0.754279;-0.000000;-0.656554;,
         0.127345; 0.000000;-0.991859;,
         0.073314; 0.751755;-0.655355;,
        -0.253997; 0.496147; 0.830255;,
        -0.156351; 0.925235; 0.345679;,
        -0.159561; 0.953985; 0.253875;,
        -0.355779; 0.533055; 0.767642;,
        -0.213093; 0.721730;-0.658556;,
        -0.004834; 0.650754;-0.759273;,
         0.454837; 0.649963;-0.608828;,
         0.731633; 0.646714;-0.215580;,
         0.721297; 0.642207; 0.259424;,
         0.438182; 0.638228; 0.632978;,
         0.218522; 0.696510; 0.683463;,
         0.073314; 0.751755;-0.655355;,
         0.001209; 0.747497;-0.664265;,
        -0.087795; 0.995897; 0.021914;,
        -0.050687; 0.998383;-0.025746;,
        -0.212285; 0.721476;-0.659095;,
        -0.004785; 0.650656;-0.759358;,
         0.454830; 0.650040;-0.608751;,
         0.731682; 0.646660;-0.215575;,
         0.721281; 0.642238; 0.259392;,
         0.438217; 0.638199; 0.632984;,
         0.216180; 0.697366; 0.683335;,
        -0.004834; 0.650754;-0.759273;,
         0.000000;-0.000000;-1.000000;,
         0.309052;-0.000000;-0.951045;,
         0.587770;-0.000000;-0.809028;,
         0.454837; 0.649963;-0.608828;,
         0.587770;-0.000000;-0.809028;,
         0.951045; 0.000000;-0.309052;,
         0.731633; 0.646714;-0.215580;,
         0.454837; 0.649963;-0.608828;,
         0.951045; 0.000000;-0.309052;,
         0.951053; 0.000000; 0.309028;,
         0.721297; 0.642207; 0.259424;,
         0.731633; 0.646714;-0.215580;,
         0.951053; 0.000000; 0.309028;,
         0.587757;-0.000000; 0.809038;,
         0.438182; 0.638228; 0.632978;,
         0.721297; 0.642207; 0.259424;,
         0.308972;-0.000000; 0.951071;,
        -0.000000; 0.000000; 1.000000;,
         0.013532; 0.633307; 0.773783;,
         0.218522; 0.696510; 0.683463;,
         0.438182; 0.638228; 0.632978;,
         0.587757;-0.000000; 0.809038;,
        -0.429479; 0.638613; 0.638531;,
         0.013532; 0.633307; 0.773783;,
        -0.000000; 0.000000; 1.000000;,
        -0.587785;-0.000000; 0.809017;,
        -0.715651; 0.645842; 0.265954;,
        -0.429479; 0.638613; 0.638531;,
        -0.587785;-0.000000; 0.809017;,
        -0.951064;-0.000000; 0.308995;,
        -0.727812; 0.652267;-0.211750;,
        -0.715651; 0.645842; 0.265954;,
        -0.951064;-0.000000; 0.308995;,
        -0.951056;-0.000000;-0.309019;,
        -0.448847; 0.655225;-0.607632;,
        -0.727812; 0.652267;-0.211750;,
        -0.951056;-0.000000;-0.309019;,
        -0.587798;-0.000000;-0.809008;,
         0.000000;-0.000000;-1.000000;,
        -0.004834; 0.650754;-0.759273;,
        -0.213093; 0.721730;-0.658556;,
        -0.448847; 0.655225;-0.607632;,
        -0.587798;-0.000000;-0.809008;,
        -0.004785; 0.650656;-0.759358;,
         0.000013; 0.000000;-1.000000;,
         0.587819; 0.000000;-0.808993;,
         0.454830; 0.650040;-0.608751;,
         0.587819; 0.000000;-0.808993;,
         0.951064; 0.000000;-0.308995;,
         0.731682; 0.646660;-0.215575;,
         0.454830; 0.650040;-0.608751;,
         0.951064; 0.000000;-0.308995;,
         0.951064; 0.000000; 0.308995;,
         0.721281; 0.642238; 0.259392;,
         0.731682; 0.646660;-0.215575;,
         0.951064; 0.000000; 0.308995;,
         0.587785; 0.000000; 0.809017;,
         0.438217; 0.638199; 0.632984;,
         0.721281; 0.642238; 0.259392;,
         0.587785; 0.000000; 0.809017;,
         0.308974; 0.000000; 0.951071;,
         0.000013;-0.000000; 1.000000;,
         0.013526; 0.633349; 0.773748;,
         0.216180; 0.697366; 0.683335;,
         0.438217; 0.638199; 0.632984;,
        -0.430490; 0.637672; 0.638790;,
         0.013526; 0.633349; 0.773748;,
         0.000013;-0.000000; 1.000000;,
        -0.587775;-0.000000; 0.809025;,
        -0.715287; 0.646612; 0.265062;,
        -0.430490; 0.637672; 0.638790;,
        -0.587775;-0.000000; 0.809025;,
        -0.951064;-0.000000; 0.308995;,
        -0.727195; 0.653138;-0.211182;,
        -0.715287; 0.646612; 0.265062;,
        -0.951064;-0.000000; 0.308995;,
        -0.951064;-0.000000;-0.308995;,
        -0.449561; 0.655136;-0.607200;,
        -0.727195; 0.653138;-0.211182;,
        -0.951064;-0.000000;-0.308995;,
        -0.587808;-0.000000;-0.809001;,
        -0.212285; 0.721476;-0.659095;,
        -0.449561; 0.655136;-0.607200;,
        -0.587808;-0.000000;-0.809001;,
        -0.309025; 0.000000;-0.951054;,
         0.000013; 0.000000;-1.000000;,
        -0.004785; 0.650656;-0.759358;,
         0.930315; 0.215021; 0.297121;,
         0.925588; 0.269641;-0.265670;,
         0.731399; 0.680909;-0.037663;,
         0.693651; 0.681161; 0.234241;,
         0.925588; 0.269641;-0.265670;,
         0.779770;-0.000000;-0.626067;,
         0.999996; 0.000000;-0.002806;,
         0.731399; 0.680909;-0.037663;,
         0.790293;-0.000000; 0.612730;,
         0.930315; 0.215021; 0.297121;,
         0.693651; 0.681161; 0.234241;,
         0.999914;-0.000000;-0.013125;,
         0.657927; 0.591878; 0.465632;,
         0.784320;-0.000000; 0.620356;,
         0.789095;-0.000000;-0.614271;,
         0.625969; 0.568363;-0.533972;,
         0.925588; 0.269641;-0.265670;,
         0.930315; 0.215021; 0.297121;,
         0.657927; 0.591878; 0.465632;,
         0.625969; 0.568363;-0.533972;,
         0.779770;-0.000000;-0.626067;,
         0.925588; 0.269641;-0.265670;,
         0.625969; 0.568363;-0.533972;,
         0.789095;-0.000000;-0.614271;,
        -0.517357; 0.577349;-0.631672;,
        -0.631643; 0.577344; 0.517399;,
         0.219096; 0.654469; 0.723649;,
         0.022530; 0.792338;-0.609667;,
        -0.631643; 0.577344; 0.517399;,
        -0.631643;-0.577344; 0.517399;,
         0.219096;-0.654469; 0.723649;,
         0.219096; 0.654469; 0.723649;,
        -0.631643;-0.577344; 0.517399;,
        -0.517357;-0.577350;-0.631672;,
         0.022530;-0.792338;-0.609667;,
         0.219096;-0.654469; 0.723649;,
        -0.517357;-0.577350;-0.631672;,
        -0.517357; 0.577349;-0.631672;,
         0.022530; 0.792338;-0.609667;,
         0.022530;-0.792338;-0.609667;,
        -0.631643; 0.577344; 0.517399;,
        -0.517357; 0.577349;-0.631672;,
        -0.517357;-0.577350;-0.631672;,
        -0.631643;-0.577344; 0.517399;,
         0.219096; 0.654469; 0.723649;,
         0.518821; 0.648914; 0.556539;,
        -0.251426; 0.675845;-0.692834;,
         0.022530; 0.792338;-0.609667;,
         0.518821;-0.648914; 0.556539;,
         0.706151;-0.630795; 0.321633;,
         0.706152; 0.630795; 0.321633;,
         0.518821; 0.648914; 0.556539;,
         0.022530; 0.792338;-0.609667;,
        -0.251426; 0.675845;-0.692834;,
        -0.251426;-0.675845;-0.692834;,
         0.022530;-0.792338;-0.609667;,
         0.219096;-0.654469; 0.723649;,
         0.518821;-0.648914; 0.556539;,
         0.518821; 0.648914; 0.556539;,
         0.219096; 0.654469; 0.723649;,
         0.022530;-0.792338;-0.609667;,
        -0.251426;-0.675845;-0.692834;,
         0.518821;-0.648914; 0.556539;,
         0.219096;-0.654469; 0.723649;,
        -0.464844;-0.837023;-0.288638;,
        -0.693475;-0.720352; 0.013630;,
         0.728602;-0.682801;-0.054053;,
         0.706151;-0.630795; 0.321633;,
        -0.251426;-0.675845;-0.692834;,
        -0.464844;-0.837023;-0.288638;,
         0.706151;-0.630795; 0.321633;,
         0.518821;-0.648914; 0.556539;,
         0.518821; 0.648914; 0.556539;,
         0.706152; 0.630795; 0.321633;,
        -0.464844; 0.837023;-0.288638;,
        -0.251426; 0.675845;-0.692834;,
        -0.251426; 0.675845;-0.692834;,
        -0.464844; 0.837023;-0.288638;,
        -0.464844;-0.837023;-0.288638;,
        -0.251426;-0.675845;-0.692834;,
        -0.693475; 0.720352; 0.013630;,
        -0.609554; 0.766073; 0.203901;,
        -0.609554;-0.766073; 0.203901;,
        -0.693475;-0.720352; 0.013630;,
         0.706152; 0.630795; 0.321633;,
         0.728602; 0.682801;-0.054053;,
        -0.693475; 0.720352; 0.013630;,
        -0.464844; 0.837023;-0.288638;,
        -0.464844; 0.837023;-0.288638;,
        -0.693475; 0.720352; 0.013630;,
        -0.693475;-0.720352; 0.013630;,
        -0.464844;-0.837023;-0.288638;,
         0.706151;-0.630795; 0.321633;,
         0.728602;-0.682801;-0.054053;,
         0.728602; 0.682801;-0.054053;,
         0.706152; 0.630795; 0.321633;,
        -0.609554;-0.766073; 0.203901;,
        -0.203414;-0.845314; 0.494031;,
         0.324710;-0.616652;-0.717149;,
         0.672715;-0.644630;-0.363190;,
         0.728602;-0.682801;-0.054053;,
         0.672715;-0.644630;-0.363190;,
         0.672715; 0.644630;-0.363190;,
         0.728602; 0.682801;-0.054053;,
        -0.693475;-0.720352; 0.013630;,
        -0.609554;-0.766073; 0.203901;,
         0.672715;-0.644630;-0.363190;,
         0.728602;-0.682801;-0.054053;,
         0.728602; 0.682801;-0.054053;,
         0.672715; 0.644630;-0.363190;,
        -0.609554; 0.766073; 0.203901;,
        -0.693475; 0.720352; 0.013630;,
        -0.203414;-0.845314; 0.494031;,
        -0.515298;-0.597816; 0.614072;,
        -0.562685;-0.597797;-0.570986;,
         0.324710;-0.616652;-0.717149;,
         0.672715; 0.644630;-0.363190;,
         0.324710; 0.616652;-0.717150;,
        -0.203414; 0.845314; 0.494031;,
        -0.609554; 0.766073; 0.203901;,
        -0.609554; 0.766073; 0.203901;,
        -0.203414; 0.845314; 0.494031;,
        -0.203414;-0.845314; 0.494031;,
        -0.609554;-0.766073; 0.203901;,
         0.672715;-0.644630;-0.363190;,
         0.324710;-0.616652;-0.717149;,
         0.324710; 0.616652;-0.717150;,
         0.672715; 0.644630;-0.363190;,
        -0.562685;-0.597797;-0.570986;,
        -0.515298;-0.597816; 0.614072;,
        -0.515298; 0.597816; 0.614072;,
        -0.562685; 0.597797;-0.570986;,
         0.324710; 0.616652;-0.717150;,
        -0.562685; 0.597797;-0.570986;,
        -0.515298; 0.597816; 0.614072;,
        -0.203414; 0.845314; 0.494031;,
        -0.203414; 0.845314; 0.494031;,
        -0.515298; 0.597816; 0.614072;,
        -0.515298;-0.597816; 0.614072;,
        -0.203414;-0.845314; 0.494031;,
         0.324710;-0.616652;-0.717149;,
        -0.562685;-0.597797;-0.570986;,
        -0.562685; 0.597797;-0.570986;,
         0.324710; 0.616652;-0.717150;,
        -0.156351; 0.925235; 0.345679;,
         0.023474; 0.936695; 0.349358;,
        -0.020275; 0.992802;-0.118042;,
        -0.237202; 0.934013;-0.267122;,
        -0.253997; 0.496147; 0.830255;,
         0.053598; 0.501960; 0.863229;,
         0.023474; 0.936695; 0.349358;,
        -0.156351; 0.925235; 0.345679;,
         0.043104; 0.919650;-0.390367;,
         0.132096; 0.617113;-0.775708;,
         0.267653;-0.000000;-0.963515;,
         0.761988;-0.000000;-0.647591;,
        -0.237202; 0.934013;-0.267122;,
        -0.020275; 0.992802;-0.118042;,
         0.132096; 0.617113;-0.775708;,
         0.043104; 0.919650;-0.390367;,
        -0.255837; 0.006281; 0.966699;,
         0.088506; 0.022018; 0.995832;,
         0.053598; 0.501960; 0.863229;,
        -0.253997; 0.496147; 0.830255;,
        -0.163813;-0.923452; 0.346989;,
        -0.243957;-0.931294;-0.270510;,
        -0.019557;-0.992357;-0.121841;,
         0.019867;-0.941716; 0.335822;,
        -0.255354;-0.487667; 0.834850;,
        -0.163813;-0.923452; 0.346989;,
         0.019867;-0.941716; 0.335822;,
         0.064408;-0.487866; 0.870539;,
         0.043104;-0.919650;-0.390367;,
         0.761988;-0.000000;-0.647591;,
         0.267653;-0.000000;-0.963515;,
         0.132096;-0.617113;-0.775708;,
        -0.243957;-0.931294;-0.270510;,
         0.043104;-0.919650;-0.390367;,
         0.132096;-0.617113;-0.775708;,
        -0.019557;-0.992357;-0.121841;,
        -0.255837; 0.006281; 0.966699;,
        -0.255354;-0.487667; 0.834850;,
         0.064408;-0.487866; 0.870539;,
         0.088506; 0.022018; 0.995832;;
        164;
        4;3,2,1,0;,
        4;7,6,5,4;,
        4;11,10,9,8;,
        4;15,14,13,12;,
        4;19,18,17,16;,
        4;23,22,21,20;,
        4;27,26,25,24;,
        4;31,30,29,28;,
        4;35,34,33,32;,
        4;39,38,37,36;,
        18;57,56,55,54,53,52,51,50,49,48,47,46,45,44,43,42,41,40;,
        4;61,60,59,58;,
        4;65,64,63,62;,
        4;69,68,67,66;,
        4;73,72,71,70;,
        4;77,76,75,74;,
        4;81,80,79,78;,
        4;85,84,83,82;,
        4;89,88,87,86;,
        4;93,92,91,90;,
        4;97,96,95,94;,
        4;101,100,99,98;,
        4;105,104,103,102;,
        4;109,108,107,106;,
        4;113,112,111,110;,
        4;117,116,115,114;,
        4;121,120,119,118;,
        4;125,124,123,122;,
        4;129,128,127,126;,
        4;133,132,131,130;,
        4;137,136,135,134;,
        4;141,140,139,138;,
        4;145,144,143,142;,
        4;149,148,147,146;,
        4;153,152,151,150;,
        18;171,170,169,168,167,166,165,164,163,162,161,160,159,158,157,156,155,154;,
        5;176,175,174,173,172;,
        4;180,179,178,177;,
        4;184,183,182,181;,
        4;188,187,186,185;,
        6;194,193,192,191,190,189;,
        4;198,197,196,195;,
        4;202,201,200,199;,
        4;206,205,204,203;,
        4;210,209,208,207;,
        5;215,214,213,212,211;,
        4;219,218,217,216;,
        4;223,222,221,220;,
        4;227,226,225,224;,
        4;231,230,229,228;,
        6;237,236,235,234,233,232;,
        4;241,240,239,238;,
        4;245,244,243,242;,
        4;249,248,247,246;,
        4;253,252,251,250;,
        6;259,258,257,256,255,254;,
        4;263,262,261,260;,
        4;267,266,265,264;,
        4;271,270,269,268;,
        4;275,274,273,272;,
        4;279,278,277,276;,
        4;283,282,281,280;,
        4;287,286,285,284;,
        4;291,290,289,288;,
        4;295,294,293,292;,
        4;299,298,297,296;,
        4;303,302,301,300;,
        4;307,306,305,304;,
        4;311,310,309,308;,
        4;315,314,313,312;,
        4;319,318,317,316;,
        4;323,322,321,320;,
        18;341,340,339,338,337,336,335,334,333,332,331,330,329,328,327,326,325,324;,
        4;345,344,343,342;,
        4;349,348,347,346;,
        4;353,352,351,350;,
        4;357,356,355,354;,
        4;361,360,359,358;,
        4;365,364,363,362;,
        4;369,368,367,366;,
        4;373,372,371,370;,
        4;377,376,375,374;,
        4;381,380,379,378;,
        4;385,384,383,382;,
        4;389,388,387,386;,
        4;393,392,391,390;,
        4;397,396,395,394;,
        4;401,400,399,398;,
        4;405,404,403,402;,
        4;409,408,407,406;,
        4;413,412,411,410;,
        4;417,416,415,414;,
        4;421,420,419,418;,
        4;425,424,423,422;,
        4;429,428,427,426;,
        4;433,432,431,430;,
        4;437,436,435,434;,
        18;455,454,453,452,451,450,449,448,447,446,445,444,443,442,441,440,439,438;,
        5;460,459,458,457,456;,
        4;464,463,462,461;,
        4;468,467,466,465;,
        4;472,471,470,469;,
        6;478,477,476,475,474,473;,
        4;482,481,480,479;,
        4;486,485,484,483;,
        4;490,489,488,487;,
        4;494,493,492,491;,
        5;499,498,497,496,495;,
        4;503,502,501,500;,
        4;507,506,505,504;,
        4;511,510,509,508;,
        4;515,514,513,512;,
        6;521,520,519,518,517,516;,
        4;525,524,523,522;,
        4;529,528,527,526;,
        4;533,532,531,530;,
        4;537,536,535,534;,
        6;543,542,541,540,539,538;,
        4;547,546,545,544;,
        4;551,550,549,548;,
        4;555,554,553,552;,
        4;559,558,557,556;,
        4;563,562,561,560;,
        4;567,566,565,564;,
        4;571,570,569,568;,
        4;575,574,573,572;,
        4;579,578,577,576;,
        4;583,582,581,580;,
        4;587,586,585,584;,
        4;591,590,589,588;,
        4;595,594,593,592;,
        4;599,598,597,596;,
        4;603,602,601,600;,
        4;607,606,605,604;,
        4;611,610,609,608;,
        4;615,614,613,612;,
        4;619,618,617,616;,
        4;623,622,621,620;,
        4;627,626,625,624;,
        4;631,630,629,628;,
        4;635,634,633,632;,
        4;639,638,637,636;,
        4;643,642,641,640;,
        4;647,646,645,644;,
        4;651,650,649,648;,
        4;655,654,653,652;,
        4;659,658,657,656;,
        4;663,662,661,660;,
        4;667,666,665,664;,
        4;671,670,669,668;,
        4;675,674,673,672;,
        4;679,678,677,676;,
        4;683,682,681,680;,
        4;687,686,685,684;,
        4;691,690,689,688;,
        4;695,694,693,692;,
        4;699,698,697,696;,
        4;703,702,701,700;,
        4;707,706,705,704;,
        4;711,710,709,708;,
        4;715,714,713,712;,
        4;719,718,717,716;,
        4;723,722,721,720;,
        4;727,726,725,724;;
      }
      MeshTextureCoords {
        728;
         0.855350; 0.677824;,
         0.890319; 0.682632;,
         0.890319; 0.733159;,
         0.858069; 0.729788;,
         0.063754; 0.153859;,
         0.046476; 0.151577;,
         0.046537; 0.118443;,
         0.063754; 0.117780;,
         0.675493; 0.157305;,
         0.634051; 0.152750;,
         0.632685; 0.124210;,
         0.679780; 0.124210;,
         0.387171; 0.209221;,
         0.387171; 0.220784;,
         0.366164; 0.225325;,
         0.366164; 0.209988;,
         0.488019; 0.455009;,
         0.488019; 0.468370;,
         0.440978; 0.469720;,
         0.440978; 0.454521;,
         0.264187; 0.059037;,
         0.241678; 0.058552;,
         0.242268; 0.034997;,
         0.264187; 0.033537;,
         0.758019; 0.688003;,
         0.760356; 0.707855;,
         0.736358; 0.690843;,
         0.733757; 0.670672;,
         0.835893; 0.248181;,
         0.835893; 0.664521;,
         0.812332; 0.654380;,
         0.812332; 0.247096;,
         0.952257; 0.280044;,
         0.939567; 0.304911;,
         0.916005; 0.317766;,
         0.916005; 0.304844;,
         0.780915; 0.996617;,
         0.769314; 0.678353;,
         0.805565; 0.671287;,
         0.805565; 0.989551;,
         0.610002; 0.565226;,
         0.574931; 0.579092;,
         0.552822; 0.613778;,
         0.555343; 0.654773;,
         0.581530; 0.686418;,
         0.621370; 0.696606;,
         0.631908; 0.692437;,
         0.619008; 0.780219;,
         0.583459; 0.794282;,
         0.561355; 0.828978;,
         0.563874; 0.869969;,
         0.590054; 0.901600;,
         0.629894; 0.911789;,
         0.640915; 0.907429;,
         0.653848; 0.982534;,
         0.510917; 0.996617;,
         0.494785; 0.606763;,
         0.653848; 0.477185;,
         0.901730; 0.643727;,
         0.906748; 0.664203;,
         0.884393; 0.664521;,
         0.880909; 0.647646;,
         0.793678; 0.098119;,
         0.804381; 0.099858;,
         0.804381; 0.136585;,
         0.794791; 0.119582;,
         0.473268; 0.229104;,
         0.487158; 0.245584;,
         0.440978; 0.244109;,
         0.440978; 0.226148;,
         0.625919; 0.087890;,
         0.602781; 0.086650;,
         0.605211; 0.003383;,
         0.623872; 0.005168;,
         0.894533; 0.554943;,
         0.901730; 0.643727;,
         0.880909; 0.647646;,
         0.872987; 0.556734;,
         0.322203; 0.490120;,
         0.322203; 0.996617;,
         0.297156; 0.993616;,
         0.301672; 0.486340;,
         0.952257; 0.164834;,
         0.952257; 0.280044;,
         0.916005; 0.304844;,
         0.916005; 0.171343;,
         0.760356; 0.596408;,
         0.758019; 0.688003;,
         0.733757; 0.670672;,
         0.741741; 0.596116;,
         0.387171; 0.133620;,
         0.387171; 0.209221;,
         0.366164; 0.209988;,
         0.366164; 0.136274;,
         0.004039; 0.446303;,
         0.005175; 0.355054;,
         0.109408; 0.357779;,
         0.106638; 0.449362;,
         0.005175; 0.355054;,
         0.003383; 0.337916;,
         0.107164; 0.337916;,
         0.109408; 0.357779;,
         0.669412; 0.053801;,
         0.659071; 0.117444;,
         0.633756; 0.114282;,
         0.632685; 0.053801;,
         0.166210; 0.028453;,
         0.184246; 0.027324;,
         0.184246; 0.056991;,
         0.166184; 0.058066;,
         0.249448; 0.186983;,
         0.210275; 0.449466;,
         0.174199; 0.449916;,
         0.166184; 0.184450;,
         0.394633; 0.124503;,
         0.456342; 0.108627;,
         0.460232; 0.129138;,
         0.398227; 0.144522;,
         0.897712; 0.996617;,
         0.855350; 0.944980;,
         0.861996; 0.739925;,
         0.897712; 0.803649;,
         0.166184; 0.177684;,
         0.175518; 0.106832;,
         0.200169; 0.099766;,
         0.200169; 0.170618;,
         0.835893; 0.200628;,
         0.835893; 0.248181;,
         0.812332; 0.247096;,
         0.812332; 0.200679;,
         0.398227; 0.144522;,
         0.460232; 0.129138;,
         0.460232; 0.211262;,
         0.393937; 0.219382;,
         0.789289; 0.470419;,
         0.690621; 0.455237;,
         0.687312; 0.352646;,
         0.789289; 0.188584;,
         0.387171; 0.041464;,
         0.387171; 0.133620;,
         0.366164; 0.136274;,
         0.361725; 0.046004;,
         0.989668; 0.501850;,
         0.989668; 0.695022;,
         0.979190; 0.679632;,
         0.979409; 0.486664;,
         0.904478; 0.984836;,
         0.904478; 0.842177;,
         0.940730; 0.835668;,
         0.940730; 0.996617;,
         0.906748; 0.457906;,
         0.894533; 0.554943;,
         0.872987; 0.556734;,
         0.884478; 0.457569;,
         0.166184; 0.755970;,
         0.186046; 0.669497;,
         0.214585; 0.660785;,
         0.239393; 0.627979;,
         0.240154; 0.586919;,
         0.216577; 0.553289;,
         0.177667; 0.539935;,
         0.174359; 0.540945;,
         0.225090; 0.456682;,
         0.301672; 0.486340;,
         0.297156; 0.993616;,
         0.184771; 0.960420;,
         0.177871; 0.884523;,
         0.205914; 0.875962;,
         0.230722; 0.843156;,
         0.231482; 0.802096;,
         0.207905; 0.768466;,
         0.168996; 0.755112;,
         0.004271; 0.271838;,
         0.004245; 0.231761;,
         0.035658; 0.231761;,
         0.035658; 0.270582;,
         0.035658; 0.271838;,
         0.035658; 0.231761;,
         0.004245; 0.231761;,
         0.003596; 0.204879;,
         0.035658; 0.204879;,
         0.845340; 0.080339;,
         0.845340; 0.112401;,
         0.812332; 0.113406;,
         0.812332; 0.080339;,
         0.529294; 0.197900;,
         0.496227; 0.197900;,
         0.495250; 0.156733;,
         0.529294; 0.156733;,
         0.529294; 0.137297;,
         0.529294; 0.156733;,
         0.495250; 0.156733;,
         0.494832; 0.132805;,
         0.494785; 0.123131;,
         0.529294; 0.123131;,
         0.248635; 0.143713;,
         0.282719; 0.143713;,
         0.282719; 0.177684;,
         0.248210; 0.177684;,
         0.249489; 0.102559;,
         0.282719; 0.102559;,
         0.282719; 0.143713;,
         0.248635; 0.143713;,
         0.687312; 0.099328;,
         0.687312; 0.067053;,
         0.719930; 0.067053;,
         0.719930; 0.100283;,
         0.004076; 0.309801;,
         0.035658; 0.309801;,
         0.035658; 0.331150;,
         0.003383; 0.331150;,
         0.035658; 0.271838;,
         0.035658; 0.309801;,
         0.004076; 0.309801;,
         0.004229; 0.274549;,
         0.004271; 0.271838;,
         0.926808; 0.383845;,
         0.926841; 0.423921;,
         0.900511; 0.423921;,
         0.900511; 0.383845;,
         0.900511; 0.423921;,
         0.926841; 0.423921;,
         0.927480; 0.450803;,
         0.900511; 0.450803;,
         0.780904; 0.097134;,
         0.753935; 0.097134;,
         0.752927; 0.064126;,
         0.780904; 0.064126;,
         0.716736; 0.181818;,
         0.688759; 0.181818;,
         0.687785; 0.140651;,
         0.716736; 0.140651;,
         0.716736; 0.140651;,
         0.687785; 0.140651;,
         0.687357; 0.116299;,
         0.687312; 0.107049;,
         0.716736; 0.107049;,
         0.716736; 0.118916;,
         0.916905; 0.116080;,
         0.945905; 0.116080;,
         0.945905; 0.150051;,
         0.916481; 0.150051;,
         0.917483; 0.074926;,
         0.945905; 0.074926;,
         0.945905; 0.116080;,
         0.916905; 0.116080;,
         0.905377; 0.714393;,
         0.932901; 0.714393;,
         0.932901; 0.747011;,
         0.904478; 0.747011;,
         0.927159; 0.345881;,
         0.900511; 0.345881;,
         0.900511; 0.324532;,
         0.928035; 0.324532;,
         0.926858; 0.380655;,
         0.926808; 0.383845;,
         0.900511; 0.383845;,
         0.900511; 0.382347;,
         0.900511; 0.345881;,
         0.927159; 0.345881;,
         0.470536; 0.256904;,
         0.487158; 0.245584;,
         0.488019; 0.455009;,
         0.468292; 0.443861;,
         0.468292; 0.443861;,
         0.488019; 0.455009;,
         0.440978; 0.454521;,
         0.440978; 0.444376;,
         0.440978; 0.255117;,
         0.440978; 0.244109;,
         0.487158; 0.245584;,
         0.470536; 0.256904;,
         0.942810; 0.693259;,
         0.945929; 0.514971;,
         0.972424; 0.514479;,
         0.972424; 0.695022;,
         0.936044; 0.695022;,
         0.913563; 0.689382;,
         0.913515; 0.462870;,
         0.936044; 0.457569;,
         0.916512; 0.040780;,
         0.939364; 0.039225;,
         0.939364; 0.065781;,
         0.916481; 0.068160;,
         0.527199; 0.063482;,
         0.527199; 0.115517;,
         0.494785; 0.116365;,
         0.499522; 0.064300;,
         0.348916; 0.141597;,
         0.348916; 0.177684;,
         0.331681; 0.177053;,
         0.331694; 0.143900;,
         0.816618; 0.153268;,
         0.812332; 0.120172;,
         0.859426; 0.120172;,
         0.858060; 0.148712;,
         0.596015; 0.030143;,
         0.575008; 0.029376;,
         0.575008; 0.014039;,
         0.596015; 0.018580;,
         0.393937; 0.455009;,
         0.440978; 0.454521;,
         0.440978; 0.469720;,
         0.393937; 0.468370;,
         0.311994; 0.034774;,
         0.311994; 0.060274;,
         0.290076; 0.058813;,
         0.289485; 0.035259;,
         0.140292; 0.093876;,
         0.116174; 0.111228;,
         0.118751; 0.091053;,
         0.142704; 0.074036;,
         0.866221; 0.616969;,
         0.842659; 0.618053;,
         0.842659; 0.210769;,
         0.866221; 0.200629;,
         0.039635; 0.082903;,
         0.003383; 0.058103;,
         0.003383; 0.045181;,
         0.026945; 0.058036;,
         0.823933; 0.671287;,
         0.848583; 0.678353;,
         0.848583; 0.996617;,
         0.812332; 0.989552;,
         0.444175; 0.908477;,
         0.488019; 0.996617;,
         0.328969; 0.867019;,
         0.345096; 0.476487;,
         0.488019; 0.490491;,
         0.475086; 0.565721;,
         0.464065; 0.561363;,
         0.424228; 0.571598;,
         0.398050; 0.603298;,
         0.395531; 0.644355;,
         0.417634; 0.679086;,
         0.453181; 0.693145;,
         0.466080; 0.781054;,
         0.455542; 0.776886;,
         0.415705; 0.787121;,
         0.389519; 0.818827;,
         0.386998; 0.859886;,
         0.409106; 0.894613;,
         0.103799; 0.145088;,
         0.082578; 0.141051;,
         0.086054; 0.124174;,
         0.108809; 0.124610;,
         0.793678; 0.181818;,
         0.794791; 0.160355;,
         0.804381; 0.143351;,
         0.804381; 0.180079;,
         0.408687; 0.229104;,
         0.440978; 0.226148;,
         0.440978; 0.244109;,
         0.394798; 0.245584;,
         0.466998; 0.113207;,
         0.467704; 0.026633;,
         0.486729; 0.024661;,
         0.487853; 0.107989;,
         0.096645; 0.233891;,
         0.074700; 0.231982;,
         0.082578; 0.141051;,
         0.103799; 0.145088;,
         0.159417; 0.963124;,
         0.138884; 0.966890;,
         0.134323; 0.458817;,
         0.159417; 0.456128;,
         0.039635; 0.198113;,
         0.003383; 0.191603;,
         0.003383; 0.058103;,
         0.039635; 0.082903;,
         0.142704; 0.185486;,
         0.124222; 0.185799;,
         0.116174; 0.111228;,
         0.140292; 0.093876;,
         0.596015; 0.105744;,
         0.575008; 0.103090;,
         0.575008; 0.029376;,
         0.596015; 0.030143;,
         0.765925; 0.585588;,
         0.663442; 0.588633;,
         0.660614; 0.497035;,
         0.764732; 0.494325;,
         0.764732; 0.494325;,
         0.660614; 0.497035;,
         0.662936; 0.477185;,
         0.766515; 0.477185;,
         0.872987; 0.086408;,
         0.909714; 0.086408;,
         0.908643; 0.146890;,
         0.883328; 0.150051;,
         0.726723; 0.099154;,
         0.726696; 0.069542;,
         0.744759; 0.070617;,
         0.744759; 0.100283;,
         0.597213; 0.205286;,
         0.680545; 0.204666;,
         0.672586; 0.470419;,
         0.636502; 0.469910;,
         0.661321; 0.691906;,
         0.664908; 0.671886;,
         0.726991; 0.687350;,
         0.723071; 0.707855;,
         0.158546; 0.192565;,
         0.158546; 0.385740;,
         0.123037; 0.449362;,
         0.116174; 0.244312;,
         0.752927; 0.103900;,
         0.786912; 0.110965;,
         0.786912; 0.181818;,
         0.762261; 0.174752;,
         0.866221; 0.664521;,
         0.842659; 0.664470;,
         0.842659; 0.618053;,
         0.866221; 0.616969;,
         0.664908; 0.671886;,
         0.660614; 0.597005;,
         0.726991; 0.605209;,
         0.726991; 0.687350;,
         0.762547; 0.714621;,
         0.762547; 0.996617;,
         0.660614; 0.832284;,
         0.663884; 0.729808;,
         0.596015; 0.197900;,
         0.570569; 0.193359;,
         0.575008; 0.103090;,
         0.596015; 0.105744;,
         0.995985; 0.302666;,
         0.985838; 0.317766;,
         0.985619; 0.124591;,
         0.995985; 0.109287;,
         0.872987; 0.168598;,
         0.909239; 0.156817;,
         0.909239; 0.317766;,
         0.872987; 0.311256;,
         0.108809; 0.330931;,
         0.086139; 0.331150;,
         0.074700; 0.231982;,
         0.096645; 0.233891;,
         0.003383; 0.696889;,
         0.006195; 0.697748;,
         0.045101; 0.684359;,
         0.068673; 0.650667;,
         0.067908; 0.609542;,
         0.043099; 0.576690;,
         0.015057; 0.568125;,
         0.021950; 0.492103;,
         0.134323; 0.458817;,
         0.138884; 0.966890;,
         0.062310; 0.996617;,
         0.011578; 0.912254;,
         0.014886; 0.913265;,
         0.053791; 0.899876;,
         0.077363; 0.866184;,
         0.076599; 0.825058;,
         0.051790; 0.792207;,
         0.023252; 0.783490;,
         0.067046; 0.271838;,
         0.035658; 0.271838;,
         0.035658; 0.270582;,
         0.035658; 0.231761;,
         0.067072; 0.231761;,
         0.035658; 0.231761;,
         0.035658; 0.204879;,
         0.067721; 0.204879;,
         0.067072; 0.231761;,
         0.426946; 0.101861;,
         0.393937; 0.101861;,
         0.393937; 0.068794;,
         0.426946; 0.069799;,
         0.529294; 0.197900;,
         0.529294; 0.156733;,
         0.563338; 0.156733;,
         0.562361; 0.197900;,
         0.529294; 0.137297;,
         0.529294; 0.123131;,
         0.563803; 0.123131;,
         0.563756; 0.132805;,
         0.563338; 0.156733;,
         0.529294; 0.156733;,
         0.241019; 0.143713;,
         0.241444; 0.177684;,
         0.206935; 0.177684;,
         0.206935; 0.143713;,
         0.240165; 0.102559;,
         0.241019; 0.143713;,
         0.206935; 0.143713;,
         0.206935; 0.102559;,
         0.322104; 0.099316;,
         0.289485; 0.100271;,
         0.289485; 0.067040;,
         0.322104; 0.067040;,
         0.067241; 0.309801;,
         0.067934; 0.331150;,
         0.035658; 0.331150;,
         0.035658; 0.309801;,
         0.035658; 0.271838;,
         0.067046; 0.271838;,
         0.067088; 0.274549;,
         0.067241; 0.309801;,
         0.035658; 0.309801;,
         0.874214; 0.383845;,
         0.900511; 0.383845;,
         0.900511; 0.423921;,
         0.874181; 0.423921;,
         0.900511; 0.423921;,
         0.900511; 0.450803;,
         0.873543; 0.450803;,
         0.874181; 0.423921;,
         0.234912; 0.062785;,
         0.234912; 0.095793;,
         0.206935; 0.095793;,
         0.207943; 0.062785;,
         0.716736; 0.181818;,
         0.716736; 0.140651;,
         0.745687; 0.140651;,
         0.744713; 0.181818;,
         0.716736; 0.140651;,
         0.716736; 0.118916;,
         0.716736; 0.107049;,
         0.746161; 0.107049;,
         0.746115; 0.116299;,
         0.745687; 0.140651;,
         0.933479; 0.794931;,
         0.933903; 0.828902;,
         0.904478; 0.828902;,
         0.904478; 0.794931;,
         0.932901; 0.753777;,
         0.933479; 0.794931;,
         0.904478; 0.794931;,
         0.904478; 0.753777;,
         0.561489; 0.083747;,
         0.562388; 0.116365;,
         0.533965; 0.116365;,
         0.533965; 0.083747;,
         0.873863; 0.345881;,
         0.872987; 0.324532;,
         0.900511; 0.324532;,
         0.900511; 0.345881;,
         0.874164; 0.380655;,
         0.873863; 0.345881;,
         0.900511; 0.345881;,
         0.900511; 0.382347;,
         0.900511; 0.383845;,
         0.874214; 0.383845;,
         0.411419; 0.256904;,
         0.413663; 0.443861;,
         0.393937; 0.455009;,
         0.394798; 0.245584;,
         0.413663; 0.443861;,
         0.440978; 0.444376;,
         0.440978; 0.454521;,
         0.393937; 0.455009;,
         0.440978; 0.255117;,
         0.411419; 0.256904;,
         0.394798; 0.245584;,
         0.440978; 0.244109;,
         0.773281; 0.478948;,
         0.802895; 0.477185;,
         0.802895; 0.657728;,
         0.776399; 0.657236;,
         0.387171; 0.232091;,
         0.387171; 0.469720;,
         0.364643; 0.464425;,
         0.364696; 0.237769;,
         0.116205; 0.065715;,
         0.116174; 0.038335;,
         0.139057; 0.040714;,
         0.139057; 0.067270;,
         0.166184; 0.064851;,
         0.194339; 0.064832;,
         0.194339; 0.092981;,
         0.166184; 0.093000;,
         0.772233; 0.029197;,
         0.772233; 0.057359;,
         0.752927; 0.057359;,
         0.752927; 0.029197;,
         0.562095; 0.076981;,
         0.533965; 0.076941;,
         0.533965; 0.048791;,
         0.562095; 0.048831;,
         0.901146; 0.051480;,
         0.901146; 0.079642;,
         0.872987; 0.079642;,
         0.872987; 0.051480;,
         0.046401; 0.034481;,
         0.066904; 0.034481;,
         0.066904; 0.062643;,
         0.046401; 0.062643;,
         0.834152; 0.041685;,
         0.834152; 0.073573;,
         0.814104; 0.071939;,
         0.812332; 0.059478;,
         0.206935; 0.056018;,
         0.206935; 0.029333;,
         0.227063; 0.029333;,
         0.227063; 0.056018;,
         0.852106; 0.085244;,
         0.863112; 0.089261;,
         0.863112; 0.109389;,
         0.852106; 0.113406;,
         0.241678; 0.095793;,
         0.245694; 0.065803;,
         0.265823; 0.065803;,
         0.269840; 0.095793;,
         0.840919; 0.055743;,
         0.842641; 0.043215;,
         0.862676; 0.041615;,
         0.862676; 0.073573;,
         0.959023; 0.314381;,
         0.959035; 0.082105;,
         0.978853; 0.078604;,
         0.978853; 0.317766;,
         0.514883; 0.029716;,
         0.512498; 0.043719;,
         0.497143; 0.056715;,
         0.494785; 0.029716;,
         0.799114; 0.030359;,
         0.796730; 0.057359;,
         0.781374; 0.044362;,
         0.778999; 0.030359;,
         0.805552; 0.091353;,
         0.793678; 0.091353;,
         0.793678; 0.071224;,
         0.805552; 0.071224;,
         0.893116; 0.023746;,
         0.893116; 0.044714;,
         0.872987; 0.044714;,
         0.872987; 0.023746;,
         0.967325; 0.757226;,
         0.967325; 0.996617;,
         0.947508; 0.993124;,
         0.947496; 0.760626;,
         0.962939; 0.328141;,
         0.962939; 0.507713;,
         0.942810; 0.507713;,
         0.942810; 0.328141;,
         0.974091; 0.996617;,
         0.974091; 0.800110;,
         0.994220; 0.800110;,
         0.994220; 0.996617;,
         0.453838; 0.060290;,
         0.450071; 0.086149;,
         0.437531; 0.101861;,
         0.433712; 0.060290;,
         0.331681; 0.047925;,
         0.331681; 0.023591;,
         0.351810; 0.023591;,
         0.351810; 0.047925;,
         0.959792; 0.711173;,
         0.958168; 0.736133;,
         0.941234; 0.747011;,
         0.939667; 0.711173;,
         0.351804; 0.054691;,
         0.350228; 0.090566;,
         0.333299; 0.079677;,
         0.331681; 0.054691;,
         0.739645; 0.032548;,
         0.741594; 0.060286;,
         0.717848; 0.060286;,
         0.719543; 0.032548;,
         0.066529; 0.069410;,
         0.062749; 0.111014;,
         0.050193; 0.095290;,
         0.046401; 0.069410;,
         0.453840; 0.027452;,
         0.453840; 0.053524;,
         0.433711; 0.053524;,
         0.433711; 0.027452;,
         0.966259; 0.035748;,
         0.966259; 0.068160;,
         0.946130; 0.068160;,
         0.946130; 0.035748;,
         0.652088; 0.047035;,
         0.632685; 0.047035;,
         0.632685; 0.023257;,
         0.652088; 0.023257;,
         0.689069; 0.060286;,
         0.687312; 0.032560;,
         0.711082; 0.032560;,
         0.709191; 0.060286;,
         0.677755; 0.045210;,
         0.658854; 0.047035;,
         0.658854; 0.023257;,
         0.677755; 0.025082;,
         0.415890; 0.034228;,
         0.417715; 0.062028;,
         0.393937; 0.062028;,
         0.395761; 0.034228;,
         0.494785; 0.204666;,
         0.597213; 0.205286;,
         0.636502; 0.469910;,
         0.592242; 0.469286;,
         0.467030; 0.219382;,
         0.466998; 0.113207;,
         0.487853; 0.107989;,
         0.487853; 0.210419;,
         0.821876; 0.193862;,
         0.816618; 0.153268;,
         0.858060; 0.148712;,
         0.856385; 0.183719;,
         0.348916; 0.097332;,
         0.348916; 0.141597;,
         0.331694; 0.143900;,
         0.331709; 0.103235;,
         0.077179; 0.115040;,
         0.074700; 0.045956;,
         0.102918; 0.052459;,
         0.102918; 0.117408;,
         0.351943; 0.184450;,
         0.254526; 0.448913;,
         0.210275; 0.449466;,
         0.249448; 0.186983;,
         0.625919; 0.197900;,
         0.605440; 0.189142;,
         0.602781; 0.086650;,
         0.625919; 0.087890;,
         0.670236; 0.197900;,
         0.635726; 0.187757;,
         0.634051; 0.152750;,
         0.675493; 0.157305;,
         0.063754; 0.198113;,
         0.046401; 0.192220;,
         0.046476; 0.151577;,
         0.063754; 0.153859;,
         0.299161; 0.109236;,
         0.324915; 0.107037;,
         0.324915; 0.174909;,
         0.289485; 0.177684;;
      }
      MeshMaterialList {
        1;
        164;
        0,
        0,
        0,
        0,
        0,
        0,
        0,
        0,
        0,
        0,
        0,
        0,
        0,
        0,
        0,
        0,
        0,
        0,
        0,
        0,
        0,
        0,
        0,
        0,
        0,
        0,
        0,
        0,
        0,
        0,
        0,
        0,
        0,
        0,
        0,
        0,
        0,
        0,
        0,
        0,
        0,
        0,
        0,
        0,
        0,
        0,
        0,
        0,
        0,
        0,
        0,
        0,
        0,
        0,
        0,
        0,
        0,
        0,
        0,
        0,
        0,
        0,
        0,
        0,
        0,
        0,
        0,
        0,
        0,
        0,
        0,
        0,
        0,
        0,
        0,
        0,
        0,
        0,
        0,
        0,
        0,
        0,
        0,
        0,
        0,
        0,
        0,
        0,
        0,
        0,
        0,
        0,
        0,
        0,
        0,
        0,
        0,
        0,
        0,
        0,
        0,
        0,
        0,
        0,
        0,
        0,
        0,
        0,
        0,
        0,
        0,
        0,
        0,
        0,
        0,
        0,
        0,
        0,
        0,
        0,
        0,
        0,
        0,
        0,
        0,
        0,
        0,
        0,
        0,
        0,
        0,
        0,
        0,
        0,
        0,
        0,
        0,
        0,
        0,
        0,
        0,
        0,
        0,
        0,
        0,
        0,
        0,
        0,
        0,
        0,
        0,
        0,
        0,
        0,
        0,
        0,
        0,
        0,
        0,
        0,
        0,
        0,
        0,
        0;
        Material _null_ {
           0.800000; 0.800000; 0.800000; 1.000000;;
           323.999994;
           0.500000; 0.500000; 0.500000;;
           0.000000; 0.000000; 0.000000;;
        }
      }
    }
  }
}
