xof 0303txt 0032

Frame Root {
  FrameTransformMatrix {
     1.000000, 0.000000, 0.000000, 0.000000,
     0.000000,-0.000000, 1.000000, 0.000000,
     0.000000, 1.000000, 0.000000, 0.000000,
     0.000000, 0.000000, 0.000000, 1.000000;;
  }
  Frame Cube {
    FrameTransformMatrix {
       1.000000, 0.000000, 0.000000, 0.000000,
       0.000000, 1.000000, 0.000000, 0.000000,
       0.000000, 0.000000, 1.000000, 0.000000,
       0.000000, 0.000000, 0.000000, 1.000000;;
    }
    Mesh {
      544;
      -0.024813;-0.000407;-0.109487;,
      -0.024813;-0.000407;-0.007865;,
      -0.027218;-0.000407;-0.007955;,
      -0.027218;-0.000407;-0.106155;,
      -0.024813;-0.000407;-0.007865;,
      -0.024813;-0.006997;-0.007865;,
      -0.027218;-0.004579;-0.007955;,
      -0.027218;-0.000407;-0.007955;,
      -0.024813;-0.006997;-0.007865;,
      -0.024813;-0.006997;-0.109487;,
      -0.027218;-0.004579;-0.106155;,
      -0.027218;-0.004579;-0.007955;,
      -0.024813;-0.006997;-0.109487;,
      -0.024813;-0.000407;-0.109487;,
      -0.027218;-0.000407;-0.106155;,
      -0.027218;-0.004579;-0.106155;,
      -0.004715;-0.000407;-0.008224;,
      -0.004715;-0.000407;-0.105381;,
      -0.004715;-0.005280;-0.105381;,
      -0.004715;-0.005280;-0.008224;,
      -0.027218;-0.004579;-0.007955;,
      -0.027218;-0.004579;-0.106155;,
      -0.027218;-0.000407;-0.106155;,
      -0.027218;-0.000407;-0.007955;,
      -0.006724;-0.006997;-0.109487;,
      -0.006724;-0.000407;-0.109487;,
      -0.024813;-0.000407;-0.109487;,
      -0.024813;-0.006997;-0.109487;,
      -0.024813;-0.006997;-0.109487;,
      -0.016189;-0.006997;-0.083779;,
      -0.015506;-0.006997;-0.083557;,
      -0.006724;-0.006997;-0.109487;,
      -0.016189;-0.006997;-0.061708;,
      -0.014996;-0.006997;-0.061320;,
      -0.011854;-0.006997;-0.070437;,
      -0.016189;-0.006997;-0.069029;,
      -0.011854;-0.006997;-0.060299;,
      -0.009175;-0.006997;-0.056612;,
      -0.009175;-0.006997;-0.052054;,
      -0.011854;-0.006997;-0.048366;,
      -0.016189;-0.006997;-0.046958;,
      -0.016189;-0.006997;-0.036359;,
      -0.011854;-0.006997;-0.034950;,
      -0.009175;-0.006997;-0.031263;,
      -0.009175;-0.006997;-0.026705;,
      -0.011854;-0.006997;-0.023017;,
      -0.016189;-0.006997;-0.021608;,
      -0.020524;-0.006997;-0.023017;,
      -0.023203;-0.006997;-0.026705;,
      -0.023203;-0.006997;-0.031263;,
      -0.020524;-0.006997;-0.034950;,
      -0.018708;-0.006997;-0.035540;,
      -0.020524;-0.006997;-0.048366;,
      -0.023203;-0.006997;-0.052054;,
      -0.023203;-0.006997;-0.056612;,
      -0.020524;-0.006997;-0.060299;,
      -0.016189;-0.006997;-0.061708;,
      -0.016189;-0.006997;-0.069029;,
      -0.020524;-0.006997;-0.070437;,
      -0.023203;-0.006997;-0.074125;,
      -0.023203;-0.006997;-0.078683;,
      -0.020524;-0.006997;-0.082371;,
      -0.016189;-0.006997;-0.083779;,
      -0.024813;-0.006997;-0.109487;,
      -0.024813;-0.006997;-0.007865;,
      -0.006724;-0.006997;-0.007865;,
      -0.006724;-0.006997;-0.109487;,
      -0.015506;-0.006997;-0.083557;,
      -0.011854;-0.006997;-0.082371;,
      -0.009175;-0.006997;-0.078683;,
      -0.009175;-0.006997;-0.074125;,
      -0.011854;-0.006997;-0.070437;,
      -0.014996;-0.006997;-0.061320;,
      -0.020524;-0.006997;-0.048366;,
      -0.018708;-0.006997;-0.035540;,
      -0.016189;-0.006997;-0.036359;,
      -0.016189;-0.006997;-0.046958;,
      -0.006724;-0.000407;-0.007865;,
      -0.006724;-0.006997;-0.007865;,
      -0.024813;-0.006997;-0.007865;,
      -0.024813;-0.000407;-0.007865;,
      -0.004715;-0.000407;-0.105381;,
      -0.004715;-0.000407;-0.008224;,
      -0.006724;-0.000407;-0.007865;,
      -0.006724;-0.000407;-0.109487;,
      -0.004715;-0.000407;-0.008224;,
      -0.004715;-0.005280;-0.008224;,
      -0.006724;-0.006997;-0.007865;,
      -0.006724;-0.000407;-0.007865;,
      -0.004715;-0.005280;-0.008224;,
      -0.004715;-0.005280;-0.105381;,
      -0.006724;-0.006997;-0.109487;,
      -0.006724;-0.006997;-0.007865;,
      -0.004715;-0.005280;-0.105381;,
      -0.004715;-0.000407;-0.105381;,
      -0.006724;-0.000407;-0.109487;,
      -0.006724;-0.006997;-0.109487;,
      -0.024813;-0.000407;-0.007865;,
      -0.027218;-0.000407;-0.007955;,
      -0.027218; 0.003765;-0.007955;,
      -0.024813; 0.006183;-0.007865;,
      -0.024813; 0.006183;-0.007865;,
      -0.027218; 0.003765;-0.007955;,
      -0.027218; 0.003765;-0.106155;,
      -0.024813; 0.006183;-0.109487;,
      -0.024813; 0.006183;-0.109487;,
      -0.027218; 0.003765;-0.106155;,
      -0.027218;-0.000407;-0.106155;,
      -0.024813;-0.000407;-0.109487;,
      -0.004715;-0.000407;-0.008224;,
      -0.004715; 0.004465;-0.008224;,
      -0.004715; 0.004465;-0.105381;,
      -0.004715;-0.000407;-0.105381;,
      -0.027218; 0.003765;-0.007955;,
      -0.027218;-0.000407;-0.007955;,
      -0.027218;-0.000407;-0.106155;,
      -0.027218; 0.003765;-0.106155;,
      -0.006724; 0.006183;-0.109487;,
      -0.024813; 0.006183;-0.109487;,
      -0.024813;-0.000407;-0.109487;,
      -0.006724;-0.000407;-0.109487;,
      -0.024813; 0.006183;-0.109487;,
      -0.006724; 0.006183;-0.109487;,
      -0.016189; 0.006183;-0.083779;,
      -0.016926; 0.006183;-0.083540;,
      -0.016189; 0.006183;-0.061708;,
      -0.017271; 0.006183;-0.061356;,
      -0.020524; 0.006183;-0.070437;,
      -0.016189; 0.006183;-0.069029;,
      -0.017271; 0.006183;-0.061356;,
      -0.020524; 0.006183;-0.060299;,
      -0.023203; 0.006183;-0.056612;,
      -0.023203; 0.006183;-0.052054;,
      -0.020524; 0.006183;-0.048366;,
      -0.018708; 0.006183;-0.035540;,
      -0.020524; 0.006183;-0.034950;,
      -0.023203; 0.006183;-0.031263;,
      -0.023203; 0.006183;-0.026705;,
      -0.020524; 0.006183;-0.023017;,
      -0.016189; 0.006183;-0.021608;,
      -0.011854; 0.006183;-0.023017;,
      -0.009175; 0.006183;-0.026705;,
      -0.009175; 0.006183;-0.031263;,
      -0.011854; 0.006183;-0.034950;,
      -0.016189; 0.006183;-0.036359;,
      -0.016189; 0.006183;-0.046958;,
      -0.011854; 0.006183;-0.048366;,
      -0.009175; 0.006183;-0.052054;,
      -0.009175; 0.006183;-0.056612;,
      -0.011854; 0.006183;-0.060299;,
      -0.016189; 0.006183;-0.061708;,
      -0.016189; 0.006183;-0.069029;,
      -0.011854; 0.006183;-0.070437;,
      -0.009175; 0.006183;-0.074125;,
      -0.009175; 0.006183;-0.078683;,
      -0.011854; 0.006183;-0.082371;,
      -0.016189; 0.006183;-0.083779;,
      -0.006724; 0.006183;-0.109487;,
      -0.006724; 0.006183;-0.007865;,
      -0.024813; 0.006183;-0.007865;,
      -0.024813; 0.006183;-0.109487;,
      -0.016926; 0.006183;-0.083540;,
      -0.020524; 0.006183;-0.082371;,
      -0.023203; 0.006183;-0.078683;,
      -0.023203; 0.006183;-0.074125;,
      -0.020524; 0.006183;-0.070437;,
      -0.016189; 0.006183;-0.046958;,
      -0.016189; 0.006183;-0.036359;,
      -0.018708; 0.006183;-0.035540;,
      -0.020524; 0.006183;-0.048366;,
      -0.006724;-0.000407;-0.007865;,
      -0.024813;-0.000407;-0.007865;,
      -0.024813; 0.006183;-0.007865;,
      -0.006724; 0.006183;-0.007865;,
      -0.004715;-0.000407;-0.008224;,
      -0.006724;-0.000407;-0.007865;,
      -0.006724; 0.006183;-0.007865;,
      -0.004715; 0.004465;-0.008224;,
      -0.004715; 0.004465;-0.008224;,
      -0.006724; 0.006183;-0.007865;,
      -0.006724; 0.006183;-0.109487;,
      -0.004715; 0.004465;-0.105381;,
      -0.004715; 0.004465;-0.105381;,
      -0.006724; 0.006183;-0.109487;,
      -0.006724;-0.000407;-0.109487;,
      -0.004715;-0.000407;-0.105381;,
      -0.011854;-0.006997;-0.070437;,
      -0.011854; 0.006183;-0.070437;,
      -0.016189; 0.006183;-0.069029;,
      -0.016189;-0.006997;-0.069029;,
      -0.009175;-0.006997;-0.074125;,
      -0.009175; 0.006183;-0.074125;,
      -0.011854; 0.006183;-0.070437;,
      -0.011854;-0.006997;-0.070437;,
      -0.009175;-0.006997;-0.078683;,
      -0.009175; 0.006183;-0.078683;,
      -0.009175; 0.006183;-0.074125;,
      -0.009175;-0.006997;-0.074125;,
      -0.011854;-0.006997;-0.082371;,
      -0.011854; 0.006183;-0.082371;,
      -0.009175; 0.006183;-0.078683;,
      -0.009175;-0.006997;-0.078683;,
      -0.016189; 0.006183;-0.083779;,
      -0.011854; 0.006183;-0.082371;,
      -0.011854;-0.006997;-0.082371;,
      -0.015506;-0.006997;-0.083557;,
      -0.016189;-0.006997;-0.083779;,
      -0.020524;-0.006997;-0.082371;,
      -0.020524; 0.006183;-0.082371;,
      -0.016926; 0.006183;-0.083540;,
      -0.016189; 0.006183;-0.083779;,
      -0.016189;-0.006997;-0.083779;,
      -0.023203; 0.006183;-0.078683;,
      -0.020524; 0.006183;-0.082371;,
      -0.020524;-0.006997;-0.082371;,
      -0.023203;-0.006997;-0.078683;,
      -0.023203; 0.006183;-0.074125;,
      -0.023203; 0.006183;-0.078683;,
      -0.023203;-0.006997;-0.078683;,
      -0.023203;-0.006997;-0.074125;,
      -0.020524; 0.006183;-0.070437;,
      -0.023203; 0.006183;-0.074125;,
      -0.023203;-0.006997;-0.074125;,
      -0.020524;-0.006997;-0.070437;,
      -0.016189;-0.006997;-0.069029;,
      -0.016189; 0.006183;-0.069029;,
      -0.020524; 0.006183;-0.070437;,
      -0.020524;-0.006997;-0.070437;,
      -0.011854;-0.006997;-0.048366;,
      -0.011854; 0.006183;-0.048366;,
      -0.016189; 0.006183;-0.046958;,
      -0.016189;-0.006997;-0.046958;,
      -0.009175;-0.006997;-0.052054;,
      -0.009175; 0.006183;-0.052054;,
      -0.011854; 0.006183;-0.048366;,
      -0.011854;-0.006997;-0.048366;,
      -0.009175;-0.006997;-0.056612;,
      -0.009175; 0.006183;-0.056612;,
      -0.009175; 0.006183;-0.052054;,
      -0.009175;-0.006997;-0.052054;,
      -0.011854;-0.006997;-0.060299;,
      -0.011854; 0.006183;-0.060299;,
      -0.009175; 0.006183;-0.056612;,
      -0.009175;-0.006997;-0.056612;,
      -0.011854; 0.006183;-0.060299;,
      -0.011854;-0.006997;-0.060299;,
      -0.014996;-0.006997;-0.061320;,
      -0.016189;-0.006997;-0.061708;,
      -0.016189; 0.006183;-0.061708;,
      -0.017271; 0.006183;-0.061356;,
      -0.016189; 0.006183;-0.061708;,
      -0.016189;-0.006997;-0.061708;,
      -0.020524;-0.006997;-0.060299;,
      -0.020524; 0.006183;-0.060299;,
      -0.023203; 0.006183;-0.056612;,
      -0.020524; 0.006183;-0.060299;,
      -0.020524;-0.006997;-0.060299;,
      -0.023203;-0.006997;-0.056612;,
      -0.023203; 0.006183;-0.052054;,
      -0.023203; 0.006183;-0.056612;,
      -0.023203;-0.006997;-0.056612;,
      -0.023203;-0.006997;-0.052054;,
      -0.020524; 0.006183;-0.048366;,
      -0.023203; 0.006183;-0.052054;,
      -0.023203;-0.006997;-0.052054;,
      -0.020524;-0.006997;-0.048366;,
      -0.016189;-0.006997;-0.046958;,
      -0.016189; 0.006183;-0.046958;,
      -0.020524; 0.006183;-0.048366;,
      -0.020524;-0.006997;-0.048366;,
      -0.011854;-0.006997;-0.023017;,
      -0.011854; 0.006183;-0.023017;,
      -0.016189; 0.006183;-0.021608;,
      -0.016189;-0.006997;-0.021608;,
      -0.009175;-0.006997;-0.026705;,
      -0.009175; 0.006183;-0.026705;,
      -0.011854; 0.006183;-0.023017;,
      -0.011854;-0.006997;-0.023017;,
      -0.009175;-0.006997;-0.031263;,
      -0.009175; 0.006183;-0.031263;,
      -0.009175; 0.006183;-0.026705;,
      -0.009175;-0.006997;-0.026705;,
      -0.011854;-0.006997;-0.034950;,
      -0.011854; 0.006183;-0.034950;,
      -0.009175; 0.006183;-0.031263;,
      -0.009175;-0.006997;-0.031263;,
      -0.016189; 0.006183;-0.036359;,
      -0.011854; 0.006183;-0.034950;,
      -0.011854;-0.006997;-0.034950;,
      -0.016189;-0.006997;-0.036359;,
      -0.020524; 0.006183;-0.034950;,
      -0.018708; 0.006183;-0.035540;,
      -0.016189; 0.006183;-0.036359;,
      -0.016189;-0.006997;-0.036359;,
      -0.018708;-0.006997;-0.035540;,
      -0.020524;-0.006997;-0.034950;,
      -0.023203; 0.006183;-0.031263;,
      -0.020524; 0.006183;-0.034950;,
      -0.020524;-0.006997;-0.034950;,
      -0.023203;-0.006997;-0.031263;,
      -0.023203; 0.006183;-0.026705;,
      -0.023203; 0.006183;-0.031263;,
      -0.023203;-0.006997;-0.031263;,
      -0.023203;-0.006997;-0.026705;,
      -0.020524; 0.006183;-0.023017;,
      -0.023203; 0.006183;-0.026705;,
      -0.023203;-0.006997;-0.026705;,
      -0.020524;-0.006997;-0.023017;,
      -0.016189;-0.006997;-0.021608;,
      -0.016189; 0.006183;-0.021608;,
      -0.020524; 0.006183;-0.023017;,
      -0.020524;-0.006997;-0.023017;,
      -0.029568;-0.000407; 0.023946;,
      -0.029517;-0.000407; 0.026256;,
      -0.031539;-0.000407; 0.026256;,
      -0.033032;-0.000407; 0.020768;,
      -0.029517;-0.000407; 0.026256;,
      -0.028024;-0.005695; 0.026256;,
      -0.031539;-0.003807; 0.026256;,
      -0.031539;-0.000407; 0.026256;,
      -0.029568;-0.009223; 0.019413;,
      -0.029327;-0.009223;-0.010991;,
      -0.033032;-0.006162;-0.011257;,
      -0.033032;-0.006162; 0.020768;,
      -0.029327;-0.009223;-0.010991;,
      -0.029327;-0.000407;-0.010991;,
      -0.033032;-0.000407;-0.011257;,
      -0.033032;-0.006162;-0.011257;,
       0.042483;-0.000407; 0.020621;,
       0.023626;-0.000407;-0.005643;,
       0.023626;-0.009223;-0.005643;,
       0.042483;-0.009223; 0.019745;,
      -0.033032;-0.006162; 0.020768;,
      -0.033032;-0.006162;-0.011257;,
      -0.033032;-0.000407;-0.011257;,
      -0.033032;-0.000407; 0.020768;,
      -0.002850;-0.009223;-0.008317;,
      -0.002850;-0.000407;-0.008317;,
      -0.029327;-0.000407;-0.010991;,
      -0.029327;-0.009223;-0.010991;,
       0.006457;-0.009223; 0.019579;,
      -0.002850;-0.009223;-0.008317;,
      -0.029327;-0.009223;-0.010991;,
      -0.029568;-0.009223; 0.019413;,
       0.006515;-0.000407; 0.026256;,
       0.007262;-0.005695; 0.026256;,
      -0.028024;-0.005695; 0.026256;,
      -0.029517;-0.000407; 0.026256;,
       0.006457;-0.000407; 0.022283;,
       0.006515;-0.000407; 0.026256;,
      -0.029517;-0.000407; 0.026256;,
      -0.029568;-0.000407; 0.023946;,
       0.007262;-0.005695; 0.026256;,
       0.006457;-0.009223; 0.019579;,
      -0.029568;-0.009223; 0.019413;,
      -0.028024;-0.005695; 0.026256;,
      -0.031539;-0.003807; 0.026256;,
      -0.033032;-0.006162; 0.020768;,
      -0.033032;-0.000407; 0.020768;,
      -0.031539;-0.000407; 0.026256;,
       0.042547;-0.000407; 0.026256;,
       0.042483;-0.000407; 0.020621;,
       0.042483;-0.009223; 0.019745;,
       0.042547;-0.005695; 0.026256;,
      -0.028024;-0.005695; 0.026256;,
      -0.029568;-0.009223; 0.019413;,
      -0.033032;-0.006162; 0.020768;,
      -0.031539;-0.003807; 0.026256;,
      -0.029327;-0.000407;-0.010991;,
      -0.029568;-0.000407; 0.023946;,
      -0.033032;-0.000407; 0.020768;,
      -0.033032;-0.000407;-0.011257;,
       0.042547;-0.005695; 0.026256;,
       0.042483;-0.009223; 0.019745;,
       0.006457;-0.009223; 0.019579;,
       0.007262;-0.005695; 0.026256;,
       0.042483;-0.000407; 0.020621;,
       0.042547;-0.000407; 0.026256;,
       0.006515;-0.000407; 0.026256;,
       0.006457;-0.000407; 0.022283;,
       0.042547;-0.000407; 0.026256;,
       0.042547;-0.005695; 0.026256;,
       0.007262;-0.005695; 0.026256;,
       0.006515;-0.000407; 0.026256;,
       0.042483;-0.009223; 0.019745;,
       0.023626;-0.009223;-0.005643;,
       0.006516;-0.009223;-0.007371;,
       0.006457;-0.009223; 0.019579;,
       0.023626;-0.009223;-0.005643;,
       0.023626;-0.000407;-0.005643;,
       0.007076;-0.000407;-0.007314;,
       0.006516;-0.009223;-0.007371;,
       0.006516;-0.009223;-0.007371;,
       0.003894;-0.009223; 0.003292;,
       0.006457;-0.009223; 0.019579;,
       0.007076;-0.000407;-0.007314;,
       0.004257;-0.000407; 0.003329;,
       0.003894;-0.009223; 0.003292;,
       0.006516;-0.009223;-0.007371;,
       0.003894;-0.009223; 0.003292;,
      -0.002850;-0.009223;-0.008317;,
       0.006457;-0.009223; 0.019579;,
       0.004257;-0.000407; 0.003329;,
      -0.002850;-0.000407;-0.008317;,
      -0.002850;-0.009223;-0.008317;,
       0.003894;-0.009223; 0.003292;,
      -0.029517;-0.000407; 0.026256;,
      -0.031539;-0.000407; 0.026256;,
      -0.031539; 0.002992; 0.026256;,
      -0.028024; 0.004880; 0.026256;,
      -0.029568; 0.008409; 0.019413;,
      -0.033032; 0.005348; 0.020768;,
      -0.033032; 0.005348;-0.011257;,
      -0.029327; 0.008409;-0.010991;,
      -0.029327; 0.008409;-0.010991;,
      -0.033032; 0.005348;-0.011257;,
      -0.033032;-0.000407;-0.011257;,
      -0.029327;-0.000407;-0.010991;,
       0.042483;-0.000407; 0.020621;,
       0.042483; 0.008409; 0.019745;,
       0.023626; 0.008409;-0.005643;,
       0.023626;-0.000407;-0.005643;,
      -0.033032; 0.005348; 0.020768;,
      -0.033032;-0.000407; 0.020768;,
      -0.033032;-0.000407;-0.011257;,
      -0.033032; 0.005348;-0.011257;,
      -0.002850; 0.008409;-0.008317;,
      -0.029327; 0.008409;-0.010991;,
      -0.029327;-0.000407;-0.010991;,
      -0.002850;-0.000407;-0.008317;,
       0.006457; 0.008409; 0.019579;,
      -0.029568; 0.008409; 0.019413;,
      -0.029327; 0.008409;-0.010991;,
      -0.002850; 0.008409;-0.008317;,
       0.006515;-0.000407; 0.026256;,
      -0.029517;-0.000407; 0.026256;,
      -0.028024; 0.004880; 0.026256;,
       0.007262; 0.004880; 0.026256;,
       0.007262; 0.004880; 0.026256;,
      -0.028024; 0.004880; 0.026256;,
      -0.029568; 0.008409; 0.019413;,
       0.006457; 0.008409; 0.019579;,
      -0.031539; 0.002992; 0.026256;,
      -0.031539;-0.000407; 0.026256;,
      -0.033032;-0.000407; 0.020768;,
      -0.033032; 0.005348; 0.020768;,
       0.042547;-0.000407; 0.026256;,
       0.042547; 0.004880; 0.026256;,
       0.042483; 0.008409; 0.019745;,
       0.042483;-0.000407; 0.020621;,
      -0.028024; 0.004880; 0.026256;,
      -0.031539; 0.002992; 0.026256;,
      -0.033032; 0.005348; 0.020768;,
      -0.029568; 0.008409; 0.019413;,
       0.042547; 0.004880; 0.026256;,
       0.007262; 0.004880; 0.026256;,
       0.006457; 0.008409; 0.019579;,
       0.042483; 0.008409; 0.019745;,
       0.042547;-0.000407; 0.026256;,
       0.006515;-0.000407; 0.026256;,
       0.007262; 0.004880; 0.026256;,
       0.042547; 0.004880; 0.026256;,
       0.042483; 0.008409; 0.019745;,
       0.006457; 0.008409; 0.019579;,
       0.006516; 0.008409;-0.007371;,
       0.023626; 0.008409;-0.005643;,
       0.023626; 0.008409;-0.005643;,
       0.006516; 0.008409;-0.007371;,
       0.007076;-0.000407;-0.007314;,
       0.023626;-0.000407;-0.005643;,
       0.006516; 0.008409;-0.007371;,
       0.006457; 0.008409; 0.019579;,
       0.003894; 0.008409; 0.003292;,
       0.007076;-0.000407;-0.007314;,
       0.006516; 0.008409;-0.007371;,
       0.003894; 0.008409; 0.003292;,
       0.004257;-0.000407; 0.003329;,
       0.003894; 0.008409; 0.003292;,
       0.006457; 0.008409; 0.019579;,
      -0.002850; 0.008409;-0.008317;,
       0.004257;-0.000407; 0.003329;,
       0.003894; 0.008409; 0.003292;,
      -0.002850; 0.008409;-0.008317;,
      -0.002850;-0.000407;-0.008317;,
       0.015375;-0.000407;-0.000846;,
       0.015964;-0.002493;-0.001182;,
      -0.010905;-0.002493;-0.044638;,
      -0.011494;-0.000407;-0.044303;,
       0.015964;-0.002493;-0.001182;,
       0.017505;-0.003782;-0.002060;,
      -0.009363;-0.003782;-0.045517;,
      -0.010905;-0.002493;-0.044638;,
       0.017505;-0.003782;-0.002060;,
       0.019410;-0.003782;-0.003145;,
      -0.007458;-0.003782;-0.046602;,
      -0.009363;-0.003782;-0.045517;,
       0.019410;-0.003782;-0.003145;,
       0.020952;-0.002493;-0.004023;,
      -0.005917;-0.002493;-0.047480;,
      -0.007458;-0.003782;-0.046602;,
       0.020952;-0.002493;-0.004023;,
       0.021540;-0.000407;-0.004359;,
      -0.005328;-0.000407;-0.047816;,
      -0.005917;-0.002493;-0.047480;,
       0.021540;-0.000407;-0.004359;,
       0.020952; 0.001678;-0.004023;,
      -0.005917; 0.001678;-0.047480;,
      -0.005328;-0.000407;-0.047816;,
       0.020952; 0.001678;-0.004023;,
       0.019410; 0.002967;-0.003145;,
      -0.007458; 0.002967;-0.046602;,
      -0.005917; 0.001678;-0.047480;,
       0.019410; 0.002967;-0.003145;,
       0.017505; 0.002967;-0.002060;,
      -0.009363; 0.002967;-0.045517;,
      -0.007458; 0.002967;-0.046602;,
      -0.010905;-0.002493;-0.044638;,
      -0.009363;-0.003782;-0.045517;,
      -0.007458;-0.003782;-0.046602;,
      -0.005917;-0.002493;-0.047480;,
      -0.005328;-0.000407;-0.047816;,
      -0.005917; 0.001678;-0.047480;,
      -0.007458; 0.002967;-0.046602;,
      -0.009363; 0.002967;-0.045517;,
      -0.010905; 0.001678;-0.044638;,
      -0.011494;-0.000407;-0.044303;,
       0.017505; 0.002967;-0.002060;,
       0.015964; 0.001678;-0.001182;,
      -0.010905; 0.001678;-0.044638;,
      -0.009363; 0.002967;-0.045517;,
       0.015964; 0.001678;-0.001182;,
       0.015375;-0.000407;-0.000846;,
      -0.011494;-0.000407;-0.044303;,
      -0.010905; 0.001678;-0.044638;,
       0.015375;-0.000407;-0.000846;,
       0.015964; 0.001678;-0.001182;,
       0.017505; 0.002967;-0.002060;,
       0.019410; 0.002967;-0.003145;,
       0.020952; 0.001678;-0.004023;,
       0.021540;-0.000407;-0.004359;,
       0.020952;-0.002493;-0.004023;,
       0.019410;-0.003782;-0.003145;,
       0.017505;-0.003782;-0.002060;,
       0.015964;-0.002493;-0.001182;;
      116;
      4;3,2,1,0;,
      4;7,6,5,4;,
      4;11,10,9,8;,
      4;15,14,13,12;,
      4;19,18,17,16;,
      4;23,22,21,20;,
      4;27,26,25,24;,
      4;31,30,29,28;,
      4;35,34,33,32;,
      37;72,71,70,69,68,67,66,65,64,63,62,61,60,59,58,57,56,55,54,53,52,51,50,49,48,47,46,45,44,43,42,41,40,39,38,37,36;,
      4;76,75,74,73;,
      4;80,79,78,77;,
      4;84,83,82,81;,
      4;88,87,86,85;,
      4;92,91,90,89;,
      4;96,95,94,93;,
      4;100,99,98,97;,
      4;104,103,102,101;,
      4;108,107,106,105;,
      4;112,111,110,109;,
      4;116,115,114,113;,
      4;120,119,118,117;,
      4;124,123,122,121;,
      4;128,127,126,125;,
      37;165,164,163,162,161,160,159,158,157,156,155,154,153,152,151,150,149,148,147,146,145,144,143,142,141,140,139,138,137,136,135,134,133,132,131,130,129;,
      4;169,168,167,166;,
      4;173,172,171,170;,
      4;177,176,175,174;,
      4;181,180,179,178;,
      4;185,184,183,182;,
      4;189,188,187,186;,
      4;193,192,191,190;,
      4;197,196,195,194;,
      4;201,200,199,198;,
      5;206,205,204,203,202;,
      5;211,210,209,208,207;,
      4;215,214,213,212;,
      4;219,218,217,216;,
      4;223,222,221,220;,
      4;227,226,225,224;,
      4;231,230,229,228;,
      4;235,234,233,232;,
      4;239,238,237,236;,
      4;243,242,241,240;,
      5;248,247,246,245,244;,
      5;253,252,251,250,249;,
      4;257,256,255,254;,
      4;261,260,259,258;,
      4;265,264,263,262;,
      4;269,268,267,266;,
      4;273,272,271,270;,
      4;277,276,275,274;,
      4;281,280,279,278;,
      4;285,284,283,282;,
      4;289,288,287,286;,
      6;295,294,293,292,291,290;,
      4;299,298,297,296;,
      4;303,302,301,300;,
      4;307,306,305,304;,
      4;311,310,309,308;,
      4;315,314,313,312;,
      4;319,318,317,316;,
      4;323,322,321,320;,
      4;327,326,325,324;,
      4;331,330,329,328;,
      4;335,334,333,332;,
      4;339,338,337,336;,
      4;343,342,341,340;,
      4;347,346,345,344;,
      4;351,350,349,348;,
      4;355,354,353,352;,
      4;359,358,357,356;,
      4;363,362,361,360;,
      4;367,366,365,364;,
      4;371,370,369,368;,
      4;375,374,373,372;,
      4;379,378,377,376;,
      4;383,382,381,380;,
      4;387,386,385,384;,
      4;391,390,389,388;,
      3;394,393,392;,
      4;398,397,396,395;,
      3;401,400,399;,
      4;405,404,403,402;,
      4;409,408,407,406;,
      4;413,412,411,410;,
      4;417,416,415,414;,
      4;421,420,419,418;,
      4;425,424,423,422;,
      4;429,428,427,426;,
      4;433,432,431,430;,
      4;437,436,435,434;,
      4;441,440,439,438;,
      4;445,444,443,442;,
      4;449,448,447,446;,
      4;453,452,451,450;,
      4;457,456,455,454;,
      4;461,460,459,458;,
      4;465,464,463,462;,
      4;469,468,467,466;,
      3;472,471,470;,
      4;476,475,474,473;,
      3;479,478,477;,
      4;483,482,481,480;,
      4;487,486,485,484;,
      4;491,490,489,488;,
      4;495,494,493,492;,
      4;499,498,497,496;,
      4;503,502,501,500;,
      4;507,506,505,504;,
      4;511,510,509,508;,
      4;515,514,513,512;,
      10;525,524,523,522,521,520,519,518,517,516;,
      4;529,528,527,526;,
      4;533,532,531,530;,
      10;543,542,541,540,539,538,537,536,535,534;;
      MeshNormals {
        544;
         0.452468;-0.111103; 0.884833;,
         0.018256;-0.237102;-0.971313;,
         0.678682;-0.334877;-0.653642;,
         0.876997;-0.387917; 0.283543;,
         0.018256;-0.237102;-0.971313;,
         0.301774; 0.714027;-0.631742;,
         0.730207; 0.294661;-0.616420;,
         0.678682;-0.334877;-0.653642;,
         0.301774; 0.714027;-0.631742;,
         0.419074; 0.635138; 0.648827;,
         0.922804; 0.309035; 0.230064;,
         0.730207; 0.294661;-0.616420;,
         0.419074; 0.635138; 0.648827;,
         0.452468;-0.111103; 0.884833;,
         0.876997;-0.387917; 0.283543;,
         0.922804; 0.309035; 0.230064;,
        -0.720822;-0.340999;-0.603436;,
        -0.892080;-0.401872; 0.206620;,
        -0.919257; 0.361065; 0.156840;,
        -0.765945; 0.322694;-0.556055;,
         0.730207; 0.294661;-0.616420;,
         0.922804; 0.309035; 0.230064;,
         0.876997;-0.387917; 0.283543;,
         0.678682;-0.334877;-0.653642;,
        -0.448810; 0.616690; 0.646733;,
        -0.527398;-0.085082; 0.845347;,
         0.452468;-0.111103; 0.884833;,
         0.419074; 0.635138; 0.648827;,
         0.419074; 0.635138; 0.648827;,
         0.000000; 0.783710;-0.621127;,
         0.218507; 0.707107;-0.672498;,
        -0.448810; 0.616690; 0.646733;,
         0.000000; 0.783710;-0.621127;,
         0.218508; 0.707106;-0.672499;,
         0.365089; 0.783710; 0.502503;,
         0.000000; 0.783710; 0.621128;,
         0.449811; 0.643717;-0.619111;,
         0.727809; 0.643717;-0.236479;,
         0.727809; 0.643717; 0.236480;,
         0.449811; 0.643717; 0.619111;,
         0.000000; 0.783710; 0.621127;,
         0.000000; 0.783710;-0.621127;,
         0.449811; 0.643717;-0.619111;,
         0.727809; 0.643717;-0.236480;,
         0.727809; 0.643717; 0.236480;,
         0.449811; 0.643717; 0.619111;,
         0.000000; 0.643716; 0.765264;,
        -0.449811; 0.643717; 0.619111;,
        -0.727809; 0.643717; 0.236480;,
        -0.727809; 0.643717;-0.236480;,
        -0.449811; 0.643717;-0.619111;,
        -0.218496; 0.707146;-0.672461;,
        -0.365089; 0.783710; 0.502502;,
        -0.727809; 0.643717; 0.236479;,
        -0.727809; 0.643717;-0.236479;,
        -0.449811; 0.643717;-0.619111;,
         0.000000; 0.783710;-0.621127;,
         0.000000; 0.783710; 0.621128;,
        -0.449810; 0.643717; 0.619112;,
        -0.727809; 0.643717; 0.236480;,
        -0.727809; 0.643717;-0.236480;,
        -0.449810; 0.643717;-0.619112;,
         0.000000; 0.783710;-0.621127;,
         0.419074; 0.635138; 0.648827;,
         0.301774; 0.714027;-0.631742;,
        -0.288539; 0.707364;-0.645277;,
        -0.448810; 0.616690; 0.646733;,
         0.218507; 0.707107;-0.672498;,
         0.449810; 0.643717;-0.619112;,
         0.727809; 0.643717;-0.236480;,
         0.727809; 0.643717; 0.236480;,
         0.365089; 0.783710; 0.502503;,
         0.218508; 0.707106;-0.672499;,
        -0.365089; 0.783710; 0.502502;,
        -0.218496; 0.707146;-0.672461;,
         0.000000; 0.783710;-0.621127;,
         0.000000; 0.783710; 0.621127;,
        -0.086185;-0.217400;-0.972270;,
        -0.288539; 0.707364;-0.645277;,
         0.301774; 0.714027;-0.631742;,
         0.018256;-0.237102;-0.971313;,
        -0.892080;-0.401872; 0.206620;,
        -0.720822;-0.340999;-0.603436;,
        -0.086185;-0.217400;-0.972270;,
        -0.527398;-0.085082; 0.845347;,
        -0.720822;-0.340999;-0.603436;,
        -0.765945; 0.322694;-0.556055;,
        -0.288539; 0.707364;-0.645277;,
        -0.086185;-0.217400;-0.972270;,
        -0.765945; 0.322694;-0.556055;,
        -0.919257; 0.361065; 0.156840;,
        -0.448810; 0.616690; 0.646733;,
        -0.288539; 0.707364;-0.645277;,
        -0.919257; 0.361065; 0.156840;,
        -0.892080;-0.401872; 0.206620;,
        -0.527398;-0.085082; 0.845347;,
        -0.448810; 0.616690; 0.646733;,
         0.018256;-0.237102;-0.971313;,
         0.678682;-0.334877;-0.653642;,
         0.730207;-0.294661;-0.616420;,
         0.301774;-0.714027;-0.631742;,
         0.301774;-0.714027;-0.631742;,
         0.730207;-0.294661;-0.616420;,
         0.922804;-0.309035; 0.230064;,
         0.419074;-0.635138; 0.648827;,
         0.419074;-0.635138; 0.648827;,
         0.922804;-0.309035; 0.230064;,
         0.876997;-0.387917; 0.283543;,
         0.452468;-0.111103; 0.884833;,
        -0.720822;-0.340999;-0.603436;,
        -0.765945;-0.322694;-0.556055;,
        -0.919257;-0.361065; 0.156840;,
        -0.892080;-0.401872; 0.206620;,
         0.730207;-0.294661;-0.616420;,
         0.678682;-0.334877;-0.653642;,
         0.876997;-0.387917; 0.283543;,
         0.922804;-0.309035; 0.230064;,
        -0.448810;-0.616690; 0.646733;,
         0.419074;-0.635138; 0.648827;,
         0.452468;-0.111103; 0.884833;,
        -0.527398;-0.085082; 0.845347;,
         0.419074;-0.635138; 0.648827;,
        -0.448810;-0.616690; 0.646733;,
        -0.000000;-0.783710;-0.621127;,
        -0.218507;-0.707107;-0.672499;,
        -0.000000;-0.783710;-0.621127;,
        -0.218508;-0.707106;-0.672499;,
        -0.365089;-0.783710; 0.502503;,
        -0.000000;-0.783710; 0.621128;,
        -0.218508;-0.707106;-0.672499;,
        -0.449811;-0.643717;-0.619112;,
        -0.727809;-0.643717;-0.236479;,
        -0.727809;-0.643717; 0.236479;,
        -0.365089;-0.783710; 0.502502;,
        -0.218496;-0.707146;-0.672461;,
        -0.449811;-0.643717;-0.619111;,
        -0.727809;-0.643717;-0.236480;,
        -0.727809;-0.643717; 0.236480;,
        -0.449811;-0.643717; 0.619111;,
         0.000000;-0.643716; 0.765264;,
         0.449811;-0.643717; 0.619111;,
         0.727809;-0.643717; 0.236480;,
         0.727809;-0.643717;-0.236480;,
         0.449811;-0.643717;-0.619111;,
        -0.000000;-0.783710;-0.621127;,
        -0.000000;-0.783710; 0.621127;,
         0.449811;-0.643717; 0.619111;,
         0.727809;-0.643717; 0.236480;,
         0.727809;-0.643717;-0.236479;,
         0.449811;-0.643717;-0.619111;,
        -0.000000;-0.783710;-0.621127;,
        -0.000000;-0.783710; 0.621128;,
         0.449810;-0.643717; 0.619112;,
         0.727809;-0.643717; 0.236480;,
         0.727809;-0.643717;-0.236480;,
         0.449810;-0.643717;-0.619112;,
        -0.000000;-0.783710;-0.621127;,
        -0.448810;-0.616690; 0.646733;,
        -0.288539;-0.707364;-0.645277;,
         0.301774;-0.714027;-0.631742;,
         0.419074;-0.635138; 0.648827;,
        -0.218507;-0.707107;-0.672499;,
        -0.449810;-0.643717;-0.619112;,
        -0.727809;-0.643717;-0.236480;,
        -0.727809;-0.643717; 0.236480;,
        -0.365089;-0.783710; 0.502503;,
        -0.000000;-0.783710; 0.621127;,
        -0.000000;-0.783710;-0.621127;,
        -0.218496;-0.707146;-0.672461;,
        -0.365089;-0.783710; 0.502502;,
        -0.086185;-0.217400;-0.972270;,
         0.018256;-0.237102;-0.971313;,
         0.301774;-0.714027;-0.631742;,
        -0.288539;-0.707364;-0.645277;,
        -0.720822;-0.340999;-0.603436;,
        -0.086185;-0.217400;-0.972270;,
        -0.288539;-0.707364;-0.645277;,
        -0.765945;-0.322694;-0.556055;,
        -0.765945;-0.322694;-0.556055;,
        -0.288539;-0.707364;-0.645277;,
        -0.448810;-0.616690; 0.646733;,
        -0.919257;-0.361065; 0.156840;,
        -0.919257;-0.361065; 0.156840;,
        -0.448810;-0.616690; 0.646733;,
        -0.527398;-0.085082; 0.845347;,
        -0.892080;-0.401872; 0.206620;,
         0.365089; 0.783710; 0.502503;,
         0.449810;-0.643717; 0.619112;,
        -0.000000;-0.783710; 0.621128;,
         0.000000; 0.783710; 0.621128;,
         0.727809; 0.643717; 0.236480;,
         0.727809;-0.643717; 0.236480;,
         0.449810;-0.643717; 0.619112;,
         0.365089; 0.783710; 0.502503;,
         0.727809; 0.643717;-0.236480;,
         0.727809;-0.643717;-0.236480;,
         0.727809;-0.643717; 0.236480;,
         0.727809; 0.643717; 0.236480;,
         0.449810; 0.643717;-0.619112;,
         0.449810;-0.643717;-0.619112;,
         0.727809;-0.643717;-0.236480;,
         0.727809; 0.643717;-0.236480;,
        -0.000000;-0.783710;-0.621127;,
         0.449810;-0.643717;-0.619112;,
         0.449810; 0.643717;-0.619112;,
         0.218507; 0.707107;-0.672498;,
         0.000000; 0.783710;-0.621127;,
        -0.449810; 0.643717;-0.619112;,
        -0.449810;-0.643717;-0.619112;,
        -0.218507;-0.707107;-0.672499;,
        -0.000000;-0.783710;-0.621127;,
         0.000000; 0.783710;-0.621127;,
        -0.727809;-0.643717;-0.236480;,
        -0.449810;-0.643717;-0.619112;,
        -0.449810; 0.643717;-0.619112;,
        -0.727809; 0.643717;-0.236480;,
        -0.727809;-0.643717; 0.236480;,
        -0.727809;-0.643717;-0.236480;,
        -0.727809; 0.643717;-0.236480;,
        -0.727809; 0.643717; 0.236480;,
        -0.365089;-0.783710; 0.502503;,
        -0.727809;-0.643717; 0.236480;,
        -0.727809; 0.643717; 0.236480;,
        -0.449810; 0.643717; 0.619112;,
         0.000000; 0.783710; 0.621128;,
        -0.000000;-0.783710; 0.621128;,
        -0.365089;-0.783710; 0.502503;,
        -0.449810; 0.643717; 0.619112;,
         0.449811; 0.643717; 0.619111;,
         0.449811;-0.643717; 0.619111;,
        -0.000000;-0.783710; 0.621127;,
         0.000000; 0.783710; 0.621127;,
         0.727809; 0.643717; 0.236480;,
         0.727809;-0.643717; 0.236480;,
         0.449811;-0.643717; 0.619111;,
         0.449811; 0.643717; 0.619111;,
         0.727809; 0.643717;-0.236479;,
         0.727809;-0.643717;-0.236479;,
         0.727809;-0.643717; 0.236480;,
         0.727809; 0.643717; 0.236480;,
         0.449811; 0.643717;-0.619111;,
         0.449811;-0.643717;-0.619111;,
         0.727809;-0.643717;-0.236479;,
         0.727809; 0.643717;-0.236479;,
         0.449811;-0.643717;-0.619111;,
         0.449811; 0.643717;-0.619111;,
         0.218508; 0.707106;-0.672499;,
         0.000000; 0.783710;-0.621127;,
        -0.000000;-0.783710;-0.621127;,
        -0.218508;-0.707106;-0.672499;,
        -0.000000;-0.783710;-0.621127;,
         0.000000; 0.783710;-0.621127;,
        -0.449811; 0.643717;-0.619111;,
        -0.449811;-0.643717;-0.619112;,
        -0.727809;-0.643717;-0.236479;,
        -0.449811;-0.643717;-0.619112;,
        -0.449811; 0.643717;-0.619111;,
        -0.727809; 0.643717;-0.236479;,
        -0.727809;-0.643717; 0.236479;,
        -0.727809;-0.643717;-0.236479;,
        -0.727809; 0.643717;-0.236479;,
        -0.727809; 0.643717; 0.236479;,
        -0.365089;-0.783710; 0.502502;,
        -0.727809;-0.643717; 0.236479;,
        -0.727809; 0.643717; 0.236479;,
        -0.365089; 0.783710; 0.502502;,
         0.000000; 0.783710; 0.621127;,
        -0.000000;-0.783710; 0.621127;,
        -0.365089;-0.783710; 0.502502;,
        -0.365089; 0.783710; 0.502502;,
         0.449811; 0.643717; 0.619111;,
         0.449811;-0.643717; 0.619111;,
         0.000000;-0.643716; 0.765264;,
         0.000000; 0.643716; 0.765264;,
         0.727809; 0.643717; 0.236480;,
         0.727809;-0.643717; 0.236480;,
         0.449811;-0.643717; 0.619111;,
         0.449811; 0.643717; 0.619111;,
         0.727809; 0.643717;-0.236480;,
         0.727809;-0.643717;-0.236480;,
         0.727809;-0.643717; 0.236480;,
         0.727809; 0.643717; 0.236480;,
         0.449811; 0.643717;-0.619111;,
         0.449811;-0.643717;-0.619111;,
         0.727809;-0.643717;-0.236480;,
         0.727809; 0.643717;-0.236480;,
        -0.000000;-0.783710;-0.621127;,
         0.449811;-0.643717;-0.619111;,
         0.449811; 0.643717;-0.619111;,
         0.000000; 0.783710;-0.621127;,
        -0.449811;-0.643717;-0.619111;,
        -0.218496;-0.707146;-0.672461;,
        -0.000000;-0.783710;-0.621127;,
         0.000000; 0.783710;-0.621127;,
        -0.218496; 0.707146;-0.672461;,
        -0.449811; 0.643717;-0.619111;,
        -0.727809;-0.643717;-0.236480;,
        -0.449811;-0.643717;-0.619111;,
        -0.449811; 0.643717;-0.619111;,
        -0.727809; 0.643717;-0.236480;,
        -0.727809;-0.643717; 0.236480;,
        -0.727809;-0.643717;-0.236480;,
        -0.727809; 0.643717;-0.236480;,
        -0.727809; 0.643717; 0.236480;,
        -0.449811;-0.643717; 0.619111;,
        -0.727809;-0.643717; 0.236480;,
        -0.727809; 0.643717; 0.236480;,
        -0.449811; 0.643717; 0.619111;,
         0.000000; 0.643716; 0.765264;,
         0.000000;-0.643716; 0.765264;,
        -0.449811;-0.643717; 0.619111;,
        -0.449811; 0.643717; 0.619111;,
        -0.000000;-1.000000;-0.000000;,
        -0.000000;-0.447214;-0.894427;,
         0.569890;-0.345248;-0.745673;,
         0.899876;-0.419244;-0.120240;,
        -0.000000;-0.447214;-0.894427;,
         0.140988; 0.545367;-0.826255;,
         0.592280; 0.276280;-0.756884;,
         0.569890;-0.345248;-0.745673;,
         0.315247; 0.924363;-0.214878;,
         0.222075; 0.723741; 0.653361;,
         0.686491; 0.330459; 0.647709;,
         0.851819; 0.469057;-0.233218;,
         0.222075; 0.723741; 0.653361;,
        -0.083323;-0.251950; 0.964146;,
         0.642998;-0.330509; 0.690882;,
         0.686491; 0.330459; 0.647709;,
        -0.924943;-0.247288; 0.288668;,
        -0.497133; 0.000000; 0.867675;,
        -0.390201; 0.619619; 0.681040;,
        -0.709996; 0.700443; 0.072699;,
         0.851819; 0.469057;-0.233218;,
         0.686491; 0.330459; 0.647709;,
         0.642998;-0.330509; 0.690882;,
         0.899876;-0.419244;-0.120240;,
        -0.420975; 0.621149; 0.661024;,
        -0.537169; 0.000000; 0.843475;,
        -0.083323;-0.251950; 0.964146;,
         0.222075; 0.723741; 0.653361;,
         0.000560; 0.970624;-0.240599;,
        -0.420975; 0.621149; 0.661024;,
         0.222075; 0.723741; 0.653361;,
         0.315247; 0.924363;-0.214878;,
        -0.000000;-0.447214;-0.894427;,
         0.000635; 0.515901;-0.856648;,
         0.140988; 0.545367;-0.826255;,
        -0.000000;-0.447214;-0.894427;,
        -0.000000;-1.000000; 0.000000;,
        -0.000000;-0.447214;-0.894427;,
        -0.000000;-0.447214;-0.894427;,
        -0.000000;-1.000000;-0.000000;,
         0.000635; 0.515901;-0.856648;,
         0.000560; 0.970624;-0.240599;,
         0.315247; 0.924363;-0.214878;,
         0.140988; 0.545367;-0.826255;,
         0.592280; 0.276280;-0.756884;,
         0.851819; 0.469057;-0.233218;,
         0.899876;-0.419244;-0.120240;,
         0.569890;-0.345248;-0.745673;,
        -0.670417;-0.332775;-0.663175;,
        -0.924943;-0.247288; 0.288668;,
        -0.709996; 0.700443; 0.072699;,
        -0.612235; 0.407794;-0.677401;,
         0.140988; 0.545367;-0.826255;,
         0.315247; 0.924363;-0.214878;,
         0.851819; 0.469057;-0.233218;,
         0.592280; 0.276280;-0.756884;,
        -0.083323;-0.251950; 0.964146;,
        -0.000000;-1.000000;-0.000000;,
         0.899876;-0.419244;-0.120240;,
         0.642998;-0.330509; 0.690882;,
        -0.612235; 0.407794;-0.677401;,
        -0.709996; 0.700443; 0.072699;,
         0.000560; 0.970624;-0.240599;,
         0.000635; 0.515901;-0.856648;,
        -0.924943;-0.247288; 0.288668;,
        -0.670417;-0.332775;-0.663175;,
        -0.000000;-0.447214;-0.894427;,
        -0.000000;-1.000000; 0.000000;,
        -0.670417;-0.332775;-0.663175;,
        -0.612235; 0.407794;-0.677401;,
         0.000635; 0.515901;-0.856648;,
        -0.000000;-0.447214;-0.894427;,
        -0.709996; 0.700443; 0.072699;,
        -0.390201; 0.619619; 0.681040;,
         0.483191; 0.571680; 0.663105;,
         0.000560; 0.970624;-0.240599;,
        -0.390201; 0.619619; 0.681040;,
        -0.497133; 0.000000; 0.867675;,
         0.556024; 0.000000; 0.831167;,
         0.483191; 0.571680; 0.663105;,
         0.483191; 0.571680; 0.663105;,
         0.025771; 0.976264; 0.215045;,
         0.000560; 0.970624;-0.240599;,
         0.556024; 0.000000; 0.831167;,
         0.165592; 0.000000; 0.986194;,
         0.025771; 0.976264; 0.215045;,
         0.483191; 0.571680; 0.663105;,
         0.025771; 0.976264; 0.215045;,
        -0.420975; 0.621149; 0.661024;,
         0.000560; 0.970624;-0.240599;,
         0.165592; 0.000000; 0.986194;,
        -0.537169; 0.000000; 0.843475;,
        -0.420975; 0.621149; 0.661024;,
         0.025771; 0.976264; 0.215045;,
        -0.000000;-0.447214;-0.894427;,
         0.569890;-0.345248;-0.745673;,
         0.592280;-0.276280;-0.756884;,
         0.140988;-0.545367;-0.826255;,
         0.315246;-0.924363;-0.214878;,
         0.851818;-0.469057;-0.233218;,
         0.686491;-0.330459; 0.647709;,
         0.222075;-0.723741; 0.653361;,
         0.222075;-0.723741; 0.653361;,
         0.686491;-0.330459; 0.647709;,
         0.642998;-0.330509; 0.690882;,
        -0.083323;-0.251950; 0.964146;,
        -0.924943;-0.247288; 0.288668;,
        -0.709996;-0.700443; 0.072699;,
        -0.390201;-0.619619; 0.681040;,
        -0.497133; 0.000000; 0.867675;,
         0.851818;-0.469057;-0.233218;,
         0.899876;-0.419244;-0.120240;,
         0.642998;-0.330509; 0.690882;,
         0.686491;-0.330459; 0.647709;,
        -0.420975;-0.621149; 0.661025;,
         0.222075;-0.723741; 0.653361;,
        -0.083323;-0.251950; 0.964146;,
        -0.537169; 0.000000; 0.843475;,
         0.000560;-0.970624;-0.240599;,
         0.315246;-0.924363;-0.214878;,
         0.222075;-0.723741; 0.653361;,
        -0.420975;-0.621149; 0.661025;,
        -0.000000;-0.447214;-0.894427;,
        -0.000000;-0.447214;-0.894427;,
         0.140988;-0.545367;-0.826255;,
         0.000635;-0.515901;-0.856648;,
         0.000635;-0.515901;-0.856648;,
         0.140988;-0.545367;-0.826255;,
         0.315246;-0.924363;-0.214878;,
         0.000560;-0.970624;-0.240599;,
         0.592280;-0.276280;-0.756884;,
         0.569890;-0.345248;-0.745673;,
         0.899876;-0.419244;-0.120240;,
         0.851818;-0.469057;-0.233218;,
        -0.670417;-0.332775;-0.663175;,
        -0.612235;-0.407794;-0.677401;,
        -0.709996;-0.700443; 0.072699;,
        -0.924943;-0.247288; 0.288668;,
         0.140988;-0.545367;-0.826255;,
         0.592280;-0.276280;-0.756884;,
         0.851818;-0.469057;-0.233218;,
         0.315246;-0.924363;-0.214878;,
        -0.612235;-0.407794;-0.677401;,
         0.000635;-0.515901;-0.856648;,
         0.000560;-0.970624;-0.240599;,
        -0.709996;-0.700443; 0.072699;,
        -0.670417;-0.332775;-0.663175;,
        -0.000000;-0.447214;-0.894427;,
         0.000635;-0.515901;-0.856648;,
        -0.612235;-0.407794;-0.677401;,
        -0.709996;-0.700443; 0.072699;,
         0.000560;-0.970624;-0.240599;,
         0.483191;-0.571680; 0.663105;,
        -0.390201;-0.619619; 0.681040;,
        -0.390201;-0.619619; 0.681040;,
         0.483191;-0.571680; 0.663105;,
         0.556024; 0.000000; 0.831167;,
        -0.497133; 0.000000; 0.867675;,
         0.483191;-0.571680; 0.663105;,
         0.000560;-0.970624;-0.240599;,
         0.025771;-0.976264; 0.215045;,
         0.556024; 0.000000; 0.831167;,
         0.483191;-0.571680; 0.663105;,
         0.025771;-0.976264; 0.215045;,
         0.165592; 0.000000; 0.986194;,
         0.025771;-0.976264; 0.215045;,
         0.000560;-0.970624;-0.240599;,
        -0.420975;-0.621149; 0.661025;,
         0.165592; 0.000000; 0.986194;,
         0.025771;-0.976264; 0.215045;,
        -0.420975;-0.621149; 0.661025;,
        -0.537169; 0.000000; 0.843475;,
         0.329709;-0.000000;-0.944082;,
         0.205847; 0.446955;-0.870551;,
         0.859170; 0.452558; 0.238783;,
         0.986583;-0.000000; 0.163261;,
         0.205847; 0.446955;-0.870551;,
        -0.120354; 0.726118;-0.676955;,
         0.527226; 0.729580; 0.435598;,
         0.859170; 0.452558; 0.238783;,
        -0.120354; 0.726118;-0.676955;,
        -0.527225; 0.729580;-0.435599;,
         0.120354; 0.726118; 0.676955;,
         0.527226; 0.729580; 0.435598;,
        -0.527225; 0.729580;-0.435599;,
        -0.859170; 0.452558;-0.238783;,
        -0.205847; 0.446955; 0.870551;,
         0.120354; 0.726118; 0.676955;,
        -0.859170; 0.452558;-0.238783;,
        -0.986583;-0.000000;-0.163261;,
        -0.329709;-0.000000; 0.944082;,
        -0.205847; 0.446955; 0.870551;,
        -0.986583;-0.000000;-0.163261;,
        -0.859170;-0.452559;-0.238783;,
        -0.205847;-0.446955; 0.870550;,
        -0.329709;-0.000000; 0.944082;,
        -0.859170;-0.452559;-0.238783;,
        -0.527226;-0.729580;-0.435599;,
         0.120354;-0.726118; 0.676955;,
        -0.205847;-0.446955; 0.870550;,
        -0.527226;-0.729580;-0.435599;,
        -0.120354;-0.726118;-0.676955;,
         0.527226;-0.729580; 0.435598;,
         0.120354;-0.726118; 0.676955;,
         0.859170; 0.452558; 0.238783;,
         0.527226; 0.729580; 0.435598;,
         0.120354; 0.726118; 0.676955;,
        -0.205847; 0.446955; 0.870551;,
        -0.329709;-0.000000; 0.944082;,
        -0.205847;-0.446955; 0.870550;,
         0.120354;-0.726118; 0.676955;,
         0.527226;-0.729580; 0.435598;,
         0.859170;-0.452558; 0.238783;,
         0.986583;-0.000000; 0.163261;,
        -0.120354;-0.726118;-0.676955;,
         0.205847;-0.446955;-0.870551;,
         0.859170;-0.452558; 0.238783;,
         0.527226;-0.729580; 0.435598;,
         0.205847;-0.446955;-0.870551;,
         0.329709;-0.000000;-0.944082;,
         0.986583;-0.000000; 0.163261;,
         0.859170;-0.452558; 0.238783;,
         0.329709;-0.000000;-0.944082;,
         0.205847;-0.446955;-0.870551;,
        -0.120354;-0.726118;-0.676955;,
        -0.527226;-0.729580;-0.435599;,
        -0.859170;-0.452559;-0.238783;,
        -0.986583;-0.000000;-0.163261;,
        -0.859170; 0.452558;-0.238783;,
        -0.527225; 0.729580;-0.435599;,
        -0.120354; 0.726118;-0.676955;,
         0.205847; 0.446955;-0.870551;;
        116;
        4;3,2,1,0;,
        4;7,6,5,4;,
        4;11,10,9,8;,
        4;15,14,13,12;,
        4;19,18,17,16;,
        4;23,22,21,20;,
        4;27,26,25,24;,
        4;31,30,29,28;,
        4;35,34,33,32;,
        37;72,71,70,69,68,67,66,65,64,63,62,61,60,59,58,57,56,55,54,53,52,51,50,49,48,47,46,45,44,43,42,41,40,39,38,37,36;,
        4;76,75,74,73;,
        4;80,79,78,77;,
        4;84,83,82,81;,
        4;88,87,86,85;,
        4;92,91,90,89;,
        4;96,95,94,93;,
        4;100,99,98,97;,
        4;104,103,102,101;,
        4;108,107,106,105;,
        4;112,111,110,109;,
        4;116,115,114,113;,
        4;120,119,118,117;,
        4;124,123,122,121;,
        4;128,127,126,125;,
        37;165,164,163,162,161,160,159,158,157,156,155,154,153,152,151,150,149,148,147,146,145,144,143,142,141,140,139,138,137,136,135,134,133,132,131,130,129;,
        4;169,168,167,166;,
        4;173,172,171,170;,
        4;177,176,175,174;,
        4;181,180,179,178;,
        4;185,184,183,182;,
        4;189,188,187,186;,
        4;193,192,191,190;,
        4;197,196,195,194;,
        4;201,200,199,198;,
        5;206,205,204,203,202;,
        5;211,210,209,208,207;,
        4;215,214,213,212;,
        4;219,218,217,216;,
        4;223,222,221,220;,
        4;227,226,225,224;,
        4;231,230,229,228;,
        4;235,234,233,232;,
        4;239,238,237,236;,
        4;243,242,241,240;,
        5;248,247,246,245,244;,
        5;253,252,251,250,249;,
        4;257,256,255,254;,
        4;261,260,259,258;,
        4;265,264,263,262;,
        4;269,268,267,266;,
        4;273,272,271,270;,
        4;277,276,275,274;,
        4;281,280,279,278;,
        4;285,284,283,282;,
        4;289,288,287,286;,
        6;295,294,293,292,291,290;,
        4;299,298,297,296;,
        4;303,302,301,300;,
        4;307,306,305,304;,
        4;311,310,309,308;,
        4;315,314,313,312;,
        4;319,318,317,316;,
        4;323,322,321,320;,
        4;327,326,325,324;,
        4;331,330,329,328;,
        4;335,334,333,332;,
        4;339,338,337,336;,
        4;343,342,341,340;,
        4;347,346,345,344;,
        4;351,350,349,348;,
        4;355,354,353,352;,
        4;359,358,357,356;,
        4;363,362,361,360;,
        4;367,366,365,364;,
        4;371,370,369,368;,
        4;375,374,373,372;,
        4;379,378,377,376;,
        4;383,382,381,380;,
        4;387,386,385,384;,
        4;391,390,389,388;,
        3;394,393,392;,
        4;398,397,396,395;,
        3;401,400,399;,
        4;405,404,403,402;,
        4;409,408,407,406;,
        4;413,412,411,410;,
        4;417,416,415,414;,
        4;421,420,419,418;,
        4;425,424,423,422;,
        4;429,428,427,426;,
        4;433,432,431,430;,
        4;437,436,435,434;,
        4;441,440,439,438;,
        4;445,444,443,442;,
        4;449,448,447,446;,
        4;453,452,451,450;,
        4;457,456,455,454;,
        4;461,460,459,458;,
        4;465,464,463,462;,
        4;469,468,467,466;,
        3;472,471,470;,
        4;476,475,474,473;,
        3;479,478,477;,
        4;483,482,481,480;,
        4;487,486,485,484;,
        4;491,490,489,488;,
        4;495,494,493,492;,
        4;499,498,497,496;,
        4;503,502,501,500;,
        4;507,506,505,504;,
        4;511,510,509,508;,
        4;515,514,513,512;,
        10;525,524,523,522,521,520,519,518,517,516;,
        4;529,528,527,526;,
        4;533,532,531,530;,
        10;543,542,541,540,539,538,537,536,535,534;;
      }
      MeshTextureCoords {
        544;
         0.973852; 0.892776;,
         0.973851; 0.290993;,
         0.988097; 0.291529;,
         0.988097; 0.873048;,
         0.874040; 0.192048;,
         0.835015; 0.192048;,
         0.849334; 0.177793;,
         0.874040; 0.177793;,
         0.806160; 0.062033;,
         0.806160; 0.663825;,
         0.785962; 0.644097;,
         0.785962; 0.062569;,
         0.771634; 0.624800;,
         0.771634; 0.663825;,
         0.747300; 0.663825;,
         0.747300; 0.639119;,
         0.835015; 0.317422;,
         0.835015; 0.892776;,
         0.806161; 0.892776;,
         0.806160; 0.317422;,
         0.859721; 0.311254;,
         0.859721; 0.892776;,
         0.835015; 0.892776;,
         0.835016; 0.311254;,
         0.717105; 1.000000;,
         0.678081; 1.000000;,
         0.678081; 0.892884;,
         0.717105; 0.892884;,
         0.004826; 0.663825;,
         0.149615; 0.717851;,
         0.150969; 0.721943;,
         0.000000; 0.777851;,
         0.288657; 0.718290;,
         0.290994; 0.725604;,
         0.235799; 0.744598;,
         0.244278; 0.718281;,
         0.297369; 0.744281;,
         0.319918; 0.760138;,
         0.353880; 0.759417;,
         0.374453; 0.743730;,
         0.382217; 0.718298;,
         0.442747; 0.717963;,
         0.450791; 0.743122;,
         0.471806; 0.758461;,
         0.497252; 0.758287;,
         0.517915; 0.742977;,
         0.526055; 0.718239;,
         0.518207; 0.693490;,
         0.497621; 0.678232;,
         0.471770; 0.677994;,
         0.450859; 0.693314;,
         0.446924; 0.704557;,
         0.373827; 0.692747;,
         0.353084; 0.676980;,
         0.319843; 0.676436;,
         0.297072; 0.692493;,
         0.288657; 0.718290;,
         0.244278; 0.718281;,
         0.235960; 0.692029;,
         0.213945; 0.675600;,
         0.180177; 0.675553;,
         0.158230; 0.691370;,
         0.149615; 0.717851;,
         0.004826; 0.663825;,
         0.601844; 0.670112;,
         0.601844; 0.771162;,
         0.000000; 0.777851;,
         0.150969; 0.721943;,
         0.158242; 0.744757;,
         0.180255; 0.761138;,
         0.213056; 0.761143;,
         0.235799; 0.744598;,
         0.290994; 0.725604;,
         0.373827; 0.692747;,
         0.446924; 0.704557;,
         0.442747; 0.717963;,
         0.382217; 0.718298;,
         0.874040; 0.299164;,
         0.835015; 0.299164;,
         0.835015; 0.192048;,
         0.874040; 0.192048;,
         0.988099; 0.868462;,
         0.988097; 0.293131;,
         1.000000; 0.291004;,
         1.000000; 0.892776;,
         0.874040; 0.311254;,
         0.845185; 0.311254;,
         0.835015; 0.299164;,
         0.874040; 0.299164;,
         0.942540; 0.890649;,
         0.942542; 0.315284;,
         0.958196; 0.290971;,
         0.958196; 0.892776;,
         0.727275; 0.896829;,
         0.756130; 0.896829;,
         0.756130; 0.923900;,
         0.717105; 0.923900;,
         0.874040; 0.192048;,
         0.874040; 0.177793;,
         0.898745; 0.177793;,
         0.913064; 0.192048;,
         0.922342; 0.290982;,
         0.942540; 0.291518;,
         0.942540; 0.873048;,
         0.922342; 0.892776;,
         0.771634; 0.624800;,
         0.747300; 0.610481;,
         0.747300; 0.585776;,
         0.771634; 0.585776;,
         0.000000; 0.152774;,
         0.000000; 0.123920;,
         0.575353; 0.123920;,
         0.575353; 0.152775;,
         0.104415; 0.177481;,
         0.104415; 0.152775;,
         0.685937; 0.152775;,
         0.685937; 0.177480;,
         0.639057; 1.000000;,
         0.639057; 0.892884;,
         0.678081; 0.892884;,
         0.678081; 1.000000;,
         0.002638; 0.663825;,
         0.000000; 0.550464;,
         0.148376; 0.609872;,
         0.149829; 0.614228;,
         0.287196; 0.609328;,
         0.289224; 0.615786;,
         0.234602; 0.635708;,
         0.243001; 0.609404;,
         0.289224; 0.615786;,
         0.295648; 0.635316;,
         0.318446; 0.651391;,
         0.351879; 0.650865;,
         0.372708; 0.635068;,
         0.445925; 0.624169;,
         0.449322; 0.634577;,
         0.470303; 0.649917;,
         0.496275; 0.649694;,
         0.516967; 0.634377;,
         0.524867; 0.609517;,
         0.516705; 0.584665;,
         0.495941; 0.569313;,
         0.470382; 0.569167;,
         0.449301; 0.584530;,
         0.441190; 0.609642;,
         0.380786; 0.609520;,
         0.372899; 0.584041;,
         0.352138; 0.568355;,
         0.318392; 0.567682;,
         0.295904; 0.583596;,
         0.287196; 0.609328;,
         0.243001; 0.609404;,
         0.234534; 0.583231;,
         0.212304; 0.566825;,
         0.179693; 0.566887;,
         0.157152; 0.583078;,
         0.148376; 0.609872;,
         0.000000; 0.550464;,
         0.600940; 0.556263;,
         0.600940; 0.657908;,
         0.002638; 0.663825;,
         0.149829; 0.614228;,
         0.156925; 0.636269;,
         0.178823; 0.652175;,
         0.212570; 0.652150;,
         0.234602; 0.635708;,
         0.380786; 0.609520;,
         0.441190; 0.609642;,
         0.445925; 0.624169;,
         0.372708; 0.635068;,
         0.874040; 0.299164;,
         0.874040; 0.192048;,
         0.913064; 0.192048;,
         0.913064; 0.299164;,
         0.874040; 0.311254;,
         0.874040; 0.299164;,
         0.913064; 0.299164;,
         0.902894; 0.311254;,
         0.958197; 0.293095;,
         0.973851; 0.290969;,
         0.973851; 0.892776;,
         0.958196; 0.868460;,
         0.443681; 0.254823;,
         0.416610; 0.264993;,
         0.416610; 0.225969;,
         0.443681; 0.225969;,
         0.182464; 0.251382;,
         0.260513; 0.251382;,
         0.260513; 0.278375;,
         0.182464; 0.278375;,
         0.182464; 0.224390;,
         0.260513; 0.224390;,
         0.260513; 0.251382;,
         0.182464; 0.251382;,
         0.182464; 0.197397;,
         0.260513; 0.197397;,
         0.260513; 0.224390;,
         0.182464; 0.224390;,
         0.451283; 0.294520;,
         0.529332; 0.294520;,
         0.529332; 0.321512;,
         0.451283; 0.321512;,
         0.529332; 0.267527;,
         0.529332; 0.294520;,
         0.451283; 0.294520;,
         0.451283; 0.271783;,
         0.451283; 0.267527;,
         0.451283; 0.240535;,
         0.529332; 0.240535;,
         0.529332; 0.262936;,
         0.529332; 0.267527;,
         0.451283; 0.267527;,
         0.529332; 0.213542;,
         0.529332; 0.240535;,
         0.451283; 0.240535;,
         0.451283; 0.213542;,
         0.529332; 0.186550;,
         0.529332; 0.213542;,
         0.451283; 0.213542;,
         0.451283; 0.186550;,
         0.260513; 0.305367;,
         0.260513; 0.332360;,
         0.182464; 0.332360;,
         0.182464; 0.305367;,
         0.182464; 0.278375;,
         0.260513; 0.278375;,
         0.260513; 0.305367;,
         0.182464; 0.305367;,
         0.104415; 0.251382;,
         0.182464; 0.251382;,
         0.182464; 0.278375;,
         0.104415; 0.278375;,
         0.104415; 0.224390;,
         0.182464; 0.224390;,
         0.182464; 0.251382;,
         0.104415; 0.251382;,
         0.104415; 0.197397;,
         0.182464; 0.197397;,
         0.182464; 0.224390;,
         0.104415; 0.224390;,
         0.260513; 0.305367;,
         0.338561; 0.305367;,
         0.338561; 0.332360;,
         0.260513; 0.332360;,
         0.338561; 0.305367;,
         0.260513; 0.305367;,
         0.260513; 0.285802;,
         0.260513; 0.278375;,
         0.338561; 0.278375;,
         0.338561; 0.271639;,
         0.338561; 0.278375;,
         0.260513; 0.278375;,
         0.260513; 0.251382;,
         0.338561; 0.251382;,
         0.338561; 0.224390;,
         0.338561; 0.251382;,
         0.260513; 0.251382;,
         0.260513; 0.224390;,
         0.338561; 0.197397;,
         0.338561; 0.224390;,
         0.260513; 0.224390;,
         0.260513; 0.197397;,
         0.182464; 0.305367;,
         0.182464; 0.332360;,
         0.104415; 0.332360;,
         0.104415; 0.305367;,
         0.104415; 0.278375;,
         0.182464; 0.278375;,
         0.182464; 0.305367;,
         0.104415; 0.305367;,
         0.607380; 0.267527;,
         0.529332; 0.267527;,
         0.529332; 0.240535;,
         0.607380; 0.240535;,
         0.607380; 0.294520;,
         0.529332; 0.294520;,
         0.529332; 0.267527;,
         0.607380; 0.267527;,
         0.607380; 0.321512;,
         0.529332; 0.321512;,
         0.529332; 0.294520;,
         0.607380; 0.294520;,
         0.416610; 0.224390;,
         0.338561; 0.224390;,
         0.338561; 0.197397;,
         0.416610; 0.197397;,
         0.338561; 0.251382;,
         0.338561; 0.224390;,
         0.416610; 0.224390;,
         0.416610; 0.251382;,
         0.338561; 0.278375;,
         0.338561; 0.267064;,
         0.338561; 0.251382;,
         0.416610; 0.251382;,
         0.416610; 0.267064;,
         0.416610; 0.278375;,
         0.338561; 0.305367;,
         0.338561; 0.278375;,
         0.416610; 0.278375;,
         0.416610; 0.305367;,
         0.338561; 0.332360;,
         0.338561; 0.305367;,
         0.416610; 0.305367;,
         0.416610; 0.332360;,
         0.529332; 0.213542;,
         0.529332; 0.186550;,
         0.607380; 0.186550;,
         0.607380; 0.213542;,
         0.607380; 0.240535;,
         0.529332; 0.240535;,
         0.529332; 0.213542;,
         0.607380; 0.213542;,
         0.427058; 0.791533;,
         0.426754; 0.777851;,
         0.438725; 0.777851;,
         0.447569; 0.810353;,
         0.922342; 0.466020;,
         0.891032; 0.474863;,
         0.902209; 0.454049;,
         0.922342; 0.454049;,
         0.915167; 0.282959;,
         0.914080; 0.102912;,
         0.942540; 0.101337;,
         0.942540; 0.290982;,
         0.000000; 0.310363;,
         0.052208; 0.310363;,
         0.052208; 0.332360;,
         0.018128; 0.332360;,
         0.447569; 0.947705;,
         0.639032; 0.947705;,
         0.639057; 0.999912;,
         0.451783; 1.000000;,
         0.717105; 0.965920;,
         0.906751; 0.965920;,
         0.906751; 1.000000;,
         0.717105; 1.000000;,
         0.000000; 0.152775;,
         0.052208; 0.152775;,
         0.052208; 0.310363;,
         0.000000; 0.310363;,
         0.406558; 0.545698;,
         0.241394; 0.490494;,
         0.225642; 0.333695;,
         0.405687; 0.332360;,
         0.922342; 0.679398;,
         0.891032; 0.683820;,
         0.891032; 0.474863;,
         0.922342; 0.466020;,
         0.213721; 0.801378;,
         0.213377; 0.777852;,
         0.426754; 0.777851;,
         0.427058; 0.791533;,
         0.451283; 0.550464;,
         0.406558; 0.545698;,
         0.405687; 0.332360;,
         0.451283; 0.341508;,
         0.430557; 0.298676;,
         0.416610; 0.264993;,
         0.450689; 0.264993;,
         0.450689; 0.298676;,
         0.601613; 0.804639;,
         0.601613; 0.838013;,
         0.549406; 0.843202;,
         0.570303; 0.804639;,
         0.653847; 0.277607;,
         0.607380; 0.279492;,
         0.617409; 0.252789;,
         0.653847; 0.253981;,
         0.425628; 0.998423;,
         0.427058; 0.791533;,
         0.447569; 0.810353;,
         0.447569; 1.000000;,
         0.655599; 0.550464;,
         0.611740; 0.550080;,
         0.610874; 0.336742;,
         0.655599; 0.341508;,
         0.000384; 0.811224;,
         0.000000; 0.777852;,
         0.213377; 0.777852;,
         0.213721; 0.801378;,
         0.922342; 0.892776;,
         0.891032; 0.892776;,
         0.891032; 0.683820;,
         0.922342; 0.679398;,
         0.611740; 0.550080;,
         0.461460; 0.438333;,
         0.451283; 0.337006;,
         0.610874; 0.336742;,
         0.549406; 0.790994;,
         0.549406; 0.843202;,
         0.450900; 0.843202;,
         0.447569; 0.790994;,
         0.451283; 0.337006;,
         0.514436; 0.321512;,
         0.610874; 0.336742;,
         0.681750; 0.611513;,
         0.746950; 0.611513;,
         0.747300; 0.663765;,
         0.682275; 0.663825;,
         0.310119; 0.530471;,
         0.241394; 0.490494;,
         0.406558; 0.545698;,
         0.600940; 0.611589;,
         0.681731; 0.611589;,
         0.681750; 0.663796;,
         0.602243; 0.663825;,
         0.891032; 0.880805;,
         0.891032; 0.892776;,
         0.870899; 0.892776;,
         0.859721; 0.871962;,
         0.807247; 0.135800;,
         0.834621; 0.127776;,
         0.834621; 0.317422;,
         0.806160; 0.315847;,
         0.104415; 0.310363;,
         0.086287; 0.332360;,
         0.052208; 0.332360;,
         0.052208; 0.310363;,
         0.447569; 0.947705;,
         0.451783; 0.895409;,
         0.639057; 0.895497;,
         0.639032; 0.947705;,
         0.575353; 0.152775;,
         0.575353; 0.118695;,
         0.764999; 0.118695;,
         0.764999; 0.152775;,
         0.104415; 0.152775;,
         0.104415; 0.310363;,
         0.052208; 0.310363;,
         0.052208; 0.152775;,
         0.180916; 0.337125;,
         0.180046; 0.550464;,
         0.000000; 0.549128;,
         0.015752; 0.392329;,
         0.891032; 0.667427;,
         0.891032; 0.880805;,
         0.859721; 0.871962;,
         0.859721; 0.663006;,
         0.225642; 0.332360;,
         0.225642; 0.541316;,
         0.180046; 0.550464;,
         0.180916; 0.337125;,
         0.430557; 0.298676;,
         0.450689; 0.298676;,
         0.450689; 0.332360;,
         0.416610; 0.332360;,
         0.587969; 0.843202;,
         0.587969; 0.874512;,
         0.549406; 0.895409;,
         0.554594; 0.843202;,
         0.595872; 0.779821;,
         0.595872; 0.803446;,
         0.559435; 0.804639;,
         0.549406; 0.777935;,
         0.806160; 0.663825;,
         0.806160; 0.872781;,
         0.761435; 0.877547;,
         0.762301; 0.664208;,
         0.891032; 0.454049;,
         0.891032; 0.667427;,
         0.859721; 0.663006;,
         0.859721; 0.454049;,
         0.762301; 0.664208;,
         0.761435; 0.877547;,
         0.601844; 0.877282;,
         0.612021; 0.775955;,
         0.549406; 0.895409;,
         0.447569; 0.895409;,
         0.450900; 0.843202;,
         0.549406; 0.843202;,
         0.601844; 0.877282;,
         0.761435; 0.877547;,
         0.664996; 0.892776;,
         0.681750; 0.611513;,
         0.682275; 0.559202;,
         0.747300; 0.559262;,
         0.746950; 0.611513;,
         0.084478; 0.352352;,
         0.180916; 0.337125;,
         0.015752; 0.392329;,
         0.600940; 0.611589;,
         0.602243; 0.559353;,
         0.681750; 0.559381;,
         0.681731; 0.611589;,
         0.720504; 0.247907;,
         0.733488; 0.247764;,
         0.733488; 0.550320;,
         0.720504; 0.550464;,
         0.733488; 0.247764;,
         0.746467; 0.247386;,
         0.746467; 0.549943;,
         0.733488; 0.550320;,
         0.746467; 0.247386;,
         0.759444; 0.246920;,
         0.759444; 0.549477;,
         0.746467; 0.549943;,
         0.759444; 0.246920;,
         0.772424; 0.246543;,
         0.772423; 0.549100;,
         0.759444; 0.549477;,
         0.772424; 0.246543;,
         0.785408; 0.246399;,
         0.785408; 0.548956;,
         0.772423; 0.549100;,
         0.655599; 0.246397;,
         0.668584; 0.246541;,
         0.668584; 0.549099;,
         0.655600; 0.548955;,
         0.668584; 0.246541;,
         0.681564; 0.246918;,
         0.681564; 0.549476;,
         0.668584; 0.549099;,
         0.681564; 0.246918;,
         0.694541; 0.247384;,
         0.694540; 0.549943;,
         0.681564; 0.549476;,
         0.647344; 0.306995;,
         0.639711; 0.317500;,
         0.627362; 0.321512;,
         0.615013; 0.317500;,
         0.607380; 0.306995;,
         0.607380; 0.294010;,
         0.615013; 0.283505;,
         0.627362; 0.279492;,
         0.639711; 0.283505;,
         0.647344; 0.294010;,
         0.694541; 0.247384;,
         0.707520; 0.247761;,
         0.707520; 0.550320;,
         0.694540; 0.549943;,
         0.707520; 0.247761;,
         0.720504; 0.247905;,
         0.720504; 0.550464;,
         0.707520; 0.550320;,
         0.749436; 0.927913;,
         0.757069; 0.938418;,
         0.757069; 0.951403;,
         0.749436; 0.961908;,
         0.737087; 0.965920;,
         0.724738; 0.961908;,
         0.717105; 0.951403;,
         0.717105; 0.938418;,
         0.724738; 0.927913;,
         0.737087; 0.923900;;
      }
    }
  }
}
