xof 0303txt 0032

Frame Root {
  FrameTransformMatrix {
     1.000000, 0.000000, 0.000000, 0.000000,
     0.000000,-0.000000, 1.000000, 0.000000,
     0.000000, 1.000000, 0.000000, 0.000000,
     0.000000, 0.000000, 0.000000, 1.000000;;
  }
  Frame Priclad3DSA_Cube_010 {
    FrameTransformMatrix {
       1.000000, 0.000000, 0.000000, 0.000000,
       0.000000, 1.000000, 0.000000, 0.000000,
       0.000000, 0.000000, 1.000000, 0.000000,
       0.000000, 0.000000, 0.000000, 1.000000;;
    }
    Mesh {
      446;
      -0.027641;-0.007090;-0.107843;,
      -0.003007;-0.007090;-0.107843;,
       0.000622;-0.005483;-0.107843;,
       0.002125;-0.001604;-0.107843;,
       0.002125; 0.001604;-0.107843;,
       0.000622; 0.005483;-0.107843;,
      -0.003007; 0.007090;-0.107843;,
      -0.027641; 0.007090;-0.107843;,
      -0.031311; 0.005483;-0.107843;,
      -0.032832; 0.001604;-0.107843;,
      -0.032832;-0.001604;-0.107843;,
      -0.031311;-0.005483;-0.107843;,
       0.041522; 0.007090; 0.038552;,
       0.020021; 0.007090; 0.026086;,
       0.024473; 0.007090; 0.023473;,
      -0.002720;-0.007090;-0.092963;,
       0.003417;-0.007090;-0.041436;,
       0.008573;-0.007090;-0.041186;,
      -0.029698;-0.001604;-0.085191;,
      -0.032832;-0.001604;-0.107843;,
      -0.032832; 0.001604;-0.107843;,
      -0.029698; 0.001604;-0.085191;,
      -0.027641; 0.007090;-0.107843;,
      -0.003007; 0.007090;-0.107843;,
      -0.002720; 0.007090;-0.092963;,
      -0.002720; 0.007090;-0.092963;,
       0.008573; 0.007090;-0.041186;,
       0.003417; 0.007090;-0.041436;,
       0.047488;-0.001604; 0.038573;,
       0.051841;-0.001788; 0.038588;,
       0.051841; 0.001788; 0.038588;,
       0.047488; 0.001604; 0.038573;,
      -0.029698; 0.001604;-0.085191;,
      -0.018866; 0.001604; 0.005731;,
      -0.018866;-0.001604; 0.005731;,
      -0.029698;-0.001604;-0.085191;,
      -0.002720;-0.007090;-0.092963;,
      -0.003007;-0.007090;-0.107843;,
      -0.027641;-0.007090;-0.107843;,
       0.002404;-0.001604;-0.094439;,
       0.045406;-0.001604; 0.018160;,
       0.045406; 0.001604; 0.018160;,
       0.002404; 0.001604;-0.094439;,
      -0.018866; 0.001604; 0.005731;,
      -0.028204; 0.001604; 0.038314;,
      -0.028204;-0.001604; 0.038314;,
      -0.018866;-0.001604; 0.005731;,
       0.014865;-0.007090; 0.025836;,
       0.041522;-0.007090; 0.038552;,
       0.020021;-0.007090; 0.026086;,
       0.045406;-0.001604; 0.018160;,
       0.047488;-0.001604; 0.038573;,
       0.047488; 0.001604; 0.038573;,
       0.045406; 0.001604; 0.018160;,
       0.002404; 0.001604;-0.094439;,
       0.000903; 0.005483;-0.094007;,
       0.000622; 0.005483;-0.107843;,
       0.002125; 0.001604;-0.107843;,
       0.000903; 0.005483;-0.094007;,
      -0.002720; 0.007090;-0.092963;,
      -0.003007; 0.007090;-0.107843;,
       0.000622; 0.005483;-0.107843;,
      -0.032832; 0.001604;-0.107843;,
      -0.031311; 0.005483;-0.107843;,
      -0.028160; 0.005483;-0.085633;,
      -0.029698; 0.001604;-0.085191;,
      -0.031311; 0.005483;-0.107843;,
      -0.027641; 0.007090;-0.107843;,
      -0.024450; 0.007090;-0.086703;,
      -0.028160; 0.005483;-0.085633;,
       0.002125;-0.001604;-0.107843;,
       0.000622;-0.005483;-0.107843;,
       0.000903;-0.005483;-0.094007;,
       0.002404;-0.001604;-0.094439;,
       0.000622;-0.005483;-0.107843;,
      -0.003007;-0.007090;-0.107843;,
      -0.002720;-0.007090;-0.092963;,
       0.000903;-0.005483;-0.094007;,
      -0.029698;-0.001604;-0.085191;,
      -0.028160;-0.005483;-0.085633;,
      -0.031311;-0.005483;-0.107843;,
      -0.032832;-0.001604;-0.107843;,
      -0.028160;-0.005483;-0.085633;,
      -0.024450;-0.007090;-0.086703;,
      -0.027641;-0.007090;-0.107843;,
      -0.031311;-0.005483;-0.107843;,
       0.002404;-0.001604;-0.094439;,
       0.000903;-0.005483;-0.094007;,
       0.043619;-0.005483; 0.017815;,
       0.045406;-0.001604; 0.018160;,
       0.000903;-0.005483;-0.094007;,
      -0.002720;-0.007090;-0.092963;,
       0.039304;-0.007090; 0.016980;,
       0.043619;-0.005483; 0.017815;,
      -0.018866;-0.001604; 0.005731;,
      -0.017241;-0.005483; 0.006045;,
      -0.028160;-0.005483;-0.085633;,
      -0.029698;-0.001604;-0.085191;,
      -0.017241;-0.005483; 0.006045;,
      -0.013317;-0.007090; 0.006804;,
      -0.024450;-0.007090;-0.086703;,
      -0.028160;-0.005483;-0.085633;,
      -0.002720; 0.007090;-0.092963;,
       0.000903; 0.005483;-0.094007;,
       0.043619; 0.005483; 0.017815;,
       0.039304; 0.007090; 0.016980;,
       0.000903; 0.005483;-0.094007;,
       0.002404; 0.001604;-0.094439;,
       0.045406; 0.001604; 0.018160;,
       0.043619; 0.005483; 0.017815;,
      -0.013317; 0.007090; 0.006804;,
      -0.017241; 0.005483; 0.006045;,
      -0.028160; 0.005483;-0.085633;,
      -0.024450; 0.007090;-0.086703;,
      -0.017241; 0.005483; 0.006045;,
      -0.018866; 0.001604; 0.005731;,
      -0.029698; 0.001604;-0.085191;,
      -0.028160; 0.005483;-0.085633;,
       0.045406;-0.001604; 0.018160;,
       0.043619;-0.005483; 0.017815;,
       0.045741;-0.005483; 0.038567;,
       0.047488;-0.001604; 0.038573;,
       0.043619;-0.005483; 0.017815;,
       0.039304;-0.007090; 0.016980;,
       0.041522;-0.007090; 0.038552;,
       0.045741;-0.005483; 0.038567;,
      -0.028204;-0.001604; 0.038314;,
      -0.026492;-0.005483; 0.038320;,
      -0.017241;-0.005483; 0.006045;,
      -0.018866;-0.001604; 0.005731;,
      -0.026492;-0.005483; 0.038320;,
      -0.022360;-0.007090; 0.038334;,
      -0.013317;-0.007090; 0.006804;,
      -0.017241;-0.005483; 0.006045;,
       0.039304; 0.007090; 0.016980;,
       0.043619; 0.005483; 0.017815;,
       0.045741; 0.005483; 0.038567;,
       0.041522; 0.007090; 0.038552;,
       0.043619; 0.005483; 0.017815;,
       0.045406; 0.001604; 0.018160;,
       0.047488; 0.001604; 0.038573;,
       0.045741; 0.005483; 0.038567;,
      -0.022360; 0.007090; 0.038334;,
      -0.026492; 0.005483; 0.038320;,
      -0.017241; 0.005483; 0.006045;,
      -0.013317; 0.007090; 0.006804;,
      -0.026492; 0.005483; 0.038320;,
      -0.028204; 0.001604; 0.038314;,
      -0.018866; 0.001604; 0.005731;,
      -0.017241; 0.005483; 0.006045;,
       0.002404; 0.001604;-0.094439;,
       0.002125; 0.001604;-0.107843;,
       0.002125;-0.001604;-0.107843;,
       0.002404;-0.001604;-0.094439;,
       0.049893; 0.006113; 0.038581;,
       0.049840; 0.006113; 0.054030;,
       0.045136; 0.007905; 0.054014;,
       0.045189; 0.007905; 0.038565;,
       0.047488; 0.001604; 0.038573;,
       0.051841; 0.001788; 0.038588;,
       0.049893; 0.006113; 0.038581;,
       0.045741; 0.005483; 0.038567;,
       0.041522;-0.007090; 0.038552;,
       0.045189;-0.007905; 0.038565;,
       0.049893;-0.006113; 0.038581;,
       0.045741;-0.005483; 0.038567;,
      -0.028204; 0.001604; 0.038314;,
      -0.032551; 0.001788; 0.038299;,
      -0.032551;-0.001788; 0.038299;,
      -0.028204;-0.001604; 0.038314;,
       0.045741; 0.005483; 0.038567;,
       0.049893; 0.006113; 0.038581;,
       0.045189; 0.007905; 0.038565;,
       0.041522; 0.007090; 0.038552;,
      -0.022360;-0.007090; 0.038334;,
      -0.026035;-0.007905; 0.038321;,
       0.045189;-0.007905; 0.038565;,
       0.041522;-0.007090; 0.038552;,
       0.045741;-0.005483; 0.038567;,
       0.049893;-0.006113; 0.038581;,
       0.051841;-0.001788; 0.038588;,
       0.047488;-0.001604; 0.038573;,
      -0.026492; 0.005483; 0.038320;,
      -0.030642; 0.006113; 0.038306;,
      -0.032551; 0.001788; 0.038299;,
      -0.028204; 0.001604; 0.038314;,
      -0.026492;-0.005483; 0.038320;,
      -0.030642;-0.006113; 0.038306;,
      -0.026035;-0.007905; 0.038321;,
      -0.022360;-0.007090; 0.038334;,
      -0.022360; 0.007090; 0.038334;,
      -0.026035; 0.007905; 0.038321;,
      -0.030642; 0.006113; 0.038306;,
      -0.026492; 0.005483; 0.038320;,
       0.041522; 0.007090; 0.038552;,
       0.045189; 0.007905; 0.038565;,
      -0.026035; 0.007905; 0.038321;,
      -0.022360; 0.007090; 0.038334;,
      -0.028204;-0.001604; 0.038314;,
      -0.032551;-0.001788; 0.038299;,
      -0.030642;-0.006113; 0.038306;,
      -0.026492;-0.005483; 0.038320;,
       0.045136; 0.007905; 0.054014;,
       0.051788;-0.001788; 0.054037;,
       0.045136;-0.007905; 0.054014;,
      -0.026035;-0.007905; 0.038321;,
      -0.026088;-0.007905; 0.053771;,
       0.045136;-0.007905; 0.054014;,
       0.045189;-0.007905; 0.038565;,
       0.045189;-0.007905; 0.038565;,
       0.045136;-0.007905; 0.054014;,
       0.049840;-0.006113; 0.054030;,
       0.049893;-0.006113; 0.038581;,
       0.045189; 0.007905; 0.038565;,
       0.045136; 0.007905; 0.054014;,
      -0.026088; 0.007905; 0.053771;,
      -0.026035; 0.007905; 0.038321;,
       0.051841; 0.001788; 0.038588;,
       0.051788; 0.001788; 0.054037;,
       0.049840; 0.006113; 0.054030;,
       0.049893; 0.006113; 0.038581;,
      -0.032551;-0.001788; 0.038299;,
      -0.032604;-0.001788; 0.053748;,
      -0.030695;-0.006113; 0.053755;,
      -0.030642;-0.006113; 0.038306;,
       0.051841;-0.001788; 0.038588;,
       0.051788;-0.001788; 0.054037;,
       0.051788; 0.001788; 0.054037;,
       0.051841; 0.001788; 0.038588;,
      -0.026035; 0.007905; 0.038321;,
      -0.026088; 0.007905; 0.053771;,
      -0.030695; 0.006113; 0.053755;,
      -0.030642; 0.006113; 0.038306;,
      -0.030642;-0.006113; 0.038306;,
      -0.030695;-0.006113; 0.053755;,
      -0.026088;-0.007905; 0.053771;,
      -0.026035;-0.007905; 0.038321;,
      -0.032551; 0.001788; 0.038299;,
      -0.032604; 0.001788; 0.053748;,
      -0.032604;-0.001788; 0.053748;,
      -0.032551;-0.001788; 0.038299;,
       0.049893;-0.006113; 0.038581;,
       0.049840;-0.006113; 0.054030;,
       0.051788;-0.001788; 0.054037;,
       0.051841;-0.001788; 0.038588;,
      -0.030642; 0.006113; 0.038306;,
      -0.030695; 0.006113; 0.053755;,
      -0.032604; 0.001788; 0.053748;,
      -0.032551; 0.001788; 0.038299;,
       0.020021; 0.007090; 0.026086;,
       0.020021;-0.007090; 0.026086;,
       0.024473;-0.007090; 0.023473;,
       0.024473; 0.007090; 0.023473;,
       0.024473; 0.007090; 0.023473;,
       0.024473;-0.007090; 0.023473;,
       0.027028;-0.007090; 0.018698;,
       0.027028; 0.007090; 0.018698;,
       0.027028; 0.007090; 0.018698;,
       0.027028;-0.007090; 0.018698;,
       0.027002;-0.007090; 0.013039;,
       0.027002; 0.007090; 0.013039;,
       0.015652;-0.007090;-0.033115;,
       0.015652; 0.007090;-0.033115;,
       0.027002; 0.007090; 0.013039;,
       0.027002;-0.007090; 0.013039;,
       0.007785;-0.007090; 0.017765;,
       0.010386;-0.007090; 0.022790;,
       0.010386; 0.007090; 0.022790;,
       0.007785; 0.007090; 0.017765;,
       0.010386; 0.007090; 0.022790;,
       0.010386;-0.007090; 0.022790;,
       0.014865;-0.007090; 0.025836;,
       0.014865; 0.007090; 0.025836;,
       0.014865; 0.007090; 0.025836;,
       0.014865;-0.007090; 0.025836;,
       0.020021;-0.007090; 0.026086;,
       0.020021; 0.007090; 0.026086;,
       0.003417; 0.007090;-0.041436;,
       0.008573; 0.007090;-0.041186;,
       0.008573;-0.007090;-0.041186;,
       0.003417;-0.007090;-0.041436;,
       0.008573; 0.007090;-0.041186;,
       0.013051; 0.007090;-0.038140;,
       0.013051;-0.007090;-0.038140;,
       0.008573;-0.007090;-0.041186;,
       0.013051; 0.007090;-0.038140;,
       0.015652; 0.007090;-0.033115;,
       0.015652;-0.007090;-0.033115;,
       0.013051;-0.007090;-0.038140;,
      -0.003564; 0.007090;-0.028389;,
      -0.003590; 0.007090;-0.034048;,
      -0.003590;-0.007090;-0.034048;,
      -0.003564;-0.007090;-0.028389;,
      -0.003590; 0.007090;-0.034048;,
      -0.001035; 0.007090;-0.038823;,
      -0.001035;-0.007090;-0.038823;,
      -0.003590;-0.007090;-0.034048;,
      -0.001035; 0.007090;-0.038823;,
       0.003417; 0.007090;-0.041436;,
       0.003417;-0.007090;-0.041436;,
      -0.001035;-0.007090;-0.038823;,
       0.007785; 0.007090; 0.017765;,
      -0.003564; 0.007090;-0.028389;,
      -0.003564;-0.007090;-0.028389;,
       0.007785;-0.007090; 0.017765;,
       0.007785; 0.007090; 0.017765;,
      -0.022360; 0.007090; 0.038334;,
      -0.013317; 0.007090; 0.006804;,
       0.041522; 0.007090; 0.038552;,
       0.024473; 0.007090; 0.023473;,
       0.039304; 0.007090; 0.016980;,
       0.039304; 0.007090; 0.016980;,
       0.027028; 0.007090; 0.018698;,
       0.027002; 0.007090; 0.013039;,
       0.039304; 0.007090; 0.016980;,
       0.024473; 0.007090; 0.023473;,
       0.027028; 0.007090; 0.018698;,
       0.010386; 0.007090; 0.022790;,
      -0.022360; 0.007090; 0.038334;,
       0.007785; 0.007090; 0.017765;,
       0.014865; 0.007090; 0.025836;,
      -0.022360; 0.007090; 0.038334;,
       0.010386; 0.007090; 0.022790;,
       0.020021; 0.007090; 0.026086;,
       0.041522; 0.007090; 0.038552;,
       0.014865; 0.007090; 0.025836;,
       0.014865; 0.007090; 0.025836;,
       0.041522; 0.007090; 0.038552;,
      -0.022360; 0.007090; 0.038334;,
       0.007785;-0.007090; 0.017765;,
      -0.003564;-0.007090;-0.028389;,
      -0.013317;-0.007090; 0.006804;,
      -0.013317;-0.007090; 0.006804;,
      -0.003590;-0.007090;-0.034048;,
      -0.024450;-0.007090;-0.086703;,
      -0.003564;-0.007090;-0.028389;,
      -0.003590;-0.007090;-0.034048;,
      -0.013317;-0.007090; 0.006804;,
       0.039304;-0.007090; 0.016980;,
       0.015652;-0.007090;-0.033115;,
       0.027002;-0.007090; 0.013039;,
      -0.002720;-0.007090;-0.092963;,
       0.015652;-0.007090;-0.033115;,
       0.039304;-0.007090; 0.016980;,
      -0.002720;-0.007090;-0.092963;,
       0.013051;-0.007090;-0.038140;,
       0.015652;-0.007090;-0.033115;,
      -0.002720;-0.007090;-0.092963;,
       0.008573;-0.007090;-0.041186;,
       0.013051;-0.007090;-0.038140;,
      -0.003590;-0.007090;-0.034048;,
      -0.001035;-0.007090;-0.038823;,
      -0.024450;-0.007090;-0.086703;,
      -0.024450;-0.007090;-0.086703;,
       0.003417;-0.007090;-0.041436;,
      -0.002720;-0.007090;-0.092963;,
      -0.001035;-0.007090;-0.038823;,
       0.003417;-0.007090;-0.041436;,
      -0.024450;-0.007090;-0.086703;,
       0.015652; 0.007090;-0.033115;,
       0.039304; 0.007090; 0.016980;,
       0.027002; 0.007090; 0.013039;,
      -0.002720; 0.007090;-0.092963;,
       0.003417; 0.007090;-0.041436;,
      -0.024450; 0.007090;-0.086703;,
      -0.024450; 0.007090;-0.086703;,
      -0.003590; 0.007090;-0.034048;,
      -0.013317; 0.007090; 0.006804;,
      -0.013317; 0.007090; 0.006804;,
      -0.003564; 0.007090;-0.028389;,
       0.007785; 0.007090; 0.017765;,
      -0.013317; 0.007090; 0.006804;,
      -0.003590; 0.007090;-0.034048;,
      -0.003564; 0.007090;-0.028389;,
       0.015652; 0.007090;-0.033115;,
      -0.002720; 0.007090;-0.092963;,
       0.039304; 0.007090; 0.016980;,
       0.013051; 0.007090;-0.038140;,
      -0.002720; 0.007090;-0.092963;,
       0.015652; 0.007090;-0.033115;,
      -0.024450; 0.007090;-0.086703;,
      -0.001035; 0.007090;-0.038823;,
      -0.003590; 0.007090;-0.034048;,
      -0.024450; 0.007090;-0.086703;,
       0.003417; 0.007090;-0.041436;,
      -0.001035; 0.007090;-0.038823;,
       0.008573; 0.007090;-0.041186;,
      -0.002720; 0.007090;-0.092963;,
       0.013051; 0.007090;-0.038140;,
       0.027002;-0.007090; 0.013039;,
       0.027028;-0.007090; 0.018698;,
       0.039304;-0.007090; 0.016980;,
       0.039304;-0.007090; 0.016980;,
       0.024473;-0.007090; 0.023473;,
       0.041522;-0.007090; 0.038552;,
       0.027028;-0.007090; 0.018698;,
       0.024473;-0.007090; 0.023473;,
       0.039304;-0.007090; 0.016980;,
      -0.022360;-0.007090; 0.038334;,
       0.007785;-0.007090; 0.017765;,
      -0.013317;-0.007090; 0.006804;,
      -0.022360;-0.007090; 0.038334;,
       0.010386;-0.007090; 0.022790;,
       0.007785;-0.007090; 0.017765;,
      -0.022360;-0.007090; 0.038334;,
       0.014865;-0.007090; 0.025836;,
       0.010386;-0.007090; 0.022790;,
       0.020021;-0.007090; 0.026086;,
       0.041522;-0.007090; 0.038552;,
       0.024473;-0.007090; 0.023473;,
      -0.022360;-0.007090; 0.038334;,
       0.041522;-0.007090; 0.038552;,
       0.014865;-0.007090; 0.025836;,
       0.049840; 0.006113; 0.054030;,
       0.051788; 0.001788; 0.054037;,
       0.045136; 0.007905; 0.054014;,
       0.045136; 0.007905; 0.054014;,
       0.045136;-0.007905; 0.054014;,
      -0.026088; 0.007905; 0.053771;,
      -0.026088; 0.007905; 0.053771;,
      -0.032604; 0.001788; 0.053748;,
      -0.030695; 0.006113; 0.053755;,
      -0.032604; 0.001788; 0.053748;,
      -0.026088;-0.007905; 0.053771;,
      -0.032604;-0.001788; 0.053748;,
      -0.032604;-0.001788; 0.053748;,
      -0.026088;-0.007905; 0.053771;,
      -0.030695;-0.006113; 0.053755;,
      -0.026088;-0.007905; 0.053771;,
      -0.026088; 0.007905; 0.053771;,
       0.045136;-0.007905; 0.054014;,
      -0.032604; 0.001788; 0.053748;,
      -0.026088; 0.007905; 0.053771;,
      -0.026088;-0.007905; 0.053771;,
       0.045136;-0.007905; 0.054014;,
       0.051788;-0.001788; 0.054037;,
       0.049840;-0.006113; 0.054030;,
       0.051788;-0.001788; 0.054037;,
       0.045136; 0.007905; 0.054014;,
       0.051788; 0.001788; 0.054037;,
      -0.002720;-0.007090;-0.092963;,
      -0.027641;-0.007090;-0.107843;,
      -0.024450;-0.007090;-0.086703;,
      -0.027641; 0.007090;-0.107843;,
      -0.002720; 0.007090;-0.092963;,
      -0.024450; 0.007090;-0.086703;;
      123;
      12;11,10,9,8,7,6,5,4,3,2,1,0;,
      3;14,13,12;,
      3;17,16,15;,
      4;21,20,19,18;,
      3;24,23,22;,
      3;27,26,25;,
      4;31,30,29,28;,
      4;35,34,33,32;,
      3;38,37,36;,
      4;42,41,40,39;,
      4;46,45,44,43;,
      3;49,48,47;,
      4;53,52,51,50;,
      4;57,56,55,54;,
      4;61,60,59,58;,
      4;65,64,63,62;,
      4;69,68,67,66;,
      4;73,72,71,70;,
      4;77,76,75,74;,
      4;81,80,79,78;,
      4;85,84,83,82;,
      4;89,88,87,86;,
      4;93,92,91,90;,
      4;97,96,95,94;,
      4;101,100,99,98;,
      4;105,104,103,102;,
      4;109,108,107,106;,
      4;113,112,111,110;,
      4;117,116,115,114;,
      4;121,120,119,118;,
      4;125,124,123,122;,
      4;129,128,127,126;,
      4;133,132,131,130;,
      4;137,136,135,134;,
      4;141,140,139,138;,
      4;145,144,143,142;,
      4;149,148,147,146;,
      4;153,152,151,150;,
      4;157,156,155,154;,
      4;161,160,159,158;,
      4;165,164,163,162;,
      4;169,168,167,166;,
      4;173,172,171,170;,
      4;177,176,175,174;,
      4;181,180,179,178;,
      4;185,184,183,182;,
      4;189,188,187,186;,
      4;193,192,191,190;,
      4;197,196,195,194;,
      4;201,200,199,198;,
      3;204,203,202;,
      4;208,207,206,205;,
      4;212,211,210,209;,
      4;216,215,214,213;,
      4;220,219,218,217;,
      4;224,223,222,221;,
      4;228,227,226,225;,
      4;232,231,230,229;,
      4;236,235,234,233;,
      4;240,239,238,237;,
      4;244,243,242,241;,
      4;248,247,246,245;,
      4;252,251,250,249;,
      4;256,255,254,253;,
      4;260,259,258,257;,
      4;264,263,262,261;,
      4;268,267,266,265;,
      4;272,271,270,269;,
      4;276,275,274,273;,
      4;280,279,278,277;,
      4;284,283,282,281;,
      4;288,287,286,285;,
      4;292,291,290,289;,
      4;296,295,294,293;,
      4;300,299,298,297;,
      4;304,303,302,301;,
      3;307,306,305;,
      3;310,309,308;,
      3;313,312,311;,
      3;316,315,314;,
      3;319,318,317;,
      3;322,321,320;,
      3;325,324,323;,
      3;328,327,326;,
      3;331,330,329;,
      3;334,333,332;,
      3;337,336,335;,
      3;340,339,338;,
      3;343,342,341;,
      3;346,345,344;,
      3;349,348,347;,
      3;352,351,350;,
      3;355,354,353;,
      3;358,357,356;,
      3;361,360,359;,
      3;364,363,362;,
      3;367,366,365;,
      3;370,369,368;,
      3;373,372,371;,
      3;376,375,374;,
      3;379,378,377;,
      3;382,381,380;,
      3;385,384,383;,
      3;388,387,386;,
      3;391,390,389;,
      3;394,393,392;,
      3;397,396,395;,
      3;400,399,398;,
      3;403,402,401;,
      3;406,405,404;,
      3;409,408,407;,
      3;412,411,410;,
      3;415,414,413;,
      3;418,417,416;,
      3;421,420,419;,
      3;424,423,422;,
      3;427,426,425;,
      3;430,429,428;,
      3;433,432,431;,
      3;436,435,434;,
      3;439,438,437;,
      3;442,441,440;,
      3;445,444,443;;
      MeshNormals {
        446;
         0.165603; 0.740308; 0.651551;,
        -0.152477; 0.731264; 0.664833;,
        -0.556253; 0.535050; 0.635849;,
        -0.724710; 0.136103; 0.675479;,
        -0.724710;-0.136103; 0.675479;,
        -0.556253;-0.535050; 0.635849;,
        -0.152477;-0.731264; 0.664833;,
         0.165604;-0.740308; 0.651551;,
         0.588924;-0.550916; 0.591321;,
         0.773298;-0.147222; 0.616714;,
         0.773298; 0.147222; 0.616714;,
         0.588924; 0.550916; 0.591321;,
        -0.128378;-0.641404; 0.756386;,
         0.150212;-0.777369; 0.610847;,
         0.456918;-0.773480; 0.439267;,
        -0.176105; 0.983722; 0.035741;,
        -0.150210; 0.777375;-0.610840;,
         0.201097; 0.773477;-0.601077;,
         0.973637; 0.190429;-0.125567;,
         0.773298; 0.147222; 0.616714;,
         0.773298;-0.147222; 0.616714;,
         0.973637;-0.190429;-0.125567;,
         0.165604;-0.740308; 0.651551;,
        -0.152477;-0.731264; 0.664833;,
        -0.176105;-0.983722; 0.035741;,
        -0.176105;-0.983722; 0.035741;,
         0.201097;-0.773477;-0.601077;,
        -0.150211;-0.777375;-0.610840;,
        -0.603184; 0.127358; 0.787368;,
        -0.734402; 0.157294; 0.660236;,
        -0.734402;-0.157294; 0.660236;,
        -0.603184;-0.127358; 0.787368;,
         0.973637;-0.190429;-0.125567;,
         0.976006;-0.204166; 0.075693;,
         0.976006; 0.204166; 0.075693;,
         0.973637; 0.190429;-0.125567;,
        -0.176105; 0.983722; 0.035741;,
        -0.152477; 0.731264; 0.664833;,
         0.165603; 0.740308; 0.651551;,
        -0.963378; 0.192982; 0.186175;,
        -0.955008; 0.198630; 0.220242;,
        -0.955008;-0.198630; 0.220242;,
        -0.963378;-0.192982; 0.186175;,
         0.976006;-0.204166; 0.075693;,
         0.535740;-0.109655; 0.837232;,
         0.535741; 0.109655; 0.837232;,
         0.976006; 0.204166; 0.075693;,
        -0.201093; 0.773482; 0.601072;,
        -0.128378; 0.641404; 0.756386;,
         0.150212; 0.777369; 0.610846;,
        -0.955008; 0.198630; 0.220242;,
        -0.603184; 0.127358; 0.787368;,
        -0.603184;-0.127358; 0.787368;,
        -0.955008;-0.198630; 0.220242;,
        -0.963378;-0.192982; 0.186175;,
        -0.681527;-0.719769; 0.132113;,
        -0.556253;-0.535050; 0.635849;,
        -0.724710;-0.136103; 0.675479;,
        -0.681527;-0.719769; 0.132113;,
        -0.176105;-0.983722; 0.035741;,
        -0.152477;-0.731264; 0.664833;,
        -0.556253;-0.535050; 0.635849;,
         0.773298;-0.147222; 0.616714;,
         0.588924;-0.550916; 0.591321;,
         0.706865;-0.701310;-0.092224;,
         0.973637;-0.190429;-0.125567;,
         0.588924;-0.550916; 0.591321;,
         0.165604;-0.740308; 0.651551;,
         0.196622;-0.980126;-0.026342;,
         0.706865;-0.701310;-0.092224;,
        -0.724710; 0.136103; 0.675479;,
        -0.556253; 0.535050; 0.635849;,
        -0.681527; 0.719769; 0.132113;,
        -0.963378; 0.192982; 0.186175;,
        -0.556253; 0.535050; 0.635849;,
        -0.152477; 0.731264; 0.664833;,
        -0.176105; 0.983722; 0.035741;,
        -0.681527; 0.719769; 0.132113;,
         0.973637; 0.190429;-0.125567;,
         0.706865; 0.701310;-0.092224;,
         0.588924; 0.550916; 0.591321;,
         0.773298; 0.147222; 0.616714;,
         0.706865; 0.701310;-0.092224;,
         0.196622; 0.980126;-0.026342;,
         0.165603; 0.740308; 0.651551;,
         0.588924; 0.550916; 0.591321;,
        -0.963378; 0.192982; 0.186175;,
        -0.681527; 0.719769; 0.132113;,
        -0.694066; 0.700162; 0.167465;,
        -0.955008; 0.198630; 0.220242;,
        -0.681527; 0.719769; 0.132113;,
        -0.176105; 0.983722; 0.035741;,
        -0.200217; 0.978175; 0.055555;,
        -0.694066; 0.700162; 0.167465;,
         0.976006; 0.204166; 0.075693;,
         0.673002; 0.737735; 0.053062;,
         0.706865; 0.701310;-0.092224;,
         0.973637; 0.190429;-0.125567;,
         0.673002; 0.737735; 0.053062;,
         0.166652; 0.985897; 0.015289;,
         0.196622; 0.980126;-0.026342;,
         0.706865; 0.701310;-0.092224;,
        -0.176105;-0.983722; 0.035741;,
        -0.681527;-0.719769; 0.132113;,
        -0.694066;-0.700162; 0.167465;,
        -0.200217;-0.978175; 0.055555;,
        -0.681527;-0.719769; 0.132113;,
        -0.963378;-0.192982; 0.186175;,
        -0.955008;-0.198630; 0.220242;,
        -0.694066;-0.700162; 0.167465;,
         0.166652;-0.985897; 0.015289;,
         0.673002;-0.737735; 0.053062;,
         0.706865;-0.701310;-0.092224;,
         0.196622;-0.980126;-0.026342;,
         0.673002;-0.737735; 0.053062;,
         0.976006;-0.204166; 0.075693;,
         0.973637;-0.190429;-0.125567;,
         0.706865;-0.701310;-0.092224;,
        -0.955008; 0.198630; 0.220242;,
        -0.694066; 0.700162; 0.167465;,
        -0.398756; 0.405589; 0.822491;,
        -0.603184; 0.127358; 0.787368;,
        -0.694066; 0.700162; 0.167465;,
        -0.200217; 0.978175; 0.055555;,
        -0.128378; 0.641404; 0.756386;,
        -0.398756; 0.405589; 0.822491;,
         0.535741; 0.109655; 0.837232;,
         0.371586; 0.358012; 0.856593;,
         0.673002; 0.737735; 0.053062;,
         0.976006; 0.204166; 0.075693;,
         0.371586; 0.358012; 0.856593;,
         0.134520; 0.622614; 0.770880;,
         0.166652; 0.985897; 0.015289;,
         0.673002; 0.737735; 0.053062;,
        -0.200217;-0.978175; 0.055555;,
        -0.694066;-0.700162; 0.167465;,
        -0.398756;-0.405589; 0.822491;,
        -0.128378;-0.641404; 0.756386;,
        -0.694066;-0.700162; 0.167465;,
        -0.955008;-0.198630; 0.220242;,
        -0.603184;-0.127358; 0.787368;,
        -0.398756;-0.405589; 0.822491;,
         0.134520;-0.622615; 0.770880;,
         0.371586;-0.358012; 0.856593;,
         0.673002;-0.737735; 0.053062;,
         0.166652;-0.985897; 0.015289;,
         0.371586;-0.358012; 0.856593;,
         0.535740;-0.109655; 0.837232;,
         0.976006;-0.204166; 0.075693;,
         0.673002;-0.737735; 0.053062;,
        -0.963378;-0.192982; 0.186175;,
        -0.724710;-0.136103; 0.675479;,
        -0.724710; 0.136103; 0.675479;,
        -0.963378; 0.192982; 0.186175;,
        -0.534523;-0.564941; 0.628592;,
        -0.530210;-0.564940;-0.632235;,
        -0.132278;-0.731385;-0.669013;,
        -0.136842;-0.731377; 0.668103;,
        -0.603184;-0.127358; 0.787368;,
        -0.734402;-0.157294; 0.660236;,
        -0.534523;-0.564941; 0.628592;,
        -0.398756;-0.405589; 0.822491;,
        -0.128378; 0.641404; 0.756386;,
        -0.136842; 0.731377; 0.668103;,
        -0.534522; 0.564941; 0.628592;,
        -0.398756; 0.405589; 0.822491;,
         0.535740;-0.109655; 0.837232;,
         0.729818;-0.154350; 0.665989;,
         0.729818; 0.154350; 0.665989;,
         0.535741; 0.109655; 0.837232;,
        -0.398756;-0.405589; 0.822491;,
        -0.534523;-0.564941; 0.628592;,
        -0.136842;-0.731377; 0.668103;,
        -0.128378;-0.641404; 0.756386;,
         0.134520; 0.622614; 0.770880;,
         0.134919; 0.731513; 0.668345;,
        -0.136842; 0.731377; 0.668103;,
        -0.128378; 0.641404; 0.756386;,
        -0.398756; 0.405589; 0.822491;,
        -0.534522; 0.564941; 0.628592;,
        -0.734402; 0.157294; 0.660236;,
        -0.603184; 0.127358; 0.787368;,
         0.371586;-0.358012; 0.856593;,
         0.534349;-0.561081; 0.632186;,
         0.729818;-0.154350; 0.665989;,
         0.535740;-0.109655; 0.837232;,
         0.371586; 0.358012; 0.856593;,
         0.534349; 0.561081; 0.632186;,
         0.134919; 0.731513; 0.668345;,
         0.134520; 0.622614; 0.770880;,
         0.134520;-0.622615; 0.770880;,
         0.134920;-0.731513; 0.668345;,
         0.534349;-0.561081; 0.632186;,
         0.371586;-0.358012; 0.856593;,
        -0.128378;-0.641404; 0.756386;,
        -0.136842;-0.731377; 0.668103;,
         0.134920;-0.731513; 0.668345;,
         0.134520;-0.622615; 0.770880;,
         0.535741; 0.109655; 0.837232;,
         0.729818; 0.154350; 0.665989;,
         0.534349; 0.561081; 0.632186;,
         0.371586; 0.358012; 0.856593;,
        -0.132278;-0.731385;-0.669013;,
        -0.729873; 0.157297;-0.665240;,
        -0.132278; 0.731385;-0.669013;,
         0.134919; 0.731513; 0.668345;,
         0.139493; 0.731519;-0.667400;,
        -0.132278; 0.731385;-0.669013;,
        -0.136842; 0.731377; 0.668103;,
        -0.136842; 0.731377; 0.668103;,
        -0.132278; 0.731385;-0.669013;,
        -0.530210; 0.564940;-0.632234;,
        -0.534522; 0.564941; 0.628592;,
        -0.136842;-0.731377; 0.668103;,
        -0.132278;-0.731385;-0.669013;,
         0.139493;-0.731519;-0.667400;,
         0.134920;-0.731513; 0.668345;,
        -0.734402;-0.157294; 0.660236;,
        -0.729873;-0.157297;-0.665239;,
        -0.530210;-0.564940;-0.632235;,
        -0.534523;-0.564941; 0.628592;,
         0.729818; 0.154350; 0.665989;,
         0.734362; 0.154352;-0.660975;,
         0.538680; 0.561094;-0.628488;,
         0.534349; 0.561081; 0.632186;,
        -0.734402; 0.157294; 0.660236;,
        -0.729873; 0.157297;-0.665240;,
        -0.729873;-0.157297;-0.665239;,
        -0.734402;-0.157294; 0.660236;,
         0.134920;-0.731513; 0.668345;,
         0.139493;-0.731519;-0.667400;,
         0.538680;-0.561094;-0.628488;,
         0.534349;-0.561081; 0.632186;,
         0.534349; 0.561081; 0.632186;,
         0.538680; 0.561094;-0.628488;,
         0.139493; 0.731519;-0.667400;,
         0.134919; 0.731513; 0.668345;,
         0.729818;-0.154350; 0.665989;,
         0.734361;-0.154352;-0.660976;,
         0.734362; 0.154352;-0.660975;,
         0.729818; 0.154350; 0.665989;,
        -0.534522; 0.564941; 0.628592;,
        -0.530210; 0.564940;-0.632234;,
        -0.729873; 0.157297;-0.665240;,
        -0.734402; 0.157294; 0.660236;,
         0.534349;-0.561081; 0.632186;,
         0.538680;-0.561094;-0.628488;,
         0.734361;-0.154352;-0.660976;,
         0.729818;-0.154350; 0.665989;,
         0.150212;-0.777369; 0.610847;,
         0.150212; 0.777369; 0.610846;,
         0.456918; 0.773480; 0.439267;,
         0.456918;-0.773480; 0.439267;,
         0.456918;-0.773480; 0.439267;,
         0.456918; 0.773480; 0.439267;,
         0.623037; 0.766750; 0.154659;,
         0.623037;-0.766750; 0.154659;,
         0.623037;-0.766750; 0.154659;,
         0.623037; 0.766750; 0.154659;,
         0.673336; 0.734644;-0.083170;,
         0.673336;-0.734644;-0.083170;,
         0.635113; 0.734646;-0.238591;,
         0.635113;-0.734646;-0.238591;,
         0.673336;-0.734644;-0.083170;,
         0.673336; 0.734644;-0.083170;,
        -0.635114; 0.734646; 0.238591;,
        -0.480260; 0.766746; 0.425971;,
        -0.480260;-0.766746; 0.425971;,
        -0.635114;-0.734646; 0.238591;,
        -0.480260;-0.766746; 0.425971;,
        -0.480260; 0.766746; 0.425971;,
        -0.201093; 0.773482; 0.601072;,
        -0.201093;-0.773482; 0.601072;,
        -0.201093;-0.773482; 0.601072;,
        -0.201093; 0.773482; 0.601072;,
         0.150212; 0.777369; 0.610846;,
         0.150212;-0.777369; 0.610847;,
        -0.150211;-0.777375;-0.610840;,
         0.201097;-0.773477;-0.601077;,
         0.201097; 0.773477;-0.601077;,
        -0.150210; 0.777375;-0.610840;,
         0.201097;-0.773477;-0.601077;,
         0.480255;-0.766748;-0.425973;,
         0.480255; 0.766748;-0.425973;,
         0.201097; 0.773477;-0.601077;,
         0.480255;-0.766748;-0.425973;,
         0.635113;-0.734646;-0.238591;,
         0.635113; 0.734646;-0.238591;,
         0.480255; 0.766748;-0.425973;,
        -0.673336;-0.734644; 0.083170;,
        -0.623034;-0.766751;-0.154663;,
        -0.623034; 0.766751;-0.154663;,
        -0.673336; 0.734644; 0.083170;,
        -0.623034;-0.766751;-0.154663;,
        -0.456924;-0.773475;-0.439269;,
        -0.456924; 0.773475;-0.439269;,
        -0.623034; 0.766751;-0.154663;,
        -0.456924;-0.773475;-0.439269;,
        -0.150211;-0.777375;-0.610840;,
        -0.150210; 0.777375;-0.610840;,
        -0.456924; 0.773475;-0.439269;,
        -0.635114;-0.734646; 0.238591;,
        -0.673336;-0.734644; 0.083170;,
        -0.673336; 0.734644; 0.083170;,
        -0.635114; 0.734646; 0.238591;,
        -0.635114;-0.734646; 0.238591;,
         0.134520;-0.622615; 0.770880;,
         0.166652;-0.985897; 0.015289;,
        -0.128378;-0.641404; 0.756386;,
         0.456918;-0.773480; 0.439267;,
        -0.200217;-0.978175; 0.055555;,
        -0.200217;-0.978175; 0.055555;,
         0.623037;-0.766750; 0.154659;,
         0.673336;-0.734644;-0.083170;,
        -0.200217;-0.978175; 0.055555;,
         0.456918;-0.773480; 0.439267;,
         0.623037;-0.766750; 0.154659;,
        -0.480260;-0.766746; 0.425971;,
         0.134520;-0.622615; 0.770880;,
        -0.635114;-0.734646; 0.238591;,
        -0.201093;-0.773482; 0.601072;,
         0.134520;-0.622615; 0.770880;,
        -0.480260;-0.766746; 0.425971;,
         0.150212;-0.777369; 0.610847;,
        -0.128378;-0.641404; 0.756386;,
        -0.201093;-0.773482; 0.601072;,
        -0.201093;-0.773482; 0.601072;,
        -0.128378;-0.641404; 0.756386;,
         0.134520;-0.622615; 0.770880;,
        -0.635114; 0.734646; 0.238591;,
        -0.673336; 0.734644; 0.083170;,
         0.166652; 0.985897; 0.015289;,
         0.166652; 0.985897; 0.015289;,
        -0.623034; 0.766751;-0.154663;,
         0.196622; 0.980126;-0.026342;,
        -0.673336; 0.734644; 0.083170;,
        -0.623034; 0.766751;-0.154663;,
         0.166652; 0.985897; 0.015289;,
        -0.200217; 0.978175; 0.055555;,
         0.635113; 0.734646;-0.238591;,
         0.673336; 0.734644;-0.083170;,
        -0.176105; 0.983722; 0.035741;,
         0.635113; 0.734646;-0.238591;,
        -0.200217; 0.978175; 0.055555;,
        -0.176105; 0.983722; 0.035741;,
         0.480255; 0.766748;-0.425973;,
         0.635113; 0.734646;-0.238591;,
        -0.176105; 0.983722; 0.035741;,
         0.201097; 0.773477;-0.601077;,
         0.480255; 0.766748;-0.425973;,
        -0.623034; 0.766751;-0.154663;,
        -0.456924; 0.773475;-0.439269;,
         0.196622; 0.980126;-0.026342;,
         0.196622; 0.980126;-0.026342;,
        -0.150210; 0.777375;-0.610840;,
        -0.176105; 0.983722; 0.035741;,
        -0.456924; 0.773475;-0.439269;,
        -0.150210; 0.777375;-0.610840;,
         0.196622; 0.980126;-0.026342;,
         0.635113;-0.734646;-0.238591;,
        -0.200217;-0.978175; 0.055555;,
         0.673336;-0.734644;-0.083170;,
        -0.176105;-0.983722; 0.035741;,
        -0.150211;-0.777375;-0.610840;,
         0.196622;-0.980126;-0.026342;,
         0.196622;-0.980126;-0.026342;,
        -0.623034;-0.766751;-0.154663;,
         0.166652;-0.985897; 0.015289;,
         0.166652;-0.985897; 0.015289;,
        -0.673336;-0.734644; 0.083170;,
        -0.635114;-0.734646; 0.238591;,
         0.166652;-0.985897; 0.015289;,
        -0.623034;-0.766751;-0.154663;,
        -0.673336;-0.734644; 0.083170;,
         0.635113;-0.734646;-0.238591;,
        -0.176105;-0.983722; 0.035741;,
        -0.200217;-0.978175; 0.055555;,
         0.480255;-0.766748;-0.425973;,
        -0.176105;-0.983722; 0.035741;,
         0.635113;-0.734646;-0.238591;,
         0.196622;-0.980126;-0.026342;,
        -0.456924;-0.773475;-0.439269;,
        -0.623034;-0.766751;-0.154663;,
         0.196622;-0.980126;-0.026342;,
        -0.150211;-0.777375;-0.610840;,
        -0.456924;-0.773475;-0.439269;,
         0.201097;-0.773477;-0.601077;,
        -0.176105;-0.983722; 0.035741;,
         0.480255;-0.766748;-0.425973;,
         0.673336; 0.734644;-0.083170;,
         0.623037; 0.766750; 0.154659;,
        -0.200217; 0.978175; 0.055555;,
        -0.200217; 0.978175; 0.055555;,
         0.456918; 0.773480; 0.439267;,
        -0.128378; 0.641404; 0.756386;,
         0.623037; 0.766750; 0.154659;,
         0.456918; 0.773480; 0.439267;,
        -0.200217; 0.978175; 0.055555;,
         0.134520; 0.622614; 0.770880;,
        -0.635114; 0.734646; 0.238591;,
         0.166652; 0.985897; 0.015289;,
         0.134520; 0.622614; 0.770880;,
        -0.480260; 0.766746; 0.425971;,
        -0.635114; 0.734646; 0.238591;,
         0.134520; 0.622614; 0.770880;,
        -0.201093; 0.773482; 0.601072;,
        -0.480260; 0.766746; 0.425971;,
         0.150212; 0.777369; 0.610846;,
        -0.128378; 0.641404; 0.756386;,
         0.456918; 0.773480; 0.439267;,
         0.134520; 0.622614; 0.770880;,
        -0.128378; 0.641404; 0.756386;,
        -0.201093; 0.773482; 0.601072;,
        -0.530210;-0.564940;-0.632235;,
        -0.729873;-0.157297;-0.665239;,
        -0.132278;-0.731385;-0.669013;,
        -0.132278;-0.731385;-0.669013;,
        -0.132278; 0.731385;-0.669013;,
         0.139493;-0.731519;-0.667400;,
         0.139493;-0.731519;-0.667400;,
         0.734361;-0.154352;-0.660976;,
         0.538680;-0.561094;-0.628488;,
         0.734361;-0.154352;-0.660976;,
         0.139493; 0.731519;-0.667400;,
         0.734362; 0.154352;-0.660975;,
         0.734362; 0.154352;-0.660975;,
         0.139493; 0.731519;-0.667400;,
         0.538680; 0.561094;-0.628488;,
         0.139493; 0.731519;-0.667400;,
         0.139493;-0.731519;-0.667400;,
        -0.132278; 0.731385;-0.669013;,
         0.734361;-0.154352;-0.660976;,
         0.139493;-0.731519;-0.667400;,
         0.139493; 0.731519;-0.667400;,
        -0.132278; 0.731385;-0.669013;,
        -0.729873; 0.157297;-0.665240;,
        -0.530210; 0.564940;-0.632234;,
        -0.729873; 0.157297;-0.665240;,
        -0.132278;-0.731385;-0.669013;,
        -0.729873;-0.157297;-0.665239;,
        -0.176105; 0.983722; 0.035741;,
         0.165603; 0.740308; 0.651551;,
         0.196622; 0.980126;-0.026342;,
         0.165604;-0.740308; 0.651551;,
        -0.176105;-0.983722; 0.035741;,
         0.196622;-0.980126;-0.026342;;
        123;
        12;11,10,9,8,7,6,5,4,3,2,1,0;,
        3;14,13,12;,
        3;17,16,15;,
        4;21,20,19,18;,
        3;24,23,22;,
        3;27,26,25;,
        4;31,30,29,28;,
        4;35,34,33,32;,
        3;38,37,36;,
        4;42,41,40,39;,
        4;46,45,44,43;,
        3;49,48,47;,
        4;53,52,51,50;,
        4;57,56,55,54;,
        4;61,60,59,58;,
        4;65,64,63,62;,
        4;69,68,67,66;,
        4;73,72,71,70;,
        4;77,76,75,74;,
        4;81,80,79,78;,
        4;85,84,83,82;,
        4;89,88,87,86;,
        4;93,92,91,90;,
        4;97,96,95,94;,
        4;101,100,99,98;,
        4;105,104,103,102;,
        4;109,108,107,106;,
        4;113,112,111,110;,
        4;117,116,115,114;,
        4;121,120,119,118;,
        4;125,124,123,122;,
        4;129,128,127,126;,
        4;133,132,131,130;,
        4;137,136,135,134;,
        4;141,140,139,138;,
        4;145,144,143,142;,
        4;149,148,147,146;,
        4;153,152,151,150;,
        4;157,156,155,154;,
        4;161,160,159,158;,
        4;165,164,163,162;,
        4;169,168,167,166;,
        4;173,172,171,170;,
        4;177,176,175,174;,
        4;181,180,179,178;,
        4;185,184,183,182;,
        4;189,188,187,186;,
        4;193,192,191,190;,
        4;197,196,195,194;,
        4;201,200,199,198;,
        3;204,203,202;,
        4;208,207,206,205;,
        4;212,211,210,209;,
        4;216,215,214,213;,
        4;220,219,218,217;,
        4;224,223,222,221;,
        4;228,227,226,225;,
        4;232,231,230,229;,
        4;236,235,234,233;,
        4;240,239,238,237;,
        4;244,243,242,241;,
        4;248,247,246,245;,
        4;252,251,250,249;,
        4;256,255,254,253;,
        4;260,259,258,257;,
        4;264,263,262,261;,
        4;268,267,266,265;,
        4;272,271,270,269;,
        4;276,275,274,273;,
        4;280,279,278,277;,
        4;284,283,282,281;,
        4;288,287,286,285;,
        4;292,291,290,289;,
        4;296,295,294,293;,
        4;300,299,298,297;,
        4;304,303,302,301;,
        3;307,306,305;,
        3;310,309,308;,
        3;313,312,311;,
        3;316,315,314;,
        3;319,318,317;,
        3;322,321,320;,
        3;325,324,323;,
        3;328,327,326;,
        3;331,330,329;,
        3;334,333,332;,
        3;337,336,335;,
        3;340,339,338;,
        3;343,342,341;,
        3;346,345,344;,
        3;349,348,347;,
        3;352,351,350;,
        3;355,354,353;,
        3;358,357,356;,
        3;361,360,359;,
        3;364,363,362;,
        3;367,366,365;,
        3;370,369,368;,
        3;373,372,371;,
        3;376,375,374;,
        3;379,378,377;,
        3;382,381,380;,
        3;385,384,383;,
        3;388,387,386;,
        3;391,390,389;,
        3;394,393,392;,
        3;397,396,395;,
        3;400,399,398;,
        3;403,402,401;,
        3;406,405,404;,
        3;409,408,407;,
        3;412,411,410;,
        3;415,414,413;,
        3;418,417,416;,
        3;421,420,419;,
        3;424,423,422;,
        3;427,426,425;,
        3;430,429,428;,
        3;433,432,431;,
        3;436,435,434;,
        3;439,438,437;,
        3;442,441,440;,
        3;445,444,443;;
      }
      MeshTextureCoords {
        446;
         0.776221; 0.971141;,
         0.776221; 0.841762;,
         0.784660; 0.822704;,
         0.805033; 0.814810;,
         0.821882; 0.814810;,
         0.842256; 0.822704;,
         0.850694; 0.841762;,
         0.850694; 0.971141;,
         0.842256; 0.990417;,
         0.821882; 0.998401;,
         0.805033; 0.998401;,
         0.784660; 0.990417;,
         0.010376; 0.920423;,
         0.079628; 0.796408;,
         0.093839; 0.820129;,
         0.215605; 0.296025;,
         0.481442; 0.318888;,
         0.483715; 0.345382;,
         0.675101; 0.548081;,
         0.786078; 0.539656;,
         0.787262; 0.555220;,
         0.675939; 0.563915;,
         0.786867; 0.594889;,
         0.784259; 0.711428;,
         0.709200; 0.715667;,
         0.709200; 0.715667;,
         0.437195; 0.756245;,
         0.440395; 0.729572;,
         0.034560; 0.985840;,
         0.018930; 0.997751;,
         0.009306; 0.985032;,
         0.026481; 0.971192;,
         0.675939; 0.563915;,
         0.204262; 0.577450;,
         0.207468; 0.560634;,
         0.675101; 0.548081;,
         0.215605; 0.296025;,
         0.140032; 0.292479;,
         0.139684; 0.172314;,
         0.722565; 0.773775;,
         0.133031; 0.953063;,
         0.128103; 0.937650;,
         0.719425; 0.757705;,
         0.204262; 0.577450;,
         0.026984; 0.503938;,
         0.036574; 0.489412;,
         0.207468; 0.560634;,
         0.837509; 0.366954;,
         0.907665; 0.520554;,
         0.838398; 0.394956;,
         0.133031; 0.953063;,
         0.034560; 0.985840;,
         0.026481; 0.971192;,
         0.128103; 0.937650;,
         0.719425; 0.757705;,
         0.714684; 0.736214;,
         0.785326; 0.730514;,
         0.787175; 0.750670;,
         0.714684; 0.736214;,
         0.709200; 0.715667;,
         0.784259; 0.711428;,
         0.785326; 0.730514;,
         0.787262; 0.555220;,
         0.787815; 0.575462;,
         0.678314; 0.584612;,
         0.675939; 0.563915;,
         0.787815; 0.575462;,
         0.786867; 0.594889;,
         0.682482; 0.604946;,
         0.678314; 0.584612;,
         0.137914; 0.332789;,
         0.139226; 0.311922;,
         0.209965; 0.316386;,
         0.205126; 0.337524;,
         0.139226; 0.311922;,
         0.140032; 0.292479;,
         0.215605; 0.296025;,
         0.209965; 0.316386;,
         0.253033; 0.145023;,
         0.249839; 0.165862;,
         0.139462; 0.152556;,
         0.140810; 0.132033;,
         0.249839; 0.165862;,
         0.244940; 0.186031;,
         0.139684; 0.172314;,
         0.139462; 0.152556;,
         0.205126; 0.337524;,
         0.209965; 0.316386;,
         0.790403; 0.516766;,
         0.787386; 0.537714;,
         0.209965; 0.316386;,
         0.215605; 0.296025;,
         0.787888; 0.493747;,
         0.790403; 0.516766;,
         0.716918; 0.177754;,
         0.721597; 0.199349;,
         0.249839; 0.165862;,
         0.253033; 0.145023;,
         0.721597; 0.199349;,
         0.727711; 0.221521;,
         0.244940; 0.186031;,
         0.249839; 0.165862;,
         0.709200; 0.715667;,
         0.714684; 0.736214;,
         0.125508; 0.917137;,
         0.128419; 0.894404;,
         0.714684; 0.736214;,
         0.719425; 0.757705;,
         0.128103; 0.937650;,
         0.125508; 0.917137;,
         0.192916; 0.621666;,
         0.199305; 0.599317;,
         0.678314; 0.584612;,
         0.682482; 0.604946;,
         0.199305; 0.599317;,
         0.204262; 0.577450;,
         0.675939; 0.563915;,
         0.678314; 0.584612;,
         0.787386; 0.537714;,
         0.790403; 0.516766;,
         0.900919; 0.548788;,
         0.889057; 0.569952;,
         0.790403; 0.516766;,
         0.787888; 0.493747;,
         0.907665; 0.520554;,
         0.900919; 0.548788;,
         0.888797; 0.102494;,
         0.901315; 0.123199;,
         0.721597; 0.199349;,
         0.716918; 0.177754;,
         0.901315; 0.123199;,
         0.907775; 0.151073;,
         0.727711; 0.221521;,
         0.721597; 0.199349;,
         0.128419; 0.894404;,
         0.125508; 0.917137;,
         0.016280; 0.948341;,
         0.010376; 0.920423;,
         0.125508; 0.917137;,
         0.128103; 0.937650;,
         0.026481; 0.971192;,
         0.016280; 0.948341;,
         0.010801; 0.554507;,
         0.016451; 0.526600;,
         0.199305; 0.599317;,
         0.192916; 0.621666;,
         0.016451; 0.526600;,
         0.026984; 0.503938;,
         0.204262; 0.577450;,
         0.199305; 0.599317;,
         0.719425; 0.757705;,
         0.787175; 0.750670;,
         0.788905; 0.766545;,
         0.722565; 0.773775;,
         0.729325; 0.917258;,
         0.729325; 0.998398;,
         0.702891; 0.998398;,
         0.702891; 0.917258;,
         0.026481; 0.971192;,
         0.009306; 0.985032;,
         0.001642; 0.965507;,
         0.016280; 0.948341;,
         0.907665; 0.520554;,
         0.913284; 0.542506;,
         0.914111; 0.568711;,
         0.900919; 0.548788;,
         0.026984; 0.503938;,
         0.009247; 0.489694;,
         0.020010; 0.475607;,
         0.036574; 0.489412;,
         0.016280; 0.948341;,
         0.001642; 0.965507;,
         0.004854; 0.941606;,
         0.010376; 0.920423;,
         0.907775; 0.151073;,
         0.913647; 0.128748;,
         0.913284; 0.542506;,
         0.907665; 0.520554;,
         0.900919; 0.548788;,
         0.914111; 0.568711;,
         0.900807; 0.587820;,
         0.889057; 0.569952;,
         0.016451; 0.526600;,
         0.001642; 0.509648;,
         0.009247; 0.489694;,
         0.026984; 0.503938;,
         0.901315; 0.123199;,
         0.914111; 0.103264;,
         0.913647; 0.128748;,
         0.907775; 0.151073;,
         0.010801; 0.554507;,
         0.005041; 0.532824;,
         0.001642; 0.509648;,
         0.016451; 0.526600;,
         0.010376; 0.920423;,
         0.004854; 0.941606;,
         0.005041; 0.532824;,
         0.010801; 0.554507;,
         0.888797; 0.102494;,
         0.900368; 0.084380;,
         0.914111; 0.103264;,
         0.901315; 0.123199;,
         0.183602; 0.546431;,
         0.148666; 0.495523;,
         0.183602; 0.463400;,
         0.998398; 0.947614;,
         0.917258; 0.947614;,
         0.917258; 0.573543;,
         0.998398; 0.573543;,
         0.998398; 0.573543;,
         0.917258; 0.573543;,
         0.917258; 0.547108;,
         0.998398; 0.547108;,
         0.702891; 0.917258;,
         0.702891; 0.998398;,
         0.328819; 0.998398;,
         0.328820; 0.917258;,
         0.754238; 0.917258;,
         0.754238; 0.998398;,
         0.729325; 0.998398;,
         0.729325; 0.917258;,
         0.998398; 0.998406;,
         0.917258; 0.998406;,
         0.917258; 0.973578;,
         0.998398; 0.973578;,
         0.773024; 0.917258;,
         0.773024; 0.998398;,
         0.754238; 0.998398;,
         0.754238; 0.917258;,
         0.328820; 0.917258;,
         0.328819; 0.998398;,
         0.302856; 0.998398;,
         0.302856; 0.917258;,
         0.998398; 0.973578;,
         0.917258; 0.973578;,
         0.917258; 0.947614;,
         0.998398; 0.947614;,
         0.278028; 0.917258;,
         0.278028; 0.998398;,
         0.259242; 0.998398;,
         0.259243; 0.917258;,
         0.998398; 0.547108;,
         0.917258; 0.547108;,
         0.917258; 0.522195;,
         0.998398; 0.522195;,
         0.302856; 0.917258;,
         0.302856; 0.998398;,
         0.278028; 0.998398;,
         0.278028; 0.917258;,
         0.366211; 0.117917;,
         0.366211; 0.043444;,
         0.393322; 0.043444;,
         0.393322; 0.117917;,
         0.393322; 0.117917;,
         0.393322; 0.043444;,
         0.421767; 0.043444;,
         0.421767; 0.117917;,
         0.421767; 0.117917;,
         0.421767; 0.043444;,
         0.451486; 0.043444;,
         0.451486; 0.117917;,
         0.701108; 0.043444;,
         0.701108; 0.117917;,
         0.451486; 0.117917;,
         0.451486; 0.043444;,
         0.280935; 0.043444;,
         0.310654; 0.043444;,
         0.310654; 0.117916;,
         0.280935; 0.117917;,
         0.310654; 0.117916;,
         0.310654; 0.043444;,
         0.339099; 0.043444;,
         0.339099; 0.117917;,
         0.339099; 0.117917;,
         0.339099; 0.043444;,
         0.366211; 0.043444;,
         0.366211; 0.117917;,
         0.786384; 0.117917;,
         0.759273; 0.117917;,
         0.759273; 0.043444;,
         0.786384; 0.043444;,
         0.759273; 0.117917;,
         0.730827; 0.117917;,
         0.730827; 0.043444;,
         0.759273; 0.043444;,
         0.730827; 0.117917;,
         0.701108; 0.117917;,
         0.701108; 0.043444;,
         0.730827; 0.043444;,
         0.031313; 0.117916;,
         0.001594; 0.117916;,
         0.001594; 0.043444;,
         0.031313; 0.043444;,
         0.841941; 0.117917;,
         0.813496; 0.117917;,
         0.813496; 0.043444;,
         0.841941; 0.043444;,
         0.813496; 0.117917;,
         0.786384; 0.117917;,
         0.786384; 0.043444;,
         0.813496; 0.043444;,
         0.280935; 0.117917;,
         0.031313; 0.117916;,
         0.031313; 0.043444;,
         0.280935; 0.043444;,
         0.124789; 0.730827;,
         0.010801; 0.554507;,
         0.192916; 0.621666;,
         0.010376; 0.920423;,
         0.093839; 0.820129;,
         0.128419; 0.894404;,
         0.128419; 0.894404;,
         0.118983; 0.833206;,
         0.148515; 0.833240;,
         0.128419; 0.894404;,
         0.093839; 0.820129;,
         0.118983; 0.833206;,
         0.097328; 0.744372;,
         0.010801; 0.554507;,
         0.124789; 0.730827;,
         0.080721; 0.768557;,
         0.010801; 0.554507;,
         0.097328; 0.744372;,
         0.079628; 0.796408;,
         0.010376; 0.920423;,
         0.080721; 0.768557;,
         0.080721; 0.768557;,
         0.010376; 0.920423;,
         0.010801; 0.554507;,
         0.793401; 0.329119;,
         0.547299; 0.280248;,
         0.727711; 0.221521;,
         0.727711; 0.221521;,
         0.518058; 0.281407;,
         0.244940; 0.186031;,
         0.547299; 0.280248;,
         0.518058; 0.281407;,
         0.727711; 0.221521;,
         0.787888; 0.493747;,
         0.526554; 0.380462;,
         0.768628; 0.431385;,
         0.215605; 0.296025;,
         0.526554; 0.380462;,
         0.787888; 0.493747;,
         0.215605; 0.296025;,
         0.500223; 0.367922;,
         0.526554; 0.380462;,
         0.215605; 0.296025;,
         0.483715; 0.345382;,
         0.500223; 0.367922;,
         0.518058; 0.281407;,
         0.494005; 0.295502;,
         0.244940; 0.186031;,
         0.244940; 0.186031;,
         0.481442; 0.318888;,
         0.215605; 0.296025;,
         0.494005; 0.295502;,
         0.481442; 0.318888;,
         0.244940; 0.186031;,
         0.392782; 0.790176;,
         0.128419; 0.894404;,
         0.148515; 0.833240;,
         0.709200; 0.715667;,
         0.440395; 0.729572;,
         0.682482; 0.604946;,
         0.682482; 0.604946;,
         0.404741; 0.690481;,
         0.192916; 0.621666;,
         0.192916; 0.621666;,
         0.375151; 0.688268;,
         0.124789; 0.730827;,
         0.192916; 0.621666;,
         0.404741; 0.690481;,
         0.375151; 0.688268;,
         0.392782; 0.790176;,
         0.709200; 0.715667;,
         0.128419; 0.894404;,
         0.419779; 0.778427;,
         0.709200; 0.715667;,
         0.392782; 0.790176;,
         0.682482; 0.604946;,
         0.428532; 0.705559;,
         0.404741; 0.690481;,
         0.682482; 0.604946;,
         0.440395; 0.729572;,
         0.428532; 0.705559;,
         0.437195; 0.756245;,
         0.709200; 0.715667;,
         0.419779; 0.778427;,
         0.768628; 0.431385;,
         0.798324; 0.431774;,
         0.787888; 0.493747;,
         0.787888; 0.493747;,
         0.823839; 0.418804;,
         0.907665; 0.520554;,
         0.798324; 0.431774;,
         0.823839; 0.418804;,
         0.787888; 0.493747;,
         0.907775; 0.151073;,
         0.793401; 0.329119;,
         0.727711; 0.221521;,
         0.907775; 0.151073;,
         0.820813; 0.342760;,
         0.793401; 0.329119;,
         0.907775; 0.151073;,
         0.837509; 0.366954;,
         0.820813; 0.342760;,
         0.838398; 0.394956;,
         0.907665; 0.520554;,
         0.823839; 0.418804;,
         0.907775; 0.151073;,
         0.907665; 0.520554;,
         0.837509; 0.366954;,
         0.158898; 0.537023;,
         0.148666; 0.514308;,
         0.183602; 0.546431;,
         0.183602; 0.546431;,
         0.183602; 0.463400;,
         0.557673; 0.546431;,
         0.557673; 0.546431;,
         0.591896; 0.514308;,
         0.581872; 0.537023;,
         0.591896; 0.514308;,
         0.557673; 0.463400;,
         0.591896; 0.495523;,
         0.591896; 0.495523;,
         0.557673; 0.463400;,
         0.581872; 0.472808;,
         0.557673; 0.463400;,
         0.557673; 0.546431;,
         0.183602; 0.463400;,
         0.591896; 0.514308;,
         0.557673; 0.546431;,
         0.557673; 0.463400;,
         0.183602; 0.463400;,
         0.148666; 0.495523;,
         0.158899; 0.472808;,
         0.148666; 0.495523;,
         0.183602; 0.546431;,
         0.148666; 0.514308;,
         0.215605; 0.296025;,
         0.139684; 0.172314;,
         0.244940; 0.186031;,
         0.786867; 0.594889;,
         0.709200; 0.715667;,
         0.682482; 0.604946;;
      }
      MeshMaterialList {
        1;
        123;
        0,
        0,
        0,
        0,
        0,
        0,
        0,
        0,
        0,
        0,
        0,
        0,
        0,
        0,
        0,
        0,
        0,
        0,
        0,
        0,
        0,
        0,
        0,
        0,
        0,
        0,
        0,
        0,
        0,
        0,
        0,
        0,
        0,
        0,
        0,
        0,
        0,
        0,
        0,
        0,
        0,
        0,
        0,
        0,
        0,
        0,
        0,
        0,
        0,
        0,
        0,
        0,
        0,
        0,
        0,
        0,
        0,
        0,
        0,
        0,
        0,
        0,
        0,
        0,
        0,
        0,
        0,
        0,
        0,
        0,
        0,
        0,
        0,
        0,
        0,
        0,
        0,
        0,
        0,
        0,
        0,
        0,
        0,
        0,
        0,
        0,
        0,
        0,
        0,
        0,
        0,
        0,
        0,
        0,
        0,
        0,
        0,
        0,
        0,
        0,
        0,
        0,
        0,
        0,
        0,
        0,
        0,
        0,
        0,
        0,
        0,
        0,
        0,
        0,
        0,
        0,
        0,
        0,
        0,
        0,
        0,
        0,
        0;
        Material Priclad3DSA {
           0.800000; 0.800000; 0.800000; 1.000000;;
           225.000000;
           0.500000; 0.500000; 0.500000;;
           0.000000; 0.000000; 0.000000;;
        }
      }
    }
  }
}
