xof 0303txt 0032

Frame Root {
  FrameTransformMatrix {
     1.000000, 0.000000, 0.000000, 0.000000,
     0.000000,-0.000000, 1.000000, 0.000000,
     0.000000, 1.000000, 0.000000, 0.000000,
     0.000000, 0.000000, 0.000000, 1.000000;;
  }
  Frame StockDSA4_x_Root_Priclad2DSA_Cube_008 {
    FrameTransformMatrix {
       1.000000, 0.000000, 0.000000, 0.000000,
       0.000000, 1.000000, 0.000000, 0.000000,
       0.000000, 0.000000, 1.000000, 0.000000,
       0.000000, 0.000000, 0.000000, 1.000000;;
    }
    Mesh {
      264;
       0.010414; 0.001485;-0.070707;,
       0.010414;-0.001485;-0.070707;,
       0.050974;-0.001485; 0.039484;,
       0.050974; 0.001485; 0.039484;,
       0.010414;-0.001485;-0.070707;,
       0.010414; 0.001485;-0.070707;,
       0.007026; 0.001485;-0.088245;,
       0.007026;-0.001485;-0.088245;,
       0.005576;-0.006262;-0.070707;,
      -0.007496;-0.006262;-0.070707;,
      -0.013986;-0.006262; 0.039484;,
       0.046127;-0.006262; 0.039484;,
       0.007026;-0.001485;-0.088245;,
       0.007026; 0.001485;-0.088245;,
       0.009617; 0.001485;-0.104588;,
       0.009617;-0.001485;-0.104588;,
      -0.023866; 0.001485;-0.093027;,
      -0.023866;-0.001485;-0.093027;,
      -0.024264;-0.001485;-0.104588;,
      -0.024264; 0.001485;-0.104588;,
      -0.007496; 0.006262;-0.070707;,
       0.005576; 0.006262;-0.070707;,
       0.046127; 0.006262; 0.039484;,
      -0.013986; 0.006262; 0.039484;,
      -0.012309;-0.001485;-0.070707;,
      -0.012309; 0.001485;-0.070707;,
      -0.018798; 0.001485; 0.039484;,
      -0.018798;-0.001485; 0.039484;,
      -0.018655; 0.006262;-0.092221;,
       0.002060; 0.006262;-0.089014;,
       0.005576; 0.006262;-0.070707;,
      -0.007496; 0.006262;-0.070707;,
       0.050974; 0.001485; 0.039484;,
       0.050974;-0.001485; 0.039484;,
       0.053979;-0.001901; 0.039484;,
       0.053979; 0.001901; 0.039484;,
       0.008129;-0.004863;-0.104588;,
       0.009617;-0.001485;-0.104588;,
       0.009617; 0.001485;-0.104588;,
       0.008129; 0.004863;-0.104588;,
       0.004538; 0.006262;-0.104588;,
      -0.019097; 0.006262;-0.104588;,
      -0.022751; 0.004863;-0.104588;,
      -0.024264; 0.001485;-0.104588;,
      -0.024264;-0.001485;-0.104588;,
      -0.022751;-0.004863;-0.104588;,
      -0.019097;-0.006262;-0.104588;,
       0.004538;-0.006262;-0.104588;,
      -0.007496;-0.006262;-0.070707;,
       0.005576;-0.006262;-0.070707;,
       0.002060;-0.006262;-0.089014;,
      -0.018655;-0.006262;-0.092221;,
      -0.012309; 0.001485;-0.070707;,
      -0.012309;-0.001485;-0.070707;,
      -0.023866;-0.001485;-0.093027;,
      -0.023866; 0.001485;-0.093027;,
      -0.018655;-0.006262;-0.092221;,
       0.002060;-0.006262;-0.089014;,
       0.004538;-0.006262;-0.104588;,
      -0.019097;-0.006262;-0.104588;,
       0.009617; 0.001485;-0.104588;,
       0.007026; 0.001485;-0.088245;,
       0.005572; 0.004863;-0.088471;,
       0.008129; 0.004863;-0.104588;,
       0.008129; 0.004863;-0.104588;,
       0.005572; 0.004863;-0.088471;,
       0.002060; 0.006262;-0.089014;,
       0.004538; 0.006262;-0.104588;,
      -0.012309; 0.001485;-0.070707;,
      -0.023866; 0.001485;-0.093027;,
      -0.022339; 0.004863;-0.092791;,
      -0.010899; 0.004863;-0.070707;,
      -0.010899; 0.004863;-0.070707;,
      -0.022339; 0.004863;-0.092791;,
      -0.018655; 0.006262;-0.092221;,
      -0.007496; 0.006262;-0.070707;,
       0.010414;-0.001485;-0.070707;,
       0.007026;-0.001485;-0.088245;,
       0.005572;-0.004863;-0.088471;,
       0.008997;-0.004863;-0.070707;,
       0.008997;-0.004863;-0.070707;,
       0.005572;-0.004863;-0.088471;,
       0.002060;-0.006262;-0.089014;,
       0.005576;-0.006262;-0.070707;,
      -0.024264;-0.001485;-0.104588;,
      -0.023866;-0.001485;-0.093027;,
      -0.022339;-0.004863;-0.092791;,
      -0.022751;-0.004863;-0.104588;,
      -0.022751;-0.004863;-0.104588;,
      -0.022339;-0.004863;-0.092791;,
      -0.018655;-0.006262;-0.092221;,
      -0.019097;-0.006262;-0.104588;,
       0.007026; 0.001485;-0.088245;,
       0.010414; 0.001485;-0.070707;,
       0.008997; 0.004863;-0.070707;,
       0.005572; 0.004863;-0.088471;,
       0.005572; 0.004863;-0.088471;,
       0.008997; 0.004863;-0.070707;,
       0.005576; 0.006262;-0.070707;,
       0.002060; 0.006262;-0.089014;,
      -0.023866; 0.001485;-0.093027;,
      -0.024264; 0.001485;-0.104588;,
      -0.022751; 0.004863;-0.104588;,
      -0.022339; 0.004863;-0.092791;,
      -0.022339; 0.004863;-0.092791;,
      -0.022751; 0.004863;-0.104588;,
      -0.019097; 0.006262;-0.104588;,
      -0.018655; 0.006262;-0.092221;,
       0.007026;-0.001485;-0.088245;,
       0.009617;-0.001485;-0.104588;,
       0.008129;-0.004863;-0.104588;,
       0.005572;-0.004863;-0.088471;,
       0.005572;-0.004863;-0.088471;,
       0.008129;-0.004863;-0.104588;,
       0.004538;-0.006262;-0.104588;,
       0.002060;-0.006262;-0.089014;,
      -0.023866;-0.001485;-0.093027;,
      -0.012309;-0.001485;-0.070707;,
      -0.010899;-0.004863;-0.070707;,
      -0.022339;-0.004863;-0.092791;,
      -0.022339;-0.004863;-0.092791;,
      -0.010899;-0.004863;-0.070707;,
      -0.007496;-0.006262;-0.070707;,
      -0.018655;-0.006262;-0.092221;,
      -0.018798; 0.001485; 0.039484;,
      -0.012309; 0.001485;-0.070707;,
      -0.010899; 0.004863;-0.070707;,
      -0.017388; 0.004863; 0.039484;,
      -0.017388; 0.004863; 0.039484;,
      -0.010899; 0.004863;-0.070707;,
      -0.007496; 0.006262;-0.070707;,
      -0.013986; 0.006262; 0.039484;,
       0.010414; 0.001485;-0.070707;,
       0.050974; 0.001485; 0.039484;,
       0.049555; 0.004863; 0.039484;,
       0.008997; 0.004863;-0.070707;,
       0.008997; 0.004863;-0.070707;,
       0.049555; 0.004863; 0.039484;,
       0.046127; 0.006262; 0.039484;,
       0.005576; 0.006262;-0.070707;,
       0.050974;-0.001485; 0.039484;,
       0.010414;-0.001485;-0.070707;,
       0.008997;-0.004863;-0.070707;,
       0.049555;-0.004863; 0.039484;,
       0.049555;-0.004863; 0.039484;,
       0.008997;-0.004863;-0.070707;,
       0.005576;-0.006262;-0.070707;,
       0.046127;-0.006262; 0.039484;,
      -0.012309;-0.001485;-0.070707;,
      -0.018798;-0.001485; 0.039484;,
      -0.017388;-0.004863; 0.039484;,
      -0.010899;-0.004863;-0.070707;,
      -0.010899;-0.004863;-0.070707;,
      -0.017388;-0.004863; 0.039484;,
      -0.013986;-0.006262; 0.039484;,
      -0.007496;-0.006262;-0.070707;,
      -0.019097; 0.006262;-0.104588;,
       0.004538; 0.006262;-0.104588;,
       0.002060; 0.006262;-0.089014;,
      -0.018655; 0.006262;-0.092221;,
      -0.016575;-0.008015; 0.039484;,
      -0.020270;-0.006224; 0.039484;,
      -0.020270;-0.006224; 0.052834;,
      -0.016575;-0.008015; 0.052834;,
       0.049555;-0.004863; 0.039484;,
       0.046127;-0.006262; 0.039484;,
       0.048714;-0.008015; 0.039484;,
       0.052437;-0.006224; 0.039484;,
      -0.017388; 0.004863; 0.039484;,
      -0.013986; 0.006262; 0.039484;,
      -0.016575; 0.008015; 0.039484;,
      -0.020270; 0.006224; 0.039484;,
       0.050974;-0.001485; 0.039484;,
       0.049555;-0.004863; 0.039484;,
       0.052437;-0.006224; 0.039484;,
       0.053979;-0.001901; 0.039484;,
      -0.013986; 0.006262; 0.039484;,
       0.046127; 0.006262; 0.039484;,
       0.048714; 0.008015; 0.039484;,
      -0.016575; 0.008015; 0.039484;,
       0.046127;-0.006262; 0.039484;,
      -0.013986;-0.006262; 0.039484;,
      -0.016575;-0.008015; 0.039484;,
       0.048714;-0.008015; 0.039484;,
      -0.018798; 0.001485; 0.039484;,
      -0.017388; 0.004863; 0.039484;,
      -0.020270; 0.006224; 0.039484;,
      -0.021801; 0.001901; 0.039484;,
      -0.013986;-0.006262; 0.039484;,
      -0.017388;-0.004863; 0.039484;,
      -0.020270;-0.006224; 0.039484;,
      -0.016575;-0.008015; 0.039484;,
       0.046127; 0.006262; 0.039484;,
       0.049555; 0.004863; 0.039484;,
       0.052437; 0.006224; 0.039484;,
       0.048714; 0.008015; 0.039484;,
      -0.018798;-0.001485; 0.039484;,
      -0.018798; 0.001485; 0.039484;,
      -0.021801; 0.001901; 0.039484;,
      -0.021801;-0.001901; 0.039484;,
      -0.017388;-0.004863; 0.039484;,
      -0.018798;-0.001485; 0.039484;,
      -0.021801;-0.001901; 0.039484;,
      -0.020270;-0.006224; 0.039484;,
       0.049555; 0.004863; 0.039484;,
       0.050974; 0.001485; 0.039484;,
       0.053979; 0.001901; 0.039484;,
       0.052437; 0.006224; 0.039484;,
       0.052437; 0.006224; 0.049845;,
       0.053979; 0.001901; 0.049845;,
       0.053979;-0.001901; 0.049845;,
       0.052437;-0.006224; 0.049845;,
       0.048714;-0.008015; 0.049845;,
      -0.016575;-0.008015; 0.052834;,
      -0.020270;-0.006224; 0.052834;,
      -0.021801;-0.001901; 0.052834;,
      -0.021801; 0.001901; 0.052834;,
      -0.020270; 0.006224; 0.052834;,
      -0.016575; 0.008015; 0.052834;,
       0.048714; 0.008015; 0.049845;,
       0.053979;-0.001901; 0.039484;,
       0.052437;-0.006224; 0.039484;,
       0.052437;-0.006224; 0.049845;,
       0.053979;-0.001901; 0.049845;,
       0.048714;-0.008015; 0.039484;,
      -0.016575;-0.008015; 0.039484;,
      -0.016575;-0.008015; 0.052834;,
       0.048714;-0.008015; 0.049845;,
      -0.020270; 0.006224; 0.039484;,
      -0.016575; 0.008015; 0.039484;,
      -0.016575; 0.008015; 0.052834;,
      -0.020270; 0.006224; 0.052834;,
      -0.016575; 0.008015; 0.039484;,
       0.048714; 0.008015; 0.039484;,
       0.048714; 0.008015; 0.049845;,
      -0.016575; 0.008015; 0.052834;,
       0.052437;-0.006224; 0.039484;,
       0.048714;-0.008015; 0.039484;,
       0.048714;-0.008015; 0.049845;,
       0.052437;-0.006224; 0.049845;,
       0.052437; 0.006224; 0.039484;,
       0.053979; 0.001901; 0.039484;,
       0.053979; 0.001901; 0.049845;,
       0.052437; 0.006224; 0.049845;,
       0.053979; 0.001901; 0.039484;,
       0.053979;-0.001901; 0.039484;,
       0.053979;-0.001901; 0.049845;,
       0.053979; 0.001901; 0.049845;,
      -0.020270;-0.006224; 0.039484;,
      -0.021801;-0.001901; 0.039484;,
      -0.021801;-0.001901; 0.052834;,
      -0.020270;-0.006224; 0.052834;,
       0.048714; 0.008015; 0.039484;,
       0.052437; 0.006224; 0.039484;,
       0.052437; 0.006224; 0.049845;,
       0.048714; 0.008015; 0.049845;,
      -0.021801;-0.001901; 0.039484;,
      -0.021801; 0.001901; 0.039484;,
      -0.021801; 0.001901; 0.052834;,
      -0.021801;-0.001901; 0.052834;,
      -0.021801; 0.001901; 0.039484;,
      -0.020270; 0.006224; 0.039484;,
      -0.020270; 0.006224; 0.052834;,
      -0.021801; 0.001901; 0.052834;;
      62;
      4;3,2,1,0;,
      4;7,6,5,4;,
      4;11,10,9,8;,
      4;15,14,13,12;,
      4;19,18,17,16;,
      4;23,22,21,20;,
      4;27,26,25,24;,
      4;31,30,29,28;,
      4;35,34,33,32;,
      12;47,46,45,44,43,42,41,40,39,38,37,36;,
      4;51,50,49,48;,
      4;55,54,53,52;,
      4;59,58,57,56;,
      4;63,62,61,60;,
      4;67,66,65,64;,
      4;71,70,69,68;,
      4;75,74,73,72;,
      4;79,78,77,76;,
      4;83,82,81,80;,
      4;87,86,85,84;,
      4;91,90,89,88;,
      4;95,94,93,92;,
      4;99,98,97,96;,
      4;103,102,101,100;,
      4;107,106,105,104;,
      4;111,110,109,108;,
      4;115,114,113,112;,
      4;119,118,117,116;,
      4;123,122,121,120;,
      4;127,126,125,124;,
      4;131,130,129,128;,
      4;135,134,133,132;,
      4;139,138,137,136;,
      4;143,142,141,140;,
      4;147,146,145,144;,
      4;151,150,149,148;,
      4;155,154,153,152;,
      4;159,158,157,156;,
      4;163,162,161,160;,
      4;167,166,165,164;,
      4;171,170,169,168;,
      4;175,174,173,172;,
      4;179,178,177,176;,
      4;183,182,181,180;,
      4;187,186,185,184;,
      4;191,190,189,188;,
      4;195,194,193,192;,
      4;199,198,197,196;,
      4;203,202,201,200;,
      4;207,206,205,204;,
      12;219,218,217,216,215,214,213,212,211,210,209,208;,
      4;223,222,221,220;,
      4;227,226,225,224;,
      4;231,230,229,228;,
      4;235,234,233,232;,
      4;239,238,237,236;,
      4;243,242,241,240;,
      4;247,246,245,244;,
      4;251,250,249,248;,
      4;255,254,253,252;,
      4;259,258,257,256;,
      4;263,262,261,260;;
      MeshNormals {
        264;
        -0.938444; 0.000000; 0.345430;,
        -0.938444; 0.000000; 0.345430;,
        -0.938444; 0.000000; 0.345430;,
        -0.938444; 0.000000; 0.345430;,
        -0.981847; 0.000000; 0.189674;,
        -0.981847; 0.000000; 0.189674;,
        -0.981847; 0.000000; 0.189674;,
        -0.981847; 0.000000; 0.189674;,
         0.000000; 1.000000; 0.000000;,
         0.000000; 1.000000; 0.000000;,
         0.000000; 1.000000; 0.000000;,
         0.000000; 1.000000; 0.000000;,
        -0.987665; 0.000000;-0.156583;,
        -0.987665; 0.000000;-0.156583;,
        -0.987665; 0.000000;-0.156583;,
        -0.987665; 0.000000;-0.156583;,
         0.999408; 0.000000;-0.034406;,
         0.999408; 0.000000;-0.034406;,
         0.999408; 0.000000;-0.034406;,
         0.999408; 0.000000;-0.034406;,
         0.000000;-1.000000; 0.000000;,
         0.000000;-1.000000; 0.000000;,
         0.000000;-1.000000; 0.000000;,
         0.000000;-1.000000; 0.000000;,
         0.998271; 0.000000; 0.058787;,
         0.998271; 0.000000; 0.058787;,
         0.998271; 0.000000; 0.058787;,
         0.998271; 0.000000; 0.058787;,
         0.000000;-1.000000; 0.000000;,
         0.000000;-1.000000; 0.000000;,
         0.000000;-1.000000; 0.000000;,
         0.000000;-1.000000; 0.000000;,
         0.000000; 0.000000; 1.000000;,
         0.000000; 0.000000; 1.000000;,
         0.000000; 0.000000; 1.000000;,
         0.000000; 0.000000; 1.000000;,
         0.000000; 0.000000; 1.000000;,
         0.000000; 0.000000; 1.000000;,
         0.000000; 0.000000; 1.000000;,
         0.000000; 0.000000; 1.000000;,
         0.000000; 0.000000; 1.000000;,
         0.000000; 0.000000; 1.000000;,
         0.000000; 0.000000; 1.000000;,
         0.000000; 0.000000; 1.000000;,
         0.000000; 0.000000; 1.000000;,
         0.000000; 0.000000; 1.000000;,
         0.000000; 0.000000; 1.000000;,
         0.000000; 0.000000; 1.000000;,
         0.000000; 1.000000; 0.000000;,
         0.000000; 1.000000; 0.000000;,
         0.000000; 1.000000; 0.000000;,
         0.000000; 1.000000; 0.000000;,
         0.888020; 0.000000;-0.459805;,
         0.888020; 0.000000;-0.459805;,
         0.888020; 0.000000;-0.459805;,
         0.888020; 0.000000;-0.459805;,
         0.000000; 1.000000; 0.000000;,
         0.000000; 1.000000; 0.000000;,
         0.000000; 1.000000; 0.000000;,
         0.000000; 1.000000; 0.000000;,
        -0.905569;-0.399147;-0.143619;,
        -0.905569;-0.399147;-0.143619;,
        -0.905569;-0.399147;-0.143619;,
        -0.905569;-0.399147;-0.143619;,
        -0.362090;-0.930366;-0.057528;,
        -0.362090;-0.930366;-0.057528;,
        -0.362090;-0.930366;-0.057528;,
        -0.362090;-0.930366;-0.057528;,
         0.832811;-0.346976;-0.431316;,
         0.832811;-0.346976;-0.431316;,
         0.832811;-0.346976;-0.431316;,
         0.832811;-0.346976;-0.431316;,
         0.373707;-0.907094;-0.193711;,
         0.373707;-0.907094;-0.193711;,
         0.373707;-0.907094;-0.193711;,
         0.373707;-0.907094;-0.193711;,
        -0.908195; 0.380079; 0.175274;,
        -0.908195; 0.380079; 0.175274;,
        -0.908195; 0.380079; 0.175274;,
        -0.908195; 0.380079; 0.175274;,
        -0.378152; 0.922879; 0.072766;,
        -0.378152; 0.922879; 0.072766;,
        -0.378152; 0.922879; 0.072766;,
        -0.378152; 0.922879; 0.072766;,
         0.911888; 0.409218;-0.031622;,
         0.911888; 0.409218;-0.031622;,
         0.911888; 0.409218;-0.031622;,
         0.911888; 0.409218;-0.031622;,
         0.357109; 0.933977;-0.012621;,
         0.357109; 0.933977;-0.012621;,
         0.357109; 0.933977;-0.012621;,
         0.357109; 0.933978;-0.012621;,
        -0.908195;-0.380079; 0.175274;,
        -0.908195;-0.380079; 0.175274;,
        -0.908195;-0.380079; 0.175274;,
        -0.908195;-0.380079; 0.175274;,
        -0.378152;-0.922879; 0.072766;,
        -0.378152;-0.922879; 0.072766;,
        -0.378152;-0.922879; 0.072766;,
        -0.378152;-0.922879; 0.072766;,
         0.911888;-0.409218;-0.031622;,
         0.911888;-0.409218;-0.031622;,
         0.911888;-0.409218;-0.031622;,
         0.911888;-0.409218;-0.031622;,
         0.357109;-0.933977;-0.012621;,
         0.357109;-0.933977;-0.012621;,
         0.357109;-0.933978;-0.012621;,
         0.357109;-0.933977;-0.012621;,
        -0.905569; 0.399147;-0.143619;,
        -0.905569; 0.399147;-0.143619;,
        -0.905569; 0.399147;-0.143619;,
        -0.905569; 0.399147;-0.143619;,
        -0.362090; 0.930366;-0.057528;,
        -0.362090; 0.930366;-0.057528;,
        -0.362090; 0.930366;-0.057528;,
        -0.362090; 0.930366;-0.057528;,
         0.832811; 0.346976;-0.431316;,
         0.832811; 0.346976;-0.431316;,
         0.832811; 0.346976;-0.431316;,
         0.832811; 0.346976;-0.431316;,
         0.373707; 0.907094;-0.193711;,
         0.373707; 0.907094;-0.193711;,
         0.373707; 0.907094;-0.193711;,
         0.373707; 0.907094;-0.193711;,
         0.921475;-0.384629; 0.054264;,
         0.921475;-0.384629; 0.054264;,
         0.921475;-0.384629; 0.054264;,
         0.921475;-0.384629; 0.054264;,
         0.380183;-0.924640; 0.022390;,
         0.380183;-0.924640; 0.022390;,
         0.380183;-0.924640; 0.022390;,
         0.380183;-0.924640; 0.022390;,
        -0.873140;-0.366522; 0.321385;,
        -0.873140;-0.366522; 0.321385;,
        -0.873140;-0.366522; 0.321384;,
        -0.873140;-0.366522; 0.321385;,
        -0.374575;-0.916891; 0.137858;,
        -0.374575;-0.916891; 0.137858;,
        -0.374575;-0.916891; 0.137858;,
        -0.374575;-0.916891; 0.137858;,
        -0.873140; 0.366522; 0.321385;,
        -0.873140; 0.366522; 0.321385;,
        -0.873140; 0.366522; 0.321385;,
        -0.873140; 0.366522; 0.321384;,
        -0.374575; 0.916891; 0.137858;,
        -0.374575; 0.916891; 0.137858;,
        -0.374575; 0.916891; 0.137858;,
        -0.374575; 0.916891; 0.137858;,
         0.921475; 0.384629; 0.054264;,
         0.921475; 0.384629; 0.054264;,
         0.921475; 0.384629; 0.054264;,
         0.921475; 0.384629; 0.054264;,
         0.380183; 0.924640; 0.022390;,
         0.380183; 0.924640; 0.022390;,
         0.380183; 0.924640; 0.022390;,
         0.380183; 0.924640; 0.022390;,
         0.000000;-1.000000;-0.000000;,
         0.000000;-1.000000;-0.000000;,
         0.000000;-1.000000;-0.000000;,
         0.000000;-1.000000;-0.000000;,
         0.436172; 0.899863; 0.000000;,
         0.436172; 0.899863; 0.000000;,
         0.436172; 0.899863; 0.000000;,
         0.436172; 0.899863; 0.000000;,
         0.000000; 0.000000; 1.000000;,
         0.000000; 0.000000; 1.000000;,
         0.000000; 0.000000; 1.000000;,
         0.000000; 0.000000; 1.000000;,
         0.000000; 0.000000; 1.000000;,
         0.000000; 0.000000; 1.000000;,
         0.000000; 0.000000; 1.000000;,
         0.000000; 0.000000; 1.000000;,
         0.000000; 0.000000; 1.000000;,
         0.000000; 0.000000; 1.000000;,
         0.000000; 0.000000; 1.000000;,
         0.000000; 0.000000; 1.000000;,
         0.000000; 0.000000; 1.000000;,
         0.000000; 0.000000; 1.000000;,
         0.000000; 0.000000; 1.000000;,
         0.000000; 0.000000; 1.000000;,
         0.000000; 0.000000; 1.000000;,
         0.000000; 0.000000; 1.000000;,
         0.000000; 0.000000; 1.000000;,
         0.000000; 0.000000; 1.000000;,
         0.000000; 0.000000; 1.000000;,
         0.000000; 0.000000; 1.000000;,
         0.000000; 0.000000; 1.000000;,
         0.000000; 0.000000; 1.000000;,
         0.000000; 0.000000; 1.000000;,
         0.000000; 0.000000; 1.000000;,
         0.000000; 0.000000; 1.000000;,
         0.000000; 0.000000; 1.000000;,
         0.000000; 0.000000; 1.000000;,
         0.000000; 0.000000; 1.000000;,
         0.000000; 0.000000; 1.000000;,
         0.000000; 0.000000; 1.000000;,
         0.000000; 0.000000; 1.000000;,
         0.000000; 0.000000; 1.000000;,
         0.000000; 0.000000; 1.000000;,
         0.000000; 0.000000; 1.000000;,
         0.000000; 0.000000; 1.000000;,
         0.000000; 0.000000; 1.000000;,
         0.000000; 0.000000; 1.000000;,
         0.000000; 0.000000; 1.000000;,
         0.000000; 0.000000; 1.000000;,
         0.000000; 0.000000; 1.000000;,
         0.000000; 0.000000; 1.000000;,
         0.000000; 0.000000; 1.000000;,
        -0.040669; 0.000000;-0.999173;,
        -0.040669; 0.000000;-0.999173;,
        -0.040669; 0.000000;-0.999173;,
        -0.040669; 0.000000;-0.999173;,
        -0.040669; 0.000000;-0.999173;,
        -0.040669; 0.000000;-0.999173;,
        -0.040669; 0.000000;-0.999173;,
        -0.040669; 0.000000;-0.999173;,
        -0.040669; 0.000000;-0.999173;,
        -0.040669; 0.000000;-0.999173;,
        -0.040669; 0.000000;-0.999173;,
        -0.040669; 0.000000;-0.999173;,
        -0.941875; 0.335964; 0.000000;,
        -0.941875; 0.335964; 0.000000;,
        -0.941875; 0.335964; 0.000000;,
        -0.941875; 0.335964; 0.000000;,
         0.000000; 1.000000; 0.000000;,
         0.000000; 1.000000; 0.000000;,
         0.000000; 1.000000; 0.000000;,
         0.000000; 1.000000; 0.000000;,
         0.436172;-0.899863; 0.000000;,
         0.436172;-0.899863; 0.000000;,
         0.436172;-0.899863; 0.000000;,
         0.436172;-0.899863; 0.000000;,
         0.000000;-1.000000; 0.000000;,
         0.000000;-1.000000; 0.000000;,
         0.000000;-1.000000; 0.000000;,
         0.000000;-1.000000; 0.000000;,
        -0.433510; 0.901149; 0.000000;,
        -0.433510; 0.901149; 0.000000;,
        -0.433510; 0.901149; 0.000000;,
        -0.433510; 0.901149; 0.000000;,
        -0.941875;-0.335964; 0.000000;,
        -0.941875;-0.335964; 0.000000;,
        -0.941875;-0.335964; 0.000000;,
        -0.941875;-0.335964; 0.000000;,
        -1.000000; 0.000000; 0.000000;,
        -1.000000; 0.000000; 0.000000;,
        -1.000000; 0.000000; 0.000000;,
        -1.000000; 0.000000; 0.000000;,
         0.942631; 0.333835; 0.000000;,
         0.942631; 0.333835; 0.000000;,
         0.942631; 0.333835; 0.000000;,
         0.942631; 0.333835; 0.000000;,
        -0.433510;-0.901149; 0.000000;,
        -0.433510;-0.901149; 0.000000;,
        -0.433510;-0.901149; 0.000000;,
        -0.433510;-0.901149; 0.000000;,
         1.000000; 0.000000; 0.000000;,
         1.000000; 0.000000; 0.000000;,
         1.000000; 0.000000; 0.000000;,
         1.000000; 0.000000; 0.000000;,
         0.942631;-0.333835; 0.000000;,
         0.942631;-0.333835; 0.000000;,
         0.942631;-0.333835; 0.000000;,
         0.942631;-0.333835; 0.000000;;
        62;
        4;3,2,1,0;,
        4;7,6,5,4;,
        4;11,10,9,8;,
        4;15,14,13,12;,
        4;19,18,17,16;,
        4;23,22,21,20;,
        4;27,26,25,24;,
        4;31,30,29,28;,
        4;35,34,33,32;,
        12;47,46,45,44,43,42,41,40,39,38,37,36;,
        4;51,50,49,48;,
        4;55,54,53,52;,
        4;59,58,57,56;,
        4;63,62,61,60;,
        4;67,66,65,64;,
        4;71,70,69,68;,
        4;75,74,73,72;,
        4;79,78,77,76;,
        4;83,82,81,80;,
        4;87,86,85,84;,
        4;91,90,89,88;,
        4;95,94,93,92;,
        4;99,98,97,96;,
        4;103,102,101,100;,
        4;107,106,105,104;,
        4;111,110,109,108;,
        4;115,114,113,112;,
        4;119,118,117,116;,
        4;123,122,121,120;,
        4;127,126,125,124;,
        4;131,130,129,128;,
        4;135,134,133,132;,
        4;139,138,137,136;,
        4;143,142,141,140;,
        4;147,146,145,144;,
        4;151,150,149,148;,
        4;155,154,153,152;,
        4;159,158,157,156;,
        4;163,162,161,160;,
        4;167,166,165,164;,
        4;171,170,169,168;,
        4;175,174,173,172;,
        4;179,178,177,176;,
        4;183,182,181,180;,
        4;187,186,185,184;,
        4;191,190,189,188;,
        4;195,194,193,192;,
        4;199,198,197,196;,
        4;203,202,201,200;,
        4;207,206,205,204;,
        12;219,218,217,216,215,214,213,212,211,210,209,208;,
        4;223,222,221,220;,
        4;227,226,225,224;,
        4;231,230,229,228;,
        4;235,234,233,232;,
        4;239,238,237,236;,
        4;243,242,241,240;,
        4;247,246,245,244;,
        4;251,250,249,248;,
        4;255,254,253,252;,
        4;259,258,257,256;,
        4;263,262,261,260;;
      }
      MeshTextureCoords {
        264;
         0.716170; 1.720523;,
         0.711850; 1.737527;,
         0.025512; 1.478339;,
         0.034573; 1.462929;,
         0.711850; 1.737527;,
         0.716170; 1.720523;,
         0.816014; 1.735187;,
         0.815351; 1.752036;,
         0.708994; 1.780675;,
         0.712870; 1.861118;,
         0.015444; 1.927616;,
         0.014456; 1.522835;,
         0.815351; 1.752036;,
         0.816014; 1.735187;,
         0.906493; 1.729295;,
         0.907598; 1.745271;,
         0.844650; 1.959243;,
         0.847409; 1.943615;,
         0.907432; 1.948557;,
         0.906122; 1.964342;,
         0.295824; 1.394591;,
         0.299650; 1.317632;,
         0.987026; 1.057326;,
         0.985927; 1.468696;,
         0.714044; 1.904431;,
         0.712472; 1.922245;,
         0.029182; 1.990285;,
         0.024055; 1.973475;,
         0.170277; 1.444244;,
         0.192509; 1.333035;,
         0.299650; 1.317632;,
         0.295824; 1.394591;,
         0.034573; 1.462929;,
         0.025512; 1.478339;,
         0.010312; 1.469987;,
         0.021618; 1.452030;,
         0.920712; 1.796636;,
         0.941748; 1.787372;,
         0.960247; 1.787372;,
         0.981283; 1.796636;,
         0.989997; 1.819002;,
         0.989997; 1.966192;,
         0.981283; 1.988948;,
         0.960247; 1.998374;,
         0.941748; 1.998374;,
         0.920712; 1.988948;,
         0.911998; 1.966191;,
         0.911998; 1.819002;,
         0.712870; 1.861118;,
         0.708994; 1.780675;,
         0.819571; 1.795383;,
         0.843518; 1.904946;,
         0.712472; 1.922245;,
         0.714044; 1.904431;,
         0.847409; 1.943615;,
         0.844650; 1.959243;,
         0.843518; 1.904946;,
         0.819571; 1.795383;,
         0.906784; 1.785565;,
         0.908749; 1.906938;,
         0.106788; 1.279676;,
         0.197121; 1.290907;,
         0.195941; 1.311548;,
         0.105559; 1.299944;,
         0.105559; 1.299944;,
         0.195941; 1.311548;,
         0.192509; 1.333035;,
         0.105905; 1.320618;,
         0.295515; 1.436869;,
         0.167468; 1.484363;,
         0.166578; 1.464413;,
         0.294383; 1.415827;,
         0.294383; 1.415827;,
         0.166578; 1.464413;,
         0.170277; 1.444244;,
         0.295824; 1.394591;,
         0.711850; 1.737527;,
         0.815351; 1.752036;,
         0.816268; 1.773360;,
         0.708880; 1.758676;,
         0.708880; 1.758676;,
         0.816268; 1.773360;,
         0.819571; 1.795383;,
         0.708994; 1.780675;,
         0.907432; 1.948557;,
         0.847409; 1.943615;,
         0.847738; 1.924642;,
         0.908558; 1.928411;,
         0.908558; 1.928411;,
         0.847738; 1.924642;,
         0.843518; 1.904946;,
         0.908749; 1.906938;,
         0.197121; 1.290907;,
         0.296342; 1.275437;,
         0.299528; 1.296205;,
         0.195941; 1.311548;,
         0.195941; 1.311548;,
         0.299528; 1.296205;,
         0.299650; 1.317632;,
         0.192509; 1.333035;,
         0.167468; 1.484363;,
         0.105279; 1.487621;,
         0.104517; 1.467708;,
         0.166578; 1.464413;,
         0.166578; 1.464413;,
         0.104517; 1.467708;,
         0.104378; 1.446088;,
         0.170277; 1.444244;,
         0.815351; 1.752036;,
         0.907598; 1.745271;,
         0.907875; 1.765095;,
         0.816268; 1.773360;,
         0.816268; 1.773360;,
         0.907875; 1.765095;,
         0.906784; 1.785565;,
         0.819571; 1.795383;,
         0.847409; 1.943615;,
         0.714044; 1.904431;,
         0.714790; 1.882786;,
         0.847738; 1.924642;,
         0.847738; 1.924642;,
         0.714790; 1.882786;,
         0.712870; 1.861118;,
         0.843518; 1.904946;,
         0.974068; 1.513335;,
         0.295515; 1.436869;,
         0.294383; 1.415827;,
         0.982540; 1.492564;,
         0.982540; 1.492564;,
         0.294383; 1.415827;,
         0.295824; 1.394591;,
         0.985927; 1.468696;,
         0.296342; 1.275437;,
         0.973834; 1.014940;,
         0.983768; 1.034070;,
         0.299528; 1.296205;,
         0.299528; 1.296205;,
         0.983768; 1.034070;,
         0.987026; 1.057326;,
         0.299650; 1.317632;,
         0.025512; 1.478339;,
         0.711850; 1.737527;,
         0.708880; 1.758676;,
         0.017013; 1.499382;,
         0.017013; 1.499382;,
         0.708880; 1.758676;,
         0.708994; 1.780675;,
         0.014456; 1.522835;,
         0.714044; 1.904431;,
         0.024055; 1.973475;,
         0.017701; 1.951418;,
         0.714790; 1.882786;,
         0.714790; 1.882786;,
         0.017701; 1.951418;,
         0.015444; 1.927616;,
         0.712870; 1.861118;,
         0.104378; 1.446088;,
         0.105905; 1.320618;,
         0.192509; 1.333035;,
         0.170277; 1.444244;,
         0.079447; 1.168507;,
         0.053871; 1.168507;,
         0.053871; 1.085367;,
         0.079447; 1.085367;,
         0.017013; 1.499382;,
         0.014456; 1.522835;,
         0.003372; 1.509911;,
         0.001662; 1.491285;,
         0.982540; 1.492564;,
         0.985927; 1.468696;,
         0.997555; 1.482211;,
         0.998350; 1.502232;,
         0.025512; 1.478339;,
         0.017013; 1.499382;,
         0.001662; 1.491285;,
         0.010312; 1.469987;,
         0.985927; 1.468696;,
         0.987026; 1.057326;,
         0.998280; 1.043858;,
         0.997555; 1.482211;,
         0.014456; 1.522835;,
         0.015444; 1.927616;,
         0.004051; 1.940421;,
         0.003372; 1.509911;,
         0.974068; 1.513335;,
         0.982540; 1.492564;,
         0.998350; 1.502232;,
         0.986512; 1.523883;,
         0.015444; 1.927616;,
         0.017701; 1.951418;,
         0.001662; 1.958432;,
         0.004051; 1.940421;,
         0.987026; 1.057326;,
         0.983768; 1.034070;,
         0.998364; 1.023921;,
         0.998280; 1.043858;,
         0.024055; 1.973475;,
         0.029182; 1.990285;,
         0.015803; 1.997700;,
         0.008173; 1.979950;,
         0.017701; 1.951418;,
         0.024055; 1.973475;,
         0.008173; 1.979950;,
         0.001662; 1.958432;,
         0.983768; 1.034070;,
         0.973834; 1.014940;,
         0.985157; 1.003670;,
         0.998364; 1.023921;,
         0.988385; 1.568622;,
         0.997988; 1.595548;,
         0.997988; 1.619225;,
         0.988385; 1.646150;,
         0.965201; 1.657304;,
         0.558167; 1.657303;,
         0.535152; 1.646150;,
         0.525618; 1.619225;,
         0.525618; 1.595548;,
         0.535152; 1.568622;,
         0.558167; 1.557469;,
         0.965201; 1.557469;,
         0.540369; 1.168507;,
         0.511782; 1.168507;,
         0.511782; 1.103980;,
         0.540369; 1.103980;,
         0.486055; 1.168507;,
         0.079447; 1.168507;,
         0.079447; 1.085367;,
         0.486055; 1.103980;,
         0.288069; 1.007150;,
         0.313645; 1.007150;,
         0.313645; 1.090290;,
         0.288069; 1.090290;,
         0.313645; 1.007150;,
         0.720253; 1.007150;,
         0.720253; 1.071677;,
         0.313645; 1.090290;,
         0.511782; 1.168507;,
         0.486055; 1.168507;,
         0.486055; 1.103980;,
         0.511782; 1.103980;,
         0.745980; 1.007150;,
         0.774567; 1.007150;,
         0.774567; 1.071677;,
         0.745980; 1.071677;,
         0.564046; 1.168507;,
         0.540369; 1.168507;,
         0.540369; 1.103980;,
         0.564046; 1.103980;,
         0.053871; 1.168507;,
         0.025307; 1.168507;,
         0.025307; 1.085367;,
         0.053871; 1.085367;,
         0.720253; 1.007150;,
         0.745980; 1.007150;,
         0.745980; 1.071677;,
         0.720253; 1.071677;,
         0.025307; 1.168507;,
         0.001630; 1.168507;,
         0.001631; 1.085367;,
         0.025307; 1.085367;,
         0.259506; 1.007150;,
         0.288069; 1.007150;,
         0.288069; 1.090290;,
         0.259506; 1.090291;;
      }
      MeshMaterialList {
        1;
        62;
        0,
        0,
        0,
        0,
        0,
        0,
        0,
        0,
        0,
        0,
        0,
        0,
        0,
        0,
        0,
        0,
        0,
        0,
        0,
        0,
        0,
        0,
        0,
        0,
        0,
        0,
        0,
        0,
        0,
        0,
        0,
        0,
        0,
        0,
        0,
        0,
        0,
        0,
        0,
        0,
        0,
        0,
        0,
        0,
        0,
        0,
        0,
        0,
        0,
        0,
        0,
        0,
        0,
        0,
        0,
        0,
        0,
        0,
        0,
        0,
        0,
        0;
        Material Priclad2DSA_002 {
           0.800000; 0.800000; 0.800000; 1.000000;;
           323.999994;
           0.250000; 0.250000; 0.250000;;
           0.000000; 0.000000; 0.000000;;
        }
      }
    }
  }
}
