xof 0303txt 0032

Frame Root {
  FrameTransformMatrix {
     1.000000, 0.000000, 0.000000, 0.000000,
     0.000000,-0.000000, 1.000000, 0.000000,
     0.000000, 1.000000, 0.000000, 0.000000,
     0.000000, 0.000000, 0.000000, 1.000000;;
  }
  Frame AKPRIKLAD_2_Cube_005 {
    FrameTransformMatrix {
       1.000000, 0.000000, 0.000000, 0.000000,
       0.000000, 1.000000, 0.000000, 0.000000,
       0.000000, 0.000000, 1.000000, 0.000000,
       0.000000, 0.000000, 0.000000, 1.000000;;
    }
    Mesh {
      784;
      -0.023762; 0.008669; 0.072077;,
      -0.023762;-0.006075; 0.072077;,
      -0.031898;-0.006075; 0.072501;,
      -0.031898; 0.008669; 0.072501;,
      -0.023762;-0.006075; 0.072077;,
      -0.024281;-0.006075; 0.063572;,
      -0.037708;-0.006075; 0.065126;,
      -0.037479;-0.006075; 0.067663;,
      -0.036562;-0.006075; 0.070179;,
      -0.034520;-0.006075; 0.071950;,
      -0.031898;-0.006075; 0.072501;,
       0.037965; 0.008669; 0.069551;,
       0.038191; 0.008669; 0.066503;,
       0.038191;-0.006075; 0.066503;,
       0.037965;-0.006075; 0.069551;,
      -0.021945; 0.006733; 0.065446;,
      -0.021957; 0.006733; 0.067117;,
      -0.000657; 0.006733; 0.066832;,
      -0.000645; 0.006733; 0.065161;,
      -0.024281; 0.008669; 0.063572;,
      -0.021945; 0.008669; 0.065446;,
      -0.021341; 0.008669; 0.071792;,
      -0.023762; 0.008669; 0.072077;,
      -0.024281; 0.008669; 0.063572;,
      -0.023762; 0.008669; 0.072077;,
      -0.031898; 0.008669; 0.072501;,
      -0.034520; 0.008669; 0.071950;,
      -0.036562; 0.008669; 0.070179;,
      -0.037479; 0.008669; 0.067663;,
      -0.037708; 0.008669; 0.065126;,
      -0.021341;-0.006075; 0.071792;,
      -0.000818;-0.006075; 0.071248;,
      -0.000645;-0.006075; 0.065161;,
      -0.021945;-0.006075; 0.065446;,
      -0.023762;-0.006075; 0.072077;,
      -0.021341;-0.006075; 0.071792;,
      -0.021945;-0.006075; 0.065446;,
      -0.024281;-0.006075; 0.063572;,
       0.035877; 0.006733; 0.066078;,
       0.035865; 0.006733; 0.067749;,
       0.035865;-0.004139; 0.067749;,
       0.035877;-0.004139; 0.066078;,
      -0.023762; 0.008669; 0.072077;,
      -0.021341; 0.008669; 0.071792;,
      -0.021341;-0.006075; 0.071792;,
      -0.023762;-0.006075; 0.072077;,
      -0.000818;-0.006075; 0.071248;,
       0.015929;-0.006075; 0.072165;,
       0.016447;-0.006075; 0.065646;,
      -0.000645;-0.006075; 0.065161;,
      -0.021945; 0.008669; 0.065446;,
      -0.000645; 0.008669; 0.065161;,
      -0.000818; 0.008669; 0.071248;,
      -0.021341; 0.008669; 0.071792;,
      -0.000645;-0.004139; 0.065161;,
      -0.000657;-0.004139; 0.066832;,
      -0.021957;-0.004139; 0.067117;,
      -0.021945;-0.004139; 0.065446;,
      -0.021341; 0.008669; 0.071792;,
      -0.000818; 0.008669; 0.071248;,
      -0.000818;-0.006075; 0.071248;,
      -0.021341;-0.006075; 0.071792;,
       0.024508; 0.006733; 0.066396;,
       0.024496; 0.006733; 0.068068;,
       0.026326; 0.006733; 0.065995;,
       0.026338; 0.006733; 0.064323;,
      -0.000645; 0.008669; 0.065161;,
       0.016447; 0.008669; 0.065646;,
       0.015929; 0.008669; 0.072165;,
      -0.000818; 0.008669; 0.071248;,
      -0.021945;-0.004139; 0.065446;,
      -0.021957;-0.004139; 0.067117;,
      -0.024292;-0.004139; 0.065243;,
      -0.024281;-0.004139; 0.063572;,
      -0.000818; 0.008669; 0.071248;,
       0.015929; 0.008669; 0.072165;,
       0.015929;-0.006075; 0.072165;,
      -0.000818;-0.006075; 0.071248;,
       0.024421;-0.006075; 0.073260;,
       0.026165;-0.006075; 0.073519;,
       0.026338;-0.006075; 0.064323;,
       0.024508;-0.006075; 0.066396;,
       0.015929; 0.008669; 0.072165;,
       0.024421; 0.008669; 0.073260;,
       0.024421;-0.006075; 0.073260;,
       0.015929;-0.006075; 0.072165;,
       0.015929;-0.006075; 0.072165;,
       0.024421;-0.006075; 0.073260;,
       0.024508;-0.006075; 0.066396;,
       0.016447;-0.006075; 0.065646;,
       0.016447; 0.008669; 0.065646;,
       0.024508; 0.008669; 0.066396;,
       0.024421; 0.008669; 0.073260;,
       0.015929; 0.008669; 0.072165;,
       0.026165;-0.006075; 0.073519;,
       0.032486;-0.006075; 0.074152;,
       0.035087;-0.006075; 0.073723;,
       0.037092;-0.006075; 0.072038;,
       0.037965;-0.006075; 0.069551;,
       0.038191;-0.006075; 0.066503;,
       0.026338;-0.006075; 0.064323;,
       0.024508; 0.008669; 0.066396;,
       0.026338; 0.008669; 0.064323;,
       0.026165; 0.008669; 0.073519;,
       0.024421; 0.008669; 0.073260;,
       0.026338;-0.004139; 0.064323;,
       0.026326;-0.004139; 0.065995;,
       0.024496;-0.004139; 0.068068;,
       0.024508;-0.004139; 0.066396;,
       0.024421; 0.008669; 0.073260;,
       0.026165; 0.008669; 0.073519;,
       0.026165;-0.006075; 0.073519;,
       0.024421;-0.006075; 0.073260;,
       0.026165; 0.008669; 0.073519;,
       0.032486; 0.008669; 0.074152;,
       0.032486;-0.006075; 0.074152;,
       0.026165;-0.006075; 0.073519;,
      -0.024281; 0.006733; 0.063572;,
      -0.024292; 0.006733; 0.065243;,
      -0.021957; 0.006733; 0.067117;,
      -0.021945; 0.006733; 0.065446;,
       0.026338; 0.008669; 0.064323;,
       0.038191; 0.008669; 0.066503;,
       0.037965; 0.008669; 0.069551;,
       0.037092; 0.008669; 0.072038;,
       0.035087; 0.008669; 0.073723;,
       0.032486; 0.008669; 0.074152;,
       0.026165; 0.008669; 0.073519;,
      -0.037479; 0.008669; 0.067663;,
      -0.036562; 0.008669; 0.070179;,
      -0.036562;-0.006075; 0.070179;,
      -0.037479;-0.006075; 0.067663;,
      -0.036562; 0.008669; 0.070179;,
      -0.034520; 0.008669; 0.071950;,
      -0.034520;-0.006075; 0.071950;,
      -0.036562;-0.006075; 0.070179;,
      -0.034520; 0.008669; 0.071950;,
      -0.031898; 0.008669; 0.072501;,
      -0.031898;-0.006075; 0.072501;,
      -0.034520;-0.006075; 0.071950;,
       0.037965;-0.006075; 0.069551;,
       0.037092;-0.006075; 0.072038;,
       0.037092; 0.008669; 0.072038;,
       0.037965; 0.008669; 0.069551;,
       0.037092;-0.006075; 0.072038;,
       0.035087;-0.006075; 0.073723;,
       0.035087; 0.008669; 0.073723;,
       0.037092; 0.008669; 0.072038;,
       0.035087;-0.006075; 0.073723;,
       0.032486;-0.006075; 0.074152;,
       0.032486; 0.008669; 0.074152;,
       0.035087; 0.008669; 0.073723;,
      -0.037479;-0.006075; 0.067663;,
      -0.037708;-0.006075; 0.065126;,
      -0.037708; 0.008669; 0.065126;,
      -0.037479; 0.008669; 0.067663;,
      -0.024281; 0.006733; 0.063572;,
      -0.024281; 0.008669; 0.063572;,
      -0.037708; 0.008669; 0.065126;,
      -0.035371; 0.006733; 0.064855;,
      -0.035371;-0.004139; 0.064855;,
      -0.037708;-0.006075; 0.065126;,
      -0.024281;-0.006075; 0.063572;,
      -0.024281;-0.004139; 0.063572;,
      -0.035371; 0.006733; 0.064855;,
      -0.037708; 0.008669; 0.065126;,
      -0.037708;-0.006075; 0.065126;,
      -0.035371;-0.004139; 0.064855;,
      -0.021945; 0.006733; 0.065446;,
      -0.021945; 0.008669; 0.065446;,
      -0.024281; 0.008669; 0.063572;,
      -0.024281; 0.006733; 0.063572;,
      -0.024281;-0.004139; 0.063572;,
      -0.024281;-0.006075; 0.063572;,
      -0.021945;-0.006075; 0.065446;,
      -0.021945;-0.004139; 0.065446;,
      -0.021945;-0.004139; 0.065446;,
      -0.021945;-0.006075; 0.065446;,
      -0.000645;-0.006075; 0.065161;,
      -0.000645;-0.004139; 0.065161;,
      -0.000645; 0.006733; 0.065161;,
      -0.000645; 0.008669; 0.065161;,
      -0.021945; 0.008669; 0.065446;,
      -0.021945; 0.006733; 0.065446;,
      -0.000645;-0.004139; 0.065161;,
      -0.000645;-0.006075; 0.065161;,
       0.016447;-0.006075; 0.065646;,
       0.016447;-0.004139; 0.065646;,
       0.016447; 0.006733; 0.065646;,
       0.016447; 0.008669; 0.065646;,
      -0.000645; 0.008669; 0.065161;,
      -0.000645; 0.006733; 0.065161;,
       0.024508; 0.006733; 0.066396;,
       0.024508; 0.008669; 0.066396;,
       0.016447; 0.008669; 0.065646;,
       0.016447; 0.006733; 0.065646;,
       0.016447;-0.004139; 0.065646;,
       0.016447;-0.006075; 0.065646;,
       0.024508;-0.006075; 0.066396;,
       0.024508;-0.004139; 0.066396;,
       0.024508;-0.004139; 0.066396;,
       0.024508;-0.006075; 0.066396;,
       0.026338;-0.006075; 0.064323;,
       0.026338;-0.004139; 0.064323;,
       0.026338; 0.006733; 0.064323;,
       0.026338; 0.008669; 0.064323;,
       0.024508; 0.008669; 0.066396;,
       0.024508; 0.006733; 0.066396;,
       0.035877;-0.004139; 0.066078;,
       0.038191;-0.006075; 0.066503;,
       0.038191; 0.008669; 0.066503;,
       0.035877; 0.006733; 0.066078;,
       0.035877; 0.006733; 0.066078;,
       0.038191; 0.008669; 0.066503;,
       0.026338; 0.008669; 0.064323;,
       0.026338; 0.006733; 0.064323;,
       0.026338;-0.004139; 0.064323;,
       0.026338;-0.006075; 0.064323;,
       0.038191;-0.006075; 0.066503;,
       0.035877;-0.004139; 0.066078;,
      -0.024292;-0.004139; 0.065243;,
      -0.024292; 0.006733; 0.065243;,
      -0.035382; 0.006733; 0.066527;,
      -0.035382;-0.004139; 0.066527;,
      -0.024292;-0.004139; 0.065243;,
      -0.021957;-0.004139; 0.067117;,
      -0.021957; 0.006733; 0.067117;,
      -0.024292; 0.006733; 0.065243;,
      -0.021957;-0.004139; 0.067117;,
      -0.000657;-0.004139; 0.066832;,
      -0.000657; 0.006733; 0.066832;,
      -0.021957; 0.006733; 0.067117;,
       0.016435;-0.004139; 0.067317;,
       0.024496;-0.004139; 0.068068;,
       0.024496; 0.006733; 0.068068;,
       0.016435; 0.006733; 0.067317;,
      -0.000657;-0.004139; 0.066832;,
       0.016435;-0.004139; 0.067317;,
       0.016435; 0.006733; 0.067317;,
      -0.000657; 0.006733; 0.066832;,
       0.024496;-0.004139; 0.068068;,
       0.026326;-0.004139; 0.065995;,
       0.026326; 0.006733; 0.065995;,
       0.024496; 0.006733; 0.068068;,
       0.026326;-0.004139; 0.065995;,
       0.035865;-0.004139; 0.067749;,
       0.035865; 0.006733; 0.067749;,
       0.026326; 0.006733; 0.065995;,
       0.026338; 0.006733; 0.064323;,
       0.026326; 0.006733; 0.065995;,
       0.035865; 0.006733; 0.067749;,
       0.035877; 0.006733; 0.066078;,
       0.016447;-0.004139; 0.065646;,
       0.016435;-0.004139; 0.067317;,
      -0.000657;-0.004139; 0.066832;,
      -0.000645;-0.004139; 0.065161;,
      -0.035371; 0.006733; 0.064855;,
      -0.035382; 0.006733; 0.066527;,
      -0.024292; 0.006733; 0.065243;,
      -0.024281; 0.006733; 0.063572;,
       0.035877;-0.004139; 0.066078;,
       0.035865;-0.004139; 0.067749;,
       0.026326;-0.004139; 0.065995;,
       0.026338;-0.004139; 0.064323;,
      -0.000645; 0.006733; 0.065161;,
      -0.000657; 0.006733; 0.066832;,
       0.016435; 0.006733; 0.067317;,
       0.016447; 0.006733; 0.065646;,
      -0.024281;-0.004139; 0.063572;,
      -0.024292;-0.004139; 0.065243;,
      -0.035382;-0.004139; 0.066527;,
      -0.035371;-0.004139; 0.064855;,
       0.016447; 0.006733; 0.065646;,
       0.016435; 0.006733; 0.067317;,
       0.024496; 0.006733; 0.068068;,
       0.024508; 0.006733; 0.066396;,
      -0.035371;-0.004139; 0.064855;,
      -0.035382;-0.004139; 0.066527;,
      -0.035382; 0.006733; 0.066527;,
      -0.035371; 0.006733; 0.064855;,
       0.024508;-0.004139; 0.066396;,
       0.024496;-0.004139; 0.068068;,
       0.016435;-0.004139; 0.067317;,
       0.016447;-0.004139; 0.065646;,
      -0.005653; 0.007782;-0.071815;,
      -0.005653; 0.007272;-0.072026;,
      -0.017013; 0.007272;-0.072026;,
      -0.017013; 0.007782;-0.071815;,
      -0.005653; 0.003776;-0.075820;,
      -0.005653; 0.004950;-0.078653;,
      -0.017013; 0.004950;-0.078653;,
      -0.017013; 0.003776;-0.075820;,
      -0.005653; 0.004950;-0.078653;,
      -0.005653; 0.007782;-0.079826;,
      -0.017013; 0.007782;-0.079826;,
      -0.017013; 0.004950;-0.078653;,
      -0.005653; 0.007782;-0.079826;,
      -0.005653; 0.010614;-0.078653;,
      -0.017013; 0.010614;-0.078653;,
      -0.017013; 0.007782;-0.079826;,
      -0.005653; 0.010614;-0.078653;,
      -0.005653; 0.011788;-0.075820;,
      -0.017013; 0.011788;-0.075820;,
      -0.017013; 0.010614;-0.078653;,
      -0.005653; 0.011788;-0.075820;,
      -0.005653; 0.010614;-0.072988;,
      -0.017013; 0.010614;-0.072988;,
      -0.017013; 0.011788;-0.075820;,
      -0.005653; 0.010614;-0.072988;,
      -0.005653; 0.007782;-0.071815;,
      -0.017013; 0.007782;-0.071815;,
      -0.017013; 0.010614;-0.072988;,
      -0.005653; 0.007272;-0.075582;,
      -0.005653; 0.004950;-0.078653;,
      -0.005653; 0.003776;-0.075820;,
      -0.022099; 0.007782;-0.071815;,
      -0.022099; 0.007272;-0.072026;,
      -0.030254; 0.007272;-0.072026;,
      -0.030254; 0.007782;-0.071815;,
      -0.022099; 0.003776;-0.075820;,
      -0.022099; 0.004950;-0.078653;,
      -0.030254; 0.004950;-0.078653;,
      -0.030254; 0.003776;-0.075820;,
      -0.022099; 0.004950;-0.078653;,
      -0.022099; 0.007782;-0.079826;,
      -0.030254; 0.007782;-0.079826;,
      -0.030254; 0.004950;-0.078653;,
      -0.022099; 0.007782;-0.079826;,
      -0.022099; 0.010614;-0.078653;,
      -0.030254; 0.010614;-0.078653;,
      -0.030254; 0.007782;-0.079826;,
      -0.022099; 0.010614;-0.078653;,
      -0.022099; 0.011788;-0.075820;,
      -0.030254; 0.011788;-0.075820;,
      -0.030254; 0.010614;-0.078653;,
      -0.022099; 0.011788;-0.075820;,
      -0.022099; 0.010614;-0.072988;,
      -0.030254; 0.010614;-0.072988;,
      -0.030254; 0.011788;-0.075820;,
      -0.022099; 0.010614;-0.072988;,
      -0.022099; 0.007782;-0.071815;,
      -0.030254; 0.007782;-0.071815;,
      -0.030254; 0.010614;-0.072988;,
      -0.022099; 0.007272;-0.075582;,
      -0.022099; 0.004950;-0.078653;,
      -0.022099; 0.003776;-0.075820;,
      -0.005653;-0.005188;-0.071815;,
      -0.017013;-0.005188;-0.071815;,
      -0.017013;-0.004678;-0.072026;,
      -0.005653;-0.004678;-0.072026;,
      -0.005653;-0.001182;-0.075820;,
      -0.017013;-0.001182;-0.075820;,
      -0.017013;-0.002356;-0.078653;,
      -0.005653;-0.002356;-0.078653;,
      -0.005653;-0.002356;-0.078653;,
      -0.017013;-0.002356;-0.078653;,
      -0.017013;-0.005188;-0.079826;,
      -0.005653;-0.005188;-0.079826;,
      -0.005653;-0.005188;-0.079826;,
      -0.017013;-0.005188;-0.079826;,
      -0.017013;-0.008020;-0.078653;,
      -0.005653;-0.008020;-0.078653;,
      -0.005653;-0.008020;-0.078653;,
      -0.017013;-0.008020;-0.078653;,
      -0.017013;-0.009194;-0.075820;,
      -0.005653;-0.009194;-0.075820;,
      -0.005653;-0.009194;-0.075820;,
      -0.017013;-0.009194;-0.075820;,
      -0.017013;-0.008020;-0.072988;,
      -0.005653;-0.008020;-0.072988;,
      -0.005653;-0.008020;-0.072988;,
      -0.017013;-0.008020;-0.072988;,
      -0.017013;-0.005188;-0.071815;,
      -0.005653;-0.005188;-0.071815;,
      -0.005653;-0.001182;-0.075820;,
      -0.005653;-0.004678;-0.075582;,
      -0.005653;-0.001281;-0.075582;,
      -0.022099;-0.005188;-0.071815;,
      -0.030254;-0.005188;-0.071815;,
      -0.030254;-0.004678;-0.072026;,
      -0.022099;-0.004678;-0.072026;,
      -0.022099;-0.001182;-0.075820;,
      -0.030254;-0.001182;-0.075820;,
      -0.030254;-0.002356;-0.078653;,
      -0.022099;-0.002356;-0.078653;,
      -0.022099;-0.002356;-0.078653;,
      -0.030254;-0.002356;-0.078653;,
      -0.030254;-0.005188;-0.079826;,
      -0.022099;-0.005188;-0.079826;,
      -0.022099;-0.005188;-0.079826;,
      -0.030254;-0.005188;-0.079826;,
      -0.030254;-0.008020;-0.078653;,
      -0.022099;-0.008020;-0.078653;,
      -0.022099;-0.008020;-0.078653;,
      -0.030254;-0.008020;-0.078653;,
      -0.030254;-0.009194;-0.075820;,
      -0.022099;-0.009194;-0.075820;,
      -0.022099;-0.009194;-0.075820;,
      -0.030254;-0.009194;-0.075820;,
      -0.030254;-0.008020;-0.072988;,
      -0.022099;-0.008020;-0.072988;,
      -0.022099;-0.008020;-0.072988;,
      -0.030254;-0.008020;-0.072988;,
      -0.030254;-0.005188;-0.071815;,
      -0.022099;-0.005188;-0.071815;,
      -0.022099;-0.001182;-0.075820;,
      -0.022099;-0.004678;-0.075582;,
      -0.022099;-0.001281;-0.075582;,
      -0.030000; 0.006456;-0.063064;,
      -0.023852; 0.006456;-0.063081;,
      -0.023134; 0.006456; 0.066690;,
      -0.030326; 0.006456; 0.067485;,
      -0.009975; 0.006456;-0.063111;,
      -0.002717; 0.006456;-0.063131;,
       0.032197; 0.006456; 0.068871;,
       0.022045; 0.006456; 0.068915;,
       0.000674; 0.003135;-0.063141;,
       0.000674;-0.000541;-0.063141;,
       0.035587;-0.000541; 0.068857;,
       0.035587; 0.003135; 0.068857;,
      -0.034942;-0.004678;-0.063050;,
       0.002365;-0.004678;-0.063146;,
      -0.001019;-0.004678;-0.075582;,
      -0.005653;-0.004678;-0.075582;,
      -0.005653;-0.004678;-0.072026;,
      -0.017013;-0.004678;-0.072026;,
      -0.017013;-0.004678;-0.075582;,
      -0.022099;-0.004678;-0.075582;,
      -0.022099;-0.004678;-0.072026;,
      -0.030254;-0.004678;-0.072026;,
      -0.030254;-0.004678;-0.075582;,
      -0.034088;-0.004678;-0.075582;,
      -0.005653; 0.003875;-0.075582;,
      -0.005653;-0.001281;-0.075582;,
      -0.005653;-0.004678;-0.075582;,
      -0.001019;-0.004678;-0.075582;,
      -0.001019; 0.007272;-0.075582;,
      -0.005653; 0.007272;-0.075582;,
      -0.034088; 0.007272;-0.075582;,
      -0.030254; 0.007272;-0.075582;,
      -0.030254; 0.007272;-0.072026;,
      -0.022099; 0.007272;-0.072026;,
      -0.022099; 0.007272;-0.075582;,
      -0.017013; 0.007272;-0.075582;,
      -0.017013; 0.007272;-0.072026;,
      -0.005653; 0.007272;-0.072026;,
      -0.005653; 0.007272;-0.075582;,
      -0.001019; 0.007272;-0.075582;,
       0.002365; 0.007272;-0.063146;,
      -0.034942; 0.007272;-0.063050;,
      -0.034088;-0.004678;-0.075582;,
      -0.034088; 0.007272;-0.075582;,
      -0.034942; 0.007272;-0.063050;,
      -0.034942;-0.004678;-0.063050;,
      -0.001019; 0.007272;-0.075582;,
      -0.001019;-0.004678;-0.075582;,
       0.002365;-0.004678;-0.063146;,
       0.002365; 0.007272;-0.063146;,
      -0.034942; 0.007272;-0.063050;,
      -0.023852; 0.006456;-0.063081;,
      -0.030000; 0.006456;-0.063064;,
      -0.032925; 0.005245;-0.063056;,
      -0.034137; 0.002321;-0.063053;,
      -0.034137; 0.000273;-0.063053;,
      -0.034898;-0.004633;-0.063051;,
      -0.034942;-0.004678;-0.063050;,
      -0.009975; 0.006456;-0.063111;,
      -0.023852;-0.003862;-0.063081;,
      -0.023852; 0.006456;-0.063081;,
      -0.023852; 0.006456;-0.063081;,
      -0.023852;-0.003862;-0.063081;,
      -0.023134;-0.003862; 0.066690;,
      -0.023134; 0.006456; 0.066690;,
       0.022045;-0.003862; 0.068915;,
       0.032197;-0.003862; 0.068871;,
      -0.002717;-0.003862;-0.063131;,
      -0.009975;-0.003862;-0.063111;,
       0.002365;-0.004678;-0.063146;,
      -0.009975;-0.003862;-0.063111;,
      -0.002717;-0.003862;-0.063131;,
      -0.000320;-0.002889;-0.063138;,
       0.000674;-0.000541;-0.063141;,
       0.000674; 0.003135;-0.063141;,
       0.002308; 0.007244;-0.063145;,
       0.002365; 0.007272;-0.063146;,
      -0.009975;-0.003862;-0.063111;,
      -0.009975; 0.006456;-0.063111;,
       0.022045; 0.006456; 0.068915;,
       0.022045;-0.003862; 0.068915;,
      -0.030326;-0.003862; 0.067485;,
      -0.023134;-0.003862; 0.066690;,
      -0.023852;-0.003862;-0.063081;,
      -0.030000;-0.003862;-0.063064;,
      -0.034137; 0.000273;-0.063053;,
      -0.032925;-0.002651;-0.063056;,
      -0.034898;-0.004633;-0.063051;,
      -0.032925;-0.002651;-0.063056;,
      -0.030000;-0.003862;-0.063064;,
      -0.034898;-0.004633;-0.063051;,
      -0.034137; 0.000273;-0.063053;,
      -0.034477; 0.000273; 0.067944;,
      -0.033261;-0.002651; 0.067810;,
      -0.032925;-0.002651;-0.063056;,
      -0.032925;-0.002651;-0.063056;,
      -0.033261;-0.002651; 0.067810;,
      -0.030326;-0.003862; 0.067485;,
      -0.030000;-0.003862;-0.063064;,
      -0.034477; 0.002321; 0.067944;,
      -0.034137; 0.002321;-0.063053;,
      -0.032925; 0.005245;-0.063056;,
      -0.033261; 0.005245; 0.067810;,
      -0.033261; 0.005245; 0.067810;,
      -0.032925; 0.005245;-0.063056;,
      -0.030000; 0.006456;-0.063064;,
      -0.030326; 0.006456; 0.067485;,
      -0.034137; 0.000273;-0.063053;,
      -0.034137; 0.002321;-0.063053;,
      -0.034477; 0.002321; 0.067944;,
      -0.034477; 0.000273; 0.067944;,
       0.000674; 0.003135;-0.063141;,
      -0.000320; 0.005483;-0.063138;,
       0.002308; 0.007244;-0.063145;,
      -0.000320; 0.005483;-0.063138;,
      -0.002717; 0.006456;-0.063131;,
       0.002308; 0.007244;-0.063145;,
       0.000674; 0.003135;-0.063141;,
       0.035587; 0.003135; 0.068857;,
       0.034594; 0.005483; 0.068861;,
      -0.000320; 0.005483;-0.063138;,
      -0.000320; 0.005483;-0.063138;,
       0.034594; 0.005483; 0.068861;,
       0.032197; 0.006456; 0.068871;,
      -0.002717; 0.006456;-0.063131;,
       0.035587;-0.000541; 0.068857;,
       0.000674;-0.000541;-0.063141;,
      -0.000320;-0.002889;-0.063138;,
       0.034594;-0.002889; 0.068861;,
       0.034594;-0.002889; 0.068861;,
      -0.000320;-0.002889;-0.063138;,
      -0.002717;-0.003862;-0.063131;,
       0.032197;-0.003862; 0.068871;,
      -0.017013; 0.004950;-0.078653;,
      -0.017013; 0.007272;-0.075582;,
      -0.017013; 0.003776;-0.075820;,
      -0.030254;-0.008020;-0.072988;,
      -0.030254;-0.004678;-0.075582;,
      -0.030254;-0.005188;-0.071815;,
      -0.022099; 0.003875;-0.075582;,
      -0.022099; 0.003776;-0.075820;,
      -0.030254; 0.003776;-0.075820;,
      -0.030254; 0.003875;-0.075582;,
      -0.017013;-0.001281;-0.075582;,
      -0.017013;-0.001182;-0.075820;,
      -0.005653;-0.001182;-0.075820;,
      -0.005653;-0.001281;-0.075582;,
      -0.030254; 0.004950;-0.078653;,
      -0.030254; 0.007272;-0.075582;,
      -0.030254; 0.003776;-0.075820;,
      -0.017013;-0.008020;-0.072988;,
      -0.017013;-0.004678;-0.075582;,
      -0.017013;-0.005188;-0.071815;,
      -0.005653; 0.003875;-0.075582;,
      -0.005653; 0.003776;-0.075820;,
      -0.017013; 0.003776;-0.075820;,
      -0.017013; 0.003875;-0.075582;,
      -0.030254;-0.001281;-0.075582;,
      -0.030254;-0.001182;-0.075820;,
      -0.022099;-0.001182;-0.075820;,
      -0.022099;-0.001281;-0.075582;,
      -0.005653; 0.010614;-0.072988;,
      -0.005653; 0.007272;-0.075582;,
      -0.005653; 0.007782;-0.071815;,
      -0.005653; 0.007782;-0.071815;,
      -0.005653; 0.007272;-0.075582;,
      -0.005653; 0.007272;-0.072026;,
      -0.005653; 0.007272;-0.075582;,
      -0.005653; 0.003776;-0.075820;,
      -0.005653; 0.003875;-0.075582;,
      -0.005653; 0.010614;-0.078653;,
      -0.005653; 0.007272;-0.075582;,
      -0.005653; 0.011788;-0.075820;,
      -0.005653; 0.011788;-0.075820;,
      -0.005653; 0.007272;-0.075582;,
      -0.005653; 0.010614;-0.072988;,
      -0.005653; 0.004950;-0.078653;,
      -0.005653; 0.007272;-0.075582;,
      -0.005653; 0.007782;-0.079826;,
      -0.005653; 0.007782;-0.079826;,
      -0.005653; 0.007272;-0.075582;,
      -0.005653; 0.010614;-0.078653;,
      -0.022099; 0.010614;-0.072988;,
      -0.022099; 0.007272;-0.075582;,
      -0.022099; 0.007782;-0.071815;,
      -0.022099; 0.007782;-0.071815;,
      -0.022099; 0.007272;-0.075582;,
      -0.022099; 0.007272;-0.072026;,
      -0.022099; 0.007272;-0.075582;,
      -0.022099; 0.003776;-0.075820;,
      -0.022099; 0.003875;-0.075582;,
      -0.022099; 0.010614;-0.078653;,
      -0.022099; 0.007272;-0.075582;,
      -0.022099; 0.011788;-0.075820;,
      -0.022099; 0.011788;-0.075820;,
      -0.022099; 0.007272;-0.075582;,
      -0.022099; 0.010614;-0.072988;,
      -0.022099; 0.004950;-0.078653;,
      -0.022099; 0.007272;-0.075582;,
      -0.022099; 0.007782;-0.079826;,
      -0.022099; 0.007782;-0.079826;,
      -0.022099; 0.007272;-0.075582;,
      -0.022099; 0.010614;-0.078653;,
      -0.005653;-0.004678;-0.072026;,
      -0.005653;-0.004678;-0.075582;,
      -0.005653;-0.005188;-0.071815;,
      -0.005653;-0.005188;-0.071815;,
      -0.005653;-0.004678;-0.075582;,
      -0.005653;-0.008020;-0.072988;,
      -0.005653;-0.008020;-0.072988;,
      -0.005653;-0.004678;-0.075582;,
      -0.005653;-0.009194;-0.075820;,
      -0.005653;-0.009194;-0.075820;,
      -0.005653;-0.004678;-0.075582;,
      -0.005653;-0.008020;-0.078653;,
      -0.005653;-0.008020;-0.078653;,
      -0.005653;-0.004678;-0.075582;,
      -0.005653;-0.005188;-0.079826;,
      -0.005653;-0.005188;-0.079826;,
      -0.005653;-0.004678;-0.075582;,
      -0.005653;-0.002356;-0.078653;,
      -0.005653;-0.002356;-0.078653;,
      -0.005653;-0.004678;-0.075582;,
      -0.005653;-0.001182;-0.075820;,
      -0.022099;-0.004678;-0.072026;,
      -0.022099;-0.004678;-0.075582;,
      -0.022099;-0.005188;-0.071815;,
      -0.022099;-0.005188;-0.071815;,
      -0.022099;-0.004678;-0.075582;,
      -0.022099;-0.008020;-0.072988;,
      -0.022099;-0.008020;-0.072988;,
      -0.022099;-0.004678;-0.075582;,
      -0.022099;-0.009194;-0.075820;,
      -0.022099;-0.009194;-0.075820;,
      -0.022099;-0.004678;-0.075582;,
      -0.022099;-0.008020;-0.078653;,
      -0.022099;-0.008020;-0.078653;,
      -0.022099;-0.004678;-0.075582;,
      -0.022099;-0.005188;-0.079826;,
      -0.022099;-0.005188;-0.079826;,
      -0.022099;-0.004678;-0.075582;,
      -0.022099;-0.002356;-0.078653;,
      -0.022099;-0.002356;-0.078653;,
      -0.022099;-0.004678;-0.075582;,
      -0.022099;-0.001182;-0.075820;,
      -0.017013; 0.003776;-0.075820;,
      -0.017013; 0.007272;-0.075582;,
      -0.017013; 0.003875;-0.075582;,
      -0.017013; 0.007272;-0.075582;,
      -0.017013; 0.007782;-0.071815;,
      -0.017013; 0.007272;-0.072026;,
      -0.017013; 0.007782;-0.071815;,
      -0.017013; 0.007272;-0.075582;,
      -0.017013; 0.010614;-0.072988;,
      -0.017013; 0.010614;-0.072988;,
      -0.017013; 0.007272;-0.075582;,
      -0.017013; 0.011788;-0.075820;,
      -0.017013; 0.011788;-0.075820;,
      -0.017013; 0.007272;-0.075582;,
      -0.017013; 0.010614;-0.078653;,
      -0.017013; 0.010614;-0.078653;,
      -0.017013; 0.007272;-0.075582;,
      -0.017013; 0.007782;-0.079826;,
      -0.017013; 0.007782;-0.079826;,
      -0.017013; 0.007272;-0.075582;,
      -0.017013; 0.004950;-0.078653;,
      -0.030254;-0.005188;-0.071815;,
      -0.030254;-0.004678;-0.075582;,
      -0.030254;-0.004678;-0.072026;,
      -0.030254;-0.004678;-0.075582;,
      -0.030254;-0.001182;-0.075820;,
      -0.030254;-0.001281;-0.075582;,
      -0.030254;-0.001182;-0.075820;,
      -0.030254;-0.004678;-0.075582;,
      -0.030254;-0.002356;-0.078653;,
      -0.030254;-0.002356;-0.078653;,
      -0.030254;-0.004678;-0.075582;,
      -0.030254;-0.005188;-0.079826;,
      -0.030254;-0.005188;-0.079826;,
      -0.030254;-0.004678;-0.075582;,
      -0.030254;-0.008020;-0.078653;,
      -0.030254;-0.008020;-0.078653;,
      -0.030254;-0.004678;-0.075582;,
      -0.030254;-0.009194;-0.075820;,
      -0.030254;-0.009194;-0.075820;,
      -0.030254;-0.004678;-0.075582;,
      -0.030254;-0.008020;-0.072988;,
      -0.030254; 0.003776;-0.075820;,
      -0.030254; 0.007272;-0.075582;,
      -0.030254; 0.003875;-0.075582;,
      -0.030254; 0.007272;-0.075582;,
      -0.030254; 0.007782;-0.071815;,
      -0.030254; 0.007272;-0.072026;,
      -0.030254; 0.007782;-0.071815;,
      -0.030254; 0.007272;-0.075582;,
      -0.030254; 0.010614;-0.072988;,
      -0.030254; 0.010614;-0.072988;,
      -0.030254; 0.007272;-0.075582;,
      -0.030254; 0.011788;-0.075820;,
      -0.030254; 0.011788;-0.075820;,
      -0.030254; 0.007272;-0.075582;,
      -0.030254; 0.010614;-0.078653;,
      -0.030254; 0.010614;-0.078653;,
      -0.030254; 0.007272;-0.075582;,
      -0.030254; 0.007782;-0.079826;,
      -0.030254; 0.007782;-0.079826;,
      -0.030254; 0.007272;-0.075582;,
      -0.030254; 0.004950;-0.078653;,
      -0.017013;-0.005188;-0.071815;,
      -0.017013;-0.004678;-0.075582;,
      -0.017013;-0.004678;-0.072026;,
      -0.017013;-0.004678;-0.075582;,
      -0.017013;-0.001182;-0.075820;,
      -0.017013;-0.001281;-0.075582;,
      -0.017013;-0.001182;-0.075820;,
      -0.017013;-0.004678;-0.075582;,
      -0.017013;-0.002356;-0.078653;,
      -0.017013;-0.002356;-0.078653;,
      -0.017013;-0.004678;-0.075582;,
      -0.017013;-0.005188;-0.079826;,
      -0.017013;-0.005188;-0.079826;,
      -0.017013;-0.004678;-0.075582;,
      -0.017013;-0.008020;-0.078653;,
      -0.017013;-0.008020;-0.078653;,
      -0.017013;-0.004678;-0.075582;,
      -0.017013;-0.009194;-0.075820;,
      -0.017013;-0.009194;-0.075820;,
      -0.017013;-0.004678;-0.075582;,
      -0.017013;-0.008020;-0.072988;,
      -0.034088;-0.004678;-0.075582;,
      -0.030254;-0.004678;-0.075582;,
      -0.030254;-0.001281;-0.075582;,
      -0.030254; 0.003875;-0.075582;,
      -0.030254; 0.007272;-0.075582;,
      -0.034088; 0.007272;-0.075582;,
      -0.030254; 0.003875;-0.075582;,
      -0.030254;-0.001281;-0.075582;,
      -0.022099;-0.001281;-0.075582;,
      -0.022099;-0.004678;-0.075582;,
      -0.017013;-0.004678;-0.075582;,
      -0.017013;-0.001281;-0.075582;,
      -0.017013; 0.003875;-0.075582;,
      -0.017013; 0.007272;-0.075582;,
      -0.022099; 0.007272;-0.075582;,
      -0.022099; 0.003875;-0.075582;,
      -0.017013; 0.003875;-0.075582;,
      -0.017013;-0.001281;-0.075582;,
      -0.005653;-0.001281;-0.075582;,
      -0.005653; 0.003875;-0.075582;,
      -0.034898;-0.004633;-0.063051;,
      -0.030000;-0.003862;-0.063064;,
      -0.034942;-0.004678;-0.063050;,
      -0.034942;-0.004678;-0.063050;,
      -0.009975;-0.003862;-0.063111;,
       0.002365;-0.004678;-0.063146;,
      -0.034942;-0.004678;-0.063050;,
      -0.023852;-0.003862;-0.063081;,
      -0.009975;-0.003862;-0.063111;,
      -0.023852;-0.003862;-0.063081;,
      -0.034942;-0.004678;-0.063050;,
      -0.030000;-0.003862;-0.063064;,
       0.002365; 0.007272;-0.063146;,
      -0.009975; 0.006456;-0.063111;,
      -0.034942; 0.007272;-0.063050;,
      -0.034942; 0.007272;-0.063050;,
      -0.009975; 0.006456;-0.063111;,
      -0.023852; 0.006456;-0.063081;,
       0.002308; 0.007244;-0.063145;,
      -0.002717; 0.006456;-0.063131;,
       0.002365; 0.007272;-0.063146;,
      -0.009975; 0.006456;-0.063111;,
       0.002365; 0.007272;-0.063146;,
      -0.002717; 0.006456;-0.063131;,
      -0.023852;-0.003862;-0.063081;,
      -0.009975; 0.006456;-0.063111;,
      -0.009975;-0.003862;-0.063111;;
      204;
      4;3,2,1,0;,
      7;10,9,8,7,6,5,4;,
      4;14,13,12,11;,
      4;18,17,16,15;,
      4;22,21,20,19;,
      7;29,28,27,26,25,24,23;,
      4;33,32,31,30;,
      4;37,36,35,34;,
      4;41,40,39,38;,
      4;45,44,43,42;,
      4;49,48,47,46;,
      4;53,52,51,50;,
      4;57,56,55,54;,
      4;61,60,59,58;,
      4;65,64,63,62;,
      4;69,68,67,66;,
      4;73,72,71,70;,
      4;77,76,75,74;,
      4;81,80,79,78;,
      4;85,84,83,82;,
      4;89,88,87,86;,
      4;93,92,91,90;,
      7;100,99,98,97,96,95,94;,
      4;104,103,102,101;,
      4;108,107,106,105;,
      4;112,111,110,109;,
      4;116,115,114,113;,
      4;120,119,118,117;,
      7;127,126,125,124,123,122,121;,
      4;131,130,129,128;,
      4;135,134,133,132;,
      4;139,138,137,136;,
      4;143,142,141,140;,
      4;147,146,145,144;,
      4;151,150,149,148;,
      4;155,154,153,152;,
      4;159,158,157,156;,
      4;163,162,161,160;,
      4;167,166,165,164;,
      4;171,170,169,168;,
      4;175,174,173,172;,
      4;179,178,177,176;,
      4;183,182,181,180;,
      4;187,186,185,184;,
      4;191,190,189,188;,
      4;195,194,193,192;,
      4;199,198,197,196;,
      4;203,202,201,200;,
      4;207,206,205,204;,
      4;211,210,209,208;,
      4;215,214,213,212;,
      4;219,218,217,216;,
      4;223,222,221,220;,
      4;227,226,225,224;,
      4;231,230,229,228;,
      4;235,234,233,232;,
      4;239,238,237,236;,
      4;243,242,241,240;,
      4;247,246,245,244;,
      4;251,250,249,248;,
      4;255,254,253,252;,
      4;259,258,257,256;,
      4;263,262,261,260;,
      4;267,266,265,264;,
      4;271,270,269,268;,
      4;275,274,273,272;,
      4;279,278,277,276;,
      4;283,282,281,280;,
      4;287,286,285,284;,
      4;291,290,289,288;,
      4;295,294,293,292;,
      4;299,298,297,296;,
      4;303,302,301,300;,
      4;307,306,305,304;,
      4;311,310,309,308;,
      3;314,313,312;,
      4;318,317,316,315;,
      4;322,321,320,319;,
      4;326,325,324,323;,
      4;330,329,328,327;,
      4;334,333,332,331;,
      4;338,337,336,335;,
      4;342,341,340,339;,
      3;345,344,343;,
      4;349,348,347,346;,
      4;353,352,351,350;,
      4;357,356,355,354;,
      4;361,360,359,358;,
      4;365,364,363,362;,
      4;369,368,367,366;,
      4;373,372,371,370;,
      3;376,375,374;,
      4;380,379,378,377;,
      4;384,383,382,381;,
      4;388,387,386,385;,
      4;392,391,390,389;,
      4;396,395,394,393;,
      4;400,399,398,397;,
      4;404,403,402,401;,
      3;407,406,405;,
      4;411,410,409,408;,
      4;415,414,413,412;,
      4;419,418,417,416;,
      12;431,430,429,428,427,426,425,424,423,422,421,420;,
      6;437,436,435,434,433,432;,
      12;449,448,447,446,445,444,443,442,441,440,439,438;,
      4;453,452,451,450;,
      4;457,456,455,454;,
      8;465,464,463,462,461,460,459,458;,
      3;468,467,466;,
      4;472,471,470,469;,
      4;476,475,474,473;,
      8;484,483,482,481,480,479,478,477;,
      4;488,487,486,485;,
      4;492,491,490,489;,
      3;495,494,493;,
      3;498,497,496;,
      4;502,501,500,499;,
      4;506,505,504,503;,
      4;510,509,508,507;,
      4;514,513,512,511;,
      4;518,517,516,515;,
      3;521,520,519;,
      3;524,523,522;,
      4;528,527,526,525;,
      4;532,531,530,529;,
      4;536,535,534,533;,
      4;540,539,538,537;,
      3;543,542,541;,
      3;546,545,544;,
      4;550,549,548,547;,
      4;554,553,552,551;,
      3;557,556,555;,
      3;560,559,558;,
      4;564,563,562,561;,
      4;568,567,566,565;,
      3;571,570,569;,
      3;574,573,572;,
      3;577,576,575;,
      3;580,579,578;,
      3;583,582,581;,
      3;586,585,584;,
      3;589,588,587;,
      3;592,591,590;,
      3;595,594,593;,
      3;598,597,596;,
      3;601,600,599;,
      3;604,603,602;,
      3;607,606,605;,
      3;610,609,608;,
      3;613,612,611;,
      3;616,615,614;,
      3;619,618,617;,
      3;622,621,620;,
      3;625,624,623;,
      3;628,627,626;,
      3;631,630,629;,
      3;634,633,632;,
      3;637,636,635;,
      3;640,639,638;,
      3;643,642,641;,
      3;646,645,644;,
      3;649,648,647;,
      3;652,651,650;,
      3;655,654,653;,
      3;658,657,656;,
      3;661,660,659;,
      3;664,663,662;,
      3;667,666,665;,
      3;670,669,668;,
      3;673,672,671;,
      3;676,675,674;,
      3;679,678,677;,
      3;682,681,680;,
      3;685,684,683;,
      3;688,687,686;,
      3;691,690,689;,
      3;694,693,692;,
      3;697,696,695;,
      3;700,699,698;,
      3;703,702,701;,
      3;706,705,704;,
      3;709,708,707;,
      3;712,711,710;,
      3;715,714,713;,
      3;718,717,716;,
      3;721,720,719;,
      3;724,723,722;,
      3;727,726,725;,
      3;730,729,728;,
      3;733,732,731;,
      3;736,735,734;,
      6;742,741,740,739,738,737;,
      10;752,751,750,749,748,747,746,745,744,743;,
      4;756,755,754,753;,
      3;759,758,757;,
      3;762,761,760;,
      3;765,764,763;,
      3;768,767,766;,
      3;771,770,769;,
      3;774,773,772;,
      3;777,776,775;,
      3;780,779,778;,
      3;783,782,781;;
      MeshNormals {
        784;
        -0.060373;-0.699853;-0.711731;,
        -0.060373; 0.699853;-0.711731;,
         0.056854; 0.679142;-0.731802;,
         0.056854;-0.679142;-0.731802;,
        -0.060373; 0.699853;-0.711731;,
        -0.214992; 0.629811; 0.746402;,
         0.632753; 0.578690; 0.514531;,
         0.716380; 0.679113;-0.160017;,
         0.622547; 0.654788;-0.428588;,
         0.336094; 0.654745;-0.677016;,
         0.056854; 0.679142;-0.731802;,
        -0.718926;-0.678691;-0.150079;,
        -0.642951;-0.583232; 0.496442;,
        -0.642951; 0.583232; 0.496442;,
        -0.718926; 0.678691;-0.150079;,
        -0.198769; 0.791647; 0.577743;,
        -0.250498; 0.638345; 0.727851;,
        -0.005263; 0.711835; 0.702327;,
        -0.005334; 0.702439; 0.711724;,
        -0.214992;-0.629811; 0.746402;,
        -0.198769;-0.791647; 0.577743;,
        -0.050002;-0.717452;-0.694811;,
        -0.060373;-0.699853;-0.711731;,
        -0.214992;-0.629811; 0.746402;,
        -0.060373;-0.699853;-0.711731;,
         0.056854;-0.679142;-0.731802;,
         0.336094;-0.654745;-0.677016;,
         0.622547;-0.654788;-0.428588;,
         0.716380;-0.679113;-0.160017;,
         0.632753;-0.578690; 0.514531;,
        -0.050002; 0.717452;-0.694811;,
         0.009838; 0.716358;-0.697664;,
        -0.005334; 0.702439; 0.711724;,
        -0.198769; 0.791647; 0.577743;,
        -0.060373; 0.699853;-0.711731;,
        -0.050002; 0.717452;-0.694811;,
        -0.198769; 0.791647; 0.577743;,
        -0.214992; 0.629811; 0.746402;,
         0.143339; 0.348148; 0.926416;,
         0.524135; 0.568717; 0.633911;,
         0.524134;-0.568717; 0.633911;,
         0.143339;-0.348148; 0.926416;,
        -0.060373;-0.699853;-0.711731;,
        -0.050002;-0.717452;-0.694811;,
        -0.050002; 0.717452;-0.694811;,
        -0.060373; 0.699853;-0.711731;,
         0.009838; 0.716358;-0.697664;,
         0.063815; 0.715475;-0.695718;,
        -0.043234; 0.699931; 0.712901;,
        -0.005334; 0.702439; 0.711724;,
        -0.198769;-0.791647; 0.577743;,
        -0.005334;-0.702439; 0.711724;,
         0.009838;-0.716358;-0.697664;,
        -0.050002;-0.717452;-0.694811;,
        -0.005334;-0.702439; 0.711724;,
        -0.005263;-0.711835; 0.702327;,
        -0.250498;-0.638345; 0.727851;,
        -0.198769;-0.791647; 0.577743;,
        -0.050002;-0.717452;-0.694811;,
         0.009838;-0.716358;-0.697664;,
         0.009838; 0.716358;-0.697664;,
        -0.050002; 0.717452;-0.694811;,
         0.208484; 0.824574; 0.525940;,
         0.289685; 0.617933; 0.730918;,
         0.179152; 0.836294; 0.518187;,
         0.258560; 0.611324; 0.747951;,
        -0.005334;-0.702439; 0.711724;,
        -0.043234;-0.699931; 0.712901;,
         0.063815;-0.715475;-0.695718;,
         0.009838;-0.716358;-0.697664;,
        -0.198769;-0.791647; 0.577743;,
        -0.250498;-0.638345; 0.727851;,
        -0.164253;-0.804996; 0.570089;,
        -0.215008;-0.629742; 0.746456;,
         0.009838;-0.716358;-0.697664;,
         0.063815;-0.715475;-0.695718;,
         0.063815; 0.715475;-0.695718;,
         0.009838; 0.716358;-0.697664;,
         0.096859; 0.709274;-0.698247;,
         0.087844; 0.701786;-0.706951;,
         0.258582; 0.611237; 0.748013;,
         0.208484; 0.824573; 0.525940;,
         0.063815;-0.715475;-0.695718;,
         0.096859;-0.709274;-0.698247;,
         0.096859; 0.709274;-0.698247;,
         0.063815; 0.715475;-0.695718;,
         0.063815; 0.715475;-0.695718;,
         0.096859; 0.709274;-0.698247;,
         0.208484; 0.824573; 0.525940;,
        -0.043234; 0.699931; 0.712901;,
        -0.043234;-0.699931; 0.712901;,
         0.208484;-0.824573; 0.525940;,
         0.096859;-0.709274;-0.698247;,
         0.063815;-0.715475;-0.695718;,
         0.087844; 0.701786;-0.706951;,
        -0.023370; 0.678723;-0.734023;,
        -0.316844; 0.652131;-0.688720;,
        -0.623581; 0.652234;-0.430974;,
        -0.718926; 0.678691;-0.150079;,
        -0.642951; 0.583232; 0.496442;,
         0.258582; 0.611237; 0.748013;,
         0.208484;-0.824573; 0.525940;,
         0.258582;-0.611237; 0.748014;,
         0.087844;-0.701786;-0.706951;,
         0.096859;-0.709274;-0.698247;,
         0.258560;-0.611323; 0.747951;,
         0.179152;-0.836294; 0.518187;,
         0.289685;-0.617933; 0.730918;,
         0.208484;-0.824573; 0.525940;,
         0.096859;-0.709274;-0.698247;,
         0.087844;-0.701786;-0.706951;,
         0.087844; 0.701786;-0.706951;,
         0.096859; 0.709274;-0.698247;,
         0.087844;-0.701786;-0.706951;,
        -0.023370;-0.678723;-0.734023;,
        -0.023370; 0.678723;-0.734023;,
         0.087844; 0.701786;-0.706951;,
        -0.215008; 0.629742; 0.746456;,
        -0.164253; 0.804996; 0.570089;,
        -0.250498; 0.638345; 0.727851;,
        -0.198769; 0.791647; 0.577743;,
         0.258582;-0.611237; 0.748014;,
        -0.642951;-0.583232; 0.496442;,
        -0.718926;-0.678691;-0.150079;,
        -0.623581;-0.652234;-0.430974;,
        -0.316844;-0.652131;-0.688720;,
        -0.023370;-0.678723;-0.734023;,
         0.087844;-0.701786;-0.706951;,
         0.716380;-0.679113;-0.160017;,
         0.622547;-0.654788;-0.428588;,
         0.622547; 0.654788;-0.428588;,
         0.716380; 0.679113;-0.160017;,
         0.622547;-0.654788;-0.428588;,
         0.336094;-0.654745;-0.677016;,
         0.336094; 0.654745;-0.677016;,
         0.622547; 0.654788;-0.428588;,
         0.336094;-0.654745;-0.677016;,
         0.056854;-0.679142;-0.731802;,
         0.056854; 0.679142;-0.731802;,
         0.336094; 0.654745;-0.677016;,
        -0.718926; 0.678691;-0.150079;,
        -0.623581; 0.652234;-0.430974;,
        -0.623581;-0.652234;-0.430974;,
        -0.718926;-0.678691;-0.150079;,
        -0.623581; 0.652234;-0.430974;,
        -0.316844; 0.652131;-0.688720;,
        -0.316844;-0.652131;-0.688720;,
        -0.623581;-0.652234;-0.430974;,
        -0.316844; 0.652131;-0.688720;,
        -0.023370; 0.678723;-0.734023;,
        -0.023370;-0.678723;-0.734023;,
        -0.316844;-0.652131;-0.688720;,
         0.716380; 0.679113;-0.160017;,
         0.632753; 0.578690; 0.514531;,
         0.632753;-0.578690; 0.514531;,
         0.716380;-0.679113;-0.160017;,
        -0.215008; 0.629742; 0.746456;,
        -0.214992;-0.629811; 0.746402;,
         0.632753;-0.578690; 0.514531;,
        -0.202735; 0.333553; 0.920674;,
        -0.202735;-0.333553; 0.920674;,
         0.632753; 0.578690; 0.514531;,
        -0.214992; 0.629811; 0.746402;,
        -0.215008;-0.629742; 0.746456;,
        -0.202735; 0.333553; 0.920674;,
         0.632753;-0.578690; 0.514531;,
         0.632753; 0.578690; 0.514531;,
        -0.202735;-0.333553; 0.920674;,
        -0.198769; 0.791647; 0.577743;,
        -0.198769;-0.791647; 0.577743;,
        -0.214992;-0.629811; 0.746402;,
        -0.215008; 0.629742; 0.746456;,
        -0.215008;-0.629742; 0.746456;,
        -0.214992; 0.629811; 0.746402;,
        -0.198769; 0.791647; 0.577743;,
        -0.198769;-0.791647; 0.577743;,
        -0.198769;-0.791647; 0.577743;,
        -0.198769; 0.791647; 0.577743;,
        -0.005334; 0.702439; 0.711724;,
        -0.005334;-0.702439; 0.711724;,
        -0.005334; 0.702439; 0.711724;,
        -0.005334;-0.702439; 0.711724;,
        -0.198769;-0.791647; 0.577743;,
        -0.198769; 0.791647; 0.577743;,
        -0.005334;-0.702439; 0.711724;,
        -0.005334; 0.702439; 0.711724;,
        -0.043234; 0.699931; 0.712901;,
        -0.043234;-0.699931; 0.712900;,
        -0.043234; 0.699931; 0.712900;,
        -0.043234;-0.699931; 0.712901;,
        -0.005334;-0.702439; 0.711724;,
        -0.005334; 0.702439; 0.711724;,
         0.208484; 0.824574; 0.525940;,
         0.208484;-0.824573; 0.525940;,
        -0.043234;-0.699931; 0.712901;,
        -0.043234; 0.699931; 0.712900;,
        -0.043234;-0.699931; 0.712900;,
        -0.043234; 0.699931; 0.712901;,
         0.208484; 0.824573; 0.525940;,
         0.208484;-0.824573; 0.525940;,
         0.208484;-0.824573; 0.525940;,
         0.208484; 0.824573; 0.525940;,
         0.258582; 0.611237; 0.748013;,
         0.258560;-0.611323; 0.747951;,
         0.258560; 0.611324; 0.747951;,
         0.258582;-0.611237; 0.748014;,
         0.208484;-0.824573; 0.525940;,
         0.208484; 0.824574; 0.525940;,
         0.143339;-0.348148; 0.926416;,
        -0.642951; 0.583232; 0.496442;,
        -0.642951;-0.583232; 0.496442;,
         0.143339; 0.348148; 0.926416;,
         0.143339; 0.348148; 0.926416;,
        -0.642951;-0.583232; 0.496442;,
         0.258582;-0.611237; 0.748014;,
         0.258560; 0.611324; 0.747951;,
         0.258560;-0.611323; 0.747951;,
         0.258582; 0.611237; 0.748013;,
        -0.642951; 0.583232; 0.496442;,
         0.143339;-0.348148; 0.926416;,
        -0.164253;-0.804996; 0.570089;,
        -0.164253; 0.804996; 0.570089;,
        -0.548014; 0.571212; 0.611063;,
        -0.548014;-0.571212; 0.611063;,
        -0.164253;-0.804996; 0.570089;,
        -0.250498;-0.638345; 0.727851;,
        -0.250498; 0.638345; 0.727851;,
        -0.164253; 0.804996; 0.570089;,
        -0.250498;-0.638345; 0.727851;,
        -0.005263;-0.711835; 0.702327;,
        -0.005263; 0.711835; 0.702327;,
        -0.250498; 0.638345; 0.727851;,
        -0.042398;-0.714441; 0.698410;,
         0.289685;-0.617933; 0.730918;,
         0.289685; 0.617933; 0.730918;,
        -0.042398; 0.714441; 0.698410;,
        -0.005263;-0.711835; 0.702327;,
        -0.042398;-0.714441; 0.698410;,
        -0.042398; 0.714441; 0.698410;,
        -0.005263; 0.711835; 0.702327;,
         0.289685;-0.617933; 0.730918;,
         0.179152;-0.836294; 0.518187;,
         0.179152; 0.836294; 0.518187;,
         0.289685; 0.617933; 0.730918;,
         0.179152;-0.836294; 0.518187;,
         0.524134;-0.568717; 0.633911;,
         0.524135; 0.568717; 0.633911;,
         0.179152; 0.836294; 0.518187;,
         0.258560; 0.611324; 0.747951;,
         0.179152; 0.836294; 0.518187;,
         0.524135; 0.568717; 0.633911;,
         0.143339; 0.348148; 0.926416;,
        -0.043234;-0.699931; 0.712900;,
        -0.042398;-0.714441; 0.698410;,
        -0.005263;-0.711835; 0.702327;,
        -0.005334;-0.702439; 0.711724;,
        -0.202735; 0.333553; 0.920674;,
        -0.548014; 0.571212; 0.611063;,
        -0.164253; 0.804996; 0.570089;,
        -0.215008; 0.629742; 0.746456;,
         0.143339;-0.348148; 0.926416;,
         0.524134;-0.568717; 0.633911;,
         0.179152;-0.836294; 0.518187;,
         0.258560;-0.611323; 0.747951;,
        -0.005334; 0.702439; 0.711724;,
        -0.005263; 0.711835; 0.702327;,
        -0.042398; 0.714441; 0.698410;,
        -0.043234; 0.699931; 0.712900;,
        -0.215008;-0.629742; 0.746456;,
        -0.164253;-0.804996; 0.570089;,
        -0.548014;-0.571212; 0.611063;,
        -0.202735;-0.333553; 0.920674;,
        -0.043234; 0.699931; 0.712900;,
        -0.042398; 0.714441; 0.698410;,
         0.289685; 0.617933; 0.730918;,
         0.208484; 0.824574; 0.525940;,
        -0.202735;-0.333553; 0.920674;,
        -0.548014;-0.571212; 0.611063;,
        -0.548014; 0.571212; 0.611063;,
        -0.202735; 0.333553; 0.920674;,
         0.208484;-0.824573; 0.525940;,
         0.289685;-0.617933; 0.730918;,
        -0.042398;-0.714441; 0.698410;,
        -0.043234;-0.699931; 0.712900;,
        -0.630298;-0.000155;-0.776353;,
        -0.747228;-0.369330;-0.552491;,
         0.747229;-0.369327;-0.552492;,
         0.630298;-0.000154;-0.776353;,
        -0.630126; 0.776493;-0.000517;,
        -0.630274; 0.548930; 0.549027;,
         0.630274; 0.548929; 0.549027;,
         0.630126; 0.776493;-0.000517;,
        -0.630274; 0.548930; 0.549027;,
        -0.630265; 0.000000; 0.776380;,
         0.630265;-0.000000; 0.776380;,
         0.630274; 0.548929; 0.549027;,
        -0.630265; 0.000000; 0.776380;,
        -0.630274;-0.548930; 0.549027;,
         0.630274;-0.548930; 0.549027;,
         0.630265;-0.000000; 0.776380;,
        -0.630274;-0.548930; 0.549027;,
        -0.630226;-0.776412;-0.000048;,
         0.630226;-0.776412;-0.000048;,
         0.630274;-0.548930; 0.549027;,
        -0.630226;-0.776412;-0.000048;,
        -0.630285;-0.548890;-0.549055;,
         0.630285;-0.548890;-0.549055;,
         0.630226;-0.776412;-0.000048;,
        -0.630285;-0.548890;-0.549055;,
        -0.630298;-0.000155;-0.776353;,
         0.630298;-0.000154;-0.776353;,
         0.630285;-0.548890;-0.549055;,
        -0.904534;-0.301511; 0.301511;,
        -0.630274; 0.548930; 0.549027;,
        -0.630126; 0.776493;-0.000517;,
        -0.630298;-0.000155;-0.776353;,
        -0.747228;-0.369329;-0.552491;,
         0.747228;-0.369329;-0.552491;,
         0.630298;-0.000155;-0.776353;,
        -0.630126; 0.776493;-0.000517;,
        -0.630274; 0.548930; 0.549027;,
         0.630274; 0.548930; 0.549027;,
         0.630126; 0.776493;-0.000517;,
        -0.630274; 0.548930; 0.549027;,
        -0.630265; 0.000000; 0.776380;,
         0.630265; 0.000000; 0.776380;,
         0.630274; 0.548930; 0.549027;,
        -0.630265; 0.000000; 0.776380;,
        -0.630274;-0.548930; 0.549027;,
         0.630274;-0.548930; 0.549027;,
         0.630265; 0.000000; 0.776380;,
        -0.630274;-0.548930; 0.549027;,
        -0.630225;-0.776412;-0.000048;,
         0.630226;-0.776412;-0.000048;,
         0.630274;-0.548930; 0.549027;,
        -0.630225;-0.776412;-0.000048;,
        -0.630285;-0.548890;-0.549055;,
         0.630284;-0.548890;-0.549055;,
         0.630226;-0.776412;-0.000048;,
        -0.630285;-0.548890;-0.549055;,
        -0.630298;-0.000155;-0.776353;,
         0.630298;-0.000155;-0.776353;,
         0.630284;-0.548890;-0.549055;,
        -0.904534;-0.301511; 0.301511;,
        -0.630274; 0.548930; 0.549027;,
        -0.630126; 0.776493;-0.000517;,
        -0.630298; 0.000155;-0.776353;,
         0.630298; 0.000154;-0.776353;,
         0.747229; 0.369326;-0.552492;,
        -0.747228; 0.369330;-0.552491;,
        -0.630126;-0.776493;-0.000518;,
         0.630126;-0.776493;-0.000518;,
         0.630274;-0.548930; 0.549027;,
        -0.630274;-0.548930; 0.549027;,
        -0.630274;-0.548930; 0.549027;,
         0.630274;-0.548930; 0.549027;,
         0.630265;-0.000000; 0.776380;,
        -0.630265;-0.000000; 0.776380;,
        -0.630265;-0.000000; 0.776380;,
         0.630265;-0.000000; 0.776380;,
         0.630275; 0.548930; 0.549027;,
        -0.630274; 0.548930; 0.549027;,
        -0.630274; 0.548930; 0.549027;,
         0.630275; 0.548930; 0.549027;,
         0.630226; 0.776412;-0.000048;,
        -0.630226; 0.776412;-0.000048;,
        -0.630226; 0.776412;-0.000048;,
         0.630226; 0.776412;-0.000048;,
         0.630285; 0.548890;-0.549055;,
        -0.630285; 0.548890;-0.549055;,
        -0.630285; 0.548890;-0.549055;,
         0.630285; 0.548890;-0.549055;,
         0.630298; 0.000154;-0.776353;,
        -0.630298; 0.000155;-0.776353;,
        -0.630126;-0.776493;-0.000518;,
        -0.904534; 0.301511; 0.301511;,
        -0.411077;-0.303409; 0.859627;,
        -0.630298; 0.000155;-0.776353;,
         0.630298; 0.000155;-0.776353;,
         0.747228; 0.369329;-0.552491;,
        -0.747228; 0.369329;-0.552491;,
        -0.630126;-0.776493;-0.000518;,
         0.630126;-0.776493;-0.000518;,
         0.630274;-0.548930; 0.549027;,
        -0.630274;-0.548930; 0.549027;,
        -0.630274;-0.548930; 0.549027;,
         0.630274;-0.548930; 0.549027;,
         0.630265; 0.000000; 0.776380;,
        -0.630265; 0.000000; 0.776380;,
        -0.630265; 0.000000; 0.776380;,
         0.630265; 0.000000; 0.776380;,
         0.630274; 0.548930; 0.549027;,
        -0.630274; 0.548930; 0.549027;,
        -0.630274; 0.548930; 0.549027;,
         0.630274; 0.548930; 0.549027;,
         0.630226; 0.776412;-0.000048;,
        -0.630225; 0.776412;-0.000048;,
        -0.630225; 0.776412;-0.000048;,
         0.630226; 0.776412;-0.000048;,
         0.630285; 0.548890;-0.549055;,
        -0.630285; 0.548890;-0.549055;,
        -0.630285; 0.548890;-0.549055;,
         0.630285; 0.548890;-0.549055;,
         0.630298; 0.000155;-0.776353;,
        -0.630298; 0.000155;-0.776353;,
        -0.630126;-0.776493;-0.000518;,
        -0.904534; 0.301511; 0.301511;,
        -0.748020;-0.552102; 0.368306;,
         0.142784;-0.732415;-0.665719;,
        -0.304177;-0.297646;-0.904922;,
        -0.683965;-0.729505; 0.003784;,
         0.208198;-0.978087; 0.000527;,
         0.276871;-0.246253;-0.928817;,
        -0.110606;-0.665466;-0.738188;,
        -0.220531;-0.973634; 0.058330;,
         0.638098;-0.754242;-0.154757;,
        -0.731543;-0.152952;-0.664418;,
        -0.828079; 0.173571;-0.533065;,
        -0.949728; 0.186853; 0.251201;,
        -0.949728;-0.186853; 0.251201;,
         0.600151; 0.569682;-0.561498;,
        -0.656409; 0.564818;-0.500107;,
        -0.489104; 0.592623; 0.639981;,
        -0.904534; 0.301511; 0.301511;,
        -0.747228; 0.369330;-0.552491;,
         0.747229; 0.369326;-0.552492;,
         0.904534; 0.301511; 0.301511;,
        -0.904534; 0.301511; 0.301511;,
        -0.747228; 0.369329;-0.552491;,
         0.747228; 0.369329;-0.552491;,
         0.904534; 0.301511; 0.301511;,
         0.555602; 0.581013; 0.594752;,
        -0.411077; 0.303409; 0.859627;,
        -0.411077;-0.303409; 0.859627;,
        -0.904534; 0.301511; 0.301511;,
        -0.489104; 0.592623; 0.639981;,
        -0.489104;-0.592623; 0.639981;,
        -0.904534;-0.301511; 0.301511;,
         0.555602;-0.581013; 0.594753;,
         0.904534;-0.301511; 0.301511;,
         0.747228;-0.369329;-0.552491;,
        -0.747228;-0.369329;-0.552491;,
        -0.904534;-0.301511; 0.301511;,
         0.904534;-0.301511; 0.301511;,
         0.747229;-0.369327;-0.552492;,
        -0.747228;-0.369330;-0.552491;,
        -0.904534;-0.301511; 0.301511;,
        -0.489104;-0.592623; 0.639981;,
        -0.653837;-0.568882;-0.498870;,
         0.597614;-0.573739;-0.560073;,
         0.555602; 0.581013; 0.594752;,
         0.555602;-0.581013; 0.594753;,
         0.597614;-0.573739;-0.560073;,
         0.600151; 0.569682;-0.561498;,
        -0.489104;-0.592623; 0.639981;,
        -0.489104; 0.592623; 0.639981;,
        -0.656409; 0.564818;-0.500107;,
        -0.653837;-0.568882;-0.498870;,
         0.597614;-0.573739;-0.560073;,
        -0.304177;-0.297646;-0.904922;,
         0.142784;-0.732415;-0.665719;,
         0.547364;-0.551127;-0.629803;,
         0.731926;-0.146302;-0.665493;,
         0.644041; 0.129025;-0.754032;,
        -0.001437;-0.009137;-0.999957;,
         0.600151; 0.569682;-0.561498;,
         0.276871;-0.246253;-0.928817;,
        -0.304171; 0.297643;-0.904925;,
        -0.304177;-0.297646;-0.904922;,
        -0.304177;-0.297646;-0.904922;,
        -0.304171; 0.297643;-0.904925;,
        -0.683965; 0.729505; 0.003784;,
        -0.683965;-0.729505; 0.003784;,
         0.638098; 0.754242;-0.154757;,
        -0.220531; 0.973634; 0.058330;,
        -0.124916; 0.752915;-0.646154;,
         0.276869; 0.246242;-0.928821;,
        -0.656409; 0.564818;-0.500107;,
         0.276869; 0.246242;-0.928821;,
        -0.124916; 0.752915;-0.646154;,
        -0.570316; 0.634432;-0.521762;,
        -0.828079; 0.173571;-0.533065;,
        -0.731543;-0.152952;-0.664418;,
         0.000277;-0.019798;-0.999804;,
        -0.653837;-0.568882;-0.498870;,
         0.276869; 0.246242;-0.928821;,
         0.276871;-0.246253;-0.928817;,
         0.638098;-0.754242;-0.154757;,
         0.638098; 0.754242;-0.154757;,
         0.208198; 0.978087; 0.000527;,
        -0.683965; 0.729505; 0.003784;,
        -0.304171; 0.297643;-0.904925;,
         0.125596; 0.644896;-0.753880;,
         0.644041; 0.129025;-0.754032;,
         0.418493; 0.422022;-0.804215;,
        -0.001437;-0.009137;-0.999957;,
         0.418493; 0.422022;-0.804215;,
         0.125596; 0.644896;-0.753880;,
        -0.001437;-0.009137;-0.999957;,
         0.644041; 0.129025;-0.754032;,
         0.981247; 0.192739; 0.002540;,
         0.720482; 0.693471; 0.001850;,
         0.418493; 0.422022;-0.804215;,
         0.418493; 0.422022;-0.804215;,
         0.720482; 0.693471; 0.001850;,
         0.208198; 0.978087; 0.000527;,
         0.125596; 0.644896;-0.753880;,
         0.981247;-0.192739; 0.002540;,
         0.731926;-0.146302;-0.665493;,
         0.547364;-0.551127;-0.629803;,
         0.720482;-0.693471; 0.001850;,
         0.720482;-0.693471; 0.001850;,
         0.547364;-0.551127;-0.629803;,
         0.142784;-0.732415;-0.665719;,
         0.208198;-0.978087; 0.000527;,
         0.644041; 0.129025;-0.754032;,
         0.731926;-0.146302;-0.665493;,
         0.981247;-0.192739; 0.002540;,
         0.981247; 0.192739; 0.002540;,
        -0.731543;-0.152952;-0.664418;,
        -0.442418;-0.490954;-0.750487;,
         0.000277;-0.019798;-0.999804;,
        -0.442418;-0.490954;-0.750487;,
        -0.110606;-0.665466;-0.738188;,
         0.000277;-0.019798;-0.999804;,
        -0.731543;-0.152952;-0.664418;,
        -0.949728;-0.186853; 0.251201;,
        -0.717053;-0.670719; 0.189660;,
        -0.442418;-0.490954;-0.750487;,
        -0.442418;-0.490954;-0.750487;,
        -0.717053;-0.670719; 0.189660;,
        -0.220531;-0.973634; 0.058330;,
        -0.110606;-0.665466;-0.738188;,
        -0.949728; 0.186853; 0.251201;,
        -0.828079; 0.173571;-0.533065;,
        -0.570316; 0.634432;-0.521762;,
        -0.717053; 0.670719; 0.189660;,
        -0.717053; 0.670719; 0.189660;,
        -0.570316; 0.634432;-0.521762;,
        -0.124916; 0.752915;-0.646154;,
        -0.220531; 0.973634; 0.058330;,
         0.630274; 0.548929; 0.549027;,
         0.904534;-0.301511; 0.301511;,
         0.630126; 0.776493;-0.000517;,
         0.630285; 0.548890;-0.549055;,
         0.904534; 0.301511; 0.301511;,
         0.630298; 0.000155;-0.776353;,
        -0.748020; 0.552102; 0.368307;,
        -0.630126; 0.776493;-0.000517;,
         0.630126; 0.776493;-0.000517;,
         0.411076; 0.303409; 0.859627;,
         0.411077;-0.303409; 0.859627;,
         0.630126;-0.776493;-0.000518;,
        -0.630126;-0.776493;-0.000518;,
        -0.411077;-0.303409; 0.859627;,
         0.630274; 0.548930; 0.549027;,
         0.904534;-0.301511; 0.301511;,
         0.630126; 0.776493;-0.000517;,
         0.630285; 0.548890;-0.549055;,
         0.904534; 0.301511; 0.301511;,
         0.630298; 0.000154;-0.776353;,
        -0.411077; 0.303409; 0.859627;,
        -0.630126; 0.776493;-0.000517;,
         0.630126; 0.776493;-0.000517;,
         0.411077; 0.303409; 0.859627;,
         0.411076;-0.303409; 0.859627;,
         0.630126;-0.776493;-0.000518;,
        -0.630126;-0.776493;-0.000518;,
        -0.748020;-0.552102; 0.368306;,
        -0.630285;-0.548890;-0.549055;,
        -0.904534;-0.301511; 0.301511;,
        -0.630298;-0.000155;-0.776353;,
        -0.630298;-0.000155;-0.776353;,
        -0.904534;-0.301511; 0.301511;,
        -0.747228;-0.369330;-0.552491;,
        -0.904534;-0.301511; 0.301511;,
        -0.630126; 0.776493;-0.000517;,
        -0.411077; 0.303409; 0.859627;,
        -0.630274;-0.548930; 0.549027;,
        -0.904534;-0.301511; 0.301511;,
        -0.630226;-0.776412;-0.000048;,
        -0.630226;-0.776412;-0.000048;,
        -0.904534;-0.301511; 0.301511;,
        -0.630285;-0.548890;-0.549055;,
        -0.630274; 0.548930; 0.549027;,
        -0.904534;-0.301511; 0.301511;,
        -0.630265; 0.000000; 0.776380;,
        -0.630265; 0.000000; 0.776380;,
        -0.904534;-0.301511; 0.301511;,
        -0.630274;-0.548930; 0.549027;,
        -0.630285;-0.548890;-0.549055;,
        -0.904534;-0.301511; 0.301511;,
        -0.630298;-0.000155;-0.776353;,
        -0.630298;-0.000155;-0.776353;,
        -0.904534;-0.301511; 0.301511;,
        -0.747228;-0.369329;-0.552491;,
        -0.904534;-0.301511; 0.301511;,
        -0.630126; 0.776493;-0.000517;,
        -0.748020; 0.552102; 0.368307;,
        -0.630274;-0.548930; 0.549027;,
        -0.904534;-0.301511; 0.301511;,
        -0.630225;-0.776412;-0.000048;,
        -0.630225;-0.776412;-0.000048;,
        -0.904534;-0.301511; 0.301511;,
        -0.630285;-0.548890;-0.549055;,
        -0.630274; 0.548930; 0.549027;,
        -0.904534;-0.301511; 0.301511;,
        -0.630265; 0.000000; 0.776380;,
        -0.630265; 0.000000; 0.776380;,
        -0.904534;-0.301511; 0.301511;,
        -0.630274;-0.548930; 0.549027;,
        -0.747228; 0.369330;-0.552491;,
        -0.904534; 0.301511; 0.301511;,
        -0.630298; 0.000155;-0.776353;,
        -0.630298; 0.000155;-0.776353;,
        -0.904534; 0.301511; 0.301511;,
        -0.630285; 0.548890;-0.549055;,
        -0.630285; 0.548890;-0.549055;,
        -0.904534; 0.301511; 0.301511;,
        -0.630226; 0.776412;-0.000048;,
        -0.630226; 0.776412;-0.000048;,
        -0.904534; 0.301511; 0.301511;,
        -0.630274; 0.548930; 0.549027;,
        -0.630274; 0.548930; 0.549027;,
        -0.904534; 0.301511; 0.301511;,
        -0.630265;-0.000000; 0.776380;,
        -0.630265;-0.000000; 0.776380;,
        -0.904534; 0.301511; 0.301511;,
        -0.630274;-0.548930; 0.549027;,
        -0.630274;-0.548930; 0.549027;,
        -0.904534; 0.301511; 0.301511;,
        -0.630126;-0.776493;-0.000518;,
        -0.747228; 0.369329;-0.552491;,
        -0.904534; 0.301511; 0.301511;,
        -0.630298; 0.000155;-0.776353;,
        -0.630298; 0.000155;-0.776353;,
        -0.904534; 0.301511; 0.301511;,
        -0.630285; 0.548890;-0.549055;,
        -0.630285; 0.548890;-0.549055;,
        -0.904534; 0.301511; 0.301511;,
        -0.630225; 0.776412;-0.000048;,
        -0.630225; 0.776412;-0.000048;,
        -0.904534; 0.301511; 0.301511;,
        -0.630274; 0.548930; 0.549027;,
        -0.630274; 0.548930; 0.549027;,
        -0.904534; 0.301511; 0.301511;,
        -0.630265; 0.000000; 0.776380;,
        -0.630265; 0.000000; 0.776380;,
        -0.904534; 0.301511; 0.301511;,
        -0.630274;-0.548930; 0.549027;,
        -0.630274;-0.548930; 0.549027;,
        -0.904534; 0.301511; 0.301511;,
        -0.630126;-0.776493;-0.000518;,
         0.630126; 0.776493;-0.000517;,
         0.904534;-0.301511; 0.301511;,
         0.411077; 0.303409; 0.859627;,
         0.904534;-0.301511; 0.301511;,
         0.630298;-0.000154;-0.776353;,
         0.747229;-0.369327;-0.552492;,
         0.630298;-0.000154;-0.776353;,
         0.904534;-0.301511; 0.301511;,
         0.630285;-0.548890;-0.549055;,
         0.630285;-0.548890;-0.549055;,
         0.904534;-0.301511; 0.301511;,
         0.630226;-0.776412;-0.000048;,
         0.630226;-0.776412;-0.000048;,
         0.904534;-0.301511; 0.301511;,
         0.630274;-0.548930; 0.549027;,
         0.630274;-0.548930; 0.549027;,
         0.904534;-0.301511; 0.301511;,
         0.630265;-0.000000; 0.776380;,
         0.630265;-0.000000; 0.776380;,
         0.904534;-0.301511; 0.301511;,
         0.630274; 0.548929; 0.549027;,
         0.630298; 0.000155;-0.776353;,
         0.904534; 0.301511; 0.301511;,
         0.747228; 0.369329;-0.552491;,
         0.904534; 0.301511; 0.301511;,
         0.630126;-0.776493;-0.000518;,
         0.411076;-0.303409; 0.859627;,
         0.630126;-0.776493;-0.000518;,
         0.904534; 0.301511; 0.301511;,
         0.630274;-0.548930; 0.549027;,
         0.630274;-0.548930; 0.549027;,
         0.904534; 0.301511; 0.301511;,
         0.630265; 0.000000; 0.776380;,
         0.630265; 0.000000; 0.776380;,
         0.904534; 0.301511; 0.301511;,
         0.630274; 0.548930; 0.549027;,
         0.630274; 0.548930; 0.549027;,
         0.904534; 0.301511; 0.301511;,
         0.630226; 0.776412;-0.000048;,
         0.630226; 0.776412;-0.000048;,
         0.904534; 0.301511; 0.301511;,
         0.630285; 0.548890;-0.549055;,
         0.630126; 0.776493;-0.000517;,
         0.904534;-0.301511; 0.301511;,
         0.411076; 0.303409; 0.859627;,
         0.904534;-0.301511; 0.301511;,
         0.630298;-0.000155;-0.776353;,
         0.747228;-0.369329;-0.552491;,
         0.630298;-0.000155;-0.776353;,
         0.904534;-0.301511; 0.301511;,
         0.630284;-0.548890;-0.549055;,
         0.630284;-0.548890;-0.549055;,
         0.904534;-0.301511; 0.301511;,
         0.630226;-0.776412;-0.000048;,
         0.630226;-0.776412;-0.000048;,
         0.904534;-0.301511; 0.301511;,
         0.630274;-0.548930; 0.549027;,
         0.630274;-0.548930; 0.549027;,
         0.904534;-0.301511; 0.301511;,
         0.630265; 0.000000; 0.776380;,
         0.630265; 0.000000; 0.776380;,
         0.904534;-0.301511; 0.301511;,
         0.630274; 0.548930; 0.549027;,
         0.630298; 0.000154;-0.776353;,
         0.904534; 0.301511; 0.301511;,
         0.747229; 0.369326;-0.552492;,
         0.904534; 0.301511; 0.301511;,
         0.630126;-0.776493;-0.000518;,
         0.411077;-0.303409; 0.859627;,
         0.630126;-0.776493;-0.000518;,
         0.904534; 0.301511; 0.301511;,
         0.630274;-0.548930; 0.549027;,
         0.630274;-0.548930; 0.549027;,
         0.904534; 0.301511; 0.301511;,
         0.630265;-0.000000; 0.776380;,
         0.630265;-0.000000; 0.776380;,
         0.904534; 0.301511; 0.301511;,
         0.630275; 0.548930; 0.549027;,
         0.630275; 0.548930; 0.549027;,
         0.904534; 0.301511; 0.301511;,
         0.630226; 0.776412;-0.000048;,
         0.630226; 0.776412;-0.000048;,
         0.904534; 0.301511; 0.301511;,
         0.630285; 0.548890;-0.549055;,
         0.555602; 0.581013; 0.594752;,
         0.904534; 0.301511; 0.301511;,
         0.411076;-0.303409; 0.859627;,
         0.411076; 0.303409; 0.859627;,
         0.904534;-0.301511; 0.301511;,
         0.555602;-0.581013; 0.594753;,
         0.411076; 0.303409; 0.859627;,
         0.411076;-0.303409; 0.859627;,
        -0.748020;-0.552102; 0.368306;,
        -0.904534; 0.301511; 0.301511;,
         0.904534; 0.301511; 0.301511;,
         0.411077;-0.303409; 0.859627;,
         0.411077; 0.303409; 0.859627;,
         0.904534;-0.301511; 0.301511;,
        -0.904534;-0.301511; 0.301511;,
        -0.748020; 0.552102; 0.368307;,
         0.411077; 0.303409; 0.859627;,
         0.411077;-0.303409; 0.859627;,
        -0.411077;-0.303409; 0.859627;,
        -0.411077; 0.303409; 0.859627;,
        -0.001437;-0.009137;-0.999957;,
         0.125596; 0.644896;-0.753880;,
         0.600151; 0.569682;-0.561498;,
         0.600151; 0.569682;-0.561498;,
         0.276869; 0.246242;-0.928821;,
        -0.656409; 0.564818;-0.500107;,
         0.600151; 0.569682;-0.561498;,
        -0.304171; 0.297643;-0.904925;,
         0.276869; 0.246242;-0.928821;,
        -0.304171; 0.297643;-0.904925;,
         0.600151; 0.569682;-0.561498;,
         0.125596; 0.644896;-0.753880;,
        -0.653837;-0.568882;-0.498870;,
         0.276871;-0.246253;-0.928817;,
         0.597614;-0.573739;-0.560073;,
         0.597614;-0.573739;-0.560073;,
         0.276871;-0.246253;-0.928817;,
        -0.304177;-0.297646;-0.904922;,
         0.000277;-0.019798;-0.999804;,
        -0.110606;-0.665466;-0.738188;,
        -0.653837;-0.568882;-0.498870;,
         0.276871;-0.246253;-0.928817;,
        -0.653837;-0.568882;-0.498870;,
        -0.110606;-0.665466;-0.738188;,
        -0.304171; 0.297643;-0.904925;,
         0.276871;-0.246253;-0.928817;,
         0.276869; 0.246242;-0.928821;;
        204;
        4;3,2,1,0;,
        7;10,9,8,7,6,5,4;,
        4;14,13,12,11;,
        4;18,17,16,15;,
        4;22,21,20,19;,
        7;29,28,27,26,25,24,23;,
        4;33,32,31,30;,
        4;37,36,35,34;,
        4;41,40,39,38;,
        4;45,44,43,42;,
        4;49,48,47,46;,
        4;53,52,51,50;,
        4;57,56,55,54;,
        4;61,60,59,58;,
        4;65,64,63,62;,
        4;69,68,67,66;,
        4;73,72,71,70;,
        4;77,76,75,74;,
        4;81,80,79,78;,
        4;85,84,83,82;,
        4;89,88,87,86;,
        4;93,92,91,90;,
        7;100,99,98,97,96,95,94;,
        4;104,103,102,101;,
        4;108,107,106,105;,
        4;112,111,110,109;,
        4;116,115,114,113;,
        4;120,119,118,117;,
        7;127,126,125,124,123,122,121;,
        4;131,130,129,128;,
        4;135,134,133,132;,
        4;139,138,137,136;,
        4;143,142,141,140;,
        4;147,146,145,144;,
        4;151,150,149,148;,
        4;155,154,153,152;,
        4;159,158,157,156;,
        4;163,162,161,160;,
        4;167,166,165,164;,
        4;171,170,169,168;,
        4;175,174,173,172;,
        4;179,178,177,176;,
        4;183,182,181,180;,
        4;187,186,185,184;,
        4;191,190,189,188;,
        4;195,194,193,192;,
        4;199,198,197,196;,
        4;203,202,201,200;,
        4;207,206,205,204;,
        4;211,210,209,208;,
        4;215,214,213,212;,
        4;219,218,217,216;,
        4;223,222,221,220;,
        4;227,226,225,224;,
        4;231,230,229,228;,
        4;235,234,233,232;,
        4;239,238,237,236;,
        4;243,242,241,240;,
        4;247,246,245,244;,
        4;251,250,249,248;,
        4;255,254,253,252;,
        4;259,258,257,256;,
        4;263,262,261,260;,
        4;267,266,265,264;,
        4;271,270,269,268;,
        4;275,274,273,272;,
        4;279,278,277,276;,
        4;283,282,281,280;,
        4;287,286,285,284;,
        4;291,290,289,288;,
        4;295,294,293,292;,
        4;299,298,297,296;,
        4;303,302,301,300;,
        4;307,306,305,304;,
        4;311,310,309,308;,
        3;314,313,312;,
        4;318,317,316,315;,
        4;322,321,320,319;,
        4;326,325,324,323;,
        4;330,329,328,327;,
        4;334,333,332,331;,
        4;338,337,336,335;,
        4;342,341,340,339;,
        3;345,344,343;,
        4;349,348,347,346;,
        4;353,352,351,350;,
        4;357,356,355,354;,
        4;361,360,359,358;,
        4;365,364,363,362;,
        4;369,368,367,366;,
        4;373,372,371,370;,
        3;376,375,374;,
        4;380,379,378,377;,
        4;384,383,382,381;,
        4;388,387,386,385;,
        4;392,391,390,389;,
        4;396,395,394,393;,
        4;400,399,398,397;,
        4;404,403,402,401;,
        3;407,406,405;,
        4;411,410,409,408;,
        4;415,414,413,412;,
        4;419,418,417,416;,
        12;431,430,429,428,427,426,425,424,423,422,421,420;,
        6;437,436,435,434,433,432;,
        12;449,448,447,446,445,444,443,442,441,440,439,438;,
        4;453,452,451,450;,
        4;457,456,455,454;,
        8;465,464,463,462,461,460,459,458;,
        3;468,467,466;,
        4;472,471,470,469;,
        4;476,475,474,473;,
        8;484,483,482,481,480,479,478,477;,
        4;488,487,486,485;,
        4;492,491,490,489;,
        3;495,494,493;,
        3;498,497,496;,
        4;502,501,500,499;,
        4;506,505,504,503;,
        4;510,509,508,507;,
        4;514,513,512,511;,
        4;518,517,516,515;,
        3;521,520,519;,
        3;524,523,522;,
        4;528,527,526,525;,
        4;532,531,530,529;,
        4;536,535,534,533;,
        4;540,539,538,537;,
        3;543,542,541;,
        3;546,545,544;,
        4;550,549,548,547;,
        4;554,553,552,551;,
        3;557,556,555;,
        3;560,559,558;,
        4;564,563,562,561;,
        4;568,567,566,565;,
        3;571,570,569;,
        3;574,573,572;,
        3;577,576,575;,
        3;580,579,578;,
        3;583,582,581;,
        3;586,585,584;,
        3;589,588,587;,
        3;592,591,590;,
        3;595,594,593;,
        3;598,597,596;,
        3;601,600,599;,
        3;604,603,602;,
        3;607,606,605;,
        3;610,609,608;,
        3;613,612,611;,
        3;616,615,614;,
        3;619,618,617;,
        3;622,621,620;,
        3;625,624,623;,
        3;628,627,626;,
        3;631,630,629;,
        3;634,633,632;,
        3;637,636,635;,
        3;640,639,638;,
        3;643,642,641;,
        3;646,645,644;,
        3;649,648,647;,
        3;652,651,650;,
        3;655,654,653;,
        3;658,657,656;,
        3;661,660,659;,
        3;664,663,662;,
        3;667,666,665;,
        3;670,669,668;,
        3;673,672,671;,
        3;676,675,674;,
        3;679,678,677;,
        3;682,681,680;,
        3;685,684,683;,
        3;688,687,686;,
        3;691,690,689;,
        3;694,693,692;,
        3;697,696,695;,
        3;700,699,698;,
        3;703,702,701;,
        3;706,705,704;,
        3;709,708,707;,
        3;712,711,710;,
        3;715,714,713;,
        3;718,717,716;,
        3;721,720,719;,
        3;724,723,722;,
        3;727,726,725;,
        3;730,729,728;,
        3;733,732,731;,
        3;736,735,734;,
        6;742,741,740,739,738,737;,
        10;752,751,750,749,748,747,746,745,744,743;,
        4;756,755,754,753;,
        3;759,758,757;,
        3;762,761,760;,
        3;765,764,763;,
        3;768,767,766;,
        3;771,770,769;,
        3;774,773,772;,
        3;777,776,775;,
        3;780,779,778;,
        3;783,782,781;;
      }
      MeshTextureCoords {
        784;
         0.726416; 0.884421;,
         0.815850; 0.884421;,
         0.815850; 0.933842;,
         0.726416; 0.933842;,
         0.375601; 0.126570;,
         0.371136; 0.178065;,
         0.289953; 0.166550;,
         0.291738; 0.151203;,
         0.297687; 0.136085;,
         0.310349; 0.125664;,
         0.326330; 0.122733;,
         0.726416; 0.494310;,
         0.726416; 0.475770;,
         0.815850; 0.475770;,
         0.815850; 0.494310;,
         0.889492; 0.850776;,
         0.879354; 0.850776;,
         0.881998; 0.721580;,
         0.892136; 0.721580;,
         0.819394; 0.776253;,
         0.830398; 0.761799;,
         0.868788; 0.757147;,
         0.870889; 0.771788;,
         0.819394; 0.776253;,
         0.870889; 0.771788;,
         0.874726; 0.821060;,
         0.871795; 0.837041;,
         0.861374; 0.849702;,
         0.846255; 0.855651;,
         0.830909; 0.857437;,
         0.390243; 0.128671;,
         0.514614; 0.135165;,
         0.514714; 0.172104;,
         0.385590; 0.167060;,
         0.375601; 0.126570;,
         0.390243; 0.128671;,
         0.385590; 0.167060;,
         0.371136; 0.178065;,
         0.888139; 0.500001;,
         0.878001; 0.500001;,
         0.878001; 0.434055;,
         0.888139; 0.434055;,
         0.726416; 0.884421;,
         0.726416; 0.869629;,
         0.815850; 0.869629;,
         0.815850; 0.884421;,
         0.514614; 0.135165;,
         0.616308; 0.132210;,
         0.618437; 0.171822;,
         0.514714; 0.172104;,
         0.830398; 0.761799;,
         0.825355; 0.632675;,
         0.862294; 0.632776;,
         0.868788; 0.757147;,
         0.892136; 0.212477;,
         0.881998; 0.212477;,
         0.879354; 0.083281;,
         0.889492; 0.083280;,
         0.726416; 0.869629;,
         0.726416; 0.745089;,
         0.815850; 0.745089;,
         0.815850; 0.869629;,
         0.885718; 0.568952;,
         0.875580; 0.568952;,
         0.888233; 0.557941;,
         0.898371; 0.557941;,
         0.825355; 0.632675;,
         0.825637; 0.528953;,
         0.865249; 0.531081;,
         0.862294; 0.632776;,
         0.889492; 0.083280;,
         0.879354; 0.083281;,
         0.890626; 0.069034;,
         0.900764; 0.069034;,
         0.726416; 0.745089;,
         0.726416; 0.643351;,
         0.815850; 0.643351;,
         0.815850; 0.745089;,
         0.667979; 0.126885;,
         0.678592; 0.125587;,
         0.678209; 0.181379;,
         0.667435; 0.168524;,
         0.726416; 0.643351;,
         0.726416; 0.591407;,
         0.815850; 0.591407;,
         0.815850; 0.643351;,
         0.616308; 0.132210;,
         0.667979; 0.126885;,
         0.667435; 0.168524;,
         0.618437; 0.171822;,
         0.825637; 0.528953;,
         0.828935; 0.479954;,
         0.870574; 0.479410;,
         0.865249; 0.531081;,
         0.678592; 0.125587;,
         0.717025; 0.122733;,
         0.732729; 0.125742;,
         0.744628; 0.136267;,
         0.749533; 0.151487;,
         0.750428; 0.170005;,
         0.678209; 0.181379;,
         0.828935; 0.479954;,
         0.816080; 0.469180;,
         0.871872; 0.468797;,
         0.870574; 0.479410;,
         0.898371; 0.376115;,
         0.888233; 0.376115;,
         0.875580; 0.365104;,
         0.885718; 0.365104;,
         0.726416; 0.591407;,
         0.726416; 0.580715;,
         0.815850; 0.580715;,
         0.815850; 0.591407;,
         0.726416; 0.580715;,
         0.726416; 0.542177;,
         0.815850; 0.542177;,
         0.815850; 0.580715;,
         0.900764; 0.865023;,
         0.890626; 0.865023;,
         0.879354; 0.850776;,
         0.889492; 0.850776;,
         0.816080; 0.469180;,
         0.827454; 0.396961;,
         0.845972; 0.397856;,
         0.861192; 0.402761;,
         0.871716; 0.414660;,
         0.874726; 0.430365;,
         0.871872; 0.468797;,
         0.726416; 0.982734;,
         0.726416; 0.966487;,
         0.815850; 0.966487;,
         0.815850; 0.982734;,
         0.726416; 0.966487;,
         0.726416; 0.950089;,
         0.815850; 0.950089;,
         0.815850; 0.966487;,
         0.726416; 0.950089;,
         0.726416; 0.933842;,
         0.815850; 0.933842;,
         0.815850; 0.950089;,
         0.815850; 0.494310;,
         0.815850; 0.510301;,
         0.726416; 0.510301;,
         0.726416; 0.494310;,
         0.815850; 0.510301;,
         0.815850; 0.526186;,
         0.726416; 0.526186;,
         0.726416; 0.510301;,
         0.815850; 0.526186;,
         0.815850; 0.542177;,
         0.726416; 0.542177;,
         0.726416; 0.526186;,
         0.815850; 0.982734;,
         0.815850; 0.998185;,
         0.726416; 0.998185;,
         0.726416; 0.982734;,
         0.599873; 0.647195;,
         0.611617; 0.647195;,
         0.611617; 0.729191;,
         0.599873; 0.714918;,
         0.533927; 0.714918;,
         0.522183; 0.729191;,
         0.522183; 0.647195;,
         0.533927; 0.647195;,
         0.599873; 0.714918;,
         0.611617; 0.729191;,
         0.522183; 0.729191;,
         0.533927; 0.714918;,
         0.599873; 0.629029;,
         0.611617; 0.629029;,
         0.611617; 0.647195;,
         0.599873; 0.647195;,
         0.533927; 0.647195;,
         0.522183; 0.647195;,
         0.522183; 0.629029;,
         0.533927; 0.629029;,
         0.533927; 0.629029;,
         0.522183; 0.629029;,
         0.522183; 0.499806;,
         0.533927; 0.499806;,
         0.599873; 0.499806;,
         0.611617; 0.499806;,
         0.611617; 0.629029;,
         0.599873; 0.629029;,
         0.533927; 0.499806;,
         0.522183; 0.499806;,
         0.522183; 0.396083;,
         0.533927; 0.396083;,
         0.599873; 0.396083;,
         0.611617; 0.396083;,
         0.611617; 0.499806;,
         0.599873; 0.499806;,
         0.599873; 0.346974;,
         0.611617; 0.346974;,
         0.611617; 0.396083;,
         0.599873; 0.396083;,
         0.533927; 0.396083;,
         0.522183; 0.396083;,
         0.522183; 0.346974;,
         0.533927; 0.346974;,
         0.533927; 0.346974;,
         0.522183; 0.346974;,
         0.522183; 0.330201;,
         0.533927; 0.330201;,
         0.599873; 0.330201;,
         0.611617; 0.330201;,
         0.611617; 0.346974;,
         0.599873; 0.346974;,
         0.533927; 0.271364;,
         0.522183; 0.257091;,
         0.611617; 0.257091;,
         0.599873; 0.271364;,
         0.599873; 0.271364;,
         0.611617; 0.257091;,
         0.611617; 0.330201;,
         0.599873; 0.330201;,
         0.533927; 0.330201;,
         0.522183; 0.330201;,
         0.522183; 0.257091;,
         0.533927; 0.271364;,
         0.615245; 0.661470;,
         0.681191; 0.661470;,
         0.681191; 0.729193;,
         0.615245; 0.729193;,
         0.615245; 0.661470;,
         0.615245; 0.643304;,
         0.681191; 0.643304;,
         0.681191; 0.661470;,
         0.615245; 0.643304;,
         0.615245; 0.514081;,
         0.681191; 0.514081;,
         0.681191; 0.643304;,
         0.615245; 0.410358;,
         0.615245; 0.361248;,
         0.681191; 0.361248;,
         0.681191; 0.410358;,
         0.615245; 0.514081;,
         0.615245; 0.410358;,
         0.681191; 0.410358;,
         0.681191; 0.514081;,
         0.615245; 0.361248;,
         0.615245; 0.344476;,
         0.681191; 0.344476;,
         0.681191; 0.361248;,
         0.615245; 0.344476;,
         0.615245; 0.285639;,
         0.681191; 0.285639;,
         0.681191; 0.344476;,
         0.898371; 0.557941;,
         0.888233; 0.557941;,
         0.878001; 0.500001;,
         0.888139; 0.500001;,
         0.889926; 0.316176;,
         0.879788; 0.316176;,
         0.881998; 0.212477;,
         0.892136; 0.212477;,
         0.892501; 0.932240;,
         0.882363; 0.932240;,
         0.890626; 0.865023;,
         0.900764; 0.865023;,
         0.888139; 0.434055;,
         0.878001; 0.434055;,
         0.888233; 0.376115;,
         0.898371; 0.376115;,
         0.892136; 0.721580;,
         0.881998; 0.721580;,
         0.879788; 0.617881;,
         0.889926; 0.617881;,
         0.900764; 0.069034;,
         0.890626; 0.069034;,
         0.882363; 0.001816;,
         0.892501; 0.001816;,
         0.889926; 0.617881;,
         0.879788; 0.617881;,
         0.875580; 0.568952;,
         0.885718; 0.568952;,
         0.892501; 0.998186;,
         0.882363; 0.998186;,
         0.882363; 0.932240;,
         0.892501; 0.932240;,
         0.885718; 0.365104;,
         0.875580; 0.365104;,
         0.879788; 0.316176;,
         0.889926; 0.316176;,
         0.694672; 0.994831;,
         0.694672; 0.998183;,
         0.625762; 0.998183;,
         0.625762; 0.994831;,
         0.694672; 0.883248;,
         0.694672; 0.901845;,
         0.625762; 0.901846;,
         0.625762; 0.883248;,
         0.694672; 0.901845;,
         0.694672; 0.920443;,
         0.625762; 0.920443;,
         0.625762; 0.901846;,
         0.694672; 0.920443;,
         0.694672; 0.939040;,
         0.625762; 0.939040;,
         0.625762; 0.920443;,
         0.694672; 0.939040;,
         0.694672; 0.957637;,
         0.625762; 0.957637;,
         0.625762; 0.939040;,
         0.694672; 0.957637;,
         0.694672; 0.976234;,
         0.625762; 0.976234;,
         0.625762; 0.957637;,
         0.694672; 0.976234;,
         0.694672; 0.994831;,
         0.625762; 0.994831;,
         0.625762; 0.976234;,
         0.858647; 0.891909;,
         0.881246; 0.897794;,
         0.868096; 0.910944;,
         0.594907; 0.994831;,
         0.594907; 0.998182;,
         0.545437; 0.998183;,
         0.545437; 0.994831;,
         0.594907; 0.883248;,
         0.594907; 0.901845;,
         0.545437; 0.901846;,
         0.545437; 0.883248;,
         0.594907; 0.901845;,
         0.594907; 0.920443;,
         0.545437; 0.920443;,
         0.545437; 0.901846;,
         0.594907; 0.920443;,
         0.594907; 0.939040;,
         0.545437; 0.939040;,
         0.545437; 0.920443;,
         0.594907; 0.939040;,
         0.594907; 0.957637;,
         0.545437; 0.957637;,
         0.545437; 0.939040;,
         0.594907; 0.957637;,
         0.594907; 0.976234;,
         0.545437; 0.976234;,
         0.545437; 0.957637;,
         0.594907; 0.976234;,
         0.594907; 0.994831;,
         0.545437; 0.994831;,
         0.545437; 0.976234;,
         0.559852; 0.656847;,
         0.582451; 0.662732;,
         0.569301; 0.675882;,
         0.694672; 0.737259;,
         0.625762; 0.737259;,
         0.625762; 0.733908;,
         0.694672; 0.733908;,
         0.694672; 0.848842;,
         0.625762; 0.848842;,
         0.625762; 0.830245;,
         0.694672; 0.830245;,
         0.694672; 0.830245;,
         0.625762; 0.830245;,
         0.625762; 0.811648;,
         0.694672; 0.811647;,
         0.694672; 0.811647;,
         0.625762; 0.811648;,
         0.625762; 0.793050;,
         0.694672; 0.793050;,
         0.694672; 0.793050;,
         0.625762; 0.793050;,
         0.625762; 0.774453;,
         0.694672; 0.774453;,
         0.694672; 0.774453;,
         0.625762; 0.774453;,
         0.625762; 0.755856;,
         0.694672; 0.755856;,
         0.694672; 0.755856;,
         0.625762; 0.755856;,
         0.625762; 0.737259;,
         0.694672; 0.737259;,
         0.962373; 0.954311;,
         0.942231; 0.961090;,
         0.961267; 0.953205;,
         0.594907; 0.737259;,
         0.545437; 0.737259;,
         0.545437; 0.733908;,
         0.594907; 0.733908;,
         0.594907; 0.848842;,
         0.545437; 0.848842;,
         0.545437; 0.830245;,
         0.594907; 0.830245;,
         0.594907; 0.830245;,
         0.545437; 0.830245;,
         0.545437; 0.811648;,
         0.594907; 0.811647;,
         0.594907; 0.811647;,
         0.545437; 0.811648;,
         0.545437; 0.793050;,
         0.594907; 0.793050;,
         0.594907; 0.793050;,
         0.545437; 0.793050;,
         0.545437; 0.774453;,
         0.594907; 0.774453;,
         0.594907; 0.774453;,
         0.545437; 0.774453;,
         0.545437; 0.755856;,
         0.594907; 0.755856;,
         0.594907; 0.755856;,
         0.545437; 0.755856;,
         0.545437; 0.737259;,
         0.594907; 0.737259;,
         0.927841; 0.845509;,
         0.937290; 0.826473;,
         0.929405; 0.845509;,
         0.169951; 0.998104;,
         0.206957; 0.998174;,
         0.210587; 0.217132;,
         0.167300; 0.212387;,
         0.097365; 0.153598;,
         0.054770; 0.164737;,
         0.054769; 0.993010;,
         0.114371; 0.977516;,
         0.024119; 0.169942;,
         0.001814; 0.169942;,
         0.001814; 0.998183;,
         0.024120; 0.998183;,
         0.911187; 0.548381;,
         0.911187; 0.774688;,
         0.986681; 0.754357;,
         0.986752; 0.726245;,
         0.965181; 0.726190;,
         0.965357; 0.657280;,
         0.986928; 0.657335;,
         0.987007; 0.626480;,
         0.965436; 0.626425;,
         0.965562; 0.576956;,
         0.987133; 0.577011;,
         0.987192; 0.553752;,
         0.694672; 0.881684;,
         0.694672; 0.850406;,
         0.694672; 0.829802;,
         0.722784; 0.829802;,
         0.722784; 0.902288;,
         0.694672; 0.902288;,
         0.914693; 0.330798;,
         0.914752; 0.354057;,
         0.936323; 0.354002;,
         0.936449; 0.403472;,
         0.914878; 0.403527;,
         0.914957; 0.434381;,
         0.936528; 0.434326;,
         0.936704; 0.503236;,
         0.915133; 0.503291;,
         0.915204; 0.531403;,
         0.990698; 0.551734;,
         0.990698; 0.325427;,
         0.757309; 0.311303;,
         0.684822; 0.311303;,
         0.684822; 0.387498;,
         0.757309; 0.387498;,
         0.757314; 0.391711;,
         0.684828; 0.391711;,
         0.684828; 0.469894;,
         0.757314; 0.469894;,
         0.978097; 0.997930;,
         0.973247; 0.932009;,
         0.973247; 0.968562;,
         0.966041; 0.985972;,
         0.948627; 0.993227;,
         0.936420; 0.993260;,
         0.907402; 0.997559;,
         0.906779; 0.998177;,
         0.973248; 0.849558;,
         0.911852; 0.931976;,
         0.973247; 0.932009;,
         0.518549; 0.210956;,
         0.455961; 0.210956;,
         0.455961; 0.998182;,
         0.518550; 0.998182;,
         0.304464; 0.173716;,
         0.244861; 0.158223;,
         0.244865; 0.986520;,
         0.287461; 0.997659;,
         0.894752; 0.780680;,
         0.905049; 0.866444;,
         0.902340; 0.815822;,
         0.908227; 0.798735;,
         0.924232; 0.790930;,
         0.949879; 0.789558;,
         0.977580; 0.777155;,
         0.978097; 0.776219;,
         0.452326; 0.174084;,
         0.389737; 0.174083;,
         0.389737; 0.998188;,
         0.452326; 0.998188;,
         0.342466; 0.995432;,
         0.386101; 0.990692;,
         0.383203; 0.203458;,
         0.345904; 0.203493;,
         0.936420; 0.993260;,
         0.918996; 0.986047;,
         0.907402; 0.997559;,
         0.918996; 0.986047;,
         0.911744; 0.968656;,
         0.907402; 0.997559;,
         0.307502; 0.203458;,
         0.303989; 0.998110;,
         0.323201; 0.997361;,
         0.326698; 0.203503;,
         0.326698; 0.203503;,
         0.323201; 0.997361;,
         0.342466; 0.995432;,
         0.345904; 0.203493;,
         0.129128; 0.209693;,
         0.131847; 0.998102;,
         0.150895; 0.998075;,
         0.148187; 0.210455;,
         0.148187; 0.210455;,
         0.150895; 0.998075;,
         0.169951; 0.998104;,
         0.167300; 0.212387;,
         0.118086; 0.998174;,
         0.131847; 0.998102;,
         0.129128; 0.209693;,
         0.115367; 0.209766;,
         0.949879; 0.789558;,
         0.967389; 0.794117;,
         0.977580; 0.777155;,
         0.967389; 0.794117;,
         0.973248; 0.806423;,
         0.977580; 0.777155;,
         0.024119; 0.169942;,
         0.024120; 0.998183;,
         0.039507; 0.996668;,
         0.039511; 0.168417;,
         0.039511; 0.168417;,
         0.039507; 0.996668;,
         0.054769; 0.993010;,
         0.054770; 0.164737;,
         0.214217; 0.153050;,
         0.214217; 0.981315;,
         0.229606; 0.982840;,
         0.229604; 0.154565;,
         0.229604; 0.154565;,
         0.229606; 0.982840;,
         0.244865; 0.986520;,
         0.244861; 0.158223;,
         0.864505; 0.959405;,
         0.858619; 0.936806;,
         0.877655; 0.946255;,
         0.864388; 0.985026;,
         0.842089; 0.972314;,
         0.864388; 0.966429;,
         0.594907; 0.881684;,
         0.594907; 0.883248;,
         0.545437; 0.883248;,
         0.545437; 0.881684;,
         0.625762; 0.850406;,
         0.625762; 0.848842;,
         0.694672; 0.848842;,
         0.694672; 0.850406;,
         0.569303; 0.624993;,
         0.563418; 0.602394;,
         0.582453; 0.611843;,
         0.582450; 0.696653;,
         0.560151; 0.683941;,
         0.582450; 0.678055;,
         0.694672; 0.881684;,
         0.694672; 0.883248;,
         0.625762; 0.883248;,
         0.625762; 0.881684;,
         0.545437; 0.850406;,
         0.545437; 0.848842;,
         0.594907; 0.848842;,
         0.594907; 0.850406;,
         0.836349; 0.879197;,
         0.858647; 0.891909;,
         0.836349; 0.897794;,
         0.836349; 0.897794;,
         0.858647; 0.891909;,
         0.838718; 0.900164;,
         0.858647; 0.891909;,
         0.868096; 0.910944;,
         0.866532; 0.910945;,
         0.868096; 0.866047;,
         0.858647; 0.891909;,
         0.849499; 0.866047;,
         0.849499; 0.866047;,
         0.858647; 0.891909;,
         0.836349; 0.879197;,
         0.881246; 0.897794;,
         0.858647; 0.891909;,
         0.881246; 0.879197;,
         0.881246; 0.879197;,
         0.858647; 0.891909;,
         0.868096; 0.866047;,
         0.537554; 0.644135;,
         0.559852; 0.656847;,
         0.537554; 0.662732;,
         0.537554; 0.662732;,
         0.559852; 0.656847;,
         0.539923; 0.665102;,
         0.559852; 0.656847;,
         0.569301; 0.675882;,
         0.567737; 0.675882;,
         0.569301; 0.630984;,
         0.559852; 0.656847;,
         0.550704; 0.630984;,
         0.550704; 0.630984;,
         0.559852; 0.656847;,
         0.537554; 0.644135;,
         0.582451; 0.662732;,
         0.559852; 0.656847;,
         0.582451; 0.644135;,
         0.582451; 0.644135;,
         0.559852; 0.656847;,
         0.569301; 0.630984;,
         0.933976; 0.941161;,
         0.942231; 0.961090;,
         0.930625; 0.941161;,
         0.930625; 0.941161;,
         0.942231; 0.961090;,
         0.917475; 0.954311;,
         0.917475; 0.954311;,
         0.942231; 0.961090;,
         0.917475; 0.972909;,
         0.917475; 0.972909;,
         0.942231; 0.961090;,
         0.930625; 0.986059;,
         0.930625; 0.986059;,
         0.942231; 0.961090;,
         0.949222; 0.986059;,
         0.949222; 0.986059;,
         0.942231; 0.961090;,
         0.962373; 0.972908;,
         0.962373; 0.972908;,
         0.942231; 0.961090;,
         0.962373; 0.954311;,
         0.957219; 0.834728;,
         0.937290; 0.826473;,
         0.959589; 0.832359;,
         0.959589; 0.832359;,
         0.937290; 0.826473;,
         0.959589; 0.813762;,
         0.959589; 0.813762;,
         0.937290; 0.826473;,
         0.946438; 0.800611;,
         0.946438; 0.800611;,
         0.937290; 0.826473;,
         0.927841; 0.800611;,
         0.927841; 0.800611;,
         0.937290; 0.826473;,
         0.914691; 0.813762;,
         0.914691; 0.813762;,
         0.937290; 0.826473;,
         0.914691; 0.832359;,
         0.914691; 0.832359;,
         0.937290; 0.826473;,
         0.927841; 0.845509;,
         0.877655; 0.946255;,
         0.858619; 0.936806;,
         0.877655; 0.944691;,
         0.858619; 0.936806;,
         0.864505; 0.914507;,
         0.866874; 0.916877;,
         0.864505; 0.914507;,
         0.858619; 0.936806;,
         0.845908; 0.914507;,
         0.845908; 0.914507;,
         0.858619; 0.936806;,
         0.832757; 0.927658;,
         0.832757; 0.927658;,
         0.858619; 0.936806;,
         0.832757; 0.946255;,
         0.832757; 0.946255;,
         0.858619; 0.936806;,
         0.845908; 0.959405;,
         0.845908; 0.959405;,
         0.858619; 0.936806;,
         0.864505; 0.959405;,
         0.864388; 0.966429;,
         0.842089; 0.972314;,
         0.862018; 0.964059;,
         0.842089; 0.972314;,
         0.832640; 0.953279;,
         0.834204; 0.953279;,
         0.832640; 0.953279;,
         0.842089; 0.972314;,
         0.819490; 0.966429;,
         0.819490; 0.966429;,
         0.842089; 0.972314;,
         0.819490; 0.985026;,
         0.819490; 0.985026;,
         0.842089; 0.972314;,
         0.832641; 0.998177;,
         0.832641; 0.998177;,
         0.842089; 0.972314;,
         0.851238; 0.998177;,
         0.851238; 0.998177;,
         0.842089; 0.972314;,
         0.864388; 0.985026;,
         0.582453; 0.611843;,
         0.563418; 0.602394;,
         0.582453; 0.610279;,
         0.563418; 0.602394;,
         0.569303; 0.580095;,
         0.571673; 0.582465;,
         0.569303; 0.580095;,
         0.563418; 0.602394;,
         0.550706; 0.580095;,
         0.550706; 0.580095;,
         0.563418; 0.602394;,
         0.537556; 0.593245;,
         0.537556; 0.593245;,
         0.563418; 0.602394;,
         0.537556; 0.611843;,
         0.537556; 0.611843;,
         0.563418; 0.602394;,
         0.550706; 0.624993;,
         0.550706; 0.624993;,
         0.563418; 0.602394;,
         0.569303; 0.624993;,
         0.582450; 0.678055;,
         0.560151; 0.683941;,
         0.580081; 0.675686;,
         0.560151; 0.683941;,
         0.550703; 0.664905;,
         0.552267; 0.664905;,
         0.550703; 0.664905;,
         0.560151; 0.683941;,
         0.537552; 0.678055;,
         0.537552; 0.678055;,
         0.560151; 0.683941;,
         0.537552; 0.696653;,
         0.537552; 0.696653;,
         0.560151; 0.683941;,
         0.550703; 0.709803;,
         0.550703; 0.709803;,
         0.560151; 0.683941;,
         0.569300; 0.709803;,
         0.569300; 0.709803;,
         0.560151; 0.683941;,
         0.582450; 0.696653;,
         0.522178; 0.829802;,
         0.545437; 0.829802;,
         0.545437; 0.850406;,
         0.545437; 0.881684;,
         0.545437; 0.902288;,
         0.522178; 0.902288;,
         0.545437; 0.881684;,
         0.545437; 0.850406;,
         0.594907; 0.850406;,
         0.594907; 0.829802;,
         0.625762; 0.829802;,
         0.625762; 0.850406;,
         0.625762; 0.881684;,
         0.625762; 0.902288;,
         0.594907; 0.902288;,
         0.594907; 0.881684;,
         0.625762; 0.881684;,
         0.625762; 0.850406;,
         0.694672; 0.850406;,
         0.694672; 0.881684;,
         0.907402; 0.997559;,
         0.911744; 0.968656;,
         0.906779; 0.998177;,
         0.906779; 0.998177;,
         0.912103; 0.849417;,
         0.907469; 0.775864;,
         0.906779; 0.998177;,
         0.911852; 0.931976;,
         0.912103; 0.849417;,
         0.911852; 0.931976;,
         0.906779; 0.998177;,
         0.911744; 0.968656;,
         0.978097; 0.776219;,
         0.973248; 0.849558;,
         0.978097; 0.997930;,
         0.978097; 0.997930;,
         0.973248; 0.849558;,
         0.973247; 0.932009;,
         0.977580; 0.777155;,
         0.973248; 0.806423;,
         0.978097; 0.776219;,
         0.973248; 0.849558;,
         0.978097; 0.776219;,
         0.973248; 0.806423;,
         0.911852; 0.931976;,
         0.973248; 0.849558;,
         0.912103; 0.849417;;
      }
      MeshMaterialList {
        1;
        204;
        0,
        0,
        0,
        0,
        0,
        0,
        0,
        0,
        0,
        0,
        0,
        0,
        0,
        0,
        0,
        0,
        0,
        0,
        0,
        0,
        0,
        0,
        0,
        0,
        0,
        0,
        0,
        0,
        0,
        0,
        0,
        0,
        0,
        0,
        0,
        0,
        0,
        0,
        0,
        0,
        0,
        0,
        0,
        0,
        0,
        0,
        0,
        0,
        0,
        0,
        0,
        0,
        0,
        0,
        0,
        0,
        0,
        0,
        0,
        0,
        0,
        0,
        0,
        0,
        0,
        0,
        0,
        0,
        0,
        0,
        0,
        0,
        0,
        0,
        0,
        0,
        0,
        0,
        0,
        0,
        0,
        0,
        0,
        0,
        0,
        0,
        0,
        0,
        0,
        0,
        0,
        0,
        0,
        0,
        0,
        0,
        0,
        0,
        0,
        0,
        0,
        0,
        0,
        0,
        0,
        0,
        0,
        0,
        0,
        0,
        0,
        0,
        0,
        0,
        0,
        0,
        0,
        0,
        0,
        0,
        0,
        0,
        0,
        0,
        0,
        0,
        0,
        0,
        0,
        0,
        0,
        0,
        0,
        0,
        0,
        0,
        0,
        0,
        0,
        0,
        0,
        0,
        0,
        0,
        0,
        0,
        0,
        0,
        0,
        0,
        0,
        0,
        0,
        0,
        0,
        0,
        0,
        0,
        0,
        0,
        0,
        0,
        0,
        0,
        0,
        0,
        0,
        0,
        0,
        0,
        0,
        0,
        0,
        0,
        0,
        0,
        0,
        0,
        0,
        0,
        0,
        0,
        0,
        0,
        0,
        0,
        0,
        0,
        0,
        0,
        0,
        0,
        0,
        0,
        0,
        0,
        0,
        0,
        0,
        0,
        0,
        0,
        0,
        0;
        Material AKPRIKLAD_2 {
           0.800000; 0.800000; 0.800000; 1.000000;;
           225.000000;
           0.500000; 0.500000; 0.500000;;
           0.000000; 0.000000; 0.000000;;
        }
      }
    }
  }
}
