xof 0303txt 0032

Frame Root {
  FrameTransformMatrix {
     1.000000, 0.000000, 0.000000, 0.000000,
     0.000000,-0.000000, 1.000000, 0.000000,
     0.000000, 1.000000, 0.000000, 0.000000,
     0.000000, 0.000000, 0.000000, 1.000000;;
  }
  Frame AKPRIKLAD_4_Cube_003 {
    FrameTransformMatrix {
       1.000000, 0.000000, 0.000000, 0.000000,
       0.000000, 1.000000, 0.000000, 0.000000,
       0.000000, 0.000000, 1.000000, 0.000000,
       0.000000, 0.000000, 0.000000, 1.000000;;
    }
    Mesh {
      150;
      -0.026272;-0.007646; 0.062170;,
       0.036666;-0.005267; 0.056854;,
       0.050439;-0.004756; 0.046588;,
       0.005913;-0.006464; 0.027257;,
      -0.033838;-0.002858; 0.062169;,
      -0.035962;-0.003966; 0.062368;,
      -0.028015;-0.009611; 0.062368;,
      -0.026272;-0.007646; 0.062170;,
      -0.004213;-0.006968;-0.083661;,
      -0.004213; 0.008530;-0.083661;,
      -0.026267; 0.009365;-0.083660;,
      -0.026267;-0.007803;-0.083660;,
       0.005913;-0.006464; 0.027257;,
       0.050439;-0.004756; 0.046588;,
       0.050439; 0.006318; 0.046588;,
       0.005913; 0.008026; 0.027257;,
      -0.033838;-0.002858; 0.062169;,
      -0.033838;-0.002858;-0.083661;,
      -0.033838; 0.004420;-0.083661;,
      -0.033838; 0.004420; 0.062169;,
       0.050439; 0.006318; 0.046588;,
       0.050439;-0.004756; 0.046588;,
       0.050439;-0.004749; 0.052271;,
       0.050439; 0.006311; 0.052271;,
      -0.026267; 0.009365;-0.083660;,
      -0.026272; 0.009208; 0.062170;,
      -0.033838; 0.004420; 0.062169;,
      -0.033838; 0.004420;-0.083661;,
       0.005913; 0.008026; 0.027257;,
      -0.026272; 0.009208; 0.062170;,
       0.000550; 0.008234; 0.022998;,
       0.000550; 0.008234; 0.022998;,
      -0.026272; 0.009208; 0.062170;,
      -0.001799; 0.008330; 0.016561;,
      -0.001799;-0.006768; 0.016561;,
      -0.026272;-0.007646; 0.062170;,
       0.000550;-0.006672; 0.022998;,
       0.000550;-0.006672; 0.022998;,
      -0.026272;-0.007646; 0.062170;,
       0.005913;-0.006464; 0.027257;,
      -0.001799;-0.006768; 0.016561;,
       0.000550;-0.006672; 0.022998;,
       0.000550; 0.008234; 0.022998;,
      -0.001799; 0.008330; 0.016561;,
       0.000550;-0.006672; 0.022998;,
       0.005913;-0.006464; 0.027257;,
       0.005913; 0.008026; 0.027257;,
       0.000550; 0.008234; 0.022998;,
      -0.001799; 0.008330; 0.016561;,
      -0.004213; 0.008530;-0.083661;,
      -0.004213;-0.006968;-0.083661;,
      -0.001799;-0.006768; 0.016561;,
      -0.026267;-0.007803;-0.083660;,
      -0.033838;-0.002858;-0.083661;,
      -0.033838;-0.002858; 0.062169;,
      -0.026272;-0.007646; 0.062170;,
      -0.026267; 0.009365;-0.083660;,
      -0.033838; 0.004420;-0.083661;,
      -0.033838;-0.002858;-0.083661;,
      -0.026267;-0.007803;-0.083660;,
      -0.026272; 0.009208; 0.062170;,
       0.005913; 0.008026; 0.027257;,
       0.050439; 0.006318; 0.046588;,
       0.036666; 0.006829; 0.056854;,
      -0.026272; 0.009208; 0.062170;,
      -0.028015; 0.011173; 0.062368;,
      -0.035962; 0.005528; 0.062368;,
      -0.033838; 0.004420; 0.062169;,
       0.050439; 0.006318; 0.046588;,
       0.050439; 0.006311; 0.052271;,
       0.036666; 0.006829; 0.056854;,
      -0.026272;-0.007646; 0.062170;,
      -0.028015;-0.009611; 0.062368;,
       0.038212;-0.006321; 0.056775;,
       0.036666;-0.005267; 0.056854;,
       0.036666;-0.005267; 0.056854;,
       0.050439;-0.004749; 0.052271;,
       0.050439;-0.004756; 0.046588;,
      -0.028015;-0.009611; 0.062368;,
      -0.028015;-0.009611; 0.069613;,
       0.038212;-0.006321; 0.064019;,
       0.038212;-0.006321; 0.056775;,
      -0.035962; 0.005528; 0.062368;,
      -0.035962; 0.005528; 0.069613;,
      -0.035962;-0.003966; 0.069613;,
      -0.035962;-0.003966; 0.062368;,
      -0.035962;-0.003966; 0.062368;,
      -0.035962;-0.003966; 0.069613;,
      -0.028015;-0.009611; 0.069613;,
      -0.028015;-0.009611; 0.062368;,
      -0.033838; 0.004420; 0.062169;,
      -0.035962; 0.005528; 0.062368;,
      -0.035962;-0.003966; 0.062368;,
      -0.033838;-0.002858; 0.062169;,
       0.036666; 0.006829; 0.056854;,
       0.038212; 0.007883; 0.056775;,
      -0.028015; 0.011173; 0.062368;,
      -0.026272; 0.009208; 0.062170;,
       0.036666;-0.005267; 0.056854;,
       0.038212;-0.006321; 0.056775;,
       0.052724;-0.006321; 0.051952;,
       0.050439;-0.004749; 0.052271;,
       0.050439;-0.004749; 0.052271;,
       0.052724;-0.006321; 0.051952;,
       0.052724; 0.007883; 0.051952;,
       0.050439; 0.006311; 0.052271;,
       0.050439; 0.006311; 0.052271;,
       0.052724; 0.007883; 0.051952;,
       0.038212; 0.007883; 0.056775;,
       0.036666; 0.006829; 0.056854;,
      -0.035962; 0.005528; 0.069613;,
      -0.028015; 0.011173; 0.069613;,
      -0.028015;-0.009611; 0.069613;,
      -0.035962;-0.003966; 0.069613;,
      -0.028015; 0.011173; 0.069613;,
       0.038212; 0.007883; 0.064019;,
       0.038212;-0.006321; 0.064019;,
      -0.028015;-0.009611; 0.069613;,
       0.038212; 0.007883; 0.064019;,
       0.052724; 0.007883; 0.059197;,
       0.052724;-0.006321; 0.059197;,
       0.038212;-0.006321; 0.064019;,
       0.038212;-0.006321; 0.056775;,
       0.038212;-0.006321; 0.064019;,
       0.052724;-0.006321; 0.059197;,
       0.052724;-0.006321; 0.051952;,
       0.038212; 0.007883; 0.056775;,
       0.038212; 0.007883; 0.064019;,
      -0.028015; 0.011173; 0.069613;,
      -0.028015; 0.011173; 0.062368;,
       0.052724; 0.007883; 0.051952;,
       0.052724; 0.007883; 0.059197;,
       0.038212; 0.007883; 0.064019;,
       0.038212; 0.007883; 0.056775;,
       0.052724;-0.006321; 0.051952;,
       0.052724;-0.006321; 0.059197;,
       0.052724; 0.007883; 0.059197;,
       0.052724; 0.007883; 0.051952;,
      -0.028015; 0.011173; 0.062368;,
      -0.028015; 0.011173; 0.069613;,
      -0.035962; 0.005528; 0.069613;,
      -0.035962; 0.005528; 0.062368;,
      -0.004213; 0.008530;-0.083661;,
      -0.001799; 0.008330; 0.016561;,
      -0.026272; 0.009208; 0.062170;,
      -0.026267; 0.009365;-0.083660;,
      -0.001799;-0.006768; 0.016561;,
      -0.004213;-0.006968;-0.083661;,
      -0.026267;-0.007803;-0.083660;,
      -0.026272;-0.007646; 0.062170;;
      39;
      4;3,2,1,0;,
      4;7,6,5,4;,
      4;11,10,9,8;,
      4;15,14,13,12;,
      4;19,18,17,16;,
      4;23,22,21,20;,
      4;27,26,25,24;,
      3;30,29,28;,
      3;33,32,31;,
      3;36,35,34;,
      3;39,38,37;,
      4;43,42,41,40;,
      4;47,46,45,44;,
      4;51,50,49,48;,
      4;55,54,53,52;,
      4;59,58,57,56;,
      4;63,62,61,60;,
      4;67,66,65,64;,
      3;70,69,68;,
      4;74,73,72,71;,
      3;77,76,75;,
      4;81,80,79,78;,
      4;85,84,83,82;,
      4;89,88,87,86;,
      4;93,92,91,90;,
      4;97,96,95,94;,
      4;101,100,99,98;,
      4;105,104,103,102;,
      4;109,108,107,106;,
      4;113,112,111,110;,
      4;117,116,115,114;,
      4;121,120,119,118;,
      4;125,124,123,122;,
      4;129,128,127,126;,
      4;133,132,131,130;,
      4;137,136,135,134;,
      4;141,140,139,138;,
      4;145,144,143,142;,
      4;149,148,147,146;;
      MeshNormals {
        150;
         0.215194; 0.610137; 0.762512;,
         0.067050; 0.714070; 0.696856;,
        -0.679619; 0.588732; 0.437621;,
        -0.373156; 0.730890; 0.571450;,
         0.526079; 0.284898; 0.801295;,
         0.715611; 0.368794; 0.593205;,
         0.239379; 0.758127; 0.606581;,
         0.215194; 0.610137; 0.762512;,
        -0.579535; 0.567119; 0.585248;,
        -0.579535;-0.567119; 0.585248;,
         0.201621;-0.737935; 0.644050;,
         0.201621; 0.737935; 0.644050;,
        -0.373156; 0.730890; 0.571450;,
        -0.679619; 0.588732; 0.437621;,
        -0.679619;-0.588732; 0.437621;,
        -0.373156;-0.730890; 0.571450;,
         0.526079; 0.284898; 0.801295;,
         0.692314; 0.377953; 0.614697;,
         0.692314;-0.377953; 0.614697;,
         0.526079;-0.284898; 0.801296;,
        -0.679619;-0.588732; 0.437621;,
        -0.679619; 0.588732; 0.437621;,
        -0.117592; 0.508368; 0.853073;,
        -0.117592;-0.508368; 0.853073;,
         0.201621;-0.737935; 0.644050;,
         0.215193;-0.610137; 0.762512;,
         0.526079;-0.284898; 0.801296;,
         0.692314;-0.377953; 0.614697;,
        -0.373156;-0.730890; 0.571450;,
         0.215193;-0.610137; 0.762512;,
        -0.535345;-0.763466; 0.361284;,
        -0.535345;-0.763466; 0.361284;,
         0.215193;-0.610137; 0.762512;,
        -0.669647;-0.732906; 0.120096;,
        -0.669646; 0.732906; 0.120096;,
         0.215194; 0.610137; 0.762512;,
        -0.535345; 0.763466; 0.361284;,
        -0.535345; 0.763466; 0.361284;,
         0.215194; 0.610137; 0.762512;,
        -0.373156; 0.730890; 0.571450;,
        -0.669646; 0.732906; 0.120096;,
        -0.535345; 0.763466; 0.361284;,
        -0.535345;-0.763466; 0.361284;,
        -0.669647;-0.732906; 0.120096;,
        -0.535345; 0.763466; 0.361284;,
        -0.373156; 0.730890; 0.571450;,
        -0.373156;-0.730890; 0.571450;,
        -0.535345;-0.763466; 0.361284;,
        -0.669647;-0.732906; 0.120096;,
        -0.579535;-0.567119; 0.585248;,
        -0.579535; 0.567119; 0.585248;,
        -0.669646; 0.732906; 0.120096;,
         0.201621; 0.737935; 0.644050;,
         0.692314; 0.377953; 0.614697;,
         0.526079; 0.284898; 0.801295;,
         0.215194; 0.610137; 0.762512;,
         0.201621;-0.737935; 0.644050;,
         0.692314;-0.377953; 0.614697;,
         0.692314; 0.377953; 0.614697;,
         0.201621; 0.737935; 0.644050;,
         0.215193;-0.610137; 0.762512;,
        -0.373156;-0.730890; 0.571450;,
        -0.679619;-0.588732; 0.437621;,
         0.067050;-0.714070; 0.696856;,
         0.215193;-0.610137; 0.762512;,
         0.239378;-0.758127; 0.606581;,
         0.715611;-0.368794; 0.593205;,
         0.526079;-0.284898; 0.801296;,
        -0.679619;-0.588732; 0.437621;,
        -0.117592;-0.508368; 0.853073;,
         0.067050;-0.714070; 0.696856;,
         0.215194; 0.610137; 0.762512;,
         0.239379; 0.758127; 0.606581;,
         0.140847; 0.809635; 0.569784;,
         0.067050; 0.714070; 0.696856;,
         0.067050; 0.714070; 0.696856;,
        -0.117592; 0.508368; 0.853073;,
        -0.679619; 0.588732; 0.437621;,
         0.239379; 0.758127; 0.606581;,
         0.187545; 0.732702;-0.654198;,
        -0.165604; 0.673487;-0.720410;,
         0.140847; 0.809635; 0.569784;,
         0.715611;-0.368794; 0.593205;,
         0.699293;-0.361030;-0.616965;,
         0.699293; 0.361030;-0.616965;,
         0.715611; 0.368794; 0.593205;,
         0.715611; 0.368794; 0.593205;,
         0.699293; 0.361030;-0.616965;,
         0.187545; 0.732702;-0.654198;,
         0.239379; 0.758127; 0.606581;,
         0.526079;-0.284898; 0.801296;,
         0.715611;-0.368794; 0.593205;,
         0.715611; 0.368794; 0.593205;,
         0.526079; 0.284898; 0.801295;,
         0.067050;-0.714070; 0.696856;,
         0.140847;-0.809635; 0.569784;,
         0.239378;-0.758127; 0.606581;,
         0.215193;-0.610137; 0.762512;,
         0.067050; 0.714070; 0.696856;,
         0.140847; 0.809635; 0.569784;,
        -0.512873; 0.587299; 0.626132;,
        -0.117592; 0.508368; 0.853073;,
        -0.117592; 0.508368; 0.853073;,
        -0.512873; 0.587299; 0.626132;,
        -0.512873;-0.587299; 0.626132;,
        -0.117592;-0.508368; 0.853073;,
        -0.117592;-0.508368; 0.853073;,
        -0.512873;-0.587299; 0.626132;,
         0.140847;-0.809635; 0.569784;,
         0.067050;-0.714070; 0.696856;,
         0.699293;-0.361030;-0.616965;,
         0.187545;-0.732702;-0.654198;,
         0.187545; 0.732702;-0.654198;,
         0.699293; 0.361030;-0.616965;,
         0.187545;-0.732702;-0.654198;,
        -0.165604;-0.673487;-0.720410;,
        -0.165604; 0.673487;-0.720410;,
         0.187545; 0.732702;-0.654198;,
        -0.165604;-0.673487;-0.720410;,
        -0.651118;-0.596122;-0.469770;,
        -0.651118; 0.596122;-0.469770;,
        -0.165604; 0.673487;-0.720410;,
         0.140847; 0.809635; 0.569784;,
        -0.165604; 0.673487;-0.720410;,
        -0.651118; 0.596122;-0.469770;,
        -0.512873; 0.587299; 0.626132;,
         0.140847;-0.809635; 0.569784;,
        -0.165604;-0.673487;-0.720410;,
         0.187545;-0.732702;-0.654198;,
         0.239378;-0.758127; 0.606581;,
        -0.512873;-0.587299; 0.626132;,
        -0.651118;-0.596122;-0.469770;,
        -0.165604;-0.673487;-0.720410;,
         0.140847;-0.809635; 0.569784;,
        -0.512873; 0.587299; 0.626132;,
        -0.651118; 0.596122;-0.469770;,
        -0.651118;-0.596122;-0.469770;,
        -0.512873;-0.587299; 0.626132;,
         0.239378;-0.758127; 0.606581;,
         0.187545;-0.732702;-0.654198;,
         0.699293;-0.361030;-0.616965;,
         0.715611;-0.368794; 0.593205;,
        -0.579535;-0.567119; 0.585248;,
        -0.669647;-0.732906; 0.120096;,
         0.215193;-0.610137; 0.762512;,
         0.201621;-0.737935; 0.644050;,
        -0.669646; 0.732906; 0.120096;,
        -0.579535; 0.567119; 0.585248;,
         0.201621; 0.737935; 0.644050;,
         0.215194; 0.610137; 0.762512;;
        39;
        4;3,2,1,0;,
        4;7,6,5,4;,
        4;11,10,9,8;,
        4;15,14,13,12;,
        4;19,18,17,16;,
        4;23,22,21,20;,
        4;27,26,25,24;,
        3;30,29,28;,
        3;33,32,31;,
        3;36,35,34;,
        3;39,38,37;,
        4;43,42,41,40;,
        4;47,46,45,44;,
        4;51,50,49,48;,
        4;55,54,53,52;,
        4;59,58,57,56;,
        4;63,62,61,60;,
        4;67,66,65,64;,
        3;70,69,68;,
        4;74,73,72,71;,
        3;77,76,75;,
        4;81,80,79,78;,
        4;85,84,83,82;,
        4;89,88,87,86;,
        4;93,92,91,90;,
        4;97,96,95,94;,
        4;101,100,99,98;,
        4;105,104,103,102;,
        4;109,108,107,106;,
        4;113,112,111,110;,
        4;117,116,115,114;,
        4;121,120,119,118;,
        4;125,124,123,122;,
        4;129,128,127,126;,
        4;133,132,131,130;,
        4;137,136,135,134;,
        4;141,140,139,138;,
        4;145,144,143,142;,
        4;149,148,147,146;;
      }
      MeshTextureCoords {
        150;
         0.866814; 0.959384;,
         0.509227; 0.929208;,
         0.430972; 0.870923;,
         0.683957; 0.761169;,
         0.423959; 0.970165;,
         0.430146; 0.982333;,
         0.374800; 0.982333;,
         0.373192; 0.967462;,
         0.180895; 0.636307;,
         0.268882; 0.636308;,
         0.273627; 0.761518;,
         0.176150; 0.761518;,
         0.648681; 0.049093;,
         0.924277; 0.058792;,
         0.924277; 0.121661;,
         0.648681; 0.131360;,
         0.101861; 0.001710;,
         0.929817; 0.001710;,
         0.929817; 0.043027;,
         0.101861; 0.043027;,
         0.773542; 0.966028;,
         0.836411; 0.966028;,
         0.836376; 0.998295;,
         0.773577; 0.998295;,
         0.924966; 0.952694;,
         0.925434; 0.124738;,
         0.976272; 0.124738;,
         0.976311; 0.952695;,
         0.184562; 0.799927;,
         0.001706; 0.998142;,
         0.154092; 0.775746;,
         0.154092; 0.775746;,
         0.001706; 0.998142;,
         0.140743; 0.739199;,
         0.727777; 0.700441;,
         0.866814; 0.959384;,
         0.714428; 0.736988;,
         0.714428; 0.736988;,
         0.866814; 0.959384;,
         0.683957; 0.761169;,
         0.570894; 0.047367;,
         0.609799; 0.047912;,
         0.609799; 0.132540;,
         0.570894; 0.133085;,
         0.609799; 0.047912;,
         0.648681; 0.049093;,
         0.648681; 0.131360;,
         0.609799; 0.132540;,
         0.570894; 0.133085;,
         0.001716; 0.134219;,
         0.001716; 0.046233;,
         0.570894; 0.047367;,
         0.921576; 0.998292;,
         0.870231; 0.998292;,
         0.870271; 0.170334;,
         0.921110; 0.170334;,
         0.273627; 0.761518;,
         0.245547; 0.804504;,
         0.204230; 0.804504;,
         0.176150; 0.761518;,
         0.001706; 0.998142;,
         0.184562; 0.799927;,
         0.437547; 0.909681;,
         0.359292; 0.967966;,
         0.543059; 0.963992;,
         0.544668; 0.949122;,
         0.600013; 0.949122;,
         0.593826; 0.961290;,
         0.437547; 0.909681;,
         0.437547; 0.941948;,
         0.359292; 0.967966;,
         0.174097; 0.998286;,
         0.163651; 0.987683;,
         0.539620; 0.987664;,
         0.531054; 0.994148;,
         0.509227; 0.929208;,
         0.430972; 0.903190;,
         0.430972; 0.870923;,
         0.452976; 0.382588;,
         0.493766; 0.377299;,
         0.510676; 0.754731;,
         0.469886; 0.760020;,
         0.485530; 0.982326;,
         0.485530; 0.941195;,
         0.539435; 0.941195;,
         0.539435; 0.982326;,
         0.770121; 0.957154;,
         0.770121; 0.998285;,
         0.714775; 0.998285;,
         0.714775; 0.957154;,
         0.263090; 0.787697;,
         0.275203; 0.781403;,
         0.275203; 0.835308;,
         0.263090; 0.829013;,
         0.986664; 0.902527;,
         0.980184; 0.910990;,
         0.979710; 0.534371;,
         0.990345; 0.544821;,
         0.531054; 0.994148;,
         0.539620; 0.987664;,
         0.627315; 0.987676;,
         0.614303; 0.996998;,
         0.551381; 0.982326;,
         0.542461; 0.969229;,
         0.623101; 0.969229;,
         0.614180; 0.982326;,
         0.989030; 0.985135;,
         0.979710; 0.997992;,
         0.980184; 0.910990;,
         0.986664; 0.902527;,
         0.367104; 0.875180;,
         0.335054; 0.830059;,
         0.453059; 0.830059;,
         0.421009; 0.875180;,
         0.335054; 0.830059;,
         0.353736; 0.452710;,
         0.434377; 0.452710;,
         0.453059; 0.830059;,
         0.353736; 0.452710;,
         0.353736; 0.365891;,
         0.434377; 0.365891;,
         0.434377; 0.452710;,
         0.469886; 0.760020;,
         0.510676; 0.754731;,
         0.494118; 0.839957;,
         0.453328; 0.845245;,
         0.318520; 0.764585;,
         0.277730; 0.759297;,
         0.294640; 0.381866;,
         0.335430; 0.387155;,
         0.335078; 0.849811;,
         0.294288; 0.844523;,
         0.277730; 0.759297;,
         0.318520; 0.764585;,
         0.711356; 0.957154;,
         0.711356; 0.998285;,
         0.630715; 0.998285;,
         0.630715; 0.957154;,
         0.482105; 0.982328;,
         0.440974; 0.982328;,
         0.440974; 0.926983;,
         0.482105; 0.926983;,
         0.127008; 0.170184;,
         0.140743; 0.739199;,
         0.001706; 0.998142;,
         0.001707; 0.170187;,
         0.727777; 0.700441;,
         0.741513; 0.131426;,
         0.866814; 0.131430;,
         0.866814; 0.959384;;
      }
      MeshMaterialList {
        1;
        39;
        0,
        0,
        0,
        0,
        0,
        0,
        0,
        0,
        0,
        0,
        0,
        0,
        0,
        0,
        0,
        0,
        0,
        0,
        0,
        0,
        0,
        0,
        0,
        0,
        0,
        0,
        0,
        0,
        0,
        0,
        0,
        0,
        0,
        0,
        0,
        0,
        0,
        0,
        0;
        Material AKPRIKLAD_4 {
           0.800000; 0.800000; 0.800000; 1.000000;;
           225.000000;
           0.500000; 0.500000; 0.500000;;
           0.000000; 0.000000; 0.000000;;
        }
      }
    }
  }
}
