xof 0303txt 0032

Frame Root {
  FrameTransformMatrix {
     1.000000, 0.000000, 0.000000, 0.000000,
     0.000000,-0.000000, 1.000000, 0.000000,
     0.000000, 1.000000, 0.000000, 0.000000,
     0.000000, 0.000000, 0.000000, 1.000000;;
  }
  Frame Stock1M1A {
    FrameTransformMatrix {
       1.000000, 0.000000, 0.000000, 0.000000,
       0.000000, 1.000000, 0.000000, 0.000000,
       0.000000, 0.000000, 1.000000, 0.000000,
       0.000000, 0.000000, 0.000000, 1.000000;;
    }
    Mesh {
      680;
      -0.008060; 0.006982;-0.011999;,
      -0.008016; 0.007012;-0.006684;,
      -0.020412; 0.007012;-0.006581;,
      -0.020457; 0.006982;-0.011896;,
      -0.008212;-0.005516;-0.030161;,
      -0.008213; 0.006881;-0.030230;,
      -0.020609; 0.006881;-0.030126;,
      -0.020608;-0.005516;-0.030058;,
      -0.019749; 0.007453; 0.072826;,
      -0.019732; 0.007465; 0.074903;,
      -0.019731;-0.004932; 0.074972;,
      -0.019748;-0.004943; 0.072895;,
      -0.007353; 0.007453; 0.072722;,
       0.010391; 0.007453; 0.072574;,
       0.024767; 0.007484; 0.078091;,
       0.024818; 0.007519; 0.084281;,
      -0.007254; 0.007519; 0.084549;,
      -0.007353; 0.007453; 0.072722;,
      -0.007254; 0.007519; 0.084549;,
      -0.009900; 0.007519; 0.084571;,
      -0.014786; 0.007512; 0.083306;,
      -0.018385; 0.007492; 0.079767;,
      -0.019732; 0.007465; 0.074903;,
      -0.019749; 0.007453; 0.072826;,
      -0.019858; 0.007380; 0.059762;,
      -0.019749; 0.007453; 0.072826;,
      -0.019748;-0.004943; 0.072895;,
      -0.019895;-0.005054; 0.059832;,
      -0.007424;-0.005054; 0.059727;,
      -0.007352;-0.004943; 0.072791;,
      -0.007353; 0.007453; 0.072722;,
      -0.007424; 0.007418; 0.059658;,
      -0.007424; 0.007418; 0.059658;,
      -0.007353; 0.007453; 0.072722;,
      -0.019749; 0.007453; 0.072826;,
      -0.019858; 0.007380; 0.059762;,
      -0.007254; 0.007519; 0.084549;,
      -0.007253;-0.004878; 0.084618;,
      -0.009900;-0.004878; 0.084640;,
      -0.009900; 0.007519; 0.084571;,
       0.024819;-0.004878; 0.084350;,
       0.022919;-0.004143; 0.084362;,
       0.022918; 0.006784; 0.084301;,
       0.024818; 0.007519; 0.084281;,
      -0.007253;-0.004878; 0.084618;,
       0.024819;-0.004878; 0.084350;,
       0.024767;-0.004912; 0.078160;,
       0.010392;-0.004943; 0.072643;,
      -0.007352;-0.004943; 0.072791;,
      -0.007352;-0.004943; 0.072791;,
       0.010392;-0.004943; 0.072643;,
       0.010391; 0.007453; 0.072574;,
      -0.007353; 0.007453; 0.072722;,
      -0.010670;-0.009086; 0.059777;,
      -0.011152;-0.009407; 0.002059;,
      -0.017131;-0.009407; 0.002109;,
      -0.016649;-0.009086; 0.059827;,
      -0.007906;-0.005374; 0.002009;,
      -0.003873;-0.002128; 0.001957;,
      -0.003874; 0.003851; 0.001924;,
      -0.007906; 0.007097; 0.001940;,
      -0.007352;-0.004943; 0.072791;,
      -0.007424;-0.005054; 0.059727;,
      -0.019895;-0.005054; 0.059832;,
      -0.019748;-0.004943; 0.072895;,
      -0.008212;-0.005516;-0.030161;,
      -0.008096;-0.005438;-0.016222;,
      -0.008096; 0.006958;-0.016291;,
      -0.008213; 0.006881;-0.030230;,
      -0.003602; 0.005419;-0.003036;,
      -0.003636; 0.005396;-0.007078;,
      -0.003635;-0.003773;-0.007027;,
      -0.003602;-0.003751;-0.002985;,
      -0.008096;-0.005438;-0.016222;,
      -0.007953;-0.005581;-0.016222;,
      -0.003712;-0.003825;-0.016267;,
      -0.003713; 0.005345;-0.016318;,
      -0.007953; 0.007101;-0.016293;,
      -0.008096; 0.006958;-0.016291;,
      -0.019858; 0.007380; 0.059762;,
      -0.016650; 0.011451; 0.059713;,
      -0.010670; 0.011451; 0.059663;,
      -0.007424; 0.007418; 0.059658;,
      -0.019895;-0.005054; 0.059832;,
      -0.023928;-0.001807; 0.059847;,
      -0.023928; 0.004172; 0.059814;,
      -0.019858; 0.007380; 0.059762;,
      -0.007424; 0.007418; 0.059658;,
      -0.003392; 0.004172; 0.059643;,
      -0.003391;-0.001807; 0.059676;,
      -0.007424;-0.005054; 0.059727;,
      -0.007906; 0.007097; 0.001940;,
      -0.011153; 0.011130; 0.001944;,
      -0.017132; 0.011130; 0.001994;,
      -0.020378; 0.007097; 0.002044;,
      -0.003873;-0.002128; 0.001957;,
      -0.003391;-0.001807; 0.059676;,
      -0.003392; 0.004172; 0.059643;,
      -0.003874; 0.003851; 0.001924;,
      -0.024410; 0.003851; 0.002096;,
      -0.023928; 0.004172; 0.059814;,
      -0.023928;-0.001807; 0.059847;,
      -0.024410;-0.002128; 0.002129;,
      -0.007424;-0.005054; 0.059727;,
      -0.010670;-0.009086; 0.059777;,
      -0.016649;-0.009086; 0.059827;,
      -0.019895;-0.005054; 0.059832;,
      -0.020378; 0.007097; 0.002044;,
      -0.024410; 0.003851; 0.002096;,
      -0.024410;-0.002128; 0.002129;,
      -0.020377;-0.005374; 0.002113;,
      -0.011153; 0.011130; 0.001944;,
      -0.010670; 0.011451; 0.059663;,
      -0.016650; 0.011451; 0.059713;,
      -0.017132; 0.011130; 0.001994;,
      -0.003873;-0.002128; 0.001957;,
      -0.007906;-0.005374; 0.002009;,
      -0.006005;-0.007275; 0.002004;,
      -0.006005;-0.007275; 0.002004;,
      -0.007906;-0.005374; 0.002009;,
      -0.011152;-0.009407; 0.002059;,
      -0.010670;-0.009086; 0.059777;,
      -0.007424;-0.005054; 0.059727;,
      -0.005523;-0.006954; 0.059722;,
      -0.005523;-0.006954; 0.059722;,
      -0.007424;-0.005054; 0.059727;,
      -0.003391;-0.001807; 0.059676;,
      -0.024410; 0.003851; 0.002096;,
      -0.020378; 0.007097; 0.002044;,
      -0.022279; 0.008998; 0.002049;,
      -0.022279; 0.008998; 0.002049;,
      -0.020378; 0.007097; 0.002044;,
      -0.017132; 0.011130; 0.001994;,
      -0.016650; 0.011451; 0.059713;,
      -0.019858; 0.007380; 0.059762;,
      -0.021796; 0.009319; 0.059768;,
      -0.021796; 0.009319; 0.059768;,
      -0.019858; 0.007380; 0.059762;,
      -0.023928; 0.004172; 0.059814;,
      -0.003392; 0.004172; 0.059643;,
      -0.007424; 0.007418; 0.059658;,
      -0.005524; 0.009319; 0.059632;,
      -0.005524; 0.009319; 0.059632;,
      -0.007424; 0.007418; 0.059658;,
      -0.010670; 0.011451; 0.059663;,
      -0.023928;-0.001807; 0.059847;,
      -0.019895;-0.005054; 0.059832;,
      -0.021796;-0.006954; 0.059858;,
      -0.021796;-0.006954; 0.059858;,
      -0.019895;-0.005054; 0.059832;,
      -0.016649;-0.009086; 0.059827;,
      -0.017131;-0.009407; 0.002109;,
      -0.020377;-0.005374; 0.002113;,
      -0.022278;-0.007275; 0.002140;,
      -0.022278;-0.007275; 0.002140;,
      -0.020377;-0.005374; 0.002113;,
      -0.024410;-0.002128; 0.002129;,
      -0.011153; 0.011130; 0.001944;,
      -0.007906; 0.007097; 0.001940;,
      -0.006006; 0.008998; 0.001913;,
      -0.006006; 0.008998; 0.001913;,
      -0.007906; 0.007097; 0.001940;,
      -0.003874; 0.003851; 0.001924;,
      -0.003873;-0.002128; 0.001957;,
      -0.006005;-0.007275; 0.002004;,
      -0.005523;-0.006954; 0.059722;,
      -0.003391;-0.001807; 0.059676;,
      -0.006005;-0.007275; 0.002004;,
      -0.011152;-0.009407; 0.002059;,
      -0.010670;-0.009086; 0.059777;,
      -0.005523;-0.006954; 0.059722;,
      -0.024410; 0.003851; 0.002096;,
      -0.022279; 0.008998; 0.002049;,
      -0.021796; 0.009319; 0.059768;,
      -0.023928; 0.004172; 0.059814;,
      -0.022279; 0.008998; 0.002049;,
      -0.017132; 0.011130; 0.001994;,
      -0.016650; 0.011451; 0.059713;,
      -0.021796; 0.009319; 0.059768;,
      -0.023928;-0.001807; 0.059847;,
      -0.021796;-0.006954; 0.059858;,
      -0.022278;-0.007275; 0.002140;,
      -0.024410;-0.002128; 0.002129;,
      -0.021796;-0.006954; 0.059858;,
      -0.016649;-0.009086; 0.059827;,
      -0.017131;-0.009407; 0.002109;,
      -0.022278;-0.007275; 0.002140;,
      -0.003392; 0.004172; 0.059643;,
      -0.005524; 0.009319; 0.059632;,
      -0.006006; 0.008998; 0.001913;,
      -0.003874; 0.003851; 0.001924;,
      -0.005524; 0.009319; 0.059632;,
      -0.010670; 0.011451; 0.059663;,
      -0.011153; 0.011130; 0.001944;,
      -0.006006; 0.008998; 0.001913;,
      -0.020377;-0.005374; 0.002113;,
      -0.017131;-0.009407; 0.002109;,
      -0.011152;-0.009407; 0.002059;,
      -0.007906;-0.005374; 0.002009;,
      -0.019732; 0.007465; 0.074903;,
      -0.018385; 0.007492; 0.079767;,
      -0.018384;-0.004905; 0.079836;,
      -0.019731;-0.004932; 0.074972;,
      -0.018385; 0.007492; 0.079767;,
      -0.014786; 0.007512; 0.083306;,
      -0.014786;-0.004885; 0.083375;,
      -0.018384;-0.004905; 0.079836;,
      -0.014786; 0.007512; 0.083306;,
      -0.009900; 0.007519; 0.084571;,
      -0.009900;-0.004878; 0.084640;,
      -0.014786;-0.004885; 0.083375;,
      -0.007253;-0.004878; 0.084618;,
      -0.007352;-0.004943; 0.072791;,
      -0.019748;-0.004943; 0.072895;,
      -0.019731;-0.004932; 0.074972;,
      -0.018384;-0.004905; 0.079836;,
      -0.014786;-0.004885; 0.083375;,
      -0.009900;-0.004878; 0.084640;,
      -0.020457; 0.006982;-0.011896;,
      -0.020412; 0.007012;-0.006581;,
      -0.020412;-0.005385;-0.006512;,
      -0.020456;-0.005414;-0.011827;,
      -0.008213; 0.006881;-0.030230;,
      -0.008096; 0.006958;-0.016291;,
      -0.020492; 0.006958;-0.016187;,
      -0.020609; 0.006881;-0.030126;,
      -0.007988;-0.005366;-0.003306;,
      -0.007906;-0.005374; 0.002009;,
      -0.007906; 0.007097; 0.001940;,
      -0.007988; 0.007030;-0.003375;,
      -0.008096;-0.005438;-0.016222;,
      -0.008212;-0.005516;-0.030161;,
      -0.020608;-0.005516;-0.030058;,
      -0.020492;-0.005438;-0.016118;,
      -0.024839;-0.003801;-0.011799;,
      -0.024875;-0.003825;-0.016091;,
      -0.024876; 0.005345;-0.016142;,
      -0.024840; 0.005369;-0.011850;,
      -0.003677; 0.005369;-0.012027;,
      -0.003713; 0.005345;-0.016318;,
      -0.003712;-0.003825;-0.016267;,
      -0.003677;-0.003801;-0.011976;,
      -0.020492; 0.006958;-0.016187;,
      -0.020635; 0.007101;-0.016187;,
      -0.024876; 0.005345;-0.016142;,
      -0.024875;-0.003825;-0.016091;,
      -0.020635;-0.005581;-0.016116;,
      -0.020492;-0.005438;-0.016118;,
      -0.007988;-0.005366;-0.003306;,
      -0.007837;-0.005517;-0.003293;,
      -0.009598;-0.009748;-0.002901;,
      -0.018767;-0.009748;-0.002825;,
      -0.020534;-0.005517;-0.003187;,
      -0.020384;-0.005366;-0.003202;,
      -0.020609; 0.006881;-0.030126;,
      -0.020492; 0.006958;-0.016187;,
      -0.020492;-0.005438;-0.016118;,
      -0.020608;-0.005516;-0.030058;,
      -0.020457; 0.006982;-0.011896;,
      -0.020600; 0.007125;-0.011895;,
      -0.018843; 0.011365;-0.011933;,
      -0.009674; 0.011365;-0.012010;,
      -0.007917; 0.007125;-0.012001;,
      -0.008060; 0.006982;-0.011999;,
      -0.020456;-0.005414;-0.011827;,
      -0.020599;-0.005557;-0.011825;,
      -0.024839;-0.003801;-0.011799;,
      -0.024840; 0.005369;-0.011850;,
      -0.020600; 0.007125;-0.011895;,
      -0.020457; 0.006982;-0.011896;,
      -0.020492;-0.005438;-0.016118;,
      -0.020635;-0.005581;-0.016116;,
      -0.018878;-0.009822;-0.016107;,
      -0.009709;-0.009822;-0.016184;,
      -0.007953;-0.005581;-0.016222;,
      -0.008096;-0.005438;-0.016222;,
      -0.018878;-0.009822;-0.016107;,
      -0.018842;-0.009798;-0.011816;,
      -0.009673;-0.009798;-0.011892;,
      -0.009709;-0.009822;-0.016184;,
      -0.008060;-0.005414;-0.011930;,
      -0.007917;-0.005557;-0.011931;,
      -0.009673;-0.009798;-0.011892;,
      -0.018842;-0.009798;-0.011816;,
      -0.020599;-0.005557;-0.011825;,
      -0.020456;-0.005414;-0.011827;,
      -0.018843; 0.011365;-0.011933;,
      -0.018879; 0.011342;-0.016225;,
      -0.009710; 0.011342;-0.016302;,
      -0.009674; 0.011365;-0.012010;,
      -0.008060; 0.006982;-0.011999;,
      -0.007917; 0.007125;-0.012001;,
      -0.003677; 0.005369;-0.012027;,
      -0.003677;-0.003801;-0.011976;,
      -0.007917;-0.005557;-0.011931;,
      -0.008060;-0.005414;-0.011930;,
      -0.008060;-0.005414;-0.011930;,
      -0.008015;-0.005385;-0.006615;,
      -0.008016; 0.007012;-0.006684;,
      -0.008060; 0.006982;-0.011999;,
      -0.008015;-0.005385;-0.006615;,
      -0.008060;-0.005414;-0.011930;,
      -0.020456;-0.005414;-0.011827;,
      -0.020412;-0.005385;-0.006512;,
      -0.007988; 0.007030;-0.003375;,
      -0.007906; 0.007097; 0.001940;,
      -0.020378; 0.007097; 0.002044;,
      -0.020385; 0.007030;-0.003271;,
      -0.020385; 0.007030;-0.003271;,
      -0.020378; 0.007097; 0.002044;,
      -0.020377;-0.005374; 0.002113;,
      -0.020384;-0.005366;-0.003202;,
      -0.008015;-0.005385;-0.006615;,
      -0.007865;-0.005535;-0.006628;,
      -0.003635;-0.003773;-0.007027;,
      -0.003636; 0.005396;-0.007078;,
      -0.007866; 0.007162;-0.006699;,
      -0.008016; 0.007012;-0.006684;,
      -0.018801;-0.009770;-0.006867;,
      -0.018767;-0.009748;-0.002825;,
      -0.009598;-0.009748;-0.002901;,
      -0.009632;-0.009770;-0.006944;,
      -0.020412;-0.005385;-0.006512;,
      -0.020562;-0.005535;-0.006522;,
      -0.018801;-0.009770;-0.006867;,
      -0.009632;-0.009770;-0.006944;,
      -0.007865;-0.005535;-0.006628;,
      -0.008015;-0.005385;-0.006615;,
      -0.020385; 0.007030;-0.003271;,
      -0.020535; 0.007181;-0.003258;,
      -0.018768; 0.011415;-0.002942;,
      -0.009599; 0.011415;-0.003019;,
      -0.007838; 0.007181;-0.003364;,
      -0.007988; 0.007030;-0.003375;,
      -0.007906;-0.005374; 0.002009;,
      -0.007988;-0.005366;-0.003306;,
      -0.020384;-0.005366;-0.003202;,
      -0.020377;-0.005374; 0.002113;,
      -0.007988; 0.007030;-0.003375;,
      -0.007838; 0.007181;-0.003364;,
      -0.003602; 0.005419;-0.003036;,
      -0.003602;-0.003751;-0.002985;,
      -0.007837;-0.005517;-0.003293;,
      -0.007988;-0.005366;-0.003306;,
      -0.008016; 0.007012;-0.006684;,
      -0.007866; 0.007162;-0.006699;,
      -0.009633; 0.011393;-0.007062;,
      -0.018802; 0.011393;-0.006985;,
      -0.020563; 0.007162;-0.006593;,
      -0.020412; 0.007012;-0.006581;,
      -0.020384;-0.005366;-0.003202;,
      -0.020534;-0.005517;-0.003187;,
      -0.024764;-0.003751;-0.002808;,
      -0.024765; 0.005419;-0.002859;,
      -0.020535; 0.007181;-0.003258;,
      -0.020385; 0.007030;-0.003271;,
      -0.018768; 0.011415;-0.002942;,
      -0.018802; 0.011393;-0.006985;,
      -0.009633; 0.011393;-0.007062;,
      -0.009599; 0.011415;-0.003019;,
      -0.020412; 0.007012;-0.006581;,
      -0.020563; 0.007162;-0.006593;,
      -0.024798; 0.005396;-0.006902;,
      -0.024798;-0.003773;-0.006851;,
      -0.020562;-0.005535;-0.006522;,
      -0.020412;-0.005385;-0.006512;,
      -0.024764;-0.003751;-0.002808;,
      -0.024798;-0.003773;-0.006851;,
      -0.024798; 0.005396;-0.006902;,
      -0.024765; 0.005419;-0.002859;,
      -0.009710; 0.011342;-0.016302;,
      -0.007953; 0.007101;-0.016293;,
      -0.005469; 0.009585;-0.016327;,
      -0.005469; 0.009585;-0.016327;,
      -0.007953; 0.007101;-0.016293;,
      -0.003713; 0.005345;-0.016318;,
      -0.003677; 0.005369;-0.012027;,
      -0.007917; 0.007125;-0.012001;,
      -0.005434; 0.009609;-0.012036;,
      -0.005434; 0.009609;-0.012036;,
      -0.007917; 0.007125;-0.012001;,
      -0.009674; 0.011365;-0.012010;,
      -0.018843; 0.011365;-0.011933;,
      -0.020600; 0.007125;-0.011895;,
      -0.023084; 0.009609;-0.011888;,
      -0.023084; 0.009609;-0.011888;,
      -0.020600; 0.007125;-0.011895;,
      -0.024840; 0.005369;-0.011850;,
      -0.024876; 0.005345;-0.016142;,
      -0.020635; 0.007101;-0.016187;,
      -0.023119; 0.009585;-0.016180;,
      -0.023119; 0.009585;-0.016180;,
      -0.020635; 0.007101;-0.016187;,
      -0.018879; 0.011342;-0.016225;,
      -0.009673;-0.009798;-0.011892;,
      -0.007917;-0.005557;-0.011931;,
      -0.005433;-0.008041;-0.011938;,
      -0.005433;-0.008041;-0.011938;,
      -0.007917;-0.005557;-0.011931;,
      -0.003677;-0.003801;-0.011976;,
      -0.003712;-0.003825;-0.016267;,
      -0.007953;-0.005581;-0.016222;,
      -0.005469;-0.008065;-0.016229;,
      -0.005469;-0.008065;-0.016229;,
      -0.007953;-0.005581;-0.016222;,
      -0.009709;-0.009822;-0.016184;,
      -0.018878;-0.009822;-0.016107;,
      -0.020635;-0.005581;-0.016116;,
      -0.023119;-0.008065;-0.016082;,
      -0.023119;-0.008065;-0.016082;,
      -0.020635;-0.005581;-0.016116;,
      -0.024875;-0.003825;-0.016091;,
      -0.024839;-0.003801;-0.011799;,
      -0.020599;-0.005557;-0.011825;,
      -0.023083;-0.008041;-0.011790;,
      -0.023083;-0.008041;-0.011790;,
      -0.020599;-0.005557;-0.011825;,
      -0.018842;-0.009798;-0.011816;,
      -0.009598;-0.009748;-0.002901;,
      -0.007837;-0.005517;-0.003293;,
      -0.005358;-0.007991;-0.002946;,
      -0.005358;-0.007991;-0.002946;,
      -0.007837;-0.005517;-0.003293;,
      -0.003602;-0.003751;-0.002985;,
      -0.003635;-0.003773;-0.007027;,
      -0.007865;-0.005535;-0.006628;,
      -0.005391;-0.008014;-0.006989;,
      -0.005391;-0.008014;-0.006989;,
      -0.007865;-0.005535;-0.006628;,
      -0.009632;-0.009770;-0.006944;,
      -0.018801;-0.009770;-0.006867;,
      -0.020562;-0.005535;-0.006522;,
      -0.023041;-0.008014;-0.006842;,
      -0.023041;-0.008014;-0.006842;,
      -0.020562;-0.005535;-0.006522;,
      -0.024798;-0.003773;-0.006851;,
      -0.024764;-0.003751;-0.002808;,
      -0.020534;-0.005517;-0.003187;,
      -0.023008;-0.007991;-0.002799;,
      -0.023008;-0.007991;-0.002799;,
      -0.020534;-0.005517;-0.003187;,
      -0.018767;-0.009748;-0.002825;,
      -0.009633; 0.011393;-0.007062;,
      -0.007866; 0.007162;-0.006699;,
      -0.005392; 0.009637;-0.007087;,
      -0.005392; 0.009637;-0.007087;,
      -0.007866; 0.007162;-0.006699;,
      -0.003636; 0.005396;-0.007078;,
      -0.003602; 0.005419;-0.003036;,
      -0.007838; 0.007181;-0.003364;,
      -0.005359; 0.009659;-0.003045;,
      -0.005359; 0.009659;-0.003045;,
      -0.007838; 0.007181;-0.003364;,
      -0.009599; 0.011415;-0.003019;,
      -0.024798; 0.005396;-0.006902;,
      -0.020563; 0.007162;-0.006593;,
      -0.023042; 0.009637;-0.006940;,
      -0.023042; 0.009637;-0.006940;,
      -0.020563; 0.007162;-0.006593;,
      -0.018802; 0.011393;-0.006985;,
      -0.018768; 0.011415;-0.002942;,
      -0.020535; 0.007181;-0.003258;,
      -0.023008; 0.009659;-0.002897;,
      -0.023008; 0.009659;-0.002897;,
      -0.020535; 0.007181;-0.003258;,
      -0.024765; 0.005419;-0.002859;,
      -0.018878;-0.009822;-0.016107;,
      -0.023119;-0.008065;-0.016082;,
      -0.023083;-0.008041;-0.011790;,
      -0.018842;-0.009798;-0.011816;,
      -0.023119;-0.008065;-0.016082;,
      -0.024875;-0.003825;-0.016091;,
      -0.024839;-0.003801;-0.011799;,
      -0.023083;-0.008041;-0.011790;,
      -0.003677; 0.005369;-0.012027;,
      -0.005434; 0.009609;-0.012036;,
      -0.005469; 0.009585;-0.016327;,
      -0.003713; 0.005345;-0.016318;,
      -0.005434; 0.009609;-0.012036;,
      -0.009674; 0.011365;-0.012010;,
      -0.009710; 0.011342;-0.016302;,
      -0.005469; 0.009585;-0.016327;,
      -0.024876; 0.005345;-0.016142;,
      -0.023119; 0.009585;-0.016180;,
      -0.023084; 0.009609;-0.011888;,
      -0.024840; 0.005369;-0.011850;,
      -0.023119; 0.009585;-0.016180;,
      -0.018879; 0.011342;-0.016225;,
      -0.018843; 0.011365;-0.011933;,
      -0.023084; 0.009609;-0.011888;,
      -0.009673;-0.009798;-0.011892;,
      -0.005433;-0.008041;-0.011938;,
      -0.005469;-0.008065;-0.016229;,
      -0.009709;-0.009822;-0.016184;,
      -0.005433;-0.008041;-0.011938;,
      -0.003677;-0.003801;-0.011976;,
      -0.003712;-0.003825;-0.016267;,
      -0.005469;-0.008065;-0.016229;,
      -0.024798; 0.005396;-0.006902;,
      -0.023042; 0.009637;-0.006940;,
      -0.023008; 0.009659;-0.002897;,
      -0.024765; 0.005419;-0.002859;,
      -0.023042; 0.009637;-0.006940;,
      -0.018802; 0.011393;-0.006985;,
      -0.018768; 0.011415;-0.002942;,
      -0.023008; 0.009659;-0.002897;,
      -0.009633; 0.011393;-0.007062;,
      -0.005392; 0.009637;-0.007087;,
      -0.005359; 0.009659;-0.003045;,
      -0.009599; 0.011415;-0.003019;,
      -0.005392; 0.009637;-0.007087;,
      -0.003636; 0.005396;-0.007078;,
      -0.003602; 0.005419;-0.003036;,
      -0.005359; 0.009659;-0.003045;,
      -0.024764;-0.003751;-0.002808;,
      -0.023008;-0.007991;-0.002799;,
      -0.023041;-0.008014;-0.006842;,
      -0.024798;-0.003773;-0.006851;,
      -0.023008;-0.007991;-0.002799;,
      -0.018767;-0.009748;-0.002825;,
      -0.018801;-0.009770;-0.006867;,
      -0.023041;-0.008014;-0.006842;,
      -0.003635;-0.003773;-0.007027;,
      -0.005391;-0.008014;-0.006989;,
      -0.005358;-0.007991;-0.002946;,
      -0.003602;-0.003751;-0.002985;,
      -0.005391;-0.008014;-0.006989;,
      -0.009632;-0.009770;-0.006944;,
      -0.009598;-0.009748;-0.002901;,
      -0.005358;-0.007991;-0.002946;,
      -0.008096; 0.006958;-0.016291;,
      -0.007953; 0.007101;-0.016293;,
      -0.009710; 0.011342;-0.016302;,
      -0.018879; 0.011342;-0.016225;,
      -0.020635; 0.007101;-0.016187;,
      -0.020492; 0.006958;-0.016187;,
       0.024767;-0.004912; 0.078160;,
       0.024819;-0.004878; 0.084350;,
       0.024818; 0.007519; 0.084281;,
       0.024767; 0.007484; 0.078091;,
       0.010392;-0.004943; 0.072643;,
       0.024767;-0.004912; 0.078160;,
       0.024767; 0.007484; 0.078091;,
       0.010391; 0.007453; 0.072574;,
       0.022918; 0.006784; 0.084301;,
       0.022931; 0.006793; 0.085853;,
      -0.005341; 0.006793; 0.086089;,
      -0.005354; 0.006784; 0.084537;,
      -0.007254; 0.007519; 0.084549;,
      -0.005354; 0.006784; 0.084537;,
      -0.005353;-0.004143; 0.084598;,
      -0.007253;-0.004878; 0.084618;,
       0.024818; 0.007519; 0.084281;,
       0.022918; 0.006784; 0.084301;,
      -0.005354; 0.006784; 0.084537;,
      -0.007254; 0.007519; 0.084549;,
      -0.007253;-0.004878; 0.084618;,
      -0.005353;-0.004143; 0.084598;,
       0.022919;-0.004143; 0.084362;,
       0.024819;-0.004878; 0.084350;,
      -0.014842;-0.007538; 0.086248;,
      -0.014735;-0.007467; 0.099162;,
       0.032542;-0.007467; 0.098767;,
       0.032434;-0.007538; 0.085853;,
      -0.005354; 0.006784; 0.084537;,
      -0.005341; 0.006793; 0.086089;,
      -0.005340;-0.004135; 0.086150;,
      -0.005353;-0.004143; 0.084598;,
      -0.005353;-0.004143; 0.084598;,
      -0.005340;-0.004135; 0.086150;,
       0.022932;-0.004135; 0.085914;,
       0.022919;-0.004143; 0.084362;,
       0.022919;-0.004143; 0.084362;,
       0.022932;-0.004135; 0.085914;,
       0.022931; 0.006793; 0.085853;,
       0.022918; 0.006784; 0.084301;,
      -0.005340;-0.004135; 0.086150;,
      -0.014986;-0.006146; 0.086241;,
      -0.014842;-0.007538; 0.086248;,
       0.032434;-0.007538; 0.085853;,
       0.032578;-0.006146; 0.085844;,
       0.022932;-0.004135; 0.085914;,
       0.032433; 0.010197; 0.085755;,
       0.032541; 0.010269; 0.098669;,
      -0.014735; 0.010269; 0.099063;,
      -0.014843; 0.010197; 0.086149;,
      -0.014735; 0.010269; 0.099063;,
       0.032541; 0.010269; 0.098669;,
       0.037365; 0.008271; 0.098639;,
       0.039364; 0.003446; 0.098650;,
       0.039364;-0.000644; 0.098672;,
       0.037366;-0.005468; 0.098716;,
       0.032542;-0.007467; 0.098767;,
      -0.014735;-0.007467; 0.099162;,
      -0.019559;-0.005468; 0.099191;,
      -0.021557;-0.000644; 0.099181;,
      -0.021558; 0.003446; 0.099158;,
      -0.019559; 0.008271; 0.099115;,
       0.039256;-0.000716; 0.085758;,
       0.039364;-0.000644; 0.098672;,
       0.039364; 0.003446; 0.098650;,
       0.039256; 0.003374; 0.085736;,
       0.022932;-0.004135; 0.085914;,
       0.032578;-0.006146; 0.085844;,
       0.039256;-0.000716; 0.085758;,
       0.039256; 0.003374; 0.085736;,
       0.032577; 0.008804; 0.085761;,
       0.022931; 0.006793; 0.085853;,
       0.022931; 0.006793; 0.085853;,
       0.032577; 0.008804; 0.085761;,
       0.032433; 0.010197; 0.085755;,
      -0.014843; 0.010197; 0.086149;,
      -0.014987; 0.008804; 0.086158;,
      -0.005341; 0.006793; 0.086089;,
      -0.005341; 0.006793; 0.086089;,
      -0.014987; 0.008804; 0.086158;,
      -0.021665; 0.003374; 0.086244;,
      -0.021665;-0.000716; 0.086267;,
      -0.014986;-0.006146; 0.086241;,
      -0.005340;-0.004135; 0.086150;,
      -0.014842;-0.007538; 0.086248;,
      -0.014986;-0.006146; 0.086241;,
      -0.019667;-0.005540; 0.086277;,
      -0.019667;-0.005540; 0.086277;,
      -0.014986;-0.006146; 0.086241;,
      -0.021665;-0.000716; 0.086267;,
      -0.021665; 0.003374; 0.086244;,
      -0.014987; 0.008804; 0.086158;,
      -0.019667; 0.008199; 0.086201;,
      -0.019667; 0.008199; 0.086201;,
      -0.014987; 0.008804; 0.086158;,
      -0.014843; 0.010197; 0.086149;,
       0.032433; 0.010197; 0.085755;,
       0.032577; 0.008804; 0.085761;,
       0.037257; 0.008199; 0.085725;,
       0.037257; 0.008199; 0.085725;,
       0.032577; 0.008804; 0.085761;,
       0.039256; 0.003374; 0.085736;,
       0.039256;-0.000716; 0.085758;,
       0.032578;-0.006146; 0.085844;,
       0.037258;-0.005540; 0.085802;,
       0.037258;-0.005540; 0.085802;,
       0.032578;-0.006146; 0.085844;,
       0.032434;-0.007538; 0.085853;,
       0.039256;-0.000716; 0.085758;,
       0.037258;-0.005540; 0.085802;,
       0.037366;-0.005468; 0.098716;,
       0.039364;-0.000644; 0.098672;,
       0.037258;-0.005540; 0.085802;,
       0.032434;-0.007538; 0.085853;,
       0.032542;-0.007467; 0.098767;,
       0.037366;-0.005468; 0.098716;,
      -0.021557;-0.000644; 0.099181;,
      -0.019559;-0.005468; 0.099191;,
      -0.019667;-0.005540; 0.086277;,
      -0.021665;-0.000716; 0.086267;,
      -0.019559;-0.005468; 0.099191;,
      -0.014735;-0.007467; 0.099162;,
      -0.014842;-0.007538; 0.086248;,
      -0.019667;-0.005540; 0.086277;,
       0.032433; 0.010197; 0.085755;,
       0.037257; 0.008199; 0.085725;,
       0.037365; 0.008271; 0.098639;,
       0.032541; 0.010269; 0.098669;,
       0.037257; 0.008199; 0.085725;,
       0.039256; 0.003374; 0.085736;,
       0.039364; 0.003446; 0.098650;,
       0.037365; 0.008271; 0.098639;,
      -0.021665; 0.003374; 0.086244;,
      -0.019667; 0.008199; 0.086201;,
      -0.019559; 0.008271; 0.099115;,
      -0.021558; 0.003446; 0.099158;,
      -0.019667; 0.008199; 0.086201;,
      -0.014843; 0.010197; 0.086149;,
      -0.014735; 0.010269; 0.099063;,
      -0.019559; 0.008271; 0.099115;,
      -0.021665; 0.003374; 0.086244;,
      -0.021558; 0.003446; 0.099158;,
      -0.021557;-0.000644; 0.099181;,
      -0.021665;-0.000716; 0.086267;;
      170;
      4;3,2,1,0;,
      4;7,6,5,4;,
      4;11,10,9,8;,
      5;16,15,14,13,12;,
      7;23,22,21,20,19,18,17;,
      4;27,26,25,24;,
      4;31,30,29,28;,
      4;35,34,33,32;,
      4;39,38,37,36;,
      4;43,42,41,40;,
      5;48,47,46,45,44;,
      4;52,51,50,49;,
      4;56,55,54,53;,
      4;60,59,58,57;,
      4;64,63,62,61;,
      4;68,67,66,65;,
      4;72,71,70,69;,
      6;78,77,76,75,74,73;,
      4;82,81,80,79;,
      4;86,85,84,83;,
      4;90,89,88,87;,
      4;94,93,92,91;,
      4;98,97,96,95;,
      4;102,101,100,99;,
      4;106,105,104,103;,
      4;110,109,108,107;,
      4;114,113,112,111;,
      3;117,116,115;,
      3;120,119,118;,
      3;123,122,121;,
      3;126,125,124;,
      3;129,128,127;,
      3;132,131,130;,
      3;135,134,133;,
      3;138,137,136;,
      3;141,140,139;,
      3;144,143,142;,
      3;147,146,145;,
      3;150,149,148;,
      3;153,152,151;,
      3;156,155,154;,
      3;159,158,157;,
      3;162,161,160;,
      4;166,165,164,163;,
      4;170,169,168,167;,
      4;174,173,172,171;,
      4;178,177,176,175;,
      4;182,181,180,179;,
      4;186,185,184,183;,
      4;190,189,188,187;,
      4;194,193,192,191;,
      4;198,197,196,195;,
      4;202,201,200,199;,
      4;206,205,204,203;,
      4;210,209,208,207;,
      7;217,216,215,214,213,212,211;,
      4;221,220,219,218;,
      4;225,224,223,222;,
      4;229,228,227,226;,
      4;233,232,231,230;,
      4;237,236,235,234;,
      4;241,240,239,238;,
      6;247,246,245,244,243,242;,
      6;253,252,251,250,249,248;,
      4;257,256,255,254;,
      6;263,262,261,260,259,258;,
      6;269,268,267,266,265,264;,
      6;275,274,273,272,271,270;,
      4;279,278,277,276;,
      6;285,284,283,282,281,280;,
      4;289,288,287,286;,
      6;295,294,293,292,291,290;,
      4;299,298,297,296;,
      4;303,302,301,300;,
      4;307,306,305,304;,
      4;311,310,309,308;,
      6;317,316,315,314,313,312;,
      4;321,320,319,318;,
      6;327,326,325,324,323,322;,
      6;333,332,331,330,329,328;,
      4;337,336,335,334;,
      6;343,342,341,340,339,338;,
      6;349,348,347,346,345,344;,
      6;355,354,353,352,351,350;,
      4;359,358,357,356;,
      6;365,364,363,362,361,360;,
      4;369,368,367,366;,
      3;372,371,370;,
      3;375,374,373;,
      3;378,377,376;,
      3;381,380,379;,
      3;384,383,382;,
      3;387,386,385;,
      3;390,389,388;,
      3;393,392,391;,
      3;396,395,394;,
      3;399,398,397;,
      3;402,401,400;,
      3;405,404,403;,
      3;408,407,406;,
      3;411,410,409;,
      3;414,413,412;,
      3;417,416,415;,
      3;420,419,418;,
      3;423,422,421;,
      3;426,425,424;,
      3;429,428,427;,
      3;432,431,430;,
      3;435,434,433;,
      3;438,437,436;,
      3;441,440,439;,
      3;444,443,442;,
      3;447,446,445;,
      3;450,449,448;,
      3;453,452,451;,
      3;456,455,454;,
      3;459,458,457;,
      3;462,461,460;,
      3;465,464,463;,
      4;469,468,467,466;,
      4;473,472,471,470;,
      4;477,476,475,474;,
      4;481,480,479,478;,
      4;485,484,483,482;,
      4;489,488,487,486;,
      4;493,492,491,490;,
      4;497,496,495,494;,
      4;501,500,499,498;,
      4;505,504,503,502;,
      4;509,508,507,506;,
      4;513,512,511,510;,
      4;517,516,515,514;,
      4;521,520,519,518;,
      4;525,524,523,522;,
      4;529,528,527,526;,
      6;535,534,533,532,531,530;,
      4;539,538,537,536;,
      4;543,542,541,540;,
      4;547,546,545,544;,
      4;551,550,549,548;,
      4;555,554,553,552;,
      4;559,558,557,556;,
      4;563,562,561,560;,
      4;567,566,565,564;,
      4;571,570,569,568;,
      4;575,574,573,572;,
      6;581,580,579,578,577,576;,
      4;585,584,583,582;,
      12;597,596,595,594,593,592,591,590,589,588,587,586;,
      4;601,600,599,598;,
      6;607,606,605,604,603,602;,
      6;613,612,611,610,609,608;,
      6;619,618,617,616,615,614;,
      3;622,621,620;,
      3;625,624,623;,
      3;628,627,626;,
      3;631,630,629;,
      3;634,633,632;,
      3;637,636,635;,
      3;640,639,638;,
      3;643,642,641;,
      4;647,646,645,644;,
      4;651,650,649,648;,
      4;655,654,653,652;,
      4;659,658,657,656;,
      4;663,662,661,660;,
      4;667,666,665,664;,
      4;671,670,669,668;,
      4;675,674,673,672;,
      4;679,678,677,676;;
      MeshNormals {
        680;
        -0.309041;-0.306535;-0.900294;,
        -0.262895;-0.265492; 0.927578;,
         0.278351;-0.265492; 0.923057;,
         0.293961;-0.306535;-0.905330;,
        -0.572535; 0.580551; 0.578934;,
        -0.572482;-0.574132; 0.585352;,
         0.582179;-0.574132; 0.575709;,
         0.582125; 0.580551; 0.569290;,
         0.707106;-0.707101;-0.002992;,
         0.727179;-0.679397;-0.098141;,
         0.727115; 0.678331;-0.105688;,
         0.707304; 0.706818;-0.011367;,
        -0.299005;-0.903282; 0.307699;,
        -0.132580;-0.663402; 0.736424;,
        -0.657567;-0.597147; 0.459371;,
        -0.582125;-0.580551;-0.569290;,
        -0.005873;-0.711027;-0.703140;,
        -0.299005;-0.903282; 0.307699;,
        -0.005873;-0.711027;-0.703140;,
         0.089787;-0.682911;-0.724963;,
         0.373122;-0.656862;-0.655219;,
         0.652567;-0.655322;-0.380407;,
         0.727179;-0.679397;-0.098141;,
         0.707106;-0.707101;-0.002992;,
         0.294417;-0.306988;-0.905029;,
         0.707106;-0.707101;-0.002992;,
         0.707304; 0.706818;-0.011367;,
         0.293001; 0.295094;-0.909434;,
        -0.308147; 0.295548;-0.904266;,
        -0.299549; 0.906610; 0.297203;,
        -0.299005;-0.903282; 0.307699;,
        -0.307665;-0.305612;-0.901079;,
        -0.307665;-0.305612;-0.901079;,
        -0.299005;-0.903282; 0.307699;,
         0.707106;-0.707101;-0.002992;,
         0.294417;-0.306988;-0.905029;,
        -0.005873;-0.711027;-0.703140;,
        -0.005938; 0.703165;-0.711002;,
         0.089724; 0.674817;-0.732511;,
         0.089787;-0.682911;-0.724963;,
        -0.582179; 0.574132;-0.575709;,
        -0.309070; 0.296478;-0.903646;,
        -0.309041;-0.306536;-0.900294;,
        -0.582125;-0.580551;-0.569290;,
        -0.005938; 0.703165;-0.711002;,
        -0.582179; 0.574132;-0.575709;,
        -0.657622; 0.602156; 0.452704;,
        -0.132642; 0.671537; 0.729003;,
        -0.299549; 0.906610; 0.297203;,
        -0.299549; 0.906610; 0.297203;,
        -0.132642; 0.671537; 0.729003;,
        -0.132580;-0.663402; 0.736424;,
        -0.299005;-0.903282; 0.307699;,
        -0.151165; 0.728153;-0.668538;,
        -0.140046; 0.735554; 0.662833;,
         0.151098; 0.735554; 0.660401;,
         0.139978; 0.728153;-0.670969;,
        -0.291673; 0.304269; 0.906834;,
        -0.726286; 0.149275; 0.670988;,
        -0.726273;-0.141874; 0.672607;,
        -0.291646;-0.294195; 0.910160;,
        -0.299549; 0.906610; 0.297203;,
        -0.308147; 0.295548;-0.904266;,
         0.293001; 0.295094;-0.909434;,
         0.707304; 0.706818;-0.011367;,
        -0.572535; 0.580551; 0.578934;,
        -0.293961; 0.306535; 0.905330;,
        -0.293933;-0.296478; 0.908683;,
        -0.572482;-0.574132; 0.585352;,
        -0.710573;-0.147997;-0.687882;,
        -0.698972;-0.140274; 0.701257;,
        -0.698985; 0.147997; 0.699655;,
        -0.710587; 0.140275;-0.689485;,
        -0.293961; 0.306535; 0.905330;,
         0.008351; 0.005559; 0.999950;,
        -0.726286; 0.149275; 0.670988;,
        -0.726273;-0.141874; 0.672607;,
         0.008351; 0.005559; 0.999950;,
        -0.293933;-0.296478; 0.908683;,
         0.294417;-0.306988;-0.905029;,
         0.140047;-0.735554;-0.662833;,
        -0.151097;-0.735554;-0.660402;,
        -0.307665;-0.305612;-0.901079;,
         0.293001; 0.295094;-0.909434;,
         0.726273; 0.141874;-0.672607;,
         0.726286;-0.149276;-0.670988;,
         0.294417;-0.306988;-0.905029;,
        -0.307665;-0.305612;-0.901079;,
        -0.737392;-0.149275;-0.658764;,
        -0.737406; 0.141874;-0.660382;,
        -0.308147; 0.295548;-0.904266;,
        -0.291646;-0.294195; 0.910160;,
        -0.139978;-0.728153; 0.670969;,
         0.151165;-0.728152; 0.668538;,
         0.306807;-0.294195; 0.905162;,
        -0.726286; 0.149275; 0.670988;,
        -0.737406; 0.141874;-0.660382;,
        -0.737392;-0.149275;-0.658764;,
        -0.726273;-0.141874; 0.672607;,
         0.737405;-0.141874; 0.660382;,
         0.726286;-0.149276;-0.670988;,
         0.726273; 0.141874;-0.672607;,
         0.737392; 0.149276; 0.658764;,
        -0.308147; 0.295548;-0.904266;,
        -0.151165; 0.728153;-0.668538;,
         0.139978; 0.728153;-0.670969;,
         0.293001; 0.295094;-0.909434;,
         0.306807;-0.294195; 0.905162;,
         0.737405;-0.141874; 0.660382;,
         0.737392; 0.149276; 0.658764;,
         0.306779; 0.304269; 0.901836;,
        -0.139978;-0.728153; 0.670969;,
        -0.151097;-0.735554;-0.660402;,
         0.140047;-0.735554;-0.662833;,
         0.151165;-0.728152; 0.668538;,
        -0.726286; 0.149275; 0.670988;,
        -0.291673; 0.304269; 0.906834;,
        -0.543728; 0.552480; 0.631764;,
        -0.543728; 0.552480; 0.631764;,
        -0.291673; 0.304269; 0.906834;,
        -0.140046; 0.735554; 0.662833;,
        -0.151165; 0.728153;-0.668538;,
        -0.308147; 0.295548;-0.904266;,
        -0.554254; 0.545473;-0.628698;,
        -0.554254; 0.545473;-0.628698;,
        -0.308147; 0.295548;-0.904266;,
        -0.737406; 0.141874;-0.660382;,
         0.737405;-0.141874; 0.660382;,
         0.306807;-0.294195; 0.905162;,
         0.554255;-0.545473; 0.628698;,
         0.554255;-0.545473; 0.628698;,
         0.306807;-0.294195; 0.905162;,
         0.151165;-0.728152; 0.668538;,
         0.140047;-0.735554;-0.662833;,
         0.294417;-0.306988;-0.905029;,
         0.543728;-0.552481;-0.631764;,
         0.543728;-0.552481;-0.631764;,
         0.294417;-0.306988;-0.905029;,
         0.726286;-0.149276;-0.670988;,
        -0.737392;-0.149275;-0.658764;,
        -0.307665;-0.305612;-0.901079;,
        -0.554203;-0.552480;-0.622595;,
        -0.554203;-0.552480;-0.622595;,
        -0.307665;-0.305612;-0.901079;,
        -0.151097;-0.735554;-0.660402;,
         0.726273; 0.141874;-0.672607;,
         0.293001; 0.295094;-0.909434;,
         0.543677; 0.545473;-0.637867;,
         0.543677; 0.545473;-0.637867;,
         0.293001; 0.295094;-0.909434;,
         0.139978; 0.728153;-0.670969;,
         0.151098; 0.735554; 0.660401;,
         0.306779; 0.304269; 0.901836;,
         0.554204; 0.552480; 0.622594;,
         0.554204; 0.552480; 0.622594;,
         0.306779; 0.304269; 0.901836;,
         0.737392; 0.149276; 0.658764;,
        -0.139978;-0.728153; 0.670969;,
        -0.291646;-0.294195; 0.910160;,
        -0.543677;-0.545473; 0.637867;,
        -0.543677;-0.545473; 0.637867;,
        -0.291646;-0.294195; 0.910160;,
        -0.726273;-0.141874; 0.672607;,
        -0.726286; 0.149275; 0.670988;,
        -0.543728; 0.552480; 0.631764;,
        -0.554254; 0.545473;-0.628698;,
        -0.737406; 0.141874;-0.660382;,
        -0.543728; 0.552480; 0.631764;,
        -0.140046; 0.735554; 0.662833;,
        -0.151165; 0.728153;-0.668538;,
        -0.554254; 0.545473;-0.628698;,
         0.737405;-0.141874; 0.660382;,
         0.554255;-0.545473; 0.628698;,
         0.543728;-0.552481;-0.631764;,
         0.726286;-0.149276;-0.670988;,
         0.554255;-0.545473; 0.628698;,
         0.151165;-0.728152; 0.668538;,
         0.140047;-0.735554;-0.662833;,
         0.543728;-0.552481;-0.631764;,
         0.726273; 0.141874;-0.672607;,
         0.543677; 0.545473;-0.637867;,
         0.554204; 0.552480; 0.622594;,
         0.737392; 0.149276; 0.658764;,
         0.543677; 0.545473;-0.637867;,
         0.139978; 0.728153;-0.670969;,
         0.151098; 0.735554; 0.660401;,
         0.554204; 0.552480; 0.622594;,
        -0.737392;-0.149275;-0.658764;,
        -0.554203;-0.552480;-0.622595;,
        -0.543677;-0.545473; 0.637867;,
        -0.726273;-0.141874; 0.672607;,
        -0.554203;-0.552480;-0.622595;,
        -0.151097;-0.735554;-0.660402;,
        -0.139978;-0.728153; 0.670969;,
        -0.543677;-0.545473; 0.637867;,
         0.306779; 0.304269; 0.901836;,
         0.151098; 0.735554; 0.660401;,
        -0.140046; 0.735554; 0.662833;,
        -0.291673; 0.304269; 0.906834;,
         0.727179;-0.679397;-0.098141;,
         0.652567;-0.655322;-0.380407;,
         0.652507; 0.651112;-0.387669;,
         0.727115; 0.678331;-0.105688;,
         0.652567;-0.655322;-0.380407;,
         0.373122;-0.656862;-0.655219;,
         0.373061; 0.649571;-0.662482;,
         0.652507; 0.651112;-0.387669;,
         0.373122;-0.656862;-0.655219;,
         0.089787;-0.682911;-0.724963;,
         0.089724; 0.674817;-0.732511;,
         0.373061; 0.649571;-0.662482;,
        -0.005938; 0.703165;-0.711002;,
        -0.299549; 0.906610; 0.297203;,
         0.707304; 0.706818;-0.011367;,
         0.727115; 0.678331;-0.105688;,
         0.652507; 0.651112;-0.387669;,
         0.373061; 0.649571;-0.662482;,
         0.089724; 0.674817;-0.732511;,
         0.293961;-0.306535;-0.905330;,
         0.278351;-0.265492; 0.923057;,
         0.278325; 0.275764; 0.920049;,
         0.293933; 0.296478;-0.908683;,
        -0.572482;-0.574132; 0.585352;,
        -0.293933;-0.296478; 0.908683;,
         0.309069;-0.296478; 0.903647;,
         0.582179;-0.574132; 0.575709;,
        -0.280631; 0.267791;-0.921702;,
        -0.291673; 0.304269; 0.906834;,
        -0.291646;-0.294195; 0.910160;,
        -0.280606;-0.278048;-0.918667;,
        -0.293961; 0.306535; 0.905330;,
        -0.572535; 0.580551; 0.578934;,
         0.582125; 0.580551; 0.569290;,
         0.309041; 0.306535; 0.900294;,
         0.726273; 0.141874;-0.672607;,
         0.737392; 0.149276; 0.658764;,
         0.737405;-0.141874; 0.660382;,
         0.726286;-0.149275;-0.670988;,
        -0.737392;-0.149276;-0.658764;,
        -0.726273;-0.141874; 0.672607;,
        -0.726286; 0.149275; 0.670988;,
        -0.737405; 0.141874;-0.660383;,
         0.309069;-0.296478; 0.903647;,
         0.008351; 0.005559; 0.999950;,
         0.737405;-0.141874; 0.660382;,
         0.737392; 0.149276; 0.658764;,
         0.008351; 0.005559; 0.999950;,
         0.309041; 0.306535; 0.900294;,
        -0.280631; 0.267791;-0.921702;,
         0.044413;-0.058283;-0.997312;,
        -0.149967; 0.700932;-0.697284;,
         0.138299; 0.700932;-0.699691;,
        -0.061065;-0.058284;-0.996431;,
         0.265198; 0.267791;-0.926260;,
         0.582179;-0.574132; 0.575709;,
         0.309069;-0.296478; 0.903647;,
         0.309041; 0.306535; 0.900294;,
         0.582125; 0.580551; 0.569290;,
         0.293961;-0.306535;-0.905330;,
        -0.008351;-0.005559;-0.999950;,
         0.140046;-0.735554;-0.662833;,
        -0.151097;-0.735554;-0.660401;,
        -0.008351;-0.005559;-0.999950;,
        -0.309041;-0.306535;-0.900294;,
         0.293933; 0.296478;-0.908683;,
        -0.008352;-0.005559;-0.999950;,
         0.726273; 0.141874;-0.672607;,
         0.726286;-0.149275;-0.670988;,
        -0.008351;-0.005559;-0.999950;,
         0.293961;-0.306535;-0.905330;,
         0.309041; 0.306535; 0.900294;,
         0.008351; 0.005559; 0.999950;,
         0.151097; 0.735554; 0.660401;,
        -0.140046; 0.735554; 0.662833;,
         0.008351; 0.005559; 0.999950;,
        -0.293961; 0.306535; 0.905330;,
         0.151097; 0.735554; 0.660401;,
         0.139978; 0.728153;-0.670969;,
        -0.151165; 0.728153;-0.668538;,
        -0.140046; 0.735554; 0.662833;,
        -0.309069; 0.296478;-0.903647;,
        -0.008351;-0.005559;-0.999950;,
        -0.151165; 0.728153;-0.668538;,
         0.139978; 0.728153;-0.670969;,
        -0.008352;-0.005559;-0.999950;,
         0.293933; 0.296478;-0.908683;,
         0.140046;-0.735554;-0.662833;,
         0.151166;-0.728153; 0.668538;,
        -0.139978;-0.728152; 0.670970;,
        -0.151097;-0.735554;-0.660401;,
        -0.309041;-0.306535;-0.900294;,
        -0.008351;-0.005559;-0.999950;,
        -0.737392;-0.149276;-0.658764;,
        -0.737405; 0.141874;-0.660383;,
        -0.008351;-0.005559;-0.999950;,
        -0.309069; 0.296478;-0.903647;,
        -0.309069; 0.296478;-0.903647;,
        -0.262920; 0.275764; 0.924569;,
        -0.262895;-0.265492; 0.927578;,
        -0.309041;-0.306535;-0.900294;,
        -0.262920; 0.275764; 0.924569;,
        -0.309069; 0.296478;-0.903647;,
         0.293933; 0.296478;-0.908683;,
         0.278325; 0.275764; 0.920049;,
        -0.280606;-0.278048;-0.918667;,
        -0.291646;-0.294195; 0.910160;,
         0.306807;-0.294195; 0.905162;,
         0.265223;-0.278048;-0.923226;,
         0.265223;-0.278048;-0.923226;,
         0.306807;-0.294195; 0.905162;,
         0.306779; 0.304269; 0.901836;,
         0.265198; 0.267791;-0.926260;,
        -0.262920; 0.275764; 0.924569;,
         0.061070;-0.047197; 0.997017;,
        -0.698985; 0.147997; 0.699655;,
        -0.698972;-0.140274; 0.701257;,
         0.061065; 0.058284; 0.996431;,
        -0.262895;-0.265492; 0.927578;,
         0.149901; 0.708654; 0.689448;,
         0.138299; 0.700932;-0.699691;,
        -0.149967; 0.700932;-0.697284;,
        -0.138365; 0.708654; 0.691856;,
         0.278325; 0.275764; 0.920049;,
        -0.044409;-0.047197; 0.997898;,
         0.149901; 0.708654; 0.689448;,
        -0.138365; 0.708654; 0.691856;,
         0.061070;-0.047197; 0.997017;,
        -0.262920; 0.275764; 0.924569;,
         0.265223;-0.278048;-0.923226;,
        -0.061069; 0.047196;-0.997017;,
         0.138365;-0.708655;-0.691855;,
        -0.149901;-0.708654;-0.689448;,
         0.044409; 0.047196;-0.997898;,
        -0.280606;-0.278048;-0.918667;,
        -0.291673; 0.304269; 0.906834;,
        -0.280631; 0.267791;-0.921702;,
         0.265198; 0.267791;-0.926260;,
         0.306779; 0.304269; 0.901836;,
        -0.280606;-0.278048;-0.918667;,
         0.044409; 0.047196;-0.997898;,
        -0.710573;-0.147997;-0.687882;,
        -0.710587; 0.140275;-0.689485;,
         0.044413;-0.058283;-0.997312;,
        -0.280631; 0.267791;-0.921702;,
        -0.262895;-0.265492; 0.927578;,
         0.061065; 0.058284; 0.996431;,
        -0.138299;-0.700931; 0.699692;,
         0.149966;-0.700932; 0.697284;,
        -0.044414; 0.058284; 0.997311;,
         0.278351;-0.265492; 0.923057;,
         0.265198; 0.267791;-0.926260;,
        -0.061065;-0.058284;-0.996431;,
         0.698972; 0.140274;-0.701257;,
         0.698985;-0.147997;-0.699655;,
        -0.061069; 0.047196;-0.997017;,
         0.265223;-0.278048;-0.923226;,
         0.138365;-0.708655;-0.691855;,
         0.149966;-0.700932; 0.697284;,
        -0.138299;-0.700931; 0.699692;,
        -0.149901;-0.708654;-0.689448;,
         0.278351;-0.265492; 0.923057;,
        -0.044414; 0.058284; 0.997311;,
         0.710587;-0.140274; 0.689485;,
         0.710573; 0.147997; 0.687883;,
        -0.044409;-0.047197; 0.997898;,
         0.278325; 0.275764; 0.920049;,
         0.698972; 0.140274;-0.701257;,
         0.710573; 0.147997; 0.687883;,
         0.710587;-0.140274; 0.689485;,
         0.698985;-0.147997;-0.699655;,
        -0.139978;-0.728152; 0.670970;,
         0.008351; 0.005559; 0.999950;,
        -0.543677;-0.545473; 0.637867;,
        -0.543677;-0.545473; 0.637867;,
         0.008351; 0.005559; 0.999950;,
        -0.726273;-0.141874; 0.672607;,
        -0.737392;-0.149276;-0.658764;,
        -0.008351;-0.005559;-0.999950;,
        -0.554204;-0.552480;-0.622594;,
        -0.554204;-0.552480;-0.622594;,
        -0.008351;-0.005559;-0.999950;,
        -0.151097;-0.735554;-0.660401;,
         0.140046;-0.735554;-0.662833;,
        -0.008351;-0.005559;-0.999950;,
         0.543728;-0.552480;-0.631764;,
         0.543728;-0.552480;-0.631764;,
        -0.008351;-0.005559;-0.999950;,
         0.726286;-0.149275;-0.670988;,
         0.737405;-0.141874; 0.660382;,
         0.008351; 0.005559; 0.999950;,
         0.554255;-0.545473; 0.628698;,
         0.554255;-0.545473; 0.628698;,
         0.008351; 0.005559; 0.999950;,
         0.151166;-0.728153; 0.668538;,
        -0.151165; 0.728153;-0.668538;,
        -0.008351;-0.005559;-0.999950;,
        -0.554255; 0.545473;-0.628698;,
        -0.554255; 0.545473;-0.628698;,
        -0.008351;-0.005559;-0.999950;,
        -0.737405; 0.141874;-0.660383;,
        -0.726286; 0.149275; 0.670988;,
         0.008351; 0.005559; 0.999950;,
        -0.543728; 0.552480; 0.631764;,
        -0.543728; 0.552480; 0.631764;,
         0.008351; 0.005559; 0.999950;,
        -0.140046; 0.735554; 0.662833;,
         0.151097; 0.735554; 0.660401;,
         0.008351; 0.005559; 0.999950;,
         0.554204; 0.552480; 0.622594;,
         0.554204; 0.552480; 0.622594;,
         0.008351; 0.005559; 0.999950;,
         0.737392; 0.149276; 0.658764;,
         0.726273; 0.141874;-0.672607;,
        -0.008352;-0.005559;-0.999950;,
         0.543677; 0.545473;-0.637868;,
         0.543677; 0.545473;-0.637868;,
        -0.008352;-0.005559;-0.999950;,
         0.139978; 0.728153;-0.670969;,
        -0.149967; 0.700932;-0.697284;,
         0.044413;-0.058283;-0.997312;,
        -0.536270; 0.527065;-0.659255;,
        -0.536270; 0.527065;-0.659255;,
         0.044413;-0.058283;-0.997312;,
        -0.710587; 0.140275;-0.689485;,
        -0.698985; 0.147997; 0.699655;,
         0.061070;-0.047197; 0.997017;,
        -0.525233; 0.534411; 0.662220;,
        -0.525233; 0.534411; 0.662220;,
         0.061070;-0.047197; 0.997017;,
        -0.138365; 0.708654; 0.691856;,
         0.149901; 0.708654; 0.689448;,
        -0.044409;-0.047197; 0.997898;,
         0.536221; 0.534411; 0.653355;,
         0.536221; 0.534411; 0.653355;,
        -0.044409;-0.047197; 0.997898;,
         0.710573; 0.147997; 0.687883;,
         0.698972; 0.140274;-0.701257;,
        -0.061065;-0.058284;-0.996431;,
         0.525184; 0.527064;-0.668120;,
         0.525184; 0.527064;-0.668120;,
        -0.061065;-0.058284;-0.996431;,
         0.138299; 0.700932;-0.699691;,
        -0.138299;-0.700931; 0.699692;,
         0.061065; 0.058284; 0.996431;,
        -0.525184;-0.527064; 0.668121;,
        -0.525184;-0.527064; 0.668121;,
         0.061065; 0.058284; 0.996431;,
        -0.698972;-0.140274; 0.701257;,
        -0.710573;-0.147997;-0.687882;,
         0.044409; 0.047196;-0.997898;,
        -0.536221;-0.534411;-0.653355;,
        -0.536221;-0.534411;-0.653355;,
         0.044409; 0.047196;-0.997898;,
        -0.149901;-0.708654;-0.689448;,
         0.710587;-0.140274; 0.689485;,
        -0.044414; 0.058284; 0.997311;,
         0.536270;-0.527064; 0.659256;,
         0.536270;-0.527064; 0.659256;,
        -0.044414; 0.058284; 0.997311;,
         0.149966;-0.700932; 0.697284;,
         0.138365;-0.708655;-0.691855;,
        -0.061069; 0.047196;-0.997017;,
         0.525234;-0.534411;-0.662220;,
         0.525234;-0.534411;-0.662220;,
        -0.061069; 0.047196;-0.997017;,
         0.698985;-0.147997;-0.699655;,
         0.151097; 0.735554; 0.660401;,
         0.554204; 0.552480; 0.622594;,
         0.543677; 0.545473;-0.637868;,
         0.139978; 0.728153;-0.670969;,
         0.554204; 0.552480; 0.622594;,
         0.737392; 0.149276; 0.658764;,
         0.726273; 0.141874;-0.672607;,
         0.543677; 0.545473;-0.637868;,
        -0.737392;-0.149276;-0.658764;,
        -0.554204;-0.552480;-0.622594;,
        -0.543677;-0.545473; 0.637867;,
        -0.726273;-0.141874; 0.672607;,
        -0.554204;-0.552480;-0.622594;,
        -0.151097;-0.735554;-0.660401;,
        -0.139978;-0.728152; 0.670970;,
        -0.543677;-0.545473; 0.637867;,
         0.737405;-0.141874; 0.660382;,
         0.554255;-0.545473; 0.628698;,
         0.543728;-0.552480;-0.631764;,
         0.726286;-0.149275;-0.670988;,
         0.554255;-0.545473; 0.628698;,
         0.151166;-0.728153; 0.668538;,
         0.140046;-0.735554;-0.662833;,
         0.543728;-0.552480;-0.631764;,
        -0.151165; 0.728153;-0.668538;,
        -0.554255; 0.545473;-0.628698;,
        -0.543728; 0.552480; 0.631764;,
        -0.140046; 0.735554; 0.662833;,
        -0.554255; 0.545473;-0.628698;,
        -0.737405; 0.141874;-0.660383;,
        -0.726286; 0.149275; 0.670988;,
        -0.543728; 0.552480; 0.631764;,
         0.710587;-0.140274; 0.689485;,
         0.536270;-0.527064; 0.659256;,
         0.525234;-0.534411;-0.662220;,
         0.698985;-0.147997;-0.699655;,
         0.536270;-0.527064; 0.659256;,
         0.149966;-0.700932; 0.697284;,
         0.138365;-0.708655;-0.691855;,
         0.525234;-0.534411;-0.662220;,
        -0.138299;-0.700931; 0.699692;,
        -0.525184;-0.527064; 0.668121;,
        -0.536221;-0.534411;-0.653355;,
        -0.149901;-0.708654;-0.689448;,
        -0.525184;-0.527064; 0.668121;,
        -0.698972;-0.140274; 0.701257;,
        -0.710573;-0.147997;-0.687882;,
        -0.536221;-0.534411;-0.653355;,
         0.698972; 0.140274;-0.701257;,
         0.525184; 0.527064;-0.668120;,
         0.536221; 0.534411; 0.653355;,
         0.710573; 0.147997; 0.687883;,
         0.525184; 0.527064;-0.668120;,
         0.138299; 0.700932;-0.699691;,
         0.149901; 0.708654; 0.689448;,
         0.536221; 0.534411; 0.653355;,
        -0.698985; 0.147997; 0.699655;,
        -0.525233; 0.534411; 0.662220;,
        -0.536270; 0.527065;-0.659255;,
        -0.710587; 0.140275;-0.689485;,
        -0.525233; 0.534411; 0.662220;,
        -0.138365; 0.708654; 0.691856;,
        -0.149967; 0.700932;-0.697284;,
        -0.536270; 0.527065;-0.659255;,
        -0.293933;-0.296478; 0.908683;,
         0.008351; 0.005559; 0.999950;,
        -0.139978;-0.728152; 0.670970;,
         0.151166;-0.728153; 0.668538;,
         0.008351; 0.005559; 0.999950;,
         0.309069;-0.296478; 0.903647;,
        -0.657622; 0.602156; 0.452704;,
        -0.582179; 0.574132;-0.575709;,
        -0.582125;-0.580551;-0.569290;,
        -0.657567;-0.597147; 0.459371;,
        -0.132642; 0.671537; 0.729003;,
        -0.657622; 0.602156; 0.452704;,
        -0.657567;-0.597147; 0.459371;,
        -0.132580;-0.663402; 0.736424;,
        -0.309041;-0.306536;-0.900294;,
        -0.293933;-0.296479; 0.908682;,
         0.309069;-0.296479; 0.903646;,
         0.293961;-0.306536;-0.905330;,
        -0.005873;-0.711027;-0.703140;,
         0.293961;-0.306536;-0.905330;,
         0.293933; 0.296478;-0.908683;,
        -0.005938; 0.703165;-0.711002;,
        -0.582125;-0.580551;-0.569290;,
        -0.309041;-0.306536;-0.900294;,
         0.293961;-0.306536;-0.905330;,
        -0.005873;-0.711027;-0.703140;,
        -0.005938; 0.703165;-0.711002;,
         0.293933; 0.296478;-0.908683;,
        -0.309070; 0.296478;-0.903646;,
        -0.582179; 0.574132;-0.575709;,
         0.151097; 0.735554; 0.660402;,
         0.139978; 0.728152;-0.670970;,
        -0.151165; 0.728153;-0.668538;,
        -0.140047; 0.735554; 0.662833;,
         0.293961;-0.306536;-0.905330;,
         0.309069;-0.296479; 0.903646;,
         0.309041; 0.306534; 0.900295;,
         0.293933; 0.296478;-0.908683;,
         0.293933; 0.296478;-0.908683;,
         0.309041; 0.306534; 0.900295;,
        -0.293961; 0.306534; 0.905331;,
        -0.309070; 0.296478;-0.903646;,
        -0.309070; 0.296478;-0.903646;,
        -0.293961; 0.306534; 0.905331;,
        -0.293933;-0.296479; 0.908682;,
        -0.309041;-0.306536;-0.900294;,
         0.309041; 0.306534; 0.900295;,
         0.008351; 0.005558; 0.999950;,
         0.151097; 0.735554; 0.660402;,
        -0.140047; 0.735554; 0.662833;,
         0.008351; 0.005559; 0.999950;,
        -0.293961; 0.306534; 0.905331;,
        -0.139979;-0.728153; 0.670969;,
        -0.151097;-0.735554;-0.660401;,
         0.140046;-0.735554;-0.662833;,
         0.151165;-0.728153; 0.668538;,
         0.140046;-0.735554;-0.662833;,
        -0.151097;-0.735554;-0.660401;,
        -0.554204;-0.552480;-0.622594;,
        -0.737392;-0.149275;-0.658764;,
        -0.737405; 0.141874;-0.660383;,
        -0.554255; 0.545473;-0.628698;,
        -0.151165; 0.728153;-0.668538;,
         0.139978; 0.728152;-0.670970;,
         0.543677; 0.545473;-0.637867;,
         0.726272; 0.141874;-0.672607;,
         0.726286;-0.149275;-0.670988;,
         0.543728;-0.552480;-0.631764;,
        -0.726286; 0.149275; 0.670988;,
        -0.737405; 0.141874;-0.660383;,
        -0.737392;-0.149275;-0.658764;,
        -0.726273;-0.141874; 0.672607;,
        -0.293961; 0.306534; 0.905331;,
         0.008351; 0.005559; 0.999950;,
        -0.726286; 0.149275; 0.670988;,
        -0.726273;-0.141874; 0.672607;,
         0.008350; 0.005558; 0.999950;,
        -0.293933;-0.296479; 0.908682;,
        -0.293933;-0.296479; 0.908682;,
         0.008350; 0.005558; 0.999950;,
        -0.139979;-0.728153; 0.670969;,
         0.151165;-0.728153; 0.668538;,
         0.008350; 0.005559; 0.999950;,
         0.309069;-0.296479; 0.903646;,
         0.309069;-0.296479; 0.903646;,
         0.008350; 0.005559; 0.999950;,
         0.737405;-0.141874; 0.660383;,
         0.737392; 0.149275; 0.658764;,
         0.008351; 0.005558; 0.999950;,
         0.309041; 0.306534; 0.900295;,
         0.151097; 0.735554; 0.660402;,
         0.008351; 0.005558; 0.999950;,
         0.554204; 0.552480; 0.622595;,
         0.554204; 0.552480; 0.622595;,
         0.008351; 0.005558; 0.999950;,
         0.737392; 0.149275; 0.658764;,
         0.737405;-0.141874; 0.660383;,
         0.008350; 0.005559; 0.999950;,
         0.554253;-0.545474; 0.628699;,
         0.554253;-0.545474; 0.628699;,
         0.008350; 0.005559; 0.999950;,
         0.151165;-0.728153; 0.668538;,
        -0.139979;-0.728153; 0.670969;,
         0.008350; 0.005558; 0.999950;,
        -0.543679;-0.545473; 0.637865;,
        -0.543679;-0.545473; 0.637865;,
         0.008350; 0.005558; 0.999950;,
        -0.726273;-0.141874; 0.672607;,
        -0.726286; 0.149275; 0.670988;,
         0.008351; 0.005559; 0.999950;,
        -0.543727; 0.552481; 0.631764;,
        -0.543727; 0.552481; 0.631764;,
         0.008351; 0.005559; 0.999950;,
        -0.140047; 0.735554; 0.662833;,
        -0.726286; 0.149275; 0.670988;,
        -0.543727; 0.552481; 0.631764;,
        -0.554255; 0.545473;-0.628698;,
        -0.737405; 0.141874;-0.660383;,
        -0.543727; 0.552481; 0.631764;,
        -0.140047; 0.735554; 0.662833;,
        -0.151165; 0.728153;-0.668538;,
        -0.554255; 0.545473;-0.628698;,
         0.726272; 0.141874;-0.672607;,
         0.543677; 0.545473;-0.637867;,
         0.554204; 0.552480; 0.622595;,
         0.737392; 0.149275; 0.658764;,
         0.543677; 0.545473;-0.637867;,
         0.139978; 0.728152;-0.670970;,
         0.151097; 0.735554; 0.660402;,
         0.554204; 0.552480; 0.622595;,
        -0.139979;-0.728153; 0.670969;,
        -0.543679;-0.545473; 0.637865;,
        -0.554204;-0.552480;-0.622594;,
        -0.151097;-0.735554;-0.660401;,
        -0.543679;-0.545473; 0.637865;,
        -0.726273;-0.141874; 0.672607;,
        -0.737392;-0.149275;-0.658764;,
        -0.554204;-0.552480;-0.622594;,
         0.737405;-0.141874; 0.660383;,
         0.554253;-0.545474; 0.628699;,
         0.543728;-0.552480;-0.631764;,
         0.726286;-0.149275;-0.670988;,
         0.554253;-0.545474; 0.628699;,
         0.151165;-0.728153; 0.668538;,
         0.140046;-0.735554;-0.662833;,
         0.543728;-0.552480;-0.631764;,
         0.737405;-0.141874; 0.660383;,
         0.726286;-0.149275;-0.670988;,
         0.726272; 0.141874;-0.672607;,
         0.737392; 0.149275; 0.658764;;
        170;
        4;3,2,1,0;,
        4;7,6,5,4;,
        4;11,10,9,8;,
        5;16,15,14,13,12;,
        7;23,22,21,20,19,18,17;,
        4;27,26,25,24;,
        4;31,30,29,28;,
        4;35,34,33,32;,
        4;39,38,37,36;,
        4;43,42,41,40;,
        5;48,47,46,45,44;,
        4;52,51,50,49;,
        4;56,55,54,53;,
        4;60,59,58,57;,
        4;64,63,62,61;,
        4;68,67,66,65;,
        4;72,71,70,69;,
        6;78,77,76,75,74,73;,
        4;82,81,80,79;,
        4;86,85,84,83;,
        4;90,89,88,87;,
        4;94,93,92,91;,
        4;98,97,96,95;,
        4;102,101,100,99;,
        4;106,105,104,103;,
        4;110,109,108,107;,
        4;114,113,112,111;,
        3;117,116,115;,
        3;120,119,118;,
        3;123,122,121;,
        3;126,125,124;,
        3;129,128,127;,
        3;132,131,130;,
        3;135,134,133;,
        3;138,137,136;,
        3;141,140,139;,
        3;144,143,142;,
        3;147,146,145;,
        3;150,149,148;,
        3;153,152,151;,
        3;156,155,154;,
        3;159,158,157;,
        3;162,161,160;,
        4;166,165,164,163;,
        4;170,169,168,167;,
        4;174,173,172,171;,
        4;178,177,176,175;,
        4;182,181,180,179;,
        4;186,185,184,183;,
        4;190,189,188,187;,
        4;194,193,192,191;,
        4;198,197,196,195;,
        4;202,201,200,199;,
        4;206,205,204,203;,
        4;210,209,208,207;,
        7;217,216,215,214,213,212,211;,
        4;221,220,219,218;,
        4;225,224,223,222;,
        4;229,228,227,226;,
        4;233,232,231,230;,
        4;237,236,235,234;,
        4;241,240,239,238;,
        6;247,246,245,244,243,242;,
        6;253,252,251,250,249,248;,
        4;257,256,255,254;,
        6;263,262,261,260,259,258;,
        6;269,268,267,266,265,264;,
        6;275,274,273,272,271,270;,
        4;279,278,277,276;,
        6;285,284,283,282,281,280;,
        4;289,288,287,286;,
        6;295,294,293,292,291,290;,
        4;299,298,297,296;,
        4;303,302,301,300;,
        4;307,306,305,304;,
        4;311,310,309,308;,
        6;317,316,315,314,313,312;,
        4;321,320,319,318;,
        6;327,326,325,324,323,322;,
        6;333,332,331,330,329,328;,
        4;337,336,335,334;,
        6;343,342,341,340,339,338;,
        6;349,348,347,346,345,344;,
        6;355,354,353,352,351,350;,
        4;359,358,357,356;,
        6;365,364,363,362,361,360;,
        4;369,368,367,366;,
        3;372,371,370;,
        3;375,374,373;,
        3;378,377,376;,
        3;381,380,379;,
        3;384,383,382;,
        3;387,386,385;,
        3;390,389,388;,
        3;393,392,391;,
        3;396,395,394;,
        3;399,398,397;,
        3;402,401,400;,
        3;405,404,403;,
        3;408,407,406;,
        3;411,410,409;,
        3;414,413,412;,
        3;417,416,415;,
        3;420,419,418;,
        3;423,422,421;,
        3;426,425,424;,
        3;429,428,427;,
        3;432,431,430;,
        3;435,434,433;,
        3;438,437,436;,
        3;441,440,439;,
        3;444,443,442;,
        3;447,446,445;,
        3;450,449,448;,
        3;453,452,451;,
        3;456,455,454;,
        3;459,458,457;,
        3;462,461,460;,
        3;465,464,463;,
        4;469,468,467,466;,
        4;473,472,471,470;,
        4;477,476,475,474;,
        4;481,480,479,478;,
        4;485,484,483,482;,
        4;489,488,487,486;,
        4;493,492,491,490;,
        4;497,496,495,494;,
        4;501,500,499,498;,
        4;505,504,503,502;,
        4;509,508,507,506;,
        4;513,512,511,510;,
        4;517,516,515,514;,
        4;521,520,519,518;,
        4;525,524,523,522;,
        4;529,528,527,526;,
        6;535,534,533,532,531,530;,
        4;539,538,537,536;,
        4;543,542,541,540;,
        4;547,546,545,544;,
        4;551,550,549,548;,
        4;555,554,553,552;,
        4;559,558,557,556;,
        4;563,562,561,560;,
        4;567,566,565,564;,
        4;571,570,569,568;,
        4;575,574,573,572;,
        6;581,580,579,578,577,576;,
        4;585,584,583,582;,
        12;597,596,595,594,593,592,591,590,589,588,587,586;,
        4;601,600,599,598;,
        6;607,606,605,604,603,602;,
        6;613,612,611,610,609,608;,
        6;619,618,617,616,615,614;,
        3;622,621,620;,
        3;625,624,623;,
        3;628,627,626;,
        3;631,630,629;,
        3;634,633,632;,
        3;637,636,635;,
        3;640,639,638;,
        3;643,642,641;,
        4;647,646,645,644;,
        4;651,650,649,648;,
        4;655,654,653,652;,
        4;659,658,657,656;,
        4;663,662,661,660;,
        4;667,666,665,664;,
        4;671,670,669,668;,
        4;675,674,673,672;,
        4;679,678,677,676;;
      }
      MeshTextureCoords {
        680;
         0.987061; 0.415906;,
         0.987061; 0.454963;,
         0.895968; 0.454963;,
         0.895968; 0.415907;,
         0.206066; 0.092623;,
         0.206066; 0.001529;,
         0.297159; 0.001529;,
         0.297159; 0.092623;,
         0.230907; 0.355451;,
         0.246171; 0.355451;,
         0.246171; 0.446544;,
         0.230907; 0.446544;,
         0.639141; 0.253109;,
         0.508749; 0.253109;,
         0.403457; 0.211689;,
         0.403457; 0.166198;,
         0.639141; 0.166198;,
         0.639141; 0.253109;,
         0.639141; 0.166198;,
         0.658588; 0.166198;,
         0.694411; 0.175796;,
         0.720636; 0.202021;,
         0.730235; 0.237845;,
         0.730235; 0.253109;,
         0.134908; 0.355451;,
         0.230907; 0.355451;,
         0.230907; 0.446544;,
         0.134908; 0.446822;,
         0.203014; 0.094650;,
         0.107016; 0.094373;,
         0.107015; 0.003280;,
         0.203014; 0.003003;,
         0.638864; 0.349108;,
         0.639141; 0.253109;,
         0.730235; 0.253109;,
         0.730235; 0.349108;,
         0.376880; 0.355451;,
         0.376880; 0.446544;,
         0.357433; 0.446544;,
         0.357433; 0.355451;,
         0.612564; 0.446544;,
         0.598601; 0.441148;,
         0.598601; 0.360847;,
         0.612564; 0.355451;,
         0.850816; 0.447263;,
         0.850816; 0.682947;,
         0.805325; 0.682947;,
         0.763904; 0.577654;,
         0.763904; 0.447263;,
         0.134907; 0.699241;,
         0.134907; 0.568849;,
         0.226000; 0.568849;,
         0.226000; 0.699241;,
         0.510605; 0.998474;,
         0.510605; 0.574322;,
         0.554544; 0.574322;,
         0.554545; 0.998474;,
         0.894138; 0.718413;,
         0.923771; 0.742267;,
         0.923771; 0.786207;,
         0.894138; 0.810061;,
         0.763904; 0.447263;,
         0.667905; 0.447540;,
         0.667905; 0.355892;,
         0.763904; 0.356169;,
         0.001522; 0.001525;,
         0.103958; 0.001525;,
         0.103958; 0.092619;,
         0.001522; 0.092619;,
         0.755803; 0.081233;,
         0.755803; 0.110942;,
         0.688421; 0.110942;,
         0.688421; 0.081233;,
         0.805066; 0.875172;,
         0.804015; 0.874121;,
         0.816921; 0.842961;,
         0.884304; 0.842961;,
         0.897210; 0.874121;,
         0.896159; 0.875172;,
         0.950083; 0.378234;,
         0.926506; 0.408143;,
         0.882566; 0.408143;,
         0.858713; 0.378510;,
         0.950360; 0.286863;,
         0.979993; 0.310717;,
         0.979993; 0.354657;,
         0.950083; 0.378234;,
         0.858713; 0.378510;,
         0.829080; 0.354657;,
         0.829080; 0.310717;,
         0.858713; 0.286863;,
         0.894138; 0.810061;,
         0.870285; 0.839694;,
         0.826345; 0.839694;,
         0.802491; 0.810061;,
         0.001526; 0.702908;,
         0.425678; 0.702908;,
         0.425678; 0.746848;,
         0.001526; 0.746848;,
         0.001526; 0.954535;,
         0.425678; 0.954535;,
         0.425678; 0.998474;,
         0.001526; 0.998474;,
         0.858713; 0.286863;,
         0.882566; 0.257230;,
         0.926506; 0.257230;,
         0.950360; 0.286863;,
         0.802491; 0.810061;,
         0.772859; 0.786207;,
         0.772859; 0.742267;,
         0.802491; 0.718413;,
         0.001526; 0.828722;,
         0.425678; 0.828721;,
         0.425678; 0.872661;,
         0.001526; 0.872661;,
         0.923771; 0.742267;,
         0.894138; 0.718413;,
         0.908105; 0.704447;,
         0.908105; 0.704447;,
         0.894138; 0.718413;,
         0.870285; 0.688781;,
         0.882566; 0.257230;,
         0.858713; 0.286863;,
         0.844746; 0.272896;,
         0.844746; 0.272896;,
         0.858713; 0.286863;,
         0.829080; 0.310717;,
         0.772859; 0.786207;,
         0.802491; 0.810061;,
         0.788524; 0.824028;,
         0.788524; 0.824028;,
         0.802491; 0.810061;,
         0.826345; 0.839694;,
         0.926506; 0.408143;,
         0.950083; 0.378234;,
         0.964327; 0.392477;,
         0.964327; 0.392477;,
         0.950083; 0.378234;,
         0.979993; 0.354657;,
         0.829080; 0.354657;,
         0.858713; 0.378510;,
         0.844746; 0.392477;,
         0.844746; 0.392477;,
         0.858713; 0.378510;,
         0.882566; 0.408143;,
         0.979993; 0.310717;,
         0.950360; 0.286863;,
         0.964327; 0.272896;,
         0.964327; 0.272896;,
         0.950360; 0.286863;,
         0.926506; 0.257230;,
         0.826345; 0.688781;,
         0.802491; 0.718413;,
         0.788524; 0.704447;,
         0.788524; 0.704447;,
         0.802491; 0.718413;,
         0.772859; 0.742267;,
         0.870285; 0.839694;,
         0.894138; 0.810061;,
         0.908105; 0.824028;,
         0.908105; 0.824028;,
         0.894138; 0.810061;,
         0.923771; 0.786207;,
         0.428731; 0.574322;,
         0.469668; 0.574322;,
         0.469668; 0.998474;,
         0.428731; 0.998474;,
         0.469668; 0.574322;,
         0.510605; 0.574322;,
         0.510605; 0.998474;,
         0.469668; 0.998474;,
         0.001526; 0.954535;,
         0.001526; 0.913598;,
         0.425678; 0.913598;,
         0.425678; 0.954535;,
         0.001526; 0.913598;,
         0.001526; 0.872661;,
         0.425678; 0.872661;,
         0.425678; 0.913598;,
         0.636418; 0.998474;,
         0.595481; 0.998474;,
         0.595481; 0.574322;,
         0.636418; 0.574322;,
         0.595481; 0.998474;,
         0.554545; 0.998474;,
         0.554544; 0.574322;,
         0.595481; 0.574322;,
         0.425678; 0.746848;,
         0.425678; 0.787784;,
         0.001526; 0.787785;,
         0.001526; 0.746848;,
         0.425678; 0.787784;,
         0.425678; 0.828721;,
         0.001526; 0.828722;,
         0.001526; 0.787785;,
         0.802491; 0.718413;,
         0.826345; 0.688781;,
         0.870285; 0.688781;,
         0.894138; 0.718413;,
         0.246171; 0.355451;,
         0.283259; 0.355451;,
         0.283259; 0.446544;,
         0.246171; 0.446544;,
         0.283259; 0.355451;,
         0.320346; 0.355451;,
         0.320346; 0.446544;,
         0.283259; 0.446544;,
         0.320346; 0.355451;,
         0.357433; 0.355451;,
         0.357433; 0.446544;,
         0.320346; 0.446544;,
         0.850816; 0.447263;,
         0.763904; 0.447263;,
         0.763904; 0.356169;,
         0.779168; 0.356169;,
         0.814992; 0.365768;,
         0.841217; 0.391993;,
         0.850816; 0.427816;,
         0.323209; 0.593383;,
         0.323209; 0.554327;,
         0.414303; 0.554327;,
         0.414303; 0.593383;,
         0.323205; 0.699231;,
         0.323205; 0.596796;,
         0.414298; 0.596796;,
         0.414298; 0.699231;,
         0.706602; 0.778340;,
         0.667544; 0.778617;,
         0.667544; 0.686970;,
         0.706602; 0.687247;,
         0.888828; 0.253440;,
         0.888828; 0.151005;,
         0.979921; 0.151005;,
         0.979921; 0.253440;,
         0.931424; 0.863636;,
         0.962961; 0.863636;,
         0.962961; 0.931019;,
         0.931424; 0.931019;,
         0.931424; 0.593965;,
         0.962961; 0.593965;,
         0.962961; 0.661348;,
         0.931424; 0.661348;,
         0.896159; 0.966265;,
         0.897210; 0.967316;,
         0.884304; 0.998475;,
         0.816922; 0.998476;,
         0.804015; 0.967316;,
         0.805066; 0.966265;,
         0.077551; 0.219046;,
         0.076443; 0.220152;,
         0.045220; 0.207233;,
         0.045231; 0.139786;,
         0.076478; 0.126896;,
         0.077584; 0.128003;,
         0.893690; 0.147580;,
         0.893690; 0.045145;,
         0.984783; 0.045145;,
         0.984783; 0.147580;,
         0.236210; 0.219187;,
         0.235159; 0.220238;,
         0.203999; 0.207331;,
         0.203999; 0.139949;,
         0.235159; 0.127042;,
         0.236210; 0.128093;,
         0.327303; 0.219187;,
         0.328354; 0.220238;,
         0.315448; 0.251397;,
         0.248065; 0.251397;,
         0.235159; 0.220238;,
         0.236210; 0.219187;,
         0.805066; 0.966265;,
         0.804015; 0.967316;,
         0.772856; 0.954409;,
         0.772856; 0.887027;,
         0.804015; 0.874121;,
         0.805066; 0.875172;,
         0.962961; 0.796183;,
         0.931424; 0.796183;,
         0.931424; 0.728801;,
         0.962961; 0.728801;,
         0.327303; 0.128093;,
         0.328354; 0.127042;,
         0.359514; 0.139949;,
         0.359514; 0.207331;,
         0.328354; 0.220238;,
         0.327303; 0.219187;,
         0.931424; 0.459130;,
         0.962961; 0.459130;,
         0.962961; 0.526512;,
         0.931424; 0.526512;,
         0.236210; 0.128093;,
         0.235159; 0.127042;,
         0.248065; 0.095883;,
         0.315448; 0.095883;,
         0.328354; 0.127042;,
         0.327303; 0.128093;,
         0.738035; 0.546566;,
         0.698979; 0.546565;,
         0.698979; 0.455472;,
         0.738035; 0.455472;,
         0.853860; 0.412722;,
         0.892916; 0.412722;,
         0.892916; 0.503815;,
         0.853860; 0.503815;,
         0.885008; 0.601753;,
         0.924065; 0.601476;,
         0.924065; 0.693124;,
         0.885008; 0.692847;,
         0.892917; 0.599202;,
         0.853860; 0.599479;,
         0.853860; 0.507832;,
         0.892917; 0.508109;,
         0.853420; 0.237383;,
         0.854527; 0.238491;,
         0.841609; 0.269717;,
         0.774162; 0.269717;,
         0.761271; 0.238473;,
         0.762378; 0.237366;,
         0.553585; 0.110942;,
         0.553585; 0.081233;,
         0.620967; 0.081233;,
         0.620967; 0.110942;,
         0.853453; 0.146341;,
         0.854561; 0.145235;,
         0.885784; 0.158153;,
         0.885774; 0.225600;,
         0.854527; 0.238491;,
         0.853420; 0.237383;,
         0.168626; 0.128020;,
         0.169734; 0.126914;,
         0.200957; 0.139833;,
         0.200947; 0.207280;,
         0.169699; 0.220170;,
         0.168593; 0.219063;,
         0.706601; 0.874285;,
         0.667544; 0.874008;,
         0.667544; 0.782915;,
         0.706601; 0.782638;,
         0.168593; 0.219063;,
         0.169699; 0.220170;,
         0.156782; 0.251397;,
         0.089334; 0.251397;,
         0.076443; 0.220152;,
         0.077551; 0.219046;,
         0.762378; 0.237366;,
         0.761271; 0.238473;,
         0.730047; 0.225554;,
         0.730057; 0.158107;,
         0.761305; 0.145216;,
         0.762411; 0.146324;,
         0.077584; 0.128003;,
         0.076478; 0.126896;,
         0.089396; 0.095669;,
         0.156843; 0.095669;,
         0.169734; 0.126914;,
         0.168626; 0.128020;,
         0.890638; 0.081233;,
         0.890638; 0.110942;,
         0.823256; 0.110942;,
         0.823256; 0.081233;,
         0.762411; 0.146324;,
         0.761305; 0.145216;,
         0.774222; 0.113990;,
         0.841670; 0.113990;,
         0.854561; 0.145235;,
         0.853453; 0.146341;,
         0.486132; 0.081233;,
         0.486132; 0.110942;,
         0.418750; 0.110942;,
         0.418750; 0.081233;,
         0.928370; 0.887027;,
         0.897210; 0.874121;,
         0.915463; 0.855868;,
         0.915463; 0.855868;,
         0.897210; 0.874121;,
         0.884304; 0.842961;,
         0.248065; 0.095883;,
         0.235159; 0.127042;,
         0.216906; 0.108790;,
         0.216906; 0.108790;,
         0.235159; 0.127042;,
         0.203999; 0.139949;,
         0.203999; 0.207331;,
         0.235159; 0.220238;,
         0.216906; 0.238491;,
         0.216906; 0.238491;,
         0.235159; 0.220238;,
         0.248065; 0.251397;,
         0.884304; 0.998475;,
         0.897210; 0.967316;,
         0.915463; 0.985569;,
         0.915463; 0.985569;,
         0.897210; 0.967316;,
         0.928370; 0.954409;,
         0.359514; 0.139949;,
         0.328354; 0.127042;,
         0.346607; 0.108790;,
         0.346607; 0.108790;,
         0.328354; 0.127042;,
         0.315448; 0.095883;,
         0.816921; 0.842961;,
         0.804015; 0.874121;,
         0.785762; 0.855868;,
         0.785762; 0.855868;,
         0.804015; 0.874121;,
         0.772856; 0.887027;,
         0.772856; 0.954409;,
         0.804015; 0.967316;,
         0.785762; 0.985569;,
         0.785762; 0.985569;,
         0.804015; 0.967316;,
         0.816922; 0.998476;,
         0.315448; 0.251397;,
         0.328354; 0.220238;,
         0.346607; 0.238491;,
         0.346607; 0.238491;,
         0.328354; 0.220238;,
         0.359514; 0.207331;,
         0.045220; 0.207233;,
         0.076443; 0.220152;,
         0.058145; 0.238432;,
         0.058145; 0.238432;,
         0.076443; 0.220152;,
         0.089334; 0.251397;,
         0.841609; 0.269717;,
         0.854527; 0.238491;,
         0.872808; 0.256790;,
         0.872808; 0.256790;,
         0.854527; 0.238491;,
         0.885774; 0.225600;,
         0.885784; 0.158153;,
         0.854561; 0.145235;,
         0.872859; 0.126955;,
         0.872859; 0.126955;,
         0.854561; 0.145235;,
         0.841670; 0.113990;,
         0.089396; 0.095669;,
         0.076478; 0.126896;,
         0.058197; 0.108596;,
         0.058197; 0.108596;,
         0.076478; 0.126896;,
         0.045231; 0.139786;,
         0.730047; 0.225554;,
         0.761271; 0.238473;,
         0.742972; 0.256752;,
         0.742972; 0.256752;,
         0.761271; 0.238473;,
         0.774162; 0.269717;,
         0.156782; 0.251397;,
         0.169699; 0.220170;,
         0.187980; 0.238470;,
         0.187980; 0.238470;,
         0.169699; 0.220170;,
         0.200947; 0.207280;,
         0.774222; 0.113990;,
         0.761305; 0.145216;,
         0.743024; 0.126917;,
         0.743024; 0.126917;,
         0.761305; 0.145216;,
         0.730057; 0.158107;,
         0.200957; 0.139833;,
         0.169734; 0.126914;,
         0.188032; 0.108634;,
         0.188032; 0.108634;,
         0.169734; 0.126914;,
         0.156843; 0.095669;,
         0.962961; 0.796183;,
         0.962961; 0.829910;,
         0.931424; 0.829910;,
         0.931424; 0.796183;,
         0.962961; 0.829910;,
         0.962961; 0.863636;,
         0.931424; 0.863636;,
         0.931424; 0.829910;,
         0.931424; 0.593965;,
         0.931424; 0.560239;,
         0.962961; 0.560239;,
         0.962961; 0.593965;,
         0.931424; 0.560239;,
         0.931424; 0.526512;,
         0.962961; 0.526512;,
         0.962961; 0.560239;,
         0.962961; 0.931019;,
         0.962961; 0.964745;,
         0.931424; 0.964745;,
         0.931424; 0.931019;,
         0.962961; 0.964745;,
         0.962961; 0.998472;,
         0.931424; 0.998472;,
         0.931424; 0.964745;,
         0.931424; 0.728801;,
         0.931424; 0.695074;,
         0.962961; 0.695074;,
         0.962961; 0.728801;,
         0.931424; 0.695074;,
         0.931424; 0.661348;,
         0.962961; 0.661348;,
         0.962961; 0.695074;,
         0.418750; 0.110942;,
         0.385023; 0.110942;,
         0.385023; 0.081233;,
         0.418750; 0.081233;,
         0.385023; 0.110942;,
         0.351296; 0.110942;,
         0.351296; 0.081233;,
         0.385023; 0.081233;,
         0.823256; 0.110942;,
         0.789530; 0.110942;,
         0.789530; 0.081233;,
         0.823256; 0.081233;,
         0.789530; 0.110942;,
         0.755803; 0.110942;,
         0.755803; 0.081233;,
         0.789530; 0.081233;,
         0.486132; 0.081233;,
         0.519859; 0.081233;,
         0.519859; 0.110942;,
         0.486132; 0.110942;,
         0.519859; 0.081233;,
         0.553585; 0.081233;,
         0.553585; 0.110942;,
         0.519859; 0.110942;,
         0.688421; 0.110942;,
         0.654694; 0.110942;,
         0.654694; 0.081233;,
         0.688421; 0.081233;,
         0.654694; 0.110942;,
         0.620967; 0.110942;,
         0.620967; 0.081233;,
         0.654694; 0.081233;,
         0.896159; 0.875172;,
         0.897210; 0.874121;,
         0.928370; 0.887027;,
         0.928370; 0.954409;,
         0.897210; 0.967316;,
         0.896159; 0.966265;,
         0.658055; 0.446544;,
         0.612564; 0.446544;,
         0.612564; 0.355451;,
         0.658055; 0.355451;,
         0.229054; 0.699240;,
         0.229054; 0.586093;,
         0.320148; 0.586093;,
         0.320148; 0.699240;,
         0.417420; 0.160801;,
         0.417420; 0.149398;,
         0.625179; 0.149398;,
         0.625179; 0.160801;,
         0.376880; 0.355451;,
         0.390842; 0.360847;,
         0.390842; 0.441148;,
         0.376880; 0.446544;,
         0.403457; 0.166198;,
         0.417420; 0.160801;,
         0.625179; 0.160801;,
         0.639141; 0.166198;,
         0.376880; 0.446544;,
         0.390842; 0.441148;,
         0.598601; 0.441148;,
         0.612564; 0.446544;,
         0.241715; 0.546566;,
         0.241715; 0.451665;,
         0.589126; 0.451665;,
         0.589126; 0.546566;,
         0.390842; 0.360847;,
         0.402245; 0.360847;,
         0.402245; 0.441148;,
         0.390842; 0.441148;,
         0.966011; 0.790711;,
         0.977414; 0.790711;,
         0.977414; 0.998470;,
         0.966011; 0.998470;,
         0.598601; 0.441148;,
         0.587198; 0.441148;,
         0.587198; 0.360847;,
         0.598601; 0.360847;,
         0.744790; 0.670748;,
         0.759569; 0.599867;,
         0.769803; 0.600922;,
         0.769803; 0.948334;,
         0.759569; 0.949389;,
         0.744790; 0.878508;,
         0.211652; 0.351145;,
         0.211652; 0.256245;,
         0.559063; 0.256244;,
         0.559063; 0.351145;,
         0.131858; 0.301689;,
         0.131858; 0.649100;,
         0.117174; 0.684551;,
         0.081723; 0.699235;,
         0.051666; 0.699235;,
         0.016215; 0.684551;,
         0.001531; 0.649100;,
         0.001531; 0.301689;,
         0.016215; 0.266238;,
         0.051666; 0.251553;,
         0.081723; 0.251553;,
         0.117174; 0.266238;,
         0.665870; 0.546566;,
         0.665870; 0.451665;,
         0.695926; 0.451665;,
         0.695927; 0.546566;,
         0.744790; 0.878508;,
         0.759569; 0.949389;,
         0.719668; 0.998469;,
         0.689611; 0.998469;,
         0.649710; 0.949389;,
         0.664489; 0.878508;,
         0.664489; 0.878508;,
         0.649710; 0.949389;,
         0.639476; 0.948334;,
         0.639476; 0.600922;,
         0.649709; 0.599867;,
         0.664489; 0.670748;,
         0.664489; 0.670748;,
         0.649709; 0.599867;,
         0.689611; 0.550787;,
         0.719668; 0.550787;,
         0.759569; 0.599867;,
         0.744790; 0.670748;,
         0.769803; 0.600922;,
         0.759569; 0.599867;,
         0.755119; 0.565471;,
         0.755119; 0.565471;,
         0.759569; 0.599867;,
         0.719668; 0.550787;,
         0.689611; 0.550787;,
         0.649709; 0.599867;,
         0.654160; 0.565471;,
         0.654160; 0.565471;,
         0.649709; 0.599867;,
         0.639476; 0.600922;,
         0.639476; 0.948334;,
         0.649710; 0.949389;,
         0.654160; 0.983785;,
         0.654160; 0.983785;,
         0.649710; 0.949389;,
         0.689611; 0.998469;,
         0.719668; 0.998469;,
         0.759569; 0.949389;,
         0.755119; 0.983785;,
         0.755119; 0.983785;,
         0.759569; 0.949389;,
         0.769803; 0.948334;,
         0.665870; 0.546566;,
         0.627498; 0.546566;,
         0.627498; 0.451665;,
         0.665870; 0.451665;,
         0.627498; 0.546566;,
         0.589126; 0.546566;,
         0.589126; 0.451665;,
         0.627498; 0.451665;,
         0.164971; 0.451665;,
         0.203343; 0.451665;,
         0.203343; 0.546566;,
         0.164971; 0.546566;,
         0.203343; 0.451665;,
         0.241715; 0.451665;,
         0.241715; 0.546566;,
         0.203343; 0.546566;,
         0.211652; 0.351145;,
         0.173280; 0.351145;,
         0.173280; 0.256245;,
         0.211652; 0.256245;,
         0.173280; 0.351145;,
         0.134908; 0.351145;,
         0.134908; 0.256245;,
         0.173280; 0.256245;,
         0.635807; 0.351145;,
         0.597435; 0.351145;,
         0.597435; 0.256244;,
         0.635807; 0.256244;,
         0.597435; 0.351145;,
         0.559063; 0.351145;,
         0.559063; 0.256244;,
         0.597435; 0.256244;,
         0.134915; 0.546566;,
         0.134915; 0.451665;,
         0.164971; 0.451665;,
         0.164971; 0.546566;;
      }
      MeshMaterialList {
        1;
        170;
        0,
        0,
        0,
        0,
        0,
        0,
        0,
        0,
        0,
        0,
        0,
        0,
        0,
        0,
        0,
        0,
        0,
        0,
        0,
        0,
        0,
        0,
        0,
        0,
        0,
        0,
        0,
        0,
        0,
        0,
        0,
        0,
        0,
        0,
        0,
        0,
        0,
        0,
        0,
        0,
        0,
        0,
        0,
        0,
        0,
        0,
        0,
        0,
        0,
        0,
        0,
        0,
        0,
        0,
        0,
        0,
        0,
        0,
        0,
        0,
        0,
        0,
        0,
        0,
        0,
        0,
        0,
        0,
        0,
        0,
        0,
        0,
        0,
        0,
        0,
        0,
        0,
        0,
        0,
        0,
        0,
        0,
        0,
        0,
        0,
        0,
        0,
        0,
        0,
        0,
        0,
        0,
        0,
        0,
        0,
        0,
        0,
        0,
        0,
        0,
        0,
        0,
        0,
        0,
        0,
        0,
        0,
        0,
        0,
        0,
        0,
        0,
        0,
        0,
        0,
        0,
        0,
        0,
        0,
        0,
        0,
        0,
        0,
        0,
        0,
        0,
        0,
        0,
        0,
        0,
        0,
        0,
        0,
        0,
        0,
        0,
        0,
        0,
        0,
        0,
        0,
        0,
        0,
        0,
        0,
        0,
        0,
        0,
        0,
        0,
        0,
        0,
        0,
        0,
        0,
        0,
        0,
        0,
        0,
        0,
        0,
        0,
        0,
        0,
        0,
        0,
        0,
        0,
        0,
        0;
        Material Stock1M1A {
           0.800000; 0.800000; 0.800000; 1.000000;;
           225.000000;
           0.500000; 0.500000; 0.500000;;
           0.000000; 0.000000; 0.000000;;
        }
      }
    }
  }
}
