xof 0303txt 0032

Frame Root {
  FrameTransformMatrix {
     1.000000, 0.000000, 0.000000, 0.000000,
     0.000000,-0.000000, 1.000000, 0.000000,
     0.000000, 1.000000, 0.000000, 0.000000,
     0.000000, 0.000000, 0.000000, 1.000000;;
  }
  Frame Cube {
    FrameTransformMatrix {
       1.000000, 0.000000, 0.000000, 0.000000,
       0.000000, 1.000000, 0.000000, 0.000000,
       0.000000, 0.000000, 1.000000, 0.000000,
       0.000000, 0.000000, 0.000000, 1.000000;;
    }
    Mesh {
      292;
       0.007297;-0.002034;-0.027930;,
       0.000121;-0.002034;-0.058751;,
      -0.000960;-0.007725;-0.058751;,
       0.006216;-0.007723;-0.027930;,
       0.037385;-0.002034; 0.081625;,
       0.012589;-0.002034;-0.008425;,
       0.011508;-0.007719;-0.008425;,
       0.036304;-0.007714; 0.081625;,
       0.033499;-0.002034; 0.092534;,
       0.037385;-0.002034; 0.081625;,
       0.036304;-0.007714; 0.081625;,
       0.032417;-0.004963; 0.092534;,
      -0.033464;-0.007462;-0.001009;,
      -0.025826;-0.007466;-0.017440;,
      -0.027316;-0.002034;-0.017440;,
      -0.034954;-0.002034;-0.001009;,
       0.032059;-0.011804; 0.081605;,
       0.007450;-0.011804;-0.007772;,
      -0.029220;-0.011804;-0.001692;,
      -0.028761;-0.011804; 0.081316;,
      -0.004844;-0.011804;-0.057445;,
      -0.007517;-0.011804;-0.074245;,
      -0.033362;-0.011804;-0.074483;,
      -0.027448;-0.011804;-0.049477;,
      -0.025826;-0.007466;-0.017440;,
      -0.031927;-0.007468;-0.047970;,
      -0.033417;-0.002034;-0.047970;,
      -0.027316;-0.002034;-0.017440;,
       0.002317;-0.011804;-0.026695;,
      -0.004844;-0.011804;-0.057445;,
      -0.027448;-0.011804;-0.049477;,
      -0.021287;-0.011804;-0.018877;,
      -0.031927;-0.007468;-0.047970;,
      -0.038191;-0.007469;-0.074526;,
      -0.039681;-0.002034;-0.074526;,
      -0.033417;-0.002034;-0.047970;,
       0.033499;-0.002034; 0.092534;,
       0.032417;-0.004963; 0.092534;,
       0.028164;-0.009056; 0.090465;,
      -0.026132;-0.009056; 0.087909;,
      -0.030398;-0.004705; 0.091779;,
      -0.030860;-0.002034; 0.091779;,
       0.000121;-0.002034;-0.058751;,
      -0.002337;-0.002034;-0.074209;,
      -0.003419;-0.007725;-0.074209;,
      -0.000960;-0.007725;-0.058751;,
      -0.033695;-0.002034;-0.074486;,
      -0.039681;-0.002034;-0.074526;,
      -0.038191;-0.007469;-0.074526;,
      -0.035138;-0.008751;-0.074499;,
      -0.033695;-0.007308;-0.074486;,
      -0.006833;-0.007308;-0.074249;,
      -0.010020;-0.006737;-0.090188;,
      -0.034182;-0.006737;-0.090401;,
      -0.033695;-0.007308;-0.074486;,
      -0.006833;-0.002034;-0.074249;,
      -0.010020;-0.002034;-0.090188;,
      -0.010020;-0.006737;-0.090188;,
      -0.006833;-0.007308;-0.074249;,
      -0.010020;-0.006737;-0.090188;,
      -0.010020;-0.002034;-0.090188;,
      -0.034182;-0.002034;-0.090401;,
      -0.034182;-0.006737;-0.090401;,
      -0.033695;-0.007308;-0.074486;,
      -0.035138;-0.008751;-0.074499;,
      -0.006291;-0.008931;-0.074234;,
      -0.006833;-0.007308;-0.074249;,
       0.028164;-0.009056; 0.090465;,
       0.032059;-0.011804; 0.081605;,
      -0.028761;-0.011804; 0.081316;,
      -0.026132;-0.009056; 0.087909;,
      -0.033695;-0.007308;-0.074486;,
      -0.034182;-0.006737;-0.090401;,
      -0.034182;-0.002034;-0.090401;,
      -0.033695;-0.002034;-0.074486;,
      -0.006833;-0.007308;-0.074249;,
      -0.006291;-0.008931;-0.074234;,
      -0.003419;-0.007725;-0.074209;,
      -0.002337;-0.002034;-0.074209;,
      -0.006833;-0.002034;-0.074249;,
       0.007450;-0.011804;-0.007772;,
       0.002317;-0.011804;-0.026695;,
      -0.021287;-0.011804;-0.018877;,
      -0.029220;-0.011804;-0.001692;,
      -0.030398;-0.004705; 0.091779;,
      -0.033024;-0.007457; 0.081296;,
      -0.034514;-0.002034; 0.081296;,
      -0.030860;-0.002034; 0.091779;,
      -0.033362;-0.011804;-0.074483;,
      -0.035138;-0.008751;-0.074499;,
      -0.038191;-0.007469;-0.074526;,
      -0.033024;-0.007457; 0.081296;,
      -0.028761;-0.011804; 0.081316;,
      -0.029220;-0.011804;-0.001692;,
      -0.033464;-0.007462;-0.001009;,
      -0.021287;-0.011804;-0.018877;,
      -0.025826;-0.007466;-0.017440;,
      -0.033464;-0.007462;-0.001009;,
      -0.029220;-0.011804;-0.001692;,
      -0.027448;-0.011804;-0.049477;,
      -0.031927;-0.007468;-0.047970;,
      -0.025826;-0.007466;-0.017440;,
      -0.021287;-0.011804;-0.018877;,
      -0.033362;-0.011804;-0.074483;,
      -0.038191;-0.007469;-0.074526;,
      -0.031927;-0.007468;-0.047970;,
      -0.027448;-0.011804;-0.049477;,
      -0.030398;-0.004705; 0.091779;,
      -0.026132;-0.009056; 0.087909;,
      -0.028761;-0.011804; 0.081316;,
      -0.033024;-0.007457; 0.081296;,
      -0.033024;-0.007457; 0.081296;,
      -0.033464;-0.007462;-0.001009;,
      -0.034954;-0.002034;-0.001009;,
      -0.034514;-0.002034; 0.081296;,
      -0.003419;-0.007725;-0.074209;,
      -0.006291;-0.008931;-0.074234;,
      -0.007517;-0.011804;-0.074245;,
       0.036304;-0.007714; 0.081625;,
       0.032059;-0.011804; 0.081605;,
       0.028164;-0.009056; 0.090465;,
       0.032417;-0.004963; 0.092534;,
       0.006216;-0.007723;-0.027930;,
       0.002317;-0.011804;-0.026695;,
       0.007450;-0.011804;-0.007772;,
       0.011508;-0.007719;-0.008425;,
      -0.000960;-0.007725;-0.058751;,
      -0.004844;-0.011804;-0.057445;,
       0.002317;-0.011804;-0.026695;,
       0.006216;-0.007723;-0.027930;,
      -0.004844;-0.011804;-0.057445;,
      -0.000960;-0.007725;-0.058751;,
      -0.003419;-0.007725;-0.074209;,
      -0.007517;-0.011804;-0.074245;,
       0.011508;-0.007719;-0.008425;,
       0.007450;-0.011804;-0.007772;,
       0.032059;-0.011804; 0.081605;,
       0.036304;-0.007714; 0.081625;,
       0.012589;-0.002034;-0.008425;,
       0.007297;-0.002034;-0.027930;,
       0.006216;-0.007723;-0.027930;,
       0.011508;-0.007719;-0.008425;,
       0.007297;-0.002034;-0.027930;,
       0.006216; 0.003656;-0.027930;,
      -0.000960; 0.003658;-0.058751;,
       0.000121;-0.002034;-0.058751;,
       0.037385;-0.002034; 0.081625;,
       0.036304; 0.003647; 0.081625;,
       0.011508; 0.003652;-0.008425;,
       0.012589;-0.002034;-0.008425;,
       0.033499;-0.002034; 0.092534;,
       0.032417; 0.000896; 0.092534;,
       0.036304; 0.003647; 0.081625;,
       0.037385;-0.002034; 0.081625;,
      -0.033464; 0.003395;-0.001009;,
      -0.034954;-0.002034;-0.001009;,
      -0.027316;-0.002034;-0.017440;,
      -0.025826; 0.003399;-0.017440;,
       0.032059; 0.007737; 0.081605;,
      -0.028761; 0.007737; 0.081316;,
      -0.029220; 0.007737;-0.001692;,
       0.007450; 0.007737;-0.007772;,
      -0.004844; 0.007737;-0.057445;,
      -0.027448; 0.007737;-0.049477;,
      -0.033362; 0.007737;-0.074483;,
      -0.007517; 0.007737;-0.074245;,
      -0.025826; 0.003399;-0.017440;,
      -0.027316;-0.002034;-0.017440;,
      -0.033417;-0.002034;-0.047970;,
      -0.031927; 0.003401;-0.047970;,
       0.002317; 0.007737;-0.026695;,
      -0.021287; 0.007737;-0.018877;,
      -0.027448; 0.007737;-0.049477;,
      -0.004844; 0.007737;-0.057445;,
      -0.031927; 0.003401;-0.047970;,
      -0.033417;-0.002034;-0.047970;,
      -0.039681;-0.002034;-0.074526;,
      -0.038191; 0.003402;-0.074526;,
       0.033499;-0.002034; 0.092534;,
      -0.030860;-0.002034; 0.091779;,
      -0.030398; 0.000638; 0.091779;,
      -0.026132; 0.004989; 0.087909;,
       0.028164; 0.004989; 0.090465;,
       0.032417; 0.000896; 0.092534;,
       0.000121;-0.002034;-0.058751;,
      -0.000960; 0.003658;-0.058751;,
      -0.003419; 0.003658;-0.074209;,
      -0.002337;-0.002034;-0.074209;,
      -0.033695;-0.002034;-0.074486;,
      -0.033695; 0.003241;-0.074486;,
      -0.035138; 0.004684;-0.074499;,
      -0.038191; 0.003402;-0.074526;,
      -0.039681;-0.002034;-0.074526;,
      -0.006833; 0.003241;-0.074249;,
      -0.033695; 0.003241;-0.074486;,
      -0.034182; 0.002670;-0.090401;,
      -0.010020; 0.002670;-0.090188;,
      -0.006833;-0.002034;-0.074249;,
      -0.006833; 0.003241;-0.074249;,
      -0.010020; 0.002670;-0.090188;,
      -0.010020;-0.002034;-0.090188;,
      -0.010020; 0.002670;-0.090188;,
      -0.034182; 0.002670;-0.090401;,
      -0.034182;-0.002034;-0.090401;,
      -0.010020;-0.002034;-0.090188;,
      -0.033695; 0.003241;-0.074486;,
      -0.006833; 0.003241;-0.074249;,
      -0.006291; 0.004864;-0.074234;,
      -0.035138; 0.004684;-0.074499;,
       0.028164; 0.004989; 0.090465;,
      -0.026132; 0.004989; 0.087909;,
      -0.028761; 0.007737; 0.081316;,
       0.032059; 0.007737; 0.081605;,
      -0.033695; 0.003241;-0.074486;,
      -0.033695;-0.002034;-0.074486;,
      -0.034182;-0.002034;-0.090401;,
      -0.034182; 0.002670;-0.090401;,
      -0.006833; 0.003241;-0.074249;,
      -0.006833;-0.002034;-0.074249;,
      -0.002337;-0.002034;-0.074209;,
      -0.003419; 0.003658;-0.074209;,
      -0.006291; 0.004864;-0.074234;,
       0.007450; 0.007737;-0.007772;,
      -0.029220; 0.007737;-0.001692;,
      -0.021287; 0.007737;-0.018877;,
       0.002317; 0.007737;-0.026695;,
      -0.030398; 0.000638; 0.091779;,
      -0.030860;-0.002034; 0.091779;,
      -0.034514;-0.002034; 0.081296;,
      -0.033024; 0.003390; 0.081296;,
      -0.033362; 0.007737;-0.074483;,
      -0.038191; 0.003402;-0.074526;,
      -0.035138; 0.004684;-0.074499;,
      -0.033024; 0.003390; 0.081296;,
      -0.033464; 0.003395;-0.001009;,
      -0.029220; 0.007737;-0.001692;,
      -0.028761; 0.007737; 0.081316;,
      -0.021287; 0.007737;-0.018877;,
      -0.029220; 0.007737;-0.001692;,
      -0.033464; 0.003395;-0.001009;,
      -0.025826; 0.003399;-0.017440;,
      -0.027448; 0.007737;-0.049477;,
      -0.021287; 0.007737;-0.018877;,
      -0.025826; 0.003399;-0.017440;,
      -0.031927; 0.003401;-0.047970;,
      -0.033362; 0.007737;-0.074483;,
      -0.027448; 0.007737;-0.049477;,
      -0.031927; 0.003401;-0.047970;,
      -0.038191; 0.003402;-0.074526;,
      -0.030398; 0.000638; 0.091779;,
      -0.033024; 0.003390; 0.081296;,
      -0.028761; 0.007737; 0.081316;,
      -0.026132; 0.004989; 0.087909;,
      -0.033024; 0.003390; 0.081296;,
      -0.034514;-0.002034; 0.081296;,
      -0.034954;-0.002034;-0.001009;,
      -0.033464; 0.003395;-0.001009;,
      -0.003419; 0.003658;-0.074209;,
      -0.007517; 0.007737;-0.074245;,
      -0.006291; 0.004864;-0.074234;,
       0.036304; 0.003647; 0.081625;,
       0.032417; 0.000896; 0.092534;,
       0.028164; 0.004989; 0.090465;,
       0.032059; 0.007737; 0.081605;,
       0.006216; 0.003656;-0.027930;,
       0.011508; 0.003652;-0.008425;,
       0.007450; 0.007737;-0.007772;,
       0.002317; 0.007737;-0.026695;,
      -0.000960; 0.003658;-0.058751;,
       0.006216; 0.003656;-0.027930;,
       0.002317; 0.007737;-0.026695;,
      -0.004844; 0.007737;-0.057445;,
      -0.004844; 0.007737;-0.057445;,
      -0.007517; 0.007737;-0.074245;,
      -0.003419; 0.003658;-0.074209;,
      -0.000960; 0.003658;-0.058751;,
       0.011508; 0.003652;-0.008425;,
       0.036304; 0.003647; 0.081625;,
       0.032059; 0.007737; 0.081605;,
       0.007450; 0.007737;-0.007772;,
       0.012589;-0.002034;-0.008425;,
       0.011508; 0.003652;-0.008425;,
       0.006216; 0.003656;-0.027930;,
       0.007297;-0.002034;-0.027930;,
      -0.035138;-0.008751;-0.074499;,
      -0.033362;-0.011804;-0.074483;,
      -0.007517;-0.011804;-0.074245;,
      -0.006291;-0.008931;-0.074234;,
      -0.006291; 0.004864;-0.074234;,
      -0.007517; 0.007737;-0.074245;,
      -0.033362; 0.007737;-0.074483;,
      -0.035138; 0.004684;-0.074499;;
      72;
      4;3,2,1,0;,
      4;7,6,5,4;,
      4;11,10,9,8;,
      4;15,14,13,12;,
      4;19,18,17,16;,
      4;23,22,21,20;,
      4;27,26,25,24;,
      4;31,30,29,28;,
      4;35,34,33,32;,
      6;41,40,39,38,37,36;,
      4;45,44,43,42;,
      5;50,49,48,47,46;,
      4;54,53,52,51;,
      4;58,57,56,55;,
      4;62,61,60,59;,
      4;66,65,64,63;,
      4;70,69,68,67;,
      4;74,73,72,71;,
      5;79,78,77,76,75;,
      4;83,82,81,80;,
      4;87,86,85,84;,
      3;90,89,88;,
      4;94,93,92,91;,
      4;98,97,96,95;,
      4;102,101,100,99;,
      4;106,105,104,103;,
      4;110,109,108,107;,
      4;114,113,112,111;,
      3;117,116,115;,
      4;121,120,119,118;,
      4;125,124,123,122;,
      4;129,128,127,126;,
      4;133,132,131,130;,
      4;137,136,135,134;,
      4;141,140,139,138;,
      4;145,144,143,142;,
      4;149,148,147,146;,
      4;153,152,151,150;,
      4;157,156,155,154;,
      4;161,160,159,158;,
      4;165,164,163,162;,
      4;169,168,167,166;,
      4;173,172,171,170;,
      4;177,176,175,174;,
      6;183,182,181,180,179,178;,
      4;187,186,185,184;,
      5;192,191,190,189,188;,
      4;196,195,194,193;,
      4;200,199,198,197;,
      4;204,203,202,201;,
      4;208,207,206,205;,
      4;212,211,210,209;,
      4;216,215,214,213;,
      5;221,220,219,218,217;,
      4;225,224,223,222;,
      4;229,228,227,226;,
      3;232,231,230;,
      4;236,235,234,233;,
      4;240,239,238,237;,
      4;244,243,242,241;,
      4;248,247,246,245;,
      4;252,251,250,249;,
      4;256,255,254,253;,
      3;259,258,257;,
      4;263,262,261,260;,
      4;267,266,265,264;,
      4;271,270,269,268;,
      4;275,274,273,272;,
      4;279,278,277,276;,
      4;283,282,281,280;,
      4;287,286,285,284;,
      4;291,290,289,288;;
      MeshNormals {
        72;
        -0.957686; 0.181997; 0.222965;,
        -0.948294; 0.180437; 0.261116;,
        -0.907746; 0.228023;-0.352141;,
         0.879984; 0.241425; 0.409076;,
         0.000000; 1.000000;-0.000000;,
         0.000000; 1.000000;-0.000000;,
         0.946973; 0.259664;-0.189253;,
         0.000000; 1.000000; 0.000000;,
         0.940393; 0.257793;-0.221820;,
         0.020641; 0.377961;-0.925591;,
        -0.970646; 0.184418; 0.154391;,
        -0.007697;-0.000948; 0.999970;,
        -0.000317; 0.999355; 0.035898;,
        -0.980588; 0.000000; 0.196077;,
        -0.008845; 0.000000; 0.999961;,
        -0.009005; 0.003169; 0.999954;,
         0.008267; 0.942364;-0.334488;,
         0.999532; 0.000000;-0.030599;,
        -0.010112; 0.001441; 0.999948;,
         0.000000; 1.000000;-0.000000;,
         0.925346; 0.223207;-0.306453;,
        -0.008842;-0.000003; 0.999961;,
         0.714323; 0.699806;-0.003910;,
         0.703169; 0.632063; 0.325652;,
         0.664078; 0.735696;-0.133237;,
         0.660029; 0.734888;-0.155891;,
         0.556797; 0.725268;-0.404924;,
         0.964294; 0.264783;-0.005169;,
        -0.008841;-0.000002; 0.999961;,
        -0.573245; 0.702866;-0.421153;,
        -0.682146; 0.707427; 0.184998;,
        -0.688872; 0.706920; 0.160375;,
        -0.701584; 0.703794; 0.111601;,
        -0.681813; 0.707032; 0.187713;,
        -0.949266; 0.180483; 0.257526;,
        -0.957686;-0.181997; 0.222965;,
        -0.948294;-0.180437; 0.261116;,
        -0.907746;-0.228023;-0.352141;,
         0.879984;-0.241425; 0.409076;,
        -0.000000;-1.000000; 0.000000;,
        -0.000000;-1.000000; 0.000000;,
         0.946973;-0.259664;-0.189253;,
        -0.000000;-1.000000;-0.000000;,
         0.940393;-0.257793;-0.221820;,
         0.020641;-0.377961;-0.925591;,
        -0.970646;-0.184418; 0.154391;,
        -0.007699; 0.000948; 0.999970;,
        -0.000318;-0.999355; 0.035898;,
        -0.980588; 0.000000; 0.196077;,
        -0.008845; 0.000000; 0.999961;,
        -0.009005;-0.003169; 0.999954;,
         0.008267;-0.942364;-0.334488;,
         0.999532;-0.000000;-0.030599;,
        -0.010112;-0.001441; 0.999948;,
        -0.000000;-1.000000; 0.000000;,
         0.925346;-0.223207;-0.306453;,
        -0.008842; 0.000003; 0.999961;,
         0.714322;-0.699806;-0.003910;,
         0.703169;-0.632064; 0.325652;,
         0.664078;-0.735696;-0.133237;,
         0.660029;-0.734888;-0.155891;,
         0.556796;-0.725268;-0.404924;,
         0.964294;-0.264783;-0.005169;,
        -0.008841; 0.000002; 0.999961;,
        -0.573245;-0.702866;-0.421153;,
        -0.682146;-0.707427; 0.184998;,
        -0.688872;-0.706920; 0.160375;,
        -0.701584;-0.703793; 0.111601;,
        -0.681813;-0.707032; 0.187713;,
        -0.949266;-0.180483; 0.257526;,
        -0.009194;-0.000035; 0.999958;,
        -0.009194; 0.000035; 0.999958;;
        72;
        4;0,0,0,0;,
        4;1,1,1,1;,
        4;2,2,2,2;,
        4;3,3,3,3;,
        4;4,4,4,4;,
        4;5,5,5,5;,
        4;6,6,6,6;,
        4;7,7,7,7;,
        4;8,8,8,8;,
        6;9,9,9,9,9,9;,
        4;10,10,10,10;,
        5;11,11,11,11,11;,
        4;12,12,12,12;,
        4;13,13,13,13;,
        4;14,14,14,14;,
        4;15,15,15,15;,
        4;16,16,16,16;,
        4;17,17,17,17;,
        5;18,18,18,18,18;,
        4;19,19,19,19;,
        4;20,20,20,20;,
        3;21,21,21;,
        4;22,22,22,22;,
        4;23,23,23,23;,
        4;24,24,24,24;,
        4;25,25,25,25;,
        4;26,26,26,26;,
        4;27,27,27,27;,
        3;28,28,28;,
        4;29,29,29,29;,
        4;30,30,30,30;,
        4;31,31,31,31;,
        4;32,32,32,32;,
        4;33,33,33,33;,
        4;34,34,34,34;,
        4;35,35,35,35;,
        4;36,36,36,36;,
        4;37,37,37,37;,
        4;38,38,38,38;,
        4;39,39,39,39;,
        4;40,40,40,40;,
        4;41,41,41,41;,
        4;42,42,42,42;,
        4;43,43,43,43;,
        6;44,44,44,44,44,44;,
        4;45,45,45,45;,
        5;46,46,46,46,46;,
        4;47,47,47,47;,
        4;48,48,48,48;,
        4;49,49,49,49;,
        4;50,50,50,50;,
        4;51,51,51,51;,
        4;52,52,52,52;,
        5;53,53,53,53,53;,
        4;54,54,54,54;,
        4;55,55,55,55;,
        3;56,56,56;,
        4;57,57,57,57;,
        4;58,58,58,58;,
        4;59,59,59,59;,
        4;60,60,60,60;,
        4;61,61,61,61;,
        4;62,62,62,62;,
        3;63,63,63;,
        4;64,64,64,64;,
        4;65,65,65,65;,
        4;66,66,66,66;,
        4;67,67,67,67;,
        4;68,68,68,68;,
        4;69,69,69,69;,
        4;70,70,70,70;,
        4;71,71,71,71;;
      }
      MeshTextureCoords {
        292;
         0.709598; 0.546023;,
         0.708996; 0.685696;,
         0.683446; 0.686668;,
         0.684056; 0.546996;,
         0.105273; 0.000396;,
         0.105223; 0.412645;,
         0.079709; 0.413908;,
         0.079782; 0.001660;,
         0.412135; 0.263795;,
         0.463160; 0.260753;,
         0.463160; 0.286275;,
         0.411351; 0.277553;,
         0.710405; 0.752976;,
         0.710389; 0.673000;,
         0.735097; 0.675772;,
         0.735097; 0.755748;,
         0.518220; 0.503901;,
         0.517951; 0.913063;,
         0.354773; 0.930048;,
         0.259704; 0.576218;,
         0.523217; 0.596715;,
         0.519012; 0.521749;,
         0.630263; 0.496515;,
         0.628177; 0.609912;,
         0.631635; 0.755748;,
         0.631054; 0.618332;,
         0.655888; 0.616940;,
         0.656459; 0.754356;,
         0.521134; 0.736050;,
         0.523217; 0.596715;,
         0.628177; 0.609912;,
         0.630263; 0.747664;,
         0.631054; 0.618332;,
         0.631623; 0.497907;,
         0.656459; 0.496515;,
         0.655888; 0.616940;,
         0.261645; 0.503110;,
         0.248327; 0.499568;,
         0.229410; 0.479457;,
         0.226063; 0.239570;,
         0.249705; 0.218214;,
         0.261645; 0.219029;,
         0.708996; 0.685696;,
         0.709598; 0.754776;,
         0.684045; 0.755748;,
         0.683446; 0.686668;,
         0.623388; 0.469305;,
         0.623388; 0.495723;,
         0.599398; 0.489148;,
         0.593741; 0.475672;,
         0.600108; 0.469305;,
         0.510372; 0.503110;,
         0.440104; 0.488421;,
         0.440103; 0.381771;,
         0.510372; 0.384543;,
         0.483094; 0.357699;,
         0.411351; 0.357699;,
         0.411351; 0.336941;,
         0.483094; 0.334419;,
         0.369043; 0.274330;,
         0.389801; 0.274330;,
         0.389801; 0.380980;,
         0.369043; 0.380980;,
         0.600108; 0.469305;,
         0.593741; 0.475672;,
         0.592944; 0.348345;,
         0.600108; 0.350737;,
         0.147877; 0.251673;,
         0.188898; 0.234668;,
         0.188898; 0.503110;,
         0.157415; 0.491395;,
         0.481629; 0.333627;,
         0.411351; 0.331105;,
         0.411351; 0.310347;,
         0.481629; 0.310347;,
         0.600108; 0.350737;,
         0.592944; 0.348345;,
         0.598266; 0.335666;,
         0.623388; 0.330894;,
         0.623388; 0.350737;,
         0.517951; 0.913063;,
         0.518220; 0.999604;,
         0.408623; 0.993917;,
         0.354773; 0.930048;,
         0.683806; 0.265203;,
         0.732264; 0.256563;,
         0.732264; 0.281387;,
         0.683446; 0.277165;,
         0.580265; 0.467833;,
         0.593741; 0.475672;,
         0.599398; 0.489148;,
         0.290101; 0.136921;,
         0.316974; 0.136730;,
         0.316974; 0.503110;,
         0.290164; 0.500196;,
         0.688281; 0.905425;,
         0.712906; 0.919629;,
         0.712906; 0.999604;,
         0.688125; 0.988966;,
         0.549638; 0.356001;,
         0.577849; 0.358317;,
         0.579473; 0.495723;,
         0.551113; 0.493761;,
         0.551218; 0.242596;,
         0.579473; 0.237900;,
         0.577849; 0.358317;,
         0.549638; 0.356001;,
         0.667303; 0.330103;,
         0.639967; 0.313740;,
         0.640438; 0.280151;,
         0.667303; 0.280881;,
         0.368252; 0.139802;,
         0.368252; 0.503076;,
         0.343405; 0.503110;,
         0.343428; 0.139835;,
         0.598266; 0.335666;,
         0.592944; 0.348345;,
         0.580265; 0.353754;,
         0.710299; 0.334716;,
         0.684339; 0.332991;,
         0.683446; 0.288594;,
         0.710299; 0.282178;,
         0.026084; 0.503110;,
         0.000592; 0.502413;,
         0.000396; 0.415871;,
         0.025894; 0.413908;,
         0.656482; 0.926713;,
         0.631054; 0.924563;,
         0.633362; 0.785231;,
         0.658798; 0.787058;,
         0.631054; 0.924563;,
         0.656482; 0.926713;,
         0.658798; 0.995756;,
         0.633571; 0.999604;,
         0.025894; 0.413908;,
         0.000396; 0.415871;,
         0.000560; 0.006713;,
         0.026084; 0.001665;,
         0.105223; 0.412645;,
         0.105273; 0.501846;,
         0.079744; 0.503110;,
         0.079709; 0.413908;,
         0.709598; 0.545232;,
         0.684056; 0.544260;,
         0.683446; 0.404588;,
         0.708996; 0.405560;,
         0.078918; 0.503110;,
         0.053427; 0.501846;,
         0.053355; 0.089600;,
         0.078868; 0.090864;,
         0.631839; 0.781398;,
         0.631054; 0.767639;,
         0.682863; 0.758918;,
         0.682863; 0.784440;,
         0.483901; 0.301004;,
         0.508594; 0.298232;,
         0.508594; 0.378207;,
         0.483885; 0.380980;,
         0.258912; 0.999604;,
         0.000396; 0.927287;,
         0.095465; 0.573457;,
         0.258643; 0.590443;,
         0.523217; 0.899404;,
         0.628177; 0.886208;,
         0.630263; 0.999604;,
         0.519012; 0.974370;,
         0.657831; 0.496515;,
         0.682655; 0.497907;,
         0.682084; 0.635322;,
         0.657250; 0.633930;,
         0.521134; 0.760069;,
         0.630263; 0.748455;,
         0.628177; 0.886208;,
         0.523217; 0.899404;,
         0.657250; 0.633930;,
         0.682084; 0.635322;,
         0.682655; 0.755748;,
         0.657819; 0.754356;,
         0.225271; 0.218214;,
         0.225271; 0.502295;,
         0.213331; 0.503110;,
         0.189689; 0.481754;,
         0.193037; 0.241866;,
         0.211953; 0.221756;,
         0.708996; 0.405560;,
         0.683446; 0.404588;,
         0.684045; 0.335507;,
         0.709598; 0.336480;,
         0.667303; 0.357313;,
         0.644022; 0.357313;,
         0.637655; 0.350946;,
         0.643312; 0.337470;,
         0.667303; 0.330894;,
         0.439312; 0.381771;,
         0.439312; 0.500338;,
         0.369043; 0.503110;,
         0.369043; 0.396460;,
         0.483094; 0.357699;,
         0.483094; 0.380980;,
         0.411351; 0.378457;,
         0.411351; 0.357699;,
         0.410559; 0.274330;,
         0.410559; 0.380980;,
         0.389801; 0.380980;,
         0.389801; 0.274330;,
         0.644022; 0.357313;,
         0.644022; 0.475881;,
         0.636859; 0.478272;,
         0.637655; 0.350946;,
         0.106064; 0.486104;,
         0.115602; 0.246383;,
         0.147085; 0.234668;,
         0.147085; 0.503110;,
         0.481629; 0.287066;,
         0.481629; 0.310347;,
         0.411351; 0.310347;,
         0.411351; 0.289589;,
         0.644022; 0.475881;,
         0.667303; 0.475881;,
         0.667303; 0.495723;,
         0.642181; 0.490951;,
         0.636859; 0.478272;,
         0.258643; 0.590443;,
         0.095465; 0.573457;,
         0.149315; 0.509588;,
         0.258912; 0.503901;,
         0.464311; 0.277635;,
         0.463951; 0.265673;,
         0.512769; 0.261451;,
         0.512769; 0.286275;,
         0.624180; 0.358786;,
         0.643312; 0.337470;,
         0.637655; 0.350946;,
         0.262436; 0.502918;,
         0.262499; 0.139644;,
         0.289310; 0.136730;,
         0.289310; 0.503110;,
         0.688281; 0.904634;,
         0.688125; 0.821093;,
         0.712906; 0.810455;,
         0.712906; 0.890430;,
         0.519012; 0.377623;,
         0.520487; 0.239863;,
         0.548847; 0.237900;,
         0.547223; 0.375307;,
         0.520591; 0.491028;,
         0.519012; 0.377623;,
         0.547223; 0.375307;,
         0.548847; 0.495723;,
         0.607601; 0.280150;,
         0.607601; 0.329372;,
         0.580737; 0.330103;,
         0.580265; 0.296513;,
         0.342613; 0.503110;,
         0.317790; 0.503076;,
         0.317766; 0.139802;,
         0.342613; 0.139836;,
         0.642181; 0.490951;,
         0.624180; 0.472863;,
         0.636859; 0.478272;,
         0.714978; 0.757125;,
         0.714978; 0.809663;,
         0.688125; 0.803247;,
         0.689017; 0.758850;,
         0.052563; 0.001664;,
         0.052374; 0.090866;,
         0.026875; 0.088903;,
         0.027071; 0.002361;,
         0.685017; 0.858123;,
         0.687333; 0.997777;,
         0.661897; 0.999604;,
         0.659589; 0.860273;,
         0.659589; 0.860273;,
         0.662106; 0.785231;,
         0.687333; 0.789079;,
         0.685017; 0.858123;,
         0.052374; 0.090866;,
         0.052563; 0.503110;,
         0.027039; 0.498062;,
         0.026875; 0.088903;,
         0.078868; 0.090864;,
         0.053355; 0.089600;,
         0.053390; 0.000398;,
         0.078918; 0.001662;,
         0.593741; 0.475672;,
         0.580265; 0.467833;,
         0.580265; 0.353754;,
         0.592944; 0.348345;,
         0.636859; 0.478272;,
         0.624180; 0.472863;,
         0.624180; 0.358786;,
         0.637655; 0.350946;;
      }
    }
  }
}
