xof 0303txt 0032

Frame Root {
  FrameTransformMatrix {
     1.000000, 0.000000, 0.000000, 0.000000,
     0.000000,-0.000000, 1.000000, 0.000000,
     0.000000, 1.000000, 0.000000, 0.000000,
     0.000000, 0.000000, 0.000000, 1.000000;;
  }
  Frame Supressor1_Cylinder_004 {
    FrameTransformMatrix {
       1.000000, 0.000000, 0.000000, 0.000000,
       0.000000, 1.000000, 0.000000, 0.000000,
       0.000000, 0.000000, 1.000000, 0.000000,
       0.000000, 0.000000, 0.000000, 1.000000;;
    }
    Mesh {
      312;
      -0.000317;-0.055379; 0.007826;,
      -0.004596;-0.055379; 0.006680;,
      -0.004596; 0.046901; 0.006680;,
      -0.000317; 0.046901; 0.007826;,
      -0.004596;-0.055379; 0.006680;,
      -0.007728;-0.055379; 0.003547;,
      -0.007728; 0.046901; 0.003547;,
      -0.004596; 0.046901; 0.006680;,
      -0.007728;-0.055379; 0.003547;,
      -0.008875;-0.055379;-0.000731;,
      -0.008875; 0.046901;-0.000731;,
      -0.007728; 0.046901; 0.003547;,
      -0.008875;-0.055379;-0.000731;,
      -0.007728;-0.055379;-0.005010;,
      -0.007728; 0.046901;-0.005010;,
      -0.008875; 0.046901;-0.000731;,
      -0.007728;-0.055379;-0.005010;,
      -0.004596;-0.055379;-0.008143;,
      -0.004596; 0.046901;-0.008143;,
      -0.007728; 0.046901;-0.005010;,
      -0.004596;-0.055379;-0.008143;,
      -0.000317;-0.055379;-0.009289;,
      -0.000317; 0.046901;-0.009289;,
      -0.004596; 0.046901;-0.008143;,
      -0.000317;-0.055379;-0.009289;,
       0.003962;-0.055379;-0.008143;,
       0.003962; 0.046901;-0.008143;,
      -0.000317; 0.046901;-0.009289;,
       0.003962;-0.055379;-0.008143;,
       0.007094;-0.055379;-0.005010;,
       0.007094; 0.046901;-0.005010;,
       0.003962; 0.046901;-0.008143;,
       0.007094;-0.055379;-0.005010;,
       0.008241;-0.055379;-0.000731;,
       0.008241; 0.046901;-0.000731;,
       0.007094; 0.046901;-0.005010;,
       0.008241;-0.055379;-0.000731;,
       0.007094;-0.055379; 0.003547;,
       0.007094; 0.046901; 0.003547;,
       0.008241; 0.046901;-0.000731;,
       0.003962; 0.046901;-0.008143;,
       0.002923; 0.048871;-0.006343;,
      -0.000317; 0.048871;-0.007212;,
      -0.000317; 0.046901;-0.009289;,
       0.007094;-0.055379; 0.003547;,
       0.003962;-0.055379; 0.006680;,
       0.003962; 0.046901; 0.006680;,
       0.007094; 0.046901; 0.003547;,
       0.003962;-0.055379; 0.006680;,
      -0.000317;-0.055379; 0.007826;,
      -0.000317; 0.046901; 0.007826;,
       0.003962; 0.046901; 0.006680;,
      -0.003613;-0.055379;-0.006440;,
      -0.003613;-0.057608;-0.006440;,
      -0.000317;-0.057608;-0.007323;,
      -0.000317;-0.055379;-0.007323;,
      -0.000317; 0.048871; 0.005749;,
      -0.000317; 0.048861; 0.001909;,
       0.001003; 0.048861; 0.001555;,
       0.002923; 0.048871; 0.004880;,
      -0.000317; 0.046901;-0.009289;,
      -0.000317; 0.048871;-0.007212;,
      -0.003557; 0.048871;-0.006343;,
      -0.004596; 0.046901;-0.008143;,
      -0.004596; 0.046901;-0.008143;,
      -0.003557; 0.048871;-0.006343;,
      -0.005929; 0.048871;-0.003972;,
      -0.007728; 0.046901;-0.005010;,
      -0.007728; 0.046901;-0.005010;,
      -0.005929; 0.048871;-0.003972;,
      -0.006797; 0.048871;-0.000731;,
      -0.008875; 0.046901;-0.000731;,
      -0.000317; 0.046901; 0.007826;,
      -0.000317; 0.048871; 0.005749;,
       0.002923; 0.048871; 0.004880;,
       0.003962; 0.046901; 0.006680;,
      -0.004596; 0.046901; 0.006680;,
      -0.003557; 0.048871; 0.004880;,
      -0.000317; 0.048871; 0.005749;,
      -0.000317; 0.046901; 0.007826;,
      -0.008875; 0.046901;-0.000731;,
      -0.006797; 0.048871;-0.000731;,
      -0.005929; 0.048871; 0.002509;,
      -0.007728; 0.046901; 0.003547;,
       0.003962; 0.046901; 0.006680;,
       0.002923; 0.048871; 0.004880;,
       0.005295; 0.048871; 0.002509;,
       0.007094; 0.046901; 0.003547;,
      -0.007728; 0.046901; 0.003547;,
      -0.005929; 0.048871; 0.002509;,
      -0.003557; 0.048871; 0.004880;,
      -0.004596; 0.046901; 0.006680;,
       0.007094; 0.046901; 0.003547;,
       0.005295; 0.048871; 0.002509;,
       0.006163; 0.048871;-0.000731;,
       0.008241; 0.046901;-0.000731;,
       0.008241; 0.046901;-0.000731;,
       0.006163; 0.048871;-0.000731;,
       0.005295; 0.048871;-0.003972;,
       0.007094; 0.046901;-0.005010;,
       0.007094; 0.046901;-0.005010;,
       0.005295; 0.048871;-0.003972;,
       0.002923; 0.048871;-0.006343;,
       0.003962; 0.046901;-0.008143;,
      -0.001637; 0.048861;-0.003018;,
      -0.001575; 0.023209;-0.002910;,
      -0.002496; 0.023209;-0.001989;,
      -0.002603; 0.048861;-0.002051;,
      -0.005929; 0.048871; 0.002509;,
      -0.002603; 0.048861; 0.000589;,
      -0.001637; 0.048861; 0.001555;,
      -0.003557; 0.048871; 0.004880;,
       0.006163; 0.048871;-0.000731;,
       0.002323; 0.048861;-0.000731;,
       0.001969; 0.048861;-0.002051;,
       0.005295; 0.048871;-0.003972;,
      -0.000317; 0.048871;-0.007212;,
      -0.000317; 0.048861;-0.003371;,
      -0.001637; 0.048861;-0.003018;,
      -0.003557; 0.048871;-0.006343;,
      -0.006797; 0.048871;-0.000731;,
      -0.002957; 0.048861;-0.000731;,
      -0.002603; 0.048861; 0.000589;,
      -0.005929; 0.048871; 0.002509;,
       0.005295; 0.048871; 0.002509;,
       0.001969; 0.048861; 0.000589;,
       0.002323; 0.048861;-0.000731;,
       0.006163; 0.048871;-0.000731;,
       0.002923; 0.048871;-0.006343;,
       0.001003; 0.048861;-0.003018;,
      -0.000317; 0.048861;-0.003371;,
      -0.000317; 0.048871;-0.007212;,
      -0.005929; 0.048871;-0.003972;,
      -0.002603; 0.048861;-0.002051;,
      -0.002957; 0.048861;-0.000731;,
      -0.006797; 0.048871;-0.000731;,
       0.002923; 0.048871; 0.004880;,
       0.001003; 0.048861; 0.001555;,
       0.001969; 0.048861; 0.000589;,
       0.005295; 0.048871; 0.002509;,
      -0.003557; 0.048871; 0.004880;,
      -0.001637; 0.048861; 0.001555;,
      -0.000317; 0.048861; 0.001909;,
      -0.000317; 0.048871; 0.005749;,
       0.005295; 0.048871;-0.003972;,
       0.001969; 0.048861;-0.002051;,
       0.001003; 0.048861;-0.003018;,
       0.002923; 0.048871;-0.006343;,
      -0.003557; 0.048871;-0.006343;,
      -0.001637; 0.048861;-0.003018;,
      -0.002603; 0.048861;-0.002051;,
      -0.005929; 0.048871;-0.003972;,
      -0.001575; 0.023209; 0.001447;,
      -0.002496; 0.023209; 0.000526;,
      -0.002833; 0.023209;-0.000731;,
      -0.002496; 0.023209;-0.001989;,
      -0.001575; 0.023209;-0.002910;,
      -0.000317; 0.023209;-0.003247;,
       0.000941; 0.023209;-0.002910;,
       0.001861; 0.023209;-0.001989;,
       0.002198; 0.023209;-0.000731;,
       0.001861; 0.023209; 0.000526;,
       0.000941; 0.023209; 0.001447;,
      -0.000317; 0.023209; 0.001784;,
      -0.000317; 0.048861; 0.001909;,
      -0.000317; 0.023209; 0.001784;,
       0.000941; 0.023209; 0.001447;,
       0.001003; 0.048861; 0.001555;,
      -0.002603; 0.048861; 0.000589;,
      -0.002496; 0.023209; 0.000526;,
      -0.001575; 0.023209; 0.001447;,
      -0.001637; 0.048861; 0.001555;,
       0.002323; 0.048861;-0.000731;,
       0.002198; 0.023209;-0.000731;,
       0.001861; 0.023209;-0.001989;,
       0.001969; 0.048861;-0.002051;,
      -0.000317; 0.048861;-0.003371;,
      -0.000317; 0.023209;-0.003247;,
      -0.001575; 0.023209;-0.002910;,
      -0.001637; 0.048861;-0.003018;,
      -0.002957; 0.048861;-0.000731;,
      -0.002833; 0.023209;-0.000731;,
      -0.002496; 0.023209; 0.000526;,
      -0.002603; 0.048861; 0.000589;,
       0.001969; 0.048861; 0.000589;,
       0.001861; 0.023209; 0.000526;,
       0.002198; 0.023209;-0.000731;,
       0.002323; 0.048861;-0.000731;,
       0.001003; 0.048861;-0.003018;,
       0.000941; 0.023209;-0.002910;,
      -0.000317; 0.023209;-0.003247;,
      -0.000317; 0.048861;-0.003371;,
      -0.002603; 0.048861;-0.002051;,
      -0.002496; 0.023209;-0.001989;,
      -0.002833; 0.023209;-0.000731;,
      -0.002957; 0.048861;-0.000731;,
       0.001003; 0.048861; 0.001555;,
       0.000941; 0.023209; 0.001447;,
       0.001861; 0.023209; 0.000526;,
       0.001969; 0.048861; 0.000589;,
      -0.001637; 0.048861; 0.001555;,
      -0.001575; 0.023209; 0.001447;,
      -0.000317; 0.023209; 0.001784;,
      -0.000317; 0.048861; 0.001909;,
       0.001969; 0.048861;-0.002051;,
       0.001861; 0.023209;-0.001989;,
       0.000941; 0.023209;-0.002910;,
       0.001003; 0.048861;-0.003018;,
      -0.003613;-0.055379; 0.004977;,
      -0.004596;-0.055379; 0.006680;,
      -0.000317;-0.055379; 0.007826;,
      -0.000317;-0.055379; 0.005860;,
      -0.006025;-0.055379; 0.002564;,
      -0.007728;-0.055379; 0.003547;,
      -0.004596;-0.055379; 0.006680;,
      -0.003613;-0.055379; 0.004977;,
      -0.006908;-0.055379;-0.000731;,
      -0.008875;-0.055379;-0.000731;,
      -0.007728;-0.055379; 0.003547;,
      -0.006025;-0.055379; 0.002564;,
      -0.006025;-0.055379;-0.004027;,
      -0.007728;-0.055379;-0.005010;,
      -0.008875;-0.055379;-0.000731;,
      -0.006908;-0.055379;-0.000731;,
      -0.003613;-0.055379;-0.006440;,
      -0.004596;-0.055379;-0.008143;,
      -0.007728;-0.055379;-0.005010;,
      -0.006025;-0.055379;-0.004027;,
      -0.000317;-0.055379;-0.007323;,
      -0.000317;-0.055379;-0.009289;,
      -0.004596;-0.055379;-0.008143;,
      -0.003613;-0.055379;-0.006440;,
       0.002978;-0.055379;-0.006440;,
       0.003962;-0.055379;-0.008143;,
      -0.000317;-0.055379;-0.009289;,
      -0.000317;-0.055379;-0.007323;,
       0.005391;-0.055379;-0.004027;,
       0.007094;-0.055379;-0.005010;,
       0.003962;-0.055379;-0.008143;,
       0.002978;-0.055379;-0.006440;,
       0.006274;-0.055379;-0.000731;,
       0.008241;-0.055379;-0.000731;,
       0.007094;-0.055379;-0.005010;,
       0.005391;-0.055379;-0.004027;,
       0.005391;-0.055379; 0.002564;,
       0.007094;-0.055379; 0.003547;,
       0.008241;-0.055379;-0.000731;,
       0.006274;-0.055379;-0.000731;,
       0.002978;-0.055379; 0.004977;,
       0.003962;-0.055379; 0.006680;,
       0.007094;-0.055379; 0.003547;,
       0.005391;-0.055379; 0.002564;,
      -0.000317;-0.055379; 0.005860;,
      -0.000317;-0.055379; 0.007826;,
       0.003962;-0.055379; 0.006680;,
       0.002978;-0.055379; 0.004977;,
      -0.000317;-0.057608; 0.005860;,
       0.002978;-0.057608; 0.004977;,
       0.005391;-0.057608; 0.002564;,
       0.006274;-0.057608;-0.000731;,
       0.005391;-0.057608;-0.004027;,
       0.002978;-0.057608;-0.006440;,
      -0.000317;-0.057608;-0.007323;,
      -0.003613;-0.057608;-0.006440;,
      -0.006025;-0.057608;-0.004027;,
      -0.006908;-0.057608;-0.000731;,
      -0.006025;-0.057608; 0.002564;,
      -0.003613;-0.057608; 0.004977;,
      -0.006025;-0.055379; 0.002564;,
      -0.006025;-0.057608; 0.002564;,
      -0.006908;-0.057608;-0.000731;,
      -0.006908;-0.055379;-0.000731;,
       0.006274;-0.055379;-0.000731;,
       0.006274;-0.057608;-0.000731;,
       0.005391;-0.057608; 0.002564;,
       0.005391;-0.055379; 0.002564;,
      -0.000317;-0.055379;-0.007323;,
      -0.000317;-0.057608;-0.007323;,
       0.002978;-0.057608;-0.006440;,
       0.002978;-0.055379;-0.006440;,
      -0.006908;-0.055379;-0.000731;,
      -0.006908;-0.057608;-0.000731;,
      -0.006025;-0.057608;-0.004027;,
      -0.006025;-0.055379;-0.004027;,
       0.005391;-0.055379; 0.002564;,
       0.005391;-0.057608; 0.002564;,
       0.002978;-0.057608; 0.004977;,
       0.002978;-0.055379; 0.004977;,
      -0.000317;-0.055379; 0.005860;,
      -0.000317;-0.057608; 0.005860;,
      -0.003613;-0.057608; 0.004977;,
      -0.003613;-0.055379; 0.004977;,
       0.002978;-0.055379;-0.006440;,
       0.002978;-0.057608;-0.006440;,
       0.005391;-0.057608;-0.004027;,
       0.005391;-0.055379;-0.004027;,
      -0.006025;-0.055379;-0.004027;,
      -0.006025;-0.057608;-0.004027;,
      -0.003613;-0.057608;-0.006440;,
      -0.003613;-0.055379;-0.006440;,
       0.002978;-0.055379; 0.004977;,
       0.002978;-0.057608; 0.004977;,
      -0.000317;-0.057608; 0.005860;,
      -0.000317;-0.055379; 0.005860;,
      -0.003613;-0.055379; 0.004977;,
      -0.003613;-0.057608; 0.004977;,
      -0.006025;-0.057608; 0.002564;,
      -0.006025;-0.055379; 0.002564;,
       0.005391;-0.055379;-0.004027;,
       0.005391;-0.057608;-0.004027;,
       0.006274;-0.057608;-0.000731;,
       0.006274;-0.055379;-0.000731;;
      74;
      4;3,2,1,0;,
      4;7,6,5,4;,
      4;11,10,9,8;,
      4;15,14,13,12;,
      4;19,18,17,16;,
      4;23,22,21,20;,
      4;27,26,25,24;,
      4;31,30,29,28;,
      4;35,34,33,32;,
      4;39,38,37,36;,
      4;43,42,41,40;,
      4;47,46,45,44;,
      4;51,50,49,48;,
      4;55,54,53,52;,
      4;59,58,57,56;,
      4;63,62,61,60;,
      4;67,66,65,64;,
      4;71,70,69,68;,
      4;75,74,73,72;,
      4;79,78,77,76;,
      4;83,82,81,80;,
      4;87,86,85,84;,
      4;91,90,89,88;,
      4;95,94,93,92;,
      4;99,98,97,96;,
      4;103,102,101,100;,
      4;107,106,105,104;,
      4;111,110,109,108;,
      4;115,114,113,112;,
      4;119,118,117,116;,
      4;123,122,121,120;,
      4;127,126,125,124;,
      4;131,130,129,128;,
      4;135,134,133,132;,
      4;139,138,137,136;,
      4;143,142,141,140;,
      4;147,146,145,144;,
      4;151,150,149,148;,
      12;163,162,161,160,159,158,157,156,155,154,153,152;,
      4;167,166,165,164;,
      4;171,170,169,168;,
      4;175,174,173,172;,
      4;179,178,177,176;,
      4;183,182,181,180;,
      4;187,186,185,184;,
      4;191,190,189,188;,
      4;195,194,193,192;,
      4;199,198,197,196;,
      4;203,202,201,200;,
      4;207,206,205,204;,
      4;211,210,209,208;,
      4;215,214,213,212;,
      4;219,218,217,216;,
      4;223,222,221,220;,
      4;227,226,225,224;,
      4;231,230,229,228;,
      4;235,234,233,232;,
      4;239,238,237,236;,
      4;243,242,241,240;,
      4;247,246,245,244;,
      4;251,250,249,248;,
      4;255,254,253,252;,
      12;267,266,265,264,263,262,261,260,259,258,257,256;,
      4;271,270,269,268;,
      4;275,274,273,272;,
      4;279,278,277,276;,
      4;283,282,281,280;,
      4;287,286,285,284;,
      4;291,290,289,288;,
      4;295,294,293,292;,
      4;299,298,297,296;,
      4;303,302,301,300;,
      4;307,306,305,304;,
      4;311,310,309,308;;
      MeshNormals {
        312;
        -0.000000; 0.653249;-0.757143;,
         0.378605; 0.653201;-0.655734;,
         0.463912;-0.373076;-0.803492;,
         0.000000;-0.373106;-0.927789;,
         0.378605; 0.653201;-0.655734;,
         0.655701; 0.653256;-0.378567;,
         0.803495;-0.373092;-0.463895;,
         0.463912;-0.373076;-0.803492;,
         0.655701; 0.653256;-0.378567;,
         0.757183; 0.653203;-0.000022;,
         0.927802;-0.373074;-0.000027;,
         0.803495;-0.373092;-0.463895;,
         0.757183; 0.653203;-0.000022;,
         0.655716; 0.653251; 0.378550;,
         0.803509;-0.373091; 0.463872;,
         0.927802;-0.373074;-0.000027;,
         0.655716; 0.653251; 0.378550;,
         0.378605; 0.653201; 0.655734;,
         0.463912;-0.373076; 0.803492;,
         0.803509;-0.373091; 0.463872;,
         0.378605; 0.653201; 0.655734;,
        -0.000000; 0.653249; 0.757143;,
         0.000000;-0.373106; 0.927789;,
         0.463912;-0.373076; 0.803492;,
        -0.000000; 0.653249; 0.757143;,
        -0.378605; 0.653200; 0.655734;,
        -0.463912;-0.373076; 0.803492;,
         0.000000;-0.373106; 0.927789;,
        -0.378605; 0.653200; 0.655734;,
        -0.655716; 0.653250; 0.378551;,
        -0.803508;-0.373091; 0.463872;,
        -0.463912;-0.373076; 0.803492;,
        -0.655716; 0.653250; 0.378551;,
        -0.757183; 0.653203;-0.000022;,
        -0.927802;-0.373074;-0.000027;,
        -0.803508;-0.373091; 0.463872;,
        -0.757183; 0.653203;-0.000022;,
        -0.655701; 0.653256;-0.378568;,
        -0.803495;-0.373092;-0.463895;,
        -0.927802;-0.373074;-0.000027;,
        -0.463912;-0.373076; 0.803492;,
        -0.210042;-0.907496; 0.363775;,
         0.000000;-0.907460; 0.420138;,
         0.000000;-0.373106; 0.927789;,
        -0.655701; 0.653256;-0.378568;,
        -0.378605; 0.653201;-0.655734;,
        -0.463912;-0.373076;-0.803492;,
        -0.803495;-0.373092;-0.463895;,
        -0.378605; 0.653201;-0.655734;,
        -0.000000; 0.653249;-0.757143;,
         0.000000;-0.373106;-0.927789;,
        -0.463912;-0.373076;-0.803492;,
         0.318889; 0.770294; 0.552229;,
         0.378644; 0.653203; 0.655709;,
        -0.000029; 0.653228; 0.757161;,
        -0.000024; 0.770260; 0.637730;,
         0.000000;-0.907460;-0.420138;,
        -0.000000;-0.770833; 0.637037;,
         0.318647;-0.770777; 0.551695;,
        -0.210042;-0.907497;-0.363775;,
         0.000000;-0.373106; 0.927789;,
         0.000000;-0.907460; 0.420138;,
         0.210043;-0.907497; 0.363775;,
         0.463912;-0.373076; 0.803492;,
         0.463912;-0.373076; 0.803492;,
         0.210043;-0.907497; 0.363775;,
         0.363846;-0.907458; 0.210084;,
         0.803509;-0.373091; 0.463872;,
         0.803509;-0.373091; 0.463872;,
         0.363846;-0.907458; 0.210084;,
         0.420091;-0.907482;-0.000016;,
         0.927802;-0.373074;-0.000027;,
         0.000000;-0.373106;-0.927789;,
         0.000000;-0.907460;-0.420138;,
        -0.210042;-0.907497;-0.363775;,
        -0.463912;-0.373076;-0.803492;,
         0.463912;-0.373076;-0.803492;,
         0.210042;-0.907497;-0.363775;,
         0.000000;-0.907460;-0.420138;,
         0.000000;-0.373106;-0.927789;,
         0.927802;-0.373074;-0.000027;,
         0.420091;-0.907482;-0.000016;,
         0.363834;-0.907461;-0.210095;,
         0.803495;-0.373092;-0.463895;,
        -0.463912;-0.373076;-0.803492;,
        -0.210042;-0.907497;-0.363775;,
        -0.363834;-0.907461;-0.210095;,
        -0.803495;-0.373092;-0.463895;,
         0.803495;-0.373092;-0.463895;,
         0.363834;-0.907461;-0.210095;,
         0.210042;-0.907497;-0.363775;,
         0.463912;-0.373076;-0.803492;,
        -0.803495;-0.373092;-0.463895;,
        -0.363834;-0.907461;-0.210095;,
        -0.420091;-0.907482;-0.000016;,
        -0.927802;-0.373074;-0.000027;,
        -0.927802;-0.373074;-0.000027;,
        -0.420091;-0.907482;-0.000016;,
        -0.363846;-0.907458; 0.210084;,
        -0.803508;-0.373091; 0.463872;,
        -0.803508;-0.373091; 0.463872;,
        -0.363846;-0.907458; 0.210084;,
        -0.210042;-0.907496; 0.363775;,
        -0.463912;-0.373076; 0.803492;,
        -0.318479;-0.770891;-0.551633;,
        -0.377791;-0.655047;-0.654361;,
        -0.654429;-0.655000;-0.377754;,
        -0.551858;-0.770701;-0.318549;,
         0.363834;-0.907461;-0.210095;,
        -0.551741;-0.770756; 0.318619;,
        -0.318582;-0.770764; 0.551750;,
         0.210042;-0.907497;-0.363775;,
        -0.420091;-0.907482;-0.000016;,
         0.637031;-0.770838; 0.000031;,
         0.551903;-0.770698;-0.318476;,
        -0.363846;-0.907458; 0.210084;,
         0.000000;-0.907460; 0.420138;,
        -0.000000;-0.770675;-0.637228;,
        -0.318479;-0.770891;-0.551633;,
         0.210043;-0.907497; 0.363775;,
         0.420091;-0.907482;-0.000016;,
        -0.637046;-0.770826; 0.000031;,
        -0.551741;-0.770756; 0.318619;,
         0.363834;-0.907461;-0.210095;,
        -0.363834;-0.907461;-0.210095;,
         0.551786;-0.770753; 0.318546;,
         0.637031;-0.770838; 0.000031;,
        -0.420091;-0.907482;-0.000016;,
        -0.210042;-0.907496; 0.363775;,
         0.318544;-0.770904;-0.551577;,
        -0.000000;-0.770675;-0.637228;,
         0.000000;-0.907460; 0.420138;,
         0.363846;-0.907458; 0.210084;,
        -0.551858;-0.770701;-0.318549;,
        -0.637046;-0.770826; 0.000031;,
         0.420091;-0.907482;-0.000016;,
        -0.210042;-0.907497;-0.363775;,
         0.318647;-0.770777; 0.551695;,
         0.551786;-0.770753; 0.318546;,
        -0.363834;-0.907461;-0.210095;,
         0.210042;-0.907497;-0.363775;,
        -0.318582;-0.770764; 0.551750;,
        -0.000000;-0.770833; 0.637037;,
         0.000000;-0.907460;-0.420138;,
        -0.363846;-0.907458; 0.210084;,
         0.551903;-0.770698;-0.318476;,
         0.318544;-0.770904;-0.551577;,
        -0.210042;-0.907496; 0.363775;,
         0.210043;-0.907497; 0.363775;,
        -0.318479;-0.770891;-0.551633;,
        -0.551858;-0.770701;-0.318549;,
         0.363846;-0.907458; 0.210084;,
        -0.377833;-0.655022; 0.654361;,
        -0.654333;-0.655039; 0.377852;,
        -0.755607;-0.655025; 0.000037;,
        -0.654429;-0.655000;-0.377754;,
        -0.377791;-0.655047;-0.654361;,
        -0.000000;-0.655020;-0.755612;,
         0.377904;-0.654985;-0.654357;,
         0.654423;-0.655073;-0.377637;,
         0.755595;-0.655040; 0.000037;,
         0.654326;-0.655113; 0.377735;,
         0.377947;-0.654961; 0.654356;,
        -0.000000;-0.655062; 0.755575;,
        -0.000000;-0.770833; 0.637037;,
        -0.000000;-0.655062; 0.755575;,
         0.377947;-0.654961; 0.654356;,
         0.318647;-0.770777; 0.551695;,
        -0.551741;-0.770756; 0.318619;,
        -0.654333;-0.655039; 0.377852;,
        -0.377833;-0.655022; 0.654361;,
        -0.318582;-0.770764; 0.551750;,
         0.637031;-0.770838; 0.000031;,
         0.755595;-0.655040; 0.000037;,
         0.654423;-0.655073;-0.377637;,
         0.551903;-0.770698;-0.318476;,
        -0.000000;-0.770675;-0.637228;,
        -0.000000;-0.655020;-0.755612;,
        -0.377791;-0.655047;-0.654361;,
        -0.318479;-0.770891;-0.551633;,
        -0.637046;-0.770826; 0.000031;,
        -0.755607;-0.655025; 0.000037;,
        -0.654333;-0.655039; 0.377852;,
        -0.551741;-0.770756; 0.318619;,
         0.551786;-0.770753; 0.318546;,
         0.654326;-0.655113; 0.377735;,
         0.755595;-0.655040; 0.000037;,
         0.637031;-0.770838; 0.000031;,
         0.318544;-0.770904;-0.551577;,
         0.377904;-0.654985;-0.654357;,
        -0.000000;-0.655020;-0.755612;,
        -0.000000;-0.770675;-0.637228;,
        -0.551858;-0.770701;-0.318549;,
        -0.654429;-0.655000;-0.377754;,
        -0.755607;-0.655025; 0.000037;,
        -0.637046;-0.770826; 0.000031;,
         0.318647;-0.770777; 0.551695;,
         0.377947;-0.654961; 0.654356;,
         0.654326;-0.655113; 0.377735;,
         0.551786;-0.770753; 0.318546;,
        -0.318582;-0.770764; 0.551750;,
        -0.377833;-0.655022; 0.654361;,
        -0.000000;-0.655062; 0.755575;,
        -0.000000;-0.770833; 0.637037;,
         0.551903;-0.770698;-0.318476;,
         0.654423;-0.655073;-0.377637;,
         0.377904;-0.654985;-0.654357;,
         0.318544;-0.770904;-0.551577;,
         0.318889; 0.770294;-0.552229;,
         0.378605; 0.653201;-0.655734;,
        -0.000000; 0.653249;-0.757143;,
        -0.000024; 0.770260;-0.637730;,
         0.552349; 0.770231;-0.318833;,
         0.655701; 0.653256;-0.378567;,
         0.378605; 0.653201;-0.655734;,
         0.318889; 0.770294;-0.552229;,
         0.637730; 0.770260;-0.000024;,
         0.757183; 0.653203;-0.000022;,
         0.655701; 0.653256;-0.378567;,
         0.552349; 0.770231;-0.318833;,
         0.552350; 0.770241; 0.318806;,
         0.655716; 0.653251; 0.378550;,
         0.757183; 0.653203;-0.000022;,
         0.637730; 0.770260;-0.000024;,
         0.318889; 0.770294; 0.552229;,
         0.378605; 0.653201; 0.655734;,
         0.655716; 0.653251; 0.378550;,
         0.552350; 0.770241; 0.318806;,
        -0.000024; 0.770260; 0.637730;,
        -0.000000; 0.653249; 0.757143;,
         0.378605; 0.653201; 0.655734;,
         0.318889; 0.770294; 0.552229;,
        -0.318875; 0.770258; 0.552288;,
        -0.378605; 0.653200; 0.655734;,
        -0.000000; 0.653249; 0.757143;,
        -0.000024; 0.770260; 0.637730;,
        -0.552290; 0.770267; 0.318849;,
        -0.655716; 0.653250; 0.378551;,
        -0.378605; 0.653200; 0.655734;,
        -0.318875; 0.770258; 0.552288;,
        -0.637730; 0.770260;-0.000024;,
        -0.757183; 0.653203;-0.000022;,
        -0.655716; 0.653250; 0.378551;,
        -0.552290; 0.770267; 0.318849;,
        -0.552288; 0.770258;-0.318875;,
        -0.655701; 0.653256;-0.378568;,
        -0.757183; 0.653203;-0.000022;,
        -0.637730; 0.770260;-0.000024;,
        -0.318875; 0.770258;-0.552288;,
        -0.378605; 0.653201;-0.655734;,
        -0.655701; 0.653256;-0.378568;,
        -0.552288; 0.770258;-0.318875;,
        -0.000024; 0.770260;-0.637730;,
        -0.000000; 0.653249;-0.757143;,
        -0.378605; 0.653201;-0.655734;,
        -0.318875; 0.770258;-0.552288;,
        -0.000029; 0.653228;-0.757161;,
        -0.378590; 0.653230;-0.655714;,
        -0.655714; 0.653230;-0.378589;,
        -0.757161; 0.653228;-0.000029;,
        -0.655734; 0.653222; 0.378568;,
        -0.378590; 0.653230; 0.655714;,
        -0.000029; 0.653228; 0.757161;,
         0.378644; 0.653203; 0.655709;,
         0.655758; 0.653242; 0.378492;,
         0.757161; 0.653228;-0.000029;,
         0.655739; 0.653249;-0.378513;,
         0.378644; 0.653203;-0.655709;,
         0.552349; 0.770231;-0.318833;,
         0.655739; 0.653249;-0.378513;,
         0.757161; 0.653228;-0.000029;,
         0.637730; 0.770260;-0.000024;,
        -0.637730; 0.770260;-0.000024;,
        -0.757161; 0.653228;-0.000029;,
        -0.655714; 0.653230;-0.378589;,
        -0.552288; 0.770258;-0.318875;,
        -0.000024; 0.770260; 0.637730;,
        -0.000029; 0.653228; 0.757161;,
        -0.378590; 0.653230; 0.655714;,
        -0.318875; 0.770258; 0.552288;,
         0.637730; 0.770260;-0.000024;,
         0.757161; 0.653228;-0.000029;,
         0.655758; 0.653242; 0.378492;,
         0.552350; 0.770241; 0.318806;,
        -0.552288; 0.770258;-0.318875;,
        -0.655714; 0.653230;-0.378589;,
        -0.378590; 0.653230;-0.655714;,
        -0.318875; 0.770258;-0.552288;,
        -0.000024; 0.770260;-0.637730;,
        -0.000029; 0.653228;-0.757161;,
         0.378644; 0.653203;-0.655709;,
         0.318889; 0.770294;-0.552229;,
        -0.318875; 0.770258; 0.552288;,
        -0.378590; 0.653230; 0.655714;,
        -0.655734; 0.653222; 0.378568;,
        -0.552290; 0.770267; 0.318849;,
         0.552350; 0.770241; 0.318806;,
         0.655758; 0.653242; 0.378492;,
         0.378644; 0.653203; 0.655709;,
         0.318889; 0.770294; 0.552229;,
        -0.318875; 0.770258;-0.552288;,
        -0.378590; 0.653230;-0.655714;,
        -0.000029; 0.653228;-0.757161;,
        -0.000024; 0.770260;-0.637730;,
         0.318889; 0.770294;-0.552229;,
         0.378644; 0.653203;-0.655709;,
         0.655739; 0.653249;-0.378513;,
         0.552349; 0.770231;-0.318833;,
        -0.552290; 0.770267; 0.318849;,
        -0.655734; 0.653222; 0.378568;,
        -0.757161; 0.653228;-0.000029;,
        -0.637730; 0.770260;-0.000024;;
        74;
        4;3,2,1,0;,
        4;7,6,5,4;,
        4;11,10,9,8;,
        4;15,14,13,12;,
        4;19,18,17,16;,
        4;23,22,21,20;,
        4;27,26,25,24;,
        4;31,30,29,28;,
        4;35,34,33,32;,
        4;39,38,37,36;,
        4;43,42,41,40;,
        4;47,46,45,44;,
        4;51,50,49,48;,
        4;55,54,53,52;,
        4;59,58,57,56;,
        4;63,62,61,60;,
        4;67,66,65,64;,
        4;71,70,69,68;,
        4;75,74,73,72;,
        4;79,78,77,76;,
        4;83,82,81,80;,
        4;87,86,85,84;,
        4;91,90,89,88;,
        4;95,94,93,92;,
        4;99,98,97,96;,
        4;103,102,101,100;,
        4;107,106,105,104;,
        4;111,110,109,108;,
        4;115,114,113,112;,
        4;119,118,117,116;,
        4;123,122,121,120;,
        4;127,126,125,124;,
        4;131,130,129,128;,
        4;135,134,133,132;,
        4;139,138,137,136;,
        4;143,142,141,140;,
        4;147,146,145,144;,
        4;151,150,149,148;,
        12;163,162,161,160,159,158,157,156,155,154,153,152;,
        4;167,166,165,164;,
        4;171,170,169,168;,
        4;175,174,173,172;,
        4;179,178,177,176;,
        4;183,182,181,180;,
        4;187,186,185,184;,
        4;191,190,189,188;,
        4;195,194,193,192;,
        4;199,198,197,196;,
        4;203,202,201,200;,
        4;207,206,205,204;,
        4;211,210,209,208;,
        4;215,214,213,212;,
        4;219,218,217,216;,
        4;223,222,221,220;,
        4;227,226,225,224;,
        4;231,230,229,228;,
        4;235,234,233,232;,
        4;239,238,237,236;,
        4;243,242,241,240;,
        4;247,246,245,244;,
        4;251,250,249,248;,
        4;255,254,253,252;,
        12;267,266,265,264,263,262,261,260,259,258,257,256;,
        4;271,270,269,268;,
        4;275,274,273,272;,
        4;279,278,277,276;,
        4;283,282,281,280;,
        4;287,286,285,284;,
        4;291,290,289,288;,
        4;295,294,293,292;,
        4;299,298,297,296;,
        4;303,302,301,300;,
        4;307,306,305,304;,
        4;311,310,309,308;;
      }
      MeshTextureCoords {
        312;
         0.001494; 0.735178;,
         0.001494; 0.691995;,
         0.998506; 0.691995;,
         0.998506; 0.735177;,
         0.001494; 0.691995;,
         0.001494; 0.648813;,
         0.998506; 0.648813;,
         0.998506; 0.691995;,
         0.001494; 0.648813;,
         0.001494; 0.605631;,
         0.998506; 0.605631;,
         0.998506; 0.648813;,
         0.001494; 0.605631;,
         0.001494; 0.562449;,
         0.998506; 0.562449;,
         0.998506; 0.605631;,
         0.001494; 0.562449;,
         0.001494; 0.519267;,
         0.998506; 0.519268;,
         0.998506; 0.562449;,
         0.001494; 0.519267;,
         0.001494; 0.476085;,
         0.998506; 0.476086;,
         0.998506; 0.519268;,
         0.001494; 0.998502;,
         0.001494; 0.955320;,
         0.998506; 0.955319;,
         0.998506; 0.998501;,
         0.001494; 0.955320;,
         0.001494; 0.912138;,
         0.998506; 0.912138;,
         0.998506; 0.955319;,
         0.001494; 0.912138;,
         0.001494; 0.868956;,
         0.998506; 0.868956;,
         0.998506; 0.912138;,
         0.001494; 0.868956;,
         0.001494; 0.825774;,
         0.998506; 0.825774;,
         0.998506; 0.868956;,
         0.628840; 0.440516;,
         0.609698; 0.420205;,
         0.628859; 0.393709;,
         0.654144; 0.405525;,
         0.001494; 0.825774;,
         0.001494; 0.782592;,
         0.998506; 0.782592;,
         0.998506; 0.825774;,
         0.001494; 0.782592;,
         0.001494; 0.739410;,
         0.998506; 0.739410;,
         0.998506; 0.782592;,
         0.560649; 0.398681;,
         0.582375; 0.398681;,
         0.582375; 0.431940;,
         0.560649; 0.431940;,
         0.796659; 0.380690;,
         0.834093; 0.380690;,
         0.837541; 0.393557;,
         0.805122; 0.412274;,
         0.481300; 0.459638;,
         0.456014; 0.471454;,
         0.436854; 0.444958;,
         0.455996; 0.424647;,
         0.455996; 0.424647;,
         0.436854; 0.444958;,
         0.409269; 0.427401;,
         0.419567; 0.401460;,
         0.419567; 0.401460;,
         0.409269; 0.427401;,
         0.377153; 0.421260;,
         0.377153; 0.393350;,
         0.445851; 0.405525;,
         0.471137; 0.393709;,
         0.490297; 0.420205;,
         0.471155; 0.440516;,
         0.298311; 0.424647;,
         0.317453; 0.444958;,
         0.298292; 0.471454;,
         0.273007; 0.459638;,
         0.377153; 0.393350;,
         0.377153; 0.421260;,
         0.345037; 0.427401;,
         0.334740; 0.401460;,
         0.471155; 0.440516;,
         0.490297; 0.420205;,
         0.517882; 0.437762;,
         0.507584; 0.463703;,
         0.334740; 0.401460;,
         0.345037; 0.427401;,
         0.317453; 0.444958;,
         0.298311; 0.424647;,
         0.507584; 0.463703;,
         0.517882; 0.437762;,
         0.549998; 0.443903;,
         0.549998; 0.471813;,
         0.549998; 0.471813;,
         0.549998; 0.443903;,
         0.582114; 0.437762;,
         0.592411; 0.463703;,
         0.592411; 0.463703;,
         0.582114; 0.437762;,
         0.609698; 0.420205;,
         0.628840; 0.440516;,
         0.068112; 0.221704;,
         0.066857; 0.471754;,
         0.054163; 0.471707;,
         0.054791; 0.221654;,
         0.987418; 0.376637;,
         0.955000; 0.395353;,
         0.945581; 0.385934;,
         0.964297; 0.353516;,
         0.859827; 0.443857;,
         0.859827; 0.406424;,
         0.872694; 0.402976;,
         0.891411; 0.435394;,
         0.932714; 0.471388;,
         0.932713; 0.433955;,
         0.945580; 0.430507;,
         0.964297; 0.462925;,
         0.995881; 0.408220;,
         0.958448; 0.408220;,
         0.955000; 0.395353;,
         0.987418; 0.376637;,
         0.828243; 0.435394;,
         0.846960; 0.402976;,
         0.859827; 0.406424;,
         0.859827; 0.443857;,
         0.914532; 0.412274;,
         0.882114; 0.393557;,
         0.885561; 0.380690;,
         0.922995; 0.380690;,
         0.987418; 0.439804;,
         0.955000; 0.421088;,
         0.958448; 0.408220;,
         0.995881; 0.408220;,
         0.805122; 0.412274;,
         0.837541; 0.393557;,
         0.846960; 0.402976;,
         0.828243; 0.435394;,
         0.964297; 0.353516;,
         0.945581; 0.385934;,
         0.932714; 0.382486;,
         0.932714; 0.345053;,
         0.891411; 0.435394;,
         0.872694; 0.402976;,
         0.882114; 0.393557;,
         0.914532; 0.412274;,
         0.964297; 0.462925;,
         0.945580; 0.430507;,
         0.955000; 0.421088;,
         0.987418; 0.439804;,
         0.663324; 0.454503;,
         0.663322; 0.441810;,
         0.669667; 0.430817;,
         0.680659; 0.424469;,
         0.693352; 0.424467;,
         0.704345; 0.430812;,
         0.710693; 0.441804;,
         0.710695; 0.454497;,
         0.704350; 0.465491;,
         0.693358; 0.471839;,
         0.680665; 0.471841;,
         0.669672; 0.465495;,
         0.082545; 0.471706;,
         0.084427; 0.221659;,
         0.097120; 0.221739;,
         0.095865; 0.471789;,
         0.028149; 0.221654;,
         0.028777; 0.471706;,
         0.016083; 0.471754;,
         0.014829; 0.221704;,
         0.122507; 0.471856;,
         0.122507; 0.221803;,
         0.135200; 0.221787;,
         0.135828; 0.471839;,
         0.081432; 0.221788;,
         0.079550; 0.471834;,
         0.066857; 0.471754;,
         0.068112; 0.221704;,
         0.041470; 0.221637;,
         0.041470; 0.471691;,
         0.028777; 0.471706;,
         0.028149; 0.221654;,
         0.109186; 0.471839;,
         0.109813; 0.221787;,
         0.122507; 0.221803;,
         0.122507; 0.471856;,
         0.149149; 0.471789;,
         0.147894; 0.221739;,
         0.160587; 0.221659;,
         0.162469; 0.471706;,
         0.054791; 0.221654;,
         0.054163; 0.471707;,
         0.041470; 0.471691;,
         0.041470; 0.221637;,
         0.095865; 0.471789;,
         0.097120; 0.221739;,
         0.109813; 0.221787;,
         0.109186; 0.471839;,
         0.014829; 0.221704;,
         0.016083; 0.471754;,
         0.003390; 0.471834;,
         0.001508; 0.221788;,
         0.135828; 0.471839;,
         0.135200; 0.221787;,
         0.147894; 0.221739;,
         0.149149; 0.471789;,
         0.804223; 0.420493;,
         0.787620; 0.430078;,
         0.776444; 0.388368;,
         0.795615; 0.388368;,
         0.827740; 0.444010;,
         0.818155; 0.460612;,
         0.787620; 0.430078;,
         0.804223; 0.420493;,
         0.859865; 0.452618;,
         0.859865; 0.471789;,
         0.818155; 0.460612;,
         0.827740; 0.444010;,
         0.891990; 0.444010;,
         0.901576; 0.460612;,
         0.859865; 0.471789;,
         0.859865; 0.452618;,
         0.915507; 0.420493;,
         0.932110; 0.430078;,
         0.901576; 0.460612;,
         0.891990; 0.444010;,
         0.924115; 0.388368;,
         0.943286; 0.388368;,
         0.932110; 0.430078;,
         0.915507; 0.420493;,
         0.767943; 0.439719;,
         0.784546; 0.430133;,
         0.795722; 0.471844;,
         0.776551; 0.471844;,
         0.744426; 0.416202;,
         0.754011; 0.399599;,
         0.784546; 0.430133;,
         0.767943; 0.439719;,
         0.712301; 0.407594;,
         0.712301; 0.388423;,
         0.754011; 0.399599;,
         0.744426; 0.416202;,
         0.680176; 0.416202;,
         0.670590; 0.399599;,
         0.712301; 0.388423;,
         0.712301; 0.407594;,
         0.656659; 0.439719;,
         0.640056; 0.430133;,
         0.670590; 0.399599;,
         0.680176; 0.416202;,
         0.648051; 0.471844;,
         0.628880; 0.471844;,
         0.640056; 0.430133;,
         0.656659; 0.439719;,
         0.272605; 0.455215;,
         0.243803; 0.471844;,
         0.210545; 0.471844;,
         0.181742; 0.455215;,
         0.165113; 0.426412;,
         0.165113; 0.393154;,
         0.181742; 0.364351;,
         0.210545; 0.347722;,
         0.243803; 0.347722;,
         0.272605; 0.364351;,
         0.289235; 0.393154;,
         0.289235; 0.426412;,
         0.560649; 0.298907;,
         0.582375; 0.298907;,
         0.582375; 0.332165;,
         0.560649; 0.332165;,
         0.557655; 0.338150;,
         0.535929; 0.338150;,
         0.535929; 0.304892;,
         0.557655; 0.304892;,
         0.557655; 0.437924;,
         0.535929; 0.437924;,
         0.535929; 0.404666;,
         0.557655; 0.404666;,
         0.560649; 0.332165;,
         0.582375; 0.332165;,
         0.582375; 0.365423;,
         0.560649; 0.365423;,
         0.557655; 0.304892;,
         0.535929; 0.304892;,
         0.535929; 0.271633;,
         0.557655; 0.271633;,
         0.560649; 0.232390;,
         0.582375; 0.232390;,
         0.582375; 0.265649;,
         0.560649; 0.265649;,
         0.557655; 0.404666;,
         0.535929; 0.404666;,
         0.535929; 0.371408;,
         0.557655; 0.371408;,
         0.560649; 0.365423;,
         0.582375; 0.365423;,
         0.582375; 0.398681;,
         0.560649; 0.398681;,
         0.557655; 0.271633;,
         0.535929; 0.271633;,
         0.535929; 0.238375;,
         0.557655; 0.238375;,
         0.560649; 0.265649;,
         0.582375; 0.265649;,
         0.582375; 0.298907;,
         0.560649; 0.298907;,
         0.557655; 0.371408;,
         0.535929; 0.371408;,
         0.535929; 0.338150;,
         0.557655; 0.338150;;
      }
      MeshMaterialList {
        1;
        74;
        0,
        0,
        0,
        0,
        0,
        0,
        0,
        0,
        0,
        0,
        0,
        0,
        0,
        0,
        0,
        0,
        0,
        0,
        0,
        0,
        0,
        0,
        0,
        0,
        0,
        0,
        0,
        0,
        0,
        0,
        0,
        0,
        0,
        0,
        0,
        0,
        0,
        0,
        0,
        0,
        0,
        0,
        0,
        0,
        0,
        0,
        0,
        0,
        0,
        0,
        0,
        0,
        0,
        0,
        0,
        0,
        0,
        0,
        0,
        0,
        0,
        0,
        0,
        0,
        0,
        0,
        0,
        0,
        0,
        0,
        0,
        0,
        0,
        0;
        Material Supressor1 {
           0.800000; 0.800000; 0.800000; 1.000000;;
           225.000000;
           0.500000; 0.500000; 0.500000;;
           0.000000; 0.000000; 0.000000;;
          TextureFilename {"Supressor2_texture.png";}
        }
      }
    }
  }
}
