xof 0303txt 0032

Frame Root {
  FrameTransformMatrix {
     1.000000, 0.000000, 0.000000, 0.000000,
     0.000000,-0.000000, 1.000000, 0.000000,
     0.000000, 1.000000, 0.000000, 0.000000,
     0.000000, 0.000000, 0.000000, 1.000000;;
  }
  Frame PopCanRed_X_PopCanRed {
    FrameTransformMatrix {
       1.000000, 0.000000, 0.000000, 0.000000,
       0.000000, 1.000000, 0.000000, 0.000000,
       0.000000, 0.000000, 1.000000, 0.000000,
       0.000000, 0.000000, 0.000000, 1.000000;;
    }
    Mesh {
      150;
      -0.023027;-0.055044; 0.000000;,
      -0.011513;-0.055044;-0.019942;,
      -0.011513; 0.036898;-0.019942;,
      -0.011513; 0.036898;-0.019942;,
      -0.023027; 0.036898;-0.000000;,
      -0.023027;-0.055044; 0.000000;,
      -0.011513;-0.055044;-0.019942;,
       0.011513;-0.055044;-0.019942;,
       0.011513; 0.036898;-0.019942;,
       0.011513; 0.036898;-0.019942;,
      -0.011513; 0.036898;-0.019942;,
      -0.011513;-0.055044;-0.019942;,
       0.011513;-0.055044;-0.019942;,
       0.023027;-0.055044; 0.000000;,
       0.023027; 0.036898;-0.000000;,
       0.023027; 0.036898;-0.000000;,
       0.011513; 0.036898;-0.019942;,
       0.011513;-0.055044;-0.019942;,
       0.023027;-0.055044; 0.000000;,
       0.011513;-0.055044; 0.019942;,
       0.011513; 0.036898; 0.019942;,
       0.011513; 0.036898; 0.019942;,
       0.023027; 0.036898;-0.000000;,
       0.023027;-0.055044; 0.000000;,
       0.011513;-0.055044; 0.019942;,
      -0.011513;-0.055044; 0.019942;,
      -0.011513; 0.036898; 0.019942;,
      -0.011513; 0.036898; 0.019942;,
       0.011513; 0.036898; 0.019942;,
       0.011513;-0.055044; 0.019942;,
      -0.011513;-0.055044; 0.019942;,
      -0.023027;-0.055044; 0.000000;,
      -0.023027; 0.036898;-0.000000;,
      -0.023027; 0.036898;-0.000000;,
      -0.011513; 0.036898; 0.019942;,
      -0.011513;-0.055044; 0.019942;,
      -0.011513;-0.055044;-0.019942;,
      -0.023027;-0.055044; 0.000000;,
      -0.019773;-0.058167; 0.000000;,
      -0.019773;-0.058167; 0.000000;,
      -0.009886;-0.058167;-0.017124;,
      -0.011513;-0.055044;-0.019942;,
       0.011513;-0.055044;-0.019942;,
      -0.011513;-0.055044;-0.019942;,
      -0.009886;-0.058167;-0.017124;,
      -0.009886;-0.058167;-0.017124;,
       0.009886;-0.058167;-0.017124;,
       0.011513;-0.055044;-0.019942;,
       0.023027;-0.055044; 0.000000;,
       0.011513;-0.055044;-0.019942;,
       0.009886;-0.058167;-0.017124;,
       0.009886;-0.058167;-0.017124;,
       0.019773;-0.058167; 0.000000;,
       0.023027;-0.055044; 0.000000;,
       0.011513;-0.055044; 0.019942;,
       0.023027;-0.055044; 0.000000;,
       0.019773;-0.058167; 0.000000;,
       0.019773;-0.058167; 0.000000;,
       0.009886;-0.058167; 0.017124;,
       0.011513;-0.055044; 0.019942;,
      -0.011513;-0.055044; 0.019942;,
       0.011513;-0.055044; 0.019942;,
       0.009886;-0.058167; 0.017124;,
       0.009886;-0.058167; 0.017124;,
      -0.009886;-0.058167; 0.017124;,
      -0.011513;-0.055044; 0.019942;,
      -0.023027;-0.055044; 0.000000;,
      -0.011513;-0.055044; 0.019942;,
      -0.009886;-0.058167; 0.017124;,
      -0.009886;-0.058167; 0.017124;,
      -0.019773;-0.058167; 0.000000;,
      -0.023027;-0.055044; 0.000000;,
      -0.009886;-0.058167;-0.017124;,
      -0.019773;-0.058167; 0.000000;,
       0.000000;-0.054295; 0.000000;,
       0.009886;-0.058167;-0.017124;,
      -0.009886;-0.058167;-0.017124;,
       0.000000;-0.054295; 0.000000;,
       0.019773;-0.058167; 0.000000;,
       0.009886;-0.058167;-0.017124;,
       0.000000;-0.054295; 0.000000;,
       0.009886;-0.058167; 0.017124;,
       0.019773;-0.058167; 0.000000;,
       0.000000;-0.054295; 0.000000;,
      -0.009886;-0.058167; 0.017124;,
       0.009886;-0.058167; 0.017124;,
       0.000000;-0.054295; 0.000000;,
      -0.019773;-0.058167; 0.000000;,
      -0.009886;-0.058167; 0.017124;,
       0.000000;-0.054295; 0.000000;,
      -0.023027; 0.036898;-0.000000;,
      -0.011513; 0.036898;-0.019942;,
      -0.009539; 0.041809;-0.016521;,
      -0.009539; 0.041809;-0.016521;,
      -0.019077; 0.041809;-0.000000;,
      -0.023027; 0.036898;-0.000000;,
      -0.011513; 0.036898;-0.019942;,
       0.011513; 0.036898;-0.019942;,
       0.009539; 0.041809;-0.016521;,
       0.009539; 0.041809;-0.016521;,
      -0.009539; 0.041809;-0.016521;,
      -0.011513; 0.036898;-0.019942;,
       0.011513; 0.036898;-0.019942;,
       0.023027; 0.036898;-0.000000;,
       0.019077; 0.041809;-0.000000;,
       0.019077; 0.041809;-0.000000;,
       0.009539; 0.041809;-0.016521;,
       0.011513; 0.036898;-0.019942;,
       0.023027; 0.036898;-0.000000;,
       0.011513; 0.036898; 0.019942;,
       0.009539; 0.041809; 0.016521;,
       0.009539; 0.041809; 0.016521;,
       0.019077; 0.041809;-0.000000;,
       0.023027; 0.036898;-0.000000;,
       0.011513; 0.036898; 0.019942;,
      -0.011513; 0.036898; 0.019942;,
      -0.009539; 0.041809; 0.016521;,
      -0.009539; 0.041809; 0.016521;,
       0.009539; 0.041809; 0.016521;,
       0.011513; 0.036898; 0.019942;,
      -0.011513; 0.036898; 0.019942;,
      -0.023027; 0.036898;-0.000000;,
      -0.019077; 0.041809;-0.000000;,
      -0.019077; 0.041809;-0.000000;,
      -0.009539; 0.041809; 0.016521;,
      -0.011513; 0.036898; 0.019942;,
       0.009886;-0.058167; 0.017124;,
       0.019773;-0.058167; 0.000000;,
       0.019077; 0.041809;-0.000000;,
       0.009539; 0.041809; 0.016521;,
      -0.009886;-0.058167; 0.017124;,
       0.009886;-0.058167; 0.017124;,
       0.009539; 0.041809; 0.016521;,
      -0.009539; 0.041809; 0.016521;,
       0.019773;-0.058167; 0.000000;,
       0.009886;-0.058167;-0.017124;,
       0.009539; 0.041809;-0.016521;,
       0.019077; 0.041809;-0.000000;,
       0.009886;-0.058167;-0.017124;,
      -0.009886;-0.058167;-0.017124;,
      -0.009539; 0.041809;-0.016521;,
       0.009539; 0.041809;-0.016521;,
      -0.019773;-0.058167; 0.000000;,
      -0.019077; 0.041809;-0.000000;,
      -0.009539; 0.041809;-0.016521;,
      -0.009886;-0.058167;-0.017124;,
      -0.009539; 0.041809; 0.016521;,
      -0.019077; 0.041809;-0.000000;,
      -0.019773;-0.058167; 0.000000;,
      -0.009886;-0.058167; 0.017124;;
      48;
      3;2,1,0;,
      3;5,4,3;,
      3;8,7,6;,
      3;11,10,9;,
      3;14,13,12;,
      3;17,16,15;,
      3;20,19,18;,
      3;23,22,21;,
      3;26,25,24;,
      3;29,28,27;,
      3;32,31,30;,
      3;35,34,33;,
      3;38,37,36;,
      3;41,40,39;,
      3;44,43,42;,
      3;47,46,45;,
      3;50,49,48;,
      3;53,52,51;,
      3;56,55,54;,
      3;59,58,57;,
      3;62,61,60;,
      3;65,64,63;,
      3;68,67,66;,
      3;71,70,69;,
      3;74,73,72;,
      3;77,76,75;,
      3;80,79,78;,
      3;83,82,81;,
      3;86,85,84;,
      3;89,88,87;,
      3;92,91,90;,
      3;95,94,93;,
      3;98,97,96;,
      3;101,100,99;,
      3;104,103,102;,
      3;107,106,105;,
      3;110,109,108;,
      3;113,112,111;,
      3;116,115,114;,
      3;119,118,117;,
      3;122,121,120;,
      3;125,124,123;,
      4;129,128,127,126;,
      4;133,132,131,130;,
      4;137,136,135,134;,
      4;141,140,139,138;,
      4;145,144,143,142;,
      4;149,148,147,146;;
      MeshNormals {
        150;
         1.000000; 0.000000; 0.000000;,
         0.500000; 0.000000; 0.866025;,
         0.500000; 0.000000; 0.866025;,
         0.500000; 0.000000; 0.866025;,
         1.000000; 0.000000;-0.000000;,
         1.000000; 0.000000; 0.000000;,
         0.500000; 0.000000; 0.866025;,
         0.000000; 0.000000; 1.000000;,
         0.000000; 0.000000; 1.000000;,
         0.000000; 0.000000; 1.000000;,
         0.500000; 0.000000; 0.866025;,
         0.500000; 0.000000; 0.866025;,
        -0.866026; 0.000000; 0.499999;,
        -1.000000;-0.000000; 0.000000;,
        -1.000000;-0.000000;-0.000000;,
        -1.000000;-0.000000;-0.000000;,
        -0.866026; 0.000000; 0.499999;,
        -0.866026; 0.000000; 0.499999;,
        -1.000000;-0.000000; 0.000000;,
        -0.500000;-0.000000;-0.866025;,
        -0.500000;-0.000000;-0.866025;,
        -0.500000;-0.000000;-0.866025;,
        -1.000000;-0.000000;-0.000000;,
        -1.000000;-0.000000; 0.000000;,
        -0.500000;-0.000000;-0.866025;,
         0.500000;-0.000000;-0.866025;,
         0.500000;-0.000000;-0.866025;,
         0.500000;-0.000000;-0.866025;,
        -0.500000;-0.000000;-0.866025;,
        -0.500000;-0.000000;-0.866025;,
         0.500000;-0.000000;-0.866025;,
         1.000000; 0.000000; 0.000000;,
         1.000000; 0.000000;-0.000000;,
         1.000000; 0.000000;-0.000000;,
         0.500000;-0.000000;-0.866025;,
         0.500000;-0.000000;-0.866025;,
         0.346199; 0.721512; 0.599639;,
         0.692411; 0.721504; 0.000000;,
         0.385246; 0.883800; 0.265487;,
         0.385246; 0.883800; 0.265487;,
         0.422540; 0.883803; 0.200876;,
         0.346199; 0.721512; 0.599639;,
        -0.346199; 0.721513; 0.599637;,
         0.346199; 0.721512; 0.599639;,
         0.422540; 0.883803; 0.200876;,
         0.422540; 0.883803; 0.200876;,
        -0.422541; 0.883803; 0.200875;,
        -0.346199; 0.721513; 0.599637;,
        -0.692412; 0.721502; 0.000000;,
        -0.346199; 0.721513; 0.599637;,
        -0.422541; 0.883803; 0.200875;,
        -0.422541; 0.883803; 0.200875;,
        -0.692412; 0.721502; 0.000001;,
        -0.692412; 0.721502; 0.000000;,
        -0.346199; 0.721512;-0.599639;,
        -0.692412; 0.721502; 0.000000;,
        -0.692412; 0.721502; 0.000001;,
        -0.692412; 0.721502; 0.000001;,
        -0.346204; 0.721512;-0.599636;,
        -0.346199; 0.721512;-0.599639;,
         0.346199; 0.721512;-0.599638;,
        -0.346199; 0.721512;-0.599639;,
        -0.346204; 0.721512;-0.599636;,
        -0.346204; 0.721512;-0.599636;,
        -0.037299; 0.883803;-0.466369;,
         0.346199; 0.721512;-0.599638;,
         0.692411; 0.721504; 0.000000;,
         0.346199; 0.721512;-0.599638;,
        -0.037299; 0.883803;-0.466369;,
        -0.037299; 0.883803;-0.466369;,
         0.385246; 0.883800; 0.265487;,
         0.692411; 0.721504; 0.000000;,
        -0.550813; 0.732301;-0.400426;,
        -0.622190; 0.732300;-0.276797;,
        -0.000000; 1.000000;-0.000000;,
         0.550813; 0.732301;-0.400426;,
        -0.550813; 0.732301;-0.400426;,
        -0.000000; 1.000000;-0.000000;,
         0.831625; 0.555337;-0.000000;,
         0.550813; 0.732301;-0.400426;,
        -0.000000; 1.000000;-0.000000;,
         0.415814; 0.555340; 0.720206;,
         0.831625; 0.555337;-0.000000;,
        -0.000000; 1.000000;-0.000000;,
        -0.071377; 0.732300; 0.677231;,
         0.415814; 0.555340; 0.720206;,
        -0.000000; 1.000000;-0.000000;,
        -0.622190; 0.732300;-0.276797;,
        -0.071377; 0.732300; 0.677231;,
        -0.000000; 1.000000;-0.000000;,
         0.779206;-0.626768;-0.000004;,
         0.389602;-0.626751; 0.674828;,
        -0.009596;-0.999815;-0.016667;,
        -0.009596;-0.999815;-0.016667;,
        -0.019255;-0.999815;-0.000013;,
         0.779206;-0.626768;-0.000004;,
         0.389602;-0.626751; 0.674828;,
        -0.389604;-0.626756; 0.674823;,
         0.009585;-0.999815;-0.016674;,
         0.009585;-0.999815;-0.016674;,
        -0.009596;-0.999815;-0.016667;,
         0.389602;-0.626751; 0.674828;,
        -0.389604;-0.626756; 0.674823;,
        -0.779205;-0.626769; 0.000005;,
         0.019256;-0.999815; 0.000013;,
         0.019256;-0.999815; 0.000013;,
         0.009585;-0.999815;-0.016674;,
        -0.389604;-0.626756; 0.674823;,
        -0.779205;-0.626769; 0.000005;,
        -0.389601;-0.626752;-0.674827;,
         0.009597;-0.999815; 0.016668;,
         0.009597;-0.999815; 0.016668;,
         0.019256;-0.999815; 0.000013;,
        -0.779205;-0.626769; 0.000005;,
        -0.389601;-0.626752;-0.674827;,
         0.389604;-0.626757;-0.674822;,
        -0.009585;-0.999815; 0.016675;,
        -0.009585;-0.999815; 0.016675;,
         0.009597;-0.999815; 0.016668;,
        -0.389601;-0.626752;-0.674827;,
         0.389604;-0.626757;-0.674822;,
         0.779206;-0.626768;-0.000004;,
        -0.019255;-0.999815;-0.000013;,
        -0.019255;-0.999815;-0.000013;,
        -0.009585;-0.999815; 0.016675;,
         0.389604;-0.626757;-0.674822;,
         0.415814; 0.555340; 0.720206;,
         0.831625; 0.555337;-0.000000;,
         0.019256;-0.999815; 0.000013;,
         0.009597;-0.999815; 0.016668;,
        -0.071377; 0.732300; 0.677231;,
         0.415814; 0.555340; 0.720206;,
         0.009597;-0.999815; 0.016668;,
        -0.009585;-0.999815; 0.016675;,
         0.831625; 0.555337;-0.000000;,
         0.550813; 0.732301;-0.400426;,
         0.009585;-0.999815;-0.016674;,
         0.019256;-0.999815; 0.000013;,
        -0.422541; 0.883803; 0.200875;,
         0.422540; 0.883803; 0.200876;,
        -0.009596;-0.999815;-0.016667;,
         0.009585;-0.999815;-0.016674;,
        -0.622190; 0.732300;-0.276797;,
        -0.019255;-0.999815;-0.000013;,
        -0.009596;-0.999815;-0.016667;,
        -0.550813; 0.732301;-0.400426;,
        -0.009585;-0.999815; 0.016675;,
        -0.019255;-0.999815;-0.000013;,
         0.385246; 0.883800; 0.265487;,
        -0.037299; 0.883803;-0.466369;;
        48;
        3;2,1,0;,
        3;5,4,3;,
        3;8,7,6;,
        3;11,10,9;,
        3;14,13,12;,
        3;17,16,15;,
        3;20,19,18;,
        3;23,22,21;,
        3;26,25,24;,
        3;29,28,27;,
        3;32,31,30;,
        3;35,34,33;,
        3;38,37,36;,
        3;41,40,39;,
        3;44,43,42;,
        3;47,46,45;,
        3;50,49,48;,
        3;53,52,51;,
        3;56,55,54;,
        3;59,58,57;,
        3;62,61,60;,
        3;65,64,63;,
        3;68,67,66;,
        3;71,70,69;,
        3;74,73,72;,
        3;77,76,75;,
        3;80,79,78;,
        3;83,82,81;,
        3;86,85,84;,
        3;89,88,87;,
        3;92,91,90;,
        3;95,94,93;,
        3;98,97,96;,
        3;101,100,99;,
        3;104,103,102;,
        3;107,106,105;,
        3;110,109,108;,
        3;113,112,111;,
        3;116,115,114;,
        3;119,118,117;,
        3;122,121,120;,
        3;125,124,123;,
        4;129,128,127,126;,
        4;133,132,131,130;,
        4;137,136,135,134;,
        4;141,140,139,138;,
        4;145,144,143,142;,
        4;149,148,147,146;;
      }
      MeshTextureCoords {
        150;
         0.660147; 0.983805;,
         0.822647; 0.983805;,
         0.822647; 0.481680;,
         0.822647; 0.481680;,
         0.660147; 0.481680;,
         0.660147; 0.983805;,
         0.822647; 0.983805;,
         0.985147; 0.983805;,
         0.985147; 0.481680;,
         0.985147; 0.481680;,
         0.822647; 0.481680;,
         0.822647; 0.983805;,
         0.010147; 0.983805;,
         0.172647; 0.983805;,
         0.172647; 0.481680;,
         0.172647; 0.481680;,
         0.010147; 0.481680;,
         0.010147; 0.983805;,
         0.172647; 0.983805;,
         0.335147; 0.983805;,
         0.335147; 0.481680;,
         0.335147; 0.481680;,
         0.172647; 0.481680;,
         0.172647; 0.983805;,
         0.335147; 0.983805;,
         0.497647; 0.983805;,
         0.497647; 0.481680;,
         0.497647; 0.481680;,
         0.335147; 0.481680;,
         0.335147; 0.983805;,
         0.497647; 0.983805;,
         0.660147; 0.983805;,
         0.660147; 0.481680;,
         0.660147; 0.481680;,
         0.497647; 0.481680;,
         0.497647; 0.983805;,
         0.546997; 0.141725;,
         0.742665; 0.028756;,
         0.742665; 0.073136;,
         0.742665; 0.073136;,
         0.583542; 0.159052;,
         0.546997; 0.141725;,
         0.546997; 0.367663;,
         0.546997; 0.141725;,
         0.583542; 0.159052;,
         0.583542; 0.159052;,
         0.581297; 0.360063;,
         0.546997; 0.367663;,
         0.742665; 0.465560;,
         0.546997; 0.367663;,
         0.581297; 0.360063;,
         0.581297; 0.360063;,
         0.742665; 0.444482;,
         0.742665; 0.465560;,
         0.938333; 0.367663;,
         0.742665; 0.465560;,
         0.742665; 0.444482;,
         0.742665; 0.444482;,
         0.909271; 0.354077;,
         0.938333; 0.367663;,
         0.938333; 0.141725;,
         0.938333; 0.367663;,
         0.909271; 0.354077;,
         0.909271; 0.354077;,
         0.904033; 0.162793;,
         0.938333; 0.141725;,
         0.742665; 0.028756;,
         0.938333; 0.141725;,
         0.904033; 0.162793;,
         0.904033; 0.162793;,
         0.742665; 0.073136;,
         0.742665; 0.028756;,
         0.583542; 0.159052;,
         0.742665; 0.073136;,
         0.742665; 0.254694;,
         0.581297; 0.360063;,
         0.583542; 0.159052;,
         0.742665; 0.254694;,
         0.742665; 0.444482;,
         0.581297; 0.360063;,
         0.742665; 0.254694;,
         0.909271; 0.354077;,
         0.742665; 0.444482;,
         0.742665; 0.254694;,
         0.904033; 0.162793;,
         0.909271; 0.354077;,
         0.742665; 0.254694;,
         0.742665; 0.073136;,
         0.904033; 0.162793;,
         0.742665; 0.254694;,
         0.240773; 0.024638;,
         0.047563; 0.136188;,
         0.076544; 0.152921;,
         0.076544; 0.152921;,
         0.240025; 0.064089;,
         0.240773; 0.024638;,
         0.047563; 0.136188;,
         0.047563; 0.359288;,
         0.075796; 0.337318;,
         0.075796; 0.337318;,
         0.076544; 0.152921;,
         0.047563; 0.136188;,
         0.047563; 0.359288;,
         0.240773; 0.465692;,
         0.240025; 0.432135;,
         0.240025; 0.432135;,
         0.075796; 0.337318;,
         0.047563; 0.359288;,
         0.240773; 0.465692;,
         0.433983; 0.359288;,
         0.402009; 0.341059;,
         0.402009; 0.341059;,
         0.240025; 0.432135;,
         0.240773; 0.465692;,
         0.433983; 0.359288;,
         0.433983; 0.136188;,
         0.402009; 0.153669;,
         0.402009; 0.153669;,
         0.402009; 0.341059;,
         0.433983; 0.359288;,
         0.433983; 0.136188;,
         0.240773; 0.024638;,
         0.240025; 0.064089;,
         0.240025; 0.064089;,
         0.402009; 0.153669;,
         0.433983; 0.136188;,
         0.690500; 0.303133;,
         0.690500; 0.276037;,
         0.785070; 0.276513;,
         0.785070; 0.302656;,
         0.690774; 0.330228;,
         0.690500; 0.303133;,
         0.785070; 0.302656;,
         0.785334; 0.328799;,
         0.690500; 0.276037;,
         0.690774; 0.248941;,
         0.785334; 0.250372;,
         0.785070; 0.276513;,
         0.690500; 0.248893;,
         0.690500; 0.221797;,
         0.785070; 0.222273;,
         0.785070; 0.248417;,
         0.785070; 0.194604;,
         0.690500; 0.194128;,
         0.690500; 0.167985;,
         0.785070; 0.167508;,
         0.690500; 0.221272;,
         0.690500; 0.195129;,
         0.785070; 0.194652;,
         0.785070; 0.221749;;
      }
      MeshMaterialList {
        1;
        48;
        0,
        0,
        0,
        0,
        0,
        0,
        0,
        0,
        0,
        0,
        0,
        0,
        0,
        0,
        0,
        0,
        0,
        0,
        0,
        0,
        0,
        0,
        0,
        0,
        0,
        0,
        0,
        0,
        0,
        0,
        0,
        0,
        0,
        0,
        0,
        0,
        0,
        0,
        0,
        0,
        0,
        0,
        0,
        0,
        0,
        0,
        0,
        0;
        Material _06___Default {
           1.000000; 1.000000; 1.000000; 1.000000;;
           323.999994;
           0.000000; 0.000000; 0.000000;;
           0.000000; 0.000000; 0.000000;;
          TextureFilename {"Supressor2.png";}
        }
      }
    }
  }
}
