xof 0303txt 0032

Frame Root {
  FrameTransformMatrix {
     1.000000, 0.000000, 0.000000, 0.000000,
     0.000000,-0.000000, 1.000000, 0.000000,
     0.000000, 1.000000, 0.000000, 0.000000,
     0.000000, 0.000000, 0.000000, 1.000000;;
  }
  Frame Cylinder {
    FrameTransformMatrix {
       1.000000, 0.000000, 0.000000, 0.000000,
       0.000000, 1.000000, 0.000000, 0.000000,
       0.000000, 0.000000, 1.000000, 0.000000,
       0.000000, 0.000000, 0.000000, 1.000000;;
    }
    Mesh {
      352;
       0.000000; 0.049970; 0.013285;,
       0.005084; 0.049970; 0.012273;,
       0.005084;-0.041210; 0.012273;,
       0.000000;-0.041210; 0.013285;,
       0.005084; 0.049970; 0.012273;,
       0.009394; 0.049970; 0.009394;,
       0.009394;-0.041210; 0.009394;,
       0.005084;-0.041210; 0.012273;,
       0.009394; 0.049970; 0.009394;,
       0.012273; 0.049970; 0.005084;,
       0.012273;-0.041210; 0.005084;,
       0.009394;-0.041210; 0.009394;,
       0.012273; 0.049970; 0.005084;,
       0.013285; 0.049970; 0.000000;,
       0.013285;-0.041210;-0.000000;,
       0.012273;-0.041210; 0.005084;,
       0.013285; 0.049970; 0.000000;,
       0.012273; 0.049970;-0.005084;,
       0.012273;-0.041210;-0.005084;,
       0.013285;-0.041210;-0.000000;,
       0.012273; 0.049970;-0.005084;,
       0.009394; 0.049970;-0.009394;,
       0.009394;-0.041210;-0.009394;,
       0.012273;-0.041210;-0.005084;,
       0.009394; 0.049970;-0.009394;,
       0.005084; 0.049970;-0.012273;,
       0.005084;-0.041210;-0.012273;,
       0.009394;-0.041210;-0.009394;,
       0.005084; 0.049970;-0.012273;,
      -0.000000; 0.049970;-0.013285;,
      -0.000000;-0.041210;-0.013285;,
       0.005084;-0.041210;-0.012273;,
      -0.000000; 0.049970;-0.013285;,
      -0.005084; 0.049970;-0.012273;,
      -0.005084;-0.041210;-0.012273;,
      -0.000000;-0.041210;-0.013285;,
      -0.005084; 0.049970;-0.012273;,
      -0.009394; 0.049970;-0.009394;,
      -0.009394;-0.041210;-0.009394;,
      -0.005084;-0.041210;-0.012273;,
      -0.009394; 0.049970;-0.009394;,
      -0.012273; 0.049970;-0.005084;,
      -0.012273;-0.041210;-0.005084;,
      -0.009394;-0.041210;-0.009394;,
      -0.012273; 0.049970;-0.005084;,
      -0.013285; 0.049970; 0.000000;,
      -0.013285;-0.041210;-0.000000;,
      -0.012273;-0.041210;-0.005084;,
      -0.013285; 0.049970; 0.000000;,
      -0.012273; 0.049970; 0.005084;,
      -0.012273;-0.041210; 0.005084;,
      -0.013285;-0.041210;-0.000000;,
      -0.012273; 0.049970; 0.005084;,
      -0.009394; 0.049970; 0.009394;,
      -0.009394;-0.041210; 0.009394;,
      -0.012273;-0.041210; 0.005084;,
       0.012273;-0.041210; 0.005084;,
       0.009795;-0.045675; 0.004057;,
       0.007496;-0.045675; 0.007496;,
       0.009394;-0.041210; 0.009394;,
      -0.009394; 0.049970; 0.009394;,
      -0.005084; 0.049970; 0.012273;,
      -0.005084;-0.041210; 0.012273;,
      -0.009394;-0.041210; 0.009394;,
      -0.005084; 0.049970; 0.012273;,
       0.000000; 0.049970; 0.013285;,
       0.000000;-0.041210; 0.013285;,
      -0.005084;-0.041210; 0.012273;,
      -0.005084; 0.049970; 0.012273;,
      -0.004781; 0.051147; 0.011543;,
      -0.000000; 0.051147; 0.012495;,
       0.000000; 0.049970; 0.013285;,
      -0.004508;-0.045675; 0.004508;,
      -0.004508;-0.057613; 0.004508;,
      -0.005890;-0.057613; 0.002440;,
      -0.005890;-0.045675; 0.002440;,
      -0.000000;-0.041210;-0.013285;,
      -0.000000;-0.045675;-0.010602;,
       0.004057;-0.045675;-0.009795;,
       0.005084;-0.041210;-0.012273;,
       0.005084;-0.041210; 0.012273;,
       0.004057;-0.045675; 0.009795;,
       0.000000;-0.045675; 0.010602;,
       0.000000;-0.041210; 0.013285;,
      -0.012273;-0.041210; 0.005084;,
      -0.009795;-0.045675; 0.004057;,
      -0.010602;-0.045675;-0.000000;,
      -0.013285;-0.041210;-0.000000;,
       0.009394;-0.041210;-0.009394;,
       0.007496;-0.045675;-0.007496;,
       0.009795;-0.045675;-0.004057;,
       0.012273;-0.041210;-0.005084;,
      -0.012273;-0.041210;-0.005084;,
      -0.009795;-0.045675;-0.004057;,
      -0.007496;-0.045675;-0.007496;,
      -0.009394;-0.041210;-0.009394;,
       0.000000;-0.041210; 0.013285;,
       0.000000;-0.045675; 0.010602;,
      -0.004057;-0.045675; 0.009795;,
      -0.005084;-0.041210; 0.012273;,
       0.013285;-0.041210;-0.000000;,
       0.010602;-0.045675;-0.000000;,
       0.009795;-0.045675; 0.004057;,
       0.012273;-0.041210; 0.005084;,
      -0.005084;-0.041210;-0.012273;,
      -0.004057;-0.045675;-0.009795;,
      -0.000000;-0.045675;-0.010602;,
      -0.000000;-0.041210;-0.013285;,
      -0.009394;-0.041210; 0.009394;,
      -0.007496;-0.045675; 0.007496;,
      -0.009795;-0.045675; 0.004057;,
      -0.012273;-0.041210; 0.005084;,
       0.009394;-0.041210; 0.009394;,
       0.007496;-0.045675; 0.007496;,
       0.004057;-0.045675; 0.009795;,
       0.005084;-0.041210; 0.012273;,
       0.005084;-0.041210;-0.012273;,
       0.004057;-0.045675;-0.009795;,
       0.007496;-0.045675;-0.007496;,
       0.009394;-0.041210;-0.009394;,
      -0.013285;-0.041210;-0.000000;,
      -0.010602;-0.045675;-0.000000;,
      -0.009795;-0.045675;-0.004057;,
      -0.012273;-0.041210;-0.005084;,
       0.012273;-0.041210;-0.005084;,
       0.009795;-0.045675;-0.004057;,
       0.010602;-0.045675;-0.000000;,
       0.013285;-0.041210;-0.000000;,
      -0.009394;-0.041210;-0.009394;,
      -0.007496;-0.045675;-0.007496;,
      -0.004057;-0.045675;-0.009795;,
      -0.005084;-0.041210;-0.012273;,
      -0.005084;-0.041210; 0.012273;,
      -0.004057;-0.045675; 0.009795;,
      -0.007496;-0.045675; 0.007496;,
      -0.009394;-0.041210; 0.009394;,
       0.000000;-0.045675; 0.006375;,
       0.000000;-0.045675; 0.010602;,
       0.004057;-0.045675; 0.009795;,
       0.002440;-0.045675; 0.005890;,
       0.002440;-0.045675; 0.005890;,
       0.004057;-0.045675; 0.009795;,
       0.007496;-0.045675; 0.007496;,
       0.004508;-0.045675; 0.004508;,
       0.004508;-0.045675; 0.004508;,
       0.007496;-0.045675; 0.007496;,
       0.009795;-0.045675; 0.004057;,
       0.005890;-0.045675; 0.002440;,
       0.005890;-0.045675; 0.002440;,
       0.009795;-0.045675; 0.004057;,
       0.010602;-0.045675;-0.000000;,
       0.006375;-0.045675;-0.000000;,
       0.006375;-0.045675;-0.000000;,
       0.010602;-0.045675;-0.000000;,
       0.009795;-0.045675;-0.004057;,
       0.005890;-0.045675;-0.002440;,
       0.005890;-0.045675;-0.002440;,
       0.009795;-0.045675;-0.004057;,
       0.007496;-0.045675;-0.007496;,
       0.004508;-0.045675;-0.004508;,
       0.004508;-0.045675;-0.004508;,
       0.007496;-0.045675;-0.007496;,
       0.004057;-0.045675;-0.009795;,
       0.002440;-0.045675;-0.005890;,
       0.002440;-0.045675;-0.005890;,
       0.004057;-0.045675;-0.009795;,
      -0.000000;-0.045675;-0.010602;,
      -0.000000;-0.045675;-0.006375;,
      -0.000000;-0.045675;-0.006375;,
      -0.000000;-0.045675;-0.010602;,
      -0.004057;-0.045675;-0.009795;,
      -0.002440;-0.045675;-0.005890;,
      -0.002440;-0.045675;-0.005890;,
      -0.004057;-0.045675;-0.009795;,
      -0.007496;-0.045675;-0.007496;,
      -0.004508;-0.045675;-0.004508;,
      -0.004508;-0.045675;-0.004508;,
      -0.007496;-0.045675;-0.007496;,
      -0.009795;-0.045675;-0.004057;,
      -0.005890;-0.045675;-0.002440;,
      -0.005890;-0.045675;-0.002440;,
      -0.009795;-0.045675;-0.004057;,
      -0.010602;-0.045675;-0.000000;,
      -0.006375;-0.045675;-0.000000;,
      -0.006375;-0.045675;-0.000000;,
      -0.010602;-0.045675;-0.000000;,
      -0.009795;-0.045675; 0.004057;,
      -0.005890;-0.045675; 0.002440;,
      -0.005890;-0.045675; 0.002440;,
      -0.009795;-0.045675; 0.004057;,
      -0.007496;-0.045675; 0.007496;,
      -0.004508;-0.045675; 0.004508;,
      -0.004508;-0.045675; 0.004508;,
      -0.007496;-0.045675; 0.007496;,
      -0.004057;-0.045675; 0.009795;,
      -0.002440;-0.045675; 0.005890;,
      -0.002440;-0.045675; 0.005890;,
      -0.004057;-0.045675; 0.009795;,
       0.000000;-0.045675; 0.010602;,
       0.000000;-0.045675; 0.006375;,
       0.002440;-0.057613; 0.005890;,
       0.004508;-0.057613; 0.004508;,
       0.005890;-0.057613; 0.002440;,
       0.006375;-0.057613;-0.000000;,
       0.005890;-0.057613;-0.002440;,
       0.004508;-0.057613;-0.004508;,
       0.002440;-0.057613;-0.005890;,
       0.000000;-0.057613;-0.006375;,
      -0.002440;-0.057613;-0.005890;,
      -0.004508;-0.057613;-0.004508;,
      -0.005890;-0.057613;-0.002440;,
      -0.006375;-0.057613;-0.000000;,
      -0.005890;-0.057613; 0.002440;,
      -0.004508;-0.057613; 0.004508;,
      -0.002440;-0.057613; 0.005890;,
       0.000000;-0.057613; 0.006375;,
       0.002440;-0.045675;-0.005890;,
       0.002440;-0.057613;-0.005890;,
       0.004508;-0.057613;-0.004508;,
       0.004508;-0.045675;-0.004508;,
      -0.002440;-0.045675; 0.005890;,
      -0.002440;-0.057613; 0.005890;,
      -0.004508;-0.057613; 0.004508;,
      -0.004508;-0.045675; 0.004508;,
      -0.000000;-0.045675;-0.006375;,
       0.000000;-0.057613;-0.006375;,
       0.002440;-0.057613;-0.005890;,
       0.002440;-0.045675;-0.005890;,
       0.002440;-0.045675; 0.005890;,
       0.002440;-0.057613; 0.005890;,
       0.000000;-0.057613; 0.006375;,
       0.000000;-0.045675; 0.006375;,
       0.000000;-0.045675; 0.006375;,
       0.000000;-0.057613; 0.006375;,
      -0.002440;-0.057613; 0.005890;,
      -0.002440;-0.045675; 0.005890;,
      -0.002440;-0.045675;-0.005890;,
      -0.002440;-0.057613;-0.005890;,
       0.000000;-0.057613;-0.006375;,
      -0.000000;-0.045675;-0.006375;,
       0.004508;-0.045675; 0.004508;,
       0.004508;-0.057613; 0.004508;,
       0.002440;-0.057613; 0.005890;,
       0.002440;-0.045675; 0.005890;,
      -0.004508;-0.045675;-0.004508;,
      -0.004508;-0.057613;-0.004508;,
      -0.002440;-0.057613;-0.005890;,
      -0.002440;-0.045675;-0.005890;,
       0.005890;-0.045675; 0.002440;,
       0.005890;-0.057613; 0.002440;,
       0.004508;-0.057613; 0.004508;,
       0.004508;-0.045675; 0.004508;,
      -0.005890;-0.045675;-0.002440;,
      -0.005890;-0.057613;-0.002440;,
      -0.004508;-0.057613;-0.004508;,
      -0.004508;-0.045675;-0.004508;,
       0.006375;-0.045675;-0.000000;,
       0.006375;-0.057613;-0.000000;,
       0.005890;-0.057613; 0.002440;,
       0.005890;-0.045675; 0.002440;,
      -0.006375;-0.045675;-0.000000;,
      -0.006375;-0.057613;-0.000000;,
      -0.005890;-0.057613;-0.002440;,
      -0.005890;-0.045675;-0.002440;,
       0.005890;-0.045675;-0.002440;,
       0.005890;-0.057613;-0.002440;,
       0.006375;-0.057613;-0.000000;,
       0.006375;-0.045675;-0.000000;,
      -0.005890;-0.045675; 0.002440;,
      -0.005890;-0.057613; 0.002440;,
      -0.006375;-0.057613;-0.000000;,
      -0.006375;-0.045675;-0.000000;,
       0.004508;-0.045675;-0.004508;,
       0.004508;-0.057613;-0.004508;,
       0.005890;-0.057613;-0.002440;,
       0.005890;-0.045675;-0.002440;,
      -0.000000; 0.051147; 0.012495;,
      -0.004781; 0.051147; 0.011543;,
      -0.008835; 0.051147; 0.008835;,
      -0.011543; 0.051147; 0.004781;,
      -0.012495; 0.051147; 0.000000;,
      -0.011543; 0.051147;-0.004781;,
      -0.008835; 0.051147;-0.008835;,
      -0.004781; 0.051147;-0.011543;,
      -0.000000; 0.051147;-0.012495;,
       0.004781; 0.051147;-0.011543;,
       0.008835; 0.051147;-0.008835;,
       0.011543; 0.051147;-0.004781;,
       0.012495; 0.051147; 0.000000;,
       0.011543; 0.051147; 0.004781;,
       0.008835; 0.051147; 0.008835;,
       0.004781; 0.051147; 0.011543;,
       0.012273; 0.049970; 0.005084;,
       0.011543; 0.051147; 0.004781;,
       0.012495; 0.051147; 0.000000;,
       0.013285; 0.049970; 0.000000;,
      -0.000000; 0.049970;-0.013285;,
      -0.000000; 0.051147;-0.012495;,
      -0.004781; 0.051147;-0.011543;,
      -0.005084; 0.049970;-0.012273;,
      -0.012273; 0.049970; 0.005084;,
      -0.011543; 0.051147; 0.004781;,
      -0.008835; 0.051147; 0.008835;,
      -0.009394; 0.049970; 0.009394;,
       0.005084; 0.049970; 0.012273;,
       0.004781; 0.051147; 0.011543;,
       0.008835; 0.051147; 0.008835;,
       0.009394; 0.049970; 0.009394;,
       0.009394; 0.049970;-0.009394;,
       0.008835; 0.051147;-0.008835;,
       0.004781; 0.051147;-0.011543;,
       0.005084; 0.049970;-0.012273;,
      -0.012273; 0.049970;-0.005084;,
      -0.011543; 0.051147;-0.004781;,
      -0.012495; 0.051147; 0.000000;,
      -0.013285; 0.049970; 0.000000;,
       0.013285; 0.049970; 0.000000;,
       0.012495; 0.051147; 0.000000;,
       0.011543; 0.051147;-0.004781;,
       0.012273; 0.049970;-0.005084;,
      -0.005084; 0.049970;-0.012273;,
      -0.004781; 0.051147;-0.011543;,
      -0.008835; 0.051147;-0.008835;,
      -0.009394; 0.049970;-0.009394;,
      -0.009394; 0.049970; 0.009394;,
      -0.008835; 0.051147; 0.008835;,
      -0.004781; 0.051147; 0.011543;,
      -0.005084; 0.049970; 0.012273;,
       0.009394; 0.049970; 0.009394;,
       0.008835; 0.051147; 0.008835;,
       0.011543; 0.051147; 0.004781;,
       0.012273; 0.049970; 0.005084;,
       0.005084; 0.049970;-0.012273;,
       0.004781; 0.051147;-0.011543;,
      -0.000000; 0.051147;-0.012495;,
      -0.000000; 0.049970;-0.013285;,
       0.000000; 0.049970; 0.013285;,
      -0.000000; 0.051147; 0.012495;,
       0.004781; 0.051147; 0.011543;,
       0.005084; 0.049970; 0.012273;,
      -0.013285; 0.049970; 0.000000;,
      -0.012495; 0.051147; 0.000000;,
      -0.011543; 0.051147; 0.004781;,
      -0.012273; 0.049970; 0.005084;,
       0.012273; 0.049970;-0.005084;,
       0.011543; 0.051147;-0.004781;,
       0.008835; 0.051147;-0.008835;,
       0.009394; 0.049970;-0.009394;,
      -0.009394; 0.049970;-0.009394;,
      -0.008835; 0.051147;-0.008835;,
      -0.011543; 0.051147;-0.004781;,
      -0.012273; 0.049970;-0.005084;;
      82;
      4;3,2,1,0;,
      4;7,6,5,4;,
      4;11,10,9,8;,
      4;15,14,13,12;,
      4;19,18,17,16;,
      4;23,22,21,20;,
      4;27,26,25,24;,
      4;31,30,29,28;,
      4;35,34,33,32;,
      4;39,38,37,36;,
      4;43,42,41,40;,
      4;47,46,45,44;,
      4;51,50,49,48;,
      4;55,54,53,52;,
      4;59,58,57,56;,
      4;63,62,61,60;,
      4;67,66,65,64;,
      4;71,70,69,68;,
      4;75,74,73,72;,
      4;79,78,77,76;,
      4;83,82,81,80;,
      4;87,86,85,84;,
      4;91,90,89,88;,
      4;95,94,93,92;,
      4;99,98,97,96;,
      4;103,102,101,100;,
      4;107,106,105,104;,
      4;111,110,109,108;,
      4;115,114,113,112;,
      4;119,118,117,116;,
      4;123,122,121,120;,
      4;127,126,125,124;,
      4;131,130,129,128;,
      4;135,134,133,132;,
      4;139,138,137,136;,
      4;143,142,141,140;,
      4;147,146,145,144;,
      4;151,150,149,148;,
      4;155,154,153,152;,
      4;159,158,157,156;,
      4;163,162,161,160;,
      4;167,166,165,164;,
      4;171,170,169,168;,
      4;175,174,173,172;,
      4;179,178,177,176;,
      4;183,182,181,180;,
      4;187,186,185,184;,
      4;191,190,189,188;,
      4;195,194,193,192;,
      4;199,198,197,196;,
      16;215,214,213,212,211,210,209,208,207,206,205,204,203,202,201,200;,
      4;219,218,217,216;,
      4;223,222,221,220;,
      4;227,226,225,224;,
      4;231,230,229,228;,
      4;235,234,233,232;,
      4;239,238,237,236;,
      4;243,242,241,240;,
      4;247,246,245,244;,
      4;251,250,249,248;,
      4;255,254,253,252;,
      4;259,258,257,256;,
      4;263,262,261,260;,
      4;267,266,265,264;,
      4;271,270,269,268;,
      4;275,274,273,272;,
      16;291,290,289,288,287,286,285,284,283,282,281,280,279,278,277,276;,
      4;295,294,293,292;,
      4;299,298,297,296;,
      4;303,302,301,300;,
      4;307,306,305,304;,
      4;311,310,309,308;,
      4;315,314,313,312;,
      4;319,318,317,316;,
      4;323,322,321,320;,
      4;327,326,325,324;,
      4;331,330,329,328;,
      4;335,334,333,332;,
      4;339,338,337,336;,
      4;343,342,341,340;,
      4;347,346,345,344;,
      4;351,350,349,348;;
      MeshNormals {
        352;
        -0.000000;-0.281680;-0.959508;,
        -0.367188;-0.281680;-0.886470;,
        -0.369621; 0.259045;-0.892343;,
        -0.000000; 0.259045;-0.965865;,
        -0.367188;-0.281680;-0.886470;,
        -0.678475;-0.281680;-0.678475;,
        -0.682970; 0.259045;-0.682970;,
        -0.369621; 0.259045;-0.892343;,
        -0.678475;-0.281680;-0.678475;,
        -0.886470;-0.281680;-0.367188;,
        -0.892343; 0.259045;-0.369621;,
        -0.682970; 0.259045;-0.682970;,
        -0.886470;-0.281680;-0.367188;,
        -0.959508;-0.281680; 0.000000;,
        -0.965865; 0.259045; 0.000000;,
        -0.892343; 0.259045;-0.369621;,
        -0.959508;-0.281680; 0.000000;,
        -0.886470;-0.281680; 0.367188;,
        -0.892343; 0.259045; 0.369621;,
        -0.965865; 0.259045; 0.000000;,
        -0.886470;-0.281680; 0.367188;,
        -0.678475;-0.281680; 0.678475;,
        -0.682970; 0.259045; 0.682970;,
        -0.892343; 0.259045; 0.369621;,
        -0.678475;-0.281680; 0.678475;,
        -0.367188;-0.281680; 0.886470;,
        -0.369621; 0.259045; 0.892343;,
        -0.682970; 0.259045; 0.682970;,
        -0.367188;-0.281680; 0.886470;,
         0.000000;-0.281680; 0.959508;,
         0.000000; 0.259045; 0.965865;,
        -0.369621; 0.259045; 0.892343;,
         0.000000;-0.281680; 0.959508;,
         0.367188;-0.281680; 0.886470;,
         0.369621; 0.259046; 0.892343;,
         0.000000; 0.259045; 0.965865;,
         0.367188;-0.281680; 0.886470;,
         0.678475;-0.281680; 0.678475;,
         0.682970; 0.259046; 0.682970;,
         0.369621; 0.259046; 0.892343;,
         0.678475;-0.281680; 0.678475;,
         0.886470;-0.281680; 0.367188;,
         0.892343; 0.259046; 0.369621;,
         0.682970; 0.259046; 0.682970;,
         0.886470;-0.281680; 0.367188;,
         0.959508;-0.281680;-0.000000;,
         0.965865; 0.259046;-0.000000;,
         0.892343; 0.259046; 0.369621;,
         0.959508;-0.281680;-0.000000;,
         0.886470;-0.281680;-0.367188;,
         0.892343; 0.259046;-0.369621;,
         0.965865; 0.259046;-0.000000;,
         0.886470;-0.281680;-0.367188;,
         0.678475;-0.281680;-0.678475;,
         0.682970; 0.259045;-0.682970;,
         0.892343; 0.259046;-0.369621;,
        -0.892343; 0.259045;-0.369621;,
        -0.495437; 0.844055;-0.205217;,
        -0.379191; 0.844055;-0.379191;,
        -0.682970; 0.259045;-0.682970;,
         0.678475;-0.281680;-0.678475;,
         0.367188;-0.281680;-0.886470;,
         0.369621; 0.259046;-0.892343;,
         0.682970; 0.259045;-0.682970;,
         0.367188;-0.281680;-0.886470;,
        -0.000000;-0.281680;-0.959508;,
        -0.000000; 0.259045;-0.965865;,
         0.369621; 0.259046;-0.892343;,
         0.367188;-0.281680;-0.886470;,
         0.196594;-0.857956;-0.474618;,
        -0.000000;-0.857956;-0.513723;,
        -0.000000;-0.281680;-0.959508;,
         0.464669; 0.753768;-0.464669;,
         0.527645; 0.665719;-0.527645;,
         0.689401; 0.665719;-0.285559;,
         0.607119; 0.753768;-0.251477;,
         0.000000; 0.259045; 0.965865;,
         0.000000; 0.844055; 0.536257;,
        -0.205217; 0.844055; 0.495437;,
        -0.369621; 0.259045; 0.892343;,
        -0.369621; 0.259045;-0.892343;,
        -0.205217; 0.844055;-0.495437;,
        -0.000000; 0.844055;-0.536256;,
        -0.000000; 0.259045;-0.965865;,
         0.892343; 0.259046;-0.369621;,
         0.495436; 0.844055;-0.205216;,
         0.536256; 0.844055;-0.000000;,
         0.965865; 0.259046;-0.000000;,
        -0.682970; 0.259045; 0.682970;,
        -0.379191; 0.844055; 0.379191;,
        -0.495437; 0.844055; 0.205216;,
        -0.892343; 0.259045; 0.369621;,
         0.892343; 0.259046; 0.369621;,
         0.495436; 0.844055; 0.205217;,
         0.379191; 0.844055; 0.379191;,
         0.682970; 0.259046; 0.682970;,
        -0.000000; 0.259045;-0.965865;,
        -0.000000; 0.844055;-0.536256;,
         0.205217; 0.844055;-0.495437;,
         0.369621; 0.259046;-0.892343;,
        -0.965865; 0.259045; 0.000000;,
        -0.536257; 0.844055; 0.000000;,
        -0.495437; 0.844055;-0.205217;,
        -0.892343; 0.259045;-0.369621;,
         0.369621; 0.259046; 0.892343;,
         0.205217; 0.844055; 0.495437;,
         0.000000; 0.844055; 0.536257;,
         0.000000; 0.259045; 0.965865;,
         0.682970; 0.259045;-0.682970;,
         0.379191; 0.844055;-0.379191;,
         0.495436; 0.844055;-0.205216;,
         0.892343; 0.259046;-0.369621;,
        -0.682970; 0.259045;-0.682970;,
        -0.379191; 0.844055;-0.379191;,
        -0.205217; 0.844055;-0.495437;,
        -0.369621; 0.259045;-0.892343;,
        -0.369621; 0.259045; 0.892343;,
        -0.205217; 0.844055; 0.495437;,
        -0.379191; 0.844055; 0.379191;,
        -0.682970; 0.259045; 0.682970;,
         0.965865; 0.259046;-0.000000;,
         0.536256; 0.844055;-0.000000;,
         0.495436; 0.844055; 0.205217;,
         0.892343; 0.259046; 0.369621;,
        -0.892343; 0.259045; 0.369621;,
        -0.495437; 0.844055; 0.205216;,
        -0.536257; 0.844055; 0.000000;,
        -0.965865; 0.259045; 0.000000;,
         0.682970; 0.259046; 0.682970;,
         0.379191; 0.844055; 0.379191;,
         0.205217; 0.844055; 0.495437;,
         0.369621; 0.259046; 0.892343;,
         0.369621; 0.259046;-0.892343;,
         0.205217; 0.844055;-0.495437;,
         0.379191; 0.844055;-0.379191;,
         0.682970; 0.259045;-0.682970;,
        -0.000000; 0.753768;-0.657141;,
        -0.000000; 0.844055;-0.536256;,
        -0.205217; 0.844055;-0.495437;,
        -0.251477; 0.753767;-0.607120;,
        -0.251477; 0.753767;-0.607120;,
        -0.205217; 0.844055;-0.495437;,
        -0.379191; 0.844055;-0.379191;,
        -0.464669; 0.753767;-0.464669;,
        -0.464669; 0.753767;-0.464669;,
        -0.379191; 0.844055;-0.379191;,
        -0.495437; 0.844055;-0.205217;,
        -0.607120; 0.753767;-0.251477;,
        -0.607120; 0.753767;-0.251477;,
        -0.495437; 0.844055;-0.205217;,
        -0.536257; 0.844055; 0.000000;,
        -0.657142; 0.753767;-0.000000;,
        -0.657142; 0.753767;-0.000000;,
        -0.536257; 0.844055; 0.000000;,
        -0.495437; 0.844055; 0.205216;,
        -0.607120; 0.753767; 0.251477;,
        -0.607120; 0.753767; 0.251477;,
        -0.495437; 0.844055; 0.205216;,
        -0.379191; 0.844055; 0.379191;,
        -0.464669; 0.753767; 0.464669;,
        -0.464669; 0.753767; 0.464669;,
        -0.379191; 0.844055; 0.379191;,
        -0.205217; 0.844055; 0.495437;,
        -0.251477; 0.753767; 0.607120;,
        -0.251477; 0.753767; 0.607120;,
        -0.205217; 0.844055; 0.495437;,
         0.000000; 0.844055; 0.536257;,
         0.000000; 0.753767; 0.657142;,
         0.000000; 0.753767; 0.657142;,
         0.000000; 0.844055; 0.536257;,
         0.205217; 0.844055; 0.495437;,
         0.251477; 0.753767; 0.607120;,
         0.251477; 0.753767; 0.607120;,
         0.205217; 0.844055; 0.495437;,
         0.379191; 0.844055; 0.379191;,
         0.464669; 0.753767; 0.464669;,
         0.464669; 0.753767; 0.464669;,
         0.379191; 0.844055; 0.379191;,
         0.495436; 0.844055; 0.205217;,
         0.607119; 0.753767; 0.251477;,
         0.607119; 0.753767; 0.251477;,
         0.495436; 0.844055; 0.205217;,
         0.536256; 0.844055;-0.000000;,
         0.657141; 0.753768; 0.000000;,
         0.657141; 0.753768; 0.000000;,
         0.536256; 0.844055;-0.000000;,
         0.495436; 0.844055;-0.205216;,
         0.607119; 0.753768;-0.251477;,
         0.607119; 0.753768;-0.251477;,
         0.495436; 0.844055;-0.205216;,
         0.379191; 0.844055;-0.379191;,
         0.464669; 0.753768;-0.464669;,
         0.464669; 0.753768;-0.464669;,
         0.379191; 0.844055;-0.379191;,
         0.205217; 0.844055;-0.495437;,
         0.251477; 0.753767;-0.607119;,
         0.251477; 0.753767;-0.607119;,
         0.205217; 0.844055;-0.495437;,
        -0.000000; 0.844055;-0.536256;,
        -0.000000; 0.753768;-0.657141;,
        -0.285560; 0.665719;-0.689401;,
        -0.527645; 0.665719;-0.527645;,
        -0.689401; 0.665719;-0.285559;,
        -0.746203; 0.665719;-0.000000;,
        -0.689402; 0.665719; 0.285559;,
        -0.527645; 0.665719; 0.527645;,
        -0.285560; 0.665719; 0.689401;,
         0.000000; 0.665719; 0.746203;,
         0.285559; 0.665719; 0.689401;,
         0.527645; 0.665719; 0.527645;,
         0.689401; 0.665719; 0.285559;,
         0.746203; 0.665719; 0.000000;,
         0.689401; 0.665719;-0.285559;,
         0.527645; 0.665719;-0.527645;,
         0.285559; 0.665719;-0.689401;,
        -0.000000; 0.665719;-0.746203;,
        -0.251477; 0.753767; 0.607120;,
        -0.285560; 0.665719; 0.689401;,
        -0.527645; 0.665719; 0.527645;,
        -0.464669; 0.753767; 0.464669;,
         0.251477; 0.753767;-0.607119;,
         0.285559; 0.665719;-0.689401;,
         0.527645; 0.665719;-0.527645;,
         0.464669; 0.753768;-0.464669;,
         0.000000; 0.753767; 0.657142;,
         0.000000; 0.665719; 0.746203;,
        -0.285560; 0.665719; 0.689401;,
        -0.251477; 0.753767; 0.607120;,
        -0.251477; 0.753767;-0.607120;,
        -0.285560; 0.665719;-0.689401;,
        -0.000000; 0.665719;-0.746203;,
        -0.000000; 0.753768;-0.657141;,
        -0.000000; 0.753768;-0.657141;,
        -0.000000; 0.665719;-0.746203;,
         0.285559; 0.665719;-0.689401;,
         0.251477; 0.753767;-0.607119;,
         0.251477; 0.753767; 0.607120;,
         0.285559; 0.665719; 0.689401;,
         0.000000; 0.665719; 0.746203;,
         0.000000; 0.753767; 0.657142;,
        -0.464669; 0.753767;-0.464669;,
        -0.527645; 0.665719;-0.527645;,
        -0.285560; 0.665719;-0.689401;,
        -0.251477; 0.753767;-0.607120;,
         0.464669; 0.753767; 0.464669;,
         0.527645; 0.665719; 0.527645;,
         0.285559; 0.665719; 0.689401;,
         0.251477; 0.753767; 0.607120;,
        -0.607120; 0.753767;-0.251477;,
        -0.689401; 0.665719;-0.285559;,
        -0.527645; 0.665719;-0.527645;,
        -0.464669; 0.753767;-0.464669;,
         0.607119; 0.753767; 0.251477;,
         0.689401; 0.665719; 0.285559;,
         0.527645; 0.665719; 0.527645;,
         0.464669; 0.753767; 0.464669;,
        -0.657142; 0.753767;-0.000000;,
        -0.746203; 0.665719;-0.000000;,
        -0.689401; 0.665719;-0.285559;,
        -0.607120; 0.753767;-0.251477;,
         0.657141; 0.753768; 0.000000;,
         0.746203; 0.665719; 0.000000;,
         0.689401; 0.665719; 0.285559;,
         0.607119; 0.753767; 0.251477;,
        -0.607120; 0.753767; 0.251477;,
        -0.689402; 0.665719; 0.285559;,
        -0.746203; 0.665719;-0.000000;,
        -0.657142; 0.753767;-0.000000;,
         0.607119; 0.753768;-0.251477;,
         0.689401; 0.665719;-0.285559;,
         0.746203; 0.665719; 0.000000;,
         0.657141; 0.753768; 0.000000;,
        -0.464669; 0.753767; 0.464669;,
        -0.527645; 0.665719; 0.527645;,
        -0.689402; 0.665719; 0.285559;,
        -0.607120; 0.753767; 0.251477;,
        -0.000000;-0.857956;-0.513723;,
         0.196594;-0.857956;-0.474618;,
         0.363258;-0.857956;-0.363257;,
         0.474619;-0.857956;-0.196593;,
         0.513723;-0.857956;-0.000000;,
         0.474618;-0.857956; 0.196593;,
         0.363257;-0.857956; 0.363258;,
         0.196594;-0.857956; 0.474618;,
         0.000000;-0.857956; 0.513723;,
        -0.196594;-0.857956; 0.474618;,
        -0.363257;-0.857956; 0.363258;,
        -0.474619;-0.857956; 0.196594;,
        -0.513723;-0.857956; 0.000000;,
        -0.474618;-0.857956;-0.196594;,
        -0.363257;-0.857956;-0.363258;,
        -0.196593;-0.857956;-0.474618;,
        -0.886470;-0.281680;-0.367188;,
        -0.474618;-0.857956;-0.196594;,
        -0.513723;-0.857956; 0.000000;,
        -0.959508;-0.281680; 0.000000;,
         0.000000;-0.281680; 0.959508;,
         0.000000;-0.857956; 0.513723;,
         0.196594;-0.857956; 0.474618;,
         0.367188;-0.281680; 0.886470;,
         0.886470;-0.281680;-0.367188;,
         0.474619;-0.857956;-0.196593;,
         0.363258;-0.857956;-0.363257;,
         0.678475;-0.281680;-0.678475;,
        -0.367188;-0.281680;-0.886470;,
        -0.196593;-0.857956;-0.474618;,
        -0.363257;-0.857956;-0.363258;,
        -0.678475;-0.281680;-0.678475;,
        -0.678475;-0.281680; 0.678475;,
        -0.363257;-0.857956; 0.363258;,
        -0.196594;-0.857956; 0.474618;,
        -0.367188;-0.281680; 0.886470;,
         0.886470;-0.281680; 0.367188;,
         0.474618;-0.857956; 0.196593;,
         0.513723;-0.857956;-0.000000;,
         0.959508;-0.281680;-0.000000;,
        -0.959508;-0.281680; 0.000000;,
        -0.513723;-0.857956; 0.000000;,
        -0.474619;-0.857956; 0.196594;,
        -0.886470;-0.281680; 0.367188;,
         0.367188;-0.281680; 0.886470;,
         0.196594;-0.857956; 0.474618;,
         0.363257;-0.857956; 0.363258;,
         0.678475;-0.281680; 0.678475;,
         0.678475;-0.281680;-0.678475;,
         0.363258;-0.857956;-0.363257;,
         0.196594;-0.857956;-0.474618;,
         0.367188;-0.281680;-0.886470;,
        -0.678475;-0.281680;-0.678475;,
        -0.363257;-0.857956;-0.363258;,
        -0.474618;-0.857956;-0.196594;,
        -0.886470;-0.281680;-0.367188;,
        -0.367188;-0.281680; 0.886470;,
        -0.196594;-0.857956; 0.474618;,
         0.000000;-0.857956; 0.513723;,
         0.000000;-0.281680; 0.959508;,
        -0.000000;-0.281680;-0.959508;,
        -0.000000;-0.857956;-0.513723;,
        -0.196593;-0.857956;-0.474618;,
        -0.367188;-0.281680;-0.886470;,
         0.959508;-0.281680;-0.000000;,
         0.513723;-0.857956;-0.000000;,
         0.474619;-0.857956;-0.196593;,
         0.886470;-0.281680;-0.367188;,
        -0.886470;-0.281680; 0.367188;,
        -0.474619;-0.857956; 0.196594;,
        -0.363257;-0.857956; 0.363258;,
        -0.678475;-0.281680; 0.678475;,
         0.678475;-0.281680; 0.678475;,
         0.363257;-0.857956; 0.363258;,
         0.474618;-0.857956; 0.196593;,
         0.886470;-0.281680; 0.367188;;
        82;
        4;3,2,1,0;,
        4;7,6,5,4;,
        4;11,10,9,8;,
        4;15,14,13,12;,
        4;19,18,17,16;,
        4;23,22,21,20;,
        4;27,26,25,24;,
        4;31,30,29,28;,
        4;35,34,33,32;,
        4;39,38,37,36;,
        4;43,42,41,40;,
        4;47,46,45,44;,
        4;51,50,49,48;,
        4;55,54,53,52;,
        4;59,58,57,56;,
        4;63,62,61,60;,
        4;67,66,65,64;,
        4;71,70,69,68;,
        4;75,74,73,72;,
        4;79,78,77,76;,
        4;83,82,81,80;,
        4;87,86,85,84;,
        4;91,90,89,88;,
        4;95,94,93,92;,
        4;99,98,97,96;,
        4;103,102,101,100;,
        4;107,106,105,104;,
        4;111,110,109,108;,
        4;115,114,113,112;,
        4;119,118,117,116;,
        4;123,122,121,120;,
        4;127,126,125,124;,
        4;131,130,129,128;,
        4;135,134,133,132;,
        4;139,138,137,136;,
        4;143,142,141,140;,
        4;147,146,145,144;,
        4;151,150,149,148;,
        4;155,154,153,152;,
        4;159,158,157,156;,
        4;163,162,161,160;,
        4;167,166,165,164;,
        4;171,170,169,168;,
        4;175,174,173,172;,
        4;179,178,177,176;,
        4;183,182,181,180;,
        4;187,186,185,184;,
        4;191,190,189,188;,
        4;195,194,193,192;,
        4;199,198,197,196;,
        16;215,214,213,212,211,210,209,208,207,206,205,204,203,202,201,200;,
        4;219,218,217,216;,
        4;223,222,221,220;,
        4;227,226,225,224;,
        4;231,230,229,228;,
        4;235,234,233,232;,
        4;239,238,237,236;,
        4;243,242,241,240;,
        4;247,246,245,244;,
        4;251,250,249,248;,
        4;255,254,253,252;,
        4;259,258,257,256;,
        4;263,262,261,260;,
        4;267,266,265,264;,
        4;271,270,269,268;,
        4;275,274,273,272;,
        16;291,290,289,288,287,286,285,284,283,282,281,280,279,278,277,276;,
        4;295,294,293,292;,
        4;299,298,297,296;,
        4;303,302,301,300;,
        4;307,306,305,304;,
        4;311,310,309,308;,
        4;315,314,313,312;,
        4;319,318,317,316;,
        4;323,322,321,320;,
        4;327,326,325,324;,
        4;331,330,329,328;,
        4;335,334,333,332;,
        4;339,338,337,336;,
        4;343,342,341,340;,
        4;347,346,345,344;,
        4;351,350,349,348;;
      }
      MeshTextureCoords {
        352;
         0.002656; 0.997344;,
         0.002656; 0.951337;,
         0.811951; 0.951336;,
         0.811951; 0.997343;,
         0.002656; 0.951337;,
         0.002656; 0.905330;,
         0.811951; 0.905330;,
         0.811951; 0.951336;,
         0.002656; 0.905330;,
         0.002656; 0.859323;,
         0.811951; 0.859323;,
         0.811951; 0.905330;,
         0.002656; 0.859323;,
         0.002656; 0.813316;,
         0.811951; 0.813316;,
         0.811951; 0.859323;,
         0.002656; 0.813316;,
         0.002656; 0.767309;,
         0.811951; 0.767310;,
         0.811951; 0.813316;,
         0.002656; 0.767309;,
         0.002656; 0.721303;,
         0.811951; 0.721303;,
         0.811951; 0.767310;,
         0.002656; 0.721303;,
         0.002656; 0.675296;,
         0.811951; 0.675297;,
         0.811951; 0.721303;,
         0.002656; 0.675296;,
         0.002656; 0.629289;,
         0.811951; 0.629290;,
         0.811951; 0.675297;,
         0.811951; 0.255922;,
         0.811951; 0.301928;,
         0.002656; 0.301930;,
         0.002656; 0.255923;,
         0.811951; 0.301928;,
         0.811951; 0.347935;,
         0.002656; 0.347936;,
         0.002656; 0.301930;,
         0.811951; 0.347935;,
         0.811951; 0.393942;,
         0.002656; 0.393943;,
         0.002656; 0.347936;,
         0.811951; 0.393942;,
         0.811951; 0.439949;,
         0.002656; 0.439949;,
         0.002656; 0.393943;,
         0.811951; 0.439949;,
         0.811951; 0.485956;,
         0.002657; 0.485956;,
         0.002656; 0.439949;,
         0.811951; 0.485956;,
         0.811951; 0.531963;,
         0.002657; 0.531963;,
         0.002657; 0.485956;,
         0.821886; 0.542635;,
         0.867191; 0.533390;,
         0.878109; 0.568444;,
         0.835566; 0.586560;,
         0.811951; 0.531963;,
         0.811951; 0.577970;,
         0.002656; 0.577969;,
         0.002657; 0.531963;,
         0.811951; 0.577970;,
         0.811951; 0.623976;,
         0.002656; 0.623975;,
         0.002656; 0.577969;,
         0.860875; 0.293227;,
         0.870862; 0.285577;,
         0.900754; 0.316864;,
         0.892657; 0.326492;,
         0.336775; 0.118143;,
         0.442731; 0.118143;,
         0.442731; 0.140221;,
         0.336775; 0.140221;,
         0.887549; 0.331804;,
         0.919593; 0.365140;,
         0.895815; 0.393114;,
         0.857753; 0.366858;,
         0.857753; 0.626864;,
         0.895815; 0.600608;,
         0.919593; 0.628583;,
         0.887549; 0.661918;,
         0.821886; 0.786513;,
         0.867191; 0.795758;,
         0.863502; 0.832287;,
         0.817263; 0.832287;,
         0.835566; 0.407162;,
         0.878109; 0.425278;,
         0.867191; 0.460332;,
         0.821886; 0.451087;,
         0.821886; 0.878061;,
         0.867191; 0.868816;,
         0.878109; 0.903870;,
         0.835566; 0.921986;,
         0.887549; 0.667230;,
         0.919593; 0.700565;,
         0.895815; 0.728540;,
         0.857753; 0.702284;,
         0.817263; 0.496861;,
         0.863502; 0.496861;,
         0.867191; 0.533390;,
         0.821886; 0.542635;,
         0.857753; 0.962290;,
         0.895815; 0.936034;,
         0.919593; 0.964009;,
         0.887549; 0.997344;,
         0.835566; 0.742588;,
         0.878109; 0.760704;,
         0.867191; 0.795758;,
         0.821886; 0.786513;,
         0.835566; 0.586560;,
         0.878109; 0.568444;,
         0.895815; 0.600608;,
         0.857753; 0.626864;,
         0.857753; 0.366858;,
         0.895815; 0.393114;,
         0.878109; 0.425278;,
         0.835566; 0.407162;,
         0.817263; 0.832287;,
         0.863502; 0.832287;,
         0.867191; 0.868816;,
         0.821886; 0.878061;,
         0.821886; 0.451087;,
         0.867191; 0.460332;,
         0.863502; 0.496861;,
         0.817263; 0.496861;,
         0.835566; 0.921986;,
         0.878109; 0.903870;,
         0.895815; 0.936034;,
         0.857753; 0.962290;,
         0.857753; 0.702284;,
         0.895815; 0.728540;,
         0.878109; 0.760704;,
         0.835566; 0.742588;,
         0.542141; 0.213095;,
         0.542141; 0.250609;,
         0.506132; 0.243446;,
         0.520488; 0.208788;,
         0.520488; 0.208788;,
         0.506132; 0.243446;,
         0.475604; 0.223049;,
         0.502131; 0.196522;,
         0.502131; 0.196522;,
         0.475604; 0.223049;,
         0.455206; 0.192521;,
         0.489865; 0.178165;,
         0.489865; 0.178165;,
         0.455206; 0.192521;,
         0.448044; 0.156512;,
         0.485558; 0.156512;,
         0.485558; 0.156512;,
         0.448044; 0.156512;,
         0.455206; 0.120502;,
         0.489865; 0.134858;,
         0.489865; 0.134858;,
         0.455206; 0.120502;,
         0.475604; 0.089975;,
         0.502131; 0.116501;,
         0.502131; 0.116501;,
         0.475604; 0.089975;,
         0.506131; 0.069577;,
         0.520488; 0.104236;,
         0.520488; 0.104236;,
         0.506131; 0.069577;,
         0.542141; 0.062414;,
         0.542141; 0.099928;,
         0.641551; 0.213095;,
         0.641551; 0.250609;,
         0.605542; 0.243446;,
         0.619898; 0.208788;,
         0.619898; 0.208788;,
         0.605542; 0.243446;,
         0.575014; 0.223049;,
         0.601541; 0.196522;,
         0.601541; 0.196522;,
         0.575014; 0.223049;,
         0.554616; 0.192521;,
         0.589275; 0.178165;,
         0.589275; 0.178165;,
         0.554616; 0.192521;,
         0.547454; 0.156512;,
         0.584968; 0.156512;,
         0.584968; 0.156512;,
         0.547454; 0.156512;,
         0.554616; 0.120502;,
         0.589275; 0.134858;,
         0.589275; 0.134858;,
         0.554616; 0.120502;,
         0.575014; 0.089975;,
         0.601541; 0.116501;,
         0.601541; 0.116501;,
         0.575014; 0.089975;,
         0.605542; 0.069577;,
         0.619898; 0.104236;,
         0.619898; 0.104236;,
         0.605542; 0.069577;,
         0.641551; 0.062414;,
         0.641551; 0.099928;,
         0.749407; 0.163677;,
         0.757855; 0.184074;,
         0.757855; 0.206152;,
         0.749407; 0.226549;,
         0.733795; 0.242160;,
         0.713398; 0.250609;,
         0.691321; 0.250609;,
         0.670924; 0.242160;,
         0.655312; 0.226549;,
         0.646864; 0.206152;,
         0.646864; 0.184074;,
         0.655312; 0.163677;,
         0.670924; 0.148066;,
         0.691321; 0.139617;,
         0.713398; 0.139617;,
         0.733795; 0.148066;,
         0.331463; 0.228531;,
         0.225507; 0.228531;,
         0.225507; 0.206454;,
         0.331463; 0.206454;,
         0.336775; 0.096066;,
         0.442731; 0.096066;,
         0.442731; 0.118143;,
         0.336775; 0.118143;,
         0.331463; 0.250609;,
         0.225507; 0.250609;,
         0.225507; 0.228531;,
         0.331463; 0.228531;,
         0.331463; 0.096066;,
         0.225507; 0.096066;,
         0.225507; 0.073988;,
         0.331463; 0.073988;,
         0.336775; 0.073988;,
         0.442731; 0.073988;,
         0.442731; 0.096066;,
         0.336775; 0.096066;,
         0.336775; 0.228531;,
         0.442731; 0.228531;,
         0.442731; 0.250609;,
         0.336775; 0.250609;,
         0.331463; 0.118143;,
         0.225507; 0.118143;,
         0.225507; 0.096066;,
         0.331463; 0.096066;,
         0.336775; 0.206454;,
         0.442731; 0.206454;,
         0.442731; 0.228531;,
         0.336775; 0.228531;,
         0.331463; 0.140221;,
         0.225507; 0.140221;,
         0.225507; 0.118143;,
         0.331463; 0.118143;,
         0.336775; 0.184376;,
         0.442731; 0.184376;,
         0.442731; 0.206454;,
         0.336775; 0.206454;,
         0.331463; 0.162299;,
         0.225507; 0.162299;,
         0.225507; 0.140221;,
         0.331463; 0.140221;,
         0.336775; 0.162299;,
         0.442731; 0.162299;,
         0.442731; 0.184376;,
         0.336775; 0.184376;,
         0.331463; 0.184376;,
         0.225507; 0.184376;,
         0.225507; 0.162299;,
         0.331463; 0.162299;,
         0.336775; 0.140221;,
         0.442731; 0.140221;,
         0.442731; 0.162299;,
         0.336775; 0.162299;,
         0.331463; 0.206454;,
         0.225507; 0.206454;,
         0.225507; 0.184376;,
         0.331463; 0.184376;,
         0.133061; 0.033071;,
         0.173038; 0.049630;,
         0.203635; 0.080228;,
         0.220194; 0.120205;,
         0.220194; 0.163476;,
         0.203635; 0.203453;,
         0.173038; 0.234050;,
         0.133061; 0.250609;,
         0.089790; 0.250609;,
         0.049813; 0.234050;,
         0.019215; 0.203453;,
         0.002656; 0.163476;,
         0.002656; 0.120205;,
         0.019215; 0.080227;,
         0.049812; 0.049630;,
         0.089790; 0.033071;,
         0.911069; 0.118840;,
         0.923351; 0.121560;,
         0.918646; 0.164574;,
         0.906066; 0.164574;,
         0.892657; 0.002656;,
         0.900754; 0.012284;,
         0.870862; 0.043571;,
         0.860875; 0.035921;,
         0.822266; 0.210308;,
         0.834548; 0.207588;,
         0.848440; 0.248569;,
         0.837036; 0.253879;,
         0.949678; 0.035921;,
         0.959665; 0.043571;,
         0.937243; 0.080579;,
         0.925839; 0.075269;,
         0.925839; 0.253879;,
         0.937243; 0.248569;,
         0.959665; 0.285577;,
         0.949678; 0.293227;,
         0.822266; 0.118840;,
         0.834548; 0.121559;,
         0.829843; 0.164574;,
         0.817263; 0.164574;,
         0.906066; 0.164574;,
         0.918646; 0.164574;,
         0.923351; 0.207588;,
         0.911069; 0.210308;,
         0.860875; 0.035921;,
         0.870862; 0.043571;,
         0.848440; 0.080579;,
         0.837036; 0.075269;,
         0.837036; 0.253879;,
         0.848440; 0.248569;,
         0.870862; 0.285577;,
         0.860875; 0.293227;,
         0.925839; 0.075269;,
         0.937243; 0.080579;,
         0.923351; 0.121560;,
         0.911069; 0.118840;,
         0.949678; 0.293227;,
         0.959665; 0.285577;,
         0.989557; 0.316864;,
         0.981460; 0.326492;,
         0.981460; 0.002656;,
         0.989557; 0.012284;,
         0.959665; 0.043571;,
         0.949678; 0.035921;,
         0.817263; 0.164574;,
         0.829843; 0.164574;,
         0.834548; 0.207588;,
         0.822266; 0.210308;,
         0.911069; 0.210308;,
         0.923351; 0.207588;,
         0.937243; 0.248569;,
         0.925839; 0.253879;,
         0.837036; 0.075269;,
         0.848440; 0.080579;,
         0.834548; 0.121559;,
         0.822266; 0.118840;;
      }
    }
  }
}
