xof 0303txt 0032

Frame Root {
  FrameTransformMatrix {
     1.000000, 0.000000, 0.000000, 0.000000,
     0.000000,-0.000000, 1.000000, 0.000000,
     0.000000, 1.000000, 0.000000, 0.000000,
     0.000000, 0.000000, 0.000000, 1.000000;;
  }
  Frame Plane {
    FrameTransformMatrix {
       1.000000, 0.000000, 0.000000, 0.000000,
       0.000000, 1.000000, 0.000000, 0.000000,
       0.000000, 0.000000, 1.000000, 0.000000,
       0.000000, 0.000000, 0.000000, 1.000000;;
    }
    Mesh {
      164;
       0.126708;-0.148065; 0.000000;,
      -0.126708;-0.148065; 0.000000;,
      -0.126708;-0.154007; 0.001594;,
       0.126708;-0.154007; 0.001594;,
       0.126708;-0.154007; 0.001594;,
      -0.126708;-0.154007; 0.001594;,
      -0.126708;-0.159454; 0.005824;,
       0.126708;-0.159454; 0.005824;,
       0.126708;-0.159454; 0.005824;,
      -0.126708;-0.159454; 0.005824;,
      -0.126708;-0.161399; 0.010437;,
       0.126708;-0.161399; 0.010437;,
       0.126708;-0.161399; 0.010437;,
      -0.126708;-0.161399; 0.010437;,
      -0.126708;-0.161399; 0.017357;,
       0.126708;-0.161399; 0.017357;,
       0.126708;-0.161399; 0.017357;,
      -0.126708;-0.161399; 0.017357;,
      -0.126708;-0.159513; 0.023582;,
       0.126708;-0.159513; 0.023582;,
       0.126708;-0.159513; 0.023582;,
      -0.126708;-0.159513; 0.023582;,
      -0.126708;-0.155398; 0.026815;,
       0.126708;-0.155398; 0.026815;,
       0.126708;-0.155398; 0.026815;,
      -0.126708;-0.155398; 0.026815;,
      -0.126708;-0.152098; 0.028122;,
       0.126708;-0.152098; 0.028122;,
       0.126708;-0.152098; 0.028122;,
      -0.126708;-0.152098; 0.028122;,
      -0.126708;-0.145803; 0.026969;,
       0.126708;-0.145803; 0.026969;,
       0.126708;-0.145803; 0.026969;,
      -0.126708;-0.145803; 0.026969;,
      -0.126708;-0.140768; 0.023509;,
       0.126708;-0.140768; 0.023509;,
       0.126708;-0.140768; 0.023509;,
      -0.126708;-0.140768; 0.023509;,
      -0.126708;-0.139090; 0.018126;,
       0.126708;-0.139090; 0.018126;,
       0.126708;-0.139090; 0.018126;,
      -0.126708;-0.139090; 0.018126;,
      -0.126708;-0.140768; 0.011206;,
       0.126708;-0.140768; 0.011206;,
       0.126708;-0.140768; 0.011206;,
      -0.126708;-0.140768; 0.011206;,
      -0.126708;-0.146643; 0.006592;,
       0.126708;-0.146643; 0.006592;,
       0.126708;-0.146643; 0.006592;,
      -0.126708;-0.146643; 0.006592;,
      -0.126708;-0.151678; 0.007361;,
       0.126708;-0.151678; 0.007361;,
       0.126708;-0.151678; 0.007361;,
      -0.126708;-0.151678; 0.007361;,
      -0.126708;-0.154986; 0.010822;,
       0.126708;-0.154986; 0.010822;,
       0.126708;-0.154986; 0.010822;,
      -0.126708;-0.154986; 0.010822;,
      -0.126708;-0.156014; 0.017357;,
       0.126708;-0.156014; 0.017357;,
       0.126708;-0.156014; 0.017357;,
      -0.126708;-0.156014; 0.017357;,
      -0.126708;-0.151678; 0.020818;,
       0.126708;-0.151678; 0.020818;,
       0.126708;-0.151678; 0.020818;,
      -0.126708;-0.151678; 0.020818;,
      -0.126708;-0.146643; 0.018895;,
       0.126708;-0.146643; 0.018895;,
       0.126708;-0.146643; 0.018895;,
      -0.126708;-0.146643; 0.018895;,
      -0.126708;-0.146223; 0.014282;,
       0.126708;-0.146223; 0.014282;,
       0.126708;-0.146223; 0.014282;,
      -0.126708;-0.146223; 0.014282;,
      -0.126708;-0.150419; 0.013128;,
       0.126708;-0.150419; 0.013128;,
       0.126708;-0.150419; 0.013128;,
      -0.126708;-0.150419; 0.013128;,
      -0.126708;-0.151678; 0.015435;,
       0.126708;-0.151678; 0.015435;,
       0.126708; 0.148351; 0.000000;,
      -0.126708; 0.148351; 0.000000;,
      -0.126708; 0.154940; 0.001594;,
       0.126708; 0.154940; 0.001594;,
       0.126708; 0.154940; 0.001594;,
      -0.126708; 0.154940; 0.001594;,
      -0.126708; 0.159389; 0.005824;,
       0.126708; 0.159389; 0.005824;,
       0.126708; 0.159389; 0.005824;,
      -0.126708; 0.159389; 0.005824;,
      -0.126708; 0.160978; 0.010437;,
       0.126708; 0.160978; 0.010437;,
       0.126708; 0.160978; 0.010437;,
      -0.126708; 0.160978; 0.010437;,
      -0.126708; 0.161419; 0.017137;,
       0.126708; 0.161419; 0.017137;,
       0.126708; 0.161419; 0.017137;,
      -0.126708; 0.161419; 0.017137;,
      -0.126708; 0.159209; 0.022908;,
       0.126708; 0.159209; 0.022908;,
       0.126708; 0.159209; 0.022908;,
      -0.126708; 0.159209; 0.022908;,
      -0.126708; 0.155576; 0.026585;,
       0.126708; 0.155576; 0.026585;,
       0.126708; 0.155576; 0.026585;,
      -0.126708; 0.155576; 0.026585;,
      -0.126708; 0.152525; 0.028122;,
       0.126708; 0.152525; 0.028122;,
       0.126708; 0.152525; 0.028122;,
      -0.126708; 0.152525; 0.028122;,
      -0.126708; 0.146001; 0.026969;,
       0.126708; 0.146001; 0.026969;,
       0.126708; 0.146001; 0.026969;,
      -0.126708; 0.146001; 0.026969;,
      -0.126708; 0.140781; 0.023509;,
       0.126708; 0.140781; 0.023509;,
       0.126708; 0.140781; 0.023509;,
      -0.126708; 0.140781; 0.023509;,
      -0.126708; 0.139042; 0.018126;,
       0.126708; 0.139042; 0.018126;,
       0.126708; 0.139042; 0.018126;,
      -0.126708; 0.139042; 0.018126;,
      -0.126708; 0.140781; 0.011206;,
       0.126708; 0.140781; 0.011206;,
       0.126708; 0.140781; 0.011206;,
      -0.126708; 0.140781; 0.011206;,
      -0.126708; 0.146871; 0.006592;,
       0.126708; 0.146871; 0.006592;,
       0.126708; 0.146871; 0.006592;,
      -0.126708; 0.146871; 0.006592;,
      -0.126708; 0.152090; 0.007361;,
       0.126708; 0.152090; 0.007361;,
       0.126708; 0.152090; 0.007361;,
      -0.126708; 0.152090; 0.007361;,
      -0.126708; 0.156004; 0.010822;,
       0.126708; 0.156004; 0.010822;,
       0.126708; 0.156004; 0.010822;,
      -0.126708; 0.156004; 0.010822;,
      -0.126708; 0.156874; 0.017357;,
       0.126708; 0.156874; 0.017357;,
       0.126708; 0.156874; 0.017357;,
      -0.126708; 0.156874; 0.017357;,
      -0.126708; 0.152090; 0.020818;,
       0.126708; 0.152090; 0.020818;,
       0.126708; 0.152090; 0.020818;,
      -0.126708; 0.152090; 0.020818;,
      -0.126708; 0.146870; 0.018895;,
       0.126708; 0.146870; 0.018895;,
       0.126708; 0.146870; 0.018895;,
      -0.126708; 0.146870; 0.018895;,
      -0.126708; 0.146436; 0.014282;,
       0.126708; 0.146436; 0.014282;,
       0.126708; 0.146436; 0.014282;,
      -0.126708; 0.146436; 0.014282;,
      -0.126708; 0.150785; 0.013128;,
       0.126708; 0.150785; 0.013128;,
       0.126708; 0.150785; 0.013128;,
      -0.126708; 0.150785; 0.013128;,
      -0.126708; 0.152090; 0.015435;,
       0.126708; 0.152090; 0.015435;,
       0.126708; 0.148351; 0.000000;,
      -0.126708; 0.148351; 0.000000;,
      -0.126708;-0.148065; 0.000000;,
       0.126708;-0.148065; 0.000000;;
      41;
      4;3,2,1,0;,
      4;7,6,5,4;,
      4;11,10,9,8;,
      4;15,14,13,12;,
      4;19,18,17,16;,
      4;23,22,21,20;,
      4;27,26,25,24;,
      4;31,30,29,28;,
      4;35,34,33,32;,
      4;39,38,37,36;,
      4;43,42,41,40;,
      4;47,46,45,44;,
      4;51,50,49,48;,
      4;55,54,53,52;,
      4;59,58,57,56;,
      4;63,62,61,60;,
      4;67,66,65,64;,
      4;71,70,69,68;,
      4;75,74,73,72;,
      4;79,78,77,76;,
      4;83,82,81,80;,
      4;87,86,85,84;,
      4;91,90,89,88;,
      4;95,94,93,92;,
      4;99,98,97,96;,
      4;103,102,101,100;,
      4;107,106,105,104;,
      4;111,110,109,108;,
      4;115,114,113,112;,
      4;119,118,117,116;,
      4;123,122,121,120;,
      4;127,126,125,124;,
      4;131,130,129,128;,
      4;135,134,133,132;,
      4;139,138,137,136;,
      4;143,142,141,140;,
      4;147,146,145,144;,
      4;151,150,149,148;,
      4;155,154,153,152;,
      4;159,158,157,156;,
      4;163,162,161,160;;
      MeshNormals {
        41;
         0.000000; 0.259192; 0.965826;,
         0.000000; 0.613283; 0.789863;,
         0.000000; 0.921439; 0.388524;,
         0.000000; 1.000000; 0.000000;,
         0.000000; 0.957057;-0.289899;,
         0.000000; 0.617711;-0.786406;,
         0.000000; 0.368360;-0.929683;,
         0.000000;-0.180246;-0.983622;,
         0.000000;-0.566348;-0.824166;,
         0.000000;-0.954661;-0.297695;,
         0.000000;-0.971825; 0.235703;,
         0.000000;-0.617642; 0.786459;,
         0.000000; 0.150957; 0.988540;,
         0.000000; 0.722791; 0.691067;,
         0.000000; 0.987867; 0.155303;,
         0.000000; 0.623762;-0.781615;,
         0.000000;-0.356658;-0.934235;,
         0.000000;-0.995889;-0.090579;,
         0.000000;-0.265040; 0.964237;,
         0.000000; 0.877801; 0.479026;,
         0.000000; 0.235195;-0.971948;,
         0.000000; 0.688997;-0.724764;,
         0.000000; 0.945505;-0.325608;,
         0.000000; 0.997834;-0.065785;,
         0.000000; 0.933820; 0.357742;,
         0.000000; 0.711372; 0.702815;,
         0.000000; 0.450079; 0.892989;,
         0.000000;-0.174091; 0.984730;,
         0.000000;-0.552562; 0.833471;,
         0.000000;-0.951531; 0.307553;,
         0.000000;-0.969824;-0.243807;,
         0.000000;-0.603908;-0.797054;,
         0.000000; 0.145753;-0.989321;,
         0.000000; 0.662297;-0.749242;,
         0.000000; 0.991259;-0.131928;,
         0.000000; 0.586029; 0.810290;,
         0.000000;-0.345617; 0.938376;,
         0.000000;-0.995585; 0.093860;,
         0.000000;-0.256327;-0.966590;,
         0.000000; 0.870403;-0.492340;,
         0.000000;-0.000000; 1.000000;;
        41;
        4;0,0,0,0;,
        4;1,1,1,1;,
        4;2,2,2,2;,
        4;3,3,3,3;,
        4;4,4,4,4;,
        4;5,5,5,5;,
        4;6,6,6,6;,
        4;7,7,7,7;,
        4;8,8,8,8;,
        4;9,9,9,9;,
        4;10,10,10,10;,
        4;11,11,11,11;,
        4;12,12,12,12;,
        4;13,13,13,13;,
        4;14,14,14,14;,
        4;15,15,15,15;,
        4;16,16,16,16;,
        4;17,17,17,17;,
        4;18,18,18,18;,
        4;19,19,19,19;,
        4;20,20,20,20;,
        4;21,21,21,21;,
        4;22,22,22,22;,
        4;23,23,23,23;,
        4;24,24,24,24;,
        4;25,25,25,25;,
        4;26,26,26,26;,
        4;27,27,27,27;,
        4;28,28,28,28;,
        4;29,29,29,29;,
        4;30,30,30,30;,
        4;31,31,31,31;,
        4;32,32,32,32;,
        4;33,33,33,33;,
        4;34,34,34,34;,
        4;35,35,35,35;,
        4;36,36,36,36;,
        4;37,37,37,37;,
        4;38,38,38,38;,
        4;39,39,39,39;,
        4;40,40,40,40;;
      }
      MeshTextureCoords {
        164;
         0.043396; 0.125212;,
         0.622611; 0.125212;,
         0.622611; 0.113567;,
         0.043396; 0.113568;,
         0.043396; 0.113568;,
         0.622611; 0.113567;,
         0.622611; 0.102849;,
         0.043396; 0.102850;,
         0.774027; 0.577996;,
         0.774027; 0.049196;,
         0.766811; 0.049196;,
         0.766811; 0.577996;,
         0.766811; 0.577996;,
         0.766811; 0.049196;,
         0.756691; 0.049196;,
         0.756691; 0.577996;,
         0.756691; 0.577996;,
         0.756691; 0.049196;,
         0.748044; 0.049196;,
         0.748044; 0.577996;,
         0.721802; 0.577996;,
         0.721802; 0.049196;,
         0.713520; 0.049196;,
         0.713520; 0.577996;,
         0.713520; 0.577996;,
         0.713520; 0.049196;,
         0.707334; 0.049196;,
         0.707334; 0.577996;,
         0.707334; 0.577996;,
         0.707334; 0.049196;,
         0.696838; 0.049196;,
         0.696838; 0.577996;,
         0.696838; 0.577996;,
         0.696838; 0.049196;,
         0.689345; 0.049196;,
         0.689345; 0.577996;,
         0.845638; 0.049196;,
         0.845638; 0.577996;,
         0.853579; 0.577996;,
         0.853579; 0.049196;,
         0.853579; 0.049196;,
         0.853579; 0.577996;,
         0.863795; 0.577996;,
         0.863795; 0.049196;,
         0.799410; 0.577996;,
         0.799410; 0.049196;,
         0.788985; 0.049196;,
         0.788985; 0.577996;,
         0.788985; 0.577996;,
         0.788985; 0.049196;,
         0.779983; 0.049196;,
         0.779983; 0.577996;,
         0.779983; 0.577996;,
         0.779983; 0.049196;,
         0.774027; 0.049196;,
         0.774027; 0.577996;,
         0.936639; 0.577996;,
         0.936639; 0.049196;,
         0.926833; 0.049196;,
         0.926833; 0.577996;,
         0.916624; 0.577996;,
         0.916624; 0.049196;,
         0.907878; 0.049196;,
         0.907878; 0.577996;,
         0.907878; 0.577996;,
         0.907878; 0.049196;,
         0.899837; 0.049196;,
         0.899837; 0.577996;,
         0.960272; 0.049196;,
         0.960272; 0.577996;,
         0.967080; 0.577996;,
         0.967080; 0.049196;,
         0.953462; 0.577996;,
         0.953462; 0.049196;,
         0.945986; 0.049196;,
         0.945986; 0.577996;,
         0.970758; 0.577996;,
         0.970758; 0.049196;,
         0.967080; 0.049196;,
         0.967080; 0.577996;,
         0.845638; 0.577996;,
         0.845638; 0.049196;,
         0.833651; 0.049196;,
         0.833651; 0.577996;,
         0.833651; 0.577996;,
         0.833651; 0.049196;,
         0.824436; 0.049196;,
         0.824436; 0.577996;,
         0.824436; 0.577996;,
         0.824436; 0.049196;,
         0.818073; 0.049196;,
         0.818073; 0.577996;,
         0.818073; 0.577996;,
         0.818073; 0.049196;,
         0.808384; 0.049196;,
         0.808384; 0.577996;,
         0.808384; 0.577996;,
         0.808384; 0.049196;,
         0.799410; 0.049196;,
         0.799410; 0.577996;,
         0.689345; 0.577996;,
         0.689345; 0.049196;,
         0.682807; 0.049196;,
         0.682807; 0.577996;,
         0.682807; 0.577996;,
         0.682807; 0.049196;,
         0.677337; 0.049196;,
         0.677337; 0.577996;,
         0.677337; 0.577996;,
         0.677337; 0.049196;,
         0.665704; 0.049196;,
         0.665704; 0.577996;,
         0.665704; 0.577996;,
         0.665704; 0.049196;,
         0.656433; 0.049196;,
         0.656433; 0.577996;,
         0.863795; 0.049196;,
         0.863795; 0.577996;,
         0.871742; 0.577996;,
         0.871742; 0.049196;,
         0.871742; 0.049196;,
         0.871742; 0.577996;,
         0.881953; 0.577996;,
         0.881953; 0.049196;,
         0.748044; 0.577996;,
         0.748044; 0.049196;,
         0.739137; 0.049196;,
         0.739137; 0.577996;,
         0.739137; 0.577996;,
         0.739137; 0.049196;,
         0.729818; 0.049196;,
         0.729818; 0.577996;,
         0.729818; 0.577996;,
         0.729818; 0.049196;,
         0.721802; 0.049196;,
         0.721802; 0.577996;,
         0.945986; 0.577996;,
         0.945986; 0.049196;,
         0.936639; 0.049196;,
         0.936639; 0.577996;,
         0.899837; 0.577996;,
         0.899837; 0.049196;,
         0.891245; 0.049196;,
         0.891245; 0.577996;,
         0.891245; 0.577996;,
         0.891245; 0.049196;,
         0.881953; 0.049196;,
         0.881953; 0.577996;,
         0.953462; 0.049196;,
         0.953462; 0.577996;,
         0.960272; 0.577996;,
         0.960272; 0.049196;,
         0.926833; 0.577996;,
         0.926833; 0.049196;,
         0.919707; 0.049196;,
         0.919707; 0.577996;,
         0.919707; 0.577996;,
         0.919707; 0.049196;,
         0.916624; 0.049196;,
         0.916624; 0.577996;,
         0.034432; 0.977266;,
         0.616197; 0.977266;,
         0.616197; 0.394966;,
         0.034432; 0.394966;;
      }
      MeshMaterialList {
        1;
        41;
        0,
        0,
        0,
        0,
        0,
        0,
        0,
        0,
        0,
        0,
        0,
        0,
        0,
        0,
        0,
        0,
        0,
        0,
        0,
        0,
        0,
        0,
        0,
        0,
        0,
        0,
        0,
        0,
        0,
        0,
        0,
        0,
        0,
        0,
        0,
        0,
        0,
        0,
        0,
        0,
        0;
        Material Material_001 {
           0.800000; 0.800000; 0.800000; 1.000000;;
           323.999994;
           0.500000; 0.500000; 0.500000;;
           0.000000; 0.000000; 0.000000;;
        }
      }
    }
  }
}
