xof 0303txt 0032

Frame Root {
  FrameTransformMatrix {
     1.000000, 0.000000, 0.000000, 0.000000,
     0.000000,-0.000000, 1.000000, 0.000000,
     0.000000, 1.000000, 0.000000, 0.000000,
     0.000000, 0.000000, 0.000000, 1.000000;;
  }
  Frame Plane {
    FrameTransformMatrix {
       1.000000, 0.000000, 0.000000, 0.000000,
       0.000000, 1.000000, 0.000000, 0.000000,
       0.000000, 0.000000, 1.000000, 0.000000,
       0.000000, 0.000000, 0.000000, 1.000000;;
    }
    Mesh {
      184;
       0.027457; 0.003347; 0.000000;,
       0.027457; 0.005742; 0.000000;,
       0.000150; 0.005238;-0.000000;,
       0.000318; 0.004134;-0.000000;,
       0.027457; 0.003347; 0.000000;,
       0.027924;-0.001754; 0.000000;,
       0.027924; 0.009685; 0.000000;,
       0.027457; 0.005742; 0.000000;,
       0.027924;-0.001754; 0.000000;,
       0.029266;-0.004930; 0.000000;,
       0.029266; 0.013377; 0.000000;,
       0.027924; 0.009685; 0.000000;,
       0.029266;-0.004930; 0.000000;,
       0.031426;-0.006474; 0.000000;,
       0.031426; 0.014922; 0.000000;,
       0.029266; 0.013377; 0.000000;,
       0.031426;-0.006474; 0.000000;,
       0.041463;-0.008918; 0.000000;,
       0.041463; 0.015816; 0.000000;,
       0.031426; 0.014922; 0.000000;,
       0.041463;-0.008918; 0.000000;,
       0.055581;-0.010457; 0.000000;,
       0.055581; 0.015859; 0.000000;,
       0.041463; 0.015816; 0.000000;,
       0.055581;-0.010457; 0.000000;,
       0.077967;-0.010155; 0.000000;,
       0.077967; 0.014346; 0.000000;,
       0.055581; 0.015859; 0.000000;,
       0.077967;-0.010155; 0.000000;,
       0.095538;-0.010155; 0.000000;,
       0.095538; 0.012208; 0.000000;,
       0.077967; 0.014346; 0.000000;,
       0.095538;-0.010155; 0.000000;,
       0.115404;-0.006104; 0.000000;,
       0.115404; 0.008847; 0.000000;,
       0.095538; 0.012208; 0.000000;,
       0.115404;-0.006104; 0.000000;,
       0.123807;-0.000306; 0.000000;,
       0.124143; 0.006998; 0.000000;,
       0.115404; 0.008847; 0.000000;,
       0.123807;-0.000306; 0.000000;,
       0.126328; 0.003140; 0.000000;,
       0.126496; 0.004813; 0.000000;,
       0.124143; 0.006998; 0.000000;,
       0.027457; 0.003347; 0.000585;,
       0.000318; 0.004134; 0.000585;,
       0.000150; 0.005238; 0.000585;,
       0.027457; 0.005742; 0.000585;,
       0.027457; 0.003347; 0.000585;,
       0.027457; 0.005742; 0.000585;,
       0.027924; 0.009685; 0.000585;,
       0.027924;-0.001754; 0.000585;,
       0.027924;-0.001754; 0.000585;,
       0.027924; 0.009685; 0.000585;,
       0.029266; 0.013377; 0.000585;,
       0.029266;-0.004930; 0.000585;,
       0.029266;-0.004930; 0.000585;,
       0.029266; 0.013377; 0.000585;,
       0.031426; 0.014922; 0.000585;,
       0.031426;-0.006474; 0.000585;,
       0.031426;-0.006474; 0.000585;,
       0.031426; 0.014922; 0.000585;,
       0.041463; 0.015816; 0.000585;,
       0.041463;-0.008918; 0.000585;,
       0.041463;-0.008918; 0.000585;,
       0.041463; 0.015816; 0.000585;,
       0.055581; 0.015859; 0.000585;,
       0.055581;-0.010457; 0.000585;,
       0.055581;-0.010457; 0.000585;,
       0.055581; 0.015859; 0.000585;,
       0.077967; 0.014346; 0.000585;,
       0.077967;-0.010155; 0.000585;,
       0.077967;-0.010155; 0.000585;,
       0.077967; 0.014346; 0.000585;,
       0.095538; 0.012208; 0.000585;,
       0.095538;-0.010155; 0.000585;,
       0.095538;-0.010155; 0.000585;,
       0.095538; 0.012208; 0.000585;,
       0.115404; 0.008847; 0.000585;,
       0.115404;-0.006104; 0.000585;,
       0.115404;-0.006104; 0.000585;,
       0.115404; 0.008847; 0.000585;,
       0.124143; 0.006998; 0.000585;,
       0.123807;-0.000306; 0.000585;,
       0.123807;-0.000306; 0.000585;,
       0.124143; 0.006998; 0.000585;,
       0.126496; 0.004813; 0.000585;,
       0.126328; 0.003140; 0.000585;,
       0.095538;-0.010155; 0.000000;,
       0.077967;-0.010155; 0.000000;,
       0.077967;-0.010155; 0.000585;,
       0.095538;-0.010155; 0.000585;,
       0.000318; 0.004134;-0.000000;,
       0.000150; 0.005238;-0.000000;,
       0.000150; 0.005238; 0.000585;,
       0.000318; 0.004134; 0.000585;,
       0.041463; 0.015816; 0.000000;,
       0.055581; 0.015859; 0.000000;,
       0.055581; 0.015859; 0.000585;,
       0.041463; 0.015816; 0.000585;,
       0.124143; 0.006998; 0.000000;,
       0.126496; 0.004813; 0.000000;,
       0.126496; 0.004813; 0.000585;,
       0.124143; 0.006998; 0.000585;,
       0.000150; 0.005238;-0.000000;,
       0.027457; 0.005742; 0.000000;,
       0.027457; 0.005742; 0.000585;,
       0.000150; 0.005238; 0.000585;,
       0.055581;-0.010457; 0.000000;,
       0.041463;-0.008918; 0.000000;,
       0.041463;-0.008918; 0.000585;,
       0.055581;-0.010457; 0.000585;,
       0.126328; 0.003140; 0.000000;,
       0.123807;-0.000306; 0.000000;,
       0.123807;-0.000306; 0.000585;,
       0.126328; 0.003140; 0.000585;,
       0.029266; 0.013377; 0.000000;,
       0.031426; 0.014922; 0.000000;,
       0.031426; 0.014922; 0.000585;,
       0.029266; 0.013377; 0.000585;,
       0.095538; 0.012208; 0.000000;,
       0.115404; 0.008847; 0.000000;,
       0.115404; 0.008847; 0.000585;,
       0.095538; 0.012208; 0.000585;,
       0.031426;-0.006474; 0.000000;,
       0.029266;-0.004930; 0.000000;,
       0.029266;-0.004930; 0.000585;,
       0.031426;-0.006474; 0.000585;,
       0.115404;-0.006104; 0.000000;,
       0.095538;-0.010155; 0.000000;,
       0.095538;-0.010155; 0.000585;,
       0.115404;-0.006104; 0.000585;,
       0.027457; 0.005742; 0.000000;,
       0.027924; 0.009685; 0.000000;,
       0.027924; 0.009685; 0.000585;,
       0.027457; 0.005742; 0.000585;,
       0.055581; 0.015859; 0.000000;,
       0.077967; 0.014346; 0.000000;,
       0.077967; 0.014346; 0.000585;,
       0.055581; 0.015859; 0.000585;,
       0.027924;-0.001754; 0.000000;,
       0.027457; 0.003347; 0.000000;,
       0.027457; 0.003347; 0.000585;,
       0.027924;-0.001754; 0.000585;,
       0.077967;-0.010155; 0.000000;,
       0.055581;-0.010457; 0.000000;,
       0.055581;-0.010457; 0.000585;,
       0.077967;-0.010155; 0.000585;,
       0.031426; 0.014922; 0.000000;,
       0.041463; 0.015816; 0.000000;,
       0.041463; 0.015816; 0.000585;,
       0.031426; 0.014922; 0.000585;,
       0.115404; 0.008847; 0.000000;,
       0.124143; 0.006998; 0.000000;,
       0.124143; 0.006998; 0.000585;,
       0.115404; 0.008847; 0.000585;,
       0.041463;-0.008918; 0.000000;,
       0.031426;-0.006474; 0.000000;,
       0.031426;-0.006474; 0.000585;,
       0.041463;-0.008918; 0.000585;,
       0.123807;-0.000306; 0.000000;,
       0.115404;-0.006104; 0.000000;,
       0.115404;-0.006104; 0.000585;,
       0.123807;-0.000306; 0.000585;,
       0.027924; 0.009685; 0.000000;,
       0.029266; 0.013377; 0.000000;,
       0.029266; 0.013377; 0.000585;,
       0.027924; 0.009685; 0.000585;,
       0.077967; 0.014346; 0.000000;,
       0.095538; 0.012208; 0.000000;,
       0.095538; 0.012208; 0.000585;,
       0.077967; 0.014346; 0.000585;,
       0.027457; 0.003347; 0.000000;,
       0.000318; 0.004134;-0.000000;,
       0.000318; 0.004134; 0.000585;,
       0.027457; 0.003347; 0.000585;,
       0.126496; 0.004813; 0.000000;,
       0.126328; 0.003140; 0.000000;,
       0.126328; 0.003140; 0.000585;,
       0.126496; 0.004813; 0.000585;,
       0.029266;-0.004930; 0.000000;,
       0.027924;-0.001754; 0.000000;,
       0.027924;-0.001754; 0.000585;,
       0.029266;-0.004930; 0.000585;;
      46;
      4;3,2,1,0;,
      4;7,6,5,4;,
      4;11,10,9,8;,
      4;15,14,13,12;,
      4;19,18,17,16;,
      4;23,22,21,20;,
      4;27,26,25,24;,
      4;31,30,29,28;,
      4;35,34,33,32;,
      4;39,38,37,36;,
      4;43,42,41,40;,
      4;47,46,45,44;,
      4;51,50,49,48;,
      4;55,54,53,52;,
      4;59,58,57,56;,
      4;63,62,61,60;,
      4;67,66,65,64;,
      4;71,70,69,68;,
      4;75,74,73,72;,
      4;79,78,77,76;,
      4;83,82,81,80;,
      4;87,86,85,84;,
      4;91,90,89,88;,
      4;95,94,93,92;,
      4;99,98,97,96;,
      4;103,102,101,100;,
      4;107,106,105,104;,
      4;111,110,109,108;,
      4;115,114,113,112;,
      4;119,118,117,116;,
      4;123,122,121,120;,
      4;127,126,125,124;,
      4;131,130,129,128;,
      4;135,134,133,132;,
      4;139,138,137,136;,
      4;143,142,141,140;,
      4;147,146,145,144;,
      4;151,150,149,148;,
      4;155,154,153,152;,
      4;159,158,157,156;,
      4;163,162,161,160;,
      4;167,166,165,164;,
      4;171,170,169,168;,
      4;175,174,173,172;,
      4;179,178,177,176;,
      4;183,182,181,180;;
      MeshNormals {
        46;
        -0.000000;-0.000000; 1.000000;,
        -0.000000; 0.000000; 1.000000;,
        -0.000000; 0.000000; 1.000000;,
        -0.000000; 0.000000; 1.000000;,
        -0.000000; 0.000000; 1.000000;,
        -0.000000; 0.000000; 1.000000;,
        -0.000000; 0.000000; 1.000000;,
        -0.000000; 0.000000; 1.000000;,
        -0.000000; 0.000000; 1.000000;,
        -0.000000; 0.000000; 1.000000;,
        -0.000000;-0.000000; 1.000000;,
         0.000000;-0.000000;-1.000000;,
         0.000000; 0.000000;-1.000000;,
         0.000000; 0.000000;-1.000000;,
         0.000000; 0.000000;-1.000000;,
         0.000000; 0.000000;-1.000000;,
         0.000000; 0.000000;-1.000000;,
         0.000000; 0.000000;-1.000000;,
         0.000000; 0.000000;-1.000000;,
         0.000000; 0.000000;-1.000000;,
         0.000000;-0.000000;-1.000000;,
         0.000000; 0.000000;-1.000000;,
         0.000000; 1.000000; 0.000000;,
         0.988610; 0.150498; 0.000000;,
         0.003032;-0.999995; 0.000000;,
        -0.680454;-0.732791; 0.000000;,
         0.018461;-0.999830; 0.000000;,
         0.108343; 0.994114; 0.000000;,
        -0.807030; 0.590510; 0.000000;,
         0.581790;-0.813339; 0.000000;,
        -0.166833;-0.985985; 0.000000;,
         0.581790; 0.813339; 0.000000;,
        -0.199781; 0.979841; 0.000000;,
         0.993065;-0.117566; 0.000000;,
        -0.067414;-0.997725; 0.000000;,
         0.995839; 0.091135; 0.000000;,
        -0.013512; 0.999909; 0.000000;,
         0.088763;-0.996053; 0.000000;,
        -0.206959;-0.978350; 0.000000;,
         0.236583; 0.971611; 0.000000;,
        -0.567926; 0.823079; 0.000000;,
         0.939809;-0.341700; 0.000000;,
        -0.120780;-0.992679; 0.000000;,
         0.028973; 0.999580; 0.000000;,
        -0.994997; 0.099909; 0.000000;,
         0.921106; 0.389311; 0.000000;;
        46;
        4;0,0,0,0;,
        4;1,1,1,1;,
        4;2,2,2,2;,
        4;3,3,3,3;,
        4;4,4,4,4;,
        4;5,5,5,5;,
        4;6,6,6,6;,
        4;7,7,7,7;,
        4;8,8,8,8;,
        4;9,9,9,9;,
        4;10,10,10,10;,
        4;11,11,11,11;,
        4;12,12,12,12;,
        4;13,13,13,13;,
        4;14,14,14,14;,
        4;15,15,15,15;,
        4;16,16,16,16;,
        4;17,17,17,17;,
        4;18,18,18,18;,
        4;19,19,19,19;,
        4;20,20,20,20;,
        4;21,21,21,21;,
        4;22,22,22,22;,
        4;23,23,23,23;,
        4;24,24,24,24;,
        4;25,25,25,25;,
        4;26,26,26,26;,
        4;27,27,27,27;,
        4;28,28,28,28;,
        4;29,29,29,29;,
        4;30,30,30,30;,
        4;31,31,31,31;,
        4;32,32,32,32;,
        4;33,33,33,33;,
        4;34,34,34,34;,
        4;35,35,35,35;,
        4;36,36,36,36;,
        4;37,37,37,37;,
        4;38,38,38,38;,
        4;39,39,39,39;,
        4;40,40,40,40;,
        4;41,41,41,41;,
        4;42,42,42,42;,
        4;43,43,43,43;,
        4;44,44,44,44;,
        4;45,45,45,45;;
      }
      MeshTextureCoords {
        184;
         0.553264; 0.739406;,
         0.499220; 0.738659;,
         0.521288; 0.941736;,
         0.552151; 0.940361;,
         0.553264; 0.739406;,
         0.655163; 0.734003;,
         0.464001; 0.739183;,
         0.499220; 0.738659;,
         0.655163; 0.734003;,
         0.691269; 0.722838;,
         0.424240; 0.731127;,
         0.464001; 0.739183;,
         0.691269; 0.722838;,
         0.704625; 0.706490;,
         0.373037; 0.708691;,
         0.424240; 0.731127;,
         0.704625; 0.706490;,
         0.678424; 0.632637;,
         0.309616; 0.638490;,
         0.373037; 0.708691;,
         0.678424; 0.632637;,
         0.741678; 0.529623;,
         0.249983; 0.531913;,
         0.309616; 0.638490;,
         0.741678; 0.529623;,
         0.716574; 0.367514;,
         0.251946; 0.378608;,
         0.249983; 0.531913;,
         0.716574; 0.367514;,
         0.670359; 0.240172;,
         0.252933; 0.233186;,
         0.251946; 0.378608;,
         0.670359; 0.240172;,
         0.604664; 0.098031;,
         0.334145; 0.104801;,
         0.252933; 0.233186;,
         0.604664; 0.098031;,
         0.570069; 0.025850;,
         0.486421; 0.022442;,
         0.334145; 0.104801;,
         0.381948; 0.110933;,
         0.379930; 0.124697;,
         0.393217; 0.143312;,
         0.409190; 0.105414;,
         0.497493; 0.726396;,
         0.514749; 0.942219;,
         0.546812; 0.943576;,
         0.548402; 0.726115;,
         0.497112; 0.739949;,
         0.545595; 0.739537;,
         0.568199; 0.739543;,
         0.463522; 0.739201;,
         0.460371; 0.738717;,
         0.570295; 0.738913;,
         0.649787; 0.734866;,
         0.415935; 0.727707;,
         0.415935; 0.727707;,
         0.649787; 0.734866;,
         0.702930; 0.719756;,
         0.373100; 0.711389;,
         0.373100; 0.711389;,
         0.702930; 0.719756;,
         0.679270; 0.647054;,
         0.301656; 0.637382;,
         0.301656; 0.637382;,
         0.679270; 0.647054;,
         0.739758; 0.537907;,
         0.248557; 0.534033;,
         0.248557; 0.534033;,
         0.739758; 0.537907;,
         0.717319; 0.380804;,
         0.252212; 0.371223;,
         0.252212; 0.371223;,
         0.717319; 0.380804;,
         0.667926; 0.252092;,
         0.254538; 0.231582;,
         0.254538; 0.231582;,
         0.667926; 0.252092;,
         0.609159; 0.106198;,
         0.335187; 0.100351;,
         0.335187; 0.100351;,
         0.609159; 0.106198;,
         0.574602; 0.041869;,
         0.428933; 0.041459;,
         0.428933; 0.041459;,
         0.574602; 0.041869;,
         0.549858; 0.023890;,
         0.468128; 0.024459;,
         0.606457; 0.643825;,
         0.648415; 0.581976;,
         0.388215; 0.581976;,
         0.393765; 0.632060;,
         0.558416; 0.528347;,
         0.549605; 0.539039;,
         0.560476; 0.539039;,
         0.551666; 0.528347;,
         0.419140; 0.665824;,
         0.363239; 0.611962;,
         0.679258; 0.615171;,
         0.616492; 0.671172;,
         0.551949; 0.360448;,
         0.551949; 0.369846;,
         0.583190; 0.369846;,
         0.591516; 0.378631;,
         0.553727; 0.713438;,
         0.538378; 0.613911;,
         0.560546; 0.610151;,
         0.560476; 0.713438;,
         0.665897; 0.503197;,
         0.610394; 0.453382;,
         0.421915; 0.453382;,
         0.382665; 0.503197;,
         0.554010; 0.553499;,
         0.584537; 0.572281;,
         0.505410; 0.586185;,
         0.519858; 0.571681;,
         0.380756; 1.000000;,
         0.341292; 0.976313;,
         0.509949; 0.983799;,
         0.467711; 1.000000;,
         0.349363; 0.463243;,
         0.410980; 0.409771;,
         0.610942; 0.409771;,
         0.641469; 0.480356;,
         0.650524; 0.417860;,
         0.647860; 0.410139;,
         0.503384; 0.410139;,
         0.472246; 0.417860;,
         0.574989; 0.713438;,
         0.606457; 0.643825;,
         0.393765; 0.632060;,
         0.448425; 0.713438;,
         0.538378; 0.613911;,
         0.531908; 0.602161;,
         0.556071; 0.597882;,
         0.560546; 0.610151;,
         0.363239; 0.611962;,
         0.359643; 0.542587;,
         0.671995; 0.542587;,
         0.679258; 0.615171;,
         0.637938; 0.554752;,
         0.568309; 0.539039;,
         0.530829; 0.534795;,
         0.527787; 0.554752;,
         0.648415; 0.581976;,
         0.665897; 0.503197;,
         0.382665; 0.503197;,
         0.388215; 0.581976;,
         0.473634; 0.698733;,
         0.419140; 0.665824;,
         0.616492; 0.671172;,
         0.644855; 0.706220;,
         0.410980; 0.409771;,
         0.551949; 0.360448;,
         0.591516; 0.378631;,
         0.610942; 0.409771;,
         0.610394; 0.453382;,
         0.651912; 0.417860;,
         0.473634; 0.417860;,
         0.421915; 0.453382;,
         0.584537; 0.572281;,
         0.574989; 0.615835;,
         0.452547; 0.615835;,
         0.505410; 0.586185;,
         0.531908; 0.602161;,
         0.519280; 0.589196;,
         0.608799; 0.589196;,
         0.556071; 0.597882;,
         0.359643; 0.542587;,
         0.349363; 0.463243;,
         0.641469; 0.480356;,
         0.671995; 0.542587;,
         0.568309; 0.713438;,
         0.560476; 0.615835;,
         0.549605; 0.615835;,
         0.530829; 0.709193;,
         0.554010; 0.565966;,
         0.554010; 0.553499;,
         0.519858; 0.571681;,
         0.589373; 0.565966;,
         0.651308; 0.565966;,
         0.637938; 0.554752;,
         0.527787; 0.554752;,
         0.506832; 0.565966;;
      }
      MeshMaterialList {
        1;
        46;
        0,
        0,
        0,
        0,
        0,
        0,
        0,
        0,
        0,
        0,
        0,
        0,
        0,
        0,
        0,
        0,
        0,
        0,
        0,
        0,
        0,
        0,
        0,
        0,
        0,
        0,
        0,
        0,
        0,
        0,
        0,
        0,
        0,
        0,
        0,
        0,
        0,
        0,
        0,
        0,
        0,
        0,
        0,
        0,
        0,
        0;
        Material Material_001 {
           0.800000; 0.800000; 0.800000; 1.000000;;
           323.999994;
           0.500000; 0.500000; 0.500000;;
           0.000000; 0.000000; 0.000000;;
          TextureFilename {"perotexture.png";}
        }
      }
    }
  }
}
