xof 0303txt 0032

Frame Root {
  FrameTransformMatrix {
     1.000000, 0.000000, 0.000000, 0.000000,
     0.000000,-0.000000, 1.000000, 0.000000,
     0.000000, 1.000000, 0.000000, 0.000000,
     0.000000, 0.000000, 0.000000, 1.000000;;
  }
  Frame Cylinder {
    FrameTransformMatrix {
       1.000000, 0.000000, 0.000000, 0.000000,
       0.000000, 1.000000, 0.000000, 0.000000,
       0.000000, 0.000000, 1.000000, 0.000000,
       0.000000, 0.000000, 0.000000, 1.000000;;
    }
    Mesh {
      552;
       0.026739; 0.043960; 0.014673;,
       0.026739; 0.043960; 0.080138;,
       0.046657; 0.024043; 0.080138;,
       0.046657; 0.024043; 0.014673;,
       0.020263; 0.032743; 0.003530;,
       0.035439; 0.017567; 0.003530;,
       0.024815; 0.011432; 0.002164;,
       0.014129; 0.022119; 0.002164;,
       0.035439; 0.017567; 0.003530;,
       0.040995;-0.003165; 0.003530;,
       0.028726;-0.003165; 0.002164;,
       0.024815; 0.011432; 0.002164;,
       0.040995;-0.003165; 0.003530;,
       0.035439;-0.023897; 0.003530;,
       0.024815;-0.017763; 0.002164;,
       0.028726;-0.003165; 0.002164;,
       0.035439;-0.023897; 0.003530;,
       0.020263;-0.039074; 0.003530;,
       0.014129;-0.028449; 0.002164;,
       0.024815;-0.017763; 0.002164;,
       0.020263;-0.039074; 0.003530;,
      -0.000469;-0.044629; 0.003530;,
      -0.000469;-0.032360; 0.002164;,
       0.014129;-0.028449; 0.002164;,
      -0.000469;-0.044629; 0.003530;,
      -0.021201;-0.039074; 0.003530;,
      -0.015067;-0.028449; 0.002164;,
      -0.000469;-0.032360; 0.002164;,
      -0.021201;-0.039074; 0.003530;,
      -0.036377;-0.023897; 0.003530;,
      -0.025753;-0.017763; 0.002164;,
      -0.015067;-0.028449; 0.002164;,
      -0.036377;-0.023897; 0.003530;,
      -0.041932;-0.003165; 0.003530;,
      -0.029664;-0.003165; 0.002164;,
      -0.025753;-0.017763; 0.002164;,
      -0.041932;-0.003165; 0.003530;,
      -0.036377; 0.017567; 0.003530;,
      -0.025753; 0.011432; 0.002164;,
      -0.029664;-0.003165; 0.002164;,
       0.046657;-0.030373; 0.014673;,
       0.046657;-0.030373; 0.080138;,
       0.026739;-0.050291; 0.080138;,
       0.026739;-0.050291; 0.014673;,
      -0.036377; 0.017567; 0.003530;,
      -0.021201; 0.032743; 0.003530;,
      -0.015067; 0.022119; 0.002164;,
      -0.025753; 0.011432; 0.002164;,
      -0.021201; 0.032743; 0.003530;,
      -0.000469; 0.038298; 0.003530;,
      -0.000469; 0.026030; 0.002164;,
      -0.015067; 0.022119; 0.002164;,
      -0.054885;-0.003165; 0.014673;,
      -0.054885;-0.003165; 0.080138;,
      -0.047594; 0.024043; 0.080138;,
      -0.047594; 0.024043; 0.014673;,
       0.031159;-0.003165; 0.090708;,
       0.026921; 0.012649; 0.090708;,
       0.015092; 0.005819; 0.091461;,
       0.017500;-0.003165; 0.091461;,
       0.021203; 0.034372; 0.089528;,
      -0.000469; 0.040179; 0.089528;,
      -0.000469; 0.028462; 0.090708;,
       0.015345; 0.024225; 0.090708;,
      -0.027677; 0.043960; 0.014673;,
      -0.027677; 0.043960; 0.080138;,
      -0.000469; 0.051251; 0.080138;,
      -0.000469; 0.051251; 0.014673;,
       0.053947;-0.003165; 0.014673;,
       0.053947;-0.003165; 0.080138;,
       0.046657;-0.030373; 0.080138;,
       0.046657;-0.030373; 0.014673;,
       0.046657; 0.024043; 0.014673;,
       0.046657; 0.024043; 0.080138;,
       0.053947;-0.003165; 0.080138;,
       0.053947;-0.003165; 0.014673;,
      -0.047594; 0.024043; 0.014673;,
      -0.047594; 0.024043; 0.080138;,
      -0.027677; 0.043960; 0.080138;,
      -0.027677; 0.043960; 0.014673;,
      -0.047594;-0.030373; 0.014673;,
      -0.047594;-0.030373; 0.080138;,
      -0.054885;-0.003165; 0.080138;,
      -0.054885;-0.003165; 0.014673;,
      -0.043813;-0.003165; 0.089528;,
      -0.038006;-0.024837; 0.089528;,
      -0.027859;-0.018979; 0.090708;,
      -0.032096;-0.003165; 0.090708;,
      -0.027677;-0.050291; 0.014673;,
      -0.027677;-0.050291; 0.080138;,
      -0.047594;-0.030373; 0.080138;,
      -0.047594;-0.030373; 0.014673;,
      -0.000469;-0.057581; 0.014673;,
      -0.000469;-0.057581; 0.080138;,
      -0.027677;-0.050291; 0.080138;,
      -0.027677;-0.050291; 0.014673;,
       0.026739;-0.050291; 0.014673;,
       0.026739;-0.050291; 0.080138;,
      -0.000469;-0.057581; 0.080138;,
      -0.000469;-0.057581; 0.014673;,
       0.008515; 0.012396; 0.091461;,
      -0.000469; 0.014803; 0.091461;,
      -0.009453; 0.012396; 0.091461;,
      -0.016030; 0.005819; 0.091461;,
      -0.018438;-0.003165; 0.091461;,
      -0.016030;-0.012150; 0.091461;,
      -0.009453;-0.018726; 0.091461;,
      -0.000469;-0.021134; 0.091461;,
       0.008515;-0.018726; 0.091461;,
       0.015092;-0.012150; 0.091461;,
       0.017500;-0.003165; 0.091461;,
       0.015092; 0.005819; 0.091461;,
      -0.027859; 0.012649; 0.090708;,
      -0.032096;-0.003165; 0.090708;,
      -0.018438;-0.003165; 0.091461;,
      -0.016030; 0.005819; 0.091461;,
      -0.016283;-0.030555; 0.090708;,
      -0.000469;-0.034793; 0.090708;,
      -0.000469;-0.021134; 0.091461;,
      -0.009453;-0.018726; 0.091461;,
       0.026921;-0.018979; 0.090708;,
       0.031159;-0.003165; 0.090708;,
       0.017500;-0.003165; 0.091461;,
       0.015092;-0.012150; 0.091461;,
      -0.016283; 0.024225; 0.090708;,
      -0.027859; 0.012649; 0.090708;,
      -0.016030; 0.005819; 0.091461;,
      -0.009453; 0.012396; 0.091461;,
       0.015345; 0.024225; 0.090708;,
      -0.000469; 0.028462; 0.090708;,
      -0.000469; 0.014803; 0.091461;,
       0.008515; 0.012396; 0.091461;,
      -0.027859;-0.018979; 0.090708;,
      -0.016283;-0.030555; 0.090708;,
      -0.009453;-0.018726; 0.091461;,
      -0.016030;-0.012150; 0.091461;,
       0.015345;-0.030555; 0.090708;,
       0.026921;-0.018979; 0.090708;,
       0.015092;-0.012150; 0.091461;,
       0.008515;-0.018726; 0.091461;,
      -0.000469; 0.028462; 0.090708;,
      -0.016283; 0.024225; 0.090708;,
      -0.009453; 0.012396; 0.091461;,
      -0.000469; 0.014803; 0.091461;,
       0.026921; 0.012649; 0.090708;,
       0.015345; 0.024225; 0.090708;,
       0.008515; 0.012396; 0.091461;,
       0.015092; 0.005819; 0.091461;,
      -0.032096;-0.003165; 0.090708;,
      -0.027859;-0.018979; 0.090708;,
      -0.016030;-0.012150; 0.091461;,
      -0.018438;-0.003165; 0.091461;,
      -0.000469;-0.034793; 0.090708;,
       0.015345;-0.030555; 0.090708;,
       0.008515;-0.018726; 0.091461;,
      -0.000469;-0.021134; 0.091461;,
      -0.000469;-0.032360; 0.002164;,
      -0.015067;-0.028449; 0.002164;,
      -0.009128;-0.018163; 0.001031;,
      -0.000469;-0.020483; 0.001031;,
      -0.038006;-0.024837; 0.089528;,
      -0.022141;-0.040702; 0.089528;,
      -0.016283;-0.030555; 0.090708;,
      -0.027859;-0.018979; 0.090708;,
      -0.022141;-0.040702; 0.089528;,
      -0.000469;-0.046509; 0.089528;,
      -0.000469;-0.034793; 0.090708;,
      -0.016283;-0.030555; 0.090708;,
      -0.000469;-0.046509; 0.089528;,
       0.021203;-0.040702; 0.089528;,
       0.015345;-0.030555; 0.090708;,
      -0.000469;-0.034793; 0.090708;,
       0.021203;-0.040702; 0.089528;,
       0.037068;-0.024837; 0.089528;,
       0.026921;-0.018979; 0.090708;,
       0.015345;-0.030555; 0.090708;,
       0.037068; 0.018507; 0.089528;,
       0.021203; 0.034372; 0.089528;,
       0.015345; 0.024225; 0.090708;,
       0.026921; 0.012649; 0.090708;,
      -0.000469; 0.040179; 0.089528;,
      -0.022141; 0.034372; 0.089528;,
      -0.016283; 0.024225; 0.090708;,
      -0.000469; 0.028462; 0.090708;,
       0.037068;-0.024837; 0.089528;,
       0.042875;-0.003165; 0.089528;,
       0.031159;-0.003165; 0.090708;,
       0.026921;-0.018979; 0.090708;,
       0.042875;-0.003165; 0.089528;,
       0.037068; 0.018507; 0.089528;,
       0.026921; 0.012649; 0.090708;,
       0.031159;-0.003165; 0.090708;,
      -0.022141; 0.034372; 0.089528;,
      -0.038006; 0.018507; 0.089528;,
      -0.027859; 0.012649; 0.090708;,
      -0.016283; 0.024225; 0.090708;,
      -0.038006; 0.018507; 0.089528;,
      -0.043813;-0.003165; 0.089528;,
      -0.032096;-0.003165; 0.090708;,
      -0.027859; 0.012649; 0.090708;,
      -0.000469; 0.014152; 0.001031;,
       0.008190; 0.011832; 0.001031;,
       0.014529; 0.005494; 0.001031;,
       0.016849;-0.003165; 0.001031;,
       0.014529;-0.011824; 0.001031;,
       0.008190;-0.018163; 0.001031;,
      -0.000469;-0.020483; 0.001031;,
      -0.009128;-0.018163; 0.001031;,
      -0.015466;-0.011824; 0.001031;,
      -0.017786;-0.003165; 0.001031;,
      -0.015466; 0.005494; 0.001031;,
      -0.009128; 0.011832; 0.001031;,
       0.028726;-0.003165; 0.002164;,
       0.024815;-0.017763; 0.002164;,
       0.014529;-0.011824; 0.001031;,
       0.016849;-0.003165; 0.001031;,
      -0.025753; 0.011432; 0.002164;,
      -0.015067; 0.022119; 0.002164;,
      -0.009128; 0.011832; 0.001031;,
      -0.015466; 0.005494; 0.001031;,
      -0.000469; 0.026030; 0.002164;,
       0.014129; 0.022119; 0.002164;,
       0.008190; 0.011832; 0.001031;,
      -0.000469; 0.014152; 0.001031;,
      -0.015067;-0.028449; 0.002164;,
      -0.025753;-0.017763; 0.002164;,
      -0.015466;-0.011824; 0.001031;,
      -0.009128;-0.018163; 0.001031;,
       0.024815;-0.017763; 0.002164;,
       0.014129;-0.028449; 0.002164;,
       0.008190;-0.018163; 0.001031;,
       0.014529;-0.011824; 0.001031;,
      -0.015067; 0.022119; 0.002164;,
      -0.000469; 0.026030; 0.002164;,
      -0.000469; 0.014152; 0.001031;,
      -0.009128; 0.011832; 0.001031;,
       0.014129; 0.022119; 0.002164;,
       0.024815; 0.011432; 0.002164;,
       0.014529; 0.005494; 0.001031;,
       0.008190; 0.011832; 0.001031;,
      -0.025753;-0.017763; 0.002164;,
      -0.029664;-0.003165; 0.002164;,
      -0.017786;-0.003165; 0.001031;,
      -0.015466;-0.011824; 0.001031;,
       0.014129;-0.028449; 0.002164;,
      -0.000469;-0.032360; 0.002164;,
      -0.000469;-0.020483; 0.001031;,
       0.008190;-0.018163; 0.001031;,
       0.024815; 0.011432; 0.002164;,
       0.028726;-0.003165; 0.002164;,
       0.016849;-0.003165; 0.001031;,
       0.014529; 0.005494; 0.001031;,
      -0.029664;-0.003165; 0.002164;,
      -0.025753; 0.011432; 0.002164;,
      -0.015466; 0.005494; 0.001031;,
      -0.017786;-0.003165; 0.001031;,
      -0.000469; 0.051251; 0.014673;,
       0.026739; 0.043960; 0.014673;,
       0.025871; 0.042458; 0.009630;,
      -0.000469; 0.049515; 0.009630;,
      -0.000469; 0.049515; 0.009630;,
       0.025871; 0.042458; 0.009630;,
       0.023501; 0.038352; 0.005551;,
      -0.000469; 0.044774; 0.005551;,
      -0.000469; 0.044774; 0.005551;,
       0.023501; 0.038352; 0.005551;,
       0.020263; 0.032743; 0.003530;,
      -0.000469; 0.038298; 0.003530;,
       0.026739; 0.043960; 0.014673;,
       0.046657; 0.024043; 0.014673;,
       0.045154; 0.023175; 0.009630;,
       0.025871; 0.042458; 0.009630;,
       0.025871; 0.042458; 0.009630;,
       0.045154; 0.023175; 0.009630;,
       0.041048; 0.020805; 0.005551;,
       0.023501; 0.038352; 0.005551;,
       0.023501; 0.038352; 0.005551;,
       0.041048; 0.020805; 0.005551;,
       0.035439; 0.017567; 0.003530;,
       0.020263; 0.032743; 0.003530;,
       0.046657; 0.024043; 0.014673;,
       0.053947;-0.003165; 0.014673;,
       0.052212;-0.003165; 0.009630;,
       0.045154; 0.023175; 0.009630;,
       0.045154; 0.023175; 0.009630;,
       0.052212;-0.003165; 0.009630;,
       0.047471;-0.003165; 0.005551;,
       0.041048; 0.020805; 0.005551;,
       0.041048; 0.020805; 0.005551;,
       0.047471;-0.003165; 0.005551;,
       0.040995;-0.003165; 0.003530;,
       0.035439; 0.017567; 0.003530;,
       0.053947;-0.003165; 0.014673;,
       0.046657;-0.030373; 0.014673;,
       0.045154;-0.029505; 0.009630;,
       0.052212;-0.003165; 0.009630;,
       0.052212;-0.003165; 0.009630;,
       0.045154;-0.029505; 0.009630;,
       0.041048;-0.027135; 0.005551;,
       0.047471;-0.003165; 0.005551;,
       0.047471;-0.003165; 0.005551;,
       0.041048;-0.027135; 0.005551;,
       0.035439;-0.023897; 0.003530;,
       0.040995;-0.003165; 0.003530;,
       0.046657;-0.030373; 0.014673;,
       0.026739;-0.050291; 0.014673;,
       0.025871;-0.048788; 0.009630;,
       0.045154;-0.029505; 0.009630;,
       0.045154;-0.029505; 0.009630;,
       0.025871;-0.048788; 0.009630;,
       0.023501;-0.044682; 0.005551;,
       0.041048;-0.027135; 0.005551;,
       0.041048;-0.027135; 0.005551;,
       0.023501;-0.044682; 0.005551;,
       0.020263;-0.039074; 0.003530;,
       0.035439;-0.023897; 0.003530;,
       0.026739;-0.050291; 0.014673;,
      -0.000469;-0.057581; 0.014673;,
      -0.000469;-0.055846; 0.009630;,
       0.025871;-0.048788; 0.009630;,
       0.025871;-0.048788; 0.009630;,
      -0.000469;-0.055846; 0.009630;,
      -0.000469;-0.051105; 0.005551;,
       0.023501;-0.044682; 0.005551;,
       0.023501;-0.044682; 0.005551;,
      -0.000469;-0.051105; 0.005551;,
      -0.000469;-0.044629; 0.003530;,
       0.020263;-0.039074; 0.003530;,
      -0.000469;-0.057581; 0.014673;,
      -0.027677;-0.050291; 0.014673;,
      -0.026809;-0.048788; 0.009630;,
      -0.000469;-0.055846; 0.009630;,
      -0.000469;-0.055846; 0.009630;,
      -0.026809;-0.048788; 0.009630;,
      -0.024439;-0.044682; 0.005551;,
      -0.000469;-0.051105; 0.005551;,
      -0.000469;-0.051105; 0.005551;,
      -0.024439;-0.044682; 0.005551;,
      -0.021201;-0.039074; 0.003530;,
      -0.000469;-0.044629; 0.003530;,
      -0.027677;-0.050291; 0.014673;,
      -0.047594;-0.030373; 0.014673;,
      -0.046092;-0.029505; 0.009630;,
      -0.026809;-0.048788; 0.009630;,
      -0.026809;-0.048788; 0.009630;,
      -0.046092;-0.029505; 0.009630;,
      -0.041986;-0.027135; 0.005551;,
      -0.024439;-0.044682; 0.005551;,
      -0.024439;-0.044682; 0.005551;,
      -0.041986;-0.027135; 0.005551;,
      -0.036377;-0.023897; 0.003530;,
      -0.021201;-0.039074; 0.003530;,
      -0.047594;-0.030373; 0.014673;,
      -0.054885;-0.003165; 0.014673;,
      -0.053150;-0.003165; 0.009630;,
      -0.046092;-0.029505; 0.009630;,
      -0.046092;-0.029505; 0.009630;,
      -0.053150;-0.003165; 0.009630;,
      -0.048409;-0.003165; 0.005551;,
      -0.041986;-0.027135; 0.005551;,
      -0.041986;-0.027135; 0.005551;,
      -0.048409;-0.003165; 0.005551;,
      -0.041932;-0.003165; 0.003530;,
      -0.036377;-0.023897; 0.003530;,
      -0.054885;-0.003165; 0.014673;,
      -0.047594; 0.024043; 0.014673;,
      -0.046092; 0.023175; 0.009630;,
      -0.053150;-0.003165; 0.009630;,
      -0.053150;-0.003165; 0.009630;,
      -0.046092; 0.023175; 0.009630;,
      -0.041986; 0.020805; 0.005551;,
      -0.048409;-0.003165; 0.005551;,
      -0.048409;-0.003165; 0.005551;,
      -0.041986; 0.020805; 0.005551;,
      -0.036377; 0.017567; 0.003530;,
      -0.041932;-0.003165; 0.003530;,
      -0.047594; 0.024043; 0.014673;,
      -0.027677; 0.043960; 0.014673;,
      -0.026809; 0.042458; 0.009630;,
      -0.046092; 0.023175; 0.009630;,
      -0.046092; 0.023175; 0.009630;,
      -0.026809; 0.042458; 0.009630;,
      -0.024439; 0.038352; 0.005551;,
      -0.041986; 0.020805; 0.005551;,
      -0.041986; 0.020805; 0.005551;,
      -0.024439; 0.038352; 0.005551;,
      -0.021201; 0.032743; 0.003530;,
      -0.036377; 0.017567; 0.003530;,
      -0.027677; 0.043960; 0.014673;,
      -0.000469; 0.051251; 0.014673;,
      -0.000469; 0.049515; 0.009630;,
      -0.026809; 0.042458; 0.009630;,
      -0.026809; 0.042458; 0.009630;,
      -0.000469; 0.049515; 0.009630;,
      -0.000469; 0.044774; 0.005551;,
      -0.024439; 0.038352; 0.005551;,
      -0.024439; 0.038352; 0.005551;,
      -0.000469; 0.044774; 0.005551;,
      -0.000469; 0.038298; 0.003530;,
      -0.021201; 0.032743; 0.003530;,
      -0.000469; 0.038298; 0.003530;,
       0.020263; 0.032743; 0.003530;,
       0.014129; 0.022119; 0.002164;,
      -0.000469; 0.026030; 0.002164;,
       0.026739; 0.043960; 0.080138;,
      -0.000469; 0.051251; 0.080138;,
      -0.000469; 0.049767; 0.084425;,
       0.025997; 0.042676; 0.084425;,
       0.025997; 0.042676; 0.084425;,
      -0.000469; 0.049767; 0.084425;,
      -0.000469; 0.045715; 0.087862;,
       0.023971; 0.039166; 0.087862;,
       0.023971; 0.039166; 0.087862;,
      -0.000469; 0.045715; 0.087862;,
      -0.000469; 0.040179; 0.089528;,
       0.021203; 0.034372; 0.089528;,
       0.046657; 0.024043; 0.080138;,
       0.026739; 0.043960; 0.080138;,
       0.025997; 0.042676; 0.084425;,
       0.045372; 0.023301; 0.084425;,
       0.045372; 0.023301; 0.084425;,
       0.025997; 0.042676; 0.084425;,
       0.023971; 0.039166; 0.087862;,
       0.041862; 0.021275; 0.087862;,
       0.041862; 0.021275; 0.087862;,
       0.023971; 0.039166; 0.087862;,
       0.021203; 0.034372; 0.089528;,
       0.037068; 0.018507; 0.089528;,
       0.053947;-0.003165; 0.080138;,
       0.046657; 0.024043; 0.080138;,
       0.045372; 0.023301; 0.084425;,
       0.052464;-0.003165; 0.084425;,
       0.052464;-0.003165; 0.084425;,
       0.045372; 0.023301; 0.084425;,
       0.041862; 0.021275; 0.087862;,
       0.048411;-0.003165; 0.087862;,
       0.048411;-0.003165; 0.087862;,
       0.041862; 0.021275; 0.087862;,
       0.037068; 0.018507; 0.089528;,
       0.042875;-0.003165; 0.089528;,
       0.046657;-0.030373; 0.080138;,
       0.053947;-0.003165; 0.080138;,
       0.052464;-0.003165; 0.084425;,
       0.045372;-0.029631; 0.084425;,
       0.045372;-0.029631; 0.084425;,
       0.052464;-0.003165; 0.084425;,
       0.048411;-0.003165; 0.087862;,
       0.041862;-0.027605; 0.087862;,
       0.041862;-0.027605; 0.087862;,
       0.048411;-0.003165; 0.087862;,
       0.042875;-0.003165; 0.089528;,
       0.037068;-0.024837; 0.089528;,
       0.026739;-0.050291; 0.080138;,
       0.046657;-0.030373; 0.080138;,
       0.045372;-0.029631; 0.084425;,
       0.025997;-0.049006; 0.084425;,
       0.025997;-0.049006; 0.084425;,
       0.045372;-0.029631; 0.084425;,
       0.041862;-0.027605; 0.087862;,
       0.023971;-0.045496; 0.087862;,
       0.023971;-0.045496; 0.087862;,
       0.041862;-0.027605; 0.087862;,
       0.037068;-0.024837; 0.089528;,
       0.021203;-0.040702; 0.089528;,
      -0.000469;-0.057581; 0.080138;,
       0.026739;-0.050291; 0.080138;,
       0.025997;-0.049006; 0.084425;,
      -0.000469;-0.056098; 0.084425;,
      -0.000469;-0.056098; 0.084425;,
       0.025997;-0.049006; 0.084425;,
       0.023971;-0.045496; 0.087862;,
      -0.000469;-0.052045; 0.087862;,
      -0.000469;-0.052045; 0.087862;,
       0.023971;-0.045496; 0.087862;,
       0.021203;-0.040702; 0.089528;,
      -0.000469;-0.046509; 0.089528;,
      -0.027677;-0.050291; 0.080138;,
      -0.000469;-0.057581; 0.080138;,
      -0.000469;-0.056098; 0.084425;,
      -0.026935;-0.049006; 0.084425;,
      -0.026935;-0.049006; 0.084425;,
      -0.000469;-0.056098; 0.084425;,
      -0.000469;-0.052045; 0.087862;,
      -0.024909;-0.045496; 0.087862;,
      -0.024909;-0.045496; 0.087862;,
      -0.000469;-0.052045; 0.087862;,
      -0.000469;-0.046509; 0.089528;,
      -0.022141;-0.040702; 0.089528;,
      -0.047594;-0.030373; 0.080138;,
      -0.027677;-0.050291; 0.080138;,
      -0.026935;-0.049006; 0.084425;,
      -0.046310;-0.029631; 0.084425;,
      -0.046310;-0.029631; 0.084425;,
      -0.026935;-0.049006; 0.084425;,
      -0.024909;-0.045496; 0.087862;,
      -0.042800;-0.027605; 0.087862;,
      -0.042800;-0.027605; 0.087862;,
      -0.024909;-0.045496; 0.087862;,
      -0.022141;-0.040702; 0.089528;,
      -0.038006;-0.024837; 0.089528;,
      -0.054885;-0.003165; 0.080138;,
      -0.047594;-0.030373; 0.080138;,
      -0.046310;-0.029631; 0.084425;,
      -0.053401;-0.003165; 0.084425;,
      -0.053401;-0.003165; 0.084425;,
      -0.046310;-0.029631; 0.084425;,
      -0.042800;-0.027605; 0.087862;,
      -0.049349;-0.003165; 0.087862;,
      -0.049349;-0.003165; 0.087862;,
      -0.042800;-0.027605; 0.087862;,
      -0.038006;-0.024837; 0.089528;,
      -0.043813;-0.003165; 0.089528;,
      -0.047594; 0.024043; 0.080138;,
      -0.054885;-0.003165; 0.080138;,
      -0.053401;-0.003165; 0.084425;,
      -0.046310; 0.023301; 0.084425;,
      -0.046310; 0.023301; 0.084425;,
      -0.053401;-0.003165; 0.084425;,
      -0.049349;-0.003165; 0.087862;,
      -0.042800; 0.021275; 0.087862;,
      -0.042800; 0.021275; 0.087862;,
      -0.049349;-0.003165; 0.087862;,
      -0.043813;-0.003165; 0.089528;,
      -0.038006; 0.018507; 0.089528;,
      -0.027677; 0.043960; 0.080138;,
      -0.047594; 0.024043; 0.080138;,
      -0.046310; 0.023301; 0.084425;,
      -0.026935; 0.042676; 0.084425;,
      -0.026935; 0.042676; 0.084425;,
      -0.046310; 0.023301; 0.084425;,
      -0.042800; 0.021275; 0.087862;,
      -0.024909; 0.039166; 0.087862;,
      -0.024909; 0.039166; 0.087862;,
      -0.042800; 0.021275; 0.087862;,
      -0.038006; 0.018507; 0.089528;,
      -0.022141; 0.034372; 0.089528;,
      -0.000469; 0.051251; 0.080138;,
      -0.027677; 0.043960; 0.080138;,
      -0.026935; 0.042676; 0.084425;,
      -0.000469; 0.049767; 0.084425;,
      -0.000469; 0.049767; 0.084425;,
      -0.026935; 0.042676; 0.084425;,
      -0.024909; 0.039166; 0.087862;,
      -0.000469; 0.045715; 0.087862;,
      -0.000469; 0.045715; 0.087862;,
      -0.024909; 0.039166; 0.087862;,
      -0.022141; 0.034372; 0.089528;,
      -0.000469; 0.040179; 0.089528;,
      -0.000469; 0.051251; 0.014673;,
      -0.000469; 0.051251; 0.080138;,
       0.026739; 0.043960; 0.080138;,
       0.026739; 0.043960; 0.014673;;
      134;
      4;3,2,1,0;,
      4;7,6,5,4;,
      4;11,10,9,8;,
      4;15,14,13,12;,
      4;19,18,17,16;,
      4;23,22,21,20;,
      4;27,26,25,24;,
      4;31,30,29,28;,
      4;35,34,33,32;,
      4;39,38,37,36;,
      4;43,42,41,40;,
      4;47,46,45,44;,
      4;51,50,49,48;,
      4;55,54,53,52;,
      4;59,58,57,56;,
      4;63,62,61,60;,
      4;67,66,65,64;,
      4;71,70,69,68;,
      4;75,74,73,72;,
      4;79,78,77,76;,
      4;83,82,81,80;,
      4;87,86,85,84;,
      4;91,90,89,88;,
      4;95,94,93,92;,
      4;99,98,97,96;,
      12;111,110,109,108,107,106,105,104,103,102,101,100;,
      4;115,114,113,112;,
      4;119,118,117,116;,
      4;123,122,121,120;,
      4;127,126,125,124;,
      4;131,130,129,128;,
      4;135,134,133,132;,
      4;139,138,137,136;,
      4;143,142,141,140;,
      4;147,146,145,144;,
      4;151,150,149,148;,
      4;155,154,153,152;,
      4;159,158,157,156;,
      4;163,162,161,160;,
      4;167,166,165,164;,
      4;171,170,169,168;,
      4;175,174,173,172;,
      4;179,178,177,176;,
      4;183,182,181,180;,
      4;187,186,185,184;,
      4;191,190,189,188;,
      4;195,194,193,192;,
      4;199,198,197,196;,
      12;211,210,209,208,207,206,205,204,203,202,201,200;,
      4;215,214,213,212;,
      4;219,218,217,216;,
      4;223,222,221,220;,
      4;227,226,225,224;,
      4;231,230,229,228;,
      4;235,234,233,232;,
      4;239,238,237,236;,
      4;243,242,241,240;,
      4;247,246,245,244;,
      4;251,250,249,248;,
      4;255,254,253,252;,
      4;259,258,257,256;,
      4;263,262,261,260;,
      4;267,266,265,264;,
      4;271,270,269,268;,
      4;275,274,273,272;,
      4;279,278,277,276;,
      4;283,282,281,280;,
      4;287,286,285,284;,
      4;291,290,289,288;,
      4;295,294,293,292;,
      4;299,298,297,296;,
      4;303,302,301,300;,
      4;307,306,305,304;,
      4;311,310,309,308;,
      4;315,314,313,312;,
      4;319,318,317,316;,
      4;323,322,321,320;,
      4;327,326,325,324;,
      4;331,330,329,328;,
      4;335,334,333,332;,
      4;339,338,337,336;,
      4;343,342,341,340;,
      4;347,346,345,344;,
      4;351,350,349,348;,
      4;355,354,353,352;,
      4;359,358,357,356;,
      4;363,362,361,360;,
      4;367,366,365,364;,
      4;371,370,369,368;,
      4;375,374,373,372;,
      4;379,378,377,376;,
      4;383,382,381,380;,
      4;387,386,385,384;,
      4;391,390,389,388;,
      4;395,394,393,392;,
      4;399,398,397,396;,
      4;403,402,401,400;,
      4;407,406,405,404;,
      4;411,410,409,408;,
      4;415,414,413,412;,
      4;419,418,417,416;,
      4;423,422,421,420;,
      4;427,426,425,424;,
      4;431,430,429,428;,
      4;435,434,433,432;,
      4;439,438,437,436;,
      4;443,442,441,440;,
      4;447,446,445,444;,
      4;451,450,449,448;,
      4;455,454,453,452;,
      4;459,458,457,456;,
      4;463,462,461,460;,
      4;467,466,465,464;,
      4;471,470,469,468;,
      4;475,474,473,472;,
      4;479,478,477,476;,
      4;483,482,481,480;,
      4;487,486,485,484;,
      4;491,490,489,488;,
      4;495,494,493,492;,
      4;499,498,497,496;,
      4;503,502,501,500;,
      4;507,506,505,504;,
      4;511,510,509,508;,
      4;515,514,513,512;,
      4;519,518,517,516;,
      4;523,522,521,520;,
      4;527,526,525,524;,
      4;531,530,529,528;,
      4;535,534,533,532;,
      4;539,538,537,536;,
      4;543,542,541,540;,
      4;547,546,545,544;,
      4;551,550,549,548;;
      MeshNormals {
        134;
         0.707107; 0.707107; 0.000000;,
         0.081007; 0.081007;-0.993416;,
         0.110658; 0.029651;-0.993416;,
         0.110658;-0.029651;-0.993416;,
         0.081007;-0.081007;-0.993416;,
         0.029651;-0.110658;-0.993416;,
        -0.029651;-0.110658;-0.993416;,
        -0.081007;-0.081007;-0.993416;,
        -0.110658;-0.029651;-0.993416;,
        -0.110658; 0.029651;-0.993416;,
         0.707107;-0.707107; 0.000000;,
        -0.081007; 0.081007;-0.993416;,
        -0.029651; 0.110658;-0.993416;,
        -0.965926; 0.258819; 0.000000;,
         0.054977; 0.014731; 0.998379;,
         0.026843; 0.100179; 0.994607;,
        -0.258819; 0.965926; 0.000000;,
         0.965926;-0.258819; 0.000000;,
         0.965926; 0.258819; 0.000000;,
        -0.707107; 0.707107; 0.000000;,
        -0.965926;-0.258819; 0.000000;,
        -0.100179;-0.026843; 0.994607;,
        -0.707107;-0.707107; 0.000000;,
        -0.258819;-0.965926; 0.000000;,
         0.258819;-0.965926; 0.000000;,
         0.000000; 0.000000; 1.000000;,
        -0.054977; 0.014731; 0.998379;,
        -0.014731;-0.054977; 0.998379;,
         0.054977;-0.014731; 0.998379;,
        -0.040246; 0.040246; 0.998379;,
         0.014731; 0.054977; 0.998379;,
        -0.040246;-0.040246; 0.998379;,
         0.040246;-0.040246; 0.998379;,
        -0.014731; 0.054977; 0.998379;,
         0.040246; 0.040246; 0.998379;,
        -0.054977;-0.014731; 0.998379;,
         0.014731;-0.054977; 0.998379;,
        -0.025432;-0.094914;-0.995161;,
        -0.073336;-0.073336; 0.994607;,
        -0.026843;-0.100179; 0.994607;,
         0.026843;-0.100179; 0.994607;,
         0.073336;-0.073336; 0.994607;,
         0.073336; 0.073336; 0.994607;,
        -0.026843; 0.100179; 0.994607;,
         0.100179;-0.026843; 0.994607;,
         0.100179; 0.026843; 0.994607;,
        -0.073336; 0.073336; 0.994607;,
        -0.100179; 0.026843; 0.994607;,
        -0.000000; 0.000000;-1.000000;,
         0.094914;-0.025432;-0.995161;,
        -0.069482; 0.069482;-0.995161;,
         0.025432; 0.094914;-0.995161;,
        -0.069482;-0.069482;-0.995161;,
         0.069482;-0.069482;-0.995161;,
        -0.025432; 0.094914;-0.995161;,
         0.069482; 0.069482;-0.995161;,
        -0.094914;-0.025432;-0.995161;,
         0.025432;-0.094914;-0.995161;,
         0.094914; 0.025432;-0.995161;,
        -0.094914; 0.025432;-0.995161;,
         0.245609; 0.916626;-0.315393;,
         0.172138; 0.642429;-0.746762;,
         0.079566; 0.296945;-0.951574;,
         0.671017; 0.671017;-0.315393;,
         0.470291; 0.470290;-0.746762;,
         0.217379; 0.217379;-0.951574;,
         0.916626; 0.245609;-0.315393;,
         0.642429; 0.172138;-0.746762;,
         0.296945; 0.079566;-0.951574;,
         0.916626;-0.245609;-0.315393;,
         0.642429;-0.172138;-0.746762;,
         0.296945;-0.079566;-0.951574;,
         0.671017;-0.671017;-0.315393;,
         0.470291;-0.470291;-0.746762;,
         0.217379;-0.217379;-0.951574;,
         0.245609;-0.916626;-0.315393;,
         0.172138;-0.642429;-0.746762;,
         0.079566;-0.296945;-0.951574;,
        -0.245609;-0.916626;-0.315393;,
        -0.172138;-0.642429;-0.746762;,
        -0.079566;-0.296945;-0.951574;,
        -0.671017;-0.671017;-0.315393;,
        -0.470291;-0.470291;-0.746762;,
        -0.217379;-0.217379;-0.951574;,
        -0.916626;-0.245609;-0.315393;,
        -0.642429;-0.172138;-0.746762;,
        -0.296945;-0.079566;-0.951574;,
        -0.916626; 0.245609;-0.315393;,
        -0.642429; 0.172138;-0.746762;,
        -0.296945; 0.079566;-0.951574;,
        -0.671017; 0.671017;-0.315393;,
        -0.470291; 0.470290;-0.746762;,
        -0.217379; 0.217379;-0.951574;,
        -0.245609; 0.916626;-0.315393;,
        -0.172138; 0.642429;-0.746762;,
        -0.079566; 0.296945;-0.951574;,
         0.029651; 0.110658;-0.993416;,
         0.245471; 0.916111; 0.316994;,
         0.170766; 0.637308; 0.751450;,
         0.076996; 0.287355; 0.954725;,
         0.670639; 0.670639; 0.316994;,
         0.466542; 0.466542; 0.751450;,
         0.210358; 0.210358; 0.954724;,
         0.916111; 0.245471; 0.316994;,
         0.637308; 0.170766; 0.751450;,
         0.287355; 0.076996; 0.954725;,
         0.916110;-0.245471; 0.316995;,
         0.637308;-0.170766; 0.751450;,
         0.287355;-0.076996; 0.954725;,
         0.670639;-0.670639; 0.316995;,
         0.466542;-0.466542; 0.751450;,
         0.210358;-0.210358; 0.954724;,
         0.245471;-0.916111; 0.316994;,
         0.170766;-0.637308; 0.751450;,
         0.076996;-0.287355; 0.954725;,
        -0.245471;-0.916110; 0.316995;,
        -0.170766;-0.637308; 0.751450;,
        -0.076996;-0.287355; 0.954725;,
        -0.670639;-0.670639; 0.316995;,
        -0.466542;-0.466542; 0.751450;,
        -0.210358;-0.210358; 0.954724;,
        -0.916111;-0.245471; 0.316994;,
        -0.637308;-0.170766; 0.751450;,
        -0.287355;-0.076996; 0.954725;,
        -0.916110; 0.245471; 0.316995;,
        -0.637308; 0.170766; 0.751450;,
        -0.287355; 0.076996; 0.954725;,
        -0.670639; 0.670639; 0.316995;,
        -0.466542; 0.466542; 0.751450;,
        -0.210358; 0.210358; 0.954724;,
        -0.245471; 0.916111; 0.316994;,
        -0.170766; 0.637308; 0.751450;,
        -0.076996; 0.287355; 0.954725;,
         0.258819; 0.965926; 0.000000;;
        134;
        4;0,0,0,0;,
        4;1,1,1,1;,
        4;2,2,2,2;,
        4;3,3,3,3;,
        4;4,4,4,4;,
        4;5,5,5,5;,
        4;6,6,6,6;,
        4;7,7,7,7;,
        4;8,8,8,8;,
        4;9,9,9,9;,
        4;10,10,10,10;,
        4;11,11,11,11;,
        4;12,12,12,12;,
        4;13,13,13,13;,
        4;14,14,14,14;,
        4;15,15,15,15;,
        4;16,16,16,16;,
        4;17,17,17,17;,
        4;18,18,18,18;,
        4;19,19,19,19;,
        4;20,20,20,20;,
        4;21,21,21,21;,
        4;22,22,22,22;,
        4;23,23,23,23;,
        4;24,24,24,24;,
        12;25,25,25,25,25,25,25,25,25,25,25,25;,
        4;26,26,26,26;,
        4;27,27,27,27;,
        4;28,28,28,28;,
        4;29,29,29,29;,
        4;30,30,30,30;,
        4;31,31,31,31;,
        4;32,32,32,32;,
        4;33,33,33,33;,
        4;34,34,34,34;,
        4;35,35,35,35;,
        4;36,36,36,36;,
        4;37,37,37,37;,
        4;38,38,38,38;,
        4;39,39,39,39;,
        4;40,40,40,40;,
        4;41,41,41,41;,
        4;42,42,42,42;,
        4;43,43,43,43;,
        4;44,44,44,44;,
        4;45,45,45,45;,
        4;46,46,46,46;,
        4;47,47,47,47;,
        12;48,48,48,48,48,48,48,48,48,48,48,48;,
        4;49,49,49,49;,
        4;50,50,50,50;,
        4;51,51,51,51;,
        4;52,52,52,52;,
        4;53,53,53,53;,
        4;54,54,54,54;,
        4;55,55,55,55;,
        4;56,56,56,56;,
        4;57,57,57,57;,
        4;58,58,58,58;,
        4;59,59,59,59;,
        4;60,60,60,60;,
        4;61,61,61,61;,
        4;62,62,62,62;,
        4;63,63,63,63;,
        4;64,64,64,64;,
        4;65,65,65,65;,
        4;66,66,66,66;,
        4;67,67,67,67;,
        4;68,68,68,68;,
        4;69,69,69,69;,
        4;70,70,70,70;,
        4;71,71,71,71;,
        4;72,72,72,72;,
        4;73,73,73,73;,
        4;74,74,74,74;,
        4;75,75,75,75;,
        4;76,76,76,76;,
        4;77,77,77,77;,
        4;78,78,78,78;,
        4;79,79,79,79;,
        4;80,80,80,80;,
        4;81,81,81,81;,
        4;82,82,82,82;,
        4;83,83,83,83;,
        4;84,84,84,84;,
        4;85,85,85,85;,
        4;86,86,86,86;,
        4;87,87,87,87;,
        4;88,88,88,88;,
        4;89,89,89,89;,
        4;90,90,90,90;,
        4;91,91,91,91;,
        4;92,92,92,92;,
        4;93,93,93,93;,
        4;94,94,94,94;,
        4;95,95,95,95;,
        4;96,96,96,96;,
        4;97,97,97,97;,
        4;98,98,98,98;,
        4;99,99,99,99;,
        4;100,100,100,100;,
        4;101,101,101,101;,
        4;102,102,102,102;,
        4;103,103,103,103;,
        4;104,104,104,104;,
        4;105,105,105,105;,
        4;106,106,106,106;,
        4;107,107,107,107;,
        4;108,108,108,108;,
        4;109,109,109,109;,
        4;110,110,110,110;,
        4;111,111,111,111;,
        4;112,112,112,112;,
        4;113,113,113,113;,
        4;114,114,114,114;,
        4;115,115,115,115;,
        4;116,116,116,116;,
        4;117,117,117,117;,
        4;118,118,118,118;,
        4;119,119,119,119;,
        4;120,120,120,120;,
        4;121,121,121,121;,
        4;122,122,122,122;,
        4;123,123,123,123;,
        4;124,124,124,124;,
        4;125,125,125,125;,
        4;126,126,126,126;,
        4;127,127,127,127;,
        4;128,128,128,128;,
        4;129,129,129,129;,
        4;130,130,130,130;,
        4;131,131,131,131;,
        4;132,132,132,132;,
        4;133,133,133,133;;
      }
      MeshTextureCoords {
        552;
         0.794816; 0.534475;,
         0.794816; 0.201153;,
         0.699590; 0.201126;,
         0.699590; 0.534448;,
         0.066312; 0.534507;,
         0.138872; 0.576400;,
         0.151267; 0.530141;,
         0.100176; 0.500643;,
         0.138872; 0.576400;,
         0.222656; 0.576400;,
         0.210261; 0.530141;,
         0.151267; 0.530141;,
         0.222656; 0.576400;,
         0.295216; 0.534507;,
         0.261352; 0.500643;,
         0.210261; 0.530141;,
         0.295216; 0.534507;,
         0.337108; 0.461948;,
         0.290849; 0.449553;,
         0.261352; 0.500643;,
         0.337108; 0.461948;,
         0.337108; 0.378163;,
         0.290849; 0.390558;,
         0.290849; 0.449553;,
         0.337108; 0.378163;,
         0.295216; 0.305604;,
         0.261352; 0.339467;,
         0.290849; 0.390558;,
         0.295216; 0.305604;,
         0.222656; 0.263711;,
         0.210261; 0.309970;,
         0.261352; 0.339467;,
         0.222656; 0.263711;,
         0.138872; 0.263711;,
         0.151267; 0.309970;,
         0.210261; 0.309970;,
         0.138872; 0.263711;,
         0.066312; 0.305604;,
         0.100176; 0.339467;,
         0.151267; 0.309970;,
         0.494407; 0.534475;,
         0.494407; 0.201153;,
         0.399181; 0.201126;,
         0.399181; 0.534448;,
         0.066312; 0.305604;,
         0.024420; 0.378163;,
         0.070678; 0.390558;,
         0.100176; 0.339467;,
         0.024420; 0.378163;,
         0.024420; 0.461948;,
         0.070678; 0.449553;,
         0.070678; 0.390558;,
         0.604364; 0.953567;,
         0.604364; 0.620245;,
         0.494407; 0.620245;,
         0.494407; 0.953567;,
         0.167636; 0.681153;,
         0.112288; 0.713108;,
         0.149991; 0.750811;,
         0.181436; 0.732656;,
         0.036155; 0.756617;,
         0.036155; 0.844202;,
         0.080334; 0.832364;,
         0.080334; 0.768455;,
         1.000000; 0.534448;,
         1.000000; 0.201126;,
         0.904774; 0.201153;,
         0.904774; 0.534475;,
         0.604364; 0.534475;,
         0.604364; 0.201153;,
         0.494407; 0.201153;,
         0.494407; 0.534475;,
         0.699590; 0.534448;,
         0.699590; 0.201126;,
         0.604364; 0.201153;,
         0.604364; 0.534475;,
         0.494407; 0.953567;,
         0.494407; 0.620245;,
         0.399181; 0.620219;,
         0.399181; 0.953540;,
         0.699590; 0.953540;,
         0.699590; 0.620218;,
         0.604364; 0.620245;,
         0.604364; 0.953567;,
         0.243383; 0.963845;,
         0.319233; 0.920052;,
         0.286892; 0.887712;,
         0.231545; 0.919666;,
         0.794816; 0.953567;,
         0.794816; 0.620245;,
         0.699590; 0.620219;,
         0.699590; 0.953540;,
         0.904774; 0.953567;,
         0.904774; 0.620245;,
         0.794816; 0.620245;,
         0.794816; 0.953567;,
         1.000000; 0.953540;,
         1.000000; 0.620218;,
         0.904774; 0.620245;,
         0.904774; 0.953567;,
         0.131837; 0.782255;,
         0.131837; 0.818564;,
         0.149991; 0.850009;,
         0.181436; 0.868163;,
         0.217745; 0.868163;,
         0.249189; 0.850009;,
         0.267344; 0.818564;,
         0.267344; 0.782255;,
         0.249189; 0.750811;,
         0.217745; 0.732656;,
         0.181436; 0.732656;,
         0.149991; 0.750811;,
         0.167636; 0.919666;,
         0.231545; 0.919666;,
         0.217745; 0.868163;,
         0.181436; 0.868163;,
         0.318847; 0.832364;,
         0.318847; 0.768455;,
         0.267344; 0.782255;,
         0.267344; 0.818564;,
         0.231545; 0.681153;,
         0.167636; 0.681153;,
         0.181436; 0.732656;,
         0.217745; 0.732656;,
         0.112288; 0.887712;,
         0.167636; 0.919666;,
         0.181436; 0.868163;,
         0.149991; 0.850009;,
         0.080334; 0.768455;,
         0.080334; 0.832364;,
         0.131837; 0.818564;,
         0.131837; 0.782255;,
         0.286892; 0.887712;,
         0.318847; 0.832364;,
         0.267344; 0.818564;,
         0.249189; 0.850009;,
         0.286892; 0.713108;,
         0.231545; 0.681153;,
         0.217745; 0.732656;,
         0.249189; 0.750811;,
         0.080334; 0.832364;,
         0.112288; 0.887712;,
         0.149991; 0.850009;,
         0.131837; 0.818564;,
         0.112288; 0.713108;,
         0.080334; 0.768455;,
         0.131837; 0.782255;,
         0.149991; 0.750811;,
         0.231545; 0.919666;,
         0.286892; 0.887712;,
         0.249189; 0.850009;,
         0.217745; 0.868163;,
         0.318847; 0.768455;,
         0.286892; 0.713108;,
         0.249189; 0.750811;,
         0.267344; 0.782255;,
         0.290849; 0.390558;,
         0.261352; 0.339467;,
         0.228566; 0.372254;,
         0.246062; 0.402559;,
         0.319233; 0.920052;,
         0.363025; 0.844202;,
         0.318847; 0.832364;,
         0.286892; 0.887712;,
         0.363025; 0.844202;,
         0.363025; 0.756617;,
         0.318847; 0.768455;,
         0.318847; 0.832364;,
         0.363025; 0.756617;,
         0.319233; 0.680767;,
         0.286892; 0.713108;,
         0.318847; 0.768455;,
         0.319233; 0.680767;,
         0.243383; 0.636975;,
         0.231545; 0.681153;,
         0.286892; 0.713108;,
         0.079948; 0.680767;,
         0.036155; 0.756617;,
         0.080334; 0.768455;,
         0.112288; 0.713108;,
         0.036155; 0.844202;,
         0.079948; 0.920052;,
         0.112288; 0.887712;,
         0.080334; 0.832364;,
         0.243383; 0.636975;,
         0.155798; 0.636975;,
         0.167636; 0.681153;,
         0.231545; 0.681153;,
         0.155798; 0.636975;,
         0.079948; 0.680767;,
         0.112288; 0.713108;,
         0.167636; 0.681153;,
         0.079948; 0.920052;,
         0.155798; 0.963845;,
         0.167636; 0.919666;,
         0.112288; 0.887712;,
         0.155798; 0.963845;,
         0.243383; 0.963845;,
         0.231545; 0.919666;,
         0.167636; 0.919666;,
         0.115466; 0.437552;,
         0.132962; 0.467857;,
         0.163267; 0.485354;,
         0.198260; 0.485354;,
         0.228566; 0.467857;,
         0.246062; 0.437552;,
         0.246062; 0.402559;,
         0.228566; 0.372254;,
         0.198260; 0.354757;,
         0.163267; 0.354757;,
         0.132962; 0.372254;,
         0.115466; 0.402559;,
         0.210261; 0.530141;,
         0.261352; 0.500643;,
         0.228566; 0.467857;,
         0.198260; 0.485354;,
         0.100176; 0.339467;,
         0.070678; 0.390558;,
         0.115466; 0.402559;,
         0.132962; 0.372254;,
         0.070678; 0.449553;,
         0.100176; 0.500643;,
         0.132962; 0.467857;,
         0.115466; 0.437552;,
         0.261352; 0.339467;,
         0.210261; 0.309970;,
         0.198260; 0.354757;,
         0.228566; 0.372254;,
         0.261352; 0.500643;,
         0.290849; 0.449553;,
         0.246062; 0.437552;,
         0.228566; 0.467857;,
         0.070678; 0.390558;,
         0.070678; 0.449553;,
         0.115466; 0.437552;,
         0.115466; 0.402559;,
         0.100176; 0.500643;,
         0.151267; 0.530141;,
         0.163267; 0.485354;,
         0.132962; 0.467857;,
         0.210261; 0.309970;,
         0.151267; 0.309970;,
         0.163267; 0.354757;,
         0.198260; 0.354757;,
         0.290849; 0.449553;,
         0.290849; 0.390558;,
         0.246062; 0.402559;,
         0.246062; 0.437552;,
         0.151267; 0.530141;,
         0.210261; 0.530141;,
         0.198260; 0.485354;,
         0.163267; 0.485354;,
         0.151267; 0.309970;,
         0.100176; 0.339467;,
         0.132962; 0.372254;,
         0.163267; 0.354757;,
         0.904774; 0.534475;,
         0.794816; 0.534475;,
         0.796570; 0.560150;,
         0.903021; 0.560150;,
         0.903021; 0.560150;,
         0.796570; 0.560150;,
         0.801360; 0.580908;,
         0.898231; 0.580908;,
         0.000000; 0.468491;,
         0.048436; 0.552384;,
         0.066312; 0.534507;,
         0.024420; 0.461948;,
         0.794816; 0.534475;,
         0.699590; 0.534448;,
         0.704380; 0.560124;,
         0.796570; 0.560150;,
         0.796570; 0.560150;,
         0.704380; 0.560124;,
         0.717467; 0.580884;,
         0.801360; 0.580908;,
         0.048436; 0.552384;,
         0.132328; 0.600819;,
         0.138872; 0.576400;,
         0.066312; 0.534507;,
         0.699590; 0.534448;,
         0.604364; 0.534475;,
         0.602611; 0.560150;,
         0.694800; 0.560124;,
         0.694800; 0.560124;,
         0.602611; 0.560150;,
         0.597821; 0.580908;,
         0.681714; 0.580884;,
         0.132328; 0.600819;,
         0.229199; 0.600819;,
         0.222656; 0.576400;,
         0.138872; 0.576400;,
         0.604364; 0.534475;,
         0.494407; 0.534475;,
         0.496160; 0.560150;,
         0.602611; 0.560150;,
         0.602611; 0.560150;,
         0.496160; 0.560150;,
         0.500950; 0.580908;,
         0.597821; 0.580908;,
         0.229199; 0.600819;,
         0.313092; 0.552384;,
         0.295216; 0.534507;,
         0.222656; 0.576400;,
         0.494407; 0.534475;,
         0.399181; 0.534448;,
         0.403971; 0.560124;,
         0.496160; 0.560150;,
         0.496160; 0.560150;,
         0.403971; 0.560124;,
         0.417057; 0.580884;,
         0.500950; 0.580908;,
         0.313092; 0.552384;,
         0.361528; 0.468491;,
         0.337108; 0.461948;,
         0.295216; 0.534507;,
         1.000000; 0.953540;,
         0.904774; 0.953567;,
         0.903021; 0.979242;,
         0.995210; 0.979216;,
         0.995210; 0.979216;,
         0.903021; 0.979242;,
         0.898231; 1.000000;,
         0.982124; 0.999976;,
         0.361528; 0.468491;,
         0.361528; 0.371620;,
         0.337108; 0.378163;,
         0.337108; 0.461948;,
         0.904774; 0.953567;,
         0.794816; 0.953567;,
         0.796570; 0.979242;,
         0.903021; 0.979242;,
         0.903021; 0.979242;,
         0.796570; 0.979242;,
         0.801360; 1.000000;,
         0.898231; 1.000000;,
         0.361528; 0.371620;,
         0.313092; 0.287727;,
         0.295216; 0.305604;,
         0.337108; 0.378163;,
         0.794816; 0.953567;,
         0.699590; 0.953540;,
         0.704380; 0.979216;,
         0.796570; 0.979242;,
         0.796570; 0.979242;,
         0.704380; 0.979216;,
         0.717467; 0.999976;,
         0.801360; 1.000000;,
         0.313092; 0.287727;,
         0.229199; 0.239292;,
         0.222656; 0.263711;,
         0.295216; 0.305604;,
         0.699590; 0.953540;,
         0.604364; 0.953567;,
         0.602611; 0.979242;,
         0.694800; 0.979216;,
         0.694800; 0.979216;,
         0.602611; 0.979242;,
         0.597821; 1.000000;,
         0.681714; 0.999976;,
         0.229199; 0.239292;,
         0.132328; 0.239292;,
         0.138872; 0.263711;,
         0.222656; 0.263711;,
         0.604364; 0.953567;,
         0.494407; 0.953567;,
         0.496160; 0.979242;,
         0.602611; 0.979242;,
         0.602611; 0.979242;,
         0.496160; 0.979242;,
         0.500950; 1.000000;,
         0.597821; 1.000000;,
         0.132328; 0.239292;,
         0.048436; 0.287727;,
         0.066312; 0.305604;,
         0.138872; 0.263711;,
         0.494407; 0.953567;,
         0.399181; 0.953540;,
         0.403971; 0.979216;,
         0.496160; 0.979242;,
         0.496160; 0.979242;,
         0.403971; 0.979216;,
         0.417057; 0.999976;,
         0.500950; 1.000000;,
         0.048436; 0.287727;,
         0.000000; 0.371620;,
         0.024420; 0.378163;,
         0.066312; 0.305604;,
         1.000000; 0.534448;,
         0.904774; 0.534475;,
         0.903021; 0.560150;,
         0.995210; 0.560124;,
         0.995210; 0.560124;,
         0.903021; 0.560150;,
         0.898231; 0.580908;,
         0.982123; 0.580884;,
         0.000000; 0.371620;,
         0.000000; 0.468491;,
         0.024420; 0.461948;,
         0.024420; 0.378163;,
         0.024420; 0.461948;,
         0.066312; 0.534507;,
         0.100176; 0.500643;,
         0.070678; 0.449553;,
         0.794816; 0.201153;,
         0.904774; 0.201153;,
         0.903275; 0.179323;,
         0.796315; 0.179323;,
         0.796315; 0.179323;,
         0.903275; 0.179323;,
         0.899181; 0.161816;,
         0.800410; 0.161816;,
         0.015281; 0.751024;,
         0.015281; 0.849795;,
         0.036155; 0.844202;,
         0.036155; 0.756617;,
         0.699590; 0.201126;,
         0.794816; 0.201153;,
         0.796315; 0.179323;,
         0.703685; 0.179297;,
         0.053480; 0.654299;,
         0.000000; 0.746930;,
         0.015281; 0.751024;,
         0.064667; 0.665486;,
         0.064667; 0.665486;,
         0.015281; 0.751024;,
         0.036155; 0.756617;,
         0.079948; 0.680767;,
         0.604364; 0.201153;,
         0.699590; 0.201126;,
         0.695496; 0.179297;,
         0.602865; 0.179323;,
         0.146110; 0.600819;,
         0.053480; 0.654299;,
         0.064667; 0.665486;,
         0.150205; 0.616100;,
         0.150205; 0.616100;,
         0.064667; 0.665486;,
         0.079948; 0.680767;,
         0.155798; 0.636975;,
         0.494407; 0.201153;,
         0.604364; 0.201153;,
         0.602865; 0.179323;,
         0.495905; 0.179323;,
         0.495905; 0.179323;,
         0.602865; 0.179323;,
         0.598771; 0.161816;,
         0.500000; 0.161816;,
         0.248976; 0.616100;,
         0.150205; 0.616100;,
         0.155798; 0.636975;,
         0.243383; 0.636975;,
         0.399181; 0.201126;,
         0.494407; 0.201153;,
         0.495905; 0.179323;,
         0.403275; 0.179297;,
         0.345701; 0.654299;,
         0.253070; 0.600819;,
         0.248976; 0.616100;,
         0.334514; 0.665486;,
         0.334514; 0.665486;,
         0.248976; 0.616100;,
         0.243383; 0.636975;,
         0.319233; 0.680767;,
         0.904774; 0.620245;,
         1.000000; 0.620218;,
         0.995906; 0.598389;,
         0.903275; 0.598415;,
         0.399181; 0.746930;,
         0.345701; 0.654299;,
         0.334514; 0.665486;,
         0.383900; 0.751024;,
         0.383900; 0.751024;,
         0.334514; 0.665486;,
         0.319233; 0.680767;,
         0.363025; 0.756617;,
         0.794816; 0.620245;,
         0.904774; 0.620245;,
         0.903275; 0.598415;,
         0.796315; 0.598415;,
         0.796315; 0.598415;,
         0.903275; 0.598415;,
         0.899181; 0.580908;,
         0.800410; 0.580908;,
         0.383900; 0.849795;,
         0.383900; 0.751024;,
         0.363025; 0.756617;,
         0.363025; 0.844202;,
         0.699590; 0.620219;,
         0.794816; 0.620245;,
         0.796315; 0.598415;,
         0.703685; 0.598389;,
         0.345701; 0.946520;,
         0.399181; 0.853890;,
         0.383900; 0.849795;,
         0.334514; 0.935333;,
         0.334514; 0.935333;,
         0.383900; 0.849795;,
         0.363025; 0.844202;,
         0.319233; 0.920052;,
         0.604364; 0.620245;,
         0.699590; 0.620218;,
         0.695496; 0.598389;,
         0.602865; 0.598415;,
         0.253070; 1.000000;,
         0.345701; 0.946520;,
         0.334514; 0.935333;,
         0.248976; 0.984719;,
         0.248976; 0.984719;,
         0.334514; 0.935333;,
         0.319233; 0.920052;,
         0.243383; 0.963845;,
         0.494407; 0.620245;,
         0.604364; 0.620245;,
         0.602865; 0.598415;,
         0.495905; 0.598415;,
         0.495905; 0.598415;,
         0.602865; 0.598415;,
         0.598771; 0.580908;,
         0.500000; 0.580908;,
         0.150205; 0.984719;,
         0.248976; 0.984719;,
         0.243383; 0.963845;,
         0.155798; 0.963845;,
         0.399181; 0.620219;,
         0.494407; 0.620245;,
         0.495905; 0.598415;,
         0.403275; 0.598389;,
         0.053480; 0.946520;,
         0.146110; 1.000000;,
         0.150205; 0.984719;,
         0.064667; 0.935333;,
         0.064667; 0.935333;,
         0.150205; 0.984719;,
         0.155798; 0.963845;,
         0.079948; 0.920052;,
         0.904774; 0.201153;,
         1.000000; 0.201126;,
         0.995905; 0.179297;,
         0.903275; 0.179323;,
         0.000000; 0.853890;,
         0.053480; 0.946520;,
         0.064667; 0.935333;,
         0.015281; 0.849795;,
         0.015281; 0.849795;,
         0.064667; 0.935333;,
         0.079948; 0.920052;,
         0.036155; 0.844202;,
         0.904774; 0.534475;,
         0.904774; 0.201153;,
         0.794816; 0.201153;,
         0.794816; 0.534475;;
      }
      MeshMaterialList {
        1;
        134;
        0,
        0,
        0,
        0,
        0,
        0,
        0,
        0,
        0,
        0,
        0,
        0,
        0,
        0,
        0,
        0,
        0,
        0,
        0,
        0,
        0,
        0,
        0,
        0,
        0,
        0,
        0,
        0,
        0,
        0,
        0,
        0,
        0,
        0,
        0,
        0,
        0,
        0,
        0,
        0,
        0,
        0,
        0,
        0,
        0,
        0,
        0,
        0,
        0,
        0,
        0,
        0,
        0,
        0,
        0,
        0,
        0,
        0,
        0,
        0,
        0,
        0,
        0,
        0,
        0,
        0,
        0,
        0,
        0,
        0,
        0,
        0,
        0,
        0,
        0,
        0,
        0,
        0,
        0,
        0,
        0,
        0,
        0,
        0,
        0,
        0,
        0,
        0,
        0,
        0,
        0,
        0,
        0,
        0,
        0,
        0,
        0,
        0,
        0,
        0,
        0,
        0,
        0,
        0,
        0,
        0,
        0,
        0,
        0,
        0,
        0,
        0,
        0,
        0,
        0,
        0,
        0,
        0,
        0,
        0,
        0,
        0,
        0,
        0,
        0,
        0,
        0,
        0,
        0,
        0,
        0,
        0,
        0,
        0;
        Material Material_001 {
           0.800000; 0.800000; 0.800000; 1.000000;;
           323.999994;
           0.500000; 0.500000; 0.500000;;
           0.000000; 0.000000; 0.000000;;
          TextureFilename {"voiloktexture.png";}
        }
      }
    }
  }
}
