xof 0303txt 0032

Frame Root {
  FrameTransformMatrix {
     1.000000, 0.000000, 0.000000, 0.000000,
     0.000000,-0.000000, 1.000000, 0.000000,
     0.000000, 1.000000, 0.000000, 0.000000,
     0.000000, 0.000000, 0.000000, 1.000000;;
  }
  Frame Cube_001 {
    FrameTransformMatrix {
       1.000000, 0.000000, 0.000000, 0.000000,
       0.000000, 1.000000, 0.000000, 0.000000,
       0.000000, 0.000000, 1.000000, 0.000000,
       0.000000, 0.000000, 0.000000, 1.000000;;
    }
    Mesh { // Cube_001 mesh
      24;
      -0.037064;-0.109219;-0.010577;,
      -0.031979;-0.093850; 0.034794;,
      -0.031979; 0.093850; 0.034794;,
      -0.037064; 0.109219;-0.010577;,
      -0.037064; 0.109219;-0.010577;,
      -0.031979; 0.093850; 0.034794;,
       0.030133; 0.093850; 0.034794;,
       0.035218; 0.109219;-0.010577;,
       0.035218; 0.109219;-0.010577;,
       0.030133; 0.093850; 0.034794;,
       0.030133;-0.093850; 0.034794;,
       0.035218;-0.109219;-0.010577;,
       0.035218;-0.109219;-0.010577;,
       0.030133;-0.093850; 0.034794;,
      -0.031979;-0.093850; 0.034794;,
      -0.037064;-0.109219;-0.010577;,
      -0.037064; 0.109219;-0.010577;,
       0.035218; 0.109219;-0.010577;,
       0.035218;-0.109219;-0.010577;,
      -0.037064;-0.109219;-0.010577;,
       0.030133; 0.093850; 0.034794;,
      -0.031979; 0.093850; 0.034794;,
      -0.031979;-0.093850; 0.034794;,
       0.030133;-0.093850; 0.034794;;
      6;
      4;3,2,1,0;,
      4;7,6,5,4;,
      4;11,10,9,8;,
      4;15,14,13,12;,
      4;19,18,17,16;,
      4;23,22,21,20;;
      MeshNormals { // Cube_001 normals
        6;
        -0.993777; 0.000000; 0.111389;,
         0.000000; 0.947139; 0.320823;,
         0.993777; 0.000000; 0.111389;,
         0.000000;-0.947139; 0.320823;,
         0.000000; 0.000000;-1.000000;,
         0.000000;-0.000000; 1.000000;;
        6;
        4;0,0,0,0;,
        4;1,1,1,1;,
        4;2,2,2,2;,
        4;3,3,3,3;,
        4;4,4,4,4;,
        4;5,5,5,5;;
      } // End of Cube_001 normals
      MeshTextureCoords { // Cube_001 UV coordinates
        24;
         0.658056; 0.159800;,
         0.491192; 0.218913;,
         0.491192; 0.940887;,
         0.658055; 1.000000;,
         1.000000; 0.721974;,
         0.824920; 0.741535;,
         0.824920; 0.980439;,
         1.000000; 1.000000;,
         0.658056; 1.000000;,
         0.824920; 0.940887;,
         0.824920; 0.218913;,
         0.658056; 0.159800;,
         0.439263; 0.000000;,
         0.264183; 0.019561;,
         0.264183; 0.258466;,
         0.439263; 0.278026;,
         0.000000; 1.000000;,
         0.264183; 1.000000;,
         0.264183; 0.159800;,
         0.000000; 0.159800;,
         0.491191; 0.278026;,
         0.264183; 0.278026;,
         0.264183; 1.000000;,
         0.491191; 1.000000;;
      } // End of Cube_001 UV coordinates
      MeshMaterialList { // Cube_001 material list
        1;
        6;
        0,
        0,
        0,
        0,
        0,
        0;
        Material Material_001 {
           0.640000; 0.640000; 0.640000; 1.000000;;
           96.078431;
           0.500000; 0.500000; 0.500000;;
           0.000000; 0.000000; 0.000000;;
        }
      } // End of Cube_001 material list
    } // End of Cube_001 mesh
  } // End of Cube_001
} // End of Root
