xof 0303txt 0032

Frame Root {
  FrameTransformMatrix {
     1.000000, 0.000000, 0.000000, 0.000000,
     0.000000,-0.000000, 1.000000, 0.000000,
     0.000000, 1.000000, 0.000000, 0.000000,
     0.000000, 0.000000, 0.000000, 1.000000;;
  }
  Frame Cube {
    FrameTransformMatrix {
       1.000000, 0.000000, 0.000000, 0.000000,
       0.000000, 1.000000, 0.000000, 0.000000,
       0.000000, 0.000000, 1.000000, 0.000000,
       0.000000, 0.000000, 0.000000, 1.000000;;
    }
    Mesh {
      104;
       0.034971;-0.021526; 0.003849;,
       0.034971;-0.021526; 0.005894;,
      -0.034971;-0.021526; 0.005894;,
      -0.034971;-0.021526; 0.003849;,
       0.039075; 0.024243; 0.003849;,
       0.039075; 0.024243; 0.005894;,
       0.039075;-0.018989; 0.005894;,
       0.039075;-0.018989; 0.003849;,
      -0.034489; 0.011642; 0.005894;,
      -0.039075; 0.024243; 0.005894;,
      -0.039075;-0.018989; 0.005894;,
      -0.034971;-0.021526; 0.005894;,
      -0.034489;-0.006150; 0.005894;,
      -0.034693;-0.005218; 0.005894;,
      -0.034693; 0.010711; 0.005894;,
      -0.034489;-0.006150; 0.005894;,
      -0.034971;-0.021526; 0.005894;,
       0.034971;-0.021526; 0.005894;,
       0.039075;-0.018989; 0.005894;,
       0.039075; 0.024243; 0.005894;,
       0.034971; 0.026779; 0.005894;,
      -0.034971; 0.026779; 0.005894;,
      -0.039075; 0.024243; 0.005894;,
      -0.034489; 0.011642; 0.005894;,
      -0.031000; 0.011642; 0.005894;,
      -0.030796; 0.010711; 0.005894;,
      -0.030796;-0.005218; 0.005894;,
      -0.031000;-0.006150; 0.005894;,
      -0.039075;-0.018989; 0.003849;,
      -0.039075;-0.018989; 0.005894;,
      -0.039075; 0.024243; 0.005894;,
      -0.039075; 0.024243; 0.003849;,
      -0.034971; 0.026779; 0.003849;,
      -0.034971; 0.026779; 0.005894;,
       0.034971; 0.026779; 0.005894;,
       0.034971; 0.026779; 0.003849;,
      -0.034971;-0.021526; 0.003849;,
      -0.034971;-0.021526; 0.005894;,
      -0.039075;-0.018989; 0.005894;,
      -0.039075;-0.018989; 0.003849;,
      -0.034971; 0.026779; 0.005894;,
      -0.034971; 0.026779; 0.003849;,
      -0.039075; 0.024243; 0.003849;,
      -0.039075; 0.024243; 0.005894;,
       0.039075; 0.024243; 0.005894;,
       0.039075; 0.024243; 0.003849;,
       0.034971; 0.026779; 0.003849;,
       0.034971; 0.026779; 0.005894;,
       0.034971;-0.021526; 0.005894;,
       0.034971;-0.021526; 0.003849;,
       0.039075;-0.018989; 0.003849;,
       0.039075;-0.018989; 0.005894;,
      -0.034489;-0.006150; 0.003849;,
      -0.039075;-0.018989; 0.003849;,
      -0.039075; 0.024243; 0.003849;,
      -0.034971; 0.026779; 0.003849;,
      -0.034489; 0.011642; 0.003849;,
      -0.034693; 0.010711; 0.003849;,
      -0.034693;-0.005218; 0.003849;,
      -0.034971; 0.026779; 0.003849;,
       0.034971; 0.026779; 0.003849;,
       0.039075; 0.024243; 0.003849;,
       0.039075;-0.018989; 0.003849;,
       0.034971;-0.021526; 0.003849;,
      -0.034971;-0.021526; 0.003849;,
      -0.039075;-0.018989; 0.003849;,
      -0.034489;-0.006150; 0.003849;,
      -0.031000;-0.006150; 0.003849;,
      -0.030796;-0.005218; 0.003849;,
      -0.030796; 0.010711; 0.003849;,
      -0.031000; 0.011642; 0.003849;,
      -0.034489; 0.011642; 0.003849;,
      -0.034489;-0.006150; 0.005894;,
      -0.031000;-0.006150; 0.005894;,
      -0.031000;-0.006150; 0.003849;,
      -0.034489;-0.006150; 0.003849;,
      -0.030796;-0.005218; 0.005894;,
      -0.030796; 0.010711; 0.005894;,
      -0.030796; 0.010711; 0.003849;,
      -0.030796;-0.005218; 0.003849;,
      -0.034693; 0.010711; 0.003849;,
      -0.034693; 0.010711; 0.005894;,
      -0.034693;-0.005218; 0.005894;,
      -0.034693;-0.005218; 0.003849;,
      -0.031000; 0.011642; 0.003849;,
      -0.031000; 0.011642; 0.005894;,
      -0.034489; 0.011642; 0.005894;,
      -0.034489; 0.011642; 0.003849;,
      -0.034693;-0.005218; 0.003849;,
      -0.034693;-0.005218; 0.005894;,
      -0.034489;-0.006150; 0.005894;,
      -0.034489;-0.006150; 0.003849;,
      -0.034489; 0.011642; 0.003849;,
      -0.034489; 0.011642; 0.005894;,
      -0.034693; 0.010711; 0.005894;,
      -0.034693; 0.010711; 0.003849;,
      -0.030796; 0.010711; 0.005894;,
      -0.031000; 0.011642; 0.005894;,
      -0.031000; 0.011642; 0.003849;,
      -0.030796; 0.010711; 0.003849;,
      -0.031000;-0.006150; 0.005894;,
      -0.030796;-0.005218; 0.005894;,
      -0.030796;-0.005218; 0.003849;,
      -0.031000;-0.006150; 0.003849;;
      20;
      4;3,2,1,0;,
      4;7,6,5,4;,
      7;14,13,12,11,10,9,8;,
      13;27,26,25,24,23,22,21,20,19,18,17,16,15;,
      4;31,30,29,28;,
      4;35,34,33,32;,
      4;39,38,37,36;,
      4;43,42,41,40;,
      4;47,46,45,44;,
      4;51,50,49,48;,
      7;58,57,56,55,54,53,52;,
      13;71,70,69,68,67,66,65,64,63,62,61,60,59;,
      4;75,74,73,72;,
      4;79,78,77,76;,
      4;83,82,81,80;,
      4;87,86,85,84;,
      4;91,90,89,88;,
      4;95,94,93,92;,
      4;99,98,97,96;,
      4;103,102,101,100;;
      MeshNormals {
        20;
         0.000000;-1.000000; 0.000000;,
         1.000000;-0.000000; 0.000000;,
        -0.000000; 0.000000; 1.000000;,
         0.000000; 0.000000; 1.000000;,
        -1.000000;-0.000000; 0.000000;,
         0.000000; 1.000000; 0.000000;,
        -0.525777;-0.850623; 0.000000;,
        -0.525777; 0.850623; 0.000000;,
         0.525777; 0.850623; 0.000000;,
         0.525777;-0.850623; 0.000000;,
         0.000000; 0.000000;-1.000000;,
         0.000000; 0.000000;-1.000000;,
         0.000000; 1.000000;-0.000000;,
        -1.000000; 0.000000; 0.000000;,
         1.000000;-0.000000; 0.000000;,
         0.000000;-1.000000; 0.000000;,
         0.976844; 0.213951; 0.000000;,
         0.976844;-0.213951; 0.000000;,
        -0.976845;-0.213949; 0.000000;,
        -0.976845; 0.213949; 0.000000;;
        20;
        4;0,0,0,0;,
        4;1,1,1,1;,
        7;2,2,2,2,2,2,2;,
        13;3,3,3,3,3,3,3,3,3,3,3,3,3;,
        4;4,4,4,4;,
        4;5,5,5,5;,
        4;6,6,6,6;,
        4;7,7,7,7;,
        4;8,8,8,8;,
        4;9,9,9,9;,
        7;10,10,10,10,10,10,10;,
        13;11,11,11,11,11,11,11,11,11,11,11,11,11;,
        4;12,12,12,12;,
        4;13,13,13,13;,
        4;14,14,14,14;,
        4;15,15,15,15;,
        4;16,16,16,16;,
        4;17,17,17,17;,
        4;18,18,18,18;,
        4;19,19,19,19;;
      }
      MeshTextureCoords {
        104;
         0.657990; 0.236873;,
         0.907990; 0.236873;,
         0.907990; 0.013127;,
         0.657990; 0.013127;,
         0.669922; 0.883357;,
         0.919922; 0.883357;,
         0.919922; 0.659611;,
         0.669922; 0.659611;,
         0.948691; 0.421656;,
         0.963361; 0.486873;,
         0.963361; 0.263127;,
         0.950234; 0.250000;,
         0.948691; 0.329578;,
         0.949343; 0.334397;,
         0.949343; 0.416837;,
         0.897534; 0.329578;,
         0.899078; 0.250000;,
         0.675332; 0.250000;,
         0.662205; 0.263127;,
         0.662205; 0.486873;,
         0.675332; 0.500000;,
         0.899078; 0.500000;,
         0.912205; 0.486873;,
         0.897534; 0.421656;,
         0.886373; 0.421656;,
         0.885721; 0.416837;,
         0.885721; 0.334397;,
         0.886374; 0.329578;,
         0.108366; 0.986873;,
         0.358366; 0.986873;,
         0.358366; 0.763127;,
         0.108366; 0.763127;,
         0.116117; 0.736873;,
         0.366117; 0.736873;,
         0.366117; 0.513127;,
         0.116117; 0.513127;,
         0.375000; 0.979847;,
         0.625000; 0.979847;,
         0.625000; 0.966720;,
         0.375000; 0.966720;,
         0.642052; 0.736873;,
         0.392052; 0.736873;,
         0.392052; 0.763127;,
         0.642052; 0.763127;,
         0.667969; 0.570857;,
         0.417969; 0.570857;,
         0.417969; 0.597111;,
         0.667969; 0.597111;,
         0.625000; 0.441951;,
         0.375000; 0.441951;,
         0.375000; 0.468205;,
         0.625000; 0.468205;,
         0.215630; 0.332678;,
         0.200960; 0.266227;,
         0.200960; 0.489973;,
         0.214087; 0.503100;,
         0.215630; 0.424756;,
         0.214978; 0.419937;,
         0.214978; 0.337497;,
         0.038914; 0.258169;,
         0.262660; 0.258169;,
         0.275787; 0.245042;,
         0.275787; 0.021296;,
         0.262660; 0.008169;,
         0.038914; 0.008169;,
         0.025787; 0.021296;,
         0.040458; 0.087747;,
         0.051619; 0.087747;,
         0.052271; 0.092566;,
         0.052271; 0.175007;,
         0.051619; 0.179825;,
         0.040458; 0.179825;,
         0.535883; 0.013083;,
         0.535883; 0.236916;,
         0.461786; 0.236916;,
         0.461786; 0.013084;,
         0.358148; 0.263083;,
         0.358148; 0.486916;,
         0.284051; 0.486916;,
         0.284051; 0.263083;,
         0.009128; 0.763084;,
         0.083225; 0.763083;,
         0.083225; 0.986916;,
         0.009128; 0.986916;,
         0.024630; 0.513084;,
         0.098727; 0.513084;,
         0.098727; 0.736916;,
         0.024630; 0.736916;,
         0.461786; 0.921808;,
         0.535883; 0.921808;,
         0.535883; 0.934892;,
         0.461785; 0.934892;,
         0.461785; 0.845430;,
         0.535883; 0.845430;,
         0.535883; 0.871597;,
         0.461785; 0.871597;,
         0.535883; 0.522073;,
         0.535883; 0.548240;,
         0.461785; 0.548240;,
         0.461786; 0.522073;,
         0.535883; 0.385354;,
         0.535883; 0.411521;,
         0.461785; 0.411521;,
         0.461786; 0.385354;;
      }
      MeshMaterialList {
        1;
        20;
        0,
        0,
        0,
        0,
        0,
        0,
        0,
        0,
        0,
        0,
        0,
        0,
        568,
        568,
        568,
        568,
        568,
        568,
        568,
        568;
        Material Material_001 {
           0.800000; 0.800000; 0.800000; 1.000000;;
           323.999994;
           0.500000; 0.500000; 0.500000;;
           0.000000; 0.000000; 0.000000;;
        }
      }
    }
  }
}
