xof 0303txt 0032

Frame Root {
  FrameTransformMatrix {
     1.000000, 0.000000, 0.000000, 0.000000,
     0.000000,-0.000000, 1.000000, 0.000000,
     0.000000, 1.000000, 0.000000, 0.000000,
     0.000000, 0.000000, 0.000000, 1.000000;;
  }
  Frame MetalFlask_x_Root_Cylinder {
    FrameTransformMatrix {
       1.000000, 0.000000, 0.000000, 0.000000,
       0.000000, 1.000000, 0.000000, 0.000000,
       0.000000, 0.000000, 1.000000, 0.000000,
       0.000000, 0.000000, 0.000000, 1.000000;;
    }
    Mesh {
      544;
       0.001334; 0.046893;-0.027514;,
      -0.004145; 0.048376;-0.027540;,
      -0.004145; 0.048376; 0.074220;,
       0.001334; 0.046893; 0.074247;,
       0.007327; 0.042565;-0.027461;,
       0.001334; 0.046893;-0.027514;,
       0.001334; 0.046893; 0.074247;,
       0.007327; 0.042565; 0.074299;,
       0.013497; 0.035635;-0.027381;,
       0.007327; 0.042565;-0.027461;,
       0.007327; 0.042565; 0.074299;,
       0.013497; 0.035635; 0.074380;,
       0.019214; 0.026546;-0.027280;,
       0.013497; 0.035635;-0.027381;,
       0.013497; 0.035635; 0.074380;,
       0.019214; 0.026547; 0.074480;,
       0.023552; 0.015929;-0.027187;,
       0.019214; 0.026546;-0.027280;,
       0.019214; 0.026547; 0.074480;,
       0.023552; 0.015929; 0.074573;,
       0.025517; 0.004535;-0.027144;,
       0.023552; 0.015929;-0.027187;,
       0.023552; 0.015929; 0.074573;,
       0.025517; 0.004535; 0.074616;,
       0.025517;-0.007055;-0.027144;,
       0.025517; 0.004535;-0.027144;,
       0.025517; 0.004535; 0.074616;,
       0.025517;-0.007055; 0.074616;,
       0.023571;-0.018170;-0.027187;,
       0.025517;-0.007055;-0.027144;,
       0.025517;-0.007055; 0.074616;,
       0.023571;-0.018170; 0.074573;,
       0.019329;-0.028089;-0.027280;,
       0.023571;-0.018170;-0.027187;,
       0.023571;-0.018170; 0.074573;,
       0.019329;-0.028089; 0.074480;,
       0.013758;-0.036370;-0.027380;,
       0.019329;-0.028089;-0.027280;,
       0.019329;-0.028089; 0.074480;,
       0.013758;-0.036370; 0.074380;,
       0.007718;-0.042625;-0.027461;,
       0.013758;-0.036370;-0.027380;,
       0.013758;-0.036370; 0.074380;,
       0.007718;-0.042625; 0.074299;,
       0.001814;-0.046528;-0.027513;,
       0.007718;-0.042625;-0.027461;,
       0.007718;-0.042625; 0.074299;,
       0.001814;-0.046528; 0.074247;,
      -0.003589;-0.047849;-0.027540;,
       0.001814;-0.046528;-0.027513;,
       0.001814;-0.046528; 0.074247;,
      -0.003589;-0.047849; 0.074221;,
      -0.007548;-0.046621;-0.027512;,
      -0.003589;-0.047849;-0.027540;,
      -0.003589;-0.047849; 0.074221;,
      -0.007548;-0.046621; 0.074248;,
      -0.010155;-0.042847;-0.027459;,
      -0.007548;-0.046621;-0.027512;,
      -0.007548;-0.046621; 0.074248;,
      -0.010155;-0.042847; 0.074301;,
      -0.011014;-0.036786;-0.027376;,
      -0.010155;-0.042847;-0.027459;,
      -0.010155;-0.042847; 0.074301;,
      -0.011014;-0.036786; 0.074384;,
      -0.010222;-0.028766;-0.027274;,
      -0.011014;-0.036786;-0.027376;,
      -0.011014;-0.036786; 0.074384;,
      -0.010222;-0.028766; 0.074486;,
      -0.008678;-0.019117;-0.027178;,
      -0.010222;-0.028766;-0.027274;,
      -0.010222;-0.028766; 0.074486;,
      -0.008678;-0.019117; 0.074582;,
      -0.008095;-0.008146;-0.027136;,
      -0.008678;-0.019117;-0.027178;,
      -0.008678;-0.019117; 0.074582;,
      -0.008095;-0.008146; 0.074625;,
      -0.008095; 0.003444;-0.027136;,
      -0.008095;-0.008146;-0.027136;,
      -0.008095;-0.008146; 0.074625;,
      -0.008095; 0.003444; 0.074625;,
      -0.008727; 0.014985;-0.027178;,
      -0.008095; 0.003444;-0.027136;,
      -0.008095; 0.003444; 0.074625;,
      -0.008727; 0.014985; 0.074582;,
      -0.010461; 0.025886;-0.027274;,
      -0.008727; 0.014985;-0.027178;,
      -0.008727; 0.014985; 0.074582;,
      -0.010461; 0.025886; 0.074486;,
      -0.011464; 0.035244;-0.027377;,
      -0.010461; 0.025886;-0.027274;,
      -0.010461; 0.025886; 0.074486;,
      -0.011464; 0.035244; 0.074384;,
      -0.010720; 0.042365;-0.027460;,
      -0.011464; 0.035244;-0.027377;,
      -0.011464; 0.035244; 0.074384;,
      -0.010720; 0.042365; 0.074300;,
       0.007327; 0.042565; 0.074299;,
       0.001334; 0.046893; 0.074247;,
      -0.004145; 0.048376; 0.074220;,
      -0.008128; 0.046814; 0.074247;,
      -0.010720; 0.042365; 0.074300;,
      -0.011464; 0.035244; 0.074384;,
      -0.010461; 0.025886; 0.074486;,
      -0.008727; 0.014985; 0.074582;,
      -0.008095; 0.003444; 0.074625;,
      -0.008095;-0.008146; 0.074625;,
      -0.008678;-0.019117; 0.074582;,
      -0.010222;-0.028766; 0.074486;,
      -0.011014;-0.036786; 0.074384;,
      -0.010155;-0.042847; 0.074301;,
      -0.007548;-0.046621; 0.074248;,
      -0.003589;-0.047849; 0.074221;,
       0.001814;-0.046528; 0.074247;,
       0.007718;-0.042625; 0.074299;,
       0.013758;-0.036370; 0.074380;,
       0.019329;-0.028089; 0.074480;,
       0.023571;-0.018170; 0.074573;,
       0.025517;-0.007055; 0.074616;,
       0.025517; 0.004535; 0.074616;,
       0.023552; 0.015929; 0.074573;,
       0.019214; 0.026547; 0.074480;,
       0.013497; 0.035635; 0.074380;,
      -0.008128; 0.046814;-0.027513;,
      -0.010720; 0.042365;-0.027460;,
      -0.010720; 0.042365; 0.074300;,
      -0.008128; 0.046814; 0.074247;,
      -0.004145; 0.048376;-0.027540;,
      -0.008128; 0.046814;-0.027513;,
      -0.008128; 0.046814; 0.074247;,
      -0.004145; 0.048376; 0.074220;,
      -0.008128; 0.046814;-0.027513;,
      -0.004145; 0.048376;-0.027540;,
       0.001334; 0.046893;-0.027514;,
       0.007327; 0.042565;-0.027461;,
       0.013497; 0.035635;-0.027381;,
       0.019214; 0.026546;-0.027280;,
       0.023552; 0.015929;-0.027187;,
       0.025517; 0.004535;-0.027144;,
       0.025517;-0.007055;-0.027144;,
       0.023571;-0.018170;-0.027187;,
       0.019329;-0.028089;-0.027280;,
       0.013758;-0.036370;-0.027380;,
       0.007718;-0.042625;-0.027461;,
       0.001814;-0.046528;-0.027513;,
      -0.003589;-0.047849;-0.027540;,
      -0.007548;-0.046621;-0.027512;,
      -0.010155;-0.042847;-0.027459;,
      -0.011014;-0.036786;-0.027376;,
      -0.010222;-0.028766;-0.027274;,
      -0.008678;-0.019117;-0.027178;,
      -0.008095;-0.008146;-0.027136;,
      -0.008095; 0.003444;-0.027136;,
      -0.008727; 0.014985;-0.027178;,
      -0.010461; 0.025886;-0.027274;,
      -0.011464; 0.035244;-0.027377;,
      -0.010720; 0.042365;-0.027460;,
       0.017798; 0.004405; 0.096775;,
       0.017798; 0.004405; 0.089638;,
       0.016622; 0.006645; 0.089638;,
       0.016622; 0.006645; 0.096775;,
      -0.001829; 0.004405; 0.089638;,
      -0.000544; 0.003918; 0.088651;,
      -0.001070; 0.001784; 0.088651;,
      -0.002434; 0.001948; 0.089638;,
       0.010168; 0.009540; 0.070407;,
       0.007985; 0.009805; 0.070407;,
       0.007985; 0.009805; 0.088651;,
       0.010168; 0.009540; 0.088651;,
       0.012862; 0.009977; 0.096775;,
       0.012862; 0.009977; 0.089638;,
       0.010497; 0.010874; 0.089638;,
       0.010497; 0.010874; 0.096775;,
      -0.001829;-0.003038; 0.089638;,
      -0.000544;-0.002551; 0.088651;,
       0.000478;-0.004498; 0.088651;,
      -0.000653;-0.005278; 0.089638;,
       0.012224; 0.008761; 0.070407;,
       0.010168; 0.009540; 0.070407;,
       0.010168; 0.009540; 0.088651;,
       0.012224; 0.008761; 0.088651;,
       0.012862;-0.008610; 0.096775;,
       0.012862;-0.008610; 0.089638;,
       0.014945;-0.007172; 0.089638;,
       0.014945;-0.007172; 0.096775;,
       0.003107;-0.008610; 0.089638;,
       0.003746;-0.007394; 0.088651;,
       0.005801;-0.008173; 0.088651;,
       0.005473;-0.009507; 0.089638;,
       0.014034; 0.007512; 0.070407;,
       0.012224; 0.008761; 0.070407;,
       0.012224; 0.008761; 0.088651;,
       0.014034; 0.007512; 0.088651;,
       0.005473;-0.009507; 0.096775;,
       0.005473;-0.009507; 0.089638;,
       0.007985;-0.009812; 0.089638;,
       0.007985;-0.009812; 0.096775;,
       0.010497;-0.009507; 0.089638;,
       0.010168;-0.008173; 0.088651;,
       0.012224;-0.007394; 0.088651;,
       0.012862;-0.008610; 0.089638;,
       0.015492; 0.005865; 0.070407;,
       0.014034; 0.007512; 0.070407;,
       0.014034; 0.007512; 0.088651;,
       0.015492; 0.005865; 0.088651;,
      -0.000653;-0.005278; 0.096775;,
      -0.000653;-0.005278; 0.089638;,
       0.001024;-0.007172; 0.089638;,
       0.001024;-0.007172; 0.096775;,
       0.016622;-0.005278; 0.089638;,
       0.015492;-0.004498; 0.088651;,
       0.016514;-0.002551; 0.088651;,
       0.017798;-0.003038; 0.089638;,
       0.016514; 0.003918; 0.070407;,
       0.015492; 0.005865; 0.070407;,
       0.015492; 0.005865; 0.088651;,
       0.016514; 0.003918; 0.088651;,
      -0.002434; 0.001948; 0.096775;,
      -0.002434; 0.001948; 0.089638;,
      -0.002434;-0.000581; 0.089638;,
      -0.002434;-0.000581; 0.096775;,
       0.018404; 0.001948; 0.089638;,
       0.017040; 0.001784; 0.088651;,
       0.016514; 0.003918; 0.088651;,
       0.017798; 0.004405; 0.089638;,
       0.017040; 0.001784; 0.070407;,
       0.016514; 0.003918; 0.070407;,
       0.016514; 0.003918; 0.088651;,
       0.017040; 0.001784; 0.088651;,
       0.001024; 0.008540; 0.096775;,
       0.001024; 0.008540; 0.089638;,
      -0.000653; 0.006645; 0.089638;,
      -0.000653; 0.006645; 0.096775;,
       0.014945; 0.008540; 0.089638;,
       0.014034; 0.007512; 0.088651;,
       0.012224; 0.008761; 0.088651;,
       0.012862; 0.009977; 0.089638;,
       0.017040;-0.000415; 0.070407;,
       0.017040; 0.001784; 0.070407;,
       0.017040; 0.001784; 0.088651;,
       0.017040;-0.000415; 0.088651;,
       0.010497; 0.010874; 0.096775;,
       0.010497; 0.010874; 0.089638;,
       0.007985; 0.011179; 0.089638;,
       0.007985; 0.011179; 0.096775;,
       0.005473; 0.010874; 0.089638;,
       0.005801; 0.009540; 0.088651;,
       0.003746; 0.008761; 0.088651;,
       0.003107; 0.009977; 0.089638;,
       0.016514;-0.002551; 0.070407;,
       0.017040;-0.000415; 0.070407;,
       0.017040;-0.000415; 0.088651;,
       0.016514;-0.002551; 0.088651;,
       0.016622; 0.006645; 0.096775;,
       0.016622; 0.006645; 0.089638;,
       0.014945; 0.008540; 0.089638;,
       0.014945; 0.008540; 0.096775;,
      -0.000653; 0.006645; 0.089638;,
       0.000478; 0.005865; 0.088651;,
      -0.000544; 0.003918; 0.088651;,
      -0.001829; 0.004405; 0.089638;,
       0.015492;-0.004498; 0.070407;,
       0.016514;-0.002551; 0.070407;,
       0.016514;-0.002551; 0.088651;,
       0.015492;-0.004498; 0.088651;,
       0.018404;-0.000581; 0.096775;,
       0.018404;-0.000581; 0.089638;,
       0.018404; 0.001948; 0.089638;,
       0.018404; 0.001948; 0.096775;,
      -0.002434;-0.000581; 0.089638;,
      -0.001070;-0.000415; 0.088651;,
      -0.000544;-0.002551; 0.088651;,
      -0.001829;-0.003038; 0.089638;,
       0.014034;-0.006144; 0.070407;,
       0.015492;-0.004498; 0.070407;,
       0.015492;-0.004498; 0.088651;,
       0.014034;-0.006144; 0.088651;,
       0.014945;-0.007172; 0.096775;,
       0.014945;-0.007172; 0.089638;,
       0.016622;-0.005278; 0.089638;,
       0.016622;-0.005278; 0.096775;,
       0.001024;-0.007172; 0.089638;,
       0.001936;-0.006144; 0.088651;,
       0.003746;-0.007394; 0.088651;,
       0.003107;-0.008610; 0.089638;,
       0.012224;-0.007394; 0.070407;,
       0.014034;-0.006144; 0.070407;,
       0.014034;-0.006144; 0.088651;,
       0.012224;-0.007394; 0.088651;,
       0.007985;-0.009812; 0.096775;,
       0.007985;-0.009812; 0.089638;,
       0.010497;-0.009507; 0.089638;,
       0.010497;-0.009507; 0.096775;,
       0.007985;-0.009812; 0.089638;,
       0.007985;-0.008438; 0.088651;,
       0.010168;-0.008173; 0.088651;,
       0.010497;-0.009507; 0.089638;,
       0.010168;-0.008173; 0.070407;,
       0.012224;-0.007394; 0.070407;,
       0.012224;-0.007394; 0.088651;,
       0.010168;-0.008173; 0.088651;,
       0.001024;-0.007172; 0.096775;,
       0.001024;-0.007172; 0.089638;,
       0.003107;-0.008610; 0.089638;,
       0.003107;-0.008610; 0.096775;,
       0.014945;-0.007172; 0.089638;,
       0.014034;-0.006144; 0.088651;,
       0.015492;-0.004498; 0.088651;,
       0.016622;-0.005278; 0.089638;,
       0.007985;-0.008438; 0.070407;,
       0.010168;-0.008173; 0.070407;,
       0.010168;-0.008173; 0.088651;,
       0.007985;-0.008438; 0.088651;,
      -0.002434;-0.000581; 0.096775;,
      -0.002434;-0.000581; 0.089638;,
      -0.001829;-0.003038; 0.089638;,
      -0.001829;-0.003038; 0.096775;,
       0.018404;-0.000581; 0.089638;,
       0.017040;-0.000415; 0.088651;,
       0.017040; 0.001784; 0.088651;,
       0.018404; 0.001948; 0.089638;,
       0.005801;-0.008173; 0.070407;,
       0.007985;-0.008438; 0.070407;,
       0.007985;-0.008438; 0.088651;,
       0.005801;-0.008173; 0.088651;,
      -0.000653; 0.006645; 0.096775;,
      -0.000653; 0.006645; 0.089638;,
      -0.001829; 0.004405; 0.089638;,
      -0.001829; 0.004405; 0.096775;,
       0.016622; 0.006645; 0.089638;,
       0.015492; 0.005865; 0.088651;,
       0.014034; 0.007512; 0.088651;,
       0.014945; 0.008540; 0.089638;,
       0.003746;-0.007394; 0.070407;,
       0.005801;-0.008173; 0.070407;,
       0.005801;-0.008173; 0.088651;,
       0.003746;-0.007394; 0.088651;,
       0.005473; 0.010874; 0.096775;,
       0.005473; 0.010874; 0.089638;,
       0.003107; 0.009977; 0.089638;,
       0.003107; 0.009977; 0.096775;,
       0.010497; 0.010874; 0.089638;,
       0.010168; 0.009540; 0.088651;,
       0.007985; 0.009805; 0.088651;,
       0.007985; 0.011179; 0.089638;,
       0.001936;-0.006144; 0.070407;,
       0.003746;-0.007394; 0.070407;,
       0.003746;-0.007394; 0.088651;,
       0.001936;-0.006144; 0.088651;,
       0.014945; 0.008540; 0.096775;,
       0.014945; 0.008540; 0.089638;,
       0.012862; 0.009977; 0.089638;,
       0.012862; 0.009977; 0.096775;,
       0.001024; 0.008540; 0.089638;,
       0.001936; 0.007512; 0.088651;,
       0.000478; 0.005865; 0.088651;,
      -0.000653; 0.006645; 0.089638;,
       0.000478;-0.004498; 0.070407;,
       0.001936;-0.006144; 0.070407;,
       0.001936;-0.006144; 0.088651;,
       0.000478;-0.004498; 0.088651;,
       0.018404; 0.001948; 0.096775;,
       0.018404; 0.001948; 0.089638;,
       0.017798; 0.004405; 0.089638;,
       0.017798; 0.004405; 0.096775;,
      -0.002434; 0.001948; 0.089638;,
      -0.001070; 0.001784; 0.088651;,
      -0.001070;-0.000415; 0.088651;,
      -0.002434;-0.000581; 0.089638;,
      -0.000544;-0.002551; 0.070407;,
       0.000478;-0.004498; 0.070407;,
       0.000478;-0.004498; 0.088651;,
      -0.000544;-0.002551; 0.088651;,
       0.016622;-0.005278; 0.096775;,
       0.016622;-0.005278; 0.089638;,
       0.017798;-0.003038; 0.089638;,
       0.017798;-0.003038; 0.096775;,
      -0.000653;-0.005278; 0.089638;,
       0.000478;-0.004498; 0.088651;,
       0.001936;-0.006144; 0.088651;,
       0.001024;-0.007172; 0.089638;,
      -0.001070;-0.000415; 0.070407;,
      -0.000544;-0.002551; 0.070407;,
      -0.000544;-0.002551; 0.088651;,
      -0.001070;-0.000415; 0.088651;,
       0.010497;-0.009507; 0.096775;,
       0.010497;-0.009507; 0.089638;,
       0.012862;-0.008610; 0.089638;,
       0.012862;-0.008610; 0.096775;,
       0.005473;-0.009507; 0.089638;,
       0.005801;-0.008173; 0.088651;,
       0.007985;-0.008438; 0.088651;,
       0.007985;-0.009812; 0.089638;,
      -0.001070; 0.001784; 0.070407;,
      -0.001070;-0.000415; 0.070407;,
      -0.001070;-0.000415; 0.088651;,
      -0.001070; 0.001784; 0.088651;,
       0.003107;-0.008610; 0.096775;,
       0.003107;-0.008610; 0.089638;,
       0.005473;-0.009507; 0.089638;,
       0.005473;-0.009507; 0.096775;,
       0.012862;-0.008610; 0.089638;,
       0.012224;-0.007394; 0.088651;,
       0.014034;-0.006144; 0.088651;,
       0.014945;-0.007172; 0.089638;,
      -0.000544; 0.003918; 0.070407;,
      -0.001070; 0.001784; 0.070407;,
      -0.001070; 0.001784; 0.088651;,
      -0.000544; 0.003918; 0.088651;,
      -0.001829;-0.003038; 0.096775;,
      -0.001829;-0.003038; 0.089638;,
      -0.000653;-0.005278; 0.089638;,
      -0.000653;-0.005278; 0.096775;,
       0.017798;-0.003038; 0.089638;,
       0.016514;-0.002551; 0.088651;,
       0.017040;-0.000415; 0.088651;,
       0.018404;-0.000581; 0.089638;,
       0.000478; 0.005865; 0.070407;,
      -0.000544; 0.003918; 0.070407;,
      -0.000544; 0.003918; 0.088651;,
       0.000478; 0.005865; 0.088651;,
       0.007985; 0.011179; 0.096775;,
       0.007985; 0.011179; 0.089638;,
       0.005473; 0.010874; 0.089638;,
       0.005473; 0.010874; 0.096775;,
       0.017798; 0.004405; 0.089638;,
       0.016514; 0.003918; 0.088651;,
       0.015492; 0.005865; 0.088651;,
       0.016622; 0.006645; 0.089638;,
       0.001936; 0.007512; 0.070407;,
       0.000478; 0.005865; 0.070407;,
       0.000478; 0.005865; 0.088651;,
       0.001936; 0.007512; 0.088651;,
       0.012862; 0.009977; 0.096775;,
       0.010497; 0.010874; 0.096775;,
       0.007985; 0.011179; 0.096775;,
       0.005473; 0.010874; 0.096775;,
       0.003107; 0.009977; 0.096775;,
       0.001024; 0.008540; 0.096775;,
      -0.000653; 0.006645; 0.096775;,
      -0.001829; 0.004405; 0.096775;,
      -0.002434; 0.001948; 0.096775;,
      -0.002434;-0.000581; 0.096775;,
      -0.001829;-0.003038; 0.096775;,
      -0.000653;-0.005278; 0.096775;,
       0.001024;-0.007172; 0.096775;,
       0.003107;-0.008610; 0.096775;,
       0.005473;-0.009507; 0.096775;,
       0.007985;-0.009812; 0.096775;,
       0.010497;-0.009507; 0.096775;,
       0.012862;-0.008610; 0.096775;,
       0.014945;-0.007172; 0.096775;,
       0.016622;-0.005278; 0.096775;,
       0.017798;-0.003038; 0.096775;,
       0.018404;-0.000581; 0.096775;,
       0.018404; 0.001948; 0.096775;,
       0.017798; 0.004405; 0.096775;,
       0.016622; 0.006645; 0.096775;,
       0.014945; 0.008540; 0.096775;,
       0.012862; 0.009977; 0.089638;,
       0.012224; 0.008761; 0.088651;,
       0.010168; 0.009540; 0.088651;,
       0.010497; 0.010874; 0.089638;,
       0.003746; 0.008761; 0.070407;,
       0.001936; 0.007512; 0.070407;,
       0.001936; 0.007512; 0.088651;,
       0.003746; 0.008761; 0.088651;,
       0.007985; 0.011179; 0.089638;,
       0.007985; 0.009805; 0.088651;,
       0.005801; 0.009540; 0.088651;,
       0.005473; 0.010874; 0.089638;,
      -0.001829; 0.004405; 0.096775;,
      -0.001829; 0.004405; 0.089638;,
      -0.002434; 0.001948; 0.089638;,
      -0.002434; 0.001948; 0.096775;,
       0.005801; 0.009540; 0.070407;,
       0.003746; 0.008761; 0.070407;,
       0.003746; 0.008761; 0.088651;,
       0.005801; 0.009540; 0.088651;,
       0.017798;-0.003038; 0.096775;,
       0.017798;-0.003038; 0.089638;,
       0.018404;-0.000581; 0.089638;,
       0.018404;-0.000581; 0.096775;,
       0.003107; 0.009977; 0.089638;,
       0.003746; 0.008761; 0.088651;,
       0.001936; 0.007512; 0.088651;,
       0.001024; 0.008540; 0.089638;,
       0.007985; 0.009805; 0.070407;,
       0.005801; 0.009540; 0.070407;,
       0.005801; 0.009540; 0.088651;,
       0.007985; 0.009805; 0.088651;,
       0.005801; 0.009540; 0.070407;,
       0.007985; 0.009805; 0.070407;,
       0.010168; 0.009540; 0.070407;,
       0.012224; 0.008761; 0.070407;,
       0.014034; 0.007512; 0.070407;,
       0.015492; 0.005865; 0.070407;,
       0.016514; 0.003918; 0.070407;,
       0.017040; 0.001784; 0.070407;,
       0.017040;-0.000415; 0.070407;,
       0.016514;-0.002551; 0.070407;,
       0.015492;-0.004498; 0.070407;,
       0.014034;-0.006144; 0.070407;,
       0.012224;-0.007394; 0.070407;,
       0.010168;-0.008173; 0.070407;,
       0.007985;-0.008438; 0.070407;,
       0.005801;-0.008173; 0.070407;,
       0.003746;-0.007394; 0.070407;,
       0.001936;-0.006144; 0.070407;,
       0.000478;-0.004498; 0.070407;,
      -0.000544;-0.002551; 0.070407;,
      -0.001070;-0.000415; 0.070407;,
      -0.001070; 0.001784; 0.070407;,
      -0.000544; 0.003918; 0.070407;,
       0.000478; 0.005865; 0.070407;,
       0.001936; 0.007512; 0.070407;,
       0.003746; 0.008761; 0.070407;,
       0.003107; 0.009977; 0.096775;,
       0.003107; 0.009977; 0.089638;,
       0.001024; 0.008540; 0.089638;,
       0.001024; 0.008540; 0.096775;,
       0.002583;-0.001770; 0.087800;,
      -0.003696;-0.033290; 0.070697;,
      -0.003833;-0.034376; 0.072750;,
       0.002446;-0.002858; 0.089853;,
       0.011013;-0.003311; 0.087545;,
       0.002583;-0.001770; 0.087800;,
       0.002446;-0.002858; 0.089853;,
       0.010876;-0.004399; 0.089598;,
       0.004735;-0.034831; 0.070443;,
       0.011013;-0.003311; 0.087545;,
       0.010876;-0.004399; 0.089598;,
       0.004598;-0.035917; 0.072496;,
      -0.003696;-0.033290; 0.070697;,
       0.004735;-0.034831; 0.070443;,
       0.004598;-0.035917; 0.072496;,
      -0.003833;-0.034376; 0.072750;,
      -0.003696;-0.033290; 0.070697;,
       0.002583;-0.001770; 0.087800;,
       0.011013;-0.003311; 0.087545;,
       0.004735;-0.034831; 0.070443;,
       0.004598;-0.035917; 0.072496;,
       0.010876;-0.004399; 0.089598;,
       0.002446;-0.002858; 0.089853;,
      -0.003833;-0.034376; 0.072750;;
      114;
      4;3,2,1,0;,
      4;7,6,5,4;,
      4;11,10,9,8;,
      4;15,14,13,12;,
      4;19,18,17,16;,
      4;23,22,21,20;,
      4;27,26,25,24;,
      4;31,30,29,28;,
      4;35,34,33,32;,
      4;39,38,37,36;,
      4;43,42,41,40;,
      4;47,46,45,44;,
      4;51,50,49,48;,
      4;55,54,53,52;,
      4;59,58,57,56;,
      4;63,62,61,60;,
      4;67,66,65,64;,
      4;71,70,69,68;,
      4;75,74,73,72;,
      4;79,78,77,76;,
      4;83,82,81,80;,
      4;87,86,85,84;,
      4;91,90,89,88;,
      4;95,94,93,92;,
      26;121,120,119,118,117,116,115,114,113,112,111,110,109,108,107,106,105,104,103,102,101,100,99,98,97,96;,
      4;125,124,123,122;,
      4;129,128,127,126;,
      26;155,154,153,152,151,150,149,148,147,146,145,144,143,142,141,140,139,138,137,136,135,134,133,132,131,130;,
      4;159,158,157,156;,
      4;163,162,161,160;,
      4;167,166,165,164;,
      4;171,170,169,168;,
      4;175,174,173,172;,
      4;179,178,177,176;,
      4;183,182,181,180;,
      4;187,186,185,184;,
      4;191,190,189,188;,
      4;195,194,193,192;,
      4;199,198,197,196;,
      4;203,202,201,200;,
      4;207,206,205,204;,
      4;211,210,209,208;,
      4;215,214,213,212;,
      4;219,218,217,216;,
      4;223,222,221,220;,
      4;227,226,225,224;,
      4;231,230,229,228;,
      4;235,234,233,232;,
      4;239,238,237,236;,
      4;243,242,241,240;,
      4;247,246,245,244;,
      4;251,250,249,248;,
      4;255,254,253,252;,
      4;259,258,257,256;,
      4;263,262,261,260;,
      4;267,266,265,264;,
      4;271,270,269,268;,
      4;275,274,273,272;,
      4;279,278,277,276;,
      4;283,282,281,280;,
      4;287,286,285,284;,
      4;291,290,289,288;,
      4;295,294,293,292;,
      4;299,298,297,296;,
      4;303,302,301,300;,
      4;307,306,305,304;,
      4;311,310,309,308;,
      4;315,314,313,312;,
      4;319,318,317,316;,
      4;323,322,321,320;,
      4;327,326,325,324;,
      4;331,330,329,328;,
      4;335,334,333,332;,
      4;339,338,337,336;,
      4;343,342,341,340;,
      4;347,346,345,344;,
      4;351,350,349,348;,
      4;355,354,353,352;,
      4;359,358,357,356;,
      4;363,362,361,360;,
      4;367,366,365,364;,
      4;371,370,369,368;,
      4;375,374,373,372;,
      4;379,378,377,376;,
      4;383,382,381,380;,
      4;387,386,385,384;,
      4;391,390,389,388;,
      4;395,394,393,392;,
      4;399,398,397,396;,
      4;403,402,401,400;,
      4;407,406,405,404;,
      4;411,410,409,408;,
      4;415,414,413,412;,
      4;419,418,417,416;,
      4;423,422,421,420;,
      4;427,426,425,424;,
      4;431,430,429,428;,
      26;457,456,455,454,453,452,451,450,449,448,447,446,445,444,443,442,441,440,439,438,437,436,435,434,433,432;,
      4;461,460,459,458;,
      4;465,464,463,462;,
      4;469,468,467,466;,
      4;473,472,471,470;,
      4;477,476,475,474;,
      4;481,480,479,478;,
      4;485,484,483,482;,
      4;489,488,487,486;,
      26;515,514,513,512,511,510,509,508,507,506,505,504,503,502,501,500,499,498,497,496,495,494,493,492,491,490;,
      4;519,518,517,516;,
      4;523,522,521,520;,
      4;527,526,525,524;,
      4;531,530,529,528;,
      4;535,534,533,532;,
      4;539,538,537,536;,
      4;543,542,541,540;;
      MeshNormals {
        544;
         0.261299; 0.965239; 0.000000;,
         0.261299; 0.965239; 0.000000;,
         0.261299; 0.965239; 0.000000;,
         0.261299; 0.965239; 0.000000;,
         0.585376; 0.810724; 0.000000;,
         0.585376; 0.810724; 0.000000;,
         0.585376; 0.810724; 0.000000;,
         0.585376; 0.810724; 0.000000;,
         0.746879; 0.664937; 0.000000;,
         0.746879; 0.664937; 0.000000;,
         0.746879; 0.664937; 0.000000;,
         0.746879; 0.664937; 0.000000;,
         0.846431; 0.532487; 0.000000;,
         0.846431; 0.532487; 0.000000;,
         0.846431; 0.532487; 0.000000;,
         0.846431; 0.532487; 0.000000;,
         0.925718; 0.378185; 0.000000;,
         0.925718; 0.378185; 0.000000;,
         0.925718; 0.378185; 0.000000;,
         0.925718; 0.378185; 0.000000;,
         0.985443; 0.169927; 0.000000;,
         0.985443; 0.169927; 0.000000;,
         0.985443; 0.169927; 0.000000;,
         0.985443; 0.169927; 0.000000;,
         1.000000; 0.000000; 0.000000;,
         1.000000; 0.000000; 0.000000;,
         1.000000; 0.000000; 0.000000;,
         1.000000; 0.000000; 0.000000;,
         0.985015;-0.172430; 0.000000;,
         0.985015;-0.172430; 0.000000;,
         0.985015;-0.172430; 0.000000;,
         0.985015;-0.172430; 0.000000;,
         0.919401;-0.393231; 0.000000;,
         0.919401;-0.393231; 0.000000;,
         0.919401;-0.393231; 0.000000;,
         0.919401;-0.393231; 0.000000;,
         0.829737;-0.558123; 0.000000;,
         0.829737;-0.558123; 0.000000;,
         0.829737;-0.558123; 0.000000;,
         0.829737;-0.558123; 0.000000;,
         0.719291;-0.694662; 0.000000;,
         0.719291;-0.694662; 0.000000;,
         0.719291;-0.694662; 0.000000;,
         0.719291;-0.694662; 0.000000;,
         0.551530;-0.834132; 0.000000;,
         0.551530;-0.834132; 0.000000;,
         0.551530;-0.834132; 0.000000;,
         0.551530;-0.834132; 0.000000;,
         0.237434;-0.971374; 0.000000;,
         0.237434;-0.971374; 0.000000;,
         0.237434;-0.971374; 0.000000;,
         0.237434;-0.971374; 0.000000;,
        -0.296213;-0.955107; 0.000000;,
        -0.296213;-0.955107; 0.000000;,
        -0.296213;-0.955107; 0.000000;,
        -0.296213;-0.955107; 0.000000;,
        -0.822718;-0.568407; 0.000000;,
        -0.822718;-0.568407; 0.000000;,
        -0.822718;-0.568407; 0.000000;,
        -0.822718;-0.568407; 0.000000;,
        -0.990112;-0.140172; 0.000000;,
        -0.990112;-0.140172; 0.000000;,
        -0.990112;-0.140172; 0.000000;,
        -0.990112;-0.140172; 0.000000;,
        -0.995148; 0.098148; 0.000000;,
        -0.995148; 0.098148; 0.000000;,
        -0.995148; 0.098148; 0.000000;,
        -0.995148; 0.098148; 0.000000;,
        -0.987426; 0.158055; 0.000000;,
        -0.987426; 0.158055; 0.000000;,
        -0.987426; 0.158055; 0.000000;,
        -0.987426; 0.158055; 0.000000;,
        -0.998566; 0.053011; 0.000000;,
        -0.998566; 0.053011; 0.000000;,
        -0.998566; 0.053011; 0.000000;,
        -0.998566; 0.053011; 0.000000;,
        -1.000000; 0.000000; 0.000000;,
        -1.000000; 0.000000; 0.000000;,
        -1.000000; 0.000000; 0.000000;,
        -1.000000; 0.000000; 0.000000;,
        -0.998474;-0.054689; 0.000000;,
        -0.998474;-0.054689; 0.000000;,
        -0.998474;-0.054689; 0.000000;,
        -0.998474;-0.054689; 0.000000;,
        -0.987579;-0.157079; 0.000000;,
        -0.987579;-0.157079; 0.000000;,
        -0.987579;-0.157079; 0.000000;,
        -0.987579;-0.157079; 0.000000;,
        -0.994293;-0.106540; 0.000000;,
        -0.994293;-0.106540; 0.000000;,
        -0.994293;-0.106540; 0.000000;,
        -0.994293;-0.106540; 0.000000;,
        -0.994568; 0.103885; 0.000000;,
        -0.994568; 0.103885; 0.000000;,
        -0.994568; 0.103885; 0.000000;,
        -0.994568; 0.103885; 0.000000;,
         0.000214; 0.000000; 1.000000;,
         0.000214; 0.000000; 1.000000;,
         0.000214; 0.000000; 1.000000;,
         0.000214; 0.000000; 1.000000;,
         0.000214; 0.000000; 0.999969;,
         0.000214; 0.000000; 1.000000;,
         0.000214; 0.000000; 1.000000;,
         0.000214; 0.000000; 1.000000;,
         0.000214; 0.000000; 1.000000;,
         0.000214; 0.000000; 1.000000;,
         0.000214; 0.000000; 1.000000;,
         0.000214; 0.000000; 1.000000;,
         0.000214; 0.000000; 1.000000;,
         0.000214; 0.000000; 1.000000;,
         0.000214; 0.000000; 1.000000;,
         0.000214; 0.000000; 1.000000;,
         0.000214; 0.000000; 1.000000;,
         0.000214; 0.000000; 0.999969;,
         0.000214; 0.000000; 1.000000;,
         0.000214; 0.000000; 1.000000;,
         0.000214; 0.000000; 0.999969;,
         0.000214; 0.000000; 1.000000;,
         0.000214; 0.000000; 1.000000;,
         0.000214; 0.000000; 1.000000;,
         0.000214; 0.000000; 1.000000;,
         0.000214; 0.000000; 1.000000;,
        -0.864009; 0.503433; 0.000000;,
        -0.864009; 0.503433; 0.000000;,
        -0.864009; 0.503433; 0.000000;,
        -0.864009; 0.503433; 0.000000;,
        -0.365062; 0.930967; 0.000000;,
        -0.365062; 0.930967; 0.000000;,
        -0.365062; 0.930967; 0.000000;,
        -0.365062; 0.930967; 0.000000;,
        -0.000183; 0.000000;-1.000000;,
        -0.000183; 0.000000;-0.999969;,
        -0.000183; 0.000000;-0.999969;,
        -0.000183; 0.000000;-1.000000;,
        -0.000183; 0.000000;-0.999969;,
        -0.000183; 0.000000;-1.000000;,
        -0.000183; 0.000000;-1.000000;,
        -0.000183; 0.000000;-1.000000;,
        -0.000183; 0.000000;-1.000000;,
        -0.000183; 0.000000;-0.999969;,
        -0.000183; 0.000000;-1.000000;,
        -0.000183; 0.000000;-1.000000;,
        -0.000183; 0.000000;-0.999969;,
        -0.000183; 0.000000;-0.999969;,
        -0.000183; 0.000000;-0.999969;,
        -0.000183; 0.000000;-0.999969;,
        -0.000183; 0.000000;-1.000000;,
        -0.000183; 0.000000;-1.000000;,
        -0.000183; 0.000000;-1.000000;,
        -0.000183; 0.000000;-1.000000;,
        -0.000183; 0.000000;-1.000000;,
        -0.000183; 0.000000;-1.000000;,
        -0.000183; 0.000000;-1.000000;,
        -0.000183; 0.000000;-1.000000;,
        -0.000183; 0.000000;-1.000000;,
        -0.000183; 0.000000;-1.000000;,
         0.885403; 0.464797; 0.000000;,
         0.885403; 0.464797; 0.000000;,
         0.885403; 0.464797; 0.000000;,
         0.885403; 0.464797; 0.000000;,
        -0.568865; 0.140172;-0.810358;,
        -0.568865; 0.140172;-0.810358;,
        -0.568865; 0.140172;-0.810358;,
        -0.568865; 0.140172;-0.810358;,
         0.120457; 0.992706; 0.000000;,
         0.120457; 0.992706; 0.000000;,
         0.120457; 0.992706; 0.000000;,
         0.120457; 0.992706; 0.000000;,
         0.354625; 0.934996; 0.000000;,
         0.354625; 0.934996; 0.000000;,
         0.354625; 0.934996; 0.000000;,
         0.354625; 0.934996; 0.000000;,
        -0.518754;-0.272256;-0.810389;,
        -0.518754;-0.272256;-0.810389;,
        -0.518754;-0.272256;-0.810389;,
        -0.518754;-0.272256;-0.810389;,
         0.354320; 0.935087; 0.000000;,
         0.354320; 0.935087; 0.000000;,
         0.354320; 0.935087; 0.000000;,
         0.354320; 0.935087; 0.000000;,
         0.568041;-0.822993; 0.000000;,
         0.568041;-0.822993; 0.000000;,
         0.568041;-0.822993; 0.000000;,
         0.568041;-0.822993; 0.000000;,
        -0.207770;-0.548051;-0.810205;,
        -0.207770;-0.548051;-0.810205;,
        -0.207770;-0.548051;-0.810205;,
        -0.207770;-0.548051;-0.810205;,
         0.568072; 0.822962; 0.000000;,
         0.568072; 0.822962; 0.000000;,
         0.568072; 0.822962; 0.000000;,
         0.568072; 0.822962; 0.000000;,
        -0.120457;-0.992706; 0.000000;,
        -0.120457;-0.992706; 0.000000;,
        -0.120457;-0.992706; 0.000000;,
        -0.120457;-0.992706; 0.000000;,
         0.207770;-0.548051;-0.810205;,
         0.207770;-0.548051;-0.810205;,
         0.207770;-0.548051;-0.810205;,
         0.207770;-0.548051;-0.810205;,
         0.748589; 0.662984; 0.000000;,
         0.748589; 0.662984; 0.000000;,
         0.748589; 0.662984; 0.000000;,
         0.748589; 0.662984; 0.000000;,
        -0.748589;-0.662984; 0.000000;,
        -0.748589;-0.662984; 0.000000;,
        -0.748589;-0.662984; 0.000000;,
        -0.748589;-0.662984; 0.000000;,
         0.518998;-0.272408;-0.810175;,
         0.518998;-0.272408;-0.810175;,
         0.518998;-0.272408;-0.810175;,
         0.518998;-0.272408;-0.810175;,
         0.885464; 0.464675; 0.000000;,
         0.885464; 0.464675; 0.000000;,
         0.885464; 0.464675; 0.000000;,
         0.885464; 0.464675; 0.000000;,
        -1.000000; 0.000000; 0.000000;,
        -1.000000; 0.000000; 0.000000;,
        -1.000000; 0.000000; 0.000000;,
        -1.000000; 0.000000; 0.000000;,
         0.568987; 0.140324;-0.810266;,
         0.568987; 0.140324;-0.810266;,
         0.568987; 0.140324;-0.810266;,
         0.568987; 0.140324;-0.810266;,
         0.970916; 0.239357; 0.000000;,
         0.970916; 0.239357; 0.000000;,
         0.970916; 0.239357; 0.000000;,
         0.970916; 0.239357; 0.000000;,
        -0.748589; 0.662984; 0.000000;,
        -0.748589; 0.662984; 0.000000;,
        -0.748589; 0.662984; 0.000000;,
        -0.748589; 0.662984; 0.000000;,
         0.333018; 0.482437;-0.810144;,
         0.333018; 0.482437;-0.810144;,
         0.333018; 0.482437;-0.810144;,
         0.333018; 0.482437;-0.810144;,
         1.000000; 0.000000; 0.000000;,
         1.000000; 0.000000; 0.000000;,
         1.000000; 0.000000; 0.000000;,
         1.000000; 0.000000; 0.000000;,
         0.120457; 0.992706; 0.000000;,
         0.120457; 0.992706; 0.000000;,
         0.120457; 0.992706; 0.000000;,
         0.120457; 0.992706; 0.000000;,
        -0.207770; 0.548051;-0.810205;,
        -0.207770; 0.548051;-0.810205;,
        -0.207770; 0.548051;-0.810205;,
        -0.207770; 0.548051;-0.810205;,
         0.970946;-0.239235; 0.000000;,
         0.970946;-0.239235; 0.000000;,
         0.970946;-0.239235; 0.000000;,
         0.970946;-0.239235; 0.000000;,
         0.748589; 0.662984; 0.000000;,
         0.748589; 0.662984; 0.000000;,
         0.748589; 0.662984; 0.000000;,
         0.748589; 0.662984; 0.000000;,
        -0.518723; 0.272256;-0.810389;,
        -0.518723; 0.272256;-0.810389;,
        -0.518723; 0.272256;-0.810389;,
        -0.518723; 0.272256;-0.810389;,
         0.885464;-0.464675; 0.000000;,
         0.885464;-0.464675; 0.000000;,
         0.885464;-0.464675; 0.000000;,
         0.885464;-0.464675; 0.000000;,
         1.000000; 0.000000; 0.000000;,
         1.000000; 0.000000; 0.000000;,
         1.000000; 0.000000; 0.000000;,
         1.000000; 0.000000; 0.000000;,
        -0.568834;-0.140110;-0.810389;,
        -0.568834;-0.140110;-0.810389;,
        -0.568834;-0.140110;-0.810389;,
        -0.568834;-0.140110;-0.810389;,
         0.748375;-0.663259; 0.000000;,
         0.748375;-0.663259; 0.000000;,
         0.748375;-0.663259; 0.000000;,
         0.748375;-0.663259; 0.000000;,
         0.748589;-0.662984; 0.000000;,
         0.748589;-0.662984; 0.000000;,
         0.748589;-0.662984; 0.000000;,
         0.748589;-0.662984; 0.000000;,
        -0.332896;-0.482223;-0.810297;,
        -0.332896;-0.482223;-0.810297;,
        -0.332896;-0.482223;-0.810297;,
        -0.332896;-0.482223;-0.810297;,
         0.568438;-0.822687; 0.000000;,
         0.568438;-0.822687; 0.000000;,
         0.568438;-0.822687; 0.000000;,
         0.568438;-0.822687; 0.000000;,
         0.120457;-0.992706; 0.000000;,
         0.120457;-0.992706; 0.000000;,
         0.120457;-0.992706; 0.000000;,
         0.120457;-0.992706; 0.000000;,
         0.070589;-0.581805;-0.810236;,
         0.070589;-0.581805;-0.810236;,
         0.070589;-0.581805;-0.810236;,
         0.070589;-0.581805;-0.810236;,
         0.354320;-0.935087; 0.000000;,
         0.354320;-0.935087; 0.000000;,
         0.354320;-0.935087; 0.000000;,
         0.354320;-0.935087; 0.000000;,
        -0.568041;-0.822993; 0.000000;,
        -0.568041;-0.822993; 0.000000;,
        -0.568041;-0.822993; 0.000000;,
        -0.568041;-0.822993; 0.000000;,
         0.438673;-0.388623;-0.810236;,
         0.438673;-0.388623;-0.810236;,
         0.438673;-0.388623;-0.810236;,
         0.438673;-0.388623;-0.810236;,
         0.120457;-0.992706; 0.000000;,
         0.120457;-0.992706; 0.000000;,
         0.120457;-0.992706; 0.000000;,
         0.120457;-0.992706; 0.000000;,
        -0.970977;-0.239113; 0.000000;,
        -0.970977;-0.239113; 0.000000;,
        -0.970977;-0.239113; 0.000000;,
        -0.970977;-0.239113; 0.000000;,
         0.585925; 0.000000;-0.810358;,
         0.585925; 0.000000;-0.810358;,
         0.585925; 0.000000;-0.810358;,
         0.585925; 0.000000;-0.810358;,
        -0.120396;-0.992706; 0.000000;,
        -0.120396;-0.992706; 0.000000;,
        -0.120396;-0.992706; 0.000000;,
        -0.120396;-0.992706; 0.000000;,
        -0.885403; 0.464797; 0.000000;,
        -0.885403; 0.464797; 0.000000;,
        -0.885403; 0.464797; 0.000000;,
        -0.885403; 0.464797; 0.000000;,
         0.438795; 0.388623;-0.810175;,
         0.438795; 0.388623;-0.810175;,
         0.438795; 0.388623;-0.810175;,
         0.438795; 0.388623;-0.810175;,
        -0.354503;-0.935026; 0.000000;,
        -0.354503;-0.935026; 0.000000;,
        -0.354503;-0.935026; 0.000000;,
        -0.354503;-0.935026; 0.000000;,
        -0.354472; 0.935057; 0.000000;,
        -0.354472; 0.935057; 0.000000;,
        -0.354472; 0.935057; 0.000000;,
        -0.354472; 0.935057; 0.000000;,
         0.070589; 0.581805;-0.810236;,
         0.070589; 0.581805;-0.810236;,
         0.070589; 0.581805;-0.810236;,
         0.070589; 0.581805;-0.810236;,
        -0.568194;-0.822871; 0.000000;,
        -0.568194;-0.822871; 0.000000;,
        -0.568194;-0.822871; 0.000000;,
        -0.568194;-0.822871; 0.000000;,
         0.568041; 0.822993; 0.000000;,
         0.568041; 0.822993; 0.000000;,
         0.568041; 0.822993; 0.000000;,
         0.568041; 0.822993; 0.000000;,
        -0.438795; 0.388470;-0.810266;,
        -0.438795; 0.388470;-0.810266;,
        -0.438795; 0.388470;-0.810266;,
        -0.438795; 0.388470;-0.810266;,
        -0.748619;-0.662954; 0.000000;,
        -0.748619;-0.662954; 0.000000;,
        -0.748619;-0.662954; 0.000000;,
        -0.748619;-0.662954; 0.000000;,
         0.970855; 0.239570; 0.000000;,
         0.970855; 0.239570; 0.000000;,
         0.970855; 0.239570; 0.000000;,
         0.970855; 0.239570; 0.000000;,
        -0.585925; 0.000000;-0.810358;,
        -0.585925; 0.000000;-0.810358;,
        -0.585925; 0.000000;-0.810358;,
        -0.585925; 0.000000;-0.810358;,
        -0.885464;-0.464675; 0.000000;,
        -0.885464;-0.464675; 0.000000;,
        -0.885464;-0.464675; 0.000000;,
        -0.885464;-0.464675; 0.000000;,
         0.885403;-0.464797; 0.000000;,
         0.885403;-0.464797; 0.000000;,
         0.885403;-0.464797; 0.000000;,
         0.885403;-0.464797; 0.000000;,
        -0.438643;-0.388470;-0.810327;,
        -0.438643;-0.388470;-0.810327;,
        -0.438643;-0.388470;-0.810327;,
        -0.438643;-0.388470;-0.810327;,
        -0.970946;-0.239235; 0.000000;,
        -0.970946;-0.239235; 0.000000;,
        -0.970946;-0.239235; 0.000000;,
        -0.970946;-0.239235; 0.000000;,
         0.354625;-0.934996; 0.000000;,
         0.354625;-0.934996; 0.000000;,
         0.354625;-0.934996; 0.000000;,
         0.354625;-0.934996; 0.000000;,
        -0.070589;-0.581835;-0.810205;,
        -0.070589;-0.581835;-0.810205;,
        -0.070589;-0.581835;-0.810205;,
        -0.070589;-0.581835;-0.810205;,
        -1.000000; 0.000000; 0.000000;,
        -1.000000; 0.000000; 0.000000;,
        -1.000000; 0.000000; 0.000000;,
        -1.000000; 0.000000; 0.000000;,
        -0.354472;-0.935057; 0.000000;,
        -0.354472;-0.935057; 0.000000;,
        -0.354472;-0.935057; 0.000000;,
        -0.354472;-0.935057; 0.000000;,
         0.333018;-0.482253;-0.810236;,
         0.333018;-0.482253;-0.810236;,
         0.333018;-0.482253;-0.810236;,
         0.333018;-0.482253;-0.810236;,
        -0.970916; 0.239357; 0.000000;,
        -0.970916; 0.239357; 0.000000;,
        -0.970916; 0.239357; 0.000000;,
        -0.970916; 0.239357; 0.000000;,
        -0.885403;-0.464797; 0.000000;,
        -0.885403;-0.464797; 0.000000;,
        -0.885403;-0.464797; 0.000000;,
        -0.885403;-0.464797; 0.000000;,
         0.568957;-0.140294;-0.810297;,
         0.568957;-0.140294;-0.810297;,
         0.568957;-0.140294;-0.810297;,
         0.568957;-0.140294;-0.810297;,
        -0.885464; 0.464675; 0.000000;,
        -0.885464; 0.464675; 0.000000;,
        -0.885464; 0.464675; 0.000000;,
        -0.885464; 0.464675; 0.000000;,
        -0.120457; 0.992706; 0.000000;,
        -0.120457; 0.992706; 0.000000;,
        -0.120457; 0.992706; 0.000000;,
        -0.120457; 0.992706; 0.000000;,
         0.518998; 0.272408;-0.810175;,
         0.518998; 0.272408;-0.810175;,
         0.518998; 0.272408;-0.810175;,
         0.518998; 0.272408;-0.810175;,
        -0.748863; 0.662679; 0.000000;,
        -0.748863; 0.662679; 0.000000;,
        -0.748863; 0.662679; 0.000000;,
        -0.748863; 0.662679; 0.000000;,
         0.000000; 0.000000; 1.000000;,
         0.000000; 0.000000; 1.000000;,
         0.000000; 0.000000; 1.000000;,
         0.000000; 0.000000; 1.000000;,
         0.000000; 0.000000; 1.000000;,
         0.000000; 0.000000; 1.000000;,
         0.000000; 0.000000; 0.999969;,
         0.000000; 0.000000; 0.999969;,
         0.000000; 0.000000; 1.000000;,
         0.000000; 0.000000; 1.000000;,
         0.000000; 0.000000; 1.000000;,
         0.000000; 0.000000; 1.000000;,
         0.000000; 0.000000; 0.999969;,
         0.000000; 0.000000; 1.000000;,
         0.000000; 0.000000; 1.000000;,
         0.000000; 0.000000; 1.000000;,
         0.000000; 0.000000; 1.000000;,
         0.000000; 0.000000; 0.999969;,
         0.000000; 0.000000; 1.000000;,
         0.000000; 0.000000; 1.000000;,
         0.000000; 0.000000; 0.999969;,
         0.000000; 0.000000; 1.000000;,
         0.000000; 0.000000; 1.000000;,
         0.000000; 0.000000; 1.000000;,
         0.000000; 0.000000; 0.999969;,
         0.000000; 0.000000; 1.000000;,
         0.207770; 0.548051;-0.810205;,
         0.207770; 0.548051;-0.810205;,
         0.207770; 0.548051;-0.810205;,
         0.207770; 0.548051;-0.810205;,
        -0.567827; 0.823115; 0.000000;,
        -0.567827; 0.823115; 0.000000;,
        -0.567827; 0.823115; 0.000000;,
        -0.567827; 0.823115; 0.000000;,
        -0.070589; 0.581835;-0.810205;,
        -0.070589; 0.581835;-0.810205;,
        -0.070589; 0.581835;-0.810205;,
        -0.070589; 0.581835;-0.810205;,
        -0.970977; 0.239113; 0.000000;,
        -0.970977; 0.239113; 0.000000;,
        -0.970977; 0.239113; 0.000000;,
        -0.970977; 0.239113; 0.000000;,
        -0.354503; 0.935026; 0.000000;,
        -0.354503; 0.935026; 0.000000;,
        -0.354503; 0.935026; 0.000000;,
        -0.354503; 0.935026; 0.000000;,
         0.970855;-0.239570; 0.000000;,
         0.970855;-0.239570; 0.000000;,
         0.970855;-0.239570; 0.000000;,
         0.970855;-0.239570; 0.000000;,
        -0.332896; 0.482406;-0.810205;,
        -0.332896; 0.482406;-0.810205;,
        -0.332896; 0.482406;-0.810205;,
        -0.332896; 0.482406;-0.810205;,
        -0.120396; 0.992706; 0.000000;,
        -0.120396; 0.992706; 0.000000;,
        -0.120396; 0.992706; 0.000000;,
        -0.120396; 0.992706; 0.000000;,
         0.000000; 0.000000;-1.000000;,
         0.000000; 0.000000;-1.000000;,
         0.000000; 0.000000;-1.000000;,
         0.000000; 0.000000;-1.000000;,
         0.000000; 0.000000;-1.000000;,
         0.000000; 0.000000;-1.000000;,
         0.000000; 0.000000;-1.000000;,
         0.000000; 0.000000;-1.000000;,
         0.000000; 0.000000;-1.000000;,
         0.000000; 0.000000;-1.000000;,
         0.000000; 0.000000;-1.000000;,
         0.000000; 0.000000;-1.000000;,
         0.000000; 0.000000;-1.000000;,
         0.000000; 0.000000;-1.000000;,
         0.000000; 0.000000;-1.000000;,
         0.000000; 0.000000;-1.000000;,
         0.000000; 0.000000;-1.000000;,
         0.000000; 0.000000;-1.000000;,
         0.000000; 0.000000;-1.000000;,
         0.000000; 0.000000;-1.000000;,
         0.000000; 0.000000;-1.000000;,
         0.000000; 0.000000;-1.000000;,
         0.000000; 0.000000;-1.000000;,
         0.000000; 0.000000;-1.000000;,
         0.000000; 0.000000;-1.000000;,
         0.000000; 0.000000;-0.999969;,
        -0.568041; 0.822993; 0.000000;,
        -0.568041; 0.822993; 0.000000;,
        -0.568041; 0.822993; 0.000000;,
        -0.568041; 0.822993; 0.000000;,
        -0.983245; 0.179724; 0.029756;,
        -0.983245; 0.179724; 0.029756;,
        -0.983245; 0.179724; 0.029756;,
        -0.983245; 0.179724; 0.029756;,
         0.172460; 0.865596; 0.470077;,
         0.172460; 0.865596; 0.470077;,
         0.172460; 0.865596; 0.470077;,
         0.172460; 0.865596; 0.470077;,
         0.983245;-0.179693;-0.029756;,
         0.983245;-0.179693;-0.029756;,
         0.983245;-0.179693;-0.029756;,
         0.983245;-0.179693;-0.029756;,
        -0.172399;-0.865810;-0.469680;,
        -0.172399;-0.865810;-0.469680;,
        -0.172399;-0.865810;-0.469680;,
        -0.172399;-0.865810;-0.469680;,
         0.058687; 0.467025;-0.882260;,
         0.058687; 0.467025;-0.882260;,
         0.058687; 0.467025;-0.882260;,
         0.058687; 0.467025;-0.882260;,
        -0.058687;-0.467055; 0.882260;,
        -0.058687;-0.467055; 0.882260;,
        -0.058687;-0.467055; 0.882260;,
        -0.058687;-0.467055; 0.882260;;
        114;
        4;3,2,1,0;,
        4;7,6,5,4;,
        4;11,10,9,8;,
        4;15,14,13,12;,
        4;19,18,17,16;,
        4;23,22,21,20;,
        4;27,26,25,24;,
        4;31,30,29,28;,
        4;35,34,33,32;,
        4;39,38,37,36;,
        4;43,42,41,40;,
        4;47,46,45,44;,
        4;51,50,49,48;,
        4;55,54,53,52;,
        4;59,58,57,56;,
        4;63,62,61,60;,
        4;67,66,65,64;,
        4;71,70,69,68;,
        4;75,74,73,72;,
        4;79,78,77,76;,
        4;83,82,81,80;,
        4;87,86,85,84;,
        4;91,90,89,88;,
        4;95,94,93,92;,
        26;121,120,119,118,117,116,115,114,113,112,111,110,109,108,107,106,105,104,103,102,101,100,99,98,97,96;,
        4;125,124,123,122;,
        4;129,128,127,126;,
        26;155,154,153,152,151,150,149,148,147,146,145,144,143,142,141,140,139,138,137,136,135,134,133,132,131,130;,
        4;159,158,157,156;,
        4;163,162,161,160;,
        4;167,166,165,164;,
        4;171,170,169,168;,
        4;175,174,173,172;,
        4;179,178,177,176;,
        4;183,182,181,180;,
        4;187,186,185,184;,
        4;191,190,189,188;,
        4;195,194,193,192;,
        4;199,198,197,196;,
        4;203,202,201,200;,
        4;207,206,205,204;,
        4;211,210,209,208;,
        4;215,214,213,212;,
        4;219,218,217,216;,
        4;223,222,221,220;,
        4;227,226,225,224;,
        4;231,230,229,228;,
        4;235,234,233,232;,
        4;239,238,237,236;,
        4;243,242,241,240;,
        4;247,246,245,244;,
        4;251,250,249,248;,
        4;255,254,253,252;,
        4;259,258,257,256;,
        4;263,262,261,260;,
        4;267,266,265,264;,
        4;271,270,269,268;,
        4;275,274,273,272;,
        4;279,278,277,276;,
        4;283,282,281,280;,
        4;287,286,285,284;,
        4;291,290,289,288;,
        4;295,294,293,292;,
        4;299,298,297,296;,
        4;303,302,301,300;,
        4;307,306,305,304;,
        4;311,310,309,308;,
        4;315,314,313,312;,
        4;319,318,317,316;,
        4;323,322,321,320;,
        4;327,326,325,324;,
        4;331,330,329,328;,
        4;335,334,333,332;,
        4;339,338,337,336;,
        4;343,342,341,340;,
        4;347,346,345,344;,
        4;351,350,349,348;,
        4;355,354,353,352;,
        4;359,358,357,356;,
        4;363,362,361,360;,
        4;367,366,365,364;,
        4;371,370,369,368;,
        4;375,374,373,372;,
        4;379,378,377,376;,
        4;383,382,381,380;,
        4;387,386,385,384;,
        4;391,390,389,388;,
        4;395,394,393,392;,
        4;399,398,397,396;,
        4;403,402,401,400;,
        4;407,406,405,404;,
        4;411,410,409,408;,
        4;415,414,413,412;,
        4;419,418,417,416;,
        4;423,422,421,420;,
        4;427,426,425,424;,
        4;431,430,429,428;,
        26;457,456,455,454,453,452,451,450,449,448,447,446,445,444,443,442,441,440,439,438,437,436,435,434,433,432;,
        4;461,460,459,458;,
        4;465,464,463,462;,
        4;469,468,467,466;,
        4;473,472,471,470;,
        4;477,476,475,474;,
        4;481,480,479,478;,
        4;485,484,483,482;,
        4;489,488,487,486;,
        26;515,514,513,512,511,510,509,508,507,506,505,504,503,502,501,500,499,498,497,496,495,494,493,492,491,490;,
        4;519,518,517,516;,
        4;523,522,521,520;,
        4;527,526,525,524;,
        4;531,530,529,528;,
        4;535,534,533,532;,
        4;539,538,537,536;,
        4;543,542,541,540;;
      }
      MeshTextureCoords {
        544;
         0.056111; 1.014379;,
         0.029966; 1.014270;,
         0.029966; 1.482508;,
         0.056111; 1.482618;,
         0.088097; 1.015140;,
         0.056111; 1.014379;,
         0.056111; 1.482618;,
         0.088097; 1.483378;,
         0.124128; 1.016537;,
         0.088097; 1.015140;,
         0.088097; 1.483378;,
         0.124128; 1.484775;,
         0.160863; 1.018476;,
         0.124128; 1.016537;,
         0.124128; 1.484775;,
         0.160863; 1.486715;,
         0.515688; 1.516780;,
         0.471394; 1.516299;,
         0.471394; 1.985002;,
         0.515688; 1.985484;,
         0.565543; 1.517008;,
         0.515688; 1.516780;,
         0.515688; 1.985484;,
         0.565543; 1.985711;,
         0.617978; 1.517026;,
         0.565543; 1.517008;,
         0.565543; 1.985711;,
         0.617978; 1.985730;,
         0.669941; 1.516835;,
         0.617978; 1.517026;,
         0.617978; 1.985730;,
         0.669941; 1.985539;,
         0.718482; 1.516387;,
         0.669941; 1.516835;,
         0.669941; 1.985539;,
         0.718482; 1.985091;,
         0.760759; 1.515891;,
         0.718482; 1.516387;,
         0.718482; 1.985091;,
         0.760759; 1.984594;,
         0.794272; 1.515478;,
         0.760759; 1.515891;,
         0.760759; 1.984594;,
         0.794272; 1.984182;,
         0.847825; 1.517154;,
         0.822813; 1.516591;,
         0.822813; 1.984950;,
         0.847825; 1.985513;,
         0.871877; 1.517371;,
         0.847825; 1.517154;,
         0.847825; 1.985513;,
         0.871877; 1.985730;,
         0.890628; 1.517359;,
         0.871877; 1.517371;,
         0.871877; 1.985730;,
         0.890628; 1.985718;,
         0.030573; 1.515544;,
         0.014270; 1.515321;,
         0.014270; 1.984025;,
         0.030573; 1.984248;,
         0.058056; 1.515913;,
         0.030573; 1.515544;,
         0.030573; 1.984248;,
         0.058056; 1.984617;,
         0.095174; 1.516387;,
         0.058056; 1.515913;,
         0.058056; 1.984617;,
         0.095174; 1.985091;,
         0.140058; 1.516830;,
         0.095174; 1.516387;,
         0.095174; 1.985091;,
         0.140058; 1.985534;,
         0.190637; 1.517026;,
         0.140058; 1.516830;,
         0.140058; 1.985534;,
         0.190637; 1.985730;,
         0.243826; 1.517019;,
         0.190637; 1.517026;,
         0.190637; 1.985730;,
         0.243826; 1.985723;,
         0.296547; 1.516809;,
         0.243826; 1.517019;,
         0.243826; 1.985723;,
         0.296547; 1.985512;,
         0.345901; 1.516350;,
         0.296547; 1.516809;,
         0.296547; 1.985512;,
         0.345901; 1.985054;,
         0.388457; 1.515862;,
         0.345901; 1.516350;,
         0.345901; 1.985054;,
         0.388457; 1.984566;,
         0.421431; 1.515483;,
         0.388457; 1.515862;,
         0.388457; 1.984566;,
         0.421431; 1.984187;,
         0.554093; 1.460067;,
         0.581569; 1.479972;,
         0.606760; 1.486938;,
         0.625146; 1.480027;,
         0.637206; 1.459958;,
         0.640825; 1.427673;,
         0.636465; 1.385158;,
         0.628784; 1.335589;,
         0.626203; 1.283120;,
         0.626536; 1.230426;,
         0.629539; 1.180539;,
         0.636939; 1.136668;,
         0.640825; 1.100162;,
         0.637054; 1.072505;,
         0.625161; 1.055193;,
         0.606970; 1.049418;,
         0.582047; 1.055205;,
         0.554743; 1.072728;,
         0.526742; 1.100960;,
         0.500843; 1.138441;,
         0.481011; 1.183420;,
         0.471728; 1.233896;,
         0.471394; 1.286590;,
         0.480116; 1.338450;,
         0.499796; 1.386848;,
         0.525874; 1.428347;,
         0.442854; 1.515255;,
         0.421431; 1.515483;,
         0.421431; 1.984187;,
         0.442854; 1.983959;,
         0.029966; 1.014270;,
         0.014270; 1.014927;,
         0.014270; 1.483165;,
         0.029966; 1.482508;,
         0.823118; 1.056329;,
         0.804732; 1.049418;,
         0.779540; 1.056384;,
         0.752064; 1.076289;,
         0.723846; 1.108009;,
         0.697767; 1.149508;,
         0.678087; 1.197906;,
         0.669365; 1.249766;,
         0.669699; 1.302459;,
         0.678982; 1.352935;,
         0.698815; 1.397915;,
         0.724713; 1.435396;,
         0.752714; 1.463628;,
         0.780018; 1.481151;,
         0.804941; 1.486938;,
         0.823132; 1.481162;,
         0.835025; 1.463850;,
         0.838796; 1.436194;,
         0.834910; 1.399687;,
         0.827510; 1.355817;,
         0.824507; 1.305929;,
         0.824174; 1.253236;,
         0.826756; 1.200767;,
         0.834437; 1.151198;,
         0.838796; 1.108683;,
         0.835177; 1.076398;,
         0.919179; 1.930884;,
         0.952052; 1.930880;,
         0.952064; 1.921758;,
         0.919191; 1.921763;,
         0.329084; 1.475058;,
         0.332840; 1.469712;,
         0.326152; 1.462280;,
         0.321389; 1.466506;,
         0.341423; 1.174762;,
         0.351430; 1.174692;,
         0.351430; 1.090747;,
         0.341423; 1.090817;,
         0.189996; 1.116108;,
         0.222836; 1.116336;,
         0.222961; 1.104727;,
         0.190122; 1.104498;,
         0.313219; 1.445163;,
         0.319052; 1.443730;,
         0.319052; 1.433691;,
         0.313219; 1.433611;,
         0.331333; 1.174723;,
         0.341423; 1.174762;,
         0.341423; 1.090817;,
         0.331333; 1.090777;,
         0.437049; 1.165971;,
         0.404201; 1.165960;,
         0.403904; 1.174751;,
         0.436753; 1.174762;,
         0.321389; 1.412065;,
         0.326152; 1.414966;,
         0.332840; 1.407368;,
         0.329084; 1.403324;,
         0.321746; 1.174577;,
         0.331333; 1.174723;,
         0.331333; 1.090777;,
         0.321746; 1.090632;,
         0.437364; 1.132612;,
         0.404516; 1.132601;,
         0.404516; 1.144255;,
         0.437364; 1.144266;,
         0.349483; 1.392414;,
         0.350569; 1.397887;,
         0.360580; 1.396553;,
         0.361002; 1.390879;,
         0.313219; 1.174333;,
         0.321746; 1.174577;,
         0.321746; 1.090632;,
         0.313219; 1.090388;,
         0.436753; 1.102394;,
         0.403904; 1.102383;,
         0.404201; 1.111039;,
         0.437049; 1.111050;,
         0.383371; 1.396092;,
         0.380021; 1.401083;,
         0.388320; 1.406684;,
         0.392921; 1.402536;,
         0.875264; 1.290311;,
         0.867337; 1.290299;,
         0.867337; 1.374327;,
         0.875264; 1.374339;,
         0.284374; 1.104697;,
         0.251502; 1.104699;,
         0.251504; 1.116311;,
         0.284377; 1.116310;,
         0.406008; 1.421250;,
         0.399694; 1.422948;,
         0.402108; 1.432666;,
         0.408785; 1.432432;,
         0.884470; 1.290318;,
         0.875264; 1.290311;,
         0.875264; 1.374339;,
         0.884470; 1.374347;,
         0.284394; 1.073099;,
         0.251521; 1.073101;,
         0.251511; 1.082448;,
         0.284383; 1.082446;,
         0.406008; 1.455234;,
         0.399694; 1.452483;,
         0.395008; 1.461430;,
         0.400616; 1.465529;,
         0.894419; 1.290322;,
         0.884470; 1.290318;,
         0.884470; 1.374347;,
         0.894419; 1.374351;,
         0.190122; 1.104498;,
         0.222961; 1.104727;,
         0.222961; 1.093212;,
         0.190122; 1.092983;,
         0.372522; 1.485180;,
         0.370591; 1.478509;,
         0.360580; 1.479843;,
         0.361002; 1.486715;,
         0.904533; 1.290321;,
         0.894419; 1.290322;,
         0.894419; 1.374351;,
         0.904533; 1.374350;,
         0.189403; 1.136946;,
         0.222242; 1.137174;,
         0.222591; 1.127366;,
         0.189752; 1.127137;,
         0.338634; 1.481502;,
         0.341139; 1.475313;,
         0.332840; 1.469712;,
         0.329084; 1.475058;,
         0.914225; 1.290315;,
         0.904533; 1.290321;,
         0.904533; 1.374350;,
         0.914225; 1.374344;,
         0.919168; 1.952924;,
         0.952041; 1.952919;,
         0.952044; 1.941472;,
         0.919171; 1.941476;,
         0.315996; 1.456344;,
         0.321466; 1.453448;,
         0.319052; 1.443730;,
         0.313219; 1.445163;,
         0.922930; 1.290306;,
         0.914225; 1.290315;,
         0.914225; 1.374344;,
         0.922930; 1.374335;,
         0.919191; 1.985730;,
         0.952064; 1.985726;,
         0.952052; 1.975709;,
         0.919179; 1.975713;,
         0.315996; 1.422360;,
         0.321466; 1.423913;,
         0.326152; 1.414966;,
         0.321389; 1.412065;,
         0.197043; 1.165991;,
         0.189403; 1.165735;,
         0.189403; 1.249702;,
         0.197043; 1.249958;,
         0.437364; 1.144266;,
         0.404516; 1.144255;,
         0.404409; 1.155594;,
         0.437257; 1.155605;,
         0.338633; 1.396644;,
         0.341139; 1.401563;,
         0.350569; 1.397887;,
         0.349483; 1.392414;,
         0.206052; 1.166168;,
         0.197043; 1.165991;,
         0.197043; 1.249958;,
         0.206052; 1.250135;,
         0.437049; 1.111050;,
         0.404201; 1.111039;,
         0.404409; 1.121310;,
         0.437257; 1.121321;,
         0.372522; 1.392129;,
         0.370591; 1.397639;,
         0.380021; 1.401083;,
         0.383371; 1.396092;,
         0.215907; 1.166258;,
         0.206052; 1.166168;,
         0.206052; 1.250135;,
         0.215907; 1.250225;,
         0.284377; 1.116310;,
         0.251504; 1.116311;,
         0.251511; 1.127350;,
         0.284383; 1.127348;,
         0.400616; 1.411088;,
         0.395008; 1.414116;,
         0.399694; 1.422948;,
         0.406008; 1.421250;,
         0.226035; 1.166255;,
         0.215907; 1.166258;,
         0.215907; 1.250225;,
         0.226035; 1.250222;,
         0.284383; 1.082446;,
         0.251511; 1.082448;,
         0.251504; 1.093188;,
         0.284377; 1.093186;,
         0.408785; 1.443983;,
         0.402108; 1.442705;,
         0.399694; 1.452483;,
         0.406008; 1.455234;,
         0.235848; 1.166158;,
         0.226035; 1.166255;,
         0.226035; 1.250222;,
         0.235848; 1.250125;,
         0.189996; 1.082232;,
         0.222836; 1.082460;,
         0.222591; 1.073098;,
         0.189752; 1.072869;,
         0.392921; 1.474270;,
         0.388320; 1.469028;,
         0.380021; 1.474833;,
         0.383371; 1.480950;,
         0.244775; 1.165975;,
         0.235848; 1.166158;,
         0.235848; 1.250125;,
         0.244775; 1.249942;,
         0.189752; 1.127137;,
         0.222591; 1.127366;,
         0.222836; 1.116336;,
         0.189996; 1.116108;,
         0.349483; 1.485465;,
         0.350569; 1.478756;,
         0.341139; 1.475313;,
         0.338634; 1.481502;,
         0.252297; 1.165714;,
         0.244775; 1.165975;,
         0.244775; 1.249942;,
         0.252297; 1.249681;,
         0.919171; 1.941476;,
         0.952044; 1.941472;,
         0.952052; 1.930880;,
         0.919179; 1.930884;,
         0.321389; 1.466506;,
         0.326152; 1.462280;,
         0.321466; 1.453448;,
         0.315996; 1.456344;,
         0.875875; 1.402897;,
         0.867337; 1.402906;,
         0.867337; 1.486935;,
         0.875875; 1.486926;,
         0.919179; 1.975713;,
         0.952052; 1.975709;,
         0.952044; 1.964557;,
         0.919171; 1.964561;,
         0.313219; 1.433611;,
         0.319052; 1.433691;,
         0.321466; 1.423913;,
         0.315996; 1.422360;,
         0.885468; 1.402892;,
         0.875875; 1.402897;,
         0.875875; 1.486926;,
         0.885468; 1.486921;,
         0.437257; 1.155605;,
         0.404409; 1.155594;,
         0.404201; 1.165960;,
         0.437049; 1.165971;,
         0.329084; 1.403324;,
         0.332840; 1.407368;,
         0.341139; 1.401563;,
         0.338633; 1.396644;,
         0.895560; 1.402891;,
         0.885468; 1.402892;,
         0.885468; 1.486921;,
         0.895560; 1.486919;,
         0.437257; 1.121321;,
         0.404409; 1.121310;,
         0.404516; 1.132601;,
         0.437364; 1.132612;,
         0.361002; 1.390879;,
         0.360580; 1.396553;,
         0.370591; 1.397639;,
         0.372522; 1.392129;,
         0.905565; 1.402893;,
         0.895560; 1.402891;,
         0.895560; 1.486919;,
         0.905565; 1.486922;,
         0.284383; 1.127348;,
         0.251511; 1.127350;,
         0.251521; 1.137174;,
         0.284394; 1.137172;,
         0.392921; 1.402536;,
         0.388320; 1.406684;,
         0.395008; 1.414116;,
         0.400616; 1.411088;,
         0.914899; 1.402900;,
         0.905565; 1.402893;,
         0.905565; 1.486922;,
         0.914899; 1.486928;,
         0.190122; 1.092983;,
         0.222961; 1.093212;,
         0.222836; 1.082460;,
         0.189996; 1.082232;,
         0.408785; 1.432432;,
         0.402108; 1.432666;,
         0.402108; 1.442705;,
         0.408785; 1.443983;,
         0.923022; 1.402909;,
         0.914899; 1.402900;,
         0.914899; 1.486928;,
         0.923022; 1.486938;,
         0.259342; 1.480918;,
         0.268863; 1.474211;,
         0.276535; 1.465438;,
         0.281911; 1.455108;,
         0.284679; 1.443822;,
         0.284679; 1.432235;,
         0.281911; 1.421021;,
         0.276535; 1.410832;,
         0.268863; 1.402259;,
         0.259342; 1.395802;,
         0.248525; 1.391834;,
         0.237041; 1.390588;,
         0.225557; 1.392135;,
         0.214740; 1.396385;,
         0.205219; 1.403091;,
         0.197548; 1.411865;,
         0.192172; 1.422195;,
         0.189403; 1.433481;,
         0.189403; 1.445068;,
         0.192172; 1.456282;,
         0.197548; 1.466471;,
         0.205219; 1.475044;,
         0.214740; 1.481501;,
         0.225557; 1.485468;,
         0.237041; 1.486715;,
         0.248526; 1.485168;,
         0.400616; 1.465529;,
         0.395008; 1.461430;,
         0.388320; 1.469028;,
         0.392921; 1.474270;,
         0.368909; 1.174249;,
         0.375364; 1.173901;,
         0.375364; 1.089956;,
         0.368909; 1.090304;,
         0.383371; 1.480950;,
         0.380021; 1.474833;,
         0.370591; 1.478509;,
         0.372522; 1.485180;,
         0.284377; 1.093186;,
         0.251504; 1.093188;,
         0.251502; 1.104699;,
         0.284374; 1.104697;,
         0.360773; 1.174518;,
         0.368909; 1.174249;,
         0.368909; 1.090304;,
         0.360773; 1.090573;,
         0.919171; 1.964561;,
         0.952044; 1.964557;,
         0.952041; 1.952919;,
         0.919168; 1.952924;,
         0.361002; 1.486715;,
         0.360580; 1.479843;,
         0.350569; 1.478756;,
         0.349483; 1.485465;,
         0.351430; 1.174692;,
         0.360773; 1.174518;,
         0.360773; 1.090573;,
         0.351430; 1.090747;,
         0.196504; 1.343639;,
         0.203192; 1.351235;,
         0.211492; 1.357039;,
         0.220923; 1.360715;,
         0.230935; 1.362048;,
         0.240947; 1.360961;,
         0.250377; 1.357517;,
         0.258678; 1.351916;,
         0.265366; 1.344484;,
         0.270053; 1.335653;,
         0.272466; 1.325935;,
         0.272466; 1.315897;,
         0.270053; 1.306120;,
         0.265366; 1.297174;,
         0.258678; 1.289578;,
         0.250377; 1.283774;,
         0.240947; 1.280098;,
         0.230935; 1.278765;,
         0.220923; 1.279853;,
         0.211492; 1.283297;,
         0.203192; 1.288897;,
         0.196504; 1.296329;,
         0.191817; 1.305161;,
         0.189403; 1.314878;,
         0.189403; 1.324916;,
         0.191817; 1.334693;,
         0.189752; 1.072869;,
         0.222591; 1.073098;,
         0.222243; 1.065668;,
         0.189403; 1.065439;,
         0.906592; 1.094882;,
         0.906592; 1.261759;,
         0.917308; 1.261737;,
         0.917308; 1.094860;,
         0.928859; 1.892791;,
         0.928859; 1.853472;,
         0.919168; 1.853899;,
         0.919168; 1.893218;,
         0.867337; 1.094081;,
         0.867337; 1.261759;,
         0.878051; 1.261757;,
         0.878051; 1.094079;,
         0.928807; 1.824605;,
         0.928807; 1.785210;,
         0.919168; 1.785537;,
         0.919168; 1.824932;,
         0.381242; 1.203302;,
         0.381242; 1.362067;,
         0.420724; 1.362339;,
         0.420724; 1.203574;,
         0.313219; 1.203574;,
         0.313219; 1.362339;,
         0.352701; 1.362067;,
         0.352701; 1.203302;;
      }
      MeshMaterialList {
        1;
        114;
        0,
        0,
        0,
        0,
        0,
        0,
        0,
        0,
        0,
        0,
        0,
        0,
        0,
        0,
        0,
        0,
        0,
        0,
        0,
        0,
        0,
        0,
        0,
        0,
        0,
        0,
        0,
        0,
        0,
        0,
        0,
        0,
        0,
        0,
        0,
        0,
        0,
        0,
        0,
        0,
        0,
        0,
        0,
        0,
        0,
        0,
        0,
        0,
        0,
        0,
        0,
        0,
        0,
        0,
        0,
        0,
        0,
        0,
        0,
        0,
        0,
        0,
        0,
        0,
        0,
        0,
        0,
        0,
        0,
        0,
        0,
        0,
        0,
        0,
        0,
        0,
        0,
        0,
        0,
        0,
        0,
        0,
        0,
        0,
        0,
        0,
        0,
        0,
        0,
        0,
        0,
        0,
        0,
        0,
        0,
        0,
        0,
        0,
        0,
        0,
        0,
        0,
        0,
        0,
        0,
        0,
        0,
        0,
        0,
        0,
        0,
        0,
        0,
        0;
        Material Material_001 {
           0.800000; 0.800000; 0.800000; 1.000000;;
           323.999994;
           0.250000; 0.250000; 0.250000;;
           0.000000; 0.000000; 0.000000;;
        }
      }
    }
  }
}
