xof 0303txt 0032

Frame Root {
  FrameTransformMatrix {
     1.000000, 0.000000, 0.000000, 0.000000,
     0.000000,-0.000000, 1.000000, 0.000000,
     0.000000, 1.000000, 0.000000, 0.000000,
     0.000000, 0.000000, 0.000000, 1.000000;;
  }
  Frame Cube {
    FrameTransformMatrix {
       1.000000, 0.000000, 0.000000, 0.000000,
       0.000000, 1.000000, 0.000000, 0.000000,
       0.000000, 0.000000, 1.000000, 0.000000,
       0.000000, 0.000000, 0.000000, 1.000000;;
    }
    Mesh { // Cube mesh
      64;
      -0.058692;-0.002002;-0.010577;,
      -0.053607;-0.001721; 0.034794;,
      -0.053607; 0.093850; 0.034794;,
      -0.058692; 0.109219;-0.010577;,
       0.043835; 0.162097;-0.010577;,
       0.044440; 0.146729; 0.034794;,
       0.168993; 0.093850; 0.034794;,
       0.174079; 0.109219;-0.010577;,
       0.204301;-0.002002;-0.010577;,
       0.199215;-0.001721; 0.034794;,
       0.168993;-0.093850; 0.034794;,
       0.174079;-0.109219;-0.010577;,
       0.043835;-0.185661;-0.010577;,
       0.044440;-0.170292; 0.034794;,
      -0.053607;-0.093850; 0.034794;,
      -0.058692;-0.109219;-0.010577;,
       0.043835;-0.014969;-0.010577;,
       0.204301;-0.002002;-0.010577;,
       0.174079;-0.109219;-0.010577;,
       0.043835;-0.185661;-0.010577;,
       0.071965;-0.014688; 0.102866;,
      -0.053607;-0.001721; 0.034794;,
      -0.053607;-0.093850; 0.034794;,
       0.044440;-0.170292; 0.034794;,
       0.199215;-0.001721; 0.034794;,
       0.071965;-0.014688; 0.102866;,
       0.044440;-0.170292; 0.034794;,
       0.168993;-0.093850; 0.034794;,
      -0.058692;-0.002002;-0.010577;,
       0.043835;-0.014969;-0.010577;,
       0.043835;-0.185661;-0.010577;,
      -0.058692;-0.109219;-0.010577;,
       0.174079;-0.109219;-0.010577;,
       0.168993;-0.093850; 0.034794;,
       0.044440;-0.170292; 0.034794;,
       0.043835;-0.185661;-0.010577;,
      -0.058692; 0.109219;-0.010577;,
      -0.053607; 0.093850; 0.034794;,
       0.044440; 0.146729; 0.034794;,
       0.043835; 0.162097;-0.010577;,
      -0.058692; 0.109219;-0.010577;,
       0.043835; 0.162097;-0.010577;,
       0.043835;-0.014969;-0.010577;,
      -0.058692;-0.002002;-0.010577;,
       0.168993; 0.093850; 0.034794;,
       0.044440; 0.146729; 0.034794;,
       0.071965;-0.014688; 0.102866;,
       0.199215;-0.001721; 0.034794;,
       0.044440; 0.146729; 0.034794;,
      -0.053607; 0.093850; 0.034794;,
      -0.053607;-0.001721; 0.034794;,
       0.071965;-0.014688; 0.102866;,
       0.043835; 0.162097;-0.010577;,
       0.174079; 0.109219;-0.010577;,
       0.204301;-0.002002;-0.010577;,
       0.043835;-0.014969;-0.010577;,
       0.174079; 0.109219;-0.010577;,
       0.168993; 0.093850; 0.034794;,
       0.199215;-0.001721; 0.034794;,
       0.204301;-0.002002;-0.010577;,
      -0.058692;-0.109219;-0.010577;,
      -0.053607;-0.093850; 0.034794;,
      -0.053607;-0.001721; 0.034794;,
      -0.058692;-0.002002;-0.010577;;
      16;
      4;3,2,1,0;,
      4;7,6,5,4;,
      4;11,10,9,8;,
      4;15,14,13,12;,
      4;19,18,17,16;,
      4;23,22,21,20;,
      4;27,26,25,24;,
      4;31,30,29,28;,
      4;35,34,33,32;,
      4;39,38,37,36;,
      4;43,42,41,40;,
      4;47,46,45,44;,
      4;51,50,49,48;,
      4;55,54,53,52;,
      4;59,58,57,56;,
      4;63,62,61,60;;
      MeshNormals { // Cube normals
        16;
        -0.993777; 0.000000; 0.111389;,
         0.363851; 0.876614; 0.314897;,
         0.945350;-0.286643; 0.155398;,
        -0.579447;-0.760197; 0.293841;,
         0.000000; 0.000000;-1.000000;,
        -0.360512;-0.209686; 0.908880;,
         0.352263;-0.323433; 0.878238;,
         0.000000; 0.000000;-1.000000;,
         0.490618;-0.817667; 0.301189;,
        -0.443063; 0.840292; 0.312418;,
         0.000000; 0.000000;-1.000000;,
         0.293339; 0.305839; 0.905768;,
        -0.318896; 0.210622; 0.924091;,
         0.000000; 0.000000;-1.000000;,
         0.948621; 0.277278; 0.152428;,
        -0.993777; 0.000000; 0.111389;;
        16;
        4;0,0,0,0;,
        4;1,1,1,1;,
        4;2,2,2,2;,
        4;3,3,3,3;,
        4;4,4,4,4;,
        4;5,5,5,5;,
        4;6,6,6,6;,
        4;7,7,7,7;,
        4;8,8,8,8;,
        4;9,9,9,9;,
        4;10,10,10,10;,
        4;11,11,11,11;,
        4;12,12,12,12;,
        4;13,13,13,13;,
        4;14,14,14,14;,
        4;15,15,15,15;;
      } // End of Cube normals
      MeshTextureCoords { // Cube UV coordinates
        64;
         0.895495; 0.729184;,
         0.860168; 0.729662;,
         0.860168; 0.903685;,
         0.895495; 0.931704;,
         0.452387; 0.253874;,
         0.534774; 0.253427;,
         0.565524; 0.009205;,
         0.483138; 0.000000;,
         0.901077; 0.798986;,
         0.979330; 0.793268;,
         0.975700; 0.625060;,
         0.895495; 0.603385;,
         0.730128; 0.394796;,
         0.702026; 0.422743;,
         0.860168; 0.561905;,
         0.895495; 0.533956;,
         0.276026; 0.689192;,
         0.000000; 0.665580;,
         0.051987; 0.860808;,
         0.276026; 1.000000;,
         0.616935; 0.706033;,
         0.860168; 0.729662;,
         0.860168; 0.561905;,
         0.702026; 0.422743;,
         0.452387; 0.729738;,
         0.616935; 0.706033;,
         0.702026; 0.422743;,
         0.501133; 0.561972;,
         0.452387; 0.665580;,
         0.276026; 0.689192;,
         0.276026; 1.000000;,
         0.452387; 0.860808;,
         0.895495; 0.603385;,
         0.975700; 0.625060;,
         1.000000; 0.482437;,
         0.921357; 0.460587;,
         0.483138; 0.394796;,
         0.565524; 0.386750;,
         0.534774; 0.253427;,
         0.452387; 0.253874;,
         0.452387; 0.463060;,
         0.276026; 0.366775;,
         0.276026; 0.689192;,
         0.452387; 0.665580;,
         0.501133; 0.903752;,
         0.702026; 1.000000;,
         0.616935; 0.706033;,
         0.452387; 0.729738;,
         0.702026; 1.000000;,
         0.860168; 0.903685;,
         0.860168; 0.729662;,
         0.616935; 0.706033;,
         0.276026; 0.366775;,
         0.051987; 0.463060;,
         0.000000; 0.665580;,
         0.276026; 0.689192;,
         0.923773; 1.000000;,
         1.000000; 0.965867;,
         0.979330; 0.793268;,
         0.901077; 0.798986;,
         0.895495; 0.533956;,
         0.860168; 0.561905;,
         0.860168; 0.729662;,
         0.895495; 0.729184;;
      } // End of Cube UV coordinates
      MeshMaterialList { // Cube material list
        1;
        16;
        0,
        0,
        0,
        0,
        0,
        0,
        0,
        0,
        0,
        0,
        0,
        0,
        0,
        0,
        0,
        0;
        Material Material_001 {
           0.640000; 0.640000; 0.640000; 1.000000;;
           96.078431;
           0.500000; 0.500000; 0.500000;;
           0.000000; 0.000000; 0.000000;;
        }
      } // End of Cube material list
    } // End of Cube mesh
  } // End of Cube
} // End of Root
