xof 0303txt 0032

Frame Root {
  FrameTransformMatrix {
     1.000000, 0.000000, 0.000000, 0.000000,
     0.000000,-0.000000, 1.000000, 0.000000,
     0.000000, 1.000000, 0.000000, 0.000000,
     0.000000, 0.000000, 0.000000, 1.000000;;
  }
  Frame Cube {
    FrameTransformMatrix {
       1.000000, 0.000000, 0.000000, 0.000000,
       0.000000, 1.000000, 0.000000, 0.000000,
       0.000000, 0.000000, 1.000000, 0.000000,
       0.000000, 0.000000, 0.000000, 1.000000;;
    }
    Mesh { // Cube mesh
      104;
      -0.021959; 0.083590; 0.000074;,
       0.047452; 0.084683;-0.000167;,
       0.049713;-0.059595;-0.003710;,
      -0.019698;-0.060688;-0.003469;,
      -0.019698;-0.060688;-0.003469;,
       0.049713;-0.059595;-0.003710;,
       0.049864;-0.060550; 0.035284;,
      -0.019547;-0.061644; 0.035525;,
      -0.019547;-0.061644; 0.035525;,
       0.049864;-0.060550; 0.035284;,
       0.047603; 0.083728; 0.038827;,
      -0.021808; 0.082634; 0.039068;,
      -0.021808; 0.082634; 0.039068;,
       0.047603; 0.083728; 0.038827;,
       0.047452; 0.084683;-0.000167;,
      -0.021959; 0.083590; 0.000074;,
      -0.021808; 0.082634; 0.039068;,
      -0.021959; 0.083590; 0.000074;,
      -0.035961; 0.074664; 0.000188;,
      -0.035829; 0.073824; 0.034481;,
       0.047603; 0.083728; 0.038827;,
       0.049864;-0.060550; 0.035284;,
       0.064805;-0.050437; 0.030404;,
       0.062849; 0.074340; 0.033468;,
       0.064805;-0.050437; 0.030404;,
       0.064674;-0.049611;-0.003319;,
       0.062719; 0.075166;-0.000255;,
       0.062849; 0.074340; 0.033468;,
       0.049713;-0.059595;-0.003710;,
       0.047452; 0.084683;-0.000167;,
       0.062719; 0.075166;-0.000255;,
       0.064674;-0.049611;-0.003319;,
       0.047452; 0.084683;-0.000167;,
       0.047603; 0.083728; 0.038827;,
       0.062849; 0.074340; 0.033468;,
       0.062719; 0.075166;-0.000255;,
       0.049864;-0.060550; 0.035284;,
       0.049713;-0.059595;-0.003710;,
       0.064674;-0.049611;-0.003319;,
       0.064805;-0.050437; 0.030404;,
      -0.033972;-0.052222;-0.002928;,
      -0.033840;-0.053062; 0.031365;,
      -0.035829; 0.073824; 0.034481;,
      -0.035961; 0.074664; 0.000188;,
      -0.019698;-0.060688;-0.003469;,
      -0.019547;-0.061644; 0.035525;,
      -0.033840;-0.053062; 0.031365;,
      -0.033972;-0.052222;-0.002928;,
      -0.021959; 0.083590; 0.000074;,
      -0.019698;-0.060688;-0.003469;,
      -0.033972;-0.052222;-0.002928;,
      -0.035961; 0.074664; 0.000188;,
      -0.019547;-0.061644; 0.035525;,
      -0.021808; 0.082634; 0.039068;,
      -0.035829; 0.073824; 0.034481;,
      -0.033840;-0.053062; 0.031365;,
       0.058216; 0.058805; 0.001434;,
       0.079037; 0.059525;-0.014625;,
       0.079310; 0.042107;-0.015053;,
       0.058489; 0.041386; 0.001006;,
       0.058489; 0.041386; 0.001006;,
       0.079310; 0.042107;-0.015053;,
       0.083659; 0.042058;-0.010299;,
       0.062838; 0.041337; 0.005760;,
       0.062838; 0.041337; 0.005760;,
       0.083659; 0.042058;-0.010299;,
       0.083386; 0.059477;-0.009871;,
       0.062565; 0.058756; 0.006188;,
       0.062565; 0.058756; 0.006188;,
       0.083386; 0.059477;-0.009871;,
       0.079037; 0.059525;-0.014625;,
       0.058216; 0.058805; 0.001434;,
       0.058489; 0.041386; 0.001006;,
       0.062838; 0.041337; 0.005760;,
       0.062565; 0.058756; 0.006188;,
       0.058216; 0.058805; 0.001434;,
       0.083659; 0.042058;-0.010299;,
       0.079310; 0.042107;-0.015053;,
       0.079037; 0.059525;-0.014625;,
       0.083386; 0.059477;-0.009871;,
       0.059480;-0.021840;-0.000546;,
       0.080301;-0.021119;-0.016605;,
       0.080574;-0.038538;-0.017033;,
       0.059753;-0.039259;-0.000974;,
       0.059753;-0.039259;-0.000974;,
       0.080574;-0.038538;-0.017033;,
       0.084923;-0.038587;-0.012279;,
       0.064102;-0.039308; 0.003780;,
       0.064102;-0.039308; 0.003780;,
       0.084923;-0.038587;-0.012279;,
       0.084650;-0.021168;-0.011851;,
       0.063829;-0.021889; 0.004208;,
       0.063829;-0.021889; 0.004208;,
       0.084650;-0.021168;-0.011851;,
       0.080301;-0.021119;-0.016605;,
       0.059480;-0.021840;-0.000546;,
       0.059753;-0.039259;-0.000974;,
       0.064102;-0.039308; 0.003780;,
       0.063829;-0.021889; 0.004208;,
       0.059480;-0.021840;-0.000546;,
       0.084923;-0.038587;-0.012279;,
       0.080574;-0.038538;-0.017033;,
       0.080301;-0.021119;-0.016605;,
       0.084650;-0.021168;-0.011851;;
      26;
      4;3,2,1,0;,
      4;7,6,5,4;,
      4;11,10,9,8;,
      4;15,14,13,12;,
      4;19,18,17,16;,
      4;23,22,21,20;,
      4;27,26,25,24;,
      4;31,30,29,28;,
      4;35,34,33,32;,
      4;39,38,37,36;,
      4;43,42,41,40;,
      4;47,46,45,44;,
      4;51,50,49,48;,
      4;55,54,53,52;,
      4;59,58,57,56;,
      4;63,62,61,60;,
      4;67,66,65,64;,
      4;71,70,69,68;,
      4;75,74,73,72;,
      4;79,78,77,76;,
      4;83,82,81,80;,
      4;87,86,85,84;,
      4;91,90,89,88;,
      4;95,94,93,92;,
      4;99,98,97,96;,
      4;103,102,101,100;;
      MeshNormals { // Cube normals
        104;
        -0.223914; 0.740928;-0.633137;,
         0.203284; 0.747612;-0.632221;,
         0.226112;-0.708975;-0.667989;,
        -0.201086;-0.715629;-0.668905;,
        -0.201086;-0.715629;-0.668905;,
         0.226112;-0.708975;-0.667989;,
         0.282571;-0.708335; 0.646809;,
        -0.245766;-0.718894; 0.650166;,
        -0.245766;-0.718894; 0.650166;,
         0.282571;-0.708335; 0.646809;,
         0.260720; 0.684255; 0.681021;,
        -0.267647; 0.678091; 0.684469;,
        -0.267647; 0.678091; 0.684469;,
         0.260720; 0.684255; 0.681021;,
         0.203284; 0.747612;-0.632221;,
        -0.223914; 0.740928;-0.633137;,
        -0.267647; 0.678091; 0.684469;,
        -0.223914; 0.740928;-0.633137;,
        -0.705069; 0.389111;-0.592792;,
        -0.783105; 0.360240; 0.506882;,
         0.260720; 0.684255; 0.681021;,
         0.282571;-0.708335; 0.646809;,
         0.795312;-0.375683; 0.475661;,
         0.783532; 0.376629; 0.494156;,
         0.795312;-0.375683; 0.475661;,
         0.701315;-0.351390;-0.620197;,
         0.689474; 0.403211;-0.601672;,
         0.783532; 0.376629; 0.494156;,
         0.226112;-0.708975;-0.667989;,
         0.203284; 0.747612;-0.632221;,
         0.689474; 0.403211;-0.601672;,
         0.701315;-0.351390;-0.620197;,
         0.203284; 0.747612;-0.632221;,
         0.260720; 0.684255; 0.681021;,
         0.783532; 0.376629; 0.494156;,
         0.689474; 0.403211;-0.601672;,
         0.282571;-0.708335; 0.646809;,
         0.226112;-0.708975;-0.667989;,
         0.701315;-0.351390;-0.620197;,
         0.795312;-0.375683; 0.475661;,
        -0.693014;-0.381451;-0.611713;,
        -0.771050;-0.409040; 0.487991;,
        -0.783105; 0.360240; 0.506882;,
        -0.705069; 0.389111;-0.592792;,
        -0.201086;-0.715629;-0.668905;,
        -0.245766;-0.718894; 0.650166;,
        -0.771050;-0.409040; 0.487991;,
        -0.693014;-0.381451;-0.611713;,
        -0.223914; 0.740928;-0.633137;,
        -0.201086;-0.715629;-0.668905;,
        -0.693014;-0.381451;-0.611713;,
        -0.705069; 0.389111;-0.592792;,
        -0.245766;-0.718894; 0.650166;,
        -0.267647; 0.678091; 0.684469;,
        -0.783105; 0.360240; 0.506882;,
        -0.771050;-0.409040; 0.487991;,
        -0.825312; 0.561754;-0.056795;,
         0.060915; 0.602619;-0.795679;,
         0.079134;-0.560625;-0.824244;,
        -0.807367;-0.583880;-0.084933;,
        -0.807367;-0.583880;-0.084933;,
         0.079134;-0.560625;-0.824244;,
         0.825312;-0.561754; 0.056795;,
        -0.060915;-0.602619; 0.795679;,
        -0.060915;-0.602619; 0.795679;,
         0.825312;-0.561754; 0.056795;,
         0.807367; 0.583880; 0.084933;,
        -0.079134; 0.560625; 0.824244;,
        -0.079134; 0.560625; 0.824244;,
         0.807367; 0.583880; 0.084933;,
         0.060915; 0.602619;-0.795679;,
        -0.825312; 0.561754;-0.056795;,
        -0.807367;-0.583880;-0.084933;,
        -0.060915;-0.602619; 0.795679;,
        -0.079134; 0.560625; 0.824244;,
        -0.825312; 0.561754;-0.056795;,
         0.825312;-0.561754; 0.056795;,
         0.079134;-0.560625;-0.824244;,
         0.060915; 0.602619;-0.795679;,
         0.807367; 0.583880; 0.084933;,
        -0.825312; 0.561754;-0.056795;,
         0.060915; 0.602619;-0.795679;,
         0.079134;-0.560625;-0.824244;,
        -0.807367;-0.583880;-0.084933;,
        -0.807367;-0.583880;-0.084933;,
         0.079134;-0.560625;-0.824244;,
         0.825312;-0.561754; 0.056795;,
        -0.060915;-0.602619; 0.795679;,
        -0.060915;-0.602619; 0.795679;,
         0.825312;-0.561754; 0.056795;,
         0.807367; 0.583880; 0.084933;,
        -0.079134; 0.560625; 0.824244;,
        -0.079134; 0.560625; 0.824244;,
         0.807367; 0.583880; 0.084933;,
         0.060915; 0.602619;-0.795679;,
        -0.825312; 0.561754;-0.056795;,
        -0.807367;-0.583880;-0.084933;,
        -0.060915;-0.602619; 0.795679;,
        -0.079134; 0.560625; 0.824244;,
        -0.825312; 0.561754;-0.056795;,
         0.825312;-0.561754; 0.056795;,
         0.079134;-0.560625;-0.824244;,
         0.060915; 0.602619;-0.795679;,
         0.807367; 0.583880; 0.084933;;
        26;
        4;3,2,1,0;,
        4;7,6,5,4;,
        4;11,10,9,8;,
        4;15,14,13,12;,
        4;19,18,17,16;,
        4;23,22,21,20;,
        4;27,26,25,24;,
        4;31,30,29,28;,
        4;35,34,33,32;,
        4;39,38,37,36;,
        4;43,42,41,40;,
        4;47,46,45,44;,
        4;51,50,49,48;,
        4;55,54,53,52;,
        4;59,58,57,56;,
        4;63,62,61,60;,
        4;67,66,65,64;,
        4;71,70,69,68;,
        4;75,74,73,72;,
        4;79,78,77,76;,
        4;83,82,81,80;,
        4;87,86,85,84;,
        4;91,90,89,88;,
        4;95,94,93,92;,
        4;99,98,97,96;,
        4;103,102,101,100;;
      } // End of Cube normals
      MeshTextureCoords { // Cube UV coordinates
        104;
         0.790875; 0.426704;,
         0.491210; 0.426704;,
         0.491210; 1.000000;,
         0.790875; 1.000000;,
         0.336753; 0.370671;,
         0.336753; 0.094946;,
         0.168376; 0.094946;,
         0.168376; 0.370671;,
         0.060915; 1.000000;,
         0.360574; 1.000000;,
         0.360574; 0.426704;,
         0.060915; 0.426704;,
         0.168376; 0.370671;,
         0.168376; 0.094946;,
         0.000000; 0.094946;,
         0.000000; 0.370671;,
         0.168376; 0.370671;,
         0.000000; 0.370671;,
         0.001200; 0.426704;,
         0.149279; 0.426704;,
         0.360574; 0.426704;,
         0.360574; 1.000000;,
         0.425965; 0.961257;,
         0.425965; 0.465446;,
         0.997539; 0.000000;,
         0.851921; 0.000000;,
         0.851920; 0.495811;,
         0.997539; 0.495811;,
         0.491210; 1.000000;,
         0.491210; 0.426704;,
         0.425965; 0.465447;,
         0.425965; 0.961257;,
         0.000000; 0.094946;,
         0.168376; 0.094946;,
         0.146499; 0.034761;,
         0.000880; 0.034761;,
         0.168376; 0.094946;,
         0.336753; 0.094946;,
         0.335873; 0.034761;,
         0.190254; 0.034761;,
         1.000000; 0.495811;,
         0.851920; 0.495811;,
         0.851920; 1.000000;,
         1.000000; 1.000000;,
         0.336753; 0.370671;,
         0.168376; 0.370671;,
         0.187473; 0.426704;,
         0.335553; 0.426704;,
         0.790875; 0.426704;,
         0.790875; 1.000000;,
         0.851920; 0.965446;,
         0.851920; 0.461257;,
         0.060915; 1.000000;,
         0.060915; 0.426704;,
         0.000000; 0.461257;,
         0.000000; 0.965446;,
         0.501189; 0.343617;,
         0.501189; 0.426704;,
         0.576412; 0.426704;,
         0.576412; 0.343617;,
         0.679353; 0.426704;,
         0.679353; 0.322226;,
         0.651636; 0.320086;,
         0.651636; 0.424564;,
         0.501189; 0.426704;,
         0.501189; 0.343326;,
         0.425965; 0.343326;,
         0.425965; 0.426704;,
         0.707070; 0.424564;,
         0.707070; 0.320086;,
         0.679353; 0.322226;,
         0.679353; 0.426704;,
         0.597006; 0.343617;,
         0.617599; 0.343617;,
         0.617599; 0.274402;,
         0.597006; 0.274402;,
         0.783096; 0.357489;,
         0.762503; 0.357489;,
         0.762503; 0.426704;,
         0.783096; 0.426704;,
         0.576412; 0.343617;,
         0.576412; 0.426704;,
         0.651636; 0.426704;,
         0.651636; 0.343617;,
         0.762503; 0.426704;,
         0.762503; 0.322226;,
         0.734786; 0.320086;,
         0.734786; 0.424564;,
         0.350741; 0.343326;,
         0.350741; 0.426704;,
         0.425965; 0.426704;,
         0.425965; 0.343326;,
         0.707070; 0.322226;,
         0.707070; 0.426704;,
         0.734786; 0.424564;,
         0.734786; 0.320086;,
         0.576412; 0.343617;,
         0.597006; 0.343617;,
         0.597006; 0.274402;,
         0.576412; 0.274402;,
         0.783096; 0.288274;,
         0.762503; 0.288274;,
         0.762503; 0.357489;,
         0.783096; 0.357489;;
      } // End of Cube UV coordinates
      MeshMaterialList { // Cube material list
        1;
        26;
        0,
        0,
        0,
        0,
        0,
        0,
        0,
        0,
        0,
        0,
        0,
        0,
        0,
        0,
        0,
        0,
        0,
        0,
        0,
        0,
        0,
        0,
        0,
        0,
        0,
        0;
        Material Material_001 {
           0.640000; 0.640000; 0.640000; 1.000000;;
           96.078431;
           0.500000; 0.500000; 0.500000;;
           0.000000; 0.000000; 0.000000;;
        }
      } // End of Cube material list
    } // End of Cube mesh
  } // End of Cube
} // End of Root
