xof 0303txt 0032

Frame Root {
  FrameTransformMatrix {
     1.000000, 0.000000, 0.000000, 0.000000,
     0.000000,-0.000000, 1.000000, 0.000000,
     0.000000, 1.000000, 0.000000, 0.000000,
     0.000000, 0.000000, 0.000000, 1.000000;;
  }
  Frame Cube_001 {
    FrameTransformMatrix {
       1.000000, 0.000000, 0.000000, 0.000000,
       0.000000, 1.000000, 0.000000, 0.000000,
       0.000000, 0.000000, 1.000000, 0.000000,
       0.000000, 0.000000, 0.000000, 1.000000;;
    }
    Mesh { // Cube_001 mesh
      264;
      -0.089011; 0.254090; 0.007005;,
      -0.089011; 0.254090; 0.025340;,
      -0.010696; 0.292152; 0.025691;,
      -0.010696; 0.292152; 0.006654;,
       0.008164;-0.081012; 0.009320;,
       0.008164;-0.081012; 0.023025;,
       0.016925;-0.189827; 0.025691;,
       0.016925;-0.189827; 0.006654;,
      -0.063681;-0.187903; 0.025340;,
      -0.144139;-0.199058; 0.025691;,
      -0.111643;-0.248312; 0.022195;,
      -0.047838;-0.236227; 0.021973;,
      -0.137937; 0.129250; 0.009490;,
      -0.137937; 0.129250; 0.022855;,
      -0.169117; 0.236781; 0.025691;,
      -0.169117; 0.236781; 0.006654;,
      -0.059661;-0.082384; 0.009573;,
      -0.063681;-0.187903; 0.007005;,
      -0.144139;-0.199058; 0.006654;,
      -0.127031;-0.088760; 0.009320;,
      -0.070928; 0.127546; 0.022609;,
      -0.089011; 0.254090; 0.025340;,
      -0.169117; 0.236781; 0.025691;,
      -0.137937; 0.129250; 0.022855;,
      -0.059661;-0.082384; 0.022772;,
      -0.062531; 0.022739; 0.021938;,
      -0.126747; 0.020574; 0.022159;,
      -0.127031;-0.088760; 0.023025;,
      -0.070928; 0.127546; 0.009736;,
      -0.062531; 0.022739; 0.010407;,
      -0.126747; 0.020574; 0.010186;,
      -0.137937; 0.129250; 0.009490;,
      -0.127031;-0.088760; 0.009320;,
      -0.127031;-0.088760; 0.023025;,
      -0.126747; 0.020574; 0.022159;,
      -0.126747; 0.020574; 0.010186;,
      -0.004325; 0.136907; 0.009490;,
      -0.004325; 0.136907; 0.022855;,
       0.001919; 0.027948; 0.022159;,
       0.001919; 0.027948; 0.010186;,
      -0.010696; 0.292152; 0.006654;,
      -0.010696; 0.292152; 0.025691;,
      -0.004325; 0.136907; 0.022855;,
      -0.004325; 0.136907; 0.009490;,
      -0.089011; 0.254090; 0.007005;,
      -0.070928; 0.127546; 0.009736;,
      -0.137937; 0.129250; 0.009490;,
      -0.169117; 0.236781; 0.006654;,
      -0.062531; 0.022739; 0.021938;,
      -0.070928; 0.127546; 0.022609;,
      -0.137937; 0.129250; 0.022855;,
      -0.126747; 0.020574; 0.022159;,
      -0.126747; 0.020574; 0.010186;,
      -0.126747; 0.020574; 0.022159;,
      -0.137937; 0.129250; 0.022855;,
      -0.137937; 0.129250; 0.009490;,
      -0.144139;-0.199058; 0.006654;,
      -0.144139;-0.199058; 0.025691;,
      -0.127031;-0.088760; 0.023025;,
      -0.127031;-0.088760; 0.009320;,
      -0.063681;-0.187903; 0.025340;,
      -0.059661;-0.082384; 0.022772;,
      -0.127031;-0.088760; 0.023025;,
      -0.144139;-0.199058; 0.025691;,
      -0.062531; 0.022739; 0.010407;,
      -0.059661;-0.082384; 0.009573;,
      -0.127031;-0.088760; 0.009320;,
      -0.126747; 0.020574; 0.010186;,
       0.001919; 0.027948; 0.010186;,
       0.001919; 0.027948; 0.022159;,
       0.008164;-0.081012; 0.023025;,
       0.008164;-0.081012; 0.009320;,
      -0.047838;-0.236227; 0.010372;,
      -0.047838;-0.236227; 0.021973;,
      -0.111643;-0.248312; 0.022195;,
      -0.111643;-0.248312; 0.010150;,
       0.016925;-0.189827; 0.006654;,
       0.016925;-0.189827; 0.025691;,
       0.017328;-0.240921; 0.022195;,
       0.017328;-0.240921; 0.010150;,
      -0.144139;-0.199058; 0.025691;,
      -0.144139;-0.199058; 0.006654;,
      -0.111643;-0.248312; 0.010150;,
      -0.111643;-0.248312; 0.022195;,
      -0.063681;-0.187903; 0.007005;,
       0.016925;-0.189827; 0.006654;,
       0.017328;-0.240921; 0.010150;,
      -0.047838;-0.236227; 0.010372;,
      -0.144139;-0.199058; 0.006654;,
      -0.063681;-0.187903; 0.007005;,
      -0.047838;-0.236227; 0.010372;,
      -0.111643;-0.248312; 0.010150;,
       0.017328;-0.240921; 0.010150;,
       0.017328;-0.240921; 0.022195;,
      -0.047838;-0.236227; 0.021973;,
      -0.047838;-0.236227; 0.010372;,
       0.001919; 0.027948; 0.010186;,
       0.008164;-0.081012; 0.009320;,
      -0.059661;-0.082384; 0.009573;,
      -0.062531; 0.022739; 0.010407;,
       0.016925;-0.189827; 0.025691;,
       0.008164;-0.081012; 0.023025;,
      -0.059661;-0.082384; 0.022772;,
      -0.063681;-0.187903; 0.025340;,
       0.001919; 0.027948; 0.022159;,
      -0.004325; 0.136907; 0.022855;,
      -0.070928; 0.127546; 0.022609;,
      -0.062531; 0.022739; 0.021938;,
      -0.010696; 0.292152; 0.006654;,
      -0.004325; 0.136907; 0.009490;,
      -0.070928; 0.127546; 0.009736;,
      -0.089011; 0.254090; 0.007005;,
      -0.004325; 0.136907; 0.009490;,
       0.001919; 0.027948; 0.010186;,
      -0.062531; 0.022739; 0.010407;,
      -0.070928; 0.127546; 0.009736;,
       0.008164;-0.081012; 0.023025;,
       0.001919; 0.027948; 0.022159;,
      -0.062531; 0.022739; 0.021938;,
      -0.059661;-0.082384; 0.022772;,
      -0.004325; 0.136907; 0.022855;,
      -0.010696; 0.292152; 0.025691;,
      -0.089011; 0.254090; 0.025340;,
      -0.070928; 0.127546; 0.022609;,
       0.008164;-0.081012; 0.009320;,
       0.016925;-0.189827; 0.006654;,
      -0.063681;-0.187903; 0.007005;,
      -0.059661;-0.082384; 0.009573;,
       0.016925;-0.189827; 0.025691;,
      -0.063681;-0.187903; 0.025340;,
      -0.047838;-0.236227; 0.021973;,
       0.017328;-0.240921; 0.022195;,
      -0.169117; 0.236781; 0.006654;,
      -0.169117; 0.236781; 0.025691;,
      -0.089011; 0.254090; 0.025340;,
      -0.089011; 0.254090; 0.007005;,
       0.066419; 0.262998; 0.007005;,
      -0.015731; 0.291863; 0.006654;,
      -0.015731; 0.291863; 0.025691;,
       0.066419; 0.262998; 0.025340;,
       0.008164;-0.081012; 0.009320;,
       0.011891;-0.190116; 0.006654;,
       0.011891;-0.190116; 0.025691;,
       0.008164;-0.081012; 0.023025;,
       0.091749;-0.178995; 0.025340;,
       0.081531;-0.228813; 0.021973;,
       0.146299;-0.233530; 0.022195;,
       0.172955;-0.180885; 0.025691;,
       0.129287; 0.144565; 0.009490;,
       0.147978; 0.254953; 0.006654;,
       0.147978; 0.254953; 0.025691;,
       0.129287; 0.144565; 0.022855;,
       0.075702;-0.074627; 0.009573;,
       0.143359;-0.073264; 0.009320;,
       0.172955;-0.180885; 0.006654;,
       0.091749;-0.178995; 0.007005;,
       0.062911; 0.135216; 0.022609;,
       0.129287; 0.144565; 0.022855;,
       0.147978; 0.254953; 0.025691;,
       0.066419; 0.262998; 0.025340;,
       0.075702;-0.074627; 0.022772;,
       0.143359;-0.073264; 0.023025;,
       0.130585; 0.035321; 0.022159;,
       0.066543; 0.030136; 0.021938;,
       0.062911; 0.135216; 0.009736;,
       0.129287; 0.144565; 0.009490;,
       0.130585; 0.035321; 0.010186;,
       0.066543; 0.030136; 0.010407;,
       0.143359;-0.073264; 0.009320;,
       0.130585; 0.035321; 0.010186;,
       0.130585; 0.035321; 0.022159;,
       0.143359;-0.073264; 0.023025;,
      -0.015731; 0.291863; 0.006654;,
      -0.004325; 0.136907; 0.009490;,
      -0.004325; 0.136907; 0.022855;,
      -0.015731; 0.291863; 0.025691;,
       0.066419; 0.262998; 0.007005;,
       0.147978; 0.254953; 0.006654;,
       0.129287; 0.144565; 0.009490;,
       0.062911; 0.135216; 0.009736;,
       0.066543; 0.030136; 0.021938;,
       0.130585; 0.035321; 0.022159;,
       0.129287; 0.144565; 0.022855;,
       0.062911; 0.135216; 0.022609;,
       0.130585; 0.035321; 0.010186;,
       0.129287; 0.144565; 0.009490;,
       0.129287; 0.144565; 0.022855;,
       0.130585; 0.035321; 0.022159;,
       0.172955;-0.180885; 0.006654;,
       0.143359;-0.073264; 0.009320;,
       0.143359;-0.073264; 0.023025;,
       0.172955;-0.180885; 0.025691;,
       0.091749;-0.178995; 0.025340;,
       0.172955;-0.180885; 0.025691;,
       0.143359;-0.073264; 0.023025;,
       0.075702;-0.074627; 0.022772;,
       0.066543; 0.030136; 0.010407;,
       0.130585; 0.035321; 0.010186;,
       0.143359;-0.073264; 0.009320;,
       0.075702;-0.074627; 0.009573;,
       0.081531;-0.228813; 0.010372;,
       0.146299;-0.233530; 0.010150;,
       0.146299;-0.233530; 0.022195;,
       0.081531;-0.228813; 0.021973;,
       0.011891;-0.190116; 0.006654;,
       0.017328;-0.240921; 0.010150;,
       0.017328;-0.240921; 0.022195;,
       0.011891;-0.190116; 0.025691;,
       0.172955;-0.180885; 0.025691;,
       0.146299;-0.233530; 0.022195;,
       0.146299;-0.233530; 0.010150;,
       0.172955;-0.180885; 0.006654;,
       0.091749;-0.178995; 0.007005;,
       0.081531;-0.228813; 0.010372;,
       0.017328;-0.240921; 0.010150;,
       0.011891;-0.190116; 0.006654;,
       0.172955;-0.180885; 0.006654;,
       0.146299;-0.233530; 0.010150;,
       0.081531;-0.228813; 0.010372;,
       0.091749;-0.178995; 0.007005;,
       0.017328;-0.240921; 0.010150;,
       0.081531;-0.228813; 0.010372;,
       0.081531;-0.228813; 0.021973;,
       0.017328;-0.240921; 0.022195;,
       0.001919; 0.027948; 0.010186;,
       0.066543; 0.030136; 0.010407;,
       0.075702;-0.074627; 0.009573;,
       0.008164;-0.081012; 0.009320;,
       0.011891;-0.190116; 0.025691;,
       0.091749;-0.178995; 0.025340;,
       0.075702;-0.074627; 0.022772;,
       0.008164;-0.081012; 0.023025;,
       0.001919; 0.027948; 0.022159;,
       0.066543; 0.030136; 0.021938;,
       0.062911; 0.135216; 0.022609;,
      -0.004325; 0.136907; 0.022855;,
      -0.015731; 0.291863; 0.006654;,
       0.066419; 0.262998; 0.007005;,
       0.062911; 0.135216; 0.009736;,
      -0.004325; 0.136907; 0.009490;,
      -0.004325; 0.136907; 0.009490;,
       0.062911; 0.135216; 0.009736;,
       0.066543; 0.030136; 0.010407;,
       0.001919; 0.027948; 0.010186;,
       0.008164;-0.081012; 0.023025;,
       0.075702;-0.074627; 0.022772;,
       0.066543; 0.030136; 0.021938;,
       0.001919; 0.027948; 0.022159;,
      -0.004325; 0.136907; 0.022855;,
       0.062911; 0.135216; 0.022609;,
       0.066419; 0.262998; 0.025340;,
      -0.015731; 0.291863; 0.025691;,
       0.008164;-0.081012; 0.009320;,
       0.075702;-0.074627; 0.009573;,
       0.091749;-0.178995; 0.007005;,
       0.011891;-0.190116; 0.006654;,
       0.011891;-0.190116; 0.025691;,
       0.017328;-0.240921; 0.022195;,
       0.081531;-0.228813; 0.021973;,
       0.091749;-0.178995; 0.025340;,
       0.147978; 0.254953; 0.006654;,
       0.066419; 0.262998; 0.007005;,
       0.066419; 0.262998; 0.025340;,
       0.147978; 0.254953; 0.025691;;
      66;
      4;3,2,1,0;,
      4;7,6,5,4;,
      4;11,10,9,8;,
      4;15,14,13,12;,
      4;19,18,17,16;,
      4;23,22,21,20;,
      4;27,26,25,24;,
      4;31,30,29,28;,
      4;35,34,33,32;,
      4;39,38,37,36;,
      4;43,42,41,40;,
      4;47,46,45,44;,
      4;51,50,49,48;,
      4;55,54,53,52;,
      4;59,58,57,56;,
      4;63,62,61,60;,
      4;67,66,65,64;,
      4;71,70,69,68;,
      4;75,74,73,72;,
      4;79,78,77,76;,
      4;83,82,81,80;,
      4;87,86,85,84;,
      4;91,90,89,88;,
      4;95,94,93,92;,
      4;99,98,97,96;,
      4;103,102,101,100;,
      4;107,106,105,104;,
      4;111,110,109,108;,
      4;115,114,113,112;,
      4;119,118,117,116;,
      4;123,122,121,120;,
      4;127,126,125,124;,
      4;131,130,129,128;,
      4;135,134,133,132;,
      4;139,138,137,136;,
      4;143,142,141,140;,
      4;147,146,145,144;,
      4;151,150,149,148;,
      4;155,154,153,152;,
      4;159,158,157,156;,
      4;163,162,161,160;,
      4;167,166,165,164;,
      4;171,170,169,168;,
      4;175,174,173,172;,
      4;179,178,177,176;,
      4;183,182,181,180;,
      4;187,186,185,184;,
      4;191,190,189,188;,
      4;195,194,193,192;,
      4;199,198,197,196;,
      4;203,202,201,200;,
      4;207,206,205,204;,
      4;211,210,209,208;,
      4;215,214,213,212;,
      4;219,218,217,216;,
      4;223,222,221,220;,
      4;227,226,225,224;,
      4;231,230,229,228;,
      4;235,234,233,232;,
      4;239,238,237,236;,
      4;243,242,241,240;,
      4;247,246,245,244;,
      4;251,250,249,248;,
      4;255,254,253,252;,
      4;259,258,257,256;,
      4;263,262,261,260;;
      MeshNormals { // Cube_001 normals
        264;
        -0.220985; 0.633168;-0.741783;,
        -0.220985; 0.633168; 0.741783;,
         0.423933; 0.707419; 0.565477;,
         0.423933; 0.707419;-0.565477;,
         0.237709; 0.040956;-0.970458;,
         0.237709; 0.040956; 0.970458;,
         0.702628; 0.013794; 0.711386;,
         0.702628; 0.013794;-0.711386;,
         0.001892;-0.018586; 0.999817;,
        -0.744713;-0.170690; 0.645161;,
        -0.307016;-0.755547; 0.578661;,
         0.039064;-0.701621; 0.711447;,
        -0.672048;-0.143406;-0.726463;,
        -0.672048;-0.143406; 0.726463;,
        -0.700064; 0.413770; 0.581957;,
        -0.700064; 0.413770;-0.581957;,
        -0.000916; 0.015839;-0.999847;,
         0.001892;-0.018586;-0.999817;,
        -0.744713;-0.170690;-0.645161;,
        -0.687704; 0.066775;-0.722892;,
         0.002228;-0.013215; 0.999908;,
        -0.220985; 0.633168; 0.741783;,
        -0.700064; 0.413770; 0.581957;,
        -0.672048;-0.143406; 0.726463;,
        -0.000916; 0.015839; 0.999847;,
        -0.000092; 0.000855; 0.999969;,
        -0.694388;-0.034211; 0.718741;,
        -0.687704; 0.066775; 0.722892;,
         0.002228;-0.013215;-0.999908;,
        -0.000092; 0.000855;-0.999969;,
        -0.694388;-0.034211;-0.718741;,
        -0.672048;-0.143406;-0.726463;,
        -0.687704; 0.066775;-0.722892;,
        -0.687704; 0.066775; 0.722892;,
        -0.694388;-0.034211; 0.718741;,
        -0.694388;-0.034211;-0.718741;,
         0.241188;-0.007141;-0.970428;,
         0.241188;-0.007141; 0.970428;,
         0.448073; 0.026276; 0.893582;,
         0.448073; 0.026276;-0.893582;,
         0.423933; 0.707419;-0.565477;,
         0.423933; 0.707419; 0.565477;,
         0.241188;-0.007141; 0.970428;,
         0.241188;-0.007141;-0.970428;,
        -0.220985; 0.633168;-0.741783;,
         0.002228;-0.013215;-0.999908;,
        -0.672048;-0.143406;-0.726463;,
        -0.700064; 0.413770;-0.581957;,
        -0.000092; 0.000855; 0.999969;,
         0.002228;-0.013215; 0.999908;,
        -0.672048;-0.143406; 0.726463;,
        -0.694388;-0.034211; 0.718741;,
        -0.694388;-0.034211;-0.718741;,
        -0.694388;-0.034211; 0.718741;,
        -0.672048;-0.143406; 0.726463;,
        -0.672048;-0.143406;-0.726463;,
        -0.744713;-0.170690;-0.645161;,
        -0.744713;-0.170690; 0.645161;,
        -0.687704; 0.066775; 0.722892;,
        -0.687704; 0.066775;-0.722892;,
         0.001892;-0.018586; 0.999817;,
        -0.000916; 0.015839; 0.999847;,
        -0.687704; 0.066775; 0.722892;,
        -0.744713;-0.170690; 0.645161;,
        -0.000092; 0.000855;-0.999969;,
        -0.000916; 0.015839;-0.999847;,
        -0.687704; 0.066775;-0.722892;,
        -0.694388;-0.034211;-0.718741;,
         0.448073; 0.026276;-0.893582;,
         0.448073; 0.026276; 0.893582;,
         0.237709; 0.040956; 0.970458;,
         0.237709; 0.040956;-0.970458;,
         0.039064;-0.701621;-0.711447;,
         0.039064;-0.701621; 0.711447;,
        -0.307016;-0.755547; 0.578661;,
        -0.307016;-0.755547;-0.578661;,
         0.702628; 0.013794;-0.711386;,
         0.702628; 0.013794; 0.711386;,
         0.043458;-0.758599; 0.650075;,
         0.043458;-0.758599;-0.650075;,
        -0.744713;-0.170690; 0.645161;,
        -0.744713;-0.170690;-0.645161;,
        -0.307016;-0.755547;-0.578661;,
        -0.307016;-0.755547; 0.578661;,
         0.001892;-0.018586;-0.999817;,
         0.702628; 0.013794;-0.711386;,
         0.043458;-0.758599;-0.650075;,
         0.039064;-0.701621;-0.711447;,
        -0.744713;-0.170690;-0.645161;,
         0.001892;-0.018586;-0.999817;,
         0.039064;-0.701621;-0.711447;,
        -0.307016;-0.755547;-0.578661;,
         0.043458;-0.758599;-0.650075;,
         0.043458;-0.758599; 0.650075;,
         0.039064;-0.701621; 0.711447;,
         0.039064;-0.701621;-0.711447;,
         0.448073; 0.026276;-0.893582;,
         0.237709; 0.040956;-0.970458;,
        -0.000916; 0.015839;-0.999847;,
        -0.000092; 0.000855;-0.999969;,
         0.702628; 0.013794; 0.711386;,
         0.237709; 0.040956; 0.970458;,
        -0.000916; 0.015839; 0.999847;,
         0.001892;-0.018586; 0.999817;,
         0.448073; 0.026276; 0.893582;,
         0.241188;-0.007141; 0.970428;,
         0.002228;-0.013215; 0.999908;,
        -0.000092; 0.000855; 0.999969;,
         0.423933; 0.707419;-0.565477;,
         0.241188;-0.007141;-0.970428;,
         0.002228;-0.013215;-0.999908;,
        -0.220985; 0.633168;-0.741783;,
         0.241188;-0.007141;-0.970428;,
         0.448073; 0.026276;-0.893582;,
        -0.000092; 0.000855;-0.999969;,
         0.002228;-0.013215;-0.999908;,
         0.237709; 0.040956; 0.970458;,
         0.448073; 0.026276; 0.893582;,
        -0.000092; 0.000855; 0.999969;,
        -0.000916; 0.015839; 0.999847;,
         0.241188;-0.007141; 0.970428;,
         0.423933; 0.707419; 0.565477;,
        -0.220985; 0.633168; 0.741783;,
         0.002228;-0.013215; 0.999908;,
         0.237709; 0.040956;-0.970458;,
         0.702628; 0.013794;-0.711386;,
         0.001892;-0.018586;-0.999817;,
        -0.000916; 0.015839;-0.999847;,
         0.702628; 0.013794; 0.711386;,
         0.001892;-0.018586; 0.999817;,
         0.039064;-0.701621; 0.711447;,
         0.043458;-0.758599; 0.650075;,
        -0.700064; 0.413770;-0.581957;,
        -0.700064; 0.413770; 0.581957;,
        -0.220985; 0.633168; 0.741783;,
        -0.220985; 0.633168;-0.741783;,
         0.147191; 0.654256;-0.741783;,
        -0.501968; 0.654378;-0.565477;,
        -0.501968; 0.654378; 0.565477;,
         0.147191; 0.654256; 0.741783;,
         0.237709; 0.040956;-0.970458;,
        -0.699606;-0.066561;-0.711386;,
        -0.699606;-0.066561; 0.711386;,
         0.237709; 0.040956; 0.970458;,
         0.000214;-0.018677; 0.999817;,
         0.041322;-0.701498; 0.711447;,
         0.391308;-0.715506; 0.578661;,
         0.759331;-0.084506; 0.645161;,
         0.684042;-0.065706;-0.726463;,
         0.648213; 0.491012;-0.581957;,
         0.648213; 0.491012; 0.581957;,
         0.684042;-0.065706; 0.726463;,
        -0.000855; 0.015839;-0.999847;,
         0.675558; 0.144902;-0.722892;,
         0.759331;-0.084506;-0.645161;,
         0.000214;-0.018677;-0.999817;,
        -0.000702;-0.013398; 0.999908;,
         0.684042;-0.065706; 0.726463;,
         0.648213; 0.491012; 0.581957;,
         0.147191; 0.654256; 0.741783;,
        -0.000855; 0.015839; 0.999847;,
         0.675558; 0.144902; 0.722892;,
         0.693747; 0.045320; 0.718741;,
         0.000000; 0.000855; 0.999969;,
        -0.000702;-0.013398;-0.999908;,
         0.684042;-0.065706;-0.726463;,
         0.693747; 0.045320;-0.718741;,
         0.000000; 0.000855;-0.999969;,
         0.675558; 0.144902;-0.722892;,
         0.693747; 0.045320;-0.718741;,
         0.693747; 0.045320; 0.718741;,
         0.675558; 0.144902; 0.722892;,
        -0.501968; 0.654378;-0.565477;,
         0.241188;-0.007141;-0.970428;,
         0.241188;-0.007141; 0.970428;,
        -0.501968; 0.654378; 0.565477;,
         0.147191; 0.654256;-0.741783;,
         0.648213; 0.491012;-0.581957;,
         0.684042;-0.065706;-0.726463;,
        -0.000702;-0.013398;-0.999908;,
         0.000000; 0.000855; 0.999969;,
         0.693747; 0.045320; 0.718741;,
         0.684042;-0.065706; 0.726463;,
        -0.000702;-0.013398; 0.999908;,
         0.693747; 0.045320;-0.718741;,
         0.684042;-0.065706;-0.726463;,
         0.684042;-0.065706; 0.726463;,
         0.693747; 0.045320; 0.718741;,
         0.759331;-0.084506;-0.645161;,
         0.675558; 0.144902;-0.722892;,
         0.675558; 0.144902; 0.722892;,
         0.759331;-0.084506; 0.645161;,
         0.000214;-0.018677; 0.999817;,
         0.759331;-0.084506; 0.645161;,
         0.675558; 0.144902; 0.722892;,
        -0.000855; 0.015839; 0.999847;,
         0.000000; 0.000855;-0.999969;,
         0.693747; 0.045320;-0.718741;,
         0.675558; 0.144902;-0.722892;,
        -0.000855; 0.015839;-0.999847;,
         0.041322;-0.701498;-0.711447;,
         0.391308;-0.715506;-0.578661;,
         0.391308;-0.715506; 0.578661;,
         0.041322;-0.701498; 0.711447;,
        -0.699606;-0.066561;-0.711386;,
         0.043458;-0.758599;-0.650075;,
         0.043458;-0.758599; 0.650075;,
        -0.699606;-0.066561; 0.711386;,
         0.759331;-0.084506; 0.645161;,
         0.391308;-0.715506; 0.578661;,
         0.391308;-0.715506;-0.578661;,
         0.759331;-0.084506;-0.645161;,
         0.000214;-0.018677;-0.999817;,
         0.041322;-0.701498;-0.711447;,
         0.043458;-0.758599;-0.650075;,
        -0.699606;-0.066561;-0.711386;,
         0.759331;-0.084506;-0.645161;,
         0.391308;-0.715506;-0.578661;,
         0.041322;-0.701498;-0.711447;,
         0.000214;-0.018677;-0.999817;,
         0.043458;-0.758599;-0.650075;,
         0.041322;-0.701498;-0.711447;,
         0.041322;-0.701498; 0.711447;,
         0.043458;-0.758599; 0.650075;,
         0.448073; 0.026276;-0.893582;,
         0.000000; 0.000855;-0.999969;,
        -0.000855; 0.015839;-0.999847;,
         0.237709; 0.040956;-0.970458;,
        -0.699606;-0.066561; 0.711386;,
         0.000214;-0.018677; 0.999817;,
        -0.000855; 0.015839; 0.999847;,
         0.237709; 0.040956; 0.970458;,
         0.448073; 0.026276; 0.893582;,
         0.000000; 0.000855; 0.999969;,
        -0.000702;-0.013398; 0.999908;,
         0.241188;-0.007141; 0.970428;,
        -0.501968; 0.654378;-0.565477;,
         0.147191; 0.654256;-0.741783;,
        -0.000702;-0.013398;-0.999908;,
         0.241188;-0.007141;-0.970428;,
         0.241188;-0.007141;-0.970428;,
        -0.000702;-0.013398;-0.999908;,
         0.000000; 0.000855;-0.999969;,
         0.448073; 0.026276;-0.893582;,
         0.237709; 0.040956; 0.970458;,
        -0.000855; 0.015839; 0.999847;,
         0.000000; 0.000855; 0.999969;,
         0.448073; 0.026276; 0.893582;,
         0.241188;-0.007141; 0.970428;,
        -0.000702;-0.013398; 0.999908;,
         0.147191; 0.654256; 0.741783;,
        -0.501968; 0.654378; 0.565477;,
         0.237709; 0.040956;-0.970458;,
        -0.000855; 0.015839;-0.999847;,
         0.000214;-0.018677;-0.999817;,
        -0.699606;-0.066561;-0.711386;,
        -0.699606;-0.066561; 0.711386;,
         0.043458;-0.758599; 0.650075;,
         0.041322;-0.701498; 0.711447;,
         0.000214;-0.018677; 0.999817;,
         0.648213; 0.491012;-0.581957;,
         0.147191; 0.654256;-0.741783;,
         0.147191; 0.654256; 0.741783;,
         0.648213; 0.491012; 0.581957;;
        66;
        4;3,2,1,0;,
        4;7,6,5,4;,
        4;11,10,9,8;,
        4;15,14,13,12;,
        4;19,18,17,16;,
        4;23,22,21,20;,
        4;27,26,25,24;,
        4;31,30,29,28;,
        4;35,34,33,32;,
        4;39,38,37,36;,
        4;43,42,41,40;,
        4;47,46,45,44;,
        4;51,50,49,48;,
        4;55,54,53,52;,
        4;59,58,57,56;,
        4;63,62,61,60;,
        4;67,66,65,64;,
        4;71,70,69,68;,
        4;75,74,73,72;,
        4;79,78,77,76;,
        4;83,82,81,80;,
        4;87,86,85,84;,
        4;91,90,89,88;,
        4;95,94,93,92;,
        4;99,98,97,96;,
        4;103,102,101,100;,
        4;107,106,105,104;,
        4;111,110,109,108;,
        4;115,114,113,112;,
        4;119,118,117,116;,
        4;123,122,121,120;,
        4;127,126,125,124;,
        4;131,130,129,128;,
        4;135,134,133,132;,
        4;139,138,137,136;,
        4;143,142,141,140;,
        4;147,146,145,144;,
        4;151,150,149,148;,
        4;155,154,153,152;,
        4;159,158,157,156;,
        4;163,162,161,160;,
        4;167,166,165,164;,
        4;171,170,169,168;,
        4;175,174,173,172;,
        4;179,178,177,176;,
        4;183,182,181,180;,
        4;187,186,185,184;,
        4;191,190,189,188;,
        4;195,194,193,192;,
        4;199,198,197,196;,
        4;203,202,201,200;,
        4;207,206,205,204;,
        4;211,210,209,208;,
        4;215,214,213,212;,
        4;219,218,217,216;,
        4;223,222,221,220;,
        4;227,226,225,224;,
        4;231,230,229,228;,
        4;235,234,233,232;,
        4;239,238,237,236;,
        4;243,242,241,240;,
        4;247,246,245,244;,
        4;251,250,249,248;,
        4;255,254,253,252;,
        4;259,258,257,256;,
        4;263,262,261,260;;
      } // End of Cube_001 normals
      MeshTextureCoords { // Cube_001 UV coordinates
        264;
         0.982401; 0.179069;,
         0.956371; 0.179069;,
         0.955873; 0.295050;,
         0.982899; 0.295050;,
         0.905606; 0.461404;,
         0.925062; 0.461404;,
         0.928847; 0.304338;,
         0.901821; 0.304338;,
         0.335966; 0.312748;,
         0.450910; 0.303326;,
         0.408853; 0.229619;,
         0.317437; 0.241758;,
         0.978874; 0.840371;,
         0.959899; 0.840371;,
         0.955873; 1.000000;,
         0.982899; 1.000000;,
         0.580122; 0.464391;,
         0.565855; 0.312748;,
         0.450911; 0.303326;,
         0.484118; 0.460773;,
         0.320615; 0.767768;,
         0.335966; 0.951624;,
         0.450910; 0.933307;,
         0.415453; 0.775761;,
         0.321699; 0.464391;,
         0.317228; 0.616066;,
         0.408419; 0.618253;,
         0.417703; 0.460773;,
         0.581206; 0.767768;,
         0.584593; 0.616066;,
         0.493402; 0.618253;,
         0.486368; 0.775761;,
         0.979114; 0.526274;,
         0.959658; 0.526274;,
         0.960887; 0.682747;,
         0.977885; 0.682747;,
         0.905846; 0.775936;,
         0.924821; 0.775936;,
         0.923833; 0.618670;,
         0.906835; 0.618670;,
         0.901821; 1.000000;,
         0.928847; 1.000000;,
         0.924821; 0.775936;,
         0.905846; 0.775936;,
         0.565855; 0.951624;,
         0.581206; 0.767768;,
         0.486368; 0.775761;,
         0.450911; 0.933307;,
         0.317228; 0.616066;,
         0.320615; 0.767768;,
         0.415453; 0.775761;,
         0.408419; 0.618253;,
         0.977885; 0.682747;,
         0.960887; 0.682747;,
         0.959899; 0.840371;,
         0.978874; 0.840371;,
         0.982899; 0.371489;,
         0.955873; 0.371489;,
         0.959658; 0.526274;,
         0.979114; 0.526274;,
         0.335966; 0.312748;,
         0.321699; 0.464391;,
         0.417703; 0.460773;,
         0.450910; 0.303326;,
         0.584593; 0.616066;,
         0.580122; 0.464391;,
         0.484118; 0.460773;,
         0.493402; 0.618253;,
         0.906835; 0.618670;,
         0.923833; 0.618670;,
         0.925062; 0.461404;,
         0.905606; 0.461404;,
         0.999685; 0.907070;,
         0.983215; 0.907070;,
         0.982899; 1.000000;,
         1.000000; 1.000000;,
         0.901821; 0.304338;,
         0.928847; 0.304338;,
         0.923884; 0.230600;,
         0.906784; 0.230600;,
         0.955873; 0.371489;,
         0.982899; 0.371489;,
         0.977937; 0.295050;,
         0.960836; 0.295050;,
         0.565855; 0.312748;,
         0.679945; 0.303326;,
         0.676366; 0.229619;,
         0.584384; 0.241758;,
         0.450911; 0.303326;,
         0.565855; 0.312748;,
         0.584384; 0.241758;,
         0.492968; 0.229619;,
         1.000000; 0.813565;,
         0.982899; 0.813565;,
         0.983215; 0.907070;,
         0.999685; 0.907070;,
         0.676366; 0.618253;,
         0.676366; 0.460773;,
         0.580122; 0.464391;,
         0.584593; 0.616066;,
         0.221876; 0.303326;,
         0.225455; 0.460773;,
         0.321699; 0.464391;,
         0.335966; 0.312748;,
         0.225455; 0.618253;,
         0.225455; 0.775761;,
         0.320615; 0.767768;,
         0.317228; 0.616066;,
         0.679945; 1.000000;,
         0.676366; 0.775761;,
         0.581206; 0.767768;,
         0.565855; 0.951624;,
         0.676366; 0.775761;,
         0.676366; 0.618253;,
         0.584593; 0.616066;,
         0.581206; 0.767768;,
         0.225455; 0.460773;,
         0.225455; 0.618253;,
         0.317228; 0.616066;,
         0.321699; 0.464391;,
         0.225455; 0.775761;,
         0.221875; 1.000000;,
         0.335966; 0.951624;,
         0.320615; 0.767768;,
         0.676366; 0.460773;,
         0.679945; 0.303326;,
         0.565855; 0.312748;,
         0.580122; 0.464391;,
         0.221876; 0.303326;,
         0.335966; 0.312748;,
         0.317437; 0.241758;,
         0.225455; 0.229619;,
         0.982899; 0.062221;,
         0.955873; 0.062221;,
         0.956371; 0.179069;,
         0.982401; 0.179069;,
         0.955375; 0.178185;,
         0.955873; 0.062204;,
         0.928847; 0.062204;,
         0.929345; 0.178185;,
         0.905606; 0.000000;,
         0.901821; 0.156875;,
         0.928847; 0.156875;,
         0.925062; 0.000000;,
         0.114944; 0.312748;,
         0.133474; 0.241758;,
         0.042058; 0.229619;,
         0.000000; 0.303326;,
         0.951848; 0.454293;,
         0.955873; 0.295033;,
         0.928847; 0.295033;,
         0.932873; 0.454293;,
         0.772609; 0.464391;,
         0.868614; 0.460773;,
         0.901821; 0.303326;,
         0.786877; 0.312748;,
         0.130295; 0.767768;,
         0.035458; 0.775761;,
         0.000000; 0.933307;,
         0.114944; 0.951624;,
         0.129212; 0.464391;,
         0.033207; 0.460773;,
         0.042491; 0.618253;,
         0.133683; 0.616066;,
         0.771525; 0.767768;,
         0.866363; 0.775761;,
         0.859329; 0.618253;,
         0.768138; 0.616066;,
         0.952088; 0.768699;,
         0.950859; 0.611954;,
         0.933861; 0.611954;,
         0.932632; 0.768699;,
         0.027026; 0.229619;,
         0.023001; 0.005701;,
         0.004026; 0.005701;,
         0.000000; 0.229619;,
         0.786877; 0.951624;,
         0.901821; 0.933307;,
         0.866363; 0.775761;,
         0.771525; 0.767768;,
         0.133683; 0.616066;,
         0.042491; 0.618253;,
         0.035458; 0.775761;,
         0.130295; 0.767768;,
         0.950859; 0.611954;,
         0.951848; 0.454293;,
         0.932873; 0.454293;,
         0.933861; 0.611954;,
         0.955873; 0.924098;,
         0.952088; 0.768699;,
         0.932632; 0.768699;,
         0.928847; 0.924098;,
         0.114944; 0.312748;,
         0.000000; 0.303326;,
         0.033207; 0.460773;,
         0.129212; 0.464391;,
         0.768138; 0.616066;,
         0.859329; 0.618253;,
         0.868614; 0.460773;,
         0.772609; 0.464391;,
         0.999685; 0.720061;,
         1.000000; 0.627130;,
         0.982899; 0.627130;,
         0.983215; 0.720061;,
         0.901821; 0.156875;,
         0.906784; 0.230600;,
         0.923884; 0.230600;,
         0.928847; 0.156875;,
         0.928847; 0.924098;,
         0.933810; 1.000000;,
         0.950910; 1.000000;,
         0.955873; 0.924098;,
         0.786877; 0.312748;,
         0.768347; 0.241758;,
         0.676366; 0.229619;,
         0.672786; 0.303326;,
         0.901821; 0.303326;,
         0.859763; 0.229619;,
         0.768347; 0.241758;,
         0.786877; 0.312748;,
         1.000000; 0.813565;,
         0.999685; 0.720061;,
         0.983215; 0.720061;,
         0.982899; 0.813565;,
         0.676366; 0.618253;,
         0.768138; 0.616066;,
         0.772609; 0.464391;,
         0.676366; 0.460773;,
         0.229035; 0.303326;,
         0.114944; 0.312748;,
         0.129212; 0.464391;,
         0.225455; 0.460773;,
         0.225455; 0.618253;,
         0.133683; 0.616066;,
         0.130295; 0.767768;,
         0.225455; 0.775761;,
         0.672786; 1.000000;,
         0.786877; 0.951624;,
         0.771525; 0.767768;,
         0.676366; 0.775761;,
         0.676366; 0.775761;,
         0.771525; 0.767768;,
         0.768138; 0.616066;,
         0.676366; 0.618253;,
         0.225455; 0.460773;,
         0.129212; 0.464391;,
         0.133683; 0.616066;,
         0.225455; 0.618253;,
         0.225455; 0.775761;,
         0.130295; 0.767768;,
         0.114944; 0.951624;,
         0.229035; 1.000000;,
         0.676366; 0.460773;,
         0.772609; 0.464391;,
         0.786877; 0.312748;,
         0.672786; 0.303326;,
         0.229035; 0.303326;,
         0.225455; 0.229619;,
         0.133474; 0.241758;,
         0.114944; 0.312748;,
         0.955873; 0.295033;,
         0.955375; 0.178185;,
         0.929345; 0.178185;,
         0.928847; 0.295033;;
      } // End of Cube_001 UV coordinates
      MeshMaterialList { // Cube_001 material list
        1;
        66;
        0,
        0,
        0,
        0,
        0,
        0,
        0,
        0,
        0,
        0,
        0,
        0,
        0,
        0,
        0,
        0,
        0,
        0,
        0,
        0,
        0,
        0,
        0,
        0,
        0,
        0,
        0,
        0,
        0,
        0,
        0,
        0,
        0,
        0,
        0,
        0,
        0,
        0,
        0,
        0,
        0,
        0,
        0,
        0,
        0,
        0,
        0,
        0,
        0,
        0,
        0,
        0,
        0,
        0,
        0,
        0,
        0,
        0,
        0,
        0,
        0,
        0,
        0,
        0,
        0,
        0;
        Material Material_002 {
           0.640000; 0.640000; 0.640000; 1.000000;;
           96.078431;
           0.500000; 0.500000; 0.500000;;
           0.000000; 0.000000; 0.000000;;
        }
      } // End of Cube_001 material list
    } // End of Cube_001 mesh
  } // End of Cube_001
} // End of Root
