xof 0303txt 0032

Frame Root {
  FrameTransformMatrix {
     1.000000, 0.000000, 0.000000, 0.000000,
     0.000000,-0.000000, 1.000000, 0.000000,
     0.000000, 1.000000, 0.000000, 0.000000,
     0.000000, 0.000000, 0.000000, 1.000000;;
  }
  Frame Cube {
    FrameTransformMatrix {
       1.000000, 0.000000, 0.000000, 0.000000,
       0.000000, 1.000000, 0.000000, 0.000000,
       0.000000, 0.000000, 1.000000, 0.000000,
       0.000000, 0.000000, 0.000000, 1.000000;;
    }
    Mesh { // Cube mesh
      144;
      -0.004673; 0.083994; 0.008308;,
      -0.000924; 0.083994; 0.030149;,
      -0.000262; 0.159775; 0.028036;,
      -0.000262; 0.183967; 0.008308;,
      -0.000262; 0.183967; 0.008308;,
      -0.000262; 0.159775; 0.028036;,
       0.048628; 0.130315; 0.028036;,
       0.089568; 0.154506; 0.008308;,
       0.068761;-0.057032; 0.008308;,
       0.027821;-0.057032; 0.028036;,
       0.048628;-0.124866; 0.028036;,
       0.089568;-0.144793; 0.008308;,
       0.089568;-0.144793; 0.008308;,
       0.048628;-0.124866; 0.028036;,
      -0.004673;-0.109032; 0.028036;,
      -0.004673;-0.128959; 0.008308;,
      -0.004673;-0.057032; 0.008308;,
       0.068761;-0.057032; 0.008308;,
       0.089568;-0.144793; 0.008308;,
      -0.004673;-0.128959; 0.008308;,
       0.027821;-0.057032; 0.028036;,
      -0.000924;-0.057032; 0.030149;,
      -0.004673;-0.109032; 0.028036;,
       0.048628;-0.124866; 0.028036;,
       0.030137; 0.083994; 0.028036;,
      -0.000924; 0.083994; 0.030149;,
      -0.000924; 0.013481; 0.030149;,
       0.048628; 0.013481; 0.028036;,
      -0.004673; 0.083994; 0.008308;,
       0.071077; 0.083994; 0.008308;,
       0.089568; 0.013481; 0.008308;,
      -0.004673; 0.013481; 0.008308;,
       0.071077; 0.083994; 0.008308;,
       0.030137; 0.083994; 0.028036;,
       0.048628; 0.013481; 0.028036;,
       0.089568; 0.013481; 0.008308;,
      -0.004673;-0.057032; 0.008308;,
      -0.000924;-0.057032; 0.030149;,
      -0.000924; 0.013481; 0.030149;,
      -0.004673; 0.013481; 0.008308;,
      -0.004673;-0.128959; 0.008308;,
      -0.004673;-0.109032; 0.028036;,
      -0.000924;-0.057032; 0.030149;,
      -0.004673;-0.057032; 0.008308;,
       0.048628; 0.013481; 0.028036;,
      -0.000924; 0.013481; 0.030149;,
      -0.000924;-0.057032; 0.030149;,
       0.027821;-0.057032; 0.028036;,
      -0.004673; 0.013481; 0.008308;,
       0.089568; 0.013481; 0.008308;,
       0.068761;-0.057032; 0.008308;,
      -0.004673;-0.057032; 0.008308;,
       0.089568; 0.013481; 0.008308;,
       0.048628; 0.013481; 0.028036;,
       0.027821;-0.057032; 0.028036;,
       0.068761;-0.057032; 0.008308;,
       0.089568; 0.154506; 0.008308;,
       0.048628; 0.130315; 0.028036;,
       0.030137; 0.083994; 0.028036;,
       0.071077; 0.083994; 0.008308;,
      -0.000262; 0.183967; 0.008308;,
       0.089568; 0.154506; 0.008308;,
       0.071077; 0.083994; 0.008308;,
      -0.004673; 0.083994; 0.008308;,
       0.048628; 0.130315; 0.028036;,
      -0.000262; 0.159775; 0.028036;,
      -0.000924; 0.083994; 0.030149;,
       0.030137; 0.083994; 0.028036;,
      -0.004673; 0.013481; 0.008308;,
      -0.000924; 0.013481; 0.030149;,
      -0.000924; 0.083994; 0.030149;,
      -0.004673; 0.083994; 0.008308;,
       0.004673; 0.083994; 0.008308;,
       0.000262; 0.183967; 0.008308;,
       0.000262; 0.159775; 0.028036;,
       0.000924; 0.083994; 0.030149;,
       0.000262; 0.183967; 0.008308;,
      -0.089568; 0.154506; 0.008308;,
      -0.048628; 0.130315; 0.028036;,
       0.000262; 0.159775; 0.028036;,
      -0.068761;-0.057032; 0.008308;,
      -0.089568;-0.144793; 0.008308;,
      -0.048628;-0.124866; 0.028036;,
      -0.027821;-0.057032; 0.028036;,
      -0.089568;-0.144793; 0.008308;,
       0.004673;-0.128959; 0.008308;,
       0.004673;-0.109032; 0.028036;,
      -0.048628;-0.124866; 0.028036;,
       0.004673;-0.057032; 0.008308;,
       0.004673;-0.128959; 0.008308;,
      -0.089568;-0.144793; 0.008308;,
      -0.068761;-0.057032; 0.008308;,
      -0.027821;-0.057032; 0.028036;,
      -0.048628;-0.124866; 0.028036;,
       0.004673;-0.109032; 0.028036;,
       0.000924;-0.057032; 0.030149;,
      -0.030137; 0.083994; 0.028036;,
      -0.048628; 0.013481; 0.028036;,
       0.000924; 0.013481; 0.030149;,
       0.000924; 0.083994; 0.030149;,
       0.004673; 0.083994; 0.008308;,
       0.004673; 0.013481; 0.008308;,
      -0.089568; 0.013481; 0.008308;,
      -0.071077; 0.083994; 0.008308;,
      -0.071077; 0.083994; 0.008308;,
      -0.089568; 0.013481; 0.008308;,
      -0.048628; 0.013481; 0.028036;,
      -0.030137; 0.083994; 0.028036;,
       0.004673;-0.057032; 0.008308;,
       0.004673; 0.013481; 0.008308;,
       0.000924; 0.013481; 0.030149;,
       0.000924;-0.057032; 0.030149;,
       0.004673;-0.128959; 0.008308;,
       0.004673;-0.057032; 0.008308;,
       0.000924;-0.057032; 0.030149;,
       0.004673;-0.109032; 0.028036;,
      -0.048628; 0.013481; 0.028036;,
      -0.027821;-0.057032; 0.028036;,
       0.000924;-0.057032; 0.030149;,
       0.000924; 0.013481; 0.030149;,
       0.004673; 0.013481; 0.008308;,
       0.004673;-0.057032; 0.008308;,
      -0.068761;-0.057032; 0.008308;,
      -0.089568; 0.013481; 0.008308;,
      -0.089568; 0.013481; 0.008308;,
      -0.068761;-0.057032; 0.008308;,
      -0.027821;-0.057032; 0.028036;,
      -0.048628; 0.013481; 0.028036;,
      -0.089568; 0.154506; 0.008308;,
      -0.071077; 0.083994; 0.008308;,
      -0.030137; 0.083994; 0.028036;,
      -0.048628; 0.130315; 0.028036;,
       0.000262; 0.183967; 0.008308;,
       0.004673; 0.083994; 0.008308;,
      -0.071077; 0.083994; 0.008308;,
      -0.089568; 0.154506; 0.008308;,
      -0.048628; 0.130315; 0.028036;,
      -0.030137; 0.083994; 0.028036;,
       0.000924; 0.083994; 0.030149;,
       0.000262; 0.159775; 0.028036;,
       0.004673; 0.013481; 0.008308;,
       0.004673; 0.083994; 0.008308;,
       0.000924; 0.083994; 0.030149;,
       0.000924; 0.013481; 0.030149;;
      36;
      4;3,2,1,0;,
      4;7,6,5,4;,
      4;11,10,9,8;,
      4;15,14,13,12;,
      4;19,18,17,16;,
      4;23,22,21,20;,
      4;27,26,25,24;,
      4;31,30,29,28;,
      4;35,34,33,32;,
      4;39,38,37,36;,
      4;43,42,41,40;,
      4;47,46,45,44;,
      4;51,50,49,48;,
      4;55,54,53,52;,
      4;59,58,57,56;,
      4;63,62,61,60;,
      4;67,66,65,64;,
      4;71,70,69,68;,
      4;75,74,73,72;,
      4;79,78,77,76;,
      4;83,82,81,80;,
      4;87,86,85,84;,
      4;91,90,89,88;,
      4;95,94,93,92;,
      4;99,98,97,96;,
      4;103,102,101,100;,
      4;107,106,105,104;,
      4;111,110,109,108;,
      4;115,114,113,112;,
      4;119,118,117,116;,
      4;123,122,121,120;,
      4;127,126,125,124;,
      4;131,130,129,128;,
      4;135,134,133,132;,
      4;139,138,137,136;,
      4;143,142,141,140;;
      MeshNormals { // Cube normals
        144;
        -0.758507; 0.011444;-0.651540;,
        -0.638417; 0.016511; 0.769494;,
        -0.538102; 0.289438; 0.791620;,
        -0.495895; 0.856868;-0.140812;,
        -0.495895; 0.856868;-0.140812;,
        -0.538102; 0.289438; 0.791620;,
         0.275918; 0.118900; 0.953764;,
         0.858058; 0.484573;-0.169866;,
         0.961394;-0.009522;-0.274972;,
         0.210395;-0.008057; 0.977569;,
         0.118931;-0.366771; 0.922666;,
         0.792596;-0.605670;-0.070193;,
         0.792596;-0.605670;-0.070193;,
         0.118931;-0.366771; 0.922666;,
        -0.653951;-0.257668; 0.711264;,
        -0.592364;-0.719535;-0.362407;,
        -0.748711; 0.010895;-0.662770;,
         0.961394;-0.009522;-0.274972;,
         0.792596;-0.605670;-0.070193;,
        -0.592364;-0.719535;-0.362407;,
         0.210395;-0.008057; 0.977569;,
        -0.633656; 0.001679; 0.773583;,
        -0.653951;-0.257668; 0.711264;,
         0.118931;-0.366771; 0.922666;,
         0.210974; 0.001221; 0.977477;,
        -0.638417; 0.016511; 0.769494;,
        -0.623981;-0.000336; 0.781426;,
         0.279763;-0.004883; 0.960021;,
        -0.758507; 0.011444;-0.651540;,
         0.959624;-0.036256;-0.278878;,
         0.981048;-0.013062;-0.193304;,
        -0.764580; 0.000000;-0.644490;,
         0.959624;-0.036256;-0.278878;,
         0.210974; 0.001221; 0.977477;,
         0.279763;-0.004883; 0.960021;,
         0.981048;-0.013062;-0.193304;,
        -0.748711; 0.010895;-0.662770;,
        -0.633656; 0.001679; 0.773583;,
        -0.623981;-0.000336; 0.781426;,
        -0.764580; 0.000000;-0.644490;,
        -0.592364;-0.719535;-0.362407;,
        -0.653951;-0.257668; 0.711264;,
        -0.633656; 0.001679; 0.773583;,
        -0.748711; 0.010895;-0.662770;,
         0.279763;-0.004883; 0.960021;,
        -0.623981;-0.000336; 0.781426;,
        -0.633656; 0.001679; 0.773583;,
         0.210395;-0.008057; 0.977569;,
        -0.764580; 0.000000;-0.644490;,
         0.981048;-0.013062;-0.193304;,
         0.961394;-0.009522;-0.274972;,
        -0.748711; 0.010895;-0.662770;,
         0.981048;-0.013062;-0.193304;,
         0.279763;-0.004883; 0.960021;,
         0.210395;-0.008057; 0.977569;,
         0.961394;-0.009522;-0.274972;,
         0.858058; 0.484573;-0.169866;,
         0.275918; 0.118900; 0.953764;,
         0.210974; 0.001221; 0.977477;,
         0.959624;-0.036256;-0.278878;,
        -0.495895; 0.856868;-0.140812;,
         0.858058; 0.484573;-0.169866;,
         0.959624;-0.036256;-0.278878;,
        -0.758507; 0.011444;-0.651540;,
         0.275918; 0.118900; 0.953764;,
        -0.538102; 0.289438; 0.791620;,
        -0.638417; 0.016511; 0.769494;,
         0.210974; 0.001221; 0.977477;,
        -0.764580; 0.000000;-0.644490;,
        -0.623981;-0.000336; 0.781426;,
        -0.638417; 0.016511; 0.769494;,
        -0.758507; 0.011444;-0.651540;,
         0.758507; 0.011444;-0.651540;,
         0.495895; 0.856868;-0.140812;,
         0.538102; 0.289438; 0.791620;,
         0.638417; 0.016511; 0.769494;,
         0.495895; 0.856868;-0.140812;,
        -0.858058; 0.484573;-0.169866;,
        -0.275918; 0.118900; 0.953764;,
         0.538102; 0.289438; 0.791620;,
        -0.961394;-0.009522;-0.274972;,
        -0.792596;-0.605670;-0.070193;,
        -0.118931;-0.366771; 0.922666;,
        -0.210395;-0.008057; 0.977569;,
        -0.792596;-0.605670;-0.070193;,
         0.592364;-0.719535;-0.362407;,
         0.653951;-0.257668; 0.711264;,
        -0.118931;-0.366771; 0.922666;,
         0.748711; 0.010895;-0.662770;,
         0.592364;-0.719535;-0.362407;,
        -0.792596;-0.605670;-0.070193;,
        -0.961394;-0.009522;-0.274972;,
        -0.210395;-0.008057; 0.977569;,
        -0.118931;-0.366771; 0.922666;,
         0.653951;-0.257668; 0.711264;,
         0.633656; 0.001679; 0.773583;,
        -0.210974; 0.001221; 0.977477;,
        -0.279763;-0.004883; 0.960021;,
         0.623981;-0.000336; 0.781426;,
         0.638417; 0.016511; 0.769494;,
         0.758507; 0.011444;-0.651540;,
         0.764580; 0.000000;-0.644490;,
        -0.981048;-0.013062;-0.193304;,
        -0.959624;-0.036256;-0.278878;,
        -0.959624;-0.036256;-0.278878;,
        -0.981048;-0.013062;-0.193304;,
        -0.279763;-0.004883; 0.960021;,
        -0.210974; 0.001221; 0.977477;,
         0.748711; 0.010895;-0.662770;,
         0.764580; 0.000000;-0.644490;,
         0.623981;-0.000336; 0.781426;,
         0.633656; 0.001679; 0.773583;,
         0.592364;-0.719535;-0.362407;,
         0.748711; 0.010895;-0.662770;,
         0.633656; 0.001679; 0.773583;,
         0.653951;-0.257668; 0.711264;,
        -0.279763;-0.004883; 0.960021;,
        -0.210395;-0.008057; 0.977569;,
         0.633656; 0.001679; 0.773583;,
         0.623981;-0.000336; 0.781426;,
         0.764580; 0.000000;-0.644490;,
         0.748711; 0.010895;-0.662770;,
        -0.961394;-0.009522;-0.274972;,
        -0.981048;-0.013062;-0.193304;,
        -0.981048;-0.013062;-0.193304;,
        -0.961394;-0.009522;-0.274972;,
        -0.210395;-0.008057; 0.977569;,
        -0.279763;-0.004883; 0.960021;,
        -0.858058; 0.484573;-0.169866;,
        -0.959624;-0.036256;-0.278878;,
        -0.210974; 0.001221; 0.977477;,
        -0.275918; 0.118900; 0.953764;,
         0.495895; 0.856868;-0.140812;,
         0.758507; 0.011444;-0.651540;,
        -0.959624;-0.036256;-0.278878;,
        -0.858058; 0.484573;-0.169866;,
        -0.275918; 0.118900; 0.953764;,
        -0.210974; 0.001221; 0.977477;,
         0.638417; 0.016511; 0.769494;,
         0.538102; 0.289438; 0.791620;,
         0.764580; 0.000000;-0.644490;,
         0.758507; 0.011444;-0.651540;,
         0.638417; 0.016511; 0.769494;,
         0.623981;-0.000336; 0.781426;;
        36;
        4;3,2,1,0;,
        4;7,6,5,4;,
        4;11,10,9,8;,
        4;15,14,13,12;,
        4;19,18,17,16;,
        4;23,22,21,20;,
        4;27,26,25,24;,
        4;31,30,29,28;,
        4;35,34,33,32;,
        4;39,38,37,36;,
        4;43,42,41,40;,
        4;47,46,45,44;,
        4;51,50,49,48;,
        4;55,54,53,52;,
        4;59,58,57,56;,
        4;63,62,61,60;,
        4;67,66,65,64;,
        4;71,70,69,68;,
        4;75,74,73,72;,
        4;79,78,77,76;,
        4;83,82,81,80;,
        4;87,86,85,84;,
        4;91,90,89,88;,
        4;95,94,93,92;,
        4;99,98,97,96;,
        4;103,102,101,100;,
        4;107,106,105,104;,
        4;111,110,109,108;,
        4;115,114,113,112;,
        4;119,118,117,116;,
        4;123,122,121,120;,
        4;127,126,125,124;,
        4;131,130,129,128;,
        4;135,134,133,132;,
        4;139,138,137,136;,
        4;143,142,141,140;;
      } // End of Cube normals
      MeshTextureCoords { // Cube UV coordinates
        144;
         0.543577; 0.711040;,
         0.545314; 0.762224;,
         0.690049; 0.754025;,
         0.758662; 0.721173;,
         0.758662; 0.721173;,
         0.690049; 0.754025;,
         0.665811; 0.859783;,
         0.749607; 0.944243;,
         0.215363; 0.953917;,
         0.223008; 0.844295;,
         0.075552; 0.870700;,
         0.000123; 0.952695;,
         0.000123; 0.952695;,
         0.075552; 0.870700;,
         0.118896; 0.776966;,
         0.063025; 0.746745;,
         0.218884; 0.725947;,
         0.206580; 0.558538;,
         0.000123; 0.535868;,
         0.063025; 0.746745;,
         0.223008; 0.844295;,
         0.221908; 0.777354;,
         0.118896; 0.776966;,
         0.075552; 0.870700;,
         0.553955; 0.834486;,
         0.545314; 0.762224;,
         0.384279; 0.771184;,
         0.389422; 0.888550;,
         0.543577; 0.711040;,
         0.543872; 0.541291;,
         0.373832; 0.500123;,
         0.381987; 0.719459;,
         0.568801; 0.946245;,
         0.553955; 0.834486;,
         0.389422; 0.888550;,
         0.393563; 0.999877;,
         0.218884; 0.725947;,
         0.221908; 0.777354;,
         0.384279; 0.771184;,
         0.381987; 0.719459;,
         0.063025; 0.746745;,
         0.118896; 0.776966;,
         0.221908; 0.777354;,
         0.218884; 0.725947;,
         0.389422; 0.888550;,
         0.384279; 0.771184;,
         0.221908; 0.777354;,
         0.223008; 0.844295;,
         0.381987; 0.719459;,
         0.373832; 0.500123;,
         0.206580; 0.558538;,
         0.218884; 0.725947;,
         0.393563; 0.999877;,
         0.389422; 0.888550;,
         0.223008; 0.844295;,
         0.215363; 0.953917;,
         0.749607; 0.944243;,
         0.665811; 0.859783;,
         0.553955; 0.834486;,
         0.568801; 0.946245;,
         0.758662; 0.721173;,
         0.707156; 0.506515;,
         0.543872; 0.541291;,
         0.543577; 0.711040;,
         0.665811; 0.859783;,
         0.690049; 0.754025;,
         0.545314; 0.762224;,
         0.553955; 0.834486;,
         0.381987; 0.719459;,
         0.384279; 0.771184;,
         0.545314; 0.762224;,
         0.543577; 0.711040;,
         0.543577; 0.288960;,
         0.758662; 0.278826;,
         0.690049; 0.245975;,
         0.545314; 0.237776;,
         0.758662; 0.278826;,
         0.749607; 0.055757;,
         0.665811; 0.140217;,
         0.690049; 0.245975;,
         0.215363; 0.046083;,
         0.000123; 0.047305;,
         0.075552; 0.129300;,
         0.223007; 0.155705;,
         0.000123; 0.047305;,
         0.063025; 0.253255;,
         0.118896; 0.223034;,
         0.075552; 0.129300;,
         0.218884; 0.274053;,
         0.063025; 0.253255;,
         0.000123; 0.464132;,
         0.206580; 0.441462;,
         0.223007; 0.155705;,
         0.075552; 0.129300;,
         0.118896; 0.223034;,
         0.221908; 0.222646;,
         0.553955; 0.165514;,
         0.389422; 0.111450;,
         0.384279; 0.228816;,
         0.545314; 0.237776;,
         0.543577; 0.288960;,
         0.381987; 0.280541;,
         0.373832; 0.499877;,
         0.543872; 0.458709;,
         0.568801; 0.053755;,
         0.393563; 0.000123;,
         0.389422; 0.111450;,
         0.553955; 0.165514;,
         0.218884; 0.274053;,
         0.381987; 0.280541;,
         0.384279; 0.228816;,
         0.221908; 0.222646;,
         0.063025; 0.253255;,
         0.218884; 0.274053;,
         0.221908; 0.222646;,
         0.118896; 0.223034;,
         0.389422; 0.111450;,
         0.223007; 0.155705;,
         0.221908; 0.222646;,
         0.384279; 0.228816;,
         0.381987; 0.280541;,
         0.218884; 0.274053;,
         0.206580; 0.441462;,
         0.373832; 0.499877;,
         0.393563; 0.000123;,
         0.215363; 0.046083;,
         0.223007; 0.155705;,
         0.389422; 0.111450;,
         0.749607; 0.055757;,
         0.568801; 0.053755;,
         0.553955; 0.165514;,
         0.665811; 0.140217;,
         0.758662; 0.278826;,
         0.543577; 0.288960;,
         0.543872; 0.458709;,
         0.707156; 0.493485;,
         0.665811; 0.140217;,
         0.553955; 0.165514;,
         0.545314; 0.237776;,
         0.690049; 0.245975;,
         0.381987; 0.280541;,
         0.543577; 0.288960;,
         0.545314; 0.237776;,
         0.384279; 0.228816;;
      } // End of Cube UV coordinates
      MeshMaterialList { // Cube material list
        1;
        36;
        0,
        0,
        0,
        0,
        0,
        0,
        0,
        0,
        0,
        0,
        0,
        0,
        0,
        0,
        0,
        0,
        0,
        0,
        0,
        0,
        0,
        0,
        0,
        0,
        0,
        0,
        0,
        0,
        0,
        0,
        0,
        0,
        0,
        0,
        0,
        0;
        Material Material_001 {
           0.640000; 0.640000; 0.640000; 1.000000;;
           96.078431;
           0.500000; 0.500000; 0.500000;;
           0.000000; 0.000000; 0.000000;;
        }
      } // End of Cube material list
    } // End of Cube mesh
  } // End of Cube
} // End of Root
