xof 0303txt 0032

Frame Root {
  FrameTransformMatrix {
     1.000000, 0.000000, 0.000000, 0.000000,
     0.000000,-0.000000, 1.000000, 0.000000,
     0.000000, 1.000000, 0.000000, 0.000000,
     0.000000, 0.000000, 0.000000, 1.000000;;
  }
  Frame Shield2_x_Root_Cube {
    FrameTransformMatrix {
       1.000000, 0.000000, 0.000000, 0.000000,
       0.000000, 1.000000, 0.000000, 0.000000,
       0.000000, 0.000000, 1.000000, 0.000000,
       0.000000, 0.000000, 0.000000, 1.000000;;
    }
    Mesh {
      436;
       0.058091; 0.301547; 0.113138;,
       0.043047; 0.303038; 0.106769;,
      -0.038783; 0.262975; 0.224540;,
      -0.022376; 0.262557; 0.227663;,
       0.008901; 0.188914; 0.159863;,
       0.007855; 0.219017; 0.169377;,
       0.060078; 0.244321; 0.095051;,
       0.058091; 0.301547; 0.113138;,
      -0.022376; 0.262557; 0.227663;,
      -0.015857; 0.074793; 0.168319;,
      -0.010913; 0.072387; 0.160022;,
      -0.015211; 0.056191; 0.162440;,
      -0.005238;-0.231050; 0.071657;,
       0.031714;-0.021569; 0.069301;,
       0.031455;-0.014097; 0.071663;,
       0.035867;-0.011959; 0.065383;,
       0.036126;-0.019431; 0.063021;,
       0.075489;-0.199544;-0.045234;,
       0.061122; 0.214217; 0.085537;,
       0.036126;-0.019431; 0.063021;,
       0.031714;-0.021569; 0.069301;,
      -0.005238;-0.231050; 0.071657;,
       0.002598;-0.234863; 0.058509;,
       0.075489;-0.199544;-0.045234;,
      -0.032335; 0.077255; 0.165843;,
      -0.015857; 0.074793; 0.168319;,
      -0.022376; 0.262557; 0.227663;,
      -0.038783; 0.262975; 0.224540;,
      -0.021715;-0.228588; 0.069180;,
      -0.005238;-0.231050; 0.071657;,
      -0.015211; 0.056191; 0.162440;,
      -0.031409; 0.050597; 0.157417;,
      -0.011820;-0.233434; 0.052403;,
       0.060445;-0.198053;-0.051604;,
       0.075489;-0.199544;-0.045234;,
       0.002598;-0.234863; 0.058509;,
       0.046079; 0.215708; 0.079168;,
       0.061122; 0.214217; 0.085537;,
       0.075489;-0.199544;-0.045234;,
       0.060445;-0.198053;-0.051604;,
       0.060078; 0.244321; 0.095051;,
       0.045034; 0.245811; 0.088681;,
       0.043047; 0.303038; 0.106769;,
       0.058091; 0.301547; 0.113138;,
       0.016987;-0.020110; 0.063066;,
       0.021361;-0.017968; 0.056770;,
       0.060445;-0.198053;-0.051604;,
      -0.011820;-0.233434; 0.052403;,
      -0.031409; 0.050597; 0.157417;,
      -0.025307; 0.073813; 0.153928;,
      -0.032335; 0.077255; 0.165843;,
      -0.038783; 0.262975; 0.224540;,
       0.043047; 0.303038; 0.106769;,
       0.045034; 0.245811; 0.088681;,
      -0.006740; 0.220463; 0.163196;,
      -0.005694; 0.190361; 0.153682;,
       0.046079; 0.215708; 0.079168;,
       0.060445;-0.198053;-0.051604;,
       0.021361;-0.017968; 0.056770;,
       0.021102;-0.010496; 0.059131;,
       0.016728;-0.012637; 0.065427;,
       0.016987;-0.020110; 0.063066;,
      -0.011820;-0.233434; 0.052403;,
      -0.021715;-0.228588; 0.069180;,
       0.077795; 0.347768;-0.030938;,
       0.043047; 0.303038; 0.106769;,
       0.058091; 0.301547; 0.113138;,
       0.091277; 0.345222;-0.021405;,
       0.093787; 0.272920;-0.044257;,
       0.089494; 0.275867;-0.025408;,
       0.093137; 0.291644;-0.038340;,
       0.091277; 0.345222;-0.021405;,
       0.058091; 0.301547; 0.113138;,
       0.060078; 0.244321; 0.095051;,
       0.081615; 0.272665; 0.007735;,
       0.082660; 0.242562;-0.001779;,
       0.061122; 0.214217; 0.085537;,
       0.075489;-0.199544;-0.045234;,
       0.083322;-0.093405;-0.060926;,
       0.083927;-0.085667;-0.062216;,
       0.085663;-0.086972;-0.069855;,
       0.100424;-0.038941;-0.124904;,
       0.104068;-0.023164;-0.137836;,
       0.085058;-0.094709;-0.068565;,
       0.083322;-0.093405;-0.060926;,
       0.075489;-0.199544;-0.045234;,
       0.108675;-0.155869;-0.179778;,
       0.104717;-0.041890;-0.143754;,
       0.100424;-0.038941;-0.124904;,
       0.085663;-0.086972;-0.069855;,
       0.093137; 0.291644;-0.038340;,
       0.079577; 0.296427;-0.047164;,
       0.077795; 0.347768;-0.030938;,
       0.091277; 0.345222;-0.021405;,
       0.104068;-0.023164;-0.137836;,
       0.090507;-0.018382;-0.146661;,
       0.080366; 0.273712;-0.054343;,
       0.093787; 0.272920;-0.044257;,
       0.091296;-0.041096;-0.153840;,
       0.104717;-0.041890;-0.143754;,
       0.108675;-0.155869;-0.179778;,
       0.095193;-0.153324;-0.189310;,
       0.060445;-0.198053;-0.051604;,
       0.095193;-0.153324;-0.189310;,
       0.108675;-0.155869;-0.179778;,
       0.075489;-0.199544;-0.045234;,
       0.090507;-0.018382;-0.146661;,
       0.085987;-0.037511;-0.131017;,
       0.091296;-0.041096;-0.153840;,
       0.095193;-0.153324;-0.189310;,
       0.070276;-0.093244;-0.074824;,
       0.070899;-0.085508;-0.076107;,
       0.069130;-0.084201;-0.068482;,
       0.068507;-0.091937;-0.067200;,
       0.060445;-0.198053;-0.051604;,
       0.046079; 0.215708; 0.079168;,
       0.068064; 0.244009;-0.007960;,
       0.067019; 0.274111; 0.001554;,
       0.045034; 0.245811; 0.088681;,
       0.043047; 0.303038; 0.106769;,
       0.077795; 0.347768;-0.030938;,
       0.079577; 0.296427;-0.047164;,
       0.075057; 0.277299;-0.031520;,
       0.080366; 0.273712;-0.054343;,
       0.070276;-0.093244;-0.074824;,
       0.095193;-0.153324;-0.189310;,
       0.060445;-0.198053;-0.051604;,
       0.068507;-0.091937;-0.067200;,
      -0.006740; 0.220463; 0.163196;,
       0.007855; 0.219017; 0.169377;,
       0.008901; 0.188914; 0.159863;,
      -0.005694; 0.190361; 0.153682;,
       0.067019; 0.274111; 0.001554;,
       0.068064; 0.244009;-0.007960;,
       0.082660; 0.242562;-0.001779;,
       0.081615; 0.272665; 0.007735;,
       0.046079; 0.215708; 0.079168;,
      -0.005694; 0.190361; 0.153682;,
       0.008901; 0.188914; 0.159863;,
       0.061122; 0.214217; 0.085537;,
       0.068064; 0.244009;-0.007960;,
       0.046079; 0.215708; 0.079168;,
       0.061122; 0.214217; 0.085537;,
       0.082660; 0.242562;-0.001779;,
      -0.006740; 0.220463; 0.163196;,
       0.045034; 0.245811; 0.088681;,
       0.060078; 0.244321; 0.095051;,
       0.007855; 0.219017; 0.169377;,
       0.067019; 0.274111; 0.001554;,
       0.081615; 0.272665; 0.007735;,
       0.060078; 0.244321; 0.095051;,
       0.045034; 0.245811; 0.088681;,
      -0.025307; 0.073813; 0.153928;,
      -0.031409; 0.050597; 0.157417;,
      -0.015211; 0.056191; 0.162440;,
      -0.010913; 0.072387; 0.160022;,
      -0.025307; 0.073813; 0.153928;,
      -0.010913; 0.072387; 0.160022;,
      -0.015857; 0.074793; 0.168319;,
      -0.032335; 0.077255; 0.165843;,
       0.079577; 0.296427;-0.047164;,
       0.093137; 0.291644;-0.038340;,
       0.089494; 0.275867;-0.025408;,
       0.075057; 0.277299;-0.031520;,
       0.080366; 0.273712;-0.054343;,
       0.075057; 0.277299;-0.031520;,
       0.089494; 0.275867;-0.025408;,
       0.093787; 0.272920;-0.044257;,
       0.090507;-0.018382;-0.146661;,
       0.104068;-0.023164;-0.137836;,
       0.100424;-0.038941;-0.124904;,
       0.085987;-0.037511;-0.131017;,
       0.100424;-0.038941;-0.124904;,
       0.104717;-0.041890;-0.143754;,
       0.091296;-0.041096;-0.153840;,
       0.085987;-0.037511;-0.131017;,
       0.002598;-0.234863; 0.058509;,
      -0.005238;-0.231050; 0.071657;,
      -0.021715;-0.228588; 0.069180;,
      -0.011820;-0.233434; 0.052403;,
       0.016728;-0.012637; 0.065427;,
       0.031455;-0.014097; 0.071663;,
       0.031714;-0.021569; 0.069301;,
       0.016987;-0.020110; 0.063066;,
       0.021102;-0.010496; 0.059131;,
       0.021361;-0.017968; 0.056770;,
       0.036126;-0.019431; 0.063021;,
       0.035867;-0.011959; 0.065383;,
       0.021361;-0.017968; 0.056770;,
       0.016987;-0.020110; 0.063066;,
       0.031714;-0.021569; 0.069301;,
       0.036126;-0.019431; 0.063021;,
       0.021102;-0.010496; 0.059131;,
       0.035867;-0.011959; 0.065383;,
       0.031455;-0.014097; 0.071663;,
       0.016728;-0.012637; 0.065427;,
       0.069130;-0.084201;-0.068482;,
       0.083927;-0.085667;-0.062216;,
       0.083322;-0.093405;-0.060926;,
       0.068507;-0.091937;-0.067200;,
       0.070899;-0.085508;-0.076107;,
       0.070276;-0.093244;-0.074824;,
       0.085058;-0.094709;-0.068565;,
       0.085663;-0.086972;-0.069855;,
       0.070276;-0.093244;-0.074824;,
       0.068507;-0.091937;-0.067200;,
       0.083322;-0.093405;-0.060926;,
       0.085058;-0.094709;-0.068565;,
       0.070899;-0.085508;-0.076107;,
       0.085663;-0.086972;-0.069855;,
       0.083927;-0.085667;-0.062216;,
       0.069130;-0.084201;-0.068482;,
      -0.005657;-0.195510; 0.046178;,
       0.023952;-0.202939; 0.072935;,
       0.023716;-0.196162; 0.075077;,
      -0.005892;-0.188734; 0.048319;,
      -0.002831;-0.193455; 0.039985;,
      -0.005657;-0.195510; 0.046178;,
      -0.005892;-0.188734; 0.048319;,
      -0.003067;-0.186679; 0.042127;,
       0.031072;-0.201920; 0.070493;,
      -0.002831;-0.193455; 0.039985;,
      -0.003067;-0.186679; 0.042127;,
       0.030837;-0.195143; 0.072635;,
       0.023952;-0.202939; 0.072935;,
       0.031072;-0.201920; 0.070493;,
       0.030837;-0.195143; 0.072635;,
       0.023716;-0.196162; 0.075077;,
       0.023952;-0.202939; 0.072935;,
      -0.005657;-0.195510; 0.046178;,
      -0.002831;-0.193455; 0.039985;,
       0.031072;-0.201920; 0.070493;,
       0.030837;-0.195143; 0.072635;,
      -0.003067;-0.186679; 0.042127;,
      -0.005892;-0.188734; 0.048319;,
       0.023716;-0.196162; 0.075077;,
       0.064203; 0.131996;-0.049673;,
       0.107114; 0.127743;-0.031504;,
       0.106879; 0.134519;-0.029363;,
       0.063968; 0.138772;-0.047531;,
       0.067029; 0.134051;-0.055866;,
       0.064203; 0.131996;-0.049673;,
       0.063968; 0.138772;-0.047531;,
       0.066794; 0.140828;-0.053725;,
       0.109940; 0.129798;-0.037697;,
       0.067029; 0.134051;-0.055866;,
       0.066794; 0.140828;-0.053725;,
       0.109705; 0.136575;-0.035555;,
       0.107114; 0.127743;-0.031504;,
       0.109940; 0.129798;-0.037697;,
       0.109705; 0.136575;-0.035555;,
       0.106879; 0.134519;-0.029363;,
       0.107114; 0.127743;-0.031504;,
       0.064203; 0.131996;-0.049673;,
       0.067029; 0.134051;-0.055866;,
       0.109940; 0.129798;-0.037697;,
       0.109705; 0.136575;-0.035555;,
       0.066794; 0.140828;-0.053725;,
       0.063968; 0.138772;-0.047531;,
       0.106879; 0.134519;-0.029363;,
      -0.034469; 0.234154; 0.180125;,
       0.006607; 0.230084; 0.197517;,
       0.006371; 0.236860; 0.199659;,
      -0.034704; 0.240931; 0.182266;,
      -0.031643; 0.236210; 0.173931;,
      -0.034469; 0.234154; 0.180125;,
      -0.034704; 0.240931; 0.182266;,
      -0.031878; 0.242986; 0.176073;,
       0.009432; 0.232140; 0.191324;,
      -0.031643; 0.236210; 0.173931;,
      -0.031878; 0.242986; 0.176073;,
       0.009197; 0.238916; 0.193466;,
       0.006607; 0.230084; 0.197517;,
       0.009432; 0.232140; 0.191324;,
       0.009197; 0.238916; 0.193466;,
       0.006371; 0.236860; 0.199659;,
       0.006607; 0.230084; 0.197517;,
      -0.034469; 0.234154; 0.180125;,
      -0.031643; 0.236210; 0.173931;,
       0.009432; 0.232140; 0.191324;,
       0.009197; 0.238916; 0.193466;,
      -0.031878; 0.242986; 0.176073;,
      -0.034704; 0.240931; 0.182266;,
       0.006371; 0.236860; 0.199659;,
       0.034949;-0.040308;-0.014002;,
       0.049368;-0.048819; 0.002573;,
       0.044785;-0.042084; 0.010342;,
       0.033528;-0.035705;-0.003461;,
       0.046319;-0.002289;-0.020653;,
       0.055198;-0.008825;-0.014628;,
       0.056620;-0.013427;-0.025168;,
       0.043739;-0.003498;-0.032456;,
       0.071038;-0.021939;-0.008593;,
       0.056620;-0.013427;-0.025168;,
       0.055198;-0.008825;-0.014628;,
       0.066455;-0.015204;-0.000824;,
       0.049368;-0.048819; 0.002573;,
       0.071038;-0.021939;-0.008593;,
       0.066455;-0.015204;-0.000824;,
       0.044785;-0.042084; 0.010342;,
       0.049368;-0.048819; 0.002573;,
       0.034949;-0.040308;-0.014002;,
       0.056620;-0.013427;-0.025168;,
       0.071038;-0.021939;-0.008593;,
       0.066455;-0.015204;-0.000824;,
       0.055198;-0.008825;-0.014628;,
       0.033528;-0.035705;-0.003461;,
       0.044785;-0.042084; 0.010342;,
       0.040718; 0.002810;-0.021290;,
       0.046319;-0.002289;-0.020653;,
       0.043739;-0.003498;-0.032456;,
       0.034746; 0.005159;-0.031963;,
       0.043739;-0.003498;-0.032456;,
       0.056620;-0.013427;-0.025168;,
       0.034949;-0.040308;-0.014002;,
       0.022069;-0.030378;-0.021290;,
       0.024648;-0.029170;-0.009486;,
       0.033528;-0.035705;-0.003461;,
       0.055198;-0.008825;-0.014628;,
       0.046319;-0.002289;-0.020653;,
       0.022069;-0.030378;-0.021290;,
       0.034949;-0.040308;-0.014002;,
       0.033528;-0.035705;-0.003461;,
       0.024648;-0.029170;-0.009486;,
       0.012220;-0.016173;-0.005467;,
       0.019048;-0.024070;-0.010124;,
       0.040718; 0.002810;-0.021290;,
       0.033890; 0.010707;-0.016633;,
       0.034746; 0.005159;-0.031963;,
       0.043739;-0.003498;-0.032456;,
       0.022069;-0.030378;-0.021290;,
       0.013075;-0.021721;-0.020796;,
       0.019048;-0.024070;-0.010124;,
       0.024648;-0.029170;-0.009486;,
       0.046319;-0.002289;-0.020653;,
       0.040718; 0.002810;-0.021290;,
       0.013075;-0.021721;-0.020796;,
       0.022069;-0.030378;-0.021290;,
       0.024648;-0.029170;-0.009486;,
       0.019048;-0.024070;-0.010124;,
      -0.014412; 0.017178; 0.020949;,
       0.004124;-0.010888;-0.013136;,
       0.012220;-0.016173;-0.005467;,
      -0.006317; 0.011892; 0.028618;,
       0.004124;-0.010888;-0.013136;,
       0.013075;-0.021721;-0.020796;,
       0.019048;-0.024070;-0.010124;,
       0.012220;-0.016173;-0.005467;,
       0.033890; 0.010707;-0.016633;,
       0.040718; 0.002810;-0.021290;,
       0.034746; 0.005159;-0.031963;,
       0.025795; 0.015992;-0.024302;,
       0.025795; 0.015992;-0.024302;,
       0.034746; 0.005159;-0.031963;,
       0.013075;-0.021721;-0.020796;,
       0.004124;-0.010888;-0.013136;,
       0.009447; 0.048846; 0.031970;,
       0.015353; 0.038772; 0.017451;,
       0.007258; 0.044058; 0.009782;,
       0.000661; 0.055869; 0.027809;,
       0.015353; 0.038772; 0.017451;,
       0.033890; 0.010707;-0.016633;,
       0.025795; 0.015992;-0.024302;,
       0.007258; 0.044058; 0.009782;,
       0.007258; 0.044058; 0.009782;,
       0.025795; 0.015992;-0.024302;,
       0.004124;-0.010888;-0.013136;,
      -0.014412; 0.017178; 0.020949;,
      -0.006317; 0.011892; 0.028618;,
       0.012220;-0.016173;-0.005467;,
       0.033890; 0.010707;-0.016633;,
       0.015353; 0.038772; 0.017451;,
      -0.013083; 0.026345; 0.054678;,
      -0.012224; 0.021965; 0.043136;,
       0.009447; 0.048846; 0.031970;,
       0.008588; 0.053225; 0.043511;,
       0.000661; 0.055869; 0.027809;,
       0.007258; 0.044058; 0.009782;,
      -0.014412; 0.017178; 0.020949;,
      -0.021009; 0.028988; 0.038975;,
      -0.012224; 0.021965; 0.043136;,
      -0.006317; 0.011892; 0.028618;,
       0.015353; 0.038772; 0.017451;,
       0.009447; 0.048846; 0.031970;,
      -0.021009; 0.028988; 0.038975;,
      -0.014412; 0.017178; 0.020949;,
      -0.006317; 0.011892; 0.028618;,
      -0.012224; 0.021965; 0.043136;,
       0.011914; 0.054857; 0.058966;,
       0.008588; 0.053225; 0.043511;,
       0.000295; 0.061199; 0.043935;,
       0.006079; 0.062255; 0.065047;,
      -0.021376; 0.034319; 0.055102;,
      -0.021009; 0.028988; 0.038975;,
      -0.012224; 0.021965; 0.043136;,
      -0.013083; 0.026345; 0.054678;,
       0.008588; 0.053225; 0.043511;,
       0.009447; 0.048846; 0.031970;,
       0.000661; 0.055869; 0.027809;,
       0.000295; 0.061199; 0.043935;,
       0.000295; 0.061199; 0.043935;,
       0.000661; 0.055869; 0.027809;,
      -0.021009; 0.028988; 0.038975;,
      -0.021376; 0.034319; 0.055102;,
       0.016719; 0.057245; 0.081393;,
       0.006079; 0.062255; 0.065047;,
      -0.015592; 0.035375; 0.076213;,
      -0.004952; 0.030364; 0.092560;,
       0.006079; 0.062255; 0.065047;,
       0.000295; 0.061199; 0.043935;,
      -0.021376; 0.034319; 0.055102;,
      -0.015592; 0.035375; 0.076213;,
      -0.009757; 0.027977; 0.070133;,
      -0.013083; 0.026345; 0.054678;,
       0.008588; 0.053225; 0.043511;,
       0.011914; 0.054857; 0.058966;,
      -0.015592; 0.035375; 0.076213;,
      -0.021376; 0.034319; 0.055102;,
      -0.013083; 0.026345; 0.054678;,
      -0.009757; 0.027977; 0.070133;,
       0.016719; 0.057245; 0.081393;,
      -0.004952; 0.030364; 0.092560;,
       0.000884; 0.022966; 0.086478;,
       0.022554; 0.049847; 0.075312;,
       0.000884; 0.022966; 0.086478;,
      -0.009757; 0.027977; 0.070133;,
       0.011914; 0.054857; 0.058966;,
       0.022554; 0.049847; 0.075312;,
      -0.004952; 0.030364; 0.092560;,
      -0.015592; 0.035375; 0.076213;,
      -0.009757; 0.027977; 0.070133;,
       0.000884; 0.022966; 0.086478;,
       0.022554; 0.049847; 0.075312;,
       0.011914; 0.054857; 0.058966;,
       0.006079; 0.062255; 0.065047;,
       0.016719; 0.057245; 0.081393;;
      96;
      4;3,2,1,0;,
      15;18,17,16,15,14,13,12,11,10,9,8,7,6,5,4;,
      5;23,22,21,20,19;,
      4;27,26,25,24;,
      4;31,30,29,28;,
      4;35,34,33,32;,
      4;39,38,37,36;,
      4;43,42,41,40;,
      4;47,46,45,44;,
      16;63,62,61,60,59,58,57,56,55,54,53,52,51,50,49,48;,
      4;67,66,65,64;,
      15;82,81,80,79,78,77,76,75,74,73,72,71,70,69,68;,
      7;89,88,87,86,85,84,83;,
      4;93,92,91,90;,
      4;97,96,95,94;,
      4;101,100,99,98;,
      4;105,104,103,102;,
      18;123,122,121,120,119,118,117,116,115,114,113,112,111,110,109,108,107,106;,
      4;127,126,125,124;,
      4;131,130,129,128;,
      4;135,134,133,132;,
      4;139,138,137,136;,
      4;143,142,141,140;,
      4;147,146,145,144;,
      4;151,150,149,148;,
      4;155,154,153,152;,
      4;159,158,157,156;,
      4;163,162,161,160;,
      4;167,166,165,164;,
      4;171,170,169,168;,
      4;175,174,173,172;,
      4;179,178,177,176;,
      4;183,182,181,180;,
      4;187,186,185,184;,
      4;191,190,189,188;,
      4;195,194,193,192;,
      4;199,198,197,196;,
      4;203,202,201,200;,
      4;207,206,205,204;,
      4;211,210,209,208;,
      4;215,214,213,212;,
      4;219,218,217,216;,
      4;223,222,221,220;,
      4;227,226,225,224;,
      4;231,230,229,228;,
      4;235,234,233,232;,
      4;239,238,237,236;,
      4;243,242,241,240;,
      4;247,246,245,244;,
      4;251,250,249,248;,
      4;255,254,253,252;,
      4;259,258,257,256;,
      4;263,262,261,260;,
      4;267,266,265,264;,
      4;271,270,269,268;,
      4;275,274,273,272;,
      4;279,278,277,276;,
      4;283,282,281,280;,
      4;287,286,285,284;,
      4;291,290,289,288;,
      4;295,294,293,292;,
      4;299,298,297,296;,
      4;303,302,301,300;,
      4;307,306,305,304;,
      4;311,310,309,308;,
      4;315,314,313,312;,
      4;319,318,317,316;,
      4;323,322,321,320;,
      4;327,326,325,324;,
      4;331,330,329,328;,
      4;335,334,333,332;,
      4;339,338,337,336;,
      4;343,342,341,340;,
      4;347,346,345,344;,
      4;351,350,349,348;,
      4;355,354,353,352;,
      4;359,358,357,356;,
      4;363,362,361,360;,
      4;367,366,365,364;,
      4;371,370,369,368;,
      4;375,374,373,372;,
      4;379,378,377,376;,
      4;383,382,381,380;,
      4;387,386,385,384;,
      4;391,390,389,388;,
      4;395,394,393,392;,
      4;399,398,397,396;,
      4;403,402,401,400;,
      4;407,406,405,404;,
      4;411,410,409,408;,
      4;415,414,413,412;,
      4;419,418,417,416;,
      4;423,422,421,420;,
      4;427,426,425,424;,
      4;431,430,429,428;,
      4;435,434,433,432;;
      MeshNormals {
        436;
        -0.033089; 0.952988; 0.301195;,
        -0.033089; 0.952988; 0.301195;,
        -0.033089; 0.952988; 0.301195;,
        -0.033089; 0.952988; 0.301195;,
         0.831986;-0.140724; 0.536653;,
         0.831986;-0.140724; 0.536653;,
         0.831986;-0.140724; 0.536653;,
         0.831986;-0.140724; 0.536653;,
         0.831986;-0.140724; 0.536653;,
         0.831985;-0.140724; 0.536653;,
         0.831986;-0.140724; 0.536653;,
         0.831986;-0.140724; 0.536653;,
         0.831986;-0.140724; 0.536653;,
         0.831985;-0.140724; 0.536653;,
         0.831986;-0.140724; 0.536653;,
         0.831985;-0.140724; 0.536653;,
         0.831985;-0.140724; 0.536653;,
         0.831985;-0.140724; 0.536653;,
         0.831986;-0.140724; 0.536653;,
         0.831985;-0.140724; 0.536655;,
         0.831985;-0.140724; 0.536655;,
         0.831985;-0.140724; 0.536655;,
         0.831985;-0.140724; 0.536655;,
         0.831985;-0.140724; 0.536655;,
        -0.185669;-0.301975; 0.935061;,
        -0.185669;-0.301975; 0.935061;,
        -0.185669;-0.301975; 0.935061;,
        -0.185669;-0.301975; 0.935061;,
        -0.185681;-0.301974; 0.935058;,
        -0.185681;-0.301974; 0.935058;,
        -0.185681;-0.301974; 0.935058;,
        -0.185681;-0.301974; 0.935058;,
         0.033093;-0.952989;-0.301193;,
         0.033093;-0.952989;-0.301193;,
         0.033093;-0.952989;-0.301193;,
         0.033093;-0.952989;-0.301193;,
         0.397393; 0.289060;-0.870932;,
         0.397393; 0.289060;-0.870932;,
         0.397393; 0.289060;-0.870932;,
         0.397393; 0.289060;-0.870932;,
         0.397383; 0.289068;-0.870934;,
         0.397383; 0.289068;-0.870934;,
         0.397383; 0.289068;-0.870934;,
         0.397383; 0.289068;-0.870934;,
        -0.834800; 0.139353;-0.532625;,
        -0.834800; 0.139353;-0.532625;,
        -0.834800; 0.139353;-0.532625;,
        -0.834800; 0.139353;-0.532625;,
        -0.834799; 0.139355;-0.532626;,
        -0.834799; 0.139355;-0.532626;,
        -0.834799; 0.139355;-0.532626;,
        -0.834799; 0.139355;-0.532626;,
        -0.834799; 0.139355;-0.532626;,
        -0.834799; 0.139355;-0.532626;,
        -0.834799; 0.139355;-0.532626;,
        -0.834799; 0.139355;-0.532626;,
        -0.834799; 0.139355;-0.532626;,
        -0.834799; 0.139355;-0.532626;,
        -0.834799; 0.139355;-0.532626;,
        -0.834799; 0.139355;-0.532626;,
        -0.834799; 0.139355;-0.532626;,
        -0.834799; 0.139355;-0.532626;,
        -0.834799; 0.139355;-0.532626;,
        -0.834799; 0.139355;-0.532626;,
        -0.033072; 0.952987; 0.301201;,
        -0.033072; 0.952987; 0.301201;,
        -0.033072; 0.952987; 0.301201;,
        -0.033072; 0.952987; 0.301201;,
         0.973004;-0.038154; 0.227612;,
         0.973004;-0.038154; 0.227612;,
         0.973004;-0.038154; 0.227612;,
         0.973004;-0.038154; 0.227612;,
         0.973004;-0.038154; 0.227612;,
         0.973004;-0.038154; 0.227612;,
         0.973004;-0.038154; 0.227612;,
         0.973004;-0.038154; 0.227612;,
         0.973004;-0.038154; 0.227612;,
         0.973004;-0.038154; 0.227612;,
         0.973004;-0.038154; 0.227612;,
         0.973004;-0.038154; 0.227612;,
         0.973004;-0.038154; 0.227612;,
         0.973004;-0.038154; 0.227612;,
         0.973004;-0.038154; 0.227612;,
         0.973005;-0.038153; 0.227608;,
         0.973005;-0.038153; 0.227608;,
         0.973005;-0.038153; 0.227608;,
         0.973005;-0.038153; 0.227608;,
         0.973005;-0.038153; 0.227608;,
         0.973005;-0.038153; 0.227608;,
         0.973005;-0.038153; 0.227608;,
         0.589624; 0.261948;-0.764020;,
         0.589624; 0.261948;-0.764020;,
         0.589624; 0.261948;-0.764020;,
         0.589624; 0.261948;-0.764020;,
         0.589602; 0.261950;-0.764037;,
         0.589602; 0.261950;-0.764037;,
         0.589602; 0.261950;-0.764037;,
         0.589602; 0.261950;-0.764037;,
         0.589647; 0.261945;-0.764003;,
         0.589647; 0.261945;-0.764003;,
         0.589647; 0.261945;-0.764003;,
         0.589647; 0.261945;-0.764003;,
         0.033106;-0.952990;-0.301189;,
         0.033106;-0.952990;-0.301189;,
         0.033106;-0.952990;-0.301189;,
         0.033106;-0.952990;-0.301189;,
        -0.971826; 0.039688;-0.232333;,
        -0.971826; 0.039688;-0.232333;,
        -0.971826; 0.039688;-0.232333;,
        -0.971826; 0.039688;-0.232333;,
        -0.971826; 0.039688;-0.232333;,
        -0.971826; 0.039688;-0.232333;,
        -0.971826; 0.039688;-0.232333;,
        -0.971826; 0.039688;-0.232333;,
        -0.971826; 0.039688;-0.232333;,
        -0.971826; 0.039688;-0.232333;,
        -0.971826; 0.039688;-0.232333;,
        -0.971826; 0.039688;-0.232333;,
        -0.971826; 0.039688;-0.232333;,
        -0.971826; 0.039688;-0.232333;,
        -0.971826; 0.039688;-0.232333;,
        -0.971826; 0.039688;-0.232333;,
        -0.971826; 0.039688;-0.232333;,
        -0.971826; 0.039688;-0.232333;,
        -0.971826; 0.039687;-0.232334;,
        -0.971826; 0.039687;-0.232334;,
        -0.971826; 0.039687;-0.232334;,
        -0.971826; 0.039687;-0.232334;,
         0.397449; 0.289060;-0.870907;,
         0.397449; 0.289060;-0.870907;,
         0.397449; 0.289060;-0.870907;,
         0.397449; 0.289059;-0.870907;,
        -0.397441;-0.289055; 0.870912;,
        -0.397441;-0.289055; 0.870912;,
        -0.397441;-0.289055; 0.870912;,
        -0.397441;-0.289055; 0.870912;,
        -0.033088; 0.952990; 0.301190;,
        -0.033088; 0.952990; 0.301190;,
        -0.033088; 0.952990; 0.301190;,
        -0.033088; 0.952990; 0.301190;,
        -0.033084; 0.952987; 0.301200;,
        -0.033084; 0.952987; 0.301200;,
        -0.033084; 0.952987; 0.301200;,
        -0.033084; 0.952987; 0.301200;,
         0.033116;-0.952993;-0.301176;,
         0.033116;-0.952993;-0.301176;,
         0.033116;-0.952994;-0.301176;,
         0.033116;-0.952994;-0.301176;,
         0.033121;-0.952990;-0.301187;,
         0.033121;-0.952990;-0.301187;,
         0.033121;-0.952990;-0.301187;,
         0.033121;-0.952990;-0.301187;,
        -0.359949; 0.230471; 0.904057;,
        -0.359949; 0.230471; 0.904057;,
        -0.359949; 0.230471; 0.904057;,
        -0.359949; 0.230471; 0.904057;,
        -0.171626;-0.968833; 0.178627;,
        -0.171626;-0.968833; 0.178627;,
        -0.171626;-0.968833; 0.178627;,
        -0.171626;-0.968833; 0.178627;,
         0.241597;-0.647903;-0.722394;,
         0.241597;-0.647903;-0.722394;,
         0.241597;-0.647903;-0.722394;,
         0.241597;-0.647903;-0.722394;,
         0.148040; 0.981696;-0.119822;,
         0.148040; 0.981696;-0.119822;,
         0.148040; 0.981696;-0.119822;,
         0.148040; 0.981696;-0.119822;,
         0.241663;-0.647889;-0.722384;,
         0.241663;-0.647889;-0.722384;,
         0.241663;-0.647889;-0.722384;,
         0.241663;-0.647889;-0.722384;,
         0.148048; 0.981695;-0.119820;,
         0.148048; 0.981695;-0.119820;,
         0.148048; 0.981695;-0.119820;,
         0.148048; 0.981695;-0.119820;,
        -0.171659;-0.968827; 0.178625;,
        -0.171659;-0.968827; 0.178625;,
        -0.171659;-0.968827; 0.178625;,
        -0.171659;-0.968827; 0.178625;,
         0.397429; 0.289010;-0.870932;,
         0.397429; 0.289010;-0.870932;,
         0.397429; 0.289010;-0.870932;,
         0.397429; 0.289010;-0.870932;,
        -0.397398;-0.289012; 0.870946;,
        -0.397398;-0.289012; 0.870946;,
        -0.397398;-0.289012; 0.870946;,
        -0.397398;-0.289012; 0.870946;,
        -0.033099; 0.952991; 0.301184;,
        -0.033099; 0.952992; 0.301184;,
        -0.033099; 0.952991; 0.301184;,
        -0.033099; 0.952992; 0.301184;,
         0.033099;-0.952992;-0.301184;,
         0.033099;-0.952992;-0.301184;,
         0.033099;-0.952992;-0.301184;,
         0.033099;-0.952992;-0.301184;,
         0.368259;-0.180866;-0.911961;,
         0.368259;-0.180866;-0.911961;,
         0.368259;-0.180866;-0.911961;,
         0.368259;-0.180866;-0.911961;,
        -0.368217; 0.180866; 0.911978;,
        -0.368217; 0.180866; 0.911978;,
        -0.368217; 0.180866; 0.911978;,
        -0.368217; 0.180866; 0.911978;,
         0.153108; 0.979301;-0.132390;,
         0.153108; 0.979301;-0.132390;,
         0.153108; 0.979301;-0.132390;,
         0.153108; 0.979301;-0.132390;,
        -0.153108;-0.979301; 0.132393;,
        -0.153108;-0.979301; 0.132393;,
        -0.153108;-0.979301; 0.132393;,
        -0.153108;-0.979301; 0.132393;,
        -0.683280;-0.241514; 0.689057;,
        -0.683280;-0.241514; 0.689057;,
        -0.683280;-0.241514; 0.689057;,
        -0.683280;-0.241514; 0.689057;,
        -0.917046; 0.090902;-0.388283;,
        -0.917046; 0.090902;-0.388283;,
        -0.917046; 0.090902;-0.388283;,
        -0.917046; 0.090902;-0.388283;,
         0.681721; 0.241914;-0.690460;,
         0.681721; 0.241914;-0.690460;,
         0.681721; 0.241914;-0.690460;,
         0.681721; 0.241914;-0.690460;,
         0.346667;-0.271738; 0.897764;,
         0.346667;-0.271738; 0.897764;,
         0.346667;-0.271738; 0.897764;,
         0.346667;-0.271738; 0.897764;,
         0.033061;-0.952998;-0.301168;,
         0.033061;-0.952998;-0.301168;,
         0.033061;-0.952998;-0.301168;,
         0.033061;-0.952998;-0.301168;,
        -0.033067; 0.953000; 0.301159;,
        -0.033067; 0.953000; 0.301159;,
        -0.033067; 0.953000; 0.301159;,
        -0.033067; 0.953000; 0.301159;,
        -0.397408;-0.289035; 0.870934;,
        -0.397408;-0.289035; 0.870934;,
        -0.397408;-0.289035; 0.870934;,
        -0.397408;-0.289035; 0.870934;,
        -0.917040; 0.090907;-0.388296;,
        -0.917040; 0.090907;-0.388296;,
        -0.917040; 0.090907;-0.388296;,
        -0.917040; 0.090907;-0.388296;,
         0.397413; 0.289012;-0.870939;,
         0.397413; 0.289012;-0.870939;,
         0.397413; 0.289012;-0.870939;,
         0.397413; 0.289012;-0.870939;,
         0.917043;-0.090911; 0.388287;,
         0.917043;-0.090911; 0.388287;,
         0.917043;-0.090911; 0.388287;,
         0.917043;-0.090911; 0.388287;,
         0.033076;-0.952993;-0.301182;,
         0.033076;-0.952993;-0.301182;,
         0.033076;-0.952993;-0.301182;,
         0.033076;-0.952993;-0.301182;,
        -0.033113; 0.952974; 0.301236;,
        -0.033113; 0.952974; 0.301236;,
        -0.033113; 0.952974; 0.301236;,
        -0.033113; 0.952974; 0.301236;,
        -0.397414;-0.289057; 0.870924;,
        -0.397414;-0.289057; 0.870924;,
        -0.397414;-0.289057; 0.870924;,
        -0.397414;-0.289057; 0.870924;,
        -0.917040; 0.090907;-0.388297;,
        -0.917040; 0.090907;-0.388297;,
        -0.917040; 0.090907;-0.388297;,
        -0.917040; 0.090907;-0.388297;,
         0.397426; 0.289093;-0.870906;,
         0.397426; 0.289093;-0.870906;,
         0.397426; 0.289093;-0.870906;,
         0.397426; 0.289093;-0.870906;,
         0.917053;-0.090861; 0.388276;,
         0.917053;-0.090861; 0.388276;,
         0.917053;-0.090861; 0.388276;,
         0.917053;-0.090861; 0.388276;,
         0.033114;-0.952967;-0.301259;,
         0.033114;-0.952967;-0.301259;,
         0.033114;-0.952967;-0.301259;,
         0.033114;-0.952967;-0.301259;,
        -0.033120; 0.952967; 0.301258;,
        -0.033120; 0.952967; 0.301258;,
        -0.033120; 0.952967; 0.301258;,
        -0.033120; 0.952967; 0.301258;,
        -0.670408;-0.708900; 0.219120;,
        -0.670408;-0.708900; 0.219120;,
        -0.670408;-0.708900; 0.219120;,
        -0.670408;-0.708900; 0.219120;,
         0.670406; 0.708904;-0.219115;,
         0.670406; 0.708904;-0.219115;,
         0.670406; 0.708904;-0.219115;,
         0.670406; 0.708904;-0.219115;,
         0.670406; 0.708913;-0.219084;,
         0.670406; 0.708913;-0.219084;,
         0.670406; 0.708913;-0.219084;,
         0.670406; 0.708913;-0.219084;,
         0.695377;-0.286883; 0.658899;,
         0.695377;-0.286883; 0.658899;,
         0.695377;-0.286883; 0.658899;,
         0.695377;-0.286883; 0.658899;,
         0.412879;-0.612768;-0.673830;,
         0.412879;-0.612768;-0.673830;,
         0.412879;-0.612768;-0.673830;,
         0.412879;-0.612768;-0.673830;,
        -0.439799; 0.623202; 0.646681;,
        -0.439799; 0.623202; 0.646681;,
        -0.439799; 0.623202; 0.646681;,
        -0.439799; 0.623202; 0.646681;,
         0.670398; 0.708905;-0.219137;,
         0.670398; 0.708905;-0.219137;,
         0.670398; 0.708905;-0.219137;,
         0.670398; 0.708905;-0.219137;,
         0.132245;-0.469299;-0.873081;,
         0.132245;-0.469299;-0.873081;,
         0.132245;-0.469299;-0.873081;,
         0.132245;-0.469299;-0.873081;,
        -0.196379; 0.506968; 0.839297;,
        -0.196379; 0.506968; 0.839297;,
        -0.196379; 0.506968; 0.839297;,
        -0.196379; 0.506968; 0.839297;,
        -0.670405;-0.708904; 0.219115;,
        -0.670405;-0.708905; 0.219115;,
        -0.670405;-0.708904; 0.219115;,
        -0.670405;-0.708905; 0.219115;,
         0.514570;-0.059496; 0.855382;,
         0.514570;-0.059496; 0.855382;,
         0.514570;-0.059496; 0.855382;,
         0.514570;-0.059496; 0.855382;,
        -0.243138;-0.198418;-0.949481;,
        -0.243138;-0.198418;-0.949481;,
        -0.243138;-0.198418;-0.949481;,
        -0.243138;-0.198418;-0.949481;,
         0.144823; 0.277752; 0.949674;,
         0.144823; 0.277752; 0.949674;,
         0.144823; 0.277752; 0.949674;,
         0.144823; 0.277752; 0.949674;,
        -0.670431;-0.708880; 0.219114;,
        -0.670431;-0.708880; 0.219114;,
        -0.670431;-0.708880; 0.219114;,
        -0.670431;-0.708880; 0.219114;,
        -0.670421;-0.708891; 0.219110;,
        -0.670421;-0.708891; 0.219110;,
        -0.670421;-0.708891; 0.219110;,
        -0.670421;-0.708891; 0.219110;,
        -0.670408;-0.708902; 0.219114;,
        -0.670408;-0.708902; 0.219114;,
        -0.670408;-0.708902; 0.219114;,
        -0.670408;-0.708902; 0.219114;,
         0.670408; 0.708902;-0.219113;,
         0.670408; 0.708902;-0.219113;,
         0.670408; 0.708902;-0.219113;,
         0.670408; 0.708902;-0.219113;,
        -0.562939; 0.113758;-0.818632;,
        -0.562939; 0.113758;-0.818632;,
        -0.562939; 0.113758;-0.818632;,
        -0.562939; 0.113758;-0.818632;,
         0.670427; 0.708889;-0.219098;,
         0.670427; 0.708889;-0.219098;,
         0.670427; 0.708889;-0.219098;,
         0.670427; 0.708889;-0.219098;,
         0.670421; 0.708891;-0.219110;,
         0.670421; 0.708891;-0.219110;,
         0.670421; 0.708891;-0.219110;,
         0.670421; 0.708891;-0.219110;,
        -0.707694; 0.305983;-0.636824;,
        -0.707694; 0.305983;-0.636824;,
        -0.707694; 0.305983;-0.636824;,
        -0.707694; 0.305983;-0.636824;,
         0.707694;-0.305983; 0.636824;,
         0.707694;-0.305983; 0.636823;,
         0.707694;-0.305983; 0.636823;,
         0.707694;-0.305983; 0.636823;,
         0.801555;-0.536796; 0.263362;,
         0.801555;-0.536796; 0.263362;,
         0.801555;-0.536796; 0.263362;,
         0.801555;-0.536796; 0.263362;,
        -0.754122; 0.387773;-0.530029;,
        -0.754123; 0.387773;-0.530029;,
        -0.754123; 0.387774;-0.530029;,
        -0.754123; 0.387773;-0.530029;,
         0.743881;-0.367938; 0.557909;,
         0.743881;-0.367938; 0.557909;,
         0.743881;-0.367938; 0.557909;,
         0.743881;-0.367938; 0.557909;,
        -0.670399;-0.708915; 0.219100;,
        -0.670399;-0.708915; 0.219100;,
        -0.670399;-0.708915; 0.219100;,
        -0.670399;-0.708915; 0.219100;,
         0.670414; 0.708892;-0.219128;,
         0.670414; 0.708892;-0.219128;,
         0.670414; 0.708892;-0.219128;,
         0.670414; 0.708892;-0.219128;,
        -0.670408;-0.708899; 0.219123;,
        -0.670408;-0.708899; 0.219123;,
        -0.670408;-0.708899; 0.219123;,
        -0.670408;-0.708899; 0.219123;,
         0.670436; 0.708884;-0.219086;,
         0.670436; 0.708884;-0.219086;,
         0.670436; 0.708884;-0.219086;,
         0.670436; 0.708884;-0.219086;,
        -0.801820; 0.561696;-0.203918;,
        -0.801820; 0.561696;-0.203918;,
        -0.801820; 0.561696;-0.203918;,
        -0.801820; 0.561696;-0.203919;,
        -0.528453; 0.651928; 0.543809;,
        -0.528453; 0.651928; 0.543809;,
        -0.528453; 0.651928; 0.543809;,
        -0.528452; 0.651928; 0.543809;,
        -0.732309; 0.660016; 0.167639;,
        -0.732309; 0.660016; 0.167638;,
        -0.732309; 0.660016; 0.167638;,
        -0.732309; 0.660016; 0.167638;,
         0.755586;-0.648249;-0.094141;,
         0.755586;-0.648249;-0.094141;,
         0.755586;-0.648249;-0.094141;,
         0.755586;-0.648249;-0.094141;,
        -0.670414;-0.708892; 0.219128;,
        -0.670414;-0.708892; 0.219128;,
        -0.670414;-0.708892; 0.219128;,
        -0.670414;-0.708892; 0.219128;,
         0.604738;-0.163749; 0.779408;,
         0.604739;-0.163749; 0.779408;,
         0.604739;-0.163749; 0.779408;,
         0.604738;-0.163749; 0.779408;,
         0.528436;-0.651923;-0.543830;,
         0.528436;-0.651923;-0.543830;,
         0.528436;-0.651923;-0.543830;,
         0.528436;-0.651923;-0.543830;,
        -0.670421;-0.708901; 0.219079;,
        -0.670421;-0.708901; 0.219079;,
        -0.670421;-0.708901; 0.219079;,
        -0.670421;-0.708901; 0.219079;,
         0.670399; 0.708911;-0.219113;,
         0.670399; 0.708911;-0.219113;,
         0.670399; 0.708911;-0.219113;,
         0.670399; 0.708911;-0.219113;;
        96;
        4;3,2,1,0;,
        15;18,17,16,15,14,13,12,11,10,9,8,7,6,5,4;,
        5;23,22,21,20,19;,
        4;27,26,25,24;,
        4;31,30,29,28;,
        4;35,34,33,32;,
        4;39,38,37,36;,
        4;43,42,41,40;,
        4;47,46,45,44;,
        16;63,62,61,60,59,58,57,56,55,54,53,52,51,50,49,48;,
        4;67,66,65,64;,
        15;82,81,80,79,78,77,76,75,74,73,72,71,70,69,68;,
        7;89,88,87,86,85,84,83;,
        4;93,92,91,90;,
        4;97,96,95,94;,
        4;101,100,99,98;,
        4;105,104,103,102;,
        18;123,122,121,120,119,118,117,116,115,114,113,112,111,110,109,108,107,106;,
        4;127,126,125,124;,
        4;131,130,129,128;,
        4;135,134,133,132;,
        4;139,138,137,136;,
        4;143,142,141,140;,
        4;147,146,145,144;,
        4;151,150,149,148;,
        4;155,154,153,152;,
        4;159,158,157,156;,
        4;163,162,161,160;,
        4;167,166,165,164;,
        4;171,170,169,168;,
        4;175,174,173,172;,
        4;179,178,177,176;,
        4;183,182,181,180;,
        4;187,186,185,184;,
        4;191,190,189,188;,
        4;195,194,193,192;,
        4;199,198,197,196;,
        4;203,202,201,200;,
        4;207,206,205,204;,
        4;211,210,209,208;,
        4;215,214,213,212;,
        4;219,218,217,216;,
        4;223,222,221,220;,
        4;227,226,225,224;,
        4;231,230,229,228;,
        4;235,234,233,232;,
        4;239,238,237,236;,
        4;243,242,241,240;,
        4;247,246,245,244;,
        4;251,250,249,248;,
        4;255,254,253,252;,
        4;259,258,257,256;,
        4;263,262,261,260;,
        4;267,266,265,264;,
        4;271,270,269,268;,
        4;275,274,273,272;,
        4;279,278,277,276;,
        4;283,282,281,280;,
        4;287,286,285,284;,
        4;291,290,289,288;,
        4;295,294,293,292;,
        4;299,298,297,296;,
        4;303,302,301,300;,
        4;307,306,305,304;,
        4;311,310,309,308;,
        4;315,314,313,312;,
        4;319,318,317,316;,
        4;323,322,321,320;,
        4;327,326,325,324;,
        4;331,330,329,328;,
        4;335,334,333,332;,
        4;339,338,337,336;,
        4;343,342,341,340;,
        4;347,346,345,344;,
        4;351,350,349,348;,
        4;355,354,353,352;,
        4;359,358,357,356;,
        4;363,362,361,360;,
        4;367,366,365,364;,
        4;371,370,369,368;,
        4;375,374,373,372;,
        4;379,378,377,376;,
        4;383,382,381,380;,
        4;387,386,385,384;,
        4;391,390,389,388;,
        4;395,394,393,392;,
        4;399,398,397,396;,
        4;403,402,401,400;,
        4;407,406,405,404;,
        4;411,410,409,408;,
        4;415,414,413,412;,
        4;419,418,417,416;,
        4;423,422,421,420;,
        4;427,426,425,424;,
        4;431,430,429,428;,
        4;435,434,433,432;;
      }
      MeshTextureCoords {
        436;
         0.946710; 1.109312;,
         0.922206; 1.113730;,
         0.923360; 1.339722;,
         0.946710; 1.329837;,
         0.547038; 1.340175;,
         0.547315; 1.291356;,
         0.693048; 1.292185;,
         0.693575; 1.199377;,
         0.469021; 1.198101;,
         0.467290; 1.502606;,
         0.480587; 1.510340;,
         0.467101; 1.533426;,
         0.482584; 1.988520;,
         0.592622; 1.697876;,
         0.592448; 1.684720;,
         0.605503; 1.684507;,
         0.605141; 1.698429;,
         0.693575; 1.991332;,
         0.692770; 1.341004;,
         0.605141; 1.698429;,
         0.592622; 1.697876;,
         0.482584; 1.988520;,
         0.502771; 1.999563;,
         0.693575; 1.991332;,
         0.974207; 1.996306;,
         0.999563; 1.999563;,
         0.999563; 1.700522;,
         0.974208; 1.700522;,
         0.947979; 1.523878;,
         0.973334; 1.527136;,
         0.973334; 1.069659;,
         0.947978; 1.079233;,
         0.975226; 1.033086;,
         0.974207; 1.232666;,
         0.998711; 1.237083;,
         0.998711; 1.037320;,
         0.947105; 1.340595;,
         0.922206; 1.340595;,
         0.922206; 1.999563;,
         0.947105; 1.999563;,
         0.080211; 1.106443;,
         0.055312; 1.106443;,
         0.055312; 1.197585;,
         0.080211; 1.197585;,
         0.132409; 1.499843;,
         0.144837; 1.499310;,
         0.232777; 1.206934;,
         0.043367; 1.198458;,
         0.000560; 1.653048;,
         0.019557; 1.686177;,
         0.000437; 1.697280;,
         0.001816; 1.999563;,
         0.232777; 1.998509;,
         0.232352; 1.905365;,
         0.086222; 1.906032;,
         0.085999; 1.857035;,
         0.232129; 1.856368;,
         0.232777; 1.206934;,
         0.144837; 1.499310;,
         0.145221; 1.513245;,
         0.132161; 1.512898;,
         0.132409; 1.499843;,
         0.043367; 1.198458;,
         0.017704; 1.212398;,
         0.975361; 1.237956;,
         0.974207; 1.463949;,
         0.998711; 1.468367;,
         0.998711; 1.247841;,
         0.912492; 1.311388;,
         0.886025; 1.298938;,
         0.911983; 1.282005;,
         0.910528; 1.197933;,
         0.694666; 1.200228;,
         0.694809; 1.291491;,
         0.835816; 1.289051;,
         0.835657; 1.338240;,
         0.694650; 1.340680;,
         0.695650; 1.992651;,
         0.769431; 1.842091;,
         0.775792; 1.830642;,
         0.786892; 1.836584;,
         0.894573; 1.792921;,
         0.920531; 1.775988;,
         0.780787; 1.847732;,
         0.769431; 1.842091;,
         0.695650; 1.992651;,
         0.921216; 1.992431;,
         0.921972; 1.806617;,
         0.894573; 1.792921;,
         0.786892; 1.836584;,
         0.106440; 1.112255;,
         0.081084; 1.115818;,
         0.081084; 1.197585;,
         0.106440; 1.197585;,
         0.973334; 1.528009;,
         0.947978; 1.531572;,
         0.947978; 1.996773;,
         0.973334; 1.999563;,
         0.882554; 1.201374;,
         0.907910; 1.204164;,
         0.907910; 1.022636;,
         0.882554; 1.022636;,
         0.974207; 1.473657;,
         0.975361; 1.699649;,
         0.998711; 1.689765;,
         0.998711; 1.469240;,
         0.235329; 1.779409;,
         0.266849; 1.799855;,
         0.233651; 1.816573;,
         0.234989; 1.999563;,
         0.380714; 1.854331;,
         0.374580; 1.843199;,
         0.385653; 1.837222;,
         0.392046; 1.848656;,
         0.466228; 1.999025;,
         0.464266; 1.345065;,
         0.323380; 1.343048;,
         0.324056; 1.295810;,
         0.464942; 1.297827;,
         0.466228; 1.208025;,
         0.243555; 1.204837;,
         0.242402; 1.285402;,
         0.273922; 1.305848;,
         0.241891; 1.321046;,
         0.380714; 1.854331;,
         0.234989; 1.999563;,
         0.466228; 1.999025;,
         0.392046; 1.848656;,
         0.193988; 1.197585;,
         0.218145; 1.197585;,
         0.218145; 1.149642;,
         0.193988; 1.149642;,
         0.851348; 1.156649;,
         0.857739; 1.204164;,
         0.881681; 1.200944;,
         0.875290; 1.153429;,
         0.804199; 1.063118;,
         0.827687; 1.204164;,
         0.850475; 1.196147;,
         0.827687; 1.054855;,
         0.314994; 1.056560;,
         0.314264; 1.199546;,
         0.338768; 1.203964;,
         0.338768; 1.060846;,
         0.289617; 1.056560;,
         0.288887; 1.199546;,
         0.313391; 1.203964;,
         0.313391; 1.060846;,
         0.851348; 1.156649;,
         0.875290; 1.153429;,
         0.881681; 1.010454;,
         0.857004; 1.013772;,
         0.645643; 1.195135;,
         0.645643; 1.158318;,
         0.621979; 1.171532;,
         0.621912; 1.197228;,
         0.692377; 1.193994;,
         0.692377; 1.170170;,
         0.677450; 1.172495;,
         0.670985; 1.197228;,
         0.511776; 1.155613;,
         0.488274; 1.165776;,
         0.488137; 1.197228;,
         0.511776; 1.193740;,
         0.560766; 1.197228;,
         0.560766; 1.161249;,
         0.537160; 1.157553;,
         0.537296; 1.187235;,
         0.536287; 1.155613;,
         0.512785; 1.165776;,
         0.512649; 1.197228;,
         0.536287; 1.193740;,
         0.561639; 1.157553;,
         0.561776; 1.187235;,
         0.585246; 1.197228;,
         0.585246; 1.161249;,
         0.646517; 1.163198;,
         0.646623; 1.187138;,
         0.670112; 1.197228;,
         0.670112; 1.166766;,
         0.479001; 1.146575;,
         0.479001; 1.122201;,
         0.467101; 1.122201;,
         0.467101; 1.146575;,
         0.352415; 1.149089;,
         0.364315; 1.149089;,
         0.364315; 1.124652;,
         0.352415; 1.124652;,
         0.000437; 1.149347;,
         0.012337; 1.151430;,
         0.012337; 1.127056;,
         0.000437; 1.124910;,
         0.445306; 1.128875;,
         0.445306; 1.153311;,
         0.457207; 1.151166;,
         0.457207; 1.126792;,
         0.050658; 1.151430;,
         0.050658; 1.126939;,
         0.038757; 1.125954;,
         0.038757; 1.150473;,
         0.351542; 1.123668;,
         0.339641; 1.124625;,
         0.339641; 1.149089;,
         0.351542; 1.148103;,
         0.025111; 1.125060;,
         0.013210; 1.126910;,
         0.013210; 1.151430;,
         0.025111; 1.149524;,
         0.037884; 1.151430;,
         0.037884; 1.126994;,
         0.025984; 1.125089;,
         0.025984; 1.149579;,
         0.146802; 1.134030;,
         0.208414; 1.134030;,
         0.208414; 1.123238;,
         0.146802; 1.123238;,
         0.107313; 1.142710;,
         0.118105; 1.142710;,
         0.118105; 1.131917;,
         0.107313; 1.131917;,
         0.146802; 1.145696;,
         0.217209; 1.145696;,
         0.217209; 1.134904;,
         0.146802; 1.134903;,
         0.670985; 1.169297;,
         0.682515; 1.169297;,
         0.682515; 1.158505;,
         0.670985; 1.158505;,
         0.572814; 1.091453;,
         0.572946; 1.153064;,
         0.583115; 1.156680;,
         0.583115; 1.086273;,
         0.571940; 1.156680;,
         0.571940; 1.086273;,
         0.561772; 1.089889;,
         0.561639; 1.151500;,
         0.692932; 1.146653;,
         0.621912; 1.146653;,
         0.621912; 1.157445;,
         0.692932; 1.157445;,
         0.586119; 1.142353;,
         0.596911; 1.142353;,
         0.596911; 1.131560;,
         0.586119; 1.131560;,
         0.559158; 1.143947;,
         0.488137; 1.143947;,
         0.488137; 1.154739;,
         0.559158; 1.154739;,
         0.608577; 1.131560;,
         0.597784; 1.131560;,
         0.597784; 1.142353;,
         0.608577; 1.142353;,
         0.444433; 1.138296;,
         0.373412; 1.138296;,
         0.373412; 1.149089;,
         0.444433; 1.149089;,
         0.692932; 1.134988;,
         0.621912; 1.134988;,
         0.621912; 1.145780;,
         0.692932; 1.145780;,
         0.373412; 1.137423;,
         0.441395; 1.137423;,
         0.441395; 1.126631;,
         0.373412; 1.126631;,
         0.118978; 1.142710;,
         0.129771; 1.142710;,
         0.129771; 1.131917;,
         0.118978; 1.131917;,
         0.689895; 1.123322;,
         0.621912; 1.123322;,
         0.621912; 1.134115;,
         0.689895; 1.134115;,
         0.141436; 1.131917;,
         0.130644; 1.131917;,
         0.130644; 1.142710;,
         0.141436; 1.142710;,
         0.488137; 1.143074;,
         0.556120; 1.143074;,
         0.556120; 1.132282;,
         0.488137; 1.132282;,
         0.229810; 1.197585;,
         0.229810; 1.129602;,
         0.219018; 1.129602;,
         0.219018; 1.197585;,
         0.467101; 1.168903;,
         0.470371; 1.197228;,
         0.487264; 1.194901;,
         0.483525; 1.172345;,
         0.465469; 1.194369;,
         0.461730; 1.179067;,
         0.445306; 1.182510;,
         0.452728; 1.203964;,
         0.448576; 1.154184;,
         0.445306; 1.182510;,
         0.461730; 1.179067;,
         0.465469; 1.156511;,
         0.603172; 1.197228;,
         0.603172; 1.143226;,
         0.586119; 1.143226;,
         0.586119; 1.197228;,
         0.393217; 1.203964;,
         0.421731; 1.203964;,
         0.421731; 1.149962;,
         0.393217; 1.149962;,
         0.145929; 1.143583;,
         0.123066; 1.143583;,
         0.123066; 1.197585;,
         0.145929; 1.197585;,
         0.253346; 1.057822;,
         0.260396; 1.050086;,
         0.249163; 1.038762;,
         0.238897; 1.053145;,
         0.444433; 1.149962;,
         0.421731; 1.149962;,
         0.421731; 1.203964;,
         0.444433; 1.203964;,
         0.107313; 1.197585;,
         0.123066; 1.197585;,
         0.123066; 1.143583;,
         0.107313; 1.143583;,
         0.474523; 1.147448;,
         0.467101; 1.168903;,
         0.483525; 1.172345;,
         0.487264; 1.157043;,
         0.803326; 1.086068;,
         0.803326; 1.068917;,
         0.749324; 1.068917;,
         0.749324; 1.086068;,
         0.694448; 1.186493;,
         0.694448; 1.204164;,
         0.748450; 1.204164;,
         0.748450; 1.186493;,
         0.803326; 1.068917;,
         0.803326; 1.058451;,
         0.749324; 1.058451;,
         0.749324; 1.068917;,
         0.266515; 1.189581;,
         0.276782; 1.203964;,
         0.288014; 1.192640;,
         0.280964; 1.184904;,
         0.263046; 1.093577;,
         0.261269; 1.165992;,
         0.276139; 1.168446;,
         0.277917; 1.096031;,
         0.261269; 1.165992;,
         0.266515; 1.189581;,
         0.280964; 1.184904;,
         0.276139; 1.168446;,
         0.248521; 1.074280;,
         0.253346; 1.057822;,
         0.238897; 1.053145;,
         0.233651; 1.076733;,
         0.694448; 1.162328;,
         0.694448; 1.186493;,
         0.748450; 1.186493;,
         0.748450; 1.162328;,
         0.253402; 1.174500;,
         0.250299; 1.146695;,
         0.235428; 1.149149;,
         0.240152; 1.182546;,
         0.250299; 1.146695;,
         0.248521; 1.074280;,
         0.233651; 1.076733;,
         0.235428; 1.149149;,
         0.694448; 1.089891;,
         0.694448; 1.162328;,
         0.748450; 1.162328;,
         0.748450; 1.089891;,
         0.803326; 1.158505;,
         0.803326; 1.086068;,
         0.749324; 1.086068;,
         0.749324; 1.158505;,
         0.803326; 1.204164;,
         0.803326; 1.186483;,
         0.749324; 1.186483;,
         0.749324; 1.204164;,
         0.694448; 1.056162;,
         0.694448; 1.089891;,
         0.748450; 1.089891;,
         0.748450; 1.056162;,
         0.803326; 1.186483;,
         0.803326; 1.158505;,
         0.749324; 1.158505;,
         0.749324; 1.186483;,
         0.267770; 1.060180;,
         0.263046; 1.093577;,
         0.277917; 1.096031;,
         0.281020; 1.068226;,
         0.162950; 1.168807;,
         0.169522; 1.148970;,
         0.153423; 1.146569;,
         0.146802; 1.174102;,
         0.278524; 1.038762;,
         0.267770; 1.060180;,
         0.281020; 1.068226;,
         0.288014; 1.051986;,
         0.260396; 1.190740;,
         0.253402; 1.174500;,
         0.240152; 1.182546;,
         0.250906; 1.203964;,
         0.694448; 1.032195;,
         0.694448; 1.056162;,
         0.748450; 1.056162;,
         0.748450; 1.032195;,
         0.339641; 1.203964;,
         0.364026; 1.203964;,
         0.364026; 1.149962;,
         0.339641; 1.149962;,
         0.364026; 1.203964;,
         0.392344; 1.203964;,
         0.392344; 1.149962;,
         0.364026; 1.149962;,
         0.000437; 1.176688;,
         0.000437; 1.197585;,
         0.054439; 1.197585;,
         0.054439; 1.176688;,
         0.170395; 1.170052;,
         0.177016; 1.197585;,
         0.193114; 1.195184;,
         0.186542; 1.175347;,
         0.621038; 1.197228;,
         0.621038; 1.143226;,
         0.604045; 1.143226;,
         0.604045; 1.197228;,
         0.000437; 1.152303;,
         0.000437; 1.176688;,
         0.054439; 1.176688;,
         0.054439; 1.152303;,
         0.176967; 1.146569;,
         0.170395; 1.170052;,
         0.186542; 1.175347;,
         0.193114; 1.151864;,
         0.169522; 1.192290;,
         0.162950; 1.168807;,
         0.146802; 1.174102;,
         0.153374; 1.197585;;
      }
      MeshMaterialList {
        1;
        96;
        0,
        0,
        0,
        0,
        0,
        0,
        0,
        0,
        0,
        0,
        0,
        0,
        0,
        0,
        0,
        0,
        0,
        0,
        0,
        0,
        0,
        0,
        0,
        0,
        0,
        0,
        0,
        0,
        0,
        0,
        0,
        0,
        0,
        0,
        0,
        0,
        0,
        0,
        0,
        0,
        0,
        0,
        0,
        0,
        0,
        0,
        0,
        0,
        0,
        0,
        0,
        0,
        0,
        0,
        0,
        0,
        0,
        0,
        0,
        0,
        0,
        0,
        0,
        0,
        0,
        0,
        0,
        0,
        0,
        0,
        0,
        0,
        0,
        0,
        0,
        0,
        0,
        0,
        0,
        0,
        0,
        0,
        0,
        0,
        0,
        0,
        0,
        0,
        0,
        0,
        0,
        0,
        0,
        0,
        0,
        0;
        Material Material_002 {
           0.800000; 0.800000; 0.800000; 1.000000;;
           323.999994;
           0.250000; 0.250000; 0.250000;;
           0.000000; 0.000000; 0.000000;;
        }
      }
    }
  }
}
