xof 0303txt 0032

Frame Root {
  FrameTransformMatrix {
     1.000000, 0.000000, 0.000000, 0.000000,
     0.000000,-0.000000, 1.000000, 0.000000,
     0.000000, 1.000000, 0.000000, 0.000000,
     0.000000, 0.000000, 0.000000, 1.000000;;
  }
  Frame Cube_001 {
    FrameTransformMatrix {
       1.000000, 0.000000, 0.000000, 0.000000,
       0.000000, 1.000000, 0.000000, 0.000000,
       0.000000, 0.000000, 1.000000, 0.000000,
       0.000000, 0.000000, 0.000000, 1.000000;;
    }
    Mesh { // Cube_001 mesh
      552;
      -0.045858; 0.045690; 0.000447;,
      -0.034585; 0.015129;-0.010383;,
      -0.065140; 0.015129;-0.010995;,
      -0.054309; 0.045690; 0.000278;,
      -0.054309; 0.045690; 0.000278;,
      -0.065140; 0.015129;-0.010995;,
      -0.065752; 0.015129; 0.019560;,
      -0.054479; 0.045690; 0.008730;,
      -0.054479; 0.045690; 0.008730;,
      -0.065752; 0.015129; 0.019560;,
      -0.035197; 0.015129; 0.020172;,
      -0.046027; 0.045690; 0.008899;,
      -0.046027; 0.045690; 0.008899;,
      -0.035197; 0.015129; 0.020172;,
      -0.034585; 0.015129;-0.010383;,
      -0.045858; 0.045690; 0.000447;,
      -0.054309; 0.045690; 0.000278;,
      -0.054479; 0.045690; 0.008730;,
      -0.046027; 0.045690; 0.008899;,
      -0.045858; 0.045690; 0.000447;,
      -0.065752; 0.015129; 0.019560;,
      -0.065140; 0.015129;-0.010995;,
      -0.034585; 0.015129;-0.010383;,
      -0.035197; 0.015129; 0.020172;,
      -0.199675;-0.022251; 0.002073;,
      -0.201842;-0.021354;-0.015105;,
      -0.033414;-0.015527;-0.011729;,
      -0.024731;-0.016200; 0.005579;,
      -0.025164; 0.001622;-0.012165;,
      -0.033414; 0.018735;-0.011729;,
      -0.013184; 0.019429;-0.005984;,
      -0.004223; 0.007867;-0.006219;,
      -0.025164; 0.001622;-0.012165;,
      -0.033414;-0.015527;-0.011729;,
      -0.201842;-0.021354;-0.015105;,
      -0.199504;-0.004408;-0.015660;,
      -0.199675; 0.013337; 0.002073;,
      -0.202528; 0.012909; 0.019150;,
      -0.034101; 0.018735; 0.022526;,
      -0.024731; 0.019388; 0.005579;,
      -0.200214;-0.004408; 0.019798;,
      -0.202528;-0.021354; 0.019150;,
      -0.034101;-0.015527; 0.022526;,
      -0.025874; 0.001622; 0.023293;,
      -0.199504;-0.004408;-0.015660;,
      -0.201842;-0.021354;-0.015105;,
      -0.207263;-0.020726;-0.014586;,
      -0.205115;-0.004408;-0.015123;,
      -0.205115;-0.004408;-0.015123;,
      -0.207263;-0.020726;-0.014586;,
      -0.269992;-0.017155;-0.017340;,
      -0.270046; 0.000838;-0.017973;,
      -0.199675; 0.013337; 0.002073;,
      -0.201842; 0.012909;-0.015105;,
      -0.207263; 0.012281;-0.014586;,
      -0.205293; 0.012685; 0.001960;,
      -0.199675;-0.022251; 0.002073;,
      -0.202528;-0.021354; 0.019150;,
      -0.207924;-0.020726; 0.018415;,
      -0.205293;-0.021600; 0.001960;,
      -0.200214;-0.004408; 0.019798;,
      -0.202528; 0.012909; 0.019150;,
      -0.207924; 0.012281; 0.018415;,
      -0.205800;-0.004408; 0.019037;,
      -0.270480;-0.017890; 0.000654;,
      -0.270713;-0.017155; 0.018653;,
      -0.341899;-0.015214; 0.015285;,
      -0.344461;-0.015874;-0.000829;,
      -0.205293; 0.012685; 0.001960;,
      -0.207263; 0.012281;-0.014586;,
      -0.269992; 0.018846;-0.017340;,
      -0.270480; 0.019504; 0.000654;,
      -0.205293;-0.021600; 0.001960;,
      -0.207924;-0.020726; 0.018415;,
      -0.270713;-0.017155; 0.018653;,
      -0.270480;-0.017890; 0.000654;,
      -0.205800;-0.004408; 0.019037;,
      -0.207924; 0.012281; 0.018415;,
      -0.270713; 0.018846; 0.018653;,
      -0.270792; 0.000838; 0.019284;,
      -0.343811; 0.000838;-0.017443;,
      -0.341255;-0.015214;-0.016828;,
      -0.371842;-0.021729;-0.017441;,
      -0.375472;-0.005906;-0.018077;,
      -0.270792; 0.000838; 0.019284;,
      -0.270713; 0.018846; 0.018653;,
      -0.341899; 0.016906; 0.015285;,
      -0.344477; 0.000838; 0.015798;,
      -0.270046; 0.000838;-0.017973;,
      -0.269992;-0.017155;-0.017340;,
      -0.341255;-0.015214;-0.016828;,
      -0.343811; 0.000838;-0.017443;,
      -0.270480; 0.019504; 0.000654;,
      -0.269992; 0.018846;-0.017340;,
      -0.341255; 0.016906;-0.016828;,
      -0.344461; 0.017488;-0.000829;,
      -0.375472;-0.005906;-0.018077;,
      -0.371842;-0.021729;-0.017441;,
      -0.478264;-0.012664;-0.019574;,
      -0.485629; 0.003477;-0.020285;,
      -0.344461; 0.017488;-0.000829;,
      -0.341255; 0.016906;-0.016828;,
      -0.371842; 0.010391;-0.017441;,
      -0.376231; 0.010721;-0.001466;,
      -0.344461;-0.015874;-0.000829;,
      -0.341899;-0.015214; 0.015285;,
      -0.372486;-0.021729; 0.014672;,
      -0.376231;-0.022641;-0.001466;,
      -0.344477; 0.000838; 0.015798;,
      -0.341899; 0.016906; 0.015285;,
      -0.372486; 0.010391; 0.014672;,
      -0.376138;-0.005906; 0.015163;,
      -0.486770;-0.013225;-0.003681;,
      -0.478907;-0.012664; 0.012539;,
      -0.496658;-0.002555; 0.008163;,
      -0.505291;-0.002725;-0.004052;,
      -0.376231; 0.010721;-0.001466;,
      -0.371842; 0.010391;-0.017441;,
      -0.478264; 0.019456;-0.019574;,
      -0.486770; 0.020137;-0.003681;,
      -0.376231;-0.022641;-0.001466;,
      -0.372486;-0.021729; 0.014672;,
      -0.478907;-0.012664; 0.012539;,
      -0.486770;-0.013225;-0.003681;,
      -0.376138;-0.005906; 0.015163;,
      -0.372486; 0.010391; 0.014672;,
      -0.478907; 0.019456; 0.012539;,
      -0.486295; 0.003477; 0.012955;,
       0.005692; 0.008099; 0.006189;,
      -0.003607;-0.004389; 0.006003;,
      -0.013184;-0.004156;-0.005984;,
      -0.004223; 0.007867;-0.006219;,
      -0.024731; 0.019388; 0.005579;,
      -0.034101; 0.018735; 0.022526;,
      -0.013656; 0.019429; 0.017597;,
      -0.003607; 0.020110; 0.006003;,
      -0.024731;-0.016200; 0.005579;,
      -0.033414;-0.015527;-0.011729;,
      -0.013184;-0.004156;-0.005984;,
      -0.003607;-0.004389; 0.006003;,
      -0.025874; 0.001622; 0.023293;,
      -0.034101;-0.015527; 0.022526;,
      -0.013656;-0.004156; 0.017597;,
      -0.004712; 0.007867; 0.018190;,
      -0.513603; 0.010087;-0.004219;,
      -0.505291;-0.002725;-0.004052;,
      -0.496658;-0.002555; 0.008163;,
      -0.504669; 0.009780; 0.008425;,
      -0.486295; 0.003477; 0.012955;,
      -0.478907; 0.019456; 0.012539;,
      -0.496658; 0.021525; 0.008163;,
      -0.504669; 0.009780; 0.008425;,
      -0.485629; 0.003477;-0.020285;,
      -0.478264;-0.012664;-0.019574;,
      -0.496175;-0.002555;-0.015912;,
      -0.504169; 0.009780;-0.016495;,
      -0.486770; 0.020137;-0.003681;,
      -0.478264; 0.019456;-0.019574;,
      -0.496175; 0.021525;-0.015912;,
      -0.505291; 0.022286;-0.004052;,
      -0.478264; 0.019456;-0.019574;,
      -0.485629; 0.003477;-0.020285;,
      -0.504169; 0.009780;-0.016495;,
      -0.496175; 0.021525;-0.015912;,
      -0.478907;-0.012664; 0.012539;,
      -0.486295; 0.003477; 0.012955;,
      -0.504669; 0.009780; 0.008425;,
      -0.496658;-0.002555; 0.008163;,
      -0.505291; 0.022286;-0.004052;,
      -0.513603; 0.010087;-0.004219;,
      -0.504669; 0.009780; 0.008425;,
      -0.496658; 0.021525; 0.008163;,
      -0.034101; 0.018735; 0.022526;,
      -0.025874; 0.001622; 0.023293;,
      -0.004712; 0.007867; 0.018190;,
      -0.013656; 0.019429; 0.017597;,
      -0.003607; 0.020110; 0.006003;,
       0.005692; 0.008099; 0.006189;,
      -0.004223; 0.007867;-0.006219;,
      -0.013184; 0.019429;-0.005984;,
      -0.372486;-0.021729; 0.014672;,
      -0.376138;-0.005906; 0.015163;,
      -0.486295; 0.003477; 0.012955;,
      -0.478907;-0.012664; 0.012539;,
      -0.341899;-0.015214; 0.015285;,
      -0.344477; 0.000838; 0.015798;,
      -0.376138;-0.005906; 0.015163;,
      -0.372486;-0.021729; 0.014672;,
      -0.371842; 0.010391;-0.017441;,
      -0.375472;-0.005906;-0.018077;,
      -0.485629; 0.003477;-0.020285;,
      -0.478264; 0.019456;-0.019574;,
      -0.269992; 0.018846;-0.017340;,
      -0.270046; 0.000838;-0.017973;,
      -0.343811; 0.000838;-0.017443;,
      -0.341255; 0.016906;-0.016828;,
      -0.270713;-0.017155; 0.018653;,
      -0.270792; 0.000838; 0.019284;,
      -0.344477; 0.000838; 0.015798;,
      -0.341899;-0.015214; 0.015285;,
      -0.341255; 0.016906;-0.016828;,
      -0.343811; 0.000838;-0.017443;,
      -0.375472;-0.005906;-0.018077;,
      -0.371842; 0.010391;-0.017441;,
      -0.207924;-0.020726; 0.018415;,
      -0.205800;-0.004408; 0.019037;,
      -0.270792; 0.000838; 0.019284;,
      -0.270713;-0.017155; 0.018653;,
      -0.202528;-0.021354; 0.019150;,
      -0.200214;-0.004408; 0.019798;,
      -0.205800;-0.004408; 0.019037;,
      -0.207924;-0.020726; 0.018415;,
      -0.207263; 0.012281;-0.014586;,
      -0.205115;-0.004408;-0.015123;,
      -0.270046; 0.000838;-0.017973;,
      -0.269992; 0.018846;-0.017340;,
      -0.201842; 0.012909;-0.015105;,
      -0.199504;-0.004408;-0.015660;,
      -0.205115;-0.004408;-0.015123;,
      -0.207263; 0.012281;-0.014586;,
      -0.202528; 0.012909; 0.019150;,
      -0.200214;-0.004408; 0.019798;,
      -0.025874; 0.001622; 0.023293;,
      -0.034101; 0.018735; 0.022526;,
      -0.033414; 0.018735;-0.011729;,
      -0.025164; 0.001622;-0.012165;,
      -0.199504;-0.004408;-0.015660;,
      -0.201842; 0.012909;-0.015105;,
      -0.033414;-0.015527;-0.011729;,
      -0.025164; 0.001622;-0.012165;,
      -0.004223; 0.007867;-0.006219;,
      -0.013184;-0.004156;-0.005984;,
      -0.090167; 0.045690;-0.000441;,
      -0.078894; 0.015129;-0.011271;,
      -0.109448; 0.015129;-0.011883;,
      -0.098618; 0.045690;-0.000610;,
      -0.098618; 0.045690;-0.000610;,
      -0.109448; 0.015129;-0.011883;,
      -0.110061; 0.015129; 0.018672;,
      -0.098788; 0.045690; 0.007841;,
      -0.098788; 0.045690; 0.007841;,
      -0.110061; 0.015129; 0.018672;,
      -0.079506; 0.015129; 0.019284;,
      -0.090336; 0.045690; 0.008011;,
      -0.090336; 0.045690; 0.008011;,
      -0.079506; 0.015129; 0.019284;,
      -0.078894; 0.015129;-0.011271;,
      -0.090167; 0.045690;-0.000441;,
      -0.098618; 0.045690;-0.000610;,
      -0.098788; 0.045690; 0.007841;,
      -0.090336; 0.045690; 0.008011;,
      -0.090167; 0.045690;-0.000441;,
      -0.110061; 0.015129; 0.018672;,
      -0.109448; 0.015129;-0.011883;,
      -0.078894; 0.015129;-0.011271;,
      -0.079506; 0.015129; 0.019284;,
      -0.137682; 0.043350;-0.001393;,
      -0.126409; 0.012789;-0.012223;,
      -0.156964; 0.012789;-0.012835;,
      -0.146134; 0.043350;-0.001562;,
      -0.146134; 0.043350;-0.001562;,
      -0.156964; 0.012789;-0.012835;,
      -0.157576; 0.012789; 0.017719;,
      -0.146303; 0.043350; 0.006889;,
      -0.146303; 0.043350; 0.006889;,
      -0.157576; 0.012789; 0.017719;,
      -0.127021; 0.012789; 0.018332;,
      -0.137852; 0.043350; 0.007059;,
      -0.137852; 0.043350; 0.007059;,
      -0.127021; 0.012789; 0.018332;,
      -0.126409; 0.012789;-0.012223;,
      -0.137682; 0.043350;-0.001393;,
      -0.146134; 0.043350;-0.001562;,
      -0.146303; 0.043350; 0.006889;,
      -0.137852; 0.043350; 0.007059;,
      -0.137682; 0.043350;-0.001393;,
      -0.157576; 0.012789; 0.017719;,
      -0.156964; 0.012789;-0.012835;,
      -0.126409; 0.012789;-0.012223;,
      -0.127021; 0.012789; 0.018332;,
      -0.186160; 0.040211;-0.002365;,
      -0.174887; 0.009651;-0.013195;,
      -0.205441; 0.009651;-0.013807;,
      -0.194611; 0.040211;-0.002534;,
      -0.194611; 0.040211;-0.002534;,
      -0.205441; 0.009651;-0.013807;,
      -0.206054; 0.009651; 0.016748;,
      -0.194781; 0.040211; 0.005917;,
      -0.194781; 0.040211; 0.005917;,
      -0.206054; 0.009651; 0.016748;,
      -0.175499; 0.009651; 0.017360;,
      -0.186329; 0.040211; 0.006087;,
      -0.186329; 0.040211; 0.006087;,
      -0.175499; 0.009651; 0.017360;,
      -0.174887; 0.009651;-0.013195;,
      -0.186160; 0.040211;-0.002365;,
      -0.194611; 0.040211;-0.002534;,
      -0.194781; 0.040211; 0.005917;,
      -0.186329; 0.040211; 0.006087;,
      -0.186160; 0.040211;-0.002365;,
      -0.206054; 0.009651; 0.016748;,
      -0.205441; 0.009651;-0.013807;,
      -0.174887; 0.009651;-0.013195;,
      -0.175499; 0.009651; 0.017360;,
      -0.224943; 0.041774;-0.003142;,
      -0.220082; 0.009608;-0.014101;,
      -0.250005; 0.015793;-0.014700;,
      -0.233220; 0.043484;-0.003308;,
      -0.233220; 0.043484;-0.003308;,
      -0.250005; 0.015793;-0.014700;,
      -0.250617; 0.015793; 0.015854;,
      -0.233389; 0.043484; 0.005144;,
      -0.233389; 0.043484; 0.005144;,
      -0.250617; 0.015793; 0.015854;,
      -0.220695; 0.009608; 0.016454;,
      -0.225113; 0.041774; 0.005310;,
      -0.225113; 0.041774; 0.005310;,
      -0.220695; 0.009608; 0.016454;,
      -0.220082; 0.009608;-0.014101;,
      -0.224943; 0.041774;-0.003142;,
      -0.233220; 0.043484;-0.003308;,
      -0.233389; 0.043484; 0.005144;,
      -0.225113; 0.041774; 0.005310;,
      -0.224943; 0.041774;-0.003142;,
      -0.250617; 0.015793; 0.015854;,
      -0.250005; 0.015793;-0.014700;,
      -0.220082; 0.009608;-0.014101;,
      -0.220695; 0.009608; 0.016454;,
      -0.277498; 0.043509;-0.004195;,
      -0.257562; 0.017676;-0.014852;,
      -0.286708; 0.008502;-0.015436;,
      -0.285560; 0.040972;-0.004357;,
      -0.285560; 0.040972;-0.004357;,
      -0.286708; 0.008502;-0.015436;,
      -0.287320; 0.008502; 0.015119;,
      -0.285729; 0.040972; 0.004095;,
      -0.285729; 0.040972; 0.004095;,
      -0.287320; 0.008502; 0.015119;,
      -0.258175; 0.017676; 0.015703;,
      -0.277667; 0.043509; 0.004256;,
      -0.277667; 0.043509; 0.004256;,
      -0.258175; 0.017676; 0.015703;,
      -0.257562; 0.017676;-0.014852;,
      -0.277498; 0.043509;-0.004195;,
      -0.285560; 0.040972;-0.004357;,
      -0.285729; 0.040972; 0.004095;,
      -0.277667; 0.043509; 0.004256;,
      -0.277498; 0.043509;-0.004195;,
      -0.287320; 0.008502; 0.015119;,
      -0.286708; 0.008502;-0.015436;,
      -0.257562; 0.017676;-0.014852;,
      -0.258175; 0.017676; 0.015703;,
      -0.314449; 0.040211;-0.004936;,
      -0.303176; 0.009651;-0.015766;,
      -0.333731; 0.009651;-0.016378;,
      -0.322901; 0.040211;-0.005105;,
      -0.322901; 0.040211;-0.005105;,
      -0.333731; 0.009651;-0.016378;,
      -0.334343; 0.009651; 0.014176;,
      -0.323070; 0.040211; 0.003346;,
      -0.323070; 0.040211; 0.003346;,
      -0.334343; 0.009651; 0.014176;,
      -0.303788; 0.009651; 0.014789;,
      -0.314618; 0.040211; 0.003516;,
      -0.314618; 0.040211; 0.003516;,
      -0.303788; 0.009651; 0.014789;,
      -0.303176; 0.009651;-0.015766;,
      -0.314449; 0.040211;-0.004936;,
      -0.322901; 0.040211;-0.005105;,
      -0.323070; 0.040211; 0.003346;,
      -0.314618; 0.040211; 0.003516;,
      -0.314449; 0.040211;-0.004936;,
      -0.334343; 0.009651; 0.014176;,
      -0.333731; 0.009651;-0.016378;,
      -0.303176; 0.009651;-0.015766;,
      -0.303788; 0.009651; 0.014789;,
      -0.387993; 0.034221;-0.006410;,
      -0.376720; 0.003660;-0.017240;,
      -0.407275; 0.003660;-0.017852;,
      -0.396445; 0.034221;-0.006579;,
      -0.396445; 0.034221;-0.006579;,
      -0.407275; 0.003660;-0.017852;,
      -0.407887; 0.003660; 0.012702;,
      -0.396614; 0.034221; 0.001872;,
      -0.396614; 0.034221; 0.001872;,
      -0.407887; 0.003660; 0.012702;,
      -0.377332; 0.003660; 0.013315;,
      -0.388162; 0.034221; 0.002042;,
      -0.388162; 0.034221; 0.002042;,
      -0.377332; 0.003660; 0.013315;,
      -0.376720; 0.003660;-0.017240;,
      -0.387993; 0.034221;-0.006410;,
      -0.396445; 0.034221;-0.006579;,
      -0.396614; 0.034221; 0.001872;,
      -0.388162; 0.034221; 0.002042;,
      -0.387993; 0.034221;-0.006410;,
      -0.407887; 0.003660; 0.012702;,
      -0.407275; 0.003660;-0.017852;,
      -0.376720; 0.003660;-0.017240;,
      -0.377332; 0.003660; 0.013315;,
      -0.345754; 0.033529;-0.006967;,
      -0.340894; 0.001364;-0.017925;,
      -0.370816; 0.007549;-0.018525;,
      -0.354031; 0.035240;-0.007133;,
      -0.354031; 0.035240;-0.007133;,
      -0.370816; 0.007549;-0.018525;,
      -0.371428; 0.007549; 0.012030;,
      -0.354200; 0.035240; 0.001319;,
      -0.354200; 0.035240; 0.001319;,
      -0.371428; 0.007549; 0.012030;,
      -0.341506; 0.001364; 0.012629;,
      -0.345924; 0.033529; 0.001485;,
      -0.345924; 0.033529; 0.001485;,
      -0.341506; 0.001364; 0.012629;,
      -0.340894; 0.001364;-0.017925;,
      -0.345754; 0.033529;-0.006967;,
      -0.354031; 0.035240;-0.007133;,
      -0.354200; 0.035240; 0.001319;,
      -0.345924; 0.033529; 0.001485;,
      -0.345754; 0.033529;-0.006967;,
      -0.371428; 0.007549; 0.012030;,
      -0.370816; 0.007549;-0.018525;,
      -0.340894; 0.001364;-0.017925;,
      -0.341506; 0.001364; 0.012629;,
      -0.423033; 0.041032;-0.007112;,
      -0.411760; 0.010471;-0.017942;,
      -0.442314; 0.010471;-0.018555;,
      -0.431484; 0.041032;-0.007282;,
      -0.431484; 0.041032;-0.007282;,
      -0.442314; 0.010471;-0.018555;,
      -0.442927; 0.010471; 0.012000;,
      -0.431653; 0.041032; 0.001170;,
      -0.431653; 0.041032; 0.001170;,
      -0.442927; 0.010471; 0.012000;,
      -0.412372; 0.010471; 0.012612;,
      -0.423202; 0.041032; 0.001339;,
      -0.423202; 0.041032; 0.001339;,
      -0.412372; 0.010471; 0.012612;,
      -0.411760; 0.010471;-0.017942;,
      -0.423033; 0.041032;-0.007112;,
      -0.431484; 0.041032;-0.007282;,
      -0.431653; 0.041032; 0.001170;,
      -0.423202; 0.041032; 0.001339;,
      -0.423033; 0.041032;-0.007112;,
      -0.442927; 0.010471; 0.012000;,
      -0.442314; 0.010471;-0.018555;,
      -0.411760; 0.010471;-0.017942;,
      -0.412372; 0.010471; 0.012612;,
      -0.462130; 0.041032;-0.007896;,
      -0.450857; 0.010471;-0.018726;,
      -0.481412; 0.010471;-0.019338;,
      -0.470582; 0.041032;-0.008065;,
      -0.470582; 0.041032;-0.008065;,
      -0.481412; 0.010471;-0.019338;,
      -0.482024; 0.010471; 0.011216;,
      -0.470751; 0.041032; 0.000386;,
      -0.470751; 0.041032; 0.000386;,
      -0.482024; 0.010471; 0.011216;,
      -0.451470; 0.010471; 0.011829;,
      -0.462300; 0.041032; 0.000556;,
      -0.462300; 0.041032; 0.000556;,
      -0.451470; 0.010471; 0.011829;,
      -0.450857; 0.010471;-0.018726;,
      -0.462130; 0.041032;-0.007896;,
      -0.470582; 0.041032;-0.008065;,
      -0.470751; 0.041032; 0.000386;,
      -0.462300; 0.041032; 0.000556;,
      -0.462130; 0.041032;-0.007896;,
      -0.482024; 0.010471; 0.011216;,
      -0.481412; 0.010471;-0.019338;,
      -0.450857; 0.010471;-0.018726;,
      -0.451470; 0.010471; 0.011829;,
      -0.013656; 0.019429; 0.017597;,
      -0.004712; 0.007867; 0.018190;,
       0.005692; 0.008099; 0.006189;,
      -0.003607; 0.020110; 0.006003;,
      -0.496175; 0.021525;-0.015912;,
      -0.504169; 0.009780;-0.016495;,
      -0.513603; 0.010087;-0.004219;,
      -0.505291; 0.022286;-0.004052;,
      -0.478907; 0.019456; 0.012539;,
      -0.486770; 0.020137;-0.003681;,
      -0.505291; 0.022286;-0.004052;,
      -0.496658; 0.021525; 0.008163;,
      -0.504169; 0.009780;-0.016495;,
      -0.496175;-0.002555;-0.015912;,
      -0.505291;-0.002725;-0.004052;,
      -0.513603; 0.010087;-0.004219;,
      -0.034101;-0.015527; 0.022526;,
      -0.024731;-0.016200; 0.005579;,
      -0.003607;-0.004389; 0.006003;,
      -0.013656;-0.004156; 0.017597;,
      -0.033414; 0.018735;-0.011729;,
      -0.024731; 0.019388; 0.005579;,
      -0.003607; 0.020110; 0.006003;,
      -0.013184; 0.019429;-0.005984;,
      -0.004712; 0.007867; 0.018190;,
      -0.013656;-0.004156; 0.017597;,
      -0.003607;-0.004389; 0.006003;,
       0.005692; 0.008099; 0.006189;,
      -0.371842;-0.021729;-0.017441;,
      -0.376231;-0.022641;-0.001466;,
      -0.486770;-0.013225;-0.003681;,
      -0.478264;-0.012664;-0.019574;,
      -0.372486; 0.010391; 0.014672;,
      -0.376231; 0.010721;-0.001466;,
      -0.486770; 0.020137;-0.003681;,
      -0.478907; 0.019456; 0.012539;,
      -0.478264;-0.012664;-0.019574;,
      -0.486770;-0.013225;-0.003681;,
      -0.505291;-0.002725;-0.004052;,
      -0.496175;-0.002555;-0.015912;,
      -0.341255;-0.015214;-0.016828;,
      -0.344461;-0.015874;-0.000829;,
      -0.376231;-0.022641;-0.001466;,
      -0.371842;-0.021729;-0.017441;,
      -0.341899; 0.016906; 0.015285;,
      -0.344461; 0.017488;-0.000829;,
      -0.376231; 0.010721;-0.001466;,
      -0.372486; 0.010391; 0.014672;,
      -0.270713; 0.018846; 0.018653;,
      -0.270480; 0.019504; 0.000654;,
      -0.344461; 0.017488;-0.000829;,
      -0.341899; 0.016906; 0.015285;,
      -0.207263;-0.020726;-0.014586;,
      -0.205293;-0.021600; 0.001960;,
      -0.270480;-0.017890; 0.000654;,
      -0.269992;-0.017155;-0.017340;,
      -0.207924; 0.012281; 0.018415;,
      -0.205293; 0.012685; 0.001960;,
      -0.270480; 0.019504; 0.000654;,
      -0.270713; 0.018846; 0.018653;,
      -0.269992;-0.017155;-0.017340;,
      -0.270480;-0.017890; 0.000654;,
      -0.344461;-0.015874;-0.000829;,
      -0.341255;-0.015214;-0.016828;,
      -0.201842;-0.021354;-0.015105;,
      -0.199675;-0.022251; 0.002073;,
      -0.205293;-0.021600; 0.001960;,
      -0.207263;-0.020726;-0.014586;,
      -0.202528; 0.012909; 0.019150;,
      -0.199675; 0.013337; 0.002073;,
      -0.205293; 0.012685; 0.001960;,
      -0.207924; 0.012281; 0.018415;,
      -0.201842; 0.012909;-0.015105;,
      -0.199675; 0.013337; 0.002073;,
      -0.024731; 0.019388; 0.005579;,
      -0.033414; 0.018735;-0.011729;,
      -0.202528;-0.021354; 0.019150;,
      -0.199675;-0.022251; 0.002073;,
      -0.024731;-0.016200; 0.005579;,
      -0.034101;-0.015527; 0.022526;;
      138;
      4;3,2,1,0;,
      4;7,6,5,4;,
      4;11,10,9,8;,
      4;15,14,13,12;,
      4;19,18,17,16;,
      4;23,22,21,20;,
      4;27,26,25,24;,
      4;31,30,29,28;,
      4;35,34,33,32;,
      4;39,38,37,36;,
      4;43,42,41,40;,
      4;47,46,45,44;,
      4;51,50,49,48;,
      4;55,54,53,52;,
      4;59,58,57,56;,
      4;63,62,61,60;,
      4;67,66,65,64;,
      4;71,70,69,68;,
      4;75,74,73,72;,
      4;79,78,77,76;,
      4;83,82,81,80;,
      4;87,86,85,84;,
      4;91,90,89,88;,
      4;95,94,93,92;,
      4;99,98,97,96;,
      4;103,102,101,100;,
      4;107,106,105,104;,
      4;111,110,109,108;,
      4;115,114,113,112;,
      4;119,118,117,116;,
      4;123,122,121,120;,
      4;127,126,125,124;,
      4;131,130,129,128;,
      4;135,134,133,132;,
      4;139,138,137,136;,
      4;143,142,141,140;,
      4;147,146,145,144;,
      4;151,150,149,148;,
      4;155,154,153,152;,
      4;159,158,157,156;,
      4;163,162,161,160;,
      4;167,166,165,164;,
      4;171,170,169,168;,
      4;175,174,173,172;,
      4;179,178,177,176;,
      4;183,182,181,180;,
      4;187,186,185,184;,
      4;191,190,189,188;,
      4;195,194,193,192;,
      4;199,198,197,196;,
      4;203,202,201,200;,
      4;207,206,205,204;,
      4;211,210,209,208;,
      4;215,214,213,212;,
      4;219,218,217,216;,
      4;223,222,221,220;,
      4;227,226,225,224;,
      4;231,230,229,228;,
      4;235,234,233,232;,
      4;239,238,237,236;,
      4;243,242,241,240;,
      4;247,246,245,244;,
      4;251,250,249,248;,
      4;255,254,253,252;,
      4;259,258,257,256;,
      4;263,262,261,260;,
      4;267,266,265,264;,
      4;271,270,269,268;,
      4;275,274,273,272;,
      4;279,278,277,276;,
      4;283,282,281,280;,
      4;287,286,285,284;,
      4;291,290,289,288;,
      4;295,294,293,292;,
      4;299,298,297,296;,
      4;303,302,301,300;,
      4;307,306,305,304;,
      4;311,310,309,308;,
      4;315,314,313,312;,
      4;319,318,317,316;,
      4;323,322,321,320;,
      4;327,326,325,324;,
      4;331,330,329,328;,
      4;335,334,333,332;,
      4;339,338,337,336;,
      4;343,342,341,340;,
      4;347,346,345,344;,
      4;351,350,349,348;,
      4;355,354,353,352;,
      4;359,358,357,356;,
      4;363,362,361,360;,
      4;367,366,365,364;,
      4;371,370,369,368;,
      4;375,374,373,372;,
      4;379,378,377,376;,
      4;383,382,381,380;,
      4;387,386,385,384;,
      4;391,390,389,388;,
      4;395,394,393,392;,
      4;399,398,397,396;,
      4;403,402,401,400;,
      4;407,406,405,404;,
      4;411,410,409,408;,
      4;415,414,413,412;,
      4;419,418,417,416;,
      4;423,422,421,420;,
      4;427,426,425,424;,
      4;431,430,429,428;,
      4;435,434,433,432;,
      4;439,438,437,436;,
      4;443,442,441,440;,
      4;447,446,445,444;,
      4;451,450,449,448;,
      4;455,454,453,452;,
      4;459,458,457,456;,
      4;463,462,461,460;,
      4;467,466,465,464;,
      4;471,470,469,468;,
      4;475,474,473,472;,
      4;479,478,477,476;,
      4;483,482,481,480;,
      4;487,486,485,484;,
      4;491,490,489,488;,
      4;495,494,493,492;,
      4;499,498,497,496;,
      4;503,502,501,500;,
      4;507,506,505,504;,
      4;511,510,509,508;,
      4;515,514,513,512;,
      4;519,518,517,516;,
      4;523,522,521,520;,
      4;527,526,525,524;,
      4;531,530,529,528;,
      4;535,534,533,532;,
      4;539,538,537,536;,
      4;543,542,541,540;,
      4;547,546,545,544;,
      4;551,550,549,548;;
      MeshNormals { // Cube_001 normals
        552;
         0.477035; 0.749901;-0.458296;,
         0.660360;-0.401776;-0.634388;,
        -0.634388;-0.401776;-0.660360;,
        -0.458296; 0.749901;-0.477035;,
        -0.458296; 0.749901;-0.477035;,
        -0.634388;-0.401776;-0.660360;,
        -0.660360;-0.401776; 0.634388;,
        -0.477035; 0.749901; 0.458296;,
        -0.477035; 0.749901; 0.458296;,
        -0.660360;-0.401776; 0.634388;,
         0.634388;-0.401776; 0.660360;,
         0.458296; 0.749901; 0.477035;,
         0.458296; 0.749901; 0.477035;,
         0.634388;-0.401776; 0.660360;,
         0.660360;-0.401776;-0.634388;,
         0.477035; 0.749901;-0.458296;,
        -0.458296; 0.749901;-0.477035;,
        -0.477035; 0.749901; 0.458296;,
         0.458296; 0.749901; 0.477035;,
         0.477035; 0.749901;-0.458296;,
        -0.660360;-0.401776; 0.634388;,
        -0.634388;-0.401776;-0.660360;,
         0.660360;-0.401776;-0.634388;,
         0.634388;-0.401776; 0.660360;,
        -0.034333;-0.999390;-0.000671;,
        -0.058931;-0.702628;-0.709067;,
         0.187750;-0.689138;-0.699850;,
         0.353557;-0.935362; 0.007080;,
         0.208899;-0.038423;-0.977172;,
         0.051057; 0.703421;-0.708914;,
         0.270180; 0.752312;-0.600818;,
         0.626667; 0.011078;-0.779199;,
         0.208899;-0.038423;-0.977172;,
         0.187750;-0.689138;-0.699850;,
        -0.058931;-0.702628;-0.709067;,
        -0.033143;-0.000763;-0.999420;,
        -0.071352; 0.997436;-0.001404;,
        -0.109928; 0.704276; 0.701346;,
         0.022584; 0.703421; 0.710379;,
        -0.032075; 0.999481;-0.000641;,
        -0.073153;-0.000763; 0.997314;,
        -0.087313;-0.702628; 0.706137;,
         0.159551;-0.689138; 0.706809;,
         0.169591;-0.038423; 0.984741;,
        -0.033143;-0.000763;-0.999420;,
        -0.058931;-0.702628;-0.709067;,
        -0.075472;-0.708457;-0.701682;,
        -0.032014;-0.001038;-0.999481;,
        -0.032014;-0.001038;-0.999481;,
        -0.075472;-0.708457;-0.701682;,
        -0.015564;-0.695517;-0.718314;,
         0.018311; 0.000885;-0.999817;,
        -0.071352; 0.997436;-0.001404;,
        -0.081729; 0.704276;-0.705191;,
        -0.012818; 0.699393;-0.714591;,
        -0.015351; 0.999878;-0.000305;,
        -0.034333;-0.999390;-0.000671;,
        -0.087313;-0.702628; 0.706137;,
        -0.103549;-0.708457; 0.698111;,
        -0.089511;-0.995972;-0.001770;,
        -0.073153;-0.000763; 0.997314;,
        -0.109928; 0.704276; 0.701346;,
        -0.041444; 0.699393; 0.713523;,
        -0.072024;-0.001038; 0.997375;,
        -0.041993;-0.999115;-0.000824;,
        -0.044343;-0.695517; 0.717093;,
         0.028138;-0.684530; 0.728416;,
         0.104434;-0.994507; 0.002075;,
        -0.015351; 0.999878;-0.000305;,
        -0.012818; 0.699393;-0.714591;,
         0.040223; 0.714499;-0.698447;,
         0.038057; 0.999268; 0.000763;,
        -0.089511;-0.995972;-0.001770;,
        -0.103549;-0.708457; 0.698111;,
        -0.044343;-0.695517; 0.717093;,
        -0.041993;-0.999115;-0.000824;,
        -0.072024;-0.001038; 0.997375;,
        -0.041444; 0.699393; 0.713523;,
         0.012207; 0.714499; 0.699515;,
        -0.021729; 0.000885; 0.999756;,
         0.006928; 0.002960;-0.999969;,
         0.057314;-0.684530;-0.726676;,
         0.076540;-0.733787;-0.675008;,
         0.020264;-0.003449;-0.999786;,
        -0.021729; 0.000885; 0.999756;,
         0.012207; 0.714499; 0.699515;,
        -0.101901; 0.718040; 0.688467;,
        -0.033143; 0.002960; 0.999420;,
         0.018311; 0.000885;-0.999817;,
        -0.015564;-0.695517;-0.718314;,
         0.057314;-0.684530;-0.726676;,
         0.006928; 0.002960;-0.999969;,
         0.038057; 0.999268; 0.000763;,
         0.040223; 0.714499;-0.698447;,
        -0.074221; 0.718040;-0.692007;,
        -0.128300; 0.991729;-0.002564;,
         0.020264;-0.003449;-0.999786;,
         0.076540;-0.733787;-0.675008;,
        -0.179479;-0.677023;-0.713706;,
        -0.142735;-0.034364;-0.989135;,
        -0.128300; 0.991729;-0.002564;,
        -0.074221; 0.718040;-0.692007;,
        -0.042360; 0.667318;-0.743522;,
        -0.039277; 0.999207;-0.000763;,
         0.104434;-0.994507; 0.002075;,
         0.028138;-0.684530; 0.728416;,
         0.049440;-0.733787; 0.677541;,
         0.039094;-0.999207; 0.000763;,
        -0.033143; 0.002960; 0.999420;,
        -0.101901; 0.718040; 0.688467;,
        -0.072146; 0.667318; 0.741234;,
        -0.019776;-0.003449; 0.999786;,
        -0.367840;-0.929838;-0.007355;,
        -0.207923;-0.677023; 0.705954;,
        -0.515946;-0.526902; 0.675375;,
        -0.732109;-0.681021;-0.014649;,
        -0.039277; 0.999207;-0.000763;,
        -0.042360; 0.667318;-0.743522;,
         0.024110; 0.709006;-0.704764;,
         0.106021; 0.994354; 0.002106;,
         0.039094;-0.999207; 0.000763;,
         0.049440;-0.733787; 0.677541;,
        -0.207923;-0.677023; 0.705954;,
        -0.367840;-0.929838;-0.007355;,
        -0.019776;-0.003449; 0.999786;,
        -0.072146; 0.667318; 0.741234;,
        -0.004120; 0.709006; 0.705161;,
        -0.182257;-0.034364; 0.982635;,
         0.999725; 0.012055; 0.020020;,
         0.708518;-0.705496; 0.014191;,
         0.510666;-0.540391;-0.668691;,
         0.626667; 0.011078;-0.779199;,
        -0.032075; 0.999481;-0.000641;,
         0.022584; 0.703421; 0.710379;,
         0.245888; 0.752312; 0.611164;,
         0.550005; 0.835078; 0.011017;,
         0.353557;-0.935362; 0.007080;,
         0.187750;-0.689138;-0.699850;,
         0.510666;-0.540391;-0.668691;,
         0.708518;-0.705496; 0.014191;,
         0.169591;-0.038423; 0.984741;,
         0.159551;-0.689138; 0.706809;,
         0.483474;-0.540391; 0.688620;,
         0.594928; 0.011078; 0.803674;,
        -0.999664; 0.015107;-0.020020;,
        -0.732109;-0.681021;-0.014649;,
        -0.515946;-0.526902; 0.675375;,
        -0.635945; 0.011567; 0.771630;,
        -0.182257;-0.034364; 0.982635;,
        -0.004120; 0.709006; 0.705161;,
        -0.241798; 0.763817; 0.598376;,
        -0.635945; 0.011567; 0.771630;,
        -0.142735;-0.034364;-0.989135;,
        -0.179479;-0.677023;-0.713706;,
        -0.488449;-0.526902;-0.695517;,
        -0.604511; 0.011567;-0.796503;,
         0.106021; 0.994354; 0.002106;,
         0.024110; 0.709006;-0.704764;,
        -0.217627; 0.763817;-0.607593;,
        -0.544389; 0.838740;-0.010895;,
         0.024110; 0.709006;-0.704764;,
        -0.142735;-0.034364;-0.989135;,
        -0.604511; 0.011567;-0.796503;,
        -0.217627; 0.763817;-0.607593;,
        -0.207923;-0.677023; 0.705954;,
        -0.182257;-0.034364; 0.982635;,
        -0.635945; 0.011567; 0.771630;,
        -0.515946;-0.526902; 0.675375;,
        -0.544389; 0.838740;-0.010895;,
        -0.999664; 0.015107;-0.020020;,
        -0.635945; 0.011567; 0.771630;,
        -0.241798; 0.763817; 0.598376;,
         0.022584; 0.703421; 0.710379;,
         0.169591;-0.038423; 0.984741;,
         0.594928; 0.011078; 0.803674;,
         0.245888; 0.752312; 0.611164;,
         0.550005; 0.835078; 0.011017;,
         0.999725; 0.012055; 0.020020;,
         0.626667; 0.011078;-0.779199;,
         0.270180; 0.752312;-0.600818;,
         0.049440;-0.733787; 0.677541;,
        -0.019776;-0.003449; 0.999786;,
        -0.182257;-0.034364; 0.982635;,
        -0.207923;-0.677023; 0.705954;,
         0.028138;-0.684530; 0.728416;,
        -0.033143; 0.002960; 0.999420;,
        -0.019776;-0.003449; 0.999786;,
         0.049440;-0.733787; 0.677541;,
        -0.042360; 0.667318;-0.743522;,
         0.020264;-0.003449;-0.999786;,
        -0.142735;-0.034364;-0.989135;,
         0.024110; 0.709006;-0.704764;,
         0.040223; 0.714499;-0.698447;,
         0.018311; 0.000885;-0.999817;,
         0.006928; 0.002960;-0.999969;,
        -0.074221; 0.718040;-0.692007;,
        -0.044343;-0.695517; 0.717093;,
        -0.021729; 0.000885; 0.999756;,
        -0.033143; 0.002960; 0.999420;,
         0.028138;-0.684530; 0.728416;,
        -0.074221; 0.718040;-0.692007;,
         0.006928; 0.002960;-0.999969;,
         0.020264;-0.003449;-0.999786;,
        -0.042360; 0.667318;-0.743522;,
        -0.103549;-0.708457; 0.698111;,
        -0.072024;-0.001038; 0.997375;,
        -0.021729; 0.000885; 0.999756;,
        -0.044343;-0.695517; 0.717093;,
        -0.087313;-0.702628; 0.706137;,
        -0.073153;-0.000763; 0.997314;,
        -0.072024;-0.001038; 0.997375;,
        -0.103549;-0.708457; 0.698111;,
        -0.012818; 0.699393;-0.714591;,
        -0.032014;-0.001038;-0.999481;,
         0.018311; 0.000885;-0.999817;,
         0.040223; 0.714499;-0.698447;,
        -0.081729; 0.704276;-0.705191;,
        -0.033143;-0.000763;-0.999420;,
        -0.032014;-0.001038;-0.999481;,
        -0.012818; 0.699393;-0.714591;,
        -0.109928; 0.704276; 0.701346;,
        -0.073153;-0.000763; 0.997314;,
         0.169591;-0.038423; 0.984741;,
         0.022584; 0.703421; 0.710379;,
         0.051057; 0.703421;-0.708914;,
         0.208899;-0.038423;-0.977172;,
        -0.033143;-0.000763;-0.999420;,
        -0.081729; 0.704276;-0.705191;,
         0.187750;-0.689138;-0.699850;,
         0.208899;-0.038423;-0.977172;,
         0.626667; 0.011078;-0.779199;,
         0.510666;-0.540391;-0.668691;,
         0.477035; 0.749901;-0.458296;,
         0.660360;-0.401776;-0.634388;,
        -0.634388;-0.401776;-0.660360;,
        -0.458296; 0.749901;-0.477035;,
        -0.458296; 0.749901;-0.477035;,
        -0.634388;-0.401776;-0.660360;,
        -0.660360;-0.401776; 0.634388;,
        -0.477035; 0.749901; 0.458296;,
        -0.477035; 0.749901; 0.458296;,
        -0.660360;-0.401776; 0.634388;,
         0.634388;-0.401776; 0.660360;,
         0.458296; 0.749901; 0.477035;,
         0.458296; 0.749901; 0.477035;,
         0.634388;-0.401776; 0.660360;,
         0.660360;-0.401776;-0.634388;,
         0.477035; 0.749901;-0.458296;,
        -0.458296; 0.749901;-0.477035;,
        -0.477035; 0.749901; 0.458296;,
         0.458296; 0.749901; 0.477035;,
         0.477035; 0.749901;-0.458296;,
        -0.660360;-0.401776; 0.634388;,
        -0.634388;-0.401776;-0.660360;,
         0.660360;-0.401776;-0.634388;,
         0.634388;-0.401776; 0.660360;,
         0.477035; 0.749901;-0.458296;,
         0.660360;-0.401776;-0.634388;,
        -0.634388;-0.401776;-0.660360;,
        -0.458296; 0.749901;-0.477035;,
        -0.458296; 0.749901;-0.477035;,
        -0.634388;-0.401776;-0.660360;,
        -0.660360;-0.401776; 0.634388;,
        -0.477035; 0.749901; 0.458296;,
        -0.477035; 0.749901; 0.458296;,
        -0.660360;-0.401776; 0.634388;,
         0.634388;-0.401776; 0.660360;,
         0.458296; 0.749901; 0.477035;,
         0.458296; 0.749901; 0.477035;,
         0.634388;-0.401776; 0.660360;,
         0.660360;-0.401776;-0.634388;,
         0.477035; 0.749901;-0.458296;,
        -0.458296; 0.749901;-0.477035;,
        -0.477035; 0.749901; 0.458296;,
         0.458296; 0.749901; 0.477035;,
         0.477035; 0.749901;-0.458296;,
        -0.660360;-0.401776; 0.634388;,
        -0.634388;-0.401776;-0.660360;,
         0.660360;-0.401776;-0.634388;,
         0.634388;-0.401776; 0.660360;,
         0.477035; 0.749901;-0.458296;,
         0.660360;-0.401776;-0.634388;,
        -0.634388;-0.401776;-0.660360;,
        -0.458296; 0.749901;-0.477035;,
        -0.458296; 0.749901;-0.477035;,
        -0.634388;-0.401776;-0.660360;,
        -0.660360;-0.401776; 0.634388;,
        -0.477035; 0.749901; 0.458296;,
        -0.477035; 0.749901; 0.458296;,
        -0.660360;-0.401776; 0.634388;,
         0.634388;-0.401776; 0.660360;,
         0.458296; 0.749901; 0.477035;,
         0.458296; 0.749901; 0.477035;,
         0.634388;-0.401776; 0.660360;,
         0.660360;-0.401776;-0.634388;,
         0.477035; 0.749901;-0.458296;,
        -0.458296; 0.749901;-0.477035;,
        -0.477035; 0.749901; 0.458296;,
         0.458296; 0.749901; 0.477035;,
         0.477035; 0.749901;-0.458296;,
        -0.660360;-0.401776; 0.634388;,
        -0.634388;-0.401776;-0.660360;,
         0.660360;-0.401776;-0.634388;,
         0.634388;-0.401776; 0.660360;,
         0.619098; 0.639729;-0.455428;,
         0.565661;-0.524491;-0.636311;,
        -0.702292;-0.262429;-0.661702;,
        -0.296884; 0.829066;-0.473800;,
        -0.296884; 0.829066;-0.473800;,
        -0.702292;-0.262429;-0.661702;,
        -0.728263;-0.262429; 0.633045;,
        -0.315622; 0.829066; 0.461531;,
        -0.315622; 0.829066; 0.461531;,
        -0.728263;-0.262429; 0.633045;,
         0.539720;-0.524491; 0.658467;,
         0.600360; 0.639729; 0.479873;,
         0.600360; 0.639729; 0.479873;,
         0.539720;-0.524491; 0.658467;,
         0.565661;-0.524491;-0.636311;,
         0.619098; 0.639729;-0.455428;,
        -0.296884; 0.829066;-0.473800;,
        -0.315622; 0.829066; 0.461531;,
         0.600360; 0.639729; 0.479873;,
         0.619098; 0.639729;-0.455428;,
        -0.728263;-0.262429; 0.633045;,
        -0.702292;-0.262429;-0.661702;,
         0.565661;-0.524491;-0.636311;,
         0.539720;-0.524491; 0.658467;,
         0.230384; 0.855739;-0.463240;,
         0.751091;-0.188849;-0.632588;,
        -0.483963;-0.577624;-0.657338;,
        -0.661794; 0.574877;-0.481124;,
        -0.661794; 0.574877;-0.481124;,
        -0.483963;-0.577624;-0.657338;,
        -0.509903;-0.577624; 0.637410;,
        -0.680532; 0.574908; 0.454207;,
        -0.680532; 0.574908; 0.454207;,
        -0.509903;-0.577624; 0.637410;,
         0.725120;-0.188849; 0.662160;,
         0.211646; 0.855739; 0.472091;,
         0.211646; 0.855739; 0.472091;,
         0.725120;-0.188849; 0.662160;,
         0.751091;-0.188849;-0.632588;,
         0.230384; 0.855739;-0.463240;,
        -0.661794; 0.574877;-0.481124;,
        -0.680532; 0.574908; 0.454207;,
         0.211646; 0.855739; 0.472091;,
         0.230384; 0.855739;-0.463240;,
        -0.509903;-0.577624; 0.637410;,
        -0.483963;-0.577624;-0.657338;,
         0.751091;-0.188849;-0.632588;,
         0.725120;-0.188849; 0.662160;,
         0.477035; 0.749901;-0.458296;,
         0.660360;-0.401776;-0.634388;,
        -0.634388;-0.401776;-0.660360;,
        -0.458296; 0.749901;-0.477035;,
        -0.458296; 0.749901;-0.477035;,
        -0.634388;-0.401776;-0.660360;,
        -0.660360;-0.401776; 0.634388;,
        -0.477035; 0.749901; 0.458296;,
        -0.477035; 0.749901; 0.458296;,
        -0.660360;-0.401776; 0.634388;,
         0.634388;-0.401776; 0.660360;,
         0.458296; 0.749901; 0.477035;,
         0.458296; 0.749901; 0.477035;,
         0.634388;-0.401776; 0.660360;,
         0.660360;-0.401776;-0.634388;,
         0.477035; 0.749901;-0.458296;,
        -0.458296; 0.749901;-0.477035;,
        -0.477035; 0.749901; 0.458296;,
         0.458296; 0.749901; 0.477035;,
         0.477035; 0.749901;-0.458296;,
        -0.660360;-0.401776; 0.634388;,
        -0.634388;-0.401776;-0.660360;,
         0.660360;-0.401776;-0.634388;,
         0.634388;-0.401776; 0.660360;,
         0.477035; 0.749901;-0.458296;,
         0.660360;-0.401776;-0.634388;,
        -0.634388;-0.401776;-0.660360;,
        -0.458296; 0.749901;-0.477035;,
        -0.458296; 0.749901;-0.477035;,
        -0.634388;-0.401776;-0.660360;,
        -0.660360;-0.401776; 0.634388;,
        -0.477035; 0.749901; 0.458296;,
        -0.477035; 0.749901; 0.458296;,
        -0.660360;-0.401776; 0.634388;,
         0.634388;-0.401776; 0.660360;,
         0.458296; 0.749901; 0.477035;,
         0.458296; 0.749901; 0.477035;,
         0.634388;-0.401776; 0.660360;,
         0.660360;-0.401776;-0.634388;,
         0.477035; 0.749901;-0.458296;,
        -0.458296; 0.749901;-0.477035;,
        -0.477035; 0.749901; 0.458296;,
         0.458296; 0.749901; 0.477035;,
         0.477035; 0.749901;-0.458296;,
        -0.660360;-0.401776; 0.634388;,
        -0.634388;-0.401776;-0.660360;,
         0.660360;-0.401776;-0.634388;,
         0.634388;-0.401776; 0.660360;,
         0.619098; 0.639729;-0.455428;,
         0.565661;-0.524491;-0.636311;,
        -0.702292;-0.262429;-0.661702;,
        -0.296884; 0.829066;-0.473800;,
        -0.296884; 0.829066;-0.473800;,
        -0.702292;-0.262429;-0.661702;,
        -0.728263;-0.262429; 0.633045;,
        -0.315622; 0.829066; 0.461531;,
        -0.315622; 0.829066; 0.461531;,
        -0.728263;-0.262429; 0.633045;,
         0.539720;-0.524491; 0.658467;,
         0.600360; 0.639729; 0.479873;,
         0.600360; 0.639729; 0.479873;,
         0.539720;-0.524491; 0.658467;,
         0.565661;-0.524491;-0.636311;,
         0.619098; 0.639729;-0.455428;,
        -0.296884; 0.829066;-0.473800;,
        -0.315622; 0.829066; 0.461531;,
         0.600360; 0.639729; 0.479873;,
         0.619098; 0.639729;-0.455428;,
        -0.728263;-0.262429; 0.633045;,
        -0.702292;-0.262429;-0.661702;,
         0.565661;-0.524491;-0.636311;,
         0.539720;-0.524491; 0.658467;,
         0.477035; 0.749901;-0.458296;,
         0.660360;-0.401776;-0.634388;,
        -0.634388;-0.401776;-0.660360;,
        -0.458296; 0.749901;-0.477035;,
        -0.458296; 0.749901;-0.477035;,
        -0.634388;-0.401776;-0.660360;,
        -0.660360;-0.401776; 0.634388;,
        -0.477035; 0.749901; 0.458296;,
        -0.477035; 0.749901; 0.458296;,
        -0.660360;-0.401776; 0.634388;,
         0.634388;-0.401776; 0.660360;,
         0.458296; 0.749901; 0.477035;,
         0.458296; 0.749901; 0.477035;,
         0.634388;-0.401776; 0.660360;,
         0.660360;-0.401776;-0.634388;,
         0.477035; 0.749901;-0.458296;,
        -0.458296; 0.749901;-0.477035;,
        -0.477035; 0.749901; 0.458296;,
         0.458296; 0.749901; 0.477035;,
         0.477035; 0.749901;-0.458296;,
        -0.660360;-0.401776; 0.634388;,
        -0.634388;-0.401776;-0.660360;,
         0.660360;-0.401776;-0.634388;,
         0.634388;-0.401776; 0.660360;,
         0.477035; 0.749901;-0.458296;,
         0.660360;-0.401776;-0.634388;,
        -0.634388;-0.401776;-0.660360;,
        -0.458296; 0.749901;-0.477035;,
        -0.458296; 0.749901;-0.477035;,
        -0.634388;-0.401776;-0.660360;,
        -0.660360;-0.401776; 0.634388;,
        -0.477035; 0.749901; 0.458296;,
        -0.477035; 0.749901; 0.458296;,
        -0.660360;-0.401776; 0.634388;,
         0.634388;-0.401776; 0.660360;,
         0.458296; 0.749901; 0.477035;,
         0.458296; 0.749901; 0.477035;,
         0.634388;-0.401776; 0.660360;,
         0.660360;-0.401776;-0.634388;,
         0.477035; 0.749901;-0.458296;,
        -0.458296; 0.749901;-0.477035;,
        -0.477035; 0.749901; 0.458296;,
         0.458296; 0.749901; 0.477035;,
         0.477035; 0.749901;-0.458296;,
        -0.660360;-0.401776; 0.634388;,
        -0.634388;-0.401776;-0.660360;,
         0.660360;-0.401776;-0.634388;,
         0.634388;-0.401776; 0.660360;,
         0.245888; 0.752312; 0.611164;,
         0.594928; 0.011078; 0.803674;,
         0.999725; 0.012055; 0.020020;,
         0.550005; 0.835078; 0.011017;,
        -0.217627; 0.763817;-0.607593;,
        -0.604511; 0.011567;-0.796503;,
        -0.999664; 0.015107;-0.020020;,
        -0.544389; 0.838740;-0.010895;,
        -0.004120; 0.709006; 0.705161;,
         0.106021; 0.994354; 0.002106;,
        -0.544389; 0.838740;-0.010895;,
        -0.241798; 0.763817; 0.598376;,
        -0.604511; 0.011567;-0.796503;,
        -0.488449;-0.526902;-0.695517;,
        -0.732109;-0.681021;-0.014649;,
        -0.999664; 0.015107;-0.020020;,
         0.159551;-0.689138; 0.706809;,
         0.353557;-0.935362; 0.007080;,
         0.708518;-0.705496; 0.014191;,
         0.483474;-0.540391; 0.688620;,
         0.051057; 0.703421;-0.708914;,
        -0.032075; 0.999481;-0.000641;,
         0.550005; 0.835078; 0.011017;,
         0.270180; 0.752312;-0.600818;,
         0.594928; 0.011078; 0.803674;,
         0.483474;-0.540391; 0.688620;,
         0.708518;-0.705496; 0.014191;,
         0.999725; 0.012055; 0.020020;,
         0.076540;-0.733787;-0.675008;,
         0.039094;-0.999207; 0.000763;,
        -0.367840;-0.929838;-0.007355;,
        -0.179479;-0.677023;-0.713706;,
        -0.072146; 0.667318; 0.741234;,
        -0.039277; 0.999207;-0.000763;,
         0.106021; 0.994354; 0.002106;,
        -0.004120; 0.709006; 0.705161;,
        -0.179479;-0.677023;-0.713706;,
        -0.367840;-0.929838;-0.007355;,
        -0.732109;-0.681021;-0.014649;,
        -0.488449;-0.526902;-0.695517;,
         0.057314;-0.684530;-0.726676;,
         0.104434;-0.994507; 0.002075;,
         0.039094;-0.999207; 0.000763;,
         0.076540;-0.733787;-0.675008;,
        -0.101901; 0.718040; 0.688467;,
        -0.128300; 0.991729;-0.002564;,
        -0.039277; 0.999207;-0.000763;,
        -0.072146; 0.667318; 0.741234;,
         0.012207; 0.714499; 0.699515;,
         0.038057; 0.999268; 0.000763;,
        -0.128300; 0.991729;-0.002564;,
        -0.101901; 0.718040; 0.688467;,
        -0.075472;-0.708457;-0.701682;,
        -0.089511;-0.995972;-0.001770;,
        -0.041993;-0.999115;-0.000824;,
        -0.015564;-0.695517;-0.718314;,
        -0.041444; 0.699393; 0.713523;,
        -0.015351; 0.999878;-0.000305;,
         0.038057; 0.999268; 0.000763;,
         0.012207; 0.714499; 0.699515;,
        -0.015564;-0.695517;-0.718314;,
        -0.041993;-0.999115;-0.000824;,
         0.104434;-0.994507; 0.002075;,
         0.057314;-0.684530;-0.726676;,
        -0.058931;-0.702628;-0.709067;,
        -0.034333;-0.999390;-0.000671;,
        -0.089511;-0.995972;-0.001770;,
        -0.075472;-0.708457;-0.701682;,
        -0.109928; 0.704276; 0.701346;,
        -0.071352; 0.997436;-0.001404;,
        -0.015351; 0.999878;-0.000305;,
        -0.041444; 0.699393; 0.713523;,
        -0.081729; 0.704276;-0.705191;,
        -0.071352; 0.997436;-0.001404;,
        -0.032075; 0.999481;-0.000641;,
         0.051057; 0.703421;-0.708914;,
        -0.087313;-0.702628; 0.706137;,
        -0.034333;-0.999390;-0.000671;,
         0.353557;-0.935362; 0.007080;,
         0.159551;-0.689138; 0.706809;;
        138;
        4;3,2,1,0;,
        4;7,6,5,4;,
        4;11,10,9,8;,
        4;15,14,13,12;,
        4;19,18,17,16;,
        4;23,22,21,20;,
        4;27,26,25,24;,
        4;31,30,29,28;,
        4;35,34,33,32;,
        4;39,38,37,36;,
        4;43,42,41,40;,
        4;47,46,45,44;,
        4;51,50,49,48;,
        4;55,54,53,52;,
        4;59,58,57,56;,
        4;63,62,61,60;,
        4;67,66,65,64;,
        4;71,70,69,68;,
        4;75,74,73,72;,
        4;79,78,77,76;,
        4;83,82,81,80;,
        4;87,86,85,84;,
        4;91,90,89,88;,
        4;95,94,93,92;,
        4;99,98,97,96;,
        4;103,102,101,100;,
        4;107,106,105,104;,
        4;111,110,109,108;,
        4;115,114,113,112;,
        4;119,118,117,116;,
        4;123,122,121,120;,
        4;127,126,125,124;,
        4;131,130,129,128;,
        4;135,134,133,132;,
        4;139,138,137,136;,
        4;143,142,141,140;,
        4;147,146,145,144;,
        4;151,150,149,148;,
        4;155,154,153,152;,
        4;159,158,157,156;,
        4;163,162,161,160;,
        4;167,166,165,164;,
        4;171,170,169,168;,
        4;175,174,173,172;,
        4;179,178,177,176;,
        4;183,182,181,180;,
        4;187,186,185,184;,
        4;191,190,189,188;,
        4;195,194,193,192;,
        4;199,198,197,196;,
        4;203,202,201,200;,
        4;207,206,205,204;,
        4;211,210,209,208;,
        4;215,214,213,212;,
        4;219,218,217,216;,
        4;223,222,221,220;,
        4;227,226,225,224;,
        4;231,230,229,228;,
        4;235,234,233,232;,
        4;239,238,237,236;,
        4;243,242,241,240;,
        4;247,246,245,244;,
        4;251,250,249,248;,
        4;255,254,253,252;,
        4;259,258,257,256;,
        4;263,262,261,260;,
        4;267,266,265,264;,
        4;271,270,269,268;,
        4;275,274,273,272;,
        4;279,278,277,276;,
        4;283,282,281,280;,
        4;287,286,285,284;,
        4;291,290,289,288;,
        4;295,294,293,292;,
        4;299,298,297,296;,
        4;303,302,301,300;,
        4;307,306,305,304;,
        4;311,310,309,308;,
        4;315,314,313,312;,
        4;319,318,317,316;,
        4;323,322,321,320;,
        4;327,326,325,324;,
        4;331,330,329,328;,
        4;335,334,333,332;,
        4;339,338,337,336;,
        4;343,342,341,340;,
        4;347,346,345,344;,
        4;351,350,349,348;,
        4;355,354,353,352;,
        4;359,358,357,356;,
        4;363,362,361,360;,
        4;367,366,365,364;,
        4;371,370,369,368;,
        4;375,374,373,372;,
        4;379,378,377,376;,
        4;383,382,381,380;,
        4;387,386,385,384;,
        4;391,390,389,388;,
        4;395,394,393,392;,
        4;399,398,397,396;,
        4;403,402,401,400;,
        4;407,406,405,404;,
        4;411,410,409,408;,
        4;415,414,413,412;,
        4;419,418,417,416;,
        4;423,422,421,420;,
        4;427,426,425,424;,
        4;431,430,429,428;,
        4;435,434,433,432;,
        4;439,438,437,436;,
        4;443,442,441,440;,
        4;447,446,445,444;,
        4;451,450,449,448;,
        4;455,454,453,452;,
        4;459,458,457,456;,
        4;463,462,461,460;,
        4;467,466,465,464;,
        4;471,470,469,468;,
        4;475,474,473,472;,
        4;479,478,477,476;,
        4;483,482,481,480;,
        4;487,486,485,484;,
        4;491,490,489,488;,
        4;495,494,493,492;,
        4;499,498,497,496;,
        4;503,502,501,500;,
        4;507,506,505,504;,
        4;511,510,509,508;,
        4;515,514,513,512;,
        4;519,518,517,516;,
        4;523,522,521,520;,
        4;527,526,525,524;,
        4;531,530,529,528;,
        4;535,534,533,532;,
        4;539,538,537,536;,
        4;543,542,541,540;,
        4;547,546,545,544;,
        4;551,550,549,548;;
      } // End of Cube_001 normals
      MeshTextureCoords { // Cube_001 UV coordinates
        552;
         0.788361; 0.619603;,
         0.820866; 0.557403;,
         0.731269; 0.557403;,
         0.763579; 0.619603;,
         0.519666; 0.809205;,
         0.552074; 0.745607;,
         0.462476; 0.745607;,
         0.494884; 0.809205;,
         0.788556; 0.748403;,
         0.820866; 0.686203;,
         0.731270; 0.686203;,
         0.763774; 0.748403;,
         0.584481; 0.682009;,
         0.552074; 0.745607;,
         0.641672; 0.745607;,
         0.609264; 0.682009;,
         0.910463; 0.555281;,
         0.910463; 0.571824;,
         0.935246; 0.571824;,
         0.935246; 0.555281;,
         0.731266; 0.433003;,
         0.731266; 0.373194;,
         0.641672; 0.373194;,
         0.641672; 0.433003;,
         0.304918; 0.401481;,
         0.355116; 0.406532;,
         0.356930; 0.076953;,
         0.306803; 0.059151;,
         0.071449; 0.062490;,
         0.121289; 0.078740;,
         0.125692; 0.038993;,
         0.092055; 0.021386;,
         0.071449; 0.062490;,
         0.021778; 0.078504;,
         0.002769; 0.408144;,
         0.051772; 0.403701;,
         0.410464; 0.616156;,
         0.360212; 0.611363;,
         0.362027; 0.941094;,
         0.412349; 0.958645;,
         0.177464; 0.617684;,
         0.128460; 0.613242;,
         0.147470; 0.942882;,
         0.197141; 0.958896;,
         0.051772; 0.403701;,
         0.002769; 0.408144;,
         0.004775; 0.418741;,
         0.051963; 0.414666;,
         0.051963; 0.414666;,
         0.004775; 0.418741;,
         0.013772; 0.541594;,
         0.065775; 0.541842;,
         0.410464; 0.616156;,
         0.460661; 0.611117;,
         0.458764; 0.600530;,
         0.410403; 0.605155;,
         0.304918; 0.401481;,
         0.254667; 0.406285;,
         0.256448; 0.416886;,
         0.304858; 0.412488;,
         0.177464; 0.617684;,
         0.227971; 0.613006;,
         0.226333; 0.602417;,
         0.177654; 0.606719;,
         0.304155; 0.540143;,
         0.251384; 0.539775;,
         0.256306; 0.679233;,
         0.303358; 0.684982;,
         0.410403; 0.605155;,
         0.458764; 0.600530;,
         0.462476; 0.477730;,
         0.409702; 0.477614;,
         0.304858; 0.412488;,
         0.256448; 0.416886;,
         0.251384; 0.539775;,
         0.304155; 0.540143;,
         0.177654; 0.606719;,
         0.226333; 0.602417;,
         0.244024; 0.479543;,
         0.191467; 0.479544;,
         0.065664; 0.686173;,
         0.019301; 0.681043;,
         0.000000; 0.740869;,
         0.045685; 0.748099;,
         0.191467; 0.479544;,
         0.244024; 0.479543;,
         0.238280; 0.340121;,
         0.191356; 0.335213;,
         0.065775; 0.541842;,
         0.013772; 0.541594;,
         0.019301; 0.681043;,
         0.065664; 0.686173;,
         0.409702; 0.477614;,
         0.462476; 0.477730;,
         0.456019; 0.338311;,
         0.408905; 0.332787;,
         0.045685; 0.748099;,
         0.000000; 0.740869;,
         0.025010; 0.949241;,
         0.071573; 0.963784;,
         0.408905; 0.332787;,
         0.456019; 0.338311;,
         0.455689; 0.278385;,
         0.408562; 0.270543;,
         0.303358; 0.684982;,
         0.256306; 0.679233;,
         0.255977; 0.738997;,
         0.303017; 0.747058;,
         0.191356; 0.335213;,
         0.238280; 0.340121;,
         0.218979; 0.280295;,
         0.171377; 0.273287;,
         0.301825; 0.963576;,
         0.254830; 0.947449;,
         0.266422; 0.982546;,
         0.301624; 1.000000;,
         0.408562; 0.270543;,
         0.455689; 0.278385;,
         0.454543; 0.070151;,
         0.407372; 0.054252;,
         0.303017; 0.747058;,
         0.255977; 0.738997;,
         0.254830; 0.947449;,
         0.301825; 0.963576;,
         0.171377; 0.273287;,
         0.218979; 0.280295;,
         0.243989; 0.071923;,
         0.197265; 0.057601;,
         0.307128; 0.000000;,
         0.307029; 0.017997;,
         0.341498; 0.037293;,
         0.342807; 0.019970;,
         0.412349; 0.958645;,
         0.362027; 0.941094;,
         0.377896; 0.980870;,
         0.412576; 1.000000;,
         0.306803; 0.059151;,
         0.356930; 0.076953;,
         0.341498; 0.037293;,
         0.307029; 0.017997;,
         0.197141; 0.958896;,
         0.147470; 0.942882;,
         0.182881; 0.982556;,
         0.217746; 1.000000;,
         0.946954; 0.795735;,
         0.946954; 0.813551;,
         0.982253; 0.807174;,
         0.983492; 0.790021;,
         0.197265; 0.057601;,
         0.243989; 0.071923;,
         0.251384; 0.036964;,
         0.217004; 0.021386;,
         0.071573; 0.963784;,
         0.025010; 0.949241;,
         0.055755; 0.984256;,
         0.091312; 1.000000;,
         0.407372; 0.054252;,
         0.454543; 0.070151;,
         0.442566; 0.035295;,
         0.407172; 0.018017;,
         0.118297; 0.949462;,
         0.071573; 0.963784;,
         0.091312; 1.000000;,
         0.125692; 0.984422;,
         0.150702; 0.072145;,
         0.197265; 0.057601;,
         0.217004; 0.021386;,
         0.181447; 0.037130;,
         0.946954; 0.767683;,
         0.946954; 0.795735;,
         0.983492; 0.790021;,
         0.982253; 0.763014;,
         0.246981; 0.942646;,
         0.197141; 0.958896;,
         0.217746; 1.000000;,
         0.251384; 0.982393;,
         0.952717; 0.595714;,
         0.910463; 0.595714;,
         0.919684; 0.619603;,
         0.960363; 0.618793;,
         0.125692; 0.280516;,
         0.171377; 0.273287;,
         0.197265; 0.057601;,
         0.150702; 0.072145;,
         0.144993; 0.340342;,
         0.191356; 0.335213;,
         0.171377; 0.273287;,
         0.125692; 0.280516;,
         0.093287; 0.741091;,
         0.045685; 0.748099;,
         0.071573; 0.963784;,
         0.118297; 0.949462;,
         0.118332; 0.541842;,
         0.065775; 0.541842;,
         0.065664; 0.686173;,
         0.112589; 0.681265;,
         0.139464; 0.479792;,
         0.191467; 0.479544;,
         0.191356; 0.335213;,
         0.144993; 0.340342;,
         0.112589; 0.681265;,
         0.065664; 0.686173;,
         0.045685; 0.748099;,
         0.093287; 0.741091;,
         0.130466; 0.602644;,
         0.177654; 0.606719;,
         0.191467; 0.479544;,
         0.139464; 0.479792;,
         0.128460; 0.613242;,
         0.177464; 0.617684;,
         0.177654; 0.606719;,
         0.130466; 0.602644;,
         0.100641; 0.418969;,
         0.051963; 0.414666;,
         0.065775; 0.541842;,
         0.118332; 0.541842;,
         0.102280; 0.408380;,
         0.051772; 0.403701;,
         0.051963; 0.414666;,
         0.100641; 0.418969;,
         0.227971; 0.613006;,
         0.177464; 0.617684;,
         0.197141; 0.958896;,
         0.246981; 0.942646;,
         0.121289; 0.078740;,
         0.071449; 0.062490;,
         0.051772; 0.403701;,
         0.102280; 0.408380;,
         0.021778; 0.078504;,
         0.071449; 0.062490;,
         0.092055; 0.021386;,
         0.057189; 0.038830;,
         0.788362; 0.810604;,
         0.820866; 0.748403;,
         0.731270; 0.748403;,
         0.763580; 0.810604;,
         0.494884; 0.682009;,
         0.462476; 0.745607;,
         0.552074; 0.745607;,
         0.519666; 0.682009;,
         0.788555; 0.557403;,
         0.820866; 0.495203;,
         0.731269; 0.495203;,
         0.763773; 0.557403;,
         0.584481; 0.809205;,
         0.552074; 0.872803;,
         0.641672; 0.872803;,
         0.609264; 0.809205;,
         0.910460; 0.462117;,
         0.935243; 0.462117;,
         0.935243; 0.445574;,
         0.910460; 0.445574;,
         0.820863; 0.433003;,
         0.820863; 0.373194;,
         0.731268; 0.373194;,
         0.731268; 0.433003;,
         0.788362; 0.937800;,
         0.820866; 0.875600;,
         0.731270; 0.875600;,
         0.763580; 0.937800;,
         0.584481; 0.936402;,
         0.552074; 1.000000;,
         0.641672; 1.000000;,
         0.609264; 0.936402;,
         0.788556; 0.872804;,
         0.820866; 0.810604;,
         0.731270; 0.810604;,
         0.763774; 0.872804;,
         0.494884; 0.554812;,
         0.462476; 0.618411;,
         0.552074; 0.618411;,
         0.519666; 0.554812;,
         0.910460; 0.495203;,
         0.935243; 0.495203;,
         0.935243; 0.478660;,
         0.910460; 0.478660;,
         0.462476; 0.370603;,
         0.462476; 0.430412;,
         0.552071; 0.430412;,
         0.552071; 0.370603;,
         0.788362; 1.000000;,
         0.820866; 0.937800;,
         0.731270; 0.937800;,
         0.763580; 1.000000;,
         0.584481; 0.872804;,
         0.552074; 0.936402;,
         0.641672; 0.936402;,
         0.609264; 0.872804;,
         0.788556; 0.686203;,
         0.820866; 0.624003;,
         0.731270; 0.624003;,
         0.763774; 0.686203;,
         0.584481; 0.554812;,
         0.552074; 0.618411;,
         0.641672; 0.618411;,
         0.609264; 0.554812;,
         0.910460; 0.478660;,
         0.935243; 0.478660;,
         0.935243; 0.462117;,
         0.910460; 0.462117;,
         0.910405; 0.631784;,
         0.910405; 0.691593;,
         1.000000; 0.691593;,
         1.000000; 0.631784;,
         0.877372; 0.937850;,
         0.910417; 0.875701;,
         0.820866; 0.875701;,
         0.852602; 0.937850;,
         0.674079; 0.810398;,
         0.641672; 0.872803;,
         0.731270; 0.872803;,
         0.698862; 0.810398;,
         0.852602; 0.937850;,
         0.820866; 1.000000;,
         0.910417; 1.000000;,
         0.877372; 0.937850;,
         0.674079; 0.746800;,
         0.641672; 0.809205;,
         0.731270; 0.809205;,
         0.698862; 0.746800;,
         0.934712; 0.522195;,
         0.934712; 0.505652;,
         0.910463; 0.505652;,
         0.910463; 0.522195;,
         0.910417; 0.940191;,
         0.910417; 1.000000;,
         0.998310; 1.000000;,
         0.998310; 0.940191;,
         0.878757; 0.751402;,
         0.910405; 0.689266;,
         0.820866; 0.689266;,
         0.853990; 0.751402;,
         0.853273; 0.559121;,
         0.820866; 0.619603;,
         0.910463; 0.619603;,
         0.878056; 0.559121;,
         0.877281; 0.689266;,
         0.910405; 0.627130;,
         0.820866; 0.627130;,
         0.852515; 0.689266;,
         0.853273; 0.496921;,
         0.820865; 0.557403;,
         0.910463; 0.557403;,
         0.878056; 0.496921;,
         0.934132; 0.395945;,
         0.934132; 0.379402;,
         0.910460; 0.379402;,
         0.910460; 0.395945;,
         0.910417; 0.815892;,
         0.910417; 0.875701;,
         0.995655; 0.875701;,
         0.995655; 0.815892;,
         0.788361; 0.495203;,
         0.820865; 0.433003;,
         0.731269; 0.433003;,
         0.763579; 0.495203;,
         0.674079; 0.936402;,
         0.641672; 1.000000;,
         0.731270; 1.000000;,
         0.698862; 0.936402;,
         0.698958; 0.495203;,
         0.731268; 0.433003;,
         0.641672; 0.433003;,
         0.674176; 0.495203;,
         0.494884; 0.618411;,
         0.462476; 0.682009;,
         0.552074; 0.682009;,
         0.519666; 0.618411;,
         0.910463; 0.538738;,
         0.935246; 0.538738;,
         0.935246; 0.522195;,
         0.910463; 0.522195;,
         0.820865; 0.375585;,
         0.820865; 0.435394;,
         0.910460; 0.435394;,
         0.910460; 0.375585;,
         0.609166; 0.554812;,
         0.641671; 0.492612;,
         0.552074; 0.492612;,
         0.584384; 0.554812;,
         0.584481; 0.745607;,
         0.552074; 0.809205;,
         0.641672; 0.809205;,
         0.609264; 0.745607;,
         0.519763; 0.554812;,
         0.552073; 0.492612;,
         0.462476; 0.492612;,
         0.494980; 0.554812;,
         0.584481; 0.618411;,
         0.552074; 0.682009;,
         0.641672; 0.682009;,
         0.609264; 0.618411;,
         0.910463; 0.555281;,
         0.935246; 0.555281;,
         0.935246; 0.538738;,
         0.910463; 0.538738;,
         0.552074; 0.370603;,
         0.552074; 0.430412;,
         0.641669; 0.430412;,
         0.641669; 0.370603;,
         0.877371; 0.875701;,
         0.910417; 0.813551;,
         0.820866; 0.813551;,
         0.852602; 0.875701;,
         0.674079; 0.619603;,
         0.641672; 0.682009;,
         0.731270; 0.682009;,
         0.698862; 0.619603;,
         0.852602; 0.751402;,
         0.820866; 0.813551;,
         0.910417; 0.813551;,
         0.877371; 0.751402;,
         0.674079; 0.683202;,
         0.641672; 0.745607;,
         0.731270; 0.745607;,
         0.698862; 0.683202;,
         0.934708; 0.412488;,
         0.934708; 0.395945;,
         0.910460; 0.395945;,
         0.910460; 0.412488;,
         0.998310; 0.940191;,
         0.998310; 0.880382;,
         0.910417; 0.880382;,
         0.910417; 0.940191;,
         0.698764; 0.619603;,
         0.731269; 0.557403;,
         0.641672; 0.557403;,
         0.673982; 0.619603;,
         0.494884; 0.872803;,
         0.462476; 0.936402;,
         0.552074; 0.936402;,
         0.519666; 0.872803;,
         0.673982; 0.495203;,
         0.641672; 0.557403;,
         0.731269; 0.557403;,
         0.698764; 0.495203;,
         0.674079; 0.872804;,
         0.641672; 0.936402;,
         0.731270; 0.936402;,
         0.698862; 0.872804;,
         0.910460; 0.429031;,
         0.935243; 0.429031;,
         0.935243; 0.412488;,
         0.910460; 0.412488;,
         0.910405; 0.691593;,
         0.910405; 0.751402;,
         1.000000; 0.751402;,
         1.000000; 0.691593;,
         0.519569; 0.492612;,
         0.552073; 0.430412;,
         0.462476; 0.430412;,
         0.494786; 0.492612;,
         0.494884; 0.936402;,
         0.462476; 1.000000;,
         0.552074; 1.000000;,
         0.519666; 0.936402;,
         0.609361; 0.492612;,
         0.641671; 0.430412;,
         0.552074; 0.430412;,
         0.584578; 0.492612;,
         0.494884; 0.809205;,
         0.462476; 0.872803;,
         0.552074; 0.872803;,
         0.519666; 0.809205;,
         0.910460; 0.445574;,
         0.935243; 0.445574;,
         0.935243; 0.429031;,
         0.910460; 0.429031;,
         0.820865; 0.435394;,
         0.820865; 0.495203;,
         0.910460; 0.495203;,
         0.910460; 0.435394;,
         0.960363; 0.572634;,
         0.919684; 0.571824;,
         0.910463; 0.595714;,
         0.952717; 0.595714;,
         0.911656; 0.763014;,
         0.910417; 0.790021;,
         0.946954; 0.795735;,
         0.946954; 0.767683;,
         0.360376; 0.070382;,
         0.407372; 0.054252;,
         0.407172; 0.018017;,
         0.371970; 0.035468;,
         0.910417; 0.790021;,
         0.911656; 0.807174;,
         0.946954; 0.813551;,
         0.946954; 0.795735;,
         0.256481; 0.076707;,
         0.306803; 0.059151;,
         0.307029; 0.017997;,
         0.272349; 0.037124;,
         0.462476; 0.940848;,
         0.412349; 0.958645;,
         0.412576; 1.000000;,
         0.447045; 0.980701;,
         0.271231; 0.019795;,
         0.272349; 0.037124;,
         0.307029; 0.017997;,
         0.307128; 0.000000;,
         0.350144; 0.739228;,
         0.303017; 0.747058;,
         0.301825; 0.963576;,
         0.348996; 0.947680;,
         0.361522; 0.278616;,
         0.408562; 0.270543;,
         0.407372; 0.054252;,
         0.360376; 0.070382;,
         0.348996; 0.947680;,
         0.301825; 0.963576;,
         0.301624; 1.000000;,
         0.337018; 0.982719;,
         0.350473; 0.679464;,
         0.303358; 0.684982;,
         0.303017; 0.747058;,
         0.350144; 0.739228;,
         0.361852; 0.338542;,
         0.408905; 0.332787;,
         0.408562; 0.270543;,
         0.361522; 0.278616;,
         0.356930; 0.477988;,
         0.409702; 0.477614;,
         0.408905; 0.332787;,
         0.361852; 0.338542;,
         0.353218; 0.417123;,
         0.304858; 0.412488;,
         0.304155; 0.540143;,
         0.356930; 0.540034;,
         0.361993; 0.600767;,
         0.410403; 0.605155;,
         0.409702; 0.477614;,
         0.356930; 0.477988;,
         0.356930; 0.540034;,
         0.304155; 0.540143;,
         0.303358; 0.684982;,
         0.350473; 0.679464;,
         0.355116; 0.406532;,
         0.304918; 0.401481;,
         0.304858; 0.412488;,
         0.353218; 0.417123;,
         0.360212; 0.611363;,
         0.410464; 0.616156;,
         0.410403; 0.605155;,
         0.361993; 0.600767;,
         0.460661; 0.611117;,
         0.410464; 0.616156;,
         0.412349; 0.958645;,
         0.462476; 0.940848;,
         0.254667; 0.406285;,
         0.304918; 0.401481;,
         0.306803; 0.059151;,
         0.256481; 0.076707;;
      } // End of Cube_001 UV coordinates
      MeshMaterialList { // Cube_001 material list
        1;
        138;
        0,
        0,
        0,
        0,
        0,
        0,
        0,
        0,
        0,
        0,
        0,
        0,
        0,
        0,
        0,
        0,
        0,
        0,
        0,
        0,
        0,
        0,
        0,
        0,
        0,
        0,
        0,
        0,
        0,
        0,
        0,
        0,
        0,
        0,
        0,
        0,
        0,
        0,
        0,
        0,
        0,
        0,
        0,
        0,
        0,
        0,
        0,
        0,
        0,
        0,
        0,
        0,
        0,
        0,
        0,
        0,
        0,
        0,
        0,
        0,
        0,
        0,
        0,
        0,
        0,
        0,
        0,
        0,
        0,
        0,
        0,
        0,
        0,
        0,
        0,
        0,
        0,
        0,
        0,
        0,
        0,
        0,
        0,
        0,
        0,
        0,
        0,
        0,
        0,
        0,
        0,
        0,
        0,
        0,
        0,
        0,
        0,
        0,
        0,
        0,
        0,
        0,
        0,
        0,
        0,
        0,
        0,
        0,
        0,
        0,
        0,
        0,
        0,
        0,
        0,
        0,
        0,
        0,
        0,
        0,
        0,
        0,
        0,
        0,
        0,
        0,
        0,
        0,
        0,
        0,
        0,
        0,
        0,
        0,
        0,
        0,
        0,
        0;
        Material Material_001 {
           0.640000; 0.640000; 0.640000; 1.000000;;
           358.823529;
           0.400000; 0.400000; 0.400000;;
           0.000000; 0.000000; 0.000000;;
        }
      } // End of Cube_001 material list
    } // End of Cube_001 mesh
  } // End of Cube_001
} // End of Root
