xof 0303txt 0032

Frame Root {
  FrameTransformMatrix {
     1.000000, 0.000000, 0.000000, 0.000000,
     0.000000,-0.000000, 1.000000, 0.000000,
     0.000000, 1.000000, 0.000000, 0.000000,
     0.000000, 0.000000, 0.000000, 1.000000;;
  }
  Frame _0002 {
    FrameTransformMatrix {
       1.000000, 0.000000, 0.000000, 0.000000,
       0.000000, 1.000000, 0.000000, 0.000000,
       0.000000, 0.000000, 1.000000, 0.000000,
       0.000000, 0.000000, 0.000000, 1.000000;;
    }
    Mesh { // _0002 mesh
      24;
       0.004504;-0.010125; 0.000372;,
       0.004504;-0.010125; 0.011557;,
       0.004504; 0.001060; 0.000372;,
       0.004504; 0.001060; 0.011557;,
       0.015689;-0.010125; 0.000372;,
       0.015689;-0.010125; 0.011557;,
       0.015689; 0.001060; 0.000372;,
       0.015689; 0.001060; 0.011557;,
      -0.016111; 0.019657; 0.000372;,
      -0.016111; 0.019657; 0.011557;,
      -0.007944; 0.027300; 0.000372;,
      -0.007944; 0.027300; 0.011557;,
      -0.008469; 0.011490; 0.000372;,
      -0.008469; 0.011490; 0.011557;,
      -0.000301; 0.019133; 0.000372;,
      -0.000301; 0.019133; 0.011557;,
      -0.015216;-0.003350; 0.000372;,
      -0.015216;-0.003350; 0.011557;,
      -0.011868; 0.007323; 0.000372;,
      -0.011868; 0.007323; 0.011557;,
      -0.004544;-0.006698; 0.000372;,
      -0.004544;-0.006698; 0.011557;,
      -0.001196; 0.003975; 0.000372;,
      -0.001196; 0.003975; 0.011557;;
      18;
      4;3,1,0,2;,
      4;7,3,2,6;,
      4;5,7,6,4;,
      4;1,5,4,0;,
      4;4,6,2,0;,
      4;1,3,7,5;,
      4;11,9,8,10;,
      4;15,11,10,14;,
      4;13,15,14,12;,
      4;9,13,12,8;,
      4;12,14,10,8;,
      4;9,11,15,13;,
      4;19,17,16,18;,
      4;23,19,18,22;,
      4;21,23,22,20;,
      4;17,21,20,16;,
      4;20,22,18,16;,
      4;17,19,23,21;;
      MeshNormals { // _0002 normals
        72;
        -0.577349; 0.577349;-0.577349;,
        -0.577349;-0.577349;-0.577349;,
        -0.577349;-0.577349; 0.577349;,
        -0.577349; 0.577349; 0.577349;,
         0.577349; 0.577349;-0.577349;,
        -0.577349; 0.577349;-0.577349;,
        -0.577349; 0.577349; 0.577349;,
         0.577349; 0.577349; 0.577349;,
         0.577349;-0.577349;-0.577349;,
         0.577349; 0.577349;-0.577349;,
         0.577349; 0.577349; 0.577349;,
         0.577349;-0.577349; 0.577349;,
        -0.577349;-0.577349;-0.577349;,
         0.577349;-0.577349;-0.577349;,
         0.577349;-0.577349; 0.577349;,
        -0.577349;-0.577349; 0.577349;,
        -0.577349;-0.577349;-0.577349;,
        -0.577349; 0.577349;-0.577349;,
         0.577349; 0.577349;-0.577349;,
         0.577349;-0.577349;-0.577349;,
         0.577349;-0.577349; 0.577349;,
         0.577349; 0.577349; 0.577349;,
        -0.577349; 0.577349; 0.577349;,
        -0.577349;-0.577349; 0.577349;,
         0.027039; 0.816034;-0.577349;,
        -0.816034; 0.027070;-0.577349;,
        -0.816034; 0.027070; 0.577349;,
         0.027039; 0.816034; 0.577349;,
         0.816034;-0.027070;-0.577319;,
         0.027039; 0.816034;-0.577349;,
         0.027039; 0.816034; 0.577349;,
         0.816034;-0.027070; 0.577319;,
        -0.027070;-0.816034;-0.577349;,
         0.816034;-0.027070;-0.577319;,
         0.816034;-0.027070; 0.577319;,
        -0.027070;-0.816034; 0.577349;,
        -0.816034; 0.027070;-0.577349;,
        -0.027070;-0.816034;-0.577349;,
        -0.027070;-0.816034; 0.577349;,
        -0.816034; 0.027070; 0.577349;,
        -0.816034; 0.027070;-0.577349;,
         0.027039; 0.816034;-0.577349;,
         0.816034;-0.027070;-0.577319;,
        -0.027070;-0.816034;-0.577349;,
        -0.027070;-0.816034; 0.577349;,
         0.816034;-0.027070; 0.577319;,
         0.027039; 0.816034; 0.577349;,
        -0.816034; 0.027070; 0.577349;,
        -0.378063; 0.723685;-0.577319;,
        -0.723685;-0.378063;-0.577349;,
        -0.723685;-0.378063; 0.577349;,
        -0.378063; 0.723685; 0.577319;,
         0.723685; 0.378063;-0.577349;,
        -0.378063; 0.723685;-0.577319;,
        -0.378063; 0.723685; 0.577319;,
         0.723685; 0.378063; 0.577349;,
         0.378063;-0.723685;-0.577319;,
         0.723685; 0.378063;-0.577349;,
         0.723685; 0.378063; 0.577349;,
         0.378063;-0.723685; 0.577319;,
        -0.723685;-0.378063;-0.577349;,
         0.378063;-0.723685;-0.577319;,
         0.378063;-0.723685; 0.577319;,
        -0.723685;-0.378063; 0.577349;,
        -0.723685;-0.378063;-0.577349;,
        -0.378063; 0.723685;-0.577319;,
         0.723685; 0.378063;-0.577349;,
         0.378063;-0.723685;-0.577319;,
         0.378063;-0.723685; 0.577319;,
         0.723685; 0.378063; 0.577349;,
        -0.378063; 0.723685; 0.577319;,
        -0.723685;-0.378063; 0.577349;;
        18;
        4;3,2,1,0;,
        4;7,6,5,4;,
        4;11,10,9,8;,
        4;15,14,13,12;,
        4;19,18,17,16;,
        4;23,22,21,20;,
        4;27,26,25,24;,
        4;31,30,29,28;,
        4;35,34,33,32;,
        4;39,38,37,36;,
        4;43,42,41,40;,
        4;47,46,45,44;,
        4;51,50,49,48;,
        4;55,54,53,52;,
        4;59,58,57,56;,
        4;63,62,61,60;,
        4;67,66,65,64;,
        4;71,70,69,68;;
      } // End of _0002 normals
      MeshMaterialList { // _0002 material list
        1;
        18;
        0,
        0,
        0,
        0,
        0,
        0,
        0,
        0,
        0,
        0,
        0,
        0,
        0,
        0,
        0,
        0,
        0,
        0;
        Material Material_001 {
           0.640000; 0.640000; 0.640000; 1.000000;;
           96.078431;
           0.500000; 0.500000; 0.500000;;
           0.000000; 0.000000; 0.000000;;
        }
      } // End of _0002 material list
    } // End of _0002 mesh
  } // End of _0002
} // End of Root
