xof 0303txt 0032

Frame Root {
  FrameTransformMatrix {
     1.000000, 0.000000, 0.000000, 0.000000,
     0.000000,-0.000000, 1.000000, 0.000000,
     0.000000, 1.000000, 0.000000, 0.000000,
     0.000000, 0.000000, 0.000000, 1.000000;;
  }
  Frame Plane {
    FrameTransformMatrix {
       1.000000, 0.000000, 0.000000, 0.000000,
       0.000000, 1.000000, 0.000000, 0.000000,
       0.000000, 0.000000, 1.000000, 0.000000,
       0.000000, 0.000000, 0.000000, 1.000000;;
    }
    Mesh { // Plane mesh
      16;
      -0.000804; 0.003396; 0.025619;,
       0.041053; 0.003396; 0.000857;,
       0.028930; 0.038456; 0.000857;,
      -0.000804; 0.046950; 0.000857;,
      -0.000804;-0.036764; 0.000857;,
       0.025268;-0.024636; 0.000857;,
       0.041053; 0.003396; 0.000857;,
      -0.000804; 0.003396; 0.025619;,
      -0.033283;-0.025533; 0.000857;,
      -0.000804;-0.036764; 0.000857;,
      -0.000804; 0.003396; 0.025619;,
      -0.042661; 0.003396; 0.000857;,
      -0.042661; 0.003396; 0.000857;,
      -0.000804; 0.003396; 0.025619;,
      -0.000804; 0.046950; 0.000857;,
      -0.036884; 0.030140; 0.000857;;
      4;
      4;3,2,1,0;,
      4;7,6,5,4;,
      4;11,10,9,8;,
      4;15,14,13,12;;
      MeshNormals { // Plane normals
        4;
         0.343309; 0.329929; 0.879367;,
         0.376046;-0.391940; 0.839626;,
        -0.343325;-0.357836; 0.868378;,
        -0.350313; 0.336661; 0.874037;;
        4;
        4;0,0,0,0;,
        4;1,1,1,1;,
        4;2,2,2,2;,
        4;3,3,3,3;;
      } // End of Plane normals
      MeshTextureCoords { // Plane UV coordinates
        16;
         0.470952; 0.545536;,
         1.000000; 0.524326;,
         1.000000; 0.008443;,
         0.500000; 0.004222;,
         0.500000; 0.995778;,
         1.000000; 1.000000;,
         1.000000; 0.524326;,
         0.470952; 0.545536;,
         0.000000; 0.991557;,
         0.500000; 0.995778;,
         0.470952; 0.545536;,
         0.000000; 0.515883;,
         0.000000; 0.515883;,
         0.470952; 0.545536;,
         0.500000; 0.004222;,
         0.000000; 0.000000;;
      } // End of Plane UV coordinates
      MeshMaterialList { // Plane material list
        1;
        4;
        0,
        0,
        0,
        0;
        Material Material_002 {
           0.640000; 0.640000; 0.640000; 1.000000;;
           96.078431;
           0.500000; 0.500000; 0.500000;;
           0.000000; 0.000000; 0.000000;;
        }
      } // End of Plane material list
    } // End of Plane mesh
  } // End of Plane
} // End of Root
