xof 0303txt 0032

Frame Root {
  FrameTransformMatrix {
     1.000000, 0.000000, 0.000000, 0.000000,
     0.000000,-0.000000, 1.000000, 0.000000,
     0.000000, 1.000000, 0.000000, 0.000000,
     0.000000, 0.000000, 0.000000, 1.000000;;
  }
  Frame Cube {
    FrameTransformMatrix {
       1.000000, 0.000000, 0.000000, 0.000000,
       0.000000, 1.000000, 0.000000, 0.000000,
       0.000000, 0.000000, 1.000000, 0.000000,
       0.000000, 0.000000, 0.000000, 1.000000;;
    }
    Mesh { // Cube mesh
      40;
       0.033212; 0.033212; 0.000319;,
       0.033212;-0.033212; 0.000319;,
      -0.033212;-0.033212; 0.000319;,
      -0.033212; 0.033212; 0.000319;,
       0.027293; 0.027293; 0.054906;,
      -0.027293; 0.027293; 0.054906;,
      -0.027293;-0.027293; 0.054906;,
       0.027293;-0.027293; 0.054906;,
       0.041555; 0.041555; 0.026926;,
       0.027293; 0.027293; 0.054906;,
       0.027293;-0.027293; 0.054906;,
       0.041555;-0.041555; 0.026926;,
       0.041555;-0.041555; 0.026926;,
       0.027293;-0.027293; 0.054906;,
      -0.027293;-0.027293; 0.054906;,
      -0.041555;-0.041555; 0.026926;,
      -0.041555;-0.041555; 0.026926;,
      -0.027293;-0.027293; 0.054906;,
      -0.027293; 0.027293; 0.054906;,
      -0.041555; 0.041555; 0.026926;,
       0.041555; 0.041555; 0.026926;,
       0.033212; 0.033212; 0.000319;,
      -0.033212; 0.033212; 0.000319;,
      -0.041555; 0.041555; 0.026926;,
       0.027293; 0.027293; 0.054906;,
       0.041555; 0.041555; 0.026926;,
      -0.041555; 0.041555; 0.026926;,
      -0.027293; 0.027293; 0.054906;,
      -0.033212;-0.033212; 0.000319;,
      -0.041555;-0.041555; 0.026926;,
      -0.041555; 0.041555; 0.026926;,
      -0.033212; 0.033212; 0.000319;,
       0.033212;-0.033212; 0.000319;,
       0.041555;-0.041555; 0.026926;,
      -0.041555;-0.041555; 0.026926;,
      -0.033212;-0.033212; 0.000319;,
       0.033212; 0.033212; 0.000319;,
       0.041555; 0.041555; 0.026926;,
       0.041555;-0.041555; 0.026926;,
       0.033212;-0.033212; 0.000319;;
      10;
      4;3,2,1,0;,
      4;7,6,5,4;,
      4;11,10,9,8;,
      4;15,14,13,12;,
      4;19,18,17,16;,
      4;23,22,21,20;,
      4;27,26,25,24;,
      4;31,30,29,28;,
      4;35,34,33,32;,
      4;39,38,37,36;;
      MeshNormals { // Cube normals
        10;
         0.000000; 0.000000;-1.000000;,
         0.000000;-0.000000; 1.000000;,
         0.890948;-0.000000; 0.454105;,
        -0.000000;-0.890948; 0.454105;,
        -0.890948; 0.000000; 0.454105;,
         0.000000; 0.954191;-0.299197;,
         0.000000; 0.890948; 0.454105;,
        -0.954191; 0.000000;-0.299197;,
        -0.000000;-0.954191;-0.299197;,
         0.954191;-0.000000;-0.299197;;
        10;
        4;0,0,0,0;,
        4;1,1,1,1;,
        4;2,2,2,2;,
        4;3,3,3,3;,
        4;4,4,4,4;,
        4;5,5,5,5;,
        4;6,6,6,6;,
        4;7,7,7,7;,
        4;8,8,8,8;,
        4;9,9,9,9;;
      } // End of Cube normals
      MeshTextureCoords { // Cube UV coordinates
        40;
         0.387705; 1.000000;,
         0.387705; 0.600382;,
         0.000000; 0.600382;,
         0.000000; 1.000000;,
         1.000000; 0.500000;,
         1.000000; 0.171597;,
         0.681387; 0.171597;,
         0.681387; 0.500000;,
         0.518636; 0.500000;,
         0.387705; 0.585799;,
         0.387705; 0.914202;,
         0.518636; 1.000000;,
         0.812317; 0.500000;,
         0.681387; 0.585799;,
         0.681387; 0.914202;,
         0.812317; 1.000000;,
         0.550456; 0.500000;,
         0.681387; 0.414201;,
         0.681387; 0.085799;,
         0.550456; 0.000000;,
         0.130930; 0.600382;,
         0.293682; 0.550191;,
         0.293682; 0.150573;,
         0.130931; 0.100382;,
         0.000000; 0.514583;,
         0.130930; 0.600382;,
         0.130931; 0.100382;,
         0.000000; 0.186180;,
         0.387705; 0.449809;,
         0.550456; 0.500000;,
         0.550456; 0.000000;,
         0.387705; 0.050191;,
         0.975069; 0.550191;,
         0.812317; 0.500000;,
         0.812317; 1.000000;,
         0.975069; 0.949809;,
         0.681387; 0.550191;,
         0.518636; 0.500000;,
         0.518636; 1.000000;,
         0.681387; 0.949809;;
      } // End of Cube UV coordinates
      MeshMaterialList { // Cube material list
        1;
        10;
        0,
        0,
        0,
        0,
        0,
        0,
        0,
        0,
        0,
        0;
        Material Material_001 {
           0.640000; 0.640000; 0.640000; 1.000000;;
           96.078431;
           0.500000; 0.500000; 0.500000;;
           0.000000; 0.000000; 0.000000;;
        }
      } // End of Cube material list
    } // End of Cube mesh
  } // End of Cube
} // End of Root
