xof 0303txt 0032

Frame Root {
  FrameTransformMatrix {
     1.000000, 0.000000, 0.000000, 0.000000,
     0.000000,-0.000000, 1.000000, 0.000000,
     0.000000, 1.000000, 0.000000, 0.000000,
     0.000000, 0.000000, 0.000000, 1.000000;;
  }
  Frame Wheel {
    FrameTransformMatrix {
       1.000000, 0.000000, 0.000000, 0.000000,
       0.000000, 1.000000, 0.000000, 0.000000,
       0.000000, 0.000000, 1.000000, 0.000000,
       0.000000, 0.000000, 0.000000, 1.000000;;
    }
    Mesh { // Wheel mesh
      216;
      -0.141731; 0.081828; 0.086773;,
      -0.141731; 0.081828;-0.000000;,
      -0.163657; 0.000000; 0.086773;,
      -0.163657; 0.000000; 0.086773;,
      -0.141731; 0.081828;-0.000000;,
      -0.163657; 0.000000;-0.000000;,
      -0.081828; 0.141731; 0.000000;,
      -0.141731; 0.081828; 0.086773;,
      -0.081828; 0.141731; 0.086773;,
      -0.141731; 0.081828; 0.086773;,
      -0.081828; 0.141731; 0.000000;,
      -0.141731; 0.081828;-0.000000;,
       0.000000; 0.163657; 0.086773;,
       0.000000; 0.163657; 0.000000;,
      -0.081828; 0.141731; 0.086773;,
      -0.081828; 0.141731; 0.086773;,
       0.000000; 0.163657; 0.000000;,
      -0.081828; 0.141731; 0.000000;,
       0.081828; 0.141731; 0.086773;,
       0.000000; 0.163657; 0.000000;,
       0.000000; 0.163657; 0.086773;,
       0.000000; 0.163657; 0.000000;,
       0.081828; 0.141731; 0.086773;,
       0.081828; 0.141731; 0.000000;,
       0.141731; 0.081828; 0.086773;,
       0.081828; 0.141731; 0.000000;,
       0.081828; 0.141731; 0.086773;,
       0.081828; 0.141731; 0.000000;,
       0.141731; 0.081828; 0.086773;,
       0.141731; 0.081828; 0.000000;,
       0.163657; 0.000000; 0.086773;,
       0.163657; 0.000000; 0.000000;,
       0.141731; 0.081828; 0.086773;,
       0.141731; 0.081828; 0.086773;,
       0.163657; 0.000000; 0.000000;,
       0.141731; 0.081828; 0.000000;,
       0.141731;-0.081828; 0.086773;,
       0.163657; 0.000000; 0.000000;,
       0.163657; 0.000000; 0.086773;,
       0.163657; 0.000000; 0.000000;,
       0.141731;-0.081828; 0.086773;,
       0.141731;-0.081828; 0.000000;,
       0.081828;-0.141731; 0.086773;,
       0.141731;-0.081828; 0.000000;,
       0.141731;-0.081828; 0.086773;,
       0.141731;-0.081828; 0.000000;,
       0.081828;-0.141731; 0.086773;,
       0.081828;-0.141731; 0.000000;,
       0.000000;-0.163657; 0.086773;,
       0.000000;-0.163657; 0.000000;,
       0.081828;-0.141731; 0.086773;,
       0.081828;-0.141731; 0.086773;,
       0.000000;-0.163657; 0.000000;,
       0.081828;-0.141731; 0.000000;,
      -0.081828;-0.141731; 0.086773;,
       0.000000;-0.163657; 0.000000;,
       0.000000;-0.163657; 0.086773;,
       0.000000;-0.163657; 0.000000;,
      -0.081828;-0.141731; 0.086773;,
      -0.081828;-0.141731;-0.000000;,
      -0.141731;-0.081829; 0.086773;,
      -0.081828;-0.141731;-0.000000;,
      -0.081828;-0.141731; 0.086773;,
      -0.081828;-0.141731;-0.000000;,
      -0.141731;-0.081829; 0.086773;,
      -0.141731;-0.081829;-0.000000;,
      -0.163657; 0.000000; 0.086773;,
      -0.141731;-0.081829;-0.000000;,
      -0.141731;-0.081829; 0.086773;,
      -0.141731;-0.081829;-0.000000;,
      -0.163657; 0.000000; 0.086773;,
      -0.163657; 0.000000;-0.000000;,
      -0.090294; 0.052131; 0.086773;,
      -0.163657; 0.000000; 0.086773;,
      -0.104262; 0.000000; 0.086773;,
      -0.163657; 0.000000; 0.086773;,
      -0.090294; 0.052131; 0.086773;,
      -0.141731; 0.081828; 0.086773;,
      -0.163657; 0.000000; 0.086773;,
      -0.141731;-0.081829; 0.086773;,
      -0.090294;-0.052131; 0.086773;,
      -0.163657; 0.000000; 0.086773;,
      -0.090294;-0.052131; 0.086773;,
      -0.104262; 0.000000; 0.086773;,
      -0.081828;-0.141731; 0.086773;,
      -0.090294;-0.052131; 0.086773;,
      -0.141731;-0.081829; 0.086773;,
      -0.090294;-0.052131; 0.086773;,
      -0.081828;-0.141731; 0.086773;,
      -0.052131;-0.090294; 0.086773;,
      -0.081828;-0.141731; 0.086773;,
      -0.000000;-0.104262; 0.086773;,
      -0.052131;-0.090294; 0.086773;,
      -0.000000;-0.104262; 0.086773;,
      -0.081828;-0.141731; 0.086773;,
       0.000000;-0.163657; 0.086773;,
      -0.000000;-0.104262; 0.086773;,
       0.081828;-0.141731; 0.086773;,
       0.052131;-0.090293; 0.086773;,
       0.081828;-0.141731; 0.086773;,
      -0.000000;-0.104262; 0.086773;,
       0.000000;-0.163657; 0.086773;,
       0.141731;-0.081828; 0.086773;,
       0.052131;-0.090293; 0.086773;,
       0.081828;-0.141731; 0.086773;,
       0.052131;-0.090293; 0.086773;,
       0.141731;-0.081828; 0.086773;,
       0.090293;-0.052131; 0.086773;,
       0.104262; 0.000000; 0.086773;,
       0.141731;-0.081828; 0.086773;,
       0.163657; 0.000000; 0.086773;,
       0.141731;-0.081828; 0.086773;,
       0.104262; 0.000000; 0.086773;,
       0.090293;-0.052131; 0.086773;,
       0.104262; 0.000000; 0.086773;,
       0.141731; 0.081828; 0.086773;,
       0.090293; 0.052131; 0.086773;,
       0.141731; 0.081828; 0.086773;,
       0.104262; 0.000000; 0.086773;,
       0.163657; 0.000000; 0.086773;,
       0.052131; 0.090294; 0.086773;,
       0.090293; 0.052131; 0.086773;,
       0.141731; 0.081828; 0.086773;,
       0.141731; 0.081828; 0.086773;,
       0.081828; 0.141731; 0.086773;,
       0.052131; 0.090294; 0.086773;,
       0.000000; 0.163657; 0.086773;,
       0.052131; 0.090294; 0.086773;,
       0.081828; 0.141731; 0.086773;,
       0.052131; 0.090294; 0.086773;,
       0.000000; 0.163657; 0.086773;,
       0.000000; 0.104262; 0.086773;,
      -0.052131; 0.090294; 0.086773;,
       0.000000; 0.163657; 0.086773;,
      -0.081828; 0.141731; 0.086773;,
       0.000000; 0.163657; 0.086773;,
      -0.052131; 0.090294; 0.086773;,
       0.000000; 0.104262; 0.086773;,
      -0.081828; 0.141731; 0.086773;,
      -0.090294; 0.052131; 0.086773;,
      -0.052131; 0.090294; 0.086773;,
      -0.090294; 0.052131; 0.086773;,
      -0.081828; 0.141731; 0.086773;,
      -0.141731; 0.081828; 0.086773;,
      -0.104262; 0.000000; 0.086773;,
      -0.082085; 0.047392; 0.074230;,
      -0.090294; 0.052131; 0.086773;,
      -0.082085; 0.047392; 0.074230;,
      -0.104262; 0.000000; 0.086773;,
      -0.094784; 0.000000; 0.074230;,
      -0.104262; 0.000000; 0.086773;,
      -0.090294;-0.052131; 0.086773;,
      -0.082085;-0.047392; 0.074230;,
      -0.104262; 0.000000; 0.086773;,
      -0.082085;-0.047392; 0.074230;,
      -0.094784; 0.000000; 0.074230;,
      -0.052131;-0.090294; 0.086773;,
      -0.082085;-0.047392; 0.074230;,
      -0.090294;-0.052131; 0.086773;,
      -0.082085;-0.047392; 0.074230;,
      -0.052131;-0.090294; 0.086773;,
      -0.047392;-0.082085; 0.074230;,
      -0.000000;-0.104262; 0.086773;,
      -0.047392;-0.082085; 0.074230;,
      -0.052131;-0.090294; 0.086773;,
      -0.047392;-0.082085; 0.074230;,
      -0.000000;-0.104262; 0.086773;,
      -0.000000;-0.094784; 0.074230;,
      -0.000000;-0.104262; 0.086773;,
       0.052131;-0.090293; 0.086773;,
       0.047392;-0.082085; 0.074230;,
      -0.000000;-0.104262; 0.086773;,
       0.047392;-0.082085; 0.074230;,
      -0.000000;-0.094784; 0.074230;,
       0.082085;-0.047392; 0.074230;,
       0.047392;-0.082085; 0.074230;,
       0.052131;-0.090293; 0.086773;,
       0.052131;-0.090293; 0.086773;,
       0.090293;-0.052131; 0.086773;,
       0.082085;-0.047392; 0.074230;,
       0.104262; 0.000000; 0.086773;,
       0.082085;-0.047392; 0.074230;,
       0.090293;-0.052131; 0.086773;,
       0.082085;-0.047392; 0.074230;,
       0.104262; 0.000000; 0.086773;,
       0.094784; 0.000000; 0.074230;,
       0.104262; 0.000000; 0.086773;,
       0.090293; 0.052131; 0.086773;,
       0.082085; 0.047392; 0.074230;,
       0.104262; 0.000000; 0.086773;,
       0.082085; 0.047392; 0.074230;,
       0.094784; 0.000000; 0.074230;,
       0.047392; 0.082085; 0.074230;,
       0.082085; 0.047392; 0.074230;,
       0.090293; 0.052131; 0.086773;,
       0.090293; 0.052131; 0.086773;,
       0.052131; 0.090294; 0.086773;,
       0.047392; 0.082085; 0.074230;,
       0.000000; 0.104262; 0.086773;,
       0.047392; 0.082085; 0.074230;,
       0.052131; 0.090294; 0.086773;,
       0.047392; 0.082085; 0.074230;,
       0.000000; 0.104262; 0.086773;,
       0.000000; 0.094784; 0.074230;,
      -0.047392; 0.082085; 0.074230;,
       0.000000; 0.104262; 0.086773;,
      -0.052131; 0.090294; 0.086773;,
       0.000000; 0.104262; 0.086773;,
      -0.047392; 0.082085; 0.074230;,
       0.000000; 0.094784; 0.074230;,
      -0.047392; 0.082085; 0.074230;,
      -0.090294; 0.052131; 0.086773;,
      -0.082085; 0.047392; 0.074230;,
      -0.090294; 0.052131; 0.086773;,
      -0.047392; 0.082085; 0.074230;,
      -0.052131; 0.090294; 0.086773;;
      72;
      3;2,1,0;,
      3;5,4,3;,
      3;8,7,6;,
      3;11,10,9;,
      3;14,13,12;,
      3;17,16,15;,
      3;20,19,18;,
      3;23,22,21;,
      3;26,25,24;,
      3;29,28,27;,
      3;32,31,30;,
      3;35,34,33;,
      3;38,37,36;,
      3;41,40,39;,
      3;44,43,42;,
      3;47,46,45;,
      3;50,49,48;,
      3;53,52,51;,
      3;56,55,54;,
      3;59,58,57;,
      3;62,61,60;,
      3;65,64,63;,
      3;68,67,66;,
      3;71,70,69;,
      3;74,73,72;,
      3;77,76,75;,
      3;80,79,78;,
      3;83,82,81;,
      3;86,85,84;,
      3;89,88,87;,
      3;92,91,90;,
      3;95,94,93;,
      3;98,97,96;,
      3;101,100,99;,
      3;104,103,102;,
      3;107,106,105;,
      3;110,109,108;,
      3;113,112,111;,
      3;116,115,114;,
      3;119,118,117;,
      3;122,121,120;,
      3;125,124,123;,
      3;128,127,126;,
      3;131,130,129;,
      3;134,133,132;,
      3;137,136,135;,
      3;140,139,138;,
      3;143,142,141;,
      3;146,145,144;,
      3;149,148,147;,
      3;152,151,150;,
      3;155,154,153;,
      3;158,157,156;,
      3;161,160,159;,
      3;164,163,162;,
      3;167,166,165;,
      3;170,169,168;,
      3;173,172,171;,
      3;176,175,174;,
      3;179,178,177;,
      3;182,181,180;,
      3;185,184,183;,
      3;188,187,186;,
      3;191,190,189;,
      3;194,193,192;,
      3;197,196,195;,
      3;200,199,198;,
      3;203,202,201;,
      3;206,205,204;,
      3;209,208,207;,
      3;212,211,210;,
      3;215,214,213;;
      MeshNormals { // Wheel normals
        216;
        -0.655721; 0.378552; 0.653218;,
        -0.866024; 0.499985; 0.000000;,
        -0.757134; 0.000000; 0.653218;,
        -0.757134; 0.000000; 0.653218;,
        -0.866024; 0.499985; 0.000000;,
        -1.000000; 0.000000; 0.000000;,
        -0.499985; 0.866024; 0.000000;,
        -0.655721; 0.378552; 0.653218;,
        -0.378552; 0.655721; 0.653218;,
        -0.655721; 0.378552; 0.653218;,
        -0.499985; 0.866024; 0.000000;,
        -0.866024; 0.499985; 0.000000;,
         0.000000; 0.757134; 0.653218;,
         0.000000; 1.000000; 0.000000;,
        -0.378552; 0.655721; 0.653218;,
        -0.378552; 0.655721; 0.653218;,
         0.000000; 1.000000; 0.000000;,
        -0.499985; 0.866024; 0.000000;,
         0.378552; 0.655721; 0.653218;,
         0.000000; 1.000000; 0.000000;,
         0.000000; 0.757134; 0.653218;,
         0.000000; 1.000000; 0.000000;,
         0.378552; 0.655721; 0.653218;,
         0.499985; 0.866024; 0.000000;,
         0.655721; 0.378552; 0.653218;,
         0.499985; 0.866024; 0.000000;,
         0.378552; 0.655721; 0.653218;,
         0.499985; 0.866024; 0.000000;,
         0.655721; 0.378552; 0.653218;,
         0.866024; 0.499985; 0.000000;,
         0.757134; 0.000000; 0.653218;,
         1.000000; 0.000000; 0.000000;,
         0.655721; 0.378552; 0.653218;,
         0.655721; 0.378552; 0.653218;,
         1.000000; 0.000000; 0.000000;,
         0.866024; 0.499985; 0.000000;,
         0.655721;-0.378552; 0.653218;,
         1.000000; 0.000000; 0.000000;,
         0.757134; 0.000000; 0.653218;,
         1.000000; 0.000000; 0.000000;,
         0.655721;-0.378552; 0.653218;,
         0.866024;-0.499985; 0.000000;,
         0.378552;-0.655721; 0.653218;,
         0.866024;-0.499985; 0.000000;,
         0.655721;-0.378552; 0.653218;,
         0.866024;-0.499985; 0.000000;,
         0.378552;-0.655721; 0.653218;,
         0.499985;-0.866024; 0.000000;,
         0.000000;-0.757134; 0.653218;,
         0.000000;-1.000000; 0.000000;,
         0.378552;-0.655721; 0.653218;,
         0.378552;-0.655721; 0.653218;,
         0.000000;-1.000000; 0.000000;,
         0.499985;-0.866024; 0.000000;,
        -0.378552;-0.655721; 0.653218;,
         0.000000;-1.000000; 0.000000;,
         0.000000;-0.757134; 0.653218;,
         0.000000;-1.000000; 0.000000;,
        -0.378552;-0.655721; 0.653218;,
        -0.499985;-0.866024; 0.000000;,
        -0.655721;-0.378552; 0.653218;,
        -0.499985;-0.866024; 0.000000;,
        -0.378552;-0.655721; 0.653218;,
        -0.499985;-0.866024; 0.000000;,
        -0.655721;-0.378552; 0.653218;,
        -0.866024;-0.499985; 0.000000;,
        -0.757134; 0.000000; 0.653218;,
        -0.866024;-0.499985; 0.000000;,
        -0.655721;-0.378552; 0.653218;,
        -0.866024;-0.499985; 0.000000;,
        -0.757134; 0.000000; 0.653218;,
        -1.000000; 0.000000; 0.000000;,
         0.331095;-0.191168; 0.924009;,
        -0.757134; 0.000000; 0.653218;,
         0.382336; 0.000000; 0.924009;,
        -0.757134; 0.000000; 0.653218;,
         0.331095;-0.191168; 0.924009;,
        -0.655721; 0.378552; 0.653218;,
        -0.757134; 0.000000; 0.653218;,
        -0.655721;-0.378552; 0.653218;,
         0.331095; 0.191168; 0.924009;,
        -0.757134; 0.000000; 0.653218;,
         0.331095; 0.191168; 0.924009;,
         0.382336; 0.000000; 0.924009;,
        -0.378552;-0.655721; 0.653218;,
         0.331095; 0.191168; 0.924009;,
        -0.655721;-0.378552; 0.653218;,
         0.331095; 0.191168; 0.924009;,
        -0.378552;-0.655721; 0.653218;,
         0.191168; 0.331095; 0.924009;,
        -0.378552;-0.655721; 0.653218;,
         0.000000; 0.382336; 0.924009;,
         0.191168; 0.331095; 0.924009;,
         0.000000; 0.382336; 0.924009;,
        -0.378552;-0.655721; 0.653218;,
         0.000000;-0.757134; 0.653218;,
         0.000000; 0.382336; 0.924009;,
         0.378552;-0.655721; 0.653218;,
        -0.191168; 0.331095; 0.924009;,
         0.378552;-0.655721; 0.653218;,
         0.000000; 0.382336; 0.924009;,
         0.000000;-0.757134; 0.653218;,
         0.655721;-0.378552; 0.653218;,
        -0.191168; 0.331095; 0.924009;,
         0.378552;-0.655721; 0.653218;,
        -0.191168; 0.331095; 0.924009;,
         0.655721;-0.378552; 0.653218;,
        -0.331095; 0.191168; 0.924009;,
        -0.382336; 0.000000; 0.924009;,
         0.655721;-0.378552; 0.653218;,
         0.757134; 0.000000; 0.653218;,
         0.655721;-0.378552; 0.653218;,
        -0.382336; 0.000000; 0.924009;,
        -0.331095; 0.191168; 0.924009;,
        -0.382336; 0.000000; 0.924009;,
         0.655721; 0.378552; 0.653218;,
        -0.331095;-0.191168; 0.924009;,
         0.655721; 0.378552; 0.653218;,
        -0.382336; 0.000000; 0.924009;,
         0.757134; 0.000000; 0.653218;,
        -0.191137;-0.331095; 0.924009;,
        -0.331095;-0.191168; 0.924009;,
         0.655721; 0.378552; 0.653218;,
         0.655721; 0.378552; 0.653218;,
         0.378552; 0.655721; 0.653218;,
        -0.191137;-0.331095; 0.924009;,
         0.000000; 0.757134; 0.653218;,
        -0.191137;-0.331095; 0.924009;,
         0.378552; 0.655721; 0.653218;,
        -0.191137;-0.331095; 0.924009;,
         0.000000; 0.757134; 0.653218;,
         0.000000;-0.382336; 0.924009;,
         0.191137;-0.331095; 0.924009;,
         0.000000; 0.757134; 0.653218;,
        -0.378552; 0.655721; 0.653218;,
         0.000000; 0.757134; 0.653218;,
         0.191137;-0.331095; 0.924009;,
         0.000000;-0.382336; 0.924009;,
        -0.378552; 0.655721; 0.653218;,
         0.331095;-0.191168; 0.924009;,
         0.191137;-0.331095; 0.924009;,
         0.331095;-0.191168; 0.924009;,
        -0.378552; 0.655721; 0.653218;,
        -0.655721; 0.378552; 0.653218;,
         0.382336; 0.000000; 0.924009;,
         0.690909;-0.398907; 0.602893;,
         0.331095;-0.191168; 0.924009;,
         0.690909;-0.398907; 0.602893;,
         0.382336; 0.000000; 0.924009;,
         0.797815; 0.000000; 0.602893;,
         0.382336; 0.000000; 0.924009;,
         0.331095; 0.191168; 0.924009;,
         0.690909; 0.398907; 0.602893;,
         0.382336; 0.000000; 0.924009;,
         0.690909; 0.398907; 0.602893;,
         0.797815; 0.000000; 0.602893;,
         0.191168; 0.331095; 0.924009;,
         0.690909; 0.398907; 0.602893;,
         0.331095; 0.191168; 0.924009;,
         0.690909; 0.398907; 0.602893;,
         0.191168; 0.331095; 0.924009;,
         0.398907; 0.690909; 0.602893;,
         0.000000; 0.382336; 0.924009;,
         0.398907; 0.690909; 0.602893;,
         0.191168; 0.331095; 0.924009;,
         0.398907; 0.690909; 0.602893;,
         0.000000; 0.382336; 0.924009;,
         0.000000; 0.797815; 0.602893;,
         0.000000; 0.382336; 0.924009;,
        -0.191168; 0.331095; 0.924009;,
        -0.398907; 0.690909; 0.602893;,
         0.000000; 0.382336; 0.924009;,
        -0.398907; 0.690909; 0.602893;,
         0.000000; 0.797815; 0.602893;,
        -0.690909; 0.398907; 0.602893;,
        -0.398907; 0.690909; 0.602893;,
        -0.191168; 0.331095; 0.924009;,
        -0.191168; 0.331095; 0.924009;,
        -0.331095; 0.191168; 0.924009;,
        -0.690909; 0.398907; 0.602893;,
        -0.382336; 0.000000; 0.924009;,
        -0.690909; 0.398907; 0.602893;,
        -0.331095; 0.191168; 0.924009;,
        -0.690909; 0.398907; 0.602893;,
        -0.382336; 0.000000; 0.924009;,
        -0.797815; 0.000000; 0.602893;,
        -0.382336; 0.000000; 0.924009;,
        -0.331095;-0.191168; 0.924009;,
        -0.690909;-0.398907; 0.602893;,
        -0.382336; 0.000000; 0.924009;,
        -0.690909;-0.398907; 0.602893;,
        -0.797815; 0.000000; 0.602893;,
        -0.398907;-0.690909; 0.602893;,
        -0.690909;-0.398907; 0.602893;,
        -0.331095;-0.191168; 0.924009;,
        -0.331095;-0.191168; 0.924009;,
        -0.191137;-0.331095; 0.924009;,
        -0.398907;-0.690909; 0.602893;,
         0.000000;-0.382336; 0.924009;,
        -0.398907;-0.690909; 0.602893;,
        -0.191137;-0.331095; 0.924009;,
        -0.398907;-0.690909; 0.602893;,
         0.000000;-0.382336; 0.924009;,
         0.000000;-0.797815; 0.602863;,
         0.398877;-0.690909; 0.602893;,
         0.000000;-0.382336; 0.924009;,
         0.191137;-0.331095; 0.924009;,
         0.000000;-0.382336; 0.924009;,
         0.398877;-0.690909; 0.602893;,
         0.000000;-0.797815; 0.602863;,
         0.398877;-0.690909; 0.602893;,
         0.331095;-0.191168; 0.924009;,
         0.690909;-0.398907; 0.602893;,
         0.331095;-0.191168; 0.924009;,
         0.398877;-0.690909; 0.602893;,
         0.191137;-0.331095; 0.924009;;
        72;
        3;2,1,0;,
        3;5,4,3;,
        3;8,7,6;,
        3;11,10,9;,
        3;14,13,12;,
        3;17,16,15;,
        3;20,19,18;,
        3;23,22,21;,
        3;26,25,24;,
        3;29,28,27;,
        3;32,31,30;,
        3;35,34,33;,
        3;38,37,36;,
        3;41,40,39;,
        3;44,43,42;,
        3;47,46,45;,
        3;50,49,48;,
        3;53,52,51;,
        3;56,55,54;,
        3;59,58,57;,
        3;62,61,60;,
        3;65,64,63;,
        3;68,67,66;,
        3;71,70,69;,
        3;74,73,72;,
        3;77,76,75;,
        3;80,79,78;,
        3;83,82,81;,
        3;86,85,84;,
        3;89,88,87;,
        3;92,91,90;,
        3;95,94,93;,
        3;98,97,96;,
        3;101,100,99;,
        3;104,103,102;,
        3;107,106,105;,
        3;110,109,108;,
        3;113,112,111;,
        3;116,115,114;,
        3;119,118,117;,
        3;122,121,120;,
        3;125,124,123;,
        3;128,127,126;,
        3;131,130,129;,
        3;134,133,132;,
        3;137,136,135;,
        3;140,139,138;,
        3;143,142,141;,
        3;146,145,144;,
        3;149,148,147;,
        3;152,151,150;,
        3;155,154,153;,
        3;158,157,156;,
        3;161,160,159;,
        3;164,163,162;,
        3;167,166,165;,
        3;170,169,168;,
        3;173,172,171;,
        3;176,175,174;,
        3;179,178,177;,
        3;182,181,180;,
        3;185,184,183;,
        3;188,187,186;,
        3;191,190,189;,
        3;194,193,192;,
        3;197,196,195;,
        3;200,199,198;,
        3;203,202,201;,
        3;206,205,204;,
        3;209,208,207;,
        3;212,211,210;,
        3;215,214,213;;
      } // End of Wheel normals
      MeshTextureCoords { // Wheel UV coordinates
        216;
         1.000000; 0.750387;,
         0.822806; 0.750387;,
         1.000000; 0.829511;,
         1.000000; 0.829511;,
         0.822806; 0.750387;,
         0.822806; 0.829511;,
         0.822806; 0.579899;,
         0.645613; 0.500775;,
         0.645613; 0.579899;,
         0.645613; 0.500775;,
         0.822806; 0.579899;,
         0.822806; 0.500775;,
         0.645613; 0.671263;,
         0.822806; 0.671263;,
         0.645613; 0.579899;,
         0.645613; 0.579899;,
         0.822806; 0.671263;,
         0.822806; 0.579899;,
         0.645613; 0.750387;,
         0.822806; 0.671263;,
         0.645613; 0.671263;,
         0.822806; 0.671263;,
         0.645613; 0.750387;,
         0.822806; 0.750387;,
         1.000000; 0.671263;,
         0.822806; 0.750387;,
         1.000000; 0.750387;,
         0.822806; 0.750387;,
         1.000000; 0.671263;,
         0.822806; 0.671263;,
         1.000000; 0.579899;,
         0.822806; 0.579899;,
         1.000000; 0.671263;,
         1.000000; 0.671263;,
         0.822806; 0.579899;,
         0.822806; 0.671263;,
         1.000000; 0.500775;,
         0.822806; 0.579899;,
         1.000000; 0.579899;,
         0.822806; 0.579899;,
         1.000000; 0.500775;,
         0.822806; 0.500775;,
         0.645613; 0.829511;,
         0.822806; 0.750387;,
         0.645613; 0.750387;,
         0.822806; 0.750387;,
         0.645613; 0.829511;,
         0.822806; 0.829511;,
         0.645613; 0.920876;,
         0.822806; 0.920876;,
         0.645613; 0.829511;,
         0.645613; 0.829511;,
         0.822806; 0.920876;,
         0.822806; 0.829511;,
         0.645613; 1.000000;,
         0.822806; 0.920876;,
         0.645613; 0.920876;,
         0.822806; 0.920876;,
         0.645613; 1.000000;,
         0.822806; 1.000000;,
         1.000000; 0.920876;,
         0.822806; 1.000000;,
         1.000000; 1.000000;,
         0.822806; 1.000000;,
         1.000000; 0.920876;,
         0.822806; 0.920876;,
         1.000000; 0.829511;,
         0.822806; 0.920876;,
         1.000000; 0.920876;,
         0.822806; 0.920876;,
         1.000000; 0.829511;,
         0.822806; 0.829511;,
         0.117154; 0.858615;,
         0.086496; 0.954318;,
         0.172258; 0.909023;,
         0.086496; 0.954318;,
         0.117154; 0.858615;,
         0.000000; 0.875194;,
         0.086496; 0.954318;,
         0.236311; 1.000000;,
         0.267702; 0.938126;,
         0.086496; 0.954318;,
         0.267702; 0.938126;,
         0.172258; 0.909023;,
         0.409302; 1.000000;,
         0.267702; 0.938126;,
         0.236311; 1.000000;,
         0.267702; 0.938126;,
         0.409302; 1.000000;,
         0.377911; 0.938126;,
         0.409302; 1.000000;,
         0.473355; 0.909023;,
         0.377911; 0.938126;,
         0.473355; 0.909023;,
         0.409302; 1.000000;,
         0.559117; 0.954318;,
         0.473355; 0.909023;,
         0.645613; 0.875194;,
         0.528459; 0.858614;,
         0.645613; 0.875194;,
         0.473355; 0.909023;,
         0.559117; 0.954318;,
         0.645613; 0.783829;,
         0.528459; 0.858614;,
         0.645613; 0.875194;,
         0.528459; 0.858614;,
         0.645613; 0.783829;,
         0.528459; 0.800408;,
         0.473355; 0.750000;,
         0.645613; 0.783829;,
         0.559117; 0.704705;,
         0.645613; 0.783829;,
         0.473355; 0.750000;,
         0.528459; 0.800408;,
         0.473355; 0.750000;,
         0.409302; 0.659023;,
         0.377911; 0.720897;,
         0.409302; 0.659023;,
         0.473355; 0.750000;,
         0.559117; 0.704705;,
         0.267701; 0.720897;,
         0.377911; 0.720897;,
         0.409302; 0.659023;,
         0.409302; 0.659023;,
         0.236311; 0.659023;,
         0.267701; 0.720897;,
         0.086496; 0.704705;,
         0.267701; 0.720897;,
         0.236311; 0.659023;,
         0.267701; 0.720897;,
         0.086496; 0.704705;,
         0.172258; 0.750000;,
         0.117153; 0.800408;,
         0.086496; 0.704705;,
         0.000000; 0.783829;,
         0.086496; 0.704705;,
         0.117153; 0.800408;,
         0.172258; 0.750000;,
         0.000000; 0.783829;,
         0.117154; 0.858615;,
         0.117153; 0.800408;,
         0.117154; 0.858615;,
         0.000000; 0.783829;,
         0.000000; 0.875194;,
         0.076839; 0.608615;,
         0.051226; 0.651794;,
         0.076839; 0.659023;,
         0.051226; 0.651794;,
         0.076839; 0.608615;,
         0.051226; 0.605969;,
         0.076839; 0.608615;,
         0.076839; 0.550408;,
         0.051226; 0.553054;,
         0.076839; 0.608615;,
         0.051226; 0.553054;,
         0.051226; 0.605969;,
         0.076839; 0.500000;,
         0.051226; 0.553054;,
         0.076839; 0.550408;,
         0.051226; 0.553054;,
         0.076839; 0.500000;,
         0.051226; 0.507228;,
         0.102451; 0.608615;,
         0.076839; 0.651795;,
         0.102451; 0.659023;,
         0.076839; 0.651795;,
         0.102451; 0.608615;,
         0.076839; 0.605969;,
         0.102451; 0.608615;,
         0.102451; 0.550408;,
         0.076839; 0.553054;,
         0.102451; 0.608615;,
         0.076839; 0.553054;,
         0.076839; 0.605969;,
         0.076839; 0.507229;,
         0.076839; 0.553054;,
         0.102451; 0.550408;,
         0.102451; 0.550408;,
         0.102451; 0.500000;,
         0.076839; 0.507229;,
         0.051226; 0.608615;,
         0.025613; 0.651795;,
         0.051226; 0.659023;,
         0.025613; 0.651795;,
         0.051226; 0.608615;,
         0.025613; 0.605969;,
         0.051226; 0.608615;,
         0.051226; 0.550409;,
         0.025613; 0.553054;,
         0.051226; 0.608615;,
         0.025613; 0.553054;,
         0.025613; 0.605969;,
         0.025613; 0.507229;,
         0.025613; 0.553054;,
         0.051226; 0.550409;,
         0.051226; 0.550409;,
         0.051226; 0.500000;,
         0.025613; 0.507229;,
         0.000000; 0.550408;,
         0.025613; 0.507228;,
         0.000000; 0.500000;,
         0.025613; 0.507228;,
         0.000000; 0.550408;,
         0.025613; 0.553054;,
         0.025613; 0.605969;,
         0.000000; 0.550408;,
         0.000000; 0.608614;,
         0.000000; 0.550408;,
         0.025613; 0.605969;,
         0.025613; 0.553054;,
         0.025613; 0.605969;,
         0.000000; 0.659023;,
         0.025613; 0.651794;,
         0.000000; 0.659023;,
         0.025613; 0.605969;,
         0.000000; 0.608614;;
      } // End of Wheel UV coordinates
      MeshMaterialList { // Wheel material list
        1;
        72;
        0,
        0,
        0,
        0,
        0,
        0,
        0,
        0,
        0,
        0,
        0,
        0,
        0,
        0,
        0,
        0,
        0,
        0,
        0,
        0,
        0,
        0,
        0,
        0,
        0,
        0,
        0,
        0,
        0,
        0,
        0,
        0,
        0,
        0,
        0,
        0,
        0,
        0,
        0,
        0,
        0,
        0,
        0,
        0,
        0,
        0,
        0,
        0,
        0,
        0,
        0,
        0,
        0,
        0,
        0,
        0,
        0,
        0,
        0,
        0,
        0,
        0,
        0,
        0,
        0,
        0,
        0,
        0,
        0,
        0,
        0,
        0;
        Material _12___Default {
           0.470588; 0.470588; 0.470588; 1.000000;;
           19.607843;
           0.000000; 0.000000; 0.000000;;
           0.000000; 0.000000; 0.000000;;
          TextureFilename {"Vehicle_Wheel.png";}
        }
      } // End of Wheel material list
    } // End of Wheel mesh
  } // End of Wheel
} // End of Root
