xof 0303txt 0032

Frame Root {
  FrameTransformMatrix {
     1.000000, 0.000000, 0.000000, 0.000000,
     0.000000,-0.000000, 1.000000, 0.000000,
     0.000000, 1.000000, 0.000000, 0.000000,
     0.000000, 0.000000, 0.000000, 1.000000;;
  }
  Frame Cube {
    FrameTransformMatrix {
       1.000000, 0.000000, 0.000000, 0.000000,
       0.000000, 1.000000, 0.000000, 0.000000,
       0.000000, 0.000000, 1.000000, 0.000000,
       0.000000, 0.000000, 0.000000, 1.000000;;
    }
    Mesh {
      592;
      -0.012006;-0.014638; 0.052323;,
      -0.045970;-0.026646; 0.044955;,
      -0.039597;-0.045354; 0.042454;,
      -0.022649;-0.053292; 0.044955;,
      -0.022649;-0.053292; 0.011365;,
      -0.022649;-0.053292; 0.044955;,
      -0.039597;-0.045354; 0.042454;,
      -0.039597;-0.045354; 0.013866;,
      -0.045970;-0.026646; 0.011365;,
      -0.045970;-0.026646; 0.044955;,
      -0.045970; 0.000000; 0.044955;,
      -0.045970; 0.000000; 0.011365;,
       0.022985;-0.026646; 0.011365;,
       0.045970;-0.026646; 0.011365;,
       0.038269;-0.044301; 0.014198;,
       0.022985;-0.053292; 0.011365;,
       0.045970;-0.026646; 0.011365;,
       0.045970;-0.026646; 0.044955;,
       0.038269;-0.044301; 0.042122;,
       0.038269;-0.044301; 0.014198;,
       0.022985; 0.000000; 0.011365;,
       0.013063; 0.000000; 0.052323;,
       0.045970; 0.000000; 0.044955;,
       0.045970; 0.000000; 0.011365;,
       0.045970; 0.000000; 0.011365;,
       0.045970; 0.000000; 0.044955;,
       0.045970;-0.026646; 0.044955;,
       0.045970;-0.026646; 0.011365;,
       0.022985; 0.000000; 0.011365;,
       0.045970; 0.000000; 0.011365;,
       0.045970;-0.026646; 0.011365;,
       0.022985;-0.026646; 0.011365;,
      -0.039597;-0.045354; 0.013866;,
      -0.039597;-0.045354; 0.042454;,
      -0.045970;-0.026646; 0.044955;,
      -0.045970;-0.026646; 0.011365;,
      -0.012006; 0.000000; 0.052323;,
      -0.045970; 0.000000; 0.044955;,
      -0.045970;-0.026646; 0.044955;,
      -0.012006;-0.014638; 0.052323;,
       0.002816;-0.014638; 0.052323;,
       0.013063;-0.014638; 0.052323;,
       0.022985;-0.026646; 0.111804;,
       0.004332;-0.026646; 0.111804;,
      -0.022649; 0.000000; 0.011365;,
       0.000000; 0.000000; 0.011365;,
       0.000000;-0.026646; 0.011365;,
      -0.022649;-0.026646; 0.011365;,
      -0.022649; 0.000000; 0.011365;,
      -0.012006; 0.000000; 0.052323;,
       0.000000; 0.000000; 0.052323;,
       0.000000; 0.000000; 0.011365;,
      -0.022649;-0.026646; 0.011365;,
       0.000000;-0.026646; 0.011365;,
       0.000000;-0.053292; 0.011365;,
      -0.022649;-0.053292; 0.011365;,
       0.004332;-0.053292; 0.011365;,
       0.004332;-0.053292; 0.044955;,
       0.000000;-0.053292; 0.044955;,
       0.000000;-0.053292; 0.011365;,
       0.002816;-0.014638; 0.052323;,
       0.000436;-0.014638; 0.052323;,
       0.000000;-0.053292; 0.044955;,
       0.004332;-0.053292; 0.044955;,
       0.045970;-0.026646; 0.044955;,
       0.013063;-0.014638; 0.052323;,
       0.022985;-0.053292; 0.044955;,
       0.038269;-0.044301; 0.042122;,
       0.038269;-0.044301; 0.014198;,
       0.038269;-0.044301; 0.042122;,
       0.022985;-0.053292; 0.044955;,
       0.022985;-0.053292; 0.011365;,
       0.045970; 0.000000; 0.044955;,
       0.013063; 0.000000; 0.052323;,
       0.013063;-0.014638; 0.052323;,
       0.045970;-0.026646; 0.044955;,
       0.004332; 0.000000; 0.011365;,
       0.022985; 0.000000; 0.011365;,
       0.022985;-0.026646; 0.011365;,
       0.004332;-0.026646; 0.011365;,
       0.004332; 0.000000; 0.011365;,
       0.004332; 0.000000; 0.052323;,
       0.013063; 0.000000; 0.052323;,
       0.022985; 0.000000; 0.011365;,
       0.004332;-0.026646; 0.011365;,
       0.022985;-0.026646; 0.011365;,
       0.022985;-0.053292; 0.011365;,
       0.004332;-0.053292; 0.011365;,
      -0.045970;-0.026646; 0.011365;,
      -0.022649;-0.026646; 0.011365;,
      -0.022649;-0.053292; 0.011365;,
      -0.039597;-0.045354; 0.013866;,
      -0.045970; 0.000000; 0.011365;,
      -0.045970; 0.000000; 0.044955;,
      -0.012006; 0.000000; 0.052323;,
      -0.022649; 0.000000; 0.011365;,
      -0.045970; 0.000000; 0.011365;,
      -0.022649; 0.000000; 0.011365;,
      -0.022649;-0.026646; 0.011365;,
      -0.045970;-0.026646; 0.011365;,
       0.000000; 0.000000; 0.052323;,
      -0.012006; 0.000000; 0.052323;,
      -0.022649; 0.000000; 0.111804;,
       0.000000; 0.000000; 0.111804;,
       0.000000;-0.053292; 0.011365;,
       0.000000;-0.053292; 0.044955;,
      -0.022649;-0.053292; 0.044955;,
      -0.022649;-0.053292; 0.011365;,
       0.000436;-0.014638; 0.052323;,
      -0.012006;-0.014638; 0.052323;,
      -0.022649;-0.053292; 0.044955;,
       0.000000;-0.053292; 0.044955;,
       0.022985;-0.026646; 0.111804;,
       0.022985; 0.000000; 0.111804;,
       0.058407; 0.000000; 0.126043;,
       0.048422;-0.037717; 0.126043;,
       0.000000; 0.000000; 0.111804;,
      -0.022649; 0.000000; 0.111804;,
      -0.057898; 0.000000; 0.126043;,
      -0.000173; 0.000000; 0.126043;,
       0.004332; 0.000000; 0.052323;,
       0.000000; 0.000000; 0.052323;,
       0.000000; 0.000000; 0.111804;,
       0.004332; 0.000000; 0.111804;,
      -0.012006; 0.000000; 0.052323;,
      -0.012006;-0.014638; 0.052323;,
      -0.022649;-0.026646; 0.111804;,
      -0.022649; 0.000000; 0.111804;,
       0.013063;-0.014638; 0.052323;,
       0.013063; 0.000000; 0.052323;,
       0.022985; 0.000000; 0.111804;,
       0.022985;-0.026646; 0.111804;,
      -0.012006;-0.014638; 0.052323;,
       0.000436;-0.014638; 0.052323;,
       0.000000;-0.026646; 0.111804;,
      -0.022649;-0.026646; 0.111804;,
       0.008986;-0.043891; 0.126043;,
       0.048422;-0.037717; 0.126043;,
       0.058407;-0.045325; 0.247966;,
       0.010868;-0.072290; 0.247966;,
       0.009640;-0.053759; 0.168409;,
       0.009532;-0.052134; 0.161434;,
      -0.057898; 0.000000; 0.126043;,
      -0.047913;-0.037717; 0.126043;,
      -0.057898;-0.045325; 0.247966;,
      -0.079008; 0.000000; 0.247966;,
       0.004332; 0.000000; 0.111804;,
       0.000000; 0.000000; 0.111804;,
      -0.000173; 0.000000; 0.126043;,
       0.010868; 0.000000; 0.126043;,
      -0.022649;-0.026646; 0.111804;,
       0.000000;-0.026646; 0.111804;,
      -0.000173;-0.045325; 0.126043;,
      -0.047913;-0.037717; 0.126043;,
      -0.022649; 0.000000; 0.111804;,
      -0.022649;-0.026646; 0.111804;,
      -0.047913;-0.037717; 0.126043;,
      -0.057898; 0.000000; 0.126043;,
       0.004332;-0.026646; 0.111804;,
       0.022985;-0.026646; 0.111804;,
       0.048422;-0.037717; 0.126043;,
       0.008986;-0.043891; 0.126043;,
       0.014916; 0.000000; 0.220432;,
      -0.000173; 0.000000; 0.214037;,
      -0.000173;-0.078553; 0.247966;,
       0.010868;-0.072290; 0.247966;,
      -0.000173; 0.000000; 0.214037;,
      -0.079008; 0.000000; 0.247966;,
      -0.057898;-0.045325; 0.247966;,
      -0.000173;-0.078553; 0.247966;,
      -0.000173; 0.000000; 0.126043;,
      -0.057898; 0.000000; 0.126043;,
      -0.079008; 0.000000; 0.247966;,
      -0.000173; 0.000000; 0.214037;,
       0.048422;-0.037717; 0.126043;,
       0.058407; 0.000000; 0.126043;,
       0.079888; 0.000000; 0.247966;,
       0.058407;-0.045325; 0.247966;,
       0.010868; 0.000000; 0.126043;,
      -0.000173; 0.000000; 0.126043;,
      -0.000173; 0.000000; 0.214037;,
       0.014916; 0.000000; 0.220432;,
      -0.047913;-0.037717; 0.126043;,
      -0.000173;-0.045325; 0.126043;,
      -0.000173;-0.054989; 0.161504;,
      -0.000173;-0.056774; 0.168053;,
      -0.000173;-0.078553; 0.247966;,
      -0.057898;-0.045325; 0.247966;,
       0.058407; 0.000000; 0.126043;,
       0.010868; 0.000000; 0.126043;,
       0.014916; 0.000000; 0.220432;,
       0.079888; 0.000000; 0.247966;,
       0.079888; 0.000000; 0.247966;,
       0.014916; 0.000000; 0.220432;,
       0.010868;-0.072290; 0.247966;,
       0.058407;-0.045325; 0.247966;,
       0.000000;-0.026646; 0.111804;,
       0.004332;-0.026646; 0.111804;,
       0.008986;-0.043891; 0.126043;,
      -0.000173;-0.045325; 0.126043;,
       0.022985; 0.000000; 0.111804;,
       0.004332; 0.000000; 0.111804;,
       0.010868; 0.000000; 0.126043;,
       0.058407; 0.000000; 0.126043;,
      -0.000173;-0.045325; 0.126043;,
       0.008986;-0.043891; 0.126043;,
       0.009532;-0.052134; 0.161434;,
      -0.000173;-0.054989; 0.161504;,
       0.013063; 0.000000; 0.052323;,
       0.004332; 0.000000; 0.052323;,
       0.004332; 0.000000; 0.111804;,
       0.022985; 0.000000; 0.111804;,
       0.000000;-0.026646; 0.011365;,
       0.004332;-0.026646; 0.011365;,
       0.004332;-0.053292; 0.011365;,
       0.000000;-0.053292; 0.011365;,
       0.000000; 0.000000; 0.011365;,
       0.000000; 0.000000; 0.052323;,
       0.004332; 0.000000; 0.052323;,
       0.004332; 0.000000; 0.011365;,
       0.000000; 0.000000; 0.011365;,
       0.004332; 0.000000; 0.011365;,
       0.004332;-0.026646; 0.011365;,
       0.000000;-0.026646; 0.011365;,
       0.013063;-0.014638; 0.052323;,
       0.002816;-0.014638; 0.052323;,
       0.004332;-0.053292; 0.044955;,
       0.022985;-0.053292; 0.044955;,
       0.022985;-0.053292; 0.011365;,
       0.022985;-0.053292; 0.044955;,
       0.004332;-0.053292; 0.044955;,
       0.004332;-0.053292; 0.011365;,
       0.000436;-0.014638; 0.052323;,
       0.002816;-0.014638; 0.052323;,
       0.004332;-0.026646; 0.111804;,
       0.000000;-0.026646; 0.111804;,
       0.017730;-0.080335; 0.161645;,
       0.007917;-0.083349; 0.161289;,
       0.009825;-0.095439; 0.211068;,
       0.019638;-0.092424; 0.211424;,
       0.009532;-0.052134; 0.161434;,
       0.009640;-0.053759; 0.168409;,
       0.017730;-0.080335; 0.161645;,
       0.017623;-0.078710; 0.154670;,
      -0.000173;-0.056774; 0.168053;,
       0.009640;-0.053759; 0.168409;,
       0.010868;-0.072290; 0.247966;,
      -0.000173;-0.078553; 0.247966;,
      -0.000173;-0.054989; 0.161504;,
       0.009532;-0.052134; 0.161434;,
       0.017623;-0.078710; 0.154670;,
       0.007917;-0.081565; 0.154740;,
      -0.000173;-0.056774; 0.168053;,
      -0.000173;-0.054989; 0.161504;,
       0.007917;-0.081565; 0.154740;,
       0.007917;-0.083349; 0.161289;,
       0.009640;-0.053759; 0.168409;,
      -0.000173;-0.056774; 0.168053;,
       0.007917;-0.083349; 0.161289;,
       0.017730;-0.080335; 0.161645;,
       0.010547;-0.086184; 0.155113;,
       0.020252;-0.083330; 0.155042;,
       0.019374;-0.085736; 0.160271;,
       0.009562;-0.088750; 0.159915;,
       0.007917;-0.081565; 0.154740;,
       0.017623;-0.078710; 0.154670;,
       0.020252;-0.083330; 0.155042;,
       0.010547;-0.086184; 0.155113;,
       0.017623;-0.078710; 0.154670;,
       0.017730;-0.080335; 0.161645;,
       0.019374;-0.085736; 0.160271;,
       0.020252;-0.083330; 0.155042;,
       0.007917;-0.083349; 0.161289;,
       0.007917;-0.081565; 0.154740;,
       0.010547;-0.086184; 0.155113;,
       0.009562;-0.088750; 0.159915;,
       0.009825;-0.095439; 0.211068;,
       0.011470;-0.100839; 0.209693;,
       0.012569;-0.101023; 0.214702;,
       0.010056;-0.096898; 0.217078;,
       0.007917;-0.083349; 0.161289;,
       0.009562;-0.088750; 0.159915;,
       0.011470;-0.100839; 0.209693;,
       0.009825;-0.095439; 0.211068;,
       0.019374;-0.085736; 0.160271;,
       0.017730;-0.080335; 0.161645;,
       0.019638;-0.092424; 0.211424;,
       0.021283;-0.097825; 0.210049;,
       0.009562;-0.088750; 0.159915;,
       0.019374;-0.085736; 0.160271;,
       0.021283;-0.097825; 0.210049;,
       0.011470;-0.100839; 0.209693;,
       0.019869;-0.093883; 0.217434;,
       0.010056;-0.096898; 0.217078;,
       0.012569;-0.101023; 0.214702;,
       0.022382;-0.098008; 0.215058;,
       0.009825;-0.095439; 0.211068;,
       0.010056;-0.096898; 0.217078;,
       0.000209;-0.065784; 0.225012;,
      -0.000021;-0.064325; 0.219002;,
       0.021283;-0.097825; 0.210049;,
       0.019638;-0.092424; 0.211424;,
       0.019869;-0.093883; 0.217434;,
       0.022382;-0.098008; 0.215058;,
       0.011470;-0.100839; 0.209693;,
       0.021283;-0.097825; 0.210049;,
       0.022382;-0.098008; 0.215058;,
       0.012569;-0.101023; 0.214702;,
       0.009792;-0.061310; 0.219358;,
      -0.000021;-0.064325; 0.219002;,
       0.000209;-0.065784; 0.225012;,
       0.010022;-0.062769; 0.225368;,
       0.019638;-0.092424; 0.211424;,
       0.009825;-0.095439; 0.211068;,
      -0.000021;-0.064325; 0.219002;,
       0.009792;-0.061310; 0.219358;,
       0.019869;-0.093883; 0.217434;,
       0.019638;-0.092424; 0.211424;,
       0.009792;-0.061310; 0.219358;,
       0.010022;-0.062769; 0.225368;,
       0.010056;-0.096898; 0.217078;,
       0.019869;-0.093883; 0.217434;,
       0.010022;-0.062769; 0.225368;,
       0.000209;-0.065784; 0.225012;,
      -0.012006; 0.014638; 0.052323;,
      -0.022649; 0.053292; 0.044955;,
      -0.039597; 0.045354; 0.042454;,
      -0.045970; 0.026646; 0.044955;,
      -0.022649; 0.053292; 0.011365;,
      -0.039597; 0.045354; 0.013866;,
      -0.039597; 0.045354; 0.042454;,
      -0.022649; 0.053292; 0.044955;,
      -0.045970; 0.026646; 0.011365;,
      -0.045970; 0.000000; 0.011365;,
      -0.045970; 0.000000; 0.044955;,
      -0.045970; 0.026646; 0.044955;,
       0.022985; 0.026646; 0.011365;,
       0.022985; 0.053292; 0.011365;,
       0.038269; 0.044301; 0.014198;,
       0.045970; 0.026646; 0.011365;,
       0.045970; 0.026646; 0.011365;,
       0.038269; 0.044301; 0.014198;,
       0.038269; 0.044301; 0.042122;,
       0.045970; 0.026646; 0.044955;,
       0.045970; 0.000000; 0.011365;,
       0.045970; 0.026646; 0.011365;,
       0.045970; 0.026646; 0.044955;,
       0.045970; 0.000000; 0.044955;,
       0.022985; 0.000000; 0.011365;,
       0.022985; 0.026646; 0.011365;,
       0.045970; 0.026646; 0.011365;,
       0.045970; 0.000000; 0.011365;,
      -0.039597; 0.045354; 0.013866;,
      -0.045970; 0.026646; 0.011365;,
      -0.045970; 0.026646; 0.044955;,
      -0.039597; 0.045354; 0.042454;,
      -0.012006; 0.000000; 0.052323;,
      -0.012006; 0.014638; 0.052323;,
      -0.045970; 0.026646; 0.044955;,
      -0.045970; 0.000000; 0.044955;,
       0.002816; 0.014638; 0.052323;,
       0.004332; 0.026646; 0.111804;,
       0.022985; 0.026646; 0.111804;,
       0.013063; 0.014638; 0.052323;,
      -0.022649; 0.000000; 0.011365;,
      -0.022649; 0.026646; 0.011365;,
       0.000000; 0.026646; 0.011365;,
       0.000000; 0.000000; 0.011365;,
      -0.022649; 0.026646; 0.011365;,
      -0.022649; 0.053292; 0.011365;,
       0.000000; 0.053292; 0.011365;,
       0.000000; 0.026646; 0.011365;,
       0.004332; 0.053292; 0.011365;,
       0.000000; 0.053292; 0.011365;,
       0.000000; 0.053292; 0.044955;,
       0.004332; 0.053292; 0.044955;,
       0.002816; 0.014638; 0.052323;,
       0.004332; 0.053292; 0.044955;,
       0.000000; 0.053292; 0.044955;,
       0.000436; 0.014638; 0.052323;,
       0.045970; 0.026646; 0.044955;,
       0.038269; 0.044301; 0.042122;,
       0.022985; 0.053292; 0.044955;,
       0.013063; 0.014638; 0.052323;,
       0.038269; 0.044301; 0.014198;,
       0.022985; 0.053292; 0.011365;,
       0.022985; 0.053292; 0.044955;,
       0.038269; 0.044301; 0.042122;,
       0.045970; 0.000000; 0.044955;,
       0.045970; 0.026646; 0.044955;,
       0.013063; 0.014638; 0.052323;,
       0.013063; 0.000000; 0.052323;,
       0.004332; 0.000000; 0.011365;,
       0.004332; 0.026646; 0.011365;,
       0.022985; 0.026646; 0.011365;,
       0.022985; 0.000000; 0.011365;,
       0.004332; 0.026646; 0.011365;,
       0.004332; 0.053292; 0.011365;,
       0.022985; 0.053292; 0.011365;,
       0.022985; 0.026646; 0.011365;,
      -0.045970; 0.026646; 0.011365;,
      -0.039597; 0.045354; 0.013866;,
      -0.022649; 0.053292; 0.011365;,
      -0.022649; 0.026646; 0.011365;,
      -0.045970; 0.000000; 0.011365;,
      -0.045970; 0.026646; 0.011365;,
      -0.022649; 0.026646; 0.011365;,
      -0.022649; 0.000000; 0.011365;,
       0.000000; 0.053292; 0.011365;,
      -0.022649; 0.053292; 0.011365;,
      -0.022649; 0.053292; 0.044955;,
       0.000000; 0.053292; 0.044955;,
       0.000436; 0.014638; 0.052323;,
       0.000000; 0.053292; 0.044955;,
      -0.022649; 0.053292; 0.044955;,
      -0.012006; 0.014638; 0.052323;,
       0.022985; 0.026646; 0.111804;,
       0.048422; 0.037717; 0.126043;,
       0.058407; 0.000000; 0.126043;,
       0.022985; 0.000000; 0.111804;,
      -0.012006; 0.000000; 0.052323;,
      -0.022649; 0.000000; 0.111804;,
      -0.022649; 0.026646; 0.111804;,
      -0.012006; 0.014638; 0.052323;,
       0.013063; 0.014638; 0.052323;,
       0.022985; 0.026646; 0.111804;,
       0.022985; 0.000000; 0.111804;,
       0.013063; 0.000000; 0.052323;,
      -0.012006; 0.014638; 0.052323;,
      -0.022649; 0.026646; 0.111804;,
       0.000000; 0.026646; 0.111804;,
       0.000436; 0.014638; 0.052323;,
       0.008986; 0.043891; 0.126043;,
       0.009532; 0.052134; 0.161434;,
       0.009640; 0.053759; 0.168409;,
       0.010868; 0.072290; 0.247966;,
       0.058407; 0.045325; 0.247966;,
       0.048422; 0.037717; 0.126043;,
      -0.057898; 0.000000; 0.126043;,
      -0.079008; 0.000000; 0.247966;,
      -0.057898; 0.045325; 0.247966;,
      -0.047913; 0.037717; 0.126043;,
      -0.022649; 0.026646; 0.111804;,
      -0.047913; 0.037717; 0.126043;,
      -0.000173; 0.045325; 0.126043;,
       0.000000; 0.026646; 0.111804;,
      -0.022649; 0.000000; 0.111804;,
      -0.057898; 0.000000; 0.126043;,
      -0.047913; 0.037717; 0.126043;,
      -0.022649; 0.026646; 0.111804;,
       0.004332; 0.026646; 0.111804;,
       0.008986; 0.043891; 0.126043;,
       0.048422; 0.037717; 0.126043;,
       0.022985; 0.026646; 0.111804;,
       0.014916; 0.000000; 0.220432;,
       0.010868; 0.072290; 0.247966;,
      -0.000173; 0.078553; 0.247966;,
      -0.000173; 0.000000; 0.214037;,
      -0.000173; 0.000000; 0.214037;,
      -0.000173; 0.078553; 0.247966;,
      -0.057898; 0.045325; 0.247966;,
      -0.079008; 0.000000; 0.247966;,
       0.048422; 0.037717; 0.126043;,
       0.058407; 0.045325; 0.247966;,
       0.079888; 0.000000; 0.247966;,
       0.058407; 0.000000; 0.126043;,
      -0.047913; 0.037717; 0.126043;,
      -0.057898; 0.045325; 0.247966;,
      -0.000173; 0.078553; 0.247966;,
      -0.000173; 0.056774; 0.168053;,
      -0.000173; 0.054989; 0.161504;,
      -0.000173; 0.045325; 0.126043;,
       0.079888; 0.000000; 0.247966;,
       0.058407; 0.045325; 0.247966;,
       0.010868; 0.072290; 0.247966;,
       0.014916; 0.000000; 0.220432;,
       0.000000; 0.026646; 0.111804;,
      -0.000173; 0.045325; 0.126043;,
       0.008986; 0.043891; 0.126043;,
       0.004332; 0.026646; 0.111804;,
      -0.000173; 0.045325; 0.126043;,
      -0.000173; 0.054989; 0.161504;,
       0.009532; 0.052134; 0.161434;,
       0.008986; 0.043891; 0.126043;,
       0.000000; 0.026646; 0.011365;,
       0.000000; 0.053292; 0.011365;,
       0.004332; 0.053292; 0.011365;,
       0.004332; 0.026646; 0.011365;,
       0.000000; 0.000000; 0.011365;,
       0.000000; 0.026646; 0.011365;,
       0.004332; 0.026646; 0.011365;,
       0.004332; 0.000000; 0.011365;,
       0.013063; 0.014638; 0.052323;,
       0.022985; 0.053292; 0.044955;,
       0.004332; 0.053292; 0.044955;,
       0.002816; 0.014638; 0.052323;,
       0.022985; 0.053292; 0.011365;,
       0.004332; 0.053292; 0.011365;,
       0.004332; 0.053292; 0.044955;,
       0.022985; 0.053292; 0.044955;,
       0.000436; 0.014638; 0.052323;,
       0.000000; 0.026646; 0.111804;,
       0.004332; 0.026646; 0.111804;,
       0.002816; 0.014638; 0.052323;,
       0.017730; 0.080335; 0.161645;,
       0.019638; 0.092424; 0.211424;,
       0.009825; 0.095439; 0.211068;,
       0.007917; 0.083349; 0.161289;,
       0.009532; 0.052134; 0.161434;,
       0.017623; 0.078710; 0.154670;,
       0.017730; 0.080335; 0.161645;,
       0.009640; 0.053759; 0.168409;,
      -0.000173; 0.056774; 0.168053;,
      -0.000173; 0.078553; 0.247966;,
       0.010868; 0.072290; 0.247966;,
       0.009640; 0.053759; 0.168409;,
      -0.000173; 0.054989; 0.161504;,
       0.007917; 0.081565; 0.154740;,
       0.017623; 0.078710; 0.154670;,
       0.009532; 0.052134; 0.161434;,
      -0.000173; 0.056774; 0.168053;,
       0.007917; 0.083349; 0.161289;,
       0.007917; 0.081565; 0.154740;,
      -0.000173; 0.054989; 0.161504;,
       0.009640; 0.053759; 0.168409;,
       0.017730; 0.080335; 0.161645;,
       0.007917; 0.083349; 0.161289;,
      -0.000173; 0.056774; 0.168053;,
       0.010547; 0.086184; 0.155113;,
       0.009562; 0.088750; 0.159915;,
       0.019374; 0.085736; 0.160271;,
       0.020252; 0.083330; 0.155042;,
       0.007917; 0.081565; 0.154740;,
       0.010547; 0.086184; 0.155113;,
       0.020252; 0.083330; 0.155042;,
       0.017623; 0.078710; 0.154670;,
       0.017623; 0.078710; 0.154670;,
       0.020252; 0.083330; 0.155042;,
       0.019374; 0.085736; 0.160271;,
       0.017730; 0.080335; 0.161645;,
       0.007917; 0.083349; 0.161289;,
       0.009562; 0.088750; 0.159915;,
       0.010547; 0.086184; 0.155113;,
       0.007917; 0.081565; 0.154740;,
       0.009825; 0.095439; 0.211068;,
       0.010056; 0.096898; 0.217078;,
       0.012569; 0.101023; 0.214702;,
       0.011470; 0.100839; 0.209693;,
       0.007917; 0.083349; 0.161289;,
       0.009825; 0.095439; 0.211068;,
       0.011470; 0.100839; 0.209693;,
       0.009562; 0.088750; 0.159915;,
       0.019374; 0.085736; 0.160271;,
       0.021283; 0.097825; 0.210049;,
       0.019638; 0.092424; 0.211424;,
       0.017730; 0.080335; 0.161645;,
       0.009562; 0.088750; 0.159915;,
       0.011470; 0.100839; 0.209693;,
       0.021283; 0.097825; 0.210049;,
       0.019374; 0.085736; 0.160271;,
       0.019869; 0.093883; 0.217434;,
       0.022382; 0.098008; 0.215058;,
       0.012569; 0.101023; 0.214702;,
       0.010056; 0.096898; 0.217078;,
       0.009825; 0.095439; 0.211068;,
      -0.000021; 0.064325; 0.219002;,
       0.000209; 0.065784; 0.225012;,
       0.010056; 0.096898; 0.217078;,
       0.021283; 0.097825; 0.210049;,
       0.022382; 0.098008; 0.215058;,
       0.019869; 0.093883; 0.217434;,
       0.019638; 0.092424; 0.211424;,
       0.011470; 0.100839; 0.209693;,
       0.012569; 0.101023; 0.214702;,
       0.022382; 0.098008; 0.215058;,
       0.021283; 0.097825; 0.210049;,
       0.009792; 0.061310; 0.219358;,
       0.010022; 0.062769; 0.225368;,
       0.000209; 0.065784; 0.225012;,
      -0.000021; 0.064325; 0.219002;,
       0.019638; 0.092424; 0.211424;,
       0.009792; 0.061310; 0.219358;,
      -0.000021; 0.064325; 0.219002;,
       0.009825; 0.095439; 0.211068;,
       0.019869; 0.093883; 0.217434;,
       0.010022; 0.062769; 0.225368;,
       0.009792; 0.061310; 0.219358;,
       0.019638; 0.092424; 0.211424;,
       0.010056; 0.096898; 0.217078;,
       0.000209; 0.065784; 0.225012;,
       0.010022; 0.062769; 0.225368;,
       0.019869; 0.093883; 0.217434;;
      146;
      4;3,2,1,0;,
      4;7,6,5,4;,
      4;11,10,9,8;,
      4;15,14,13,12;,
      4;19,18,17,16;,
      4;23,22,21,20;,
      4;27,26,25,24;,
      4;31,30,29,28;,
      4;35,34,33,32;,
      4;39,38,37,36;,
      4;43,42,41,40;,
      4;47,46,45,44;,
      4;51,50,49,48;,
      4;55,54,53,52;,
      4;59,58,57,56;,
      4;63,62,61,60;,
      4;67,66,65,64;,
      4;71,70,69,68;,
      4;75,74,73,72;,
      4;79,78,77,76;,
      4;83,82,81,80;,
      4;87,86,85,84;,
      4;91,90,89,88;,
      4;95,94,93,92;,
      4;99,98,97,96;,
      4;103,102,101,100;,
      4;107,106,105,104;,
      4;111,110,109,108;,
      4;115,114,113,112;,
      4;119,118,117,116;,
      4;123,122,121,120;,
      4;127,126,125,124;,
      4;131,130,129,128;,
      4;135,134,133,132;,
      6;141,140,139,138,137,136;,
      4;145,144,143,142;,
      4;149,148,147,146;,
      4;153,152,151,150;,
      4;157,156,155,154;,
      4;161,160,159,158;,
      4;165,164,163,162;,
      4;169,168,167,166;,
      4;173,172,171,170;,
      4;177,176,175,174;,
      4;181,180,179,178;,
      6;187,186,185,184,183,182;,
      4;191,190,189,188;,
      4;195,194,193,192;,
      4;199,198,197,196;,
      4;203,202,201,200;,
      4;207,206,205,204;,
      4;211,210,209,208;,
      4;215,214,213,212;,
      4;219,218,217,216;,
      4;223,222,221,220;,
      4;227,226,225,224;,
      4;231,230,229,228;,
      4;235,234,233,232;,
      4;239,238,237,236;,
      4;243,242,241,240;,
      4;247,246,245,244;,
      4;251,250,249,248;,
      4;255,254,253,252;,
      4;259,258,257,256;,
      4;263,262,261,260;,
      4;267,266,265,264;,
      4;271,270,269,268;,
      4;275,274,273,272;,
      4;279,278,277,276;,
      4;283,282,281,280;,
      4;287,286,285,284;,
      4;291,290,289,288;,
      4;295,294,293,292;,
      4;299,298,297,296;,
      4;303,302,301,300;,
      4;307,306,305,304;,
      4;311,310,309,308;,
      4;315,314,313,312;,
      4;319,318,317,316;,
      4;323,322,321,320;,
      4;327,326,325,324;,
      4;331,330,329,328;,
      4;335,334,333,332;,
      4;339,338,337,336;,
      4;343,342,341,340;,
      4;347,346,345,344;,
      4;351,350,349,348;,
      4;355,354,353,352;,
      4;359,358,357,356;,
      4;363,362,361,360;,
      4;367,366,365,364;,
      4;371,370,369,368;,
      4;375,374,373,372;,
      4;379,378,377,376;,
      4;383,382,381,380;,
      4;387,386,385,384;,
      4;391,390,389,388;,
      4;395,394,393,392;,
      4;399,398,397,396;,
      4;403,402,401,400;,
      4;407,406,405,404;,
      4;411,410,409,408;,
      4;415,414,413,412;,
      4;419,418,417,416;,
      4;423,422,421,420;,
      4;427,426,425,424;,
      4;431,430,429,428;,
      6;437,436,435,434,433,432;,
      4;441,440,439,438;,
      4;445,444,443,442;,
      4;449,448,447,446;,
      4;453,452,451,450;,
      4;457,456,455,454;,
      4;461,460,459,458;,
      4;465,464,463,462;,
      6;471,470,469,468,467,466;,
      4;475,474,473,472;,
      4;479,478,477,476;,
      4;483,482,481,480;,
      4;487,486,485,484;,
      4;491,490,489,488;,
      4;495,494,493,492;,
      4;499,498,497,496;,
      4;503,502,501,500;,
      4;507,506,505,504;,
      4;511,510,509,508;,
      4;515,514,513,512;,
      4;519,518,517,516;,
      4;523,522,521,520;,
      4;527,526,525,524;,
      4;531,530,529,528;,
      4;535,534,533,532;,
      4;539,538,537,536;,
      4;543,542,541,540;,
      4;547,546,545,544;,
      4;551,550,549,548;,
      4;555,554,553,552;,
      4;559,558,557,556;,
      4;563,562,561,560;,
      4;567,566,565,564;,
      4;571,570,569,568;,
      4;575,574,573,572;,
      4;579,578,577,576;,
      4;583,582,581,580;,
      4;587,586,585,584;,
      4;591,590,589,588;;
      MeshNormals {
        146;
        -0.176143;-0.154161; 0.972218;,
        -0.424126;-0.905603; 0.000000;,
        -1.000000;-0.000000; 0.000000;,
         0.092163;-0.079500;-0.992565;,
         0.916616;-0.399768; 0.000000;,
         0.000000; 1.000000; 0.000000;,
         1.000000;-0.000000; 0.000000;,
         0.000000; 0.000000;-1.000000;,
        -0.946588;-0.322446; 0.000000;,
        -0.212005; 0.000000; 0.977269;,
         0.000000;-0.980225;-0.197888;,
         0.000000; 0.000000;-1.000000;,
         0.000000; 1.000000; 0.000000;,
         0.000000; 0.000000;-1.000000;,
         0.000000;-1.000000; 0.000000;,
         0.000000;-0.187240; 0.982314;,
         0.194120;-0.167449; 0.966581;,
         0.506990;-0.861952; 0.000000;,
         0.218489; 0.000000; 0.975839;,
         0.000000; 0.000000;-1.000000;,
         0.000000; 1.000000; 0.000000;,
         0.000000; 0.000000;-1.000000;,
        -0.074700;-0.065378;-0.995061;,
         0.000000; 1.000000; 0.000000;,
         0.000000; 0.000000;-1.000000;,
         0.000000; 1.000000; 0.000000;,
         0.000000;-1.000000; 0.000000;,
         0.000000;-0.187240; 0.982314;,
         0.413370;-0.064129;-0.908302;,
         0.000000; 1.000000; 0.000000;,
         0.000000; 1.000000; 0.000000;,
        -0.984367; 0.000000;-0.176130;,
         0.986370; 0.000000;-0.164542;,
         0.000000;-0.980225;-0.197888;,
         0.351827;-0.923398;-0.153472;,
        -0.928642;-0.347727;-0.129267;,
         0.000000; 1.000000; 0.000000;,
        -0.071050;-0.657386;-0.750197;,
        -0.415267;-0.064423;-0.907416;,
         0.071078;-0.668773;-0.740061;,
        -0.303122; 0.366561; 0.879631;,
         0.298000; 0.299070; 0.906506;,
         0.000000; 1.000000; 0.000000;,
         0.927110;-0.351301;-0.130596;,
         0.000000; 1.000000; 0.000000;,
        -0.355911;-0.919202;-0.168506;,
         0.000000; 1.000000; 0.000000;,
        -0.290602; 0.277460; 0.915733;,
         0.065350;-0.614880;-0.785909;,
         0.000000; 1.000000; 0.000000;,
         0.214296;-0.946596;-0.240902;,
         0.000000; 1.000000; 0.000000;,
         0.000000; 0.000000;-1.000000;,
         0.000000; 1.000000; 0.000000;,
         0.000000; 0.000000;-1.000000;,
         0.000000;-0.187240; 0.982314;,
         0.000000;-1.000000; 0.000000;,
         0.000000;-0.980225;-0.197888;,
        -0.293183; 0.926413; 0.236225;,
         0.958932; 0.279155; 0.050221;,
         0.399040;-0.888239;-0.227595;,
        -0.073220; 0.225008;-0.971602;,
        -0.959117;-0.273053;-0.074415;,
         0.037222;-0.235834; 0.971080;,
         0.270761;-0.881571;-0.386681;,
         0.014067;-0.072386;-0.997277;,
         0.911207; 0.370607; 0.179867;,
        -0.905368;-0.364285;-0.218187;,
        -0.908425;-0.415314; 0.047728;,
        -0.958405;-0.283597;-0.032137;,
         0.958405; 0.283597; 0.032137;,
         0.293184;-0.926413;-0.236225;,
         0.105273;-0.447534; 0.888049;,
        -0.955331;-0.293497;-0.034659;,
         0.908425; 0.415314;-0.047728;,
         0.295514;-0.950127;-0.099655;,
        -0.293183; 0.926413; 0.236225;,
        -0.037224; 0.235835;-0.971080;,
         0.955332; 0.293497; 0.034660;,
         0.037224;-0.235835; 0.971080;,
        -0.176143; 0.154161; 0.972218;,
        -0.424126; 0.905603; 0.000000;,
        -1.000000; 0.000000;-0.000000;,
         0.092163; 0.079500;-0.992565;,
         0.916616; 0.399768; 0.000000;,
         1.000000; 0.000000; 0.000000;,
        -0.000000; 0.000000;-1.000000;,
        -0.946588; 0.322446; 0.000000;,
        -0.212005; 0.000000; 0.977269;,
         0.000000; 0.980225;-0.197888;,
        -0.000000; 0.000000;-1.000000;,
        -0.000000; 0.000000;-1.000000;,
         0.000000; 1.000000; 0.000000;,
         0.000000; 0.187240; 0.982314;,
         0.194120; 0.167449; 0.966581;,
         0.506990; 0.861952; 0.000000;,
         0.218489; 0.000000; 0.975839;,
        -0.000000; 0.000000;-1.000000;,
        -0.000000; 0.000000;-1.000000;,
        -0.074700; 0.065378;-0.995061;,
        -0.000000; 0.000000;-1.000000;,
         0.000000; 1.000000; 0.000000;,
         0.000000; 0.187240; 0.982314;,
         0.413370; 0.064129;-0.908302;,
        -0.984367; 0.000000;-0.176130;,
         0.986370; 0.000000;-0.164542;,
         0.000000; 0.980225;-0.197888;,
         0.351827; 0.923398;-0.153472;,
        -0.928642; 0.347727;-0.129267;,
        -0.071050; 0.657386;-0.750197;,
        -0.415267; 0.064423;-0.907416;,
         0.071078; 0.668773;-0.740061;,
        -0.303122;-0.366561; 0.879631;,
         0.298000;-0.299070; 0.906506;,
         0.927110; 0.351301;-0.130596;,
        -0.355911; 0.919202;-0.168506;,
        -0.290602;-0.277460; 0.915733;,
         0.065350; 0.614880;-0.785909;,
         0.214296; 0.946596;-0.240902;,
        -0.000000; 0.000000;-1.000000;,
        -0.000000; 0.000000;-1.000000;,
         0.000000; 0.187240; 0.982314;,
         0.000000; 1.000000; 0.000000;,
         0.000000; 0.980225;-0.197888;,
        -0.293183;-0.926413; 0.236225;,
         0.958932;-0.279155; 0.050221;,
         0.399040; 0.888239;-0.227595;,
        -0.073220;-0.225008;-0.971602;,
        -0.959117; 0.273053;-0.074415;,
         0.037222; 0.235834; 0.971080;,
         0.270761; 0.881571;-0.386681;,
         0.014067; 0.072386;-0.997277;,
         0.911207;-0.370607; 0.179867;,
        -0.905368; 0.364285;-0.218187;,
        -0.908425; 0.415314; 0.047728;,
        -0.958405; 0.283597;-0.032137;,
         0.958405;-0.283597; 0.032137;,
         0.293184; 0.926413;-0.236225;,
         0.105273; 0.447534; 0.888049;,
        -0.955331; 0.293497;-0.034659;,
         0.908425;-0.415314;-0.047728;,
         0.295514; 0.950127;-0.099655;,
        -0.293183;-0.926413; 0.236225;,
        -0.037224;-0.235835;-0.971080;,
         0.955332;-0.293497; 0.034660;,
         0.037224; 0.235835; 0.971080;;
        146;
        4;0,0,0,0;,
        4;1,1,1,1;,
        4;2,2,2,2;,
        4;3,3,3,3;,
        4;4,4,4,4;,
        4;5,5,5,5;,
        4;6,6,6,6;,
        4;7,7,7,7;,
        4;8,8,8,8;,
        4;9,9,9,9;,
        4;10,10,10,10;,
        4;11,11,11,11;,
        4;12,12,12,12;,
        4;13,13,13,13;,
        4;14,14,14,14;,
        4;15,15,15,15;,
        4;16,16,16,16;,
        4;17,17,17,17;,
        4;18,18,18,18;,
        4;19,19,19,19;,
        4;20,20,20,20;,
        4;21,21,21,21;,
        4;22,22,22,22;,
        4;23,23,23,23;,
        4;24,24,24,24;,
        4;25,25,25,25;,
        4;26,26,26,26;,
        4;27,27,27,27;,
        4;28,28,28,28;,
        4;29,29,29,29;,
        4;30,30,30,30;,
        4;31,31,31,31;,
        4;32,32,32,32;,
        4;33,33,33,33;,
        6;34,34,34,34,34,34;,
        4;35,35,35,35;,
        4;36,36,36,36;,
        4;37,37,37,37;,
        4;38,38,38,38;,
        4;39,39,39,39;,
        4;40,40,40,40;,
        4;41,41,41,41;,
        4;42,42,42,42;,
        4;43,43,43,43;,
        4;44,44,44,44;,
        6;45,45,45,45,45,45;,
        4;46,46,46,46;,
        4;47,47,47,47;,
        4;48,48,48,48;,
        4;49,49,49,49;,
        4;50,50,50,50;,
        4;51,51,51,51;,
        4;52,52,52,52;,
        4;53,53,53,53;,
        4;54,54,54,54;,
        4;55,55,55,55;,
        4;56,56,56,56;,
        4;57,57,57,57;,
        4;58,58,58,58;,
        4;59,59,59,59;,
        4;60,60,60,60;,
        4;61,61,61,61;,
        4;62,62,62,62;,
        4;63,63,63,63;,
        4;64,64,64,64;,
        4;65,65,65,65;,
        4;66,66,66,66;,
        4;67,67,67,67;,
        4;68,68,68,68;,
        4;69,69,69,69;,
        4;70,70,70,70;,
        4;71,71,71,71;,
        4;72,72,72,72;,
        4;73,73,73,73;,
        4;74,74,74,74;,
        4;75,75,75,75;,
        4;76,76,76,76;,
        4;77,77,77,77;,
        4;78,78,78,78;,
        4;79,79,79,79;,
        4;80,80,80,80;,
        4;81,81,81,81;,
        4;82,82,82,82;,
        4;83,83,83,83;,
        4;84,84,84,84;,
        4;85,85,85,85;,
        4;86,86,86,86;,
        4;87,87,87,87;,
        4;88,88,88,88;,
        4;89,89,89,89;,
        4;90,90,90,90;,
        4;91,91,91,91;,
        4;92,92,92,92;,
        4;93,93,93,93;,
        4;94,94,94,94;,
        4;95,95,95,95;,
        4;96,96,96,96;,
        4;97,97,97,97;,
        4;98,98,98,98;,
        4;99,99,99,99;,
        4;100,100,100,100;,
        4;101,101,101,101;,
        4;102,102,102,102;,
        4;103,103,103,103;,
        4;104,104,104,104;,
        4;105,105,105,105;,
        4;106,106,106,106;,
        6;107,107,107,107,107,107;,
        4;108,108,108,108;,
        4;109,109,109,109;,
        4;110,110,110,110;,
        4;111,111,111,111;,
        4;112,112,112,112;,
        4;113,113,113,113;,
        4;114,114,114,114;,
        6;115,115,115,115,115,115;,
        4;116,116,116,116;,
        4;117,117,117,117;,
        4;118,118,118,118;,
        4;119,119,119,119;,
        4;120,120,120,120;,
        4;121,121,121,121;,
        4;122,122,122,122;,
        4;123,123,123,123;,
        4;124,124,124,124;,
        4;125,125,125,125;,
        4;126,126,126,126;,
        4;127,127,127,127;,
        4;128,128,128,128;,
        4;129,129,129,129;,
        4;130,130,130,130;,
        4;131,131,131,131;,
        4;132,132,132,132;,
        4;133,133,133,133;,
        4;134,134,134,134;,
        4;135,135,135,135;,
        4;136,136,136,136;,
        4;137,137,137,137;,
        4;138,138,138,138;,
        4;139,139,139,139;,
        4;140,140,140,140;,
        4;141,141,141,141;,
        4;142,142,142,142;,
        4;143,143,143,143;,
        4;144,144,144,144;,
        4;145,145,145,145;;
      }
      MeshTextureCoords {
        592;
         0.129235; 0.217713;,
         0.161566; 0.217713;,
         0.151894; 0.190460;,
         0.127870; 0.178898;,
         0.762864; 0.881739;,
         0.811694; 0.881928;,
         0.807310; 0.857962;,
         0.765753; 0.857801;,
         0.731717; 0.437995;,
         0.780584; 0.437995;,
         0.780584; 0.399180;,
         0.731717; 0.399180;,
         0.417660; 0.347411;,
         0.451129; 0.347403;,
         0.440031; 0.321722;,
         0.417660; 0.308597;,
         0.733316; 0.599048;,
         0.782243; 0.599048;,
         0.778272; 0.573329;,
         0.737599; 0.573329;,
         0.111733; 0.971276;,
         0.111689; 0.911616;,
         0.078270; 0.922348;,
         0.078306; 0.971276;,
         0.733316; 0.637863;,
         0.782243; 0.637863;,
         0.782243; 0.599048;,
         0.733316; 0.599048;,
         0.417660; 0.386225;,
         0.451129; 0.386217;,
         0.451129; 0.347403;,
         0.417660; 0.347411;,
         0.734879; 0.465248;,
         0.776468; 0.465248;,
         0.780584; 0.437995;,
         0.731717; 0.437995;,
         0.129235; 0.256528;,
         0.161566; 0.256528;,
         0.161566; 0.217713;,
         0.129235; 0.217713;,
         0.877265; 0.465096;,
         0.904388; 0.464990;,
         0.904388; 0.378526;,
         0.877265; 0.378631;,
         0.351210; 0.386240;,
         0.384191; 0.386232;,
         0.384191; 0.347419;,
         0.351210; 0.347426;,
         0.178097; 0.971276;,
         0.178053; 0.911616;,
         0.145115; 0.911616;,
         0.145159; 0.971276;,
         0.351210; 0.347426;,
         0.384191; 0.347419;,
         0.384191; 0.308605;,
         0.351210; 0.308613;,
         0.762864; 0.920972;,
         0.811694; 0.921161;,
         0.811694; 0.914862;,
         0.762864; 0.914673;,
         0.090250; 0.217713;,
         0.096509; 0.217713;,
         0.095145; 0.178898;,
         0.088886; 0.178898;,
         0.028724; 0.217713;,
         0.063299; 0.217713;,
         0.061934; 0.178898;,
         0.039325; 0.191994;,
         0.766136; 0.971118;,
         0.806728; 0.971276;,
         0.811694; 0.948284;,
         0.762864; 0.948095;,
         0.028724; 0.256528;,
         0.063299; 0.256528;,
         0.063299; 0.217713;,
         0.028724; 0.217713;,
         0.390499; 0.386231;,
         0.417660; 0.386225;,
         0.417660; 0.347411;,
         0.390499; 0.347417;,
         0.138859; 0.971276;,
         0.138815; 0.911616;,
         0.111689; 0.911616;,
         0.111733; 0.971276;,
         0.390499; 0.347417;,
         0.417660; 0.347411;,
         0.417660; 0.308597;,
         0.390499; 0.308604;,
         0.317253; 0.347434;,
         0.351210; 0.347426;,
         0.351210; 0.308613;,
         0.326634; 0.320211;,
         0.212012; 0.971276;,
         0.211976; 0.922348;,
         0.178053; 0.911616;,
         0.178097; 0.971276;,
         0.317253; 0.386248;,
         0.351210; 0.386240;,
         0.351210; 0.347426;,
         0.317253; 0.347434;,
         0.145115; 0.911616;,
         0.178053; 0.911616;,
         0.177989; 0.824978;,
         0.145051; 0.824978;,
         0.762864; 0.914673;,
         0.811694; 0.914862;,
         0.811694; 0.881928;,
         0.762864; 0.881739;,
         0.096509; 0.217713;,
         0.129235; 0.217713;,
         0.127870; 0.178898;,
         0.095145; 0.178898;,
         0.575654; 0.343418;,
         0.613999; 0.349432;,
         0.622241; 0.297930;,
         0.565714; 0.303782;,
         0.145051; 0.824978;,
         0.177989; 0.824978;,
         0.229236; 0.804237;,
         0.145288; 0.804237;,
         0.138815; 0.911616;,
         0.145115; 0.911616;,
         0.145051; 0.824978;,
         0.138751; 0.824978;,
         0.356068; 0.251149;,
         0.394883; 0.251149;,
         0.394883; 0.164618;,
         0.356068; 0.164618;,
         0.731717; 0.275664;,
         0.770532; 0.275664;,
         0.770532; 0.189027;,
         0.731717; 0.189027;,
         0.838032; 0.465248;,
         0.870966; 0.465120;,
         0.870966; 0.378656;,
         0.838032; 0.378783;,
         0.389679; 0.521897;,
         0.331797; 0.521316;,
         0.317253; 0.699266;,
         0.388726; 0.701807;,
         0.389348; 0.584413;,
         0.389402; 0.574120;,
         0.609843; 0.523444;,
         0.554901; 0.522696;,
         0.543818; 0.700815;,
         0.609843; 0.702397;,
         0.138751; 0.824978;,
         0.145051; 0.824978;,
         0.145288; 0.804237;,
         0.129231; 0.804237;,
         0.565374; 0.409067;,
         0.570476; 0.376484;,
         0.543819; 0.371975;,
         0.544011; 0.442371;,
         0.603718; 0.415081;,
         0.565374; 0.409067;,
         0.544011; 0.442371;,
         0.596039; 0.465248;,
         0.571452; 0.370252;,
         0.575654; 0.343418;,
         0.565714; 0.303782;,
         0.547945; 0.359122;,
         0.429940; 0.842744;,
         0.419704; 0.860643;,
         0.515918; 0.922901;,
         0.515918; 0.904524;,
         0.419704; 0.860643;,
         0.360040; 0.964978;,
         0.432496; 0.971276;,
         0.515918; 0.922901;,
         0.145288; 0.804237;,
         0.229236; 0.804237;,
         0.259804; 0.626646;,
         0.145193; 0.676067;,
         0.584448; 0.971074;,
         0.639391; 0.971276;,
         0.639391; 0.794122;,
         0.573366; 0.793687;,
         0.129231; 0.804237;,
         0.145288; 0.804237;,
         0.145193; 0.676067;,
         0.123242; 0.666752;,
         0.471877; 0.521316;,
         0.403121; 0.522032;,
         0.403763; 0.574492;,
         0.403881; 0.584179;,
         0.405326; 0.702397;,
         0.486370; 0.699266;,
         0.060095; 0.804237;,
         0.129231; 0.804237;,
         0.123242; 0.666752;,
         0.028724; 0.626645;,
         0.474011; 0.765677;,
         0.429940; 0.842744;,
         0.515918; 0.904524;,
         0.515918; 0.825397;,
         0.570476; 0.376484;,
         0.571452; 0.370252;,
         0.547945; 0.359122;,
         0.543819; 0.371975;,
         0.111625; 0.824978;,
         0.138751; 0.824978;,
         0.129231; 0.804237;,
         0.060095; 0.804237;,
         0.403121; 0.522032;,
         0.389679; 0.521897;,
         0.389402; 0.574120;,
         0.403763; 0.574492;,
         0.111689; 0.911616;,
         0.138815; 0.911616;,
         0.138751; 0.824978;,
         0.111625; 0.824978;,
         0.384191; 0.347419;,
         0.390499; 0.347417;,
         0.390499; 0.308604;,
         0.384191; 0.308605;,
         0.145159; 0.971276;,
         0.145115; 0.911616;,
         0.138815; 0.911616;,
         0.138859; 0.971276;,
         0.384191; 0.386232;,
         0.390499; 0.386231;,
         0.390499; 0.347417;,
         0.384191; 0.347419;,
         0.063299; 0.217713;,
         0.090250; 0.217713;,
         0.088886; 0.178898;,
         0.061934; 0.178898;,
         0.762864; 0.948095;,
         0.811694; 0.948284;,
         0.811694; 0.921161;,
         0.762864; 0.920972;,
         0.870966; 0.465120;,
         0.877265; 0.465096;,
         0.877265; 0.378631;,
         0.870966; 0.378656;,
         0.664703; 0.167727;,
         0.650195; 0.166903;,
         0.650195; 0.239658;,
         0.664703; 0.240482;,
         0.876075; 0.877137;,
         0.875977; 0.887567;,
         0.915960; 0.886976;,
         0.916058; 0.876546;,
         0.403881; 0.584179;,
         0.389348; 0.584413;,
         0.388726; 0.701807;,
         0.405326; 0.702397;,
         0.104054; 0.121449;,
         0.118770; 0.120871;,
         0.117277; 0.080431;,
         0.102561; 0.081009;,
         0.738574; 0.120722;,
         0.738304; 0.130594;,
         0.778389; 0.131579;,
         0.778659; 0.121707;,
         0.942978; 0.818788;,
         0.957755; 0.819098;,
         0.957755; 0.778279;,
         0.942978; 0.777969;,
         0.220818; 0.334136;,
         0.235183; 0.334158;,
         0.233537; 0.326369;,
         0.219014; 0.326956;,
         0.102561; 0.081009;,
         0.117277; 0.080431;,
         0.118770; 0.072829;,
         0.104054; 0.073408;,
         0.916058; 0.876546;,
         0.915960; 0.886976;,
         0.924085; 0.886856;,
         0.922482; 0.878611;,
         0.778659; 0.121707;,
         0.778389; 0.131579;,
         0.784846; 0.129651;,
         0.786806; 0.121907;,
         0.778659; 0.047318;,
         0.786806; 0.047518;,
         0.785360; 0.040457;,
         0.778659; 0.038337;,
         0.778659; 0.121707;,
         0.786806; 0.121907;,
         0.786806; 0.047518;,
         0.778659; 0.047318;,
         0.924085; 0.886856;,
         0.915960; 0.886976;,
         0.915960; 0.961552;,
         0.924085; 0.961432;,
         0.219014; 0.326956;,
         0.233537; 0.326369;,
         0.233750; 0.252842;,
         0.219226; 0.253429;,
         0.883890; 0.812028;,
         0.869142; 0.811054;,
         0.870782; 0.818124;,
         0.885530; 0.819098;,
         0.778659; 0.047318;,
         0.778659; 0.038337;,
         0.731717; 0.037136;,
         0.731717; 0.046118;,
         0.924085; 0.961432;,
         0.915960; 0.961552;,
         0.915960; 0.970556;,
         0.922627; 0.968562;,
         0.219226; 0.253429;,
         0.233750; 0.252842;,
         0.235183; 0.245507;,
         0.220660; 0.246094;,
         0.762864; 0.785821;,
         0.762864; 0.800353;,
         0.771634; 0.799854;,
         0.771634; 0.785323;,
         0.317252; 0.107170;,
         0.332215; 0.107150;,
         0.332215; 0.059613;,
         0.317252; 0.059634;,
         0.915960; 0.970556;,
         0.915960; 0.961552;,
         0.869142; 0.962272;,
         0.869142; 0.971276;,
         0.869142; 0.811054;,
         0.883890; 0.812028;,
         0.885530; 0.764091;,
         0.870782; 0.763117;,
         0.129235; 0.295343;,
         0.127870; 0.334158;,
         0.151894; 0.322595;,
         0.161566; 0.295343;,
         0.543818; 0.215173;,
         0.547611; 0.240482;,
         0.589251; 0.240452;,
         0.592746; 0.215136;,
         0.731717; 0.360365;,
         0.731717; 0.399180;,
         0.780584; 0.399180;,
         0.780584; 0.360365;,
         0.417660; 0.425038;,
         0.417660; 0.463852;,
         0.440031; 0.450786;,
         0.451129; 0.425030;,
         0.733316; 0.676678;,
         0.737599; 0.702397;,
         0.778272; 0.702397;,
         0.782243; 0.676678;,
         0.733316; 0.637863;,
         0.733316; 0.676678;,
         0.782243; 0.676678;,
         0.782243; 0.637863;,
         0.417660; 0.386225;,
         0.417660; 0.425038;,
         0.451129; 0.425030;,
         0.451129; 0.386217;,
         0.734879; 0.333112;,
         0.731717; 0.360365;,
         0.780584; 0.360365;,
         0.776468; 0.333112;,
         0.129235; 0.256528;,
         0.129235; 0.295343;,
         0.161566; 0.295343;,
         0.161566; 0.256528;,
         0.878930; 0.615739;,
         0.878930; 0.702377;,
         0.906056; 0.702397;,
         0.906056; 0.615759;,
         0.351210; 0.386240;,
         0.351210; 0.425054;,
         0.384191; 0.425046;,
         0.384191; 0.386232;,
         0.351210; 0.425054;,
         0.351210; 0.463867;,
         0.384191; 0.463860;,
         0.384191; 0.425046;,
         0.543818; 0.175934;,
         0.543818; 0.182234;,
         0.592746; 0.182198;,
         0.592746; 0.175898;,
         0.090250; 0.295343;,
         0.088886; 0.334158;,
         0.095145; 0.334158;,
         0.096509; 0.295343;,
         0.028724; 0.295343;,
         0.039325; 0.321061;,
         0.061934; 0.334158;,
         0.063299; 0.295343;,
         0.548114; 0.127331;,
         0.543818; 0.148808;,
         0.592746; 0.148772;,
         0.588787; 0.127301;,
         0.028724; 0.256528;,
         0.028724; 0.295343;,
         0.063299; 0.295343;,
         0.063299; 0.256528;,
         0.390499; 0.386231;,
         0.390499; 0.425045;,
         0.417660; 0.425038;,
         0.417660; 0.386225;,
         0.390499; 0.425045;,
         0.390499; 0.463858;,
         0.417660; 0.463852;,
         0.417660; 0.425038;,
         0.317253; 0.425062;,
         0.326634; 0.452342;,
         0.351210; 0.463867;,
         0.351210; 0.425054;,
         0.317253; 0.386248;,
         0.317253; 0.425062;,
         0.351210; 0.425054;,
         0.351210; 0.386240;,
         0.543818; 0.182234;,
         0.543818; 0.215173;,
         0.592746; 0.215136;,
         0.592746; 0.182198;,
         0.096509; 0.295343;,
         0.095145; 0.334158;,
         0.127870; 0.334158;,
         0.129235; 0.295343;,
         0.652344; 0.355446;,
         0.674269; 0.320808;,
         0.622241; 0.297930;,
         0.613999; 0.349432;,
         0.356068; 0.251149;,
         0.356068; 0.164618;,
         0.317253; 0.164618;,
         0.317253; 0.251149;,
         0.809347; 0.275664;,
         0.809347; 0.189027;,
         0.770532; 0.189027;,
         0.770532; 0.275664;,
         0.839692; 0.615710;,
         0.839692; 0.702348;,
         0.872630; 0.702372;,
         0.872630; 0.615734;,
         0.100848; 0.569170;,
         0.099324; 0.517774;,
         0.099024; 0.507645;,
         0.095597; 0.392110;,
         0.028724; 0.391606;,
         0.044015; 0.569055;,
         0.609843; 0.523444;,
         0.609843; 0.702397;,
         0.675868; 0.700815;,
         0.664786; 0.522696;,
         0.642063; 0.421095;,
         0.652566; 0.459396;,
         0.674269; 0.392434;,
         0.647166; 0.388512;,
         0.603718; 0.415081;,
         0.596039; 0.465248;,
         0.652566; 0.459396;,
         0.642063; 0.421095;,
         0.648142; 0.382279;,
         0.674269; 0.378935;,
         0.674269; 0.320808;,
         0.652344; 0.355446;,
         0.429940; 0.842744;,
         0.333091; 0.799973;,
         0.317252; 0.809293;,
         0.419704; 0.860643;,
         0.419704; 0.860643;,
         0.317252; 0.809293;,
         0.317866; 0.905724;,
         0.360040; 0.964978;,
         0.694334; 0.971074;,
         0.705416; 0.793687;,
         0.639391; 0.794122;,
         0.639391; 0.971276;,
         0.184113; 0.569055;,
         0.197865; 0.391606;,
         0.111128; 0.392227;,
         0.113042; 0.508220;,
         0.113199; 0.517725;,
         0.114048; 0.569197;,
         0.474011; 0.765677;,
         0.401288; 0.759845;,
         0.333091; 0.799973;,
         0.429940; 0.842744;,
         0.647166; 0.388512;,
         0.674269; 0.392434;,
         0.674269; 0.378935;,
         0.648142; 0.382279;,
         0.114048; 0.569197;,
         0.113199; 0.517725;,
         0.099324; 0.517774;,
         0.100848; 0.569170;,
         0.384191; 0.425046;,
         0.384191; 0.463860;,
         0.390499; 0.463858;,
         0.390499; 0.425045;,
         0.384191; 0.386232;,
         0.384191; 0.425046;,
         0.390499; 0.425045;,
         0.390499; 0.386231;,
         0.063299; 0.295343;,
         0.061934; 0.334158;,
         0.088886; 0.334158;,
         0.090250; 0.295343;,
         0.543818; 0.148808;,
         0.543818; 0.175934;,
         0.592746; 0.175898;,
         0.592746; 0.148772;,
         0.872630; 0.615734;,
         0.872630; 0.702372;,
         0.878930; 0.702377;,
         0.878930; 0.615739;,
         0.232953; 0.186452;,
         0.232953; 0.115112;,
         0.219014; 0.116719;,
         0.219014; 0.188059;,
         0.873729; 0.275072;,
         0.913712; 0.275664;,
         0.913613; 0.265234;,
         0.873630; 0.264643;,
         0.113042; 0.508220;,
         0.111128; 0.392227;,
         0.095597; 0.392110;,
         0.099024; 0.507645;,
         0.651677; 0.060982;,
         0.650195; 0.101258;,
         0.664913; 0.101845;,
         0.666395; 0.061568;,
         0.873652; 0.039900;,
         0.913738; 0.038915;,
         0.913467; 0.029043;,
         0.873382; 0.030028;,
         0.543819; 0.029034;,
         0.543819; 0.069853;,
         0.558595; 0.069543;,
         0.558595; 0.028724;,
         0.453891; 0.163245;,
         0.452331; 0.170122;,
         0.466302; 0.171402;,
         0.467750; 0.163895;,
         0.650195; 0.101258;,
         0.651677; 0.108868;,
         0.666395; 0.109455;,
         0.664913; 0.101845;,
         0.913712; 0.275664;,
         0.920136; 0.273599;,
         0.921739; 0.265355;,
         0.913613; 0.265234;,
         0.913738; 0.038915;,
         0.921884; 0.038715;,
         0.919924; 0.030971;,
         0.913467; 0.029043;,
         0.913738; 0.113304;,
         0.913738; 0.122285;,
         0.920438; 0.120165;,
         0.921884; 0.113103;,
         0.913738; 0.038915;,
         0.913738; 0.113304;,
         0.921884; 0.113103;,
         0.921884; 0.038715;,
         0.921739; 0.265355;,
         0.921739; 0.190778;,
         0.913613; 0.190658;,
         0.913613; 0.265234;,
         0.452331; 0.170122;,
         0.452528; 0.242505;,
         0.466500; 0.243785;,
         0.466302; 0.171402;,
         0.043472; 0.072539;,
         0.045113; 0.065469;,
         0.030365; 0.066442;,
         0.028724; 0.073512;,
         0.913738; 0.113304;,
         0.866795; 0.114504;,
         0.866795; 0.123486;,
         0.913738; 0.122285;,
         0.921739; 0.190778;,
         0.920281; 0.183648;,
         0.913613; 0.181654;,
         0.913613; 0.190658;,
         0.452528; 0.242505;,
         0.453779; 0.249869;,
         0.467750; 0.251149;,
         0.466500; 0.243785;,
         0.839691; 0.557275;,
         0.848248; 0.558261;,
         0.848248; 0.544230;,
         0.839692; 0.543244;,
         0.467293; 0.105798;,
         0.467293; 0.058453;,
         0.452331; 0.058412;,
         0.452331; 0.105756;,
         0.913613; 0.181654;,
         0.866795; 0.180934;,
         0.866795; 0.189938;,
         0.913613; 0.190658;,
         0.028724; 0.073512;,
         0.030365; 0.121449;,
         0.045113; 0.120476;,
         0.043472; 0.072539;;
      }
      MeshMaterialList {
        1;
        146;
        0,
        0,
        0,
        0,
        0,
        0,
        0,
        0,
        0,
        0,
        0,
        0,
        0,
        0,
        0,
        0,
        0,
        0,
        0,
        0,
        0,
        0,
        0,
        0,
        0,
        0,
        0,
        0,
        0,
        0,
        0,
        0,
        0,
        0,
        0,
        0,
        0,
        0,
        0,
        0,
        0,
        0,
        0,
        0,
        0,
        0,
        0,
        0,
        0,
        0,
        0,
        0,
        0,
        0,
        0,
        0,
        0,
        0,
        0,
        0,
        0,
        0,
        0,
        0,
        0,
        0,
        0,
        0,
        0,
        0,
        0,
        0,
        0,
        0,
        0,
        0,
        0,
        0,
        0,
        0,
        0,
        0,
        0,
        0,
        0,
        0,
        0,
        0,
        0,
        0,
        0,
        0,
        0,
        0,
        0,
        0,
        0,
        0,
        0,
        0,
        0,
        0,
        0,
        0,
        0,
        0,
        0,
        0,
        0,
        0,
        0,
        0,
        0,
        0,
        0,
        0,
        0,
        0,
        0,
        0,
        0,
        0,
        0,
        0,
        0,
        0,
        0,
        0,
        0,
        0,
        0,
        0,
        0,
        0,
        0,
        0,
        0,
        0,
        0,
        0,
        0,
        0,
        0,
        0,
        0,
        0;
        Material Material_001 {
           0.800000; 0.800000; 0.800000; 1.000000;;
           323.999994;
           0.500000; 0.500000; 0.500000;;
           0.000000; 0.000000; 0.000000;;
          TextureFilename {"Cup.png";}
        }
      }
    }
  }
}
