xof 0303txt 0032

Frame Root {
  FrameTransformMatrix {
     1.000000, 0.000000, 0.000000, 0.000000,
     0.000000,-0.000000, 1.000000, 0.000000,
     0.000000, 1.000000, 0.000000, 0.000000,
     0.000000, 0.000000, 0.000000, 1.000000;;
  }
  Frame Cube {
    FrameTransformMatrix {
       1.000000, 0.000000, 0.000000, 0.000000,
       0.000000, 1.000000, 0.000000, 0.000000,
       0.000000, 0.000000, 1.000000, 0.000000,
       0.000000, 0.000000, 0.000000, 1.000000;;
    }
    Mesh { // Cube mesh
      368;
       0.155858;-0.027092;-0.042880;,
       0.152104;-0.028129;-0.042880;,
       0.144811;-0.037910;-0.042880;,
       0.147917;-0.043771;-0.042880;,
       0.152104;-0.028129;-0.042880;,
       0.155858;-0.027092;-0.042880;,
       0.136267; 0.043782;-0.042880;,
       0.132513; 0.042744;-0.042880;,
       0.147917;-0.043771;-0.116411;,
       0.144811;-0.037910;-0.116411;,
       0.141807;-0.016201;-0.141005;,
       0.143419;-0.019244;-0.141005;,
       0.132513; 0.042744;-0.116411;,
       0.119627; 0.050852;-0.116411;,
       0.128730; 0.029887;-0.141005;,
       0.135421; 0.025677;-0.141005;,
       0.152104;-0.028129;-0.042880;,
       0.132513; 0.042744;-0.042880;,
       0.132513; 0.042744;-0.116411;,
       0.152104;-0.028129;-0.116411;,
       0.136267; 0.043782;-0.042880;,
       0.155858;-0.027092;-0.042880;,
       0.155858;-0.027092;-0.116411;,
       0.136267; 0.043782;-0.116411;,
       0.119398; 0.057481;-0.042880;,
       0.119398; 0.057481;-0.116411;,
       0.110882; 0.055162;-0.093975;,
       0.110882; 0.055162;-0.065316;,
       0.132513; 0.042744;-0.116411;,
       0.132513; 0.042744;-0.042880;,
       0.119627; 0.050852;-0.042880;,
       0.119627; 0.050852;-0.116411;,
       0.136267; 0.043782;-0.042880;,
       0.136267; 0.043782;-0.116411;,
       0.119398; 0.057481;-0.116411;,
       0.119398; 0.057481;-0.042880;,
       0.132513; 0.042744;-0.042880;,
       0.136267; 0.043782;-0.042880;,
       0.119398; 0.057481;-0.042880;,
       0.119627; 0.050852;-0.042880;,
       0.144811;-0.037910;-0.116411;,
       0.147917;-0.043771;-0.116411;,
       0.147917;-0.043771;-0.042880;,
       0.144811;-0.037910;-0.042880;,
       0.144811;-0.037910;-0.116411;,
       0.152104;-0.028129;-0.116411;,
       0.145593;-0.011123;-0.141005;,
       0.141807;-0.016201;-0.141005;,
       0.155858;-0.027092;-0.116411;,
       0.155858;-0.027092;-0.042880;,
       0.147917;-0.043771;-0.042880;,
       0.147917;-0.043771;-0.116411;,
       0.152104;-0.028129;-0.042880;,
       0.152104;-0.028129;-0.116411;,
       0.144811;-0.037910;-0.116411;,
       0.144811;-0.037910;-0.042880;,
       0.137370; 0.026216;-0.141005;,
       0.135421; 0.025677;-0.141005;,
       0.128730; 0.029887;-0.141005;,
       0.128612; 0.033329;-0.141005;,
       0.135421; 0.025677;-0.141005;,
       0.137370; 0.026216;-0.141005;,
       0.147542;-0.010584;-0.141005;,
       0.145593;-0.011123;-0.141005;,
       0.145593;-0.011123;-0.141005;,
       0.147542;-0.010584;-0.141005;,
       0.143419;-0.019244;-0.141005;,
       0.141807;-0.016201;-0.141005;,
       0.152104;-0.028129;-0.116411;,
       0.132513; 0.042744;-0.116411;,
       0.135421; 0.025677;-0.141005;,
       0.145593;-0.011123;-0.141005;,
       0.119398; 0.057481;-0.116411;,
       0.136267; 0.043782;-0.116411;,
       0.137370; 0.026216;-0.141005;,
       0.128612; 0.033329;-0.141005;,
       0.155858;-0.027092;-0.116411;,
       0.147917;-0.043771;-0.116411;,
       0.143419;-0.019244;-0.141005;,
       0.147542;-0.010584;-0.141005;,
       0.119627; 0.050852;-0.116411;,
       0.119398; 0.057481;-0.116411;,
       0.128612; 0.033329;-0.141005;,
       0.128730; 0.029887;-0.141005;,
       0.136267; 0.043782;-0.116411;,
       0.155858;-0.027092;-0.116411;,
       0.147542;-0.010584;-0.141005;,
       0.137370; 0.026216;-0.141005;,
       0.110882; 0.055162;-0.093975;,
       0.110971; 0.052579;-0.093975;,
       0.055196; 0.052104;-0.093975;,
       0.053205; 0.053753;-0.093975;,
       0.119627; 0.050852;-0.042880;,
       0.119398; 0.057481;-0.042880;,
       0.110882; 0.055162;-0.065316;,
       0.110971; 0.052579;-0.065316;,
       0.119398; 0.057481;-0.116411;,
       0.119627; 0.050852;-0.116411;,
       0.110971; 0.052579;-0.093975;,
       0.110882; 0.055162;-0.093975;,
       0.119627; 0.050852;-0.116411;,
       0.119627; 0.050852;-0.042880;,
       0.110971; 0.052579;-0.065316;,
       0.110971; 0.052579;-0.093975;,
       0.055196; 0.052104;-0.093975;,
       0.055196; 0.052104;-0.065316;,
       0.026312; 0.017849;-0.065316;,
       0.026312; 0.017849;-0.093975;,
       0.110971; 0.052579;-0.093975;,
       0.110971; 0.052579;-0.065316;,
       0.055196; 0.052104;-0.065316;,
       0.055196; 0.052104;-0.093975;,
       0.110882; 0.055162;-0.065316;,
       0.110882; 0.055162;-0.093975;,
       0.053205; 0.053753;-0.093975;,
       0.053205; 0.053753;-0.065316;,
       0.110971; 0.052579;-0.065316;,
       0.110882; 0.055162;-0.065316;,
       0.053205; 0.053753;-0.065316;,
       0.055196; 0.052104;-0.065316;,
       0.023747; 0.017530;-0.065316;,
       0.023747; 0.017530;-0.093975;,
       0.038196;-0.069614;-0.093975;,
       0.038196;-0.069614;-0.065316;,
       0.053205; 0.053753;-0.065316;,
       0.053205; 0.053753;-0.093975;,
       0.023747; 0.017530;-0.093975;,
       0.023747; 0.017530;-0.065316;,
       0.055196; 0.052104;-0.065316;,
       0.053205; 0.053753;-0.065316;,
       0.023747; 0.017530;-0.065316;,
       0.026312; 0.017849;-0.065316;,
       0.053205; 0.053753;-0.093975;,
       0.055196; 0.052104;-0.093975;,
       0.026312; 0.017849;-0.093975;,
       0.023747; 0.017530;-0.093975;,
       0.038196;-0.069614;-0.065316;,
       0.038196;-0.069614;-0.093975;,
       0.094894;-0.075740;-0.093975;,
       0.094894;-0.075740;-0.065316;,
       0.026312; 0.017849;-0.065316;,
       0.023747; 0.017530;-0.065316;,
       0.038196;-0.069614;-0.065316;,
       0.038489;-0.067045;-0.065316;,
       0.023747; 0.017530;-0.093975;,
       0.026312; 0.017849;-0.093975;,
       0.038489;-0.067045;-0.093975;,
       0.038196;-0.069614;-0.093975;,
       0.026312; 0.017849;-0.093975;,
       0.026312; 0.017849;-0.065316;,
       0.038489;-0.067045;-0.065316;,
       0.038489;-0.067045;-0.093975;,
       0.094894;-0.075740;-0.093975;,
       0.093356;-0.073662;-0.093975;,
       0.147842;-0.031539;-0.093975;,
       0.149380;-0.033616;-0.093975;,
       0.038489;-0.067045;-0.065316;,
       0.038196;-0.069614;-0.065316;,
       0.094894;-0.075740;-0.065316;,
       0.093356;-0.073662;-0.065316;,
       0.038196;-0.069614;-0.093975;,
       0.038489;-0.067045;-0.093975;,
       0.093356;-0.073662;-0.093975;,
       0.094894;-0.075740;-0.093975;,
       0.038489;-0.067045;-0.093975;,
       0.038489;-0.067045;-0.065316;,
       0.093356;-0.073662;-0.065316;,
       0.093356;-0.073662;-0.093975;,
       0.147842;-0.031539;-0.065316;,
       0.149380;-0.033616;-0.065316;,
       0.149380;-0.033616;-0.093975;,
       0.147842;-0.031539;-0.093975;,
       0.093356;-0.073662;-0.093975;,
       0.093356;-0.073662;-0.065316;,
       0.147842;-0.031539;-0.065316;,
       0.147842;-0.031539;-0.093975;,
       0.094894;-0.075740;-0.065316;,
       0.094894;-0.075740;-0.093975;,
       0.149380;-0.033616;-0.093975;,
       0.149380;-0.033616;-0.065316;,
       0.093356;-0.073662;-0.065316;,
       0.094894;-0.075740;-0.065316;,
       0.149380;-0.033616;-0.065316;,
       0.147842;-0.031539;-0.065316;,
       0.155858;-0.027092; 0.041800;,
       0.147917;-0.043771; 0.041800;,
       0.144811;-0.037910; 0.041800;,
       0.152104;-0.028129; 0.041800;,
       0.152104;-0.028129; 0.041800;,
       0.132513; 0.042744; 0.041800;,
       0.136267; 0.043782; 0.041800;,
       0.155858;-0.027092; 0.041800;,
       0.147917;-0.043771; 0.115331;,
       0.143419;-0.019244; 0.139926;,
       0.141807;-0.016201; 0.139926;,
       0.144811;-0.037910; 0.115331;,
       0.132513; 0.042744; 0.115331;,
       0.135421; 0.025677; 0.139926;,
       0.128730; 0.029887; 0.139926;,
       0.119627; 0.050852; 0.115331;,
       0.152104;-0.028129; 0.041800;,
       0.152104;-0.028129; 0.115331;,
       0.132513; 0.042744; 0.115331;,
       0.132513; 0.042744; 0.041800;,
       0.136267; 0.043782; 0.041800;,
       0.136267; 0.043782; 0.115331;,
       0.155858;-0.027092; 0.115331;,
       0.155858;-0.027092; 0.041800;,
       0.119398; 0.057481; 0.041800;,
       0.110882; 0.055162; 0.064236;,
       0.110882; 0.055162; 0.092895;,
       0.119398; 0.057481; 0.115331;,
       0.132513; 0.042744; 0.115331;,
       0.119627; 0.050852; 0.115331;,
       0.119627; 0.050852; 0.041800;,
       0.132513; 0.042744; 0.041800;,
       0.136267; 0.043782; 0.041800;,
       0.119398; 0.057481; 0.041800;,
       0.119398; 0.057481; 0.115331;,
       0.136267; 0.043782; 0.115331;,
       0.132513; 0.042744; 0.041800;,
       0.119627; 0.050852; 0.041800;,
       0.119398; 0.057481; 0.041800;,
       0.136267; 0.043782; 0.041800;,
       0.144811;-0.037910; 0.115331;,
       0.144811;-0.037910; 0.041800;,
       0.147917;-0.043771; 0.041800;,
       0.147917;-0.043771; 0.115331;,
       0.144811;-0.037910; 0.115331;,
       0.141807;-0.016201; 0.139926;,
       0.145593;-0.011123; 0.139926;,
       0.152104;-0.028129; 0.115331;,
       0.155858;-0.027092; 0.115331;,
       0.147917;-0.043771; 0.115331;,
       0.147917;-0.043771; 0.041800;,
       0.155858;-0.027092; 0.041800;,
       0.152104;-0.028129; 0.041800;,
       0.144811;-0.037910; 0.041800;,
       0.144811;-0.037910; 0.115331;,
       0.152104;-0.028129; 0.115331;,
       0.137370; 0.026216; 0.139926;,
       0.128611; 0.033329; 0.139926;,
       0.128730; 0.029887; 0.139926;,
       0.135421; 0.025677; 0.139926;,
       0.135421; 0.025677; 0.139926;,
       0.145593;-0.011123; 0.139926;,
       0.147542;-0.010584; 0.139926;,
       0.137370; 0.026216; 0.139926;,
       0.145593;-0.011123; 0.139926;,
       0.141807;-0.016201; 0.139926;,
       0.143419;-0.019244; 0.139926;,
       0.147542;-0.010584; 0.139926;,
       0.152104;-0.028129; 0.115331;,
       0.145593;-0.011123; 0.139926;,
       0.135421; 0.025677; 0.139926;,
       0.132513; 0.042744; 0.115331;,
       0.119398; 0.057481; 0.115331;,
       0.128611; 0.033329; 0.139926;,
       0.137370; 0.026216; 0.139926;,
       0.136267; 0.043782; 0.115331;,
       0.155858;-0.027092; 0.115331;,
       0.147542;-0.010584; 0.139926;,
       0.143419;-0.019244; 0.139926;,
       0.147917;-0.043771; 0.115331;,
       0.119627; 0.050852; 0.115331;,
       0.128730; 0.029887; 0.139926;,
       0.128611; 0.033329; 0.139926;,
       0.119398; 0.057481; 0.115331;,
       0.136267; 0.043782; 0.115331;,
       0.137370; 0.026216; 0.139926;,
       0.147542;-0.010584; 0.139926;,
       0.155858;-0.027092; 0.115331;,
       0.110882; 0.055162; 0.092895;,
       0.053205; 0.053753; 0.092895;,
       0.055196; 0.052104; 0.092895;,
       0.110971; 0.052578; 0.092895;,
       0.119627; 0.050852; 0.041800;,
       0.110971; 0.052579; 0.064236;,
       0.110882; 0.055162; 0.064236;,
       0.119398; 0.057481; 0.041800;,
       0.119398; 0.057481; 0.115331;,
       0.110882; 0.055162; 0.092895;,
       0.110971; 0.052578; 0.092895;,
       0.119627; 0.050852; 0.115331;,
       0.119627; 0.050852; 0.115331;,
       0.110971; 0.052578; 0.092895;,
       0.110971; 0.052579; 0.064236;,
       0.119627; 0.050852; 0.041800;,
       0.055196; 0.052104; 0.092895;,
       0.026312; 0.017849; 0.092895;,
       0.026312; 0.017849; 0.064236;,
       0.055196; 0.052104; 0.064236;,
       0.110971; 0.052578; 0.092895;,
       0.055196; 0.052104; 0.092895;,
       0.055196; 0.052104; 0.064236;,
       0.110971; 0.052579; 0.064236;,
       0.110882; 0.055162; 0.064236;,
       0.053205; 0.053753; 0.064236;,
       0.053205; 0.053753; 0.092895;,
       0.110882; 0.055162; 0.092895;,
       0.110971; 0.052579; 0.064236;,
       0.055196; 0.052104; 0.064236;,
       0.053205; 0.053753; 0.064236;,
       0.110882; 0.055162; 0.064236;,
       0.023747; 0.017530; 0.064236;,
       0.038196;-0.069614; 0.064236;,
       0.038195;-0.069614; 0.092895;,
       0.023747; 0.017530; 0.092895;,
       0.053205; 0.053753; 0.064236;,
       0.023747; 0.017530; 0.064236;,
       0.023747; 0.017530; 0.092895;,
       0.053205; 0.053753; 0.092895;,
       0.055196; 0.052104; 0.064236;,
       0.026312; 0.017849; 0.064236;,
       0.023747; 0.017530; 0.064236;,
       0.053205; 0.053753; 0.064236;,
       0.053205; 0.053753; 0.092895;,
       0.023747; 0.017530; 0.092895;,
       0.026312; 0.017849; 0.092895;,
       0.055196; 0.052104; 0.092895;,
       0.038196;-0.069614; 0.064236;,
       0.094894;-0.075740; 0.064236;,
       0.094894;-0.075740; 0.092895;,
       0.038195;-0.069614; 0.092895;,
       0.026312; 0.017849; 0.064236;,
       0.038489;-0.067045; 0.064236;,
       0.038196;-0.069614; 0.064236;,
       0.023747; 0.017530; 0.064236;,
       0.023747; 0.017530; 0.092895;,
       0.038195;-0.069614; 0.092895;,
       0.038489;-0.067045; 0.092895;,
       0.026312; 0.017849; 0.092895;,
       0.026312; 0.017849; 0.092895;,
       0.038489;-0.067045; 0.092895;,
       0.038489;-0.067045; 0.064236;,
       0.026312; 0.017849; 0.064236;,
       0.094894;-0.075740; 0.092895;,
       0.149380;-0.033616; 0.092895;,
       0.147842;-0.031539; 0.092895;,
       0.093356;-0.073662; 0.092895;,
       0.038489;-0.067045; 0.064236;,
       0.093356;-0.073662; 0.064236;,
       0.094894;-0.075740; 0.064236;,
       0.038196;-0.069614; 0.064236;,
       0.038195;-0.069614; 0.092895;,
       0.094894;-0.075740; 0.092895;,
       0.093356;-0.073662; 0.092895;,
       0.038489;-0.067045; 0.092895;,
       0.038489;-0.067045; 0.092895;,
       0.093356;-0.073662; 0.092895;,
       0.093356;-0.073662; 0.064236;,
       0.038489;-0.067045; 0.064236;,
       0.147842;-0.031539; 0.064236;,
       0.147842;-0.031539; 0.092895;,
       0.149380;-0.033616; 0.092895;,
       0.149380;-0.033616; 0.064236;,
       0.093356;-0.073662; 0.092895;,
       0.147842;-0.031539; 0.092895;,
       0.147842;-0.031539; 0.064236;,
       0.093356;-0.073662; 0.064236;,
       0.094894;-0.075740; 0.064236;,
       0.149380;-0.033616; 0.064236;,
       0.149380;-0.033616; 0.092895;,
       0.094894;-0.075740; 0.092895;,
       0.093356;-0.073662; 0.064236;,
       0.147842;-0.031539; 0.064236;,
       0.149380;-0.033616; 0.064236;,
       0.094894;-0.075740; 0.064236;;
      92;
      4;3,2,1,0;,
      4;7,6,5,4;,
      4;11,10,9,8;,
      4;15,14,13,12;,
      4;19,18,17,16;,
      4;23,22,21,20;,
      4;27,26,25,24;,
      4;31,30,29,28;,
      4;35,34,33,32;,
      4;39,38,37,36;,
      4;43,42,41,40;,
      4;47,46,45,44;,
      4;51,50,49,48;,
      4;55,54,53,52;,
      4;59,58,57,56;,
      4;63,62,61,60;,
      4;67,66,65,64;,
      4;71,70,69,68;,
      4;75,74,73,72;,
      4;79,78,77,76;,
      4;83,82,81,80;,
      4;87,86,85,84;,
      4;91,90,89,88;,
      4;95,94,93,92;,
      4;99,98,97,96;,
      4;103,102,101,100;,
      4;107,106,105,104;,
      4;111,110,109,108;,
      4;115,114,113,112;,
      4;119,118,117,116;,
      4;123,122,121,120;,
      4;127,126,125,124;,
      4;131,130,129,128;,
      4;135,134,133,132;,
      4;139,138,137,136;,
      4;143,142,141,140;,
      4;147,146,145,144;,
      4;151,150,149,148;,
      4;155,154,153,152;,
      4;159,158,157,156;,
      4;163,162,161,160;,
      4;167,166,165,164;,
      4;171,170,169,168;,
      4;175,174,173,172;,
      4;179,178,177,176;,
      4;183,182,181,180;,
      4;187,186,185,184;,
      4;191,190,189,188;,
      4;195,194,193,192;,
      4;199,198,197,196;,
      4;203,202,201,200;,
      4;207,206,205,204;,
      4;211,210,209,208;,
      4;215,214,213,212;,
      4;219,218,217,216;,
      4;223,222,221,220;,
      4;227,226,225,224;,
      4;231,230,229,228;,
      4;235,234,233,232;,
      4;239,238,237,236;,
      4;243,242,241,240;,
      4;247,246,245,244;,
      4;251,250,249,248;,
      4;255,254,253,252;,
      4;259,258,257,256;,
      4;263,262,261,260;,
      4;267,266,265,264;,
      4;271,270,269,268;,
      4;275,274,273,272;,
      4;279,278,277,276;,
      4;283,282,281,280;,
      4;287,286,285,284;,
      4;291,290,289,288;,
      4;295,294,293,292;,
      4;299,298,297,296;,
      4;303,302,301,300;,
      4;307,306,305,304;,
      4;311,310,309,308;,
      4;315,314,313,312;,
      4;319,318,317,316;,
      4;323,322,321,320;,
      4;327,326,325,324;,
      4;331,330,329,328;,
      4;335,334,333,332;,
      4;339,338,337,336;,
      4;343,342,341,340;,
      4;347,346,345,344;,
      4;351,350,349,348;,
      4;355,354,353,352;,
      4;359,358,357,356;,
      4;363,362,361,360;,
      4;367,366,365,364;;
      MeshNormals { // Cube normals
        368;
         0.768517;-0.067263; 0.636250;,
        -0.561632; 0.105380; 0.820612;,
        -0.794427; 0.061007; 0.604266;,
         0.017914;-0.834315; 0.550981;,
        -0.561632; 0.105380; 0.820612;,
         0.768517;-0.067263; 0.636250;,
         0.639851; 0.418470; 0.644520;,
        -0.483383;-0.359478; 0.798151;,
         0.033448;-0.945769;-0.323069;,
        -0.998688;-0.048524;-0.016022;,
        -0.848842; 0.253487;-0.463851;,
        -0.079043;-0.559069;-0.825312;,
        -0.758263;-0.627430; 0.176946;,
        -0.877499;-0.457167;-0.144719;,
        -0.646138;-0.574633;-0.502274;,
        -0.603809;-0.332835;-0.724265;,
        -0.561632; 0.105380; 0.820612;,
        -0.483383;-0.359478; 0.798151;,
        -0.758263;-0.627430; 0.176946;,
        -0.949889; 0.235786; 0.205054;,
         0.639851; 0.418470; 0.644520;,
         0.768517;-0.067263; 0.636250;,
         0.969695;-0.132267;-0.205390;,
         0.797998; 0.572893;-0.186956;,
        -0.233283; 0.721335; 0.652058;,
        -0.300577; 0.828242;-0.472854;,
        -0.439772; 0.797143;-0.413648;,
        -0.439772; 0.797143; 0.413648;,
        -0.758263;-0.627430; 0.176946;,
        -0.483383;-0.359478; 0.798151;,
        -0.581591;-0.441694; 0.683096;,
        -0.877499;-0.457167;-0.144719;,
         0.639851; 0.418470; 0.644520;,
         0.797998; 0.572893;-0.186956;,
        -0.300577; 0.828242;-0.472854;,
        -0.233283; 0.721335; 0.652058;,
        -0.483383;-0.359478; 0.798151;,
         0.639851; 0.418470; 0.644520;,
        -0.233283; 0.721335; 0.652058;,
        -0.581591;-0.441694; 0.683096;,
        -0.998688;-0.048524;-0.016022;,
         0.033448;-0.945769;-0.323069;,
         0.017914;-0.834315; 0.550981;,
        -0.794427; 0.061007; 0.604266;,
        -0.998688;-0.048524;-0.016022;,
        -0.949889; 0.235786; 0.205054;,
        -0.675893; 0.010437;-0.736869;,
        -0.848842; 0.253487;-0.463851;,
         0.969695;-0.132267;-0.205390;,
         0.768517;-0.067263; 0.636250;,
         0.017914;-0.834315; 0.550981;,
         0.033448;-0.945769;-0.323069;,
        -0.561632; 0.105380; 0.820612;,
        -0.949889; 0.235786; 0.205054;,
        -0.998688;-0.048524;-0.016022;,
        -0.794427; 0.061007; 0.604266;,
         0.598315; 0.301645;-0.742302;,
        -0.603809;-0.332835;-0.724265;,
        -0.646138;-0.574633;-0.502274;,
        -0.297891; 0.462630;-0.834956;,
        -0.603809;-0.332835;-0.724265;,
         0.598315; 0.301645;-0.742302;,
         0.669118; 0.030702;-0.742485;,
        -0.675893; 0.010437;-0.736869;,
        -0.675893; 0.010437;-0.736869;,
         0.669118; 0.030702;-0.742485;,
        -0.079043;-0.559069;-0.825312;,
        -0.848842; 0.253487;-0.463851;,
        -0.949889; 0.235786; 0.205054;,
        -0.758263;-0.627430; 0.176946;,
        -0.603809;-0.332835;-0.724265;,
        -0.675893; 0.010437;-0.736869;,
        -0.300577; 0.828242;-0.472854;,
         0.797998; 0.572893;-0.186956;,
         0.598315; 0.301645;-0.742302;,
        -0.297891; 0.462630;-0.834956;,
         0.969695;-0.132267;-0.205390;,
         0.033448;-0.945769;-0.323069;,
        -0.079043;-0.559069;-0.825312;,
         0.669118; 0.030702;-0.742485;,
        -0.877499;-0.457167;-0.144719;,
        -0.300577; 0.828242;-0.472854;,
        -0.297891; 0.462630;-0.834956;,
        -0.646138;-0.574633;-0.502274;,
         0.797998; 0.572893;-0.186956;,
         0.969695;-0.132267;-0.205390;,
         0.669118; 0.030702;-0.742485;,
         0.598315; 0.301645;-0.742302;,
        -0.439772; 0.797143;-0.413648;,
        -0.393963;-0.824488;-0.406140;,
         0.246956;-0.525407;-0.814203;,
        -0.344279; 0.701529;-0.623920;,
        -0.581591;-0.441694; 0.683096;,
        -0.233283; 0.721335; 0.652058;,
        -0.439772; 0.797143; 0.413648;,
        -0.393963;-0.824488; 0.406140;,
        -0.300577; 0.828242;-0.472854;,
        -0.877499;-0.457167;-0.144719;,
        -0.393963;-0.824488;-0.406140;,
        -0.439772; 0.797143;-0.413648;,
        -0.877499;-0.457167;-0.144719;,
        -0.581591;-0.441694; 0.683096;,
        -0.393963;-0.824488; 0.406140;,
        -0.393963;-0.824488;-0.406140;,
         0.246956;-0.525407;-0.814203;,
         0.246925;-0.525407; 0.814203;,
         0.561388;-0.160833; 0.811731;,
         0.561388;-0.160833;-0.811731;,
        -0.393963;-0.824488;-0.406140;,
        -0.393963;-0.824488; 0.406140;,
         0.246925;-0.525407; 0.814203;,
         0.246956;-0.525407;-0.814203;,
        -0.439772; 0.797143; 0.413648;,
        -0.439772; 0.797143;-0.413648;,
        -0.344279; 0.701529;-0.623920;,
        -0.344279; 0.701529; 0.623920;,
        -0.393963;-0.824488; 0.406140;,
        -0.439772; 0.797143; 0.413648;,
        -0.344279; 0.701529; 0.623920;,
         0.246925;-0.525407; 0.814203;,
        -0.754326; 0.200049; 0.625233;,
        -0.754326; 0.200049;-0.625233;,
        -0.552995;-0.585253;-0.593005;,
        -0.552995;-0.585253; 0.593005;,
        -0.344279; 0.701529; 0.623920;,
        -0.344279; 0.701529;-0.623920;,
        -0.754326; 0.200049;-0.625233;,
        -0.754326; 0.200049; 0.625233;,
         0.246925;-0.525407; 0.814203;,
        -0.344279; 0.701529; 0.623920;,
        -0.754326; 0.200049; 0.625233;,
         0.561388;-0.160833; 0.811731;,
        -0.344279; 0.701529;-0.623920;,
         0.246956;-0.525407;-0.814203;,
         0.561388;-0.160833;-0.811731;,
        -0.754326; 0.200049;-0.625233;,
        -0.552995;-0.585253; 0.593005;,
        -0.552995;-0.585253;-0.593005;,
         0.210639;-0.745872;-0.631886;,
         0.210639;-0.745872; 0.631886;,
         0.561388;-0.160833; 0.811731;,
        -0.754326; 0.200049; 0.625233;,
        -0.552995;-0.585253; 0.593005;,
         0.341685; 0.349467; 0.872402;,
        -0.754326; 0.200049;-0.625233;,
         0.561388;-0.160833;-0.811731;,
         0.341685; 0.349467;-0.872402;,
        -0.552995;-0.585253;-0.593005;,
         0.561388;-0.160833;-0.811731;,
         0.561388;-0.160833; 0.811731;,
         0.341685; 0.349467; 0.872402;,
         0.341685; 0.349467;-0.872402;,
         0.210639;-0.745872;-0.631886;,
        -0.158330; 0.574206;-0.803217;,
         0.112217; 0.809503;-0.576250;,
         0.807978;-0.112003;-0.578448;,
         0.341685; 0.349467; 0.872402;,
        -0.552995;-0.585253; 0.593005;,
         0.210639;-0.745872; 0.631886;,
        -0.158330; 0.574206; 0.803217;,
        -0.552995;-0.585253;-0.593005;,
         0.341685; 0.349467;-0.872402;,
        -0.158330; 0.574206;-0.803217;,
         0.210639;-0.745872;-0.631886;,
         0.341685; 0.349467;-0.872402;,
         0.341685; 0.349467; 0.872402;,
        -0.158330; 0.574206; 0.803217;,
        -0.158330; 0.574206;-0.803217;,
         0.112217; 0.809503; 0.576250;,
         0.807978;-0.112003; 0.578448;,
         0.807978;-0.112003;-0.578448;,
         0.112217; 0.809503;-0.576250;,
        -0.158330; 0.574206;-0.803217;,
        -0.158330; 0.574206; 0.803217;,
         0.112217; 0.809503; 0.576250;,
         0.112217; 0.809503;-0.576250;,
         0.210639;-0.745872; 0.631886;,
         0.210639;-0.745872;-0.631886;,
         0.807978;-0.112003;-0.578448;,
         0.807978;-0.112003; 0.578448;,
        -0.158330; 0.574206; 0.803217;,
         0.210639;-0.745872; 0.631886;,
         0.807978;-0.112003; 0.578448;,
         0.112217; 0.809503; 0.576250;,
         0.768517;-0.067263;-0.636250;,
         0.017914;-0.834315;-0.550981;,
        -0.794427; 0.061007;-0.604266;,
        -0.561632; 0.105380;-0.820612;,
        -0.561632; 0.105380;-0.820612;,
        -0.483383;-0.359478;-0.798151;,
         0.639851; 0.418470;-0.644520;,
         0.768517;-0.067263;-0.636250;,
         0.033448;-0.945769; 0.323069;,
        -0.079043;-0.559069; 0.825312;,
        -0.848842; 0.253487; 0.463851;,
        -0.998688;-0.048524; 0.016022;,
        -0.758263;-0.627430;-0.176946;,
        -0.603809;-0.332835; 0.724265;,
        -0.646138;-0.574633; 0.502274;,
        -0.877499;-0.457167; 0.144719;,
        -0.561632; 0.105380;-0.820612;,
        -0.949889; 0.235786;-0.205054;,
        -0.758263;-0.627430;-0.176946;,
        -0.483383;-0.359478;-0.798151;,
         0.639851; 0.418470;-0.644520;,
         0.797998; 0.572893; 0.186956;,
         0.969695;-0.132267; 0.205390;,
         0.768517;-0.067263;-0.636250;,
        -0.233283; 0.721335;-0.652058;,
        -0.439772; 0.797143;-0.413648;,
        -0.439772; 0.797143; 0.413648;,
        -0.300577; 0.828242; 0.472854;,
        -0.758263;-0.627430;-0.176946;,
        -0.877499;-0.457167; 0.144719;,
        -0.581591;-0.441694;-0.683096;,
        -0.483383;-0.359478;-0.798151;,
         0.639851; 0.418470;-0.644520;,
        -0.233283; 0.721335;-0.652058;,
        -0.300577; 0.828242; 0.472854;,
         0.797998; 0.572893; 0.186956;,
        -0.483383;-0.359478;-0.798151;,
        -0.581591;-0.441694;-0.683096;,
        -0.233283; 0.721335;-0.652058;,
         0.639851; 0.418470;-0.644520;,
        -0.998688;-0.048524; 0.016022;,
        -0.794427; 0.061007;-0.604266;,
         0.017914;-0.834315;-0.550981;,
         0.033448;-0.945769; 0.323069;,
        -0.998688;-0.048524; 0.016022;,
        -0.848842; 0.253487; 0.463851;,
        -0.675893; 0.010437; 0.736869;,
        -0.949889; 0.235786;-0.205054;,
         0.969695;-0.132267; 0.205390;,
         0.033448;-0.945769; 0.323069;,
         0.017914;-0.834315;-0.550981;,
         0.768517;-0.067263;-0.636250;,
        -0.561632; 0.105380;-0.820612;,
        -0.794427; 0.061007;-0.604266;,
        -0.998688;-0.048524; 0.016022;,
        -0.949889; 0.235786;-0.205054;,
         0.598315; 0.301645; 0.742302;,
        -0.297891; 0.462630; 0.834956;,
        -0.646138;-0.574633; 0.502274;,
        -0.603809;-0.332835; 0.724265;,
        -0.603809;-0.332835; 0.724265;,
        -0.675893; 0.010437; 0.736869;,
         0.669118; 0.030702; 0.742485;,
         0.598315; 0.301645; 0.742302;,
        -0.675893; 0.010437; 0.736869;,
        -0.848842; 0.253487; 0.463851;,
        -0.079043;-0.559069; 0.825312;,
         0.669118; 0.030702; 0.742485;,
        -0.949889; 0.235786;-0.205054;,
        -0.675893; 0.010437; 0.736869;,
        -0.603809;-0.332835; 0.724265;,
        -0.758263;-0.627430;-0.176946;,
        -0.300577; 0.828242; 0.472854;,
        -0.297891; 0.462630; 0.834956;,
         0.598315; 0.301645; 0.742302;,
         0.797998; 0.572893; 0.186956;,
         0.969695;-0.132267; 0.205390;,
         0.669118; 0.030702; 0.742485;,
        -0.079043;-0.559069; 0.825312;,
         0.033448;-0.945769; 0.323069;,
        -0.877499;-0.457167; 0.144719;,
        -0.646138;-0.574633; 0.502274;,
        -0.297891; 0.462630; 0.834956;,
        -0.300577; 0.828242; 0.472854;,
         0.797998; 0.572893; 0.186956;,
         0.598315; 0.301645; 0.742302;,
         0.669118; 0.030702; 0.742485;,
         0.969695;-0.132267; 0.205390;,
        -0.439772; 0.797143; 0.413648;,
        -0.344279; 0.701529; 0.623920;,
         0.246925;-0.525407; 0.814203;,
        -0.393963;-0.824488; 0.406140;,
        -0.581591;-0.441694;-0.683096;,
        -0.393963;-0.824488;-0.406140;,
        -0.439772; 0.797143;-0.413648;,
        -0.233283; 0.721335;-0.652058;,
        -0.300577; 0.828242; 0.472854;,
        -0.439772; 0.797143; 0.413648;,
        -0.393963;-0.824488; 0.406140;,
        -0.877499;-0.457167; 0.144719;,
        -0.877499;-0.457167; 0.144719;,
        -0.393963;-0.824488; 0.406140;,
        -0.393963;-0.824488;-0.406140;,
        -0.581591;-0.441694;-0.683096;,
         0.246925;-0.525407; 0.814203;,
         0.561388;-0.160833; 0.811731;,
         0.561388;-0.160833;-0.811731;,
         0.246956;-0.525407;-0.814203;,
        -0.393963;-0.824488; 0.406140;,
         0.246925;-0.525407; 0.814203;,
         0.246956;-0.525407;-0.814203;,
        -0.393963;-0.824488;-0.406140;,
        -0.439772; 0.797143;-0.413648;,
        -0.344279; 0.701529;-0.623920;,
        -0.344279; 0.701529; 0.623920;,
        -0.439772; 0.797143; 0.413648;,
        -0.393963;-0.824488;-0.406140;,
         0.246956;-0.525407;-0.814203;,
        -0.344279; 0.701529;-0.623920;,
        -0.439772; 0.797143;-0.413648;,
        -0.754326; 0.200049;-0.625233;,
        -0.552995;-0.585253;-0.593005;,
        -0.552995;-0.585253; 0.593005;,
        -0.754326; 0.200049; 0.625233;,
        -0.344279; 0.701529;-0.623920;,
        -0.754326; 0.200049;-0.625233;,
        -0.754326; 0.200049; 0.625233;,
        -0.344279; 0.701529; 0.623920;,
         0.246956;-0.525407;-0.814203;,
         0.561388;-0.160833;-0.811731;,
        -0.754326; 0.200049;-0.625233;,
        -0.344279; 0.701529;-0.623920;,
        -0.344279; 0.701529; 0.623920;,
        -0.754326; 0.200049; 0.625233;,
         0.561388;-0.160833; 0.811731;,
         0.246925;-0.525407; 0.814203;,
        -0.552995;-0.585253;-0.593005;,
         0.210639;-0.745872;-0.631886;,
         0.210639;-0.745872; 0.631886;,
        -0.552995;-0.585253; 0.593005;,
         0.561388;-0.160833;-0.811731;,
         0.341685; 0.349467;-0.872402;,
        -0.552995;-0.585253;-0.593005;,
        -0.754326; 0.200049;-0.625233;,
        -0.754326; 0.200049; 0.625233;,
        -0.552995;-0.585253; 0.593005;,
         0.341685; 0.349467; 0.872402;,
         0.561388;-0.160833; 0.811731;,
         0.561388;-0.160833; 0.811731;,
         0.341685; 0.349467; 0.872402;,
         0.341685; 0.349467;-0.872402;,
         0.561388;-0.160833;-0.811731;,
         0.210639;-0.745872; 0.631886;,
         0.807978;-0.112003; 0.578448;,
         0.112217; 0.809503; 0.576250;,
        -0.158330; 0.574206; 0.803217;,
         0.341685; 0.349467;-0.872402;,
        -0.158330; 0.574206;-0.803217;,
         0.210639;-0.745872;-0.631886;,
        -0.552995;-0.585253;-0.593005;,
        -0.552995;-0.585253; 0.593005;,
         0.210639;-0.745872; 0.631886;,
        -0.158330; 0.574206; 0.803217;,
         0.341685; 0.349467; 0.872402;,
         0.341685; 0.349467; 0.872402;,
        -0.158330; 0.574206; 0.803217;,
        -0.158330; 0.574206;-0.803217;,
         0.341685; 0.349467;-0.872402;,
         0.112217; 0.809503;-0.576250;,
         0.112217; 0.809503; 0.576250;,
         0.807978;-0.112003; 0.578448;,
         0.807978;-0.112003;-0.578448;,
        -0.158330; 0.574206; 0.803217;,
         0.112217; 0.809503; 0.576250;,
         0.112217; 0.809503;-0.576250;,
        -0.158330; 0.574206;-0.803217;,
         0.210639;-0.745872;-0.631886;,
         0.807978;-0.112003;-0.578448;,
         0.807978;-0.112003; 0.578448;,
         0.210639;-0.745872; 0.631886;,
        -0.158330; 0.574206;-0.803217;,
         0.112217; 0.809503;-0.576250;,
         0.807978;-0.112003;-0.578448;,
         0.210639;-0.745872;-0.631886;;
        92;
        4;3,2,1,0;,
        4;7,6,5,4;,
        4;11,10,9,8;,
        4;15,14,13,12;,
        4;19,18,17,16;,
        4;23,22,21,20;,
        4;27,26,25,24;,
        4;31,30,29,28;,
        4;35,34,33,32;,
        4;39,38,37,36;,
        4;43,42,41,40;,
        4;47,46,45,44;,
        4;51,50,49,48;,
        4;55,54,53,52;,
        4;59,58,57,56;,
        4;63,62,61,60;,
        4;67,66,65,64;,
        4;71,70,69,68;,
        4;75,74,73,72;,
        4;79,78,77,76;,
        4;83,82,81,80;,
        4;87,86,85,84;,
        4;91,90,89,88;,
        4;95,94,93,92;,
        4;99,98,97,96;,
        4;103,102,101,100;,
        4;107,106,105,104;,
        4;111,110,109,108;,
        4;115,114,113,112;,
        4;119,118,117,116;,
        4;123,122,121,120;,
        4;127,126,125,124;,
        4;131,130,129,128;,
        4;135,134,133,132;,
        4;139,138,137,136;,
        4;143,142,141,140;,
        4;147,146,145,144;,
        4;151,150,149,148;,
        4;155,154,153,152;,
        4;159,158,157,156;,
        4;163,162,161,160;,
        4;167,166,165,164;,
        4;171,170,169,168;,
        4;175,174,173,172;,
        4;179,178,177,176;,
        4;183,182,181,180;,
        4;187,186,185,184;,
        4;191,190,189,188;,
        4;195,194,193,192;,
        4;199,198,197,196;,
        4;203,202,201,200;,
        4;207,206,205,204;,
        4;211,210,209,208;,
        4;215,214,213,212;,
        4;219,218,217,216;,
        4;223,222,221,220;,
        4;227,226,225,224;,
        4;231,230,229,228;,
        4;235,234,233,232;,
        4;239,238,237,236;,
        4;243,242,241,240;,
        4;247,246,245,244;,
        4;251,250,249,248;,
        4;255,254,253,252;,
        4;259,258,257,256;,
        4;263,262,261,260;,
        4;267,266,265,264;,
        4;271,270,269,268;,
        4;275,274,273,272;,
        4;279,278,277,276;,
        4;283,282,281,280;,
        4;287,286,285,284;,
        4;291,290,289,288;,
        4;295,294,293,292;,
        4;299,298,297,296;,
        4;303,302,301,300;,
        4;307,306,305,304;,
        4;311,310,309,308;,
        4;315,314,313,312;,
        4;319,318,317,316;,
        4;323,322,321,320;,
        4;327,326,325,324;,
        4;331,330,329,328;,
        4;335,334,333,332;,
        4;339,338,337,336;,
        4;343,342,341,340;,
        4;347,346,345,344;,
        4;351,350,349,348;,
        4;355,354,353,352;,
        4;359,358,357,356;,
        4;363,362,361,360;,
        4;367,366,365,364;;
      } // End of Cube normals
      MeshTextureCoords { // Cube UV coordinates
        368;
         0.784277; 0.033844;,
         0.793179; 0.033903;,
         0.815319; 0.017197;,
         0.812145; 0.002592;,
         0.793179; 0.033903;,
         0.784277; 0.033844;,
         0.783138; 0.199425;,
         0.792040; 0.199484;,
         0.946340; 0.297723;,
         0.960730; 0.295049;,
         0.999350; 0.231514;,
         0.991878; 0.232902;,
         0.701884; 0.404221;,
         0.669245; 0.402106;,
         0.695966; 0.459341;,
         0.712913; 0.460439;,
         0.752671; 0.696967;,
         0.920587; 0.696967;,
         0.920587; 0.531383;,
         0.752671; 0.531383;,
         0.528372; 0.804938;,
         0.528372; 0.970232;,
         0.696452; 0.970232;,
         0.696452; 0.804938;,
         0.520703; 0.164738;,
         0.352623; 0.164738;,
         0.403908; 0.184576;,
         0.469418; 0.184576;,
         0.701884; 0.404221;,
         0.712913; 0.238993;,
         0.680274; 0.236879;,
         0.669245; 0.402106;,
         0.528372; 0.804938;,
         0.696452; 0.804938;,
         0.696452; 0.763472;,
         0.528372; 0.763472;,
         0.792040; 0.199484;,
         0.783138; 0.199425;,
         0.811685; 0.239470;,
         0.815319; 0.224969;,
         0.960730; 0.295049;,
         0.946340; 0.297723;,
         0.977487; 0.460439;,
         0.991878; 0.457766;,
         0.626063; 0.071294;,
         0.646933; 0.071294;,
         0.640272; 0.015910;,
         0.629436; 0.015910;,
         0.696452; 0.970232;,
         0.528372; 0.970232;,
         0.528372; 1.000000;,
         0.696452; 1.000000;,
         0.646933; 0.236879;,
         0.646933; 0.071294;,
         0.626063; 0.071294;,
         0.626063; 0.236879;,
         0.911492; 0.116469;,
         0.916114; 0.116439;,
         0.928201; 0.103206;,
         0.926314; 0.095676;,
         0.916114; 0.116439;,
         0.911492; 0.116469;,
         0.912083; 0.202445;,
         0.916705; 0.202414;,
         0.916705; 0.202414;,
         0.912083; 0.202445;,
         0.926553; 0.218672;,
         0.928201; 0.211088;,
         0.752671; 0.531383;,
         0.920587; 0.531383;,
         0.881076; 0.475999;,
         0.793888; 0.475999;,
         0.696452; 0.763472;,
         0.696452; 0.804938;,
         0.752671; 0.843176;,
         0.752671; 0.821645;,
         0.696452; 0.970232;,
         0.696452; 1.000000;,
         0.752671; 0.944459;,
         0.752671; 0.929002;,
         0.893847; 0.145697;,
         0.880829; 0.138583;,
         0.904733; 0.214978;,
         0.911492; 0.218672;,
         0.696452; 0.804938;,
         0.696452; 0.970232;,
         0.752671; 0.929002;,
         0.752671; 0.843176;,
         0.053619; 0.412049;,
         0.054384; 0.417821;,
         0.180337; 0.398330;,
         0.184212; 0.393935;,
         0.543258; 0.696967;,
         0.528371; 0.696967;,
         0.529187; 0.747491;,
         0.534989; 0.747491;,
         0.880829; 0.138583;,
         0.893847; 0.145697;,
         0.911492; 0.097563;,
         0.906418; 0.094791;,
         0.669245; 0.402106;,
         0.680274; 0.236879;,
         0.656780; 0.285989;,
         0.652481; 0.350388;,
         0.883692; 1.000000;,
         0.949203; 1.000000;,
         0.949203; 0.948012;,
         0.883692; 0.948012;,
         0.652481; 0.350388;,
         0.656780; 0.285989;,
         0.532670; 0.277949;,
         0.528371; 0.342347;,
         0.469418; 0.184576;,
         0.403908; 0.184576;,
         0.403908; 0.312388;,
         0.469418; 0.312388;,
         0.318570; 0.976113;,
         0.317805; 0.981886;,
         0.448397; 1.000000;,
         0.444523; 0.995604;,
         0.712913; 0.239470;,
         0.778424; 0.239470;,
         0.778424; 0.040925;,
         0.712913; 0.040925;,
         0.469418; 0.312388;,
         0.403908; 0.312388;,
         0.403908; 0.393935;,
         0.469418; 0.393935;,
         0.444523; 0.995604;,
         0.448397; 1.000000;,
         0.528372; 0.930379;,
         0.522467; 0.930143;,
         0.184212; 0.393935;,
         0.180337; 0.398330;,
         0.258281; 0.463791;,
         0.264186; 0.463556;,
         0.986098; 0.469408;,
         0.920587; 0.469408;,
         0.920587; 0.597116;,
         0.986098; 0.597116;,
         0.522467; 0.930143;,
         0.528372; 0.930379;,
         0.528371; 0.731463;,
         0.526749; 0.737061;,
         0.264186; 0.463556;,
         0.258281; 0.463791;,
         0.262564; 0.656874;,
         0.264186; 0.662472;,
         0.883692; 0.948012;,
         0.949203; 0.948012;,
         0.949203; 0.758233;,
         0.883692; 0.758233;,
         0.138618; 0.696967;,
         0.141310; 0.691785;,
         0.002691; 0.618274;,
         0.000000; 0.623457;,
         0.526749; 0.737061;,
         0.528371; 0.731463;,
         0.402804; 0.696967;,
         0.405495; 0.702150;,
         0.264186; 0.662472;,
         0.262564; 0.656874;,
         0.141310; 0.691785;,
         0.138618; 0.696967;,
         0.818182; 0.742632;,
         0.752672; 0.742632;,
         0.752672; 0.860570;,
         0.818182; 0.860570;,
         0.558143; 0.761505;,
         0.563774; 0.761505;,
         0.563774; 0.696967;,
         0.558143; 0.696967;,
         0.818182; 0.860570;,
         0.752672; 0.860570;,
         0.752671; 1.000000;,
         0.818182; 1.000000;,
         0.986098; 0.597116;,
         0.920587; 0.597116;,
         0.920587; 0.696967;,
         0.986098; 0.696967;,
         0.405495; 0.702150;,
         0.402804; 0.696967;,
         0.264186; 0.770478;,
         0.266877; 0.775661;,
         0.595020; 0.205626;,
         0.622889; 0.236879;,
         0.626063; 0.222273;,
         0.603923; 0.205567;,
         0.603923; 0.205567;,
         0.602784; 0.039986;,
         0.593882; 0.040046;,
         0.595020; 0.205626;,
         0.949203; 0.932128;,
         0.992578; 0.998373;,
         1.000000; 1.000000;,
         0.963498; 0.935261;,
         0.173512; 0.226592;,
         0.184542; 0.170374;,
         0.167594; 0.171472;,
         0.140873; 0.228707;,
         0.880829; 0.460439;,
         0.880829; 0.294855;,
         0.712913; 0.294855;,
         0.712913; 0.460439;,
         0.752671; 0.501906;,
         0.584590; 0.501906;,
         0.584591; 0.667199;,
         0.752671; 0.667199;,
         0.352623; 0.393935;,
         0.301337; 0.374096;,
         0.235827; 0.374096;,
         0.184542; 0.393935;,
         0.173512; 0.226592;,
         0.140873; 0.228707;,
         0.151903; 0.393935;,
         0.184542; 0.391820;,
         0.752671; 0.501906;,
         0.752671; 0.460439;,
         0.584590; 0.460439;,
         0.584590; 0.501906;,
         0.602784; 0.039986;,
         0.626063; 0.014501;,
         0.622429; 0.000000;,
         0.593882; 0.040046;,
         0.963498; 0.935261;,
         1.000000; 0.773629;,
         0.985705; 0.770496;,
         0.949203; 0.932128;,
         0.667804; 0.071294;,
         0.664431; 0.015910;,
         0.653594; 0.015910;,
         0.646933; 0.071294;,
         0.584591; 0.667199;,
         0.584591; 0.696967;,
         0.752671; 0.696967;,
         0.752671; 0.667199;,
         0.646933; 0.236879;,
         0.667804; 0.236879;,
         0.667804; 0.071294;,
         0.646933; 0.071294;,
         0.928201; 0.197879;,
         0.943024; 0.218672;,
         0.944910; 0.211142;,
         0.932824; 0.197910;,
         0.932824; 0.197910;,
         0.933415; 0.111934;,
         0.928792; 0.111904;,
         0.928201; 0.197879;,
         0.933415; 0.111934;,
         0.944910; 0.103260;,
         0.943263; 0.095676;,
         0.928792; 0.111904;,
         0.880829; 0.294855;,
         0.839612; 0.239470;,
         0.752425; 0.239470;,
         0.712913; 0.294855;,
         0.584590; 0.460439;,
         0.528371; 0.518613;,
         0.528372; 0.540144;,
         0.584590; 0.501906;,
         0.584591; 0.667199;,
         0.528372; 0.625970;,
         0.528372; 0.641426;,
         0.584591; 0.696967;,
         0.681209; 0.185353;,
         0.703020; 0.113479;,
         0.696060; 0.116790;,
         0.667804; 0.191729;,
         0.584590; 0.501906;,
         0.528372; 0.540144;,
         0.528372; 0.625970;,
         0.584591; 0.667199;,
         0.053619; 0.981886;,
         0.184212; 1.000000;,
         0.180337; 0.995604;,
         0.054384; 0.976113;,
         0.543257; 0.696967;,
         0.551526; 0.747491;,
         0.557328; 0.747491;,
         0.558143; 0.696967;,
         0.667804; 0.191729;,
         0.690835; 0.236879;,
         0.696060; 0.234394;,
         0.681209; 0.185353;,
         0.140873; 0.228707;,
         0.124110; 0.280426;,
         0.128409; 0.344824;,
         0.151903; 0.393935;,
         0.946340; 0.460439;,
         0.946340; 0.408451;,
         0.880829; 0.408451;,
         0.880829; 0.460439;,
         0.124110; 0.280426;,
         0.000000; 0.288466;,
         0.004299; 0.352864;,
         0.128409; 0.344824;,
         0.301337; 0.374096;,
         0.301337; 0.246284;,
         0.235827; 0.246284;,
         0.235827; 0.374096;,
         0.318570; 0.417821;,
         0.444523; 0.398330;,
         0.448397; 0.393935;,
         0.317805; 0.412049;,
         0.593882; 0.236879;,
         0.593882; 0.038333;,
         0.528372; 0.038333;,
         0.528371; 0.236879;,
         0.301337; 0.246284;,
         0.301337; 0.164738;,
         0.235827; 0.164738;,
         0.235827; 0.246284;,
         0.444523; 0.398330;,
         0.522467; 0.463791;,
         0.528372; 0.463556;,
         0.448397; 0.393935;,
         0.184212; 1.000000;,
         0.264186; 0.930379;,
         0.258281; 0.930143;,
         0.180337; 0.995604;,
         0.815319; 0.011911;,
         0.815319; 0.139619;,
         0.880829; 0.139619;,
         0.880829; 0.011911;,
         0.522467; 0.463791;,
         0.526750; 0.656874;,
         0.528371; 0.662472;,
         0.528372; 0.463556;,
         0.264186; 0.930379;,
         0.264186; 0.731463;,
         0.262564; 0.737061;,
         0.258281; 0.930143;,
         0.946340; 0.408451;,
         0.946340; 0.218672;,
         0.880829; 0.218672;,
         0.880829; 0.408451;,
         0.138618; 0.696967;,
         0.000000; 0.770478;,
         0.002691; 0.775661;,
         0.141310; 0.702150;,
         0.526750; 0.656874;,
         0.405495; 0.691785;,
         0.402804; 0.696967;,
         0.528371; 0.662472;,
         0.264186; 0.731463;,
         0.138618; 0.696967;,
         0.141310; 0.702150;,
         0.262564; 0.737061;,
         0.883692; 1.000000;,
         0.883692; 0.882062;,
         0.818182; 0.882062;,
         0.818182; 1.000000;,
         0.569405; 0.761505;,
         0.569405; 0.696967;,
         0.563774; 0.696967;,
         0.563774; 0.761505;,
         0.883692; 0.882062;,
         0.883692; 0.742631;,
         0.818182; 0.742631;,
         0.818182; 0.882062;,
         0.815319; 0.139619;,
         0.815319; 0.239470;,
         0.880829; 0.239470;,
         0.880829; 0.139619;,
         0.405495; 0.691785;,
         0.266877; 0.618274;,
         0.264186; 0.623457;,
         0.402804; 0.696967;;
      } // End of Cube UV coordinates
      MeshMaterialList { // Cube material list
        1;
        92;
        0,
        0,
        0,
        0,
        0,
        0,
        0,
        0,
        0,
        0,
        0,
        0,
        0,
        0,
        0,
        0,
        0,
        0,
        0,
        0,
        0,
        0,
        0,
        0,
        0,
        0,
        0,
        0,
        0,
        0,
        0,
        0,
        0,
        0,
        0,
        0,
        0,
        0,
        0,
        0,
        0,
        0,
        0,
        0,
        0,
        0,
        0,
        0,
        0,
        0,
        0,
        0,
        0,
        0,
        0,
        0,
        0,
        0,
        0,
        0,
        0,
        0,
        0,
        0,
        0,
        0,
        0,
        0,
        0,
        0,
        0,
        0,
        0,
        0,
        0,
        0,
        0,
        0,
        0,
        0,
        0,
        0,
        0,
        0,
        0,
        0,
        0,
        0,
        0,
        0,
        0,
        0;
        Material Material_001 {
           0.640000; 0.640000; 0.640000; 1.000000;;
           96.078431;
           0.500000; 0.500000; 0.500000;;
           0.000000; 0.000000; 0.000000;;
        }
      } // End of Cube material list
    } // End of Cube mesh
  } // End of Cube
} // End of Root
