xof 0303txt 0032

Frame Root {
  FrameTransformMatrix {
     1.000000, 0.000000, 0.000000, 0.000000,
     0.000000,-0.000000, 1.000000, 0.000000,
     0.000000, 1.000000, 0.000000, 0.000000,
     0.000000, 0.000000, 0.000000, 1.000000;;
  }
  Frame Cube {
    FrameTransformMatrix {
       1.000000, 0.000000, 0.000000, 0.000000,
       0.000000, 1.000000, 0.000000, 0.000000,
       0.000000, 0.000000, 1.000000, 0.000000,
       0.000000, 0.000000, 0.000000, 1.000000;;
    }
    Mesh { // Cube mesh
      232;
      -0.015909; 0.003604; 0.049296;,
      -0.012579; 0.031289; 0.047196;,
      -0.013072; 0.028505; 0.043206;,
      -0.016069; 0.003795; 0.044413;,
      -0.016069; 0.003795; 0.044413;,
      -0.013072; 0.028505; 0.043206;,
       0.098748; 0.012885; 0.040291;,
       0.095650;-0.012229; 0.040119;,
       0.095810;-0.012419; 0.045002;,
       0.093041;-0.034254; 0.042866;,
       0.107040;-0.035239; 0.041218;,
       0.106972;-0.013760; 0.043618;,
       0.095810;-0.012419; 0.045002;,
       0.099241; 0.015669; 0.044280;,
      -0.012579; 0.031289; 0.047196;,
      -0.015909; 0.003604; 0.049296;,
       0.184161;-0.037218; 0.035218;,
       0.107040;-0.035239; 0.041218;,
       0.105030;-0.050754; 0.030774;,
       0.182376;-0.052217; 0.029104;,
       0.098748; 0.012885; 0.040291;,
      -0.013072; 0.028505; 0.043206;,
      -0.011747; 0.042527; 0.037034;,
       0.100220; 0.027857; 0.034892;,
      -0.012579; 0.031289; 0.047196;,
       0.099241; 0.015669; 0.044280;,
       0.100840; 0.032316; 0.036798;,
      -0.011126; 0.046987; 0.038940;,
       0.093176;-0.031862; 0.038604;,
       0.106525;-0.032789; 0.037018;,
       0.104809;-0.046474; 0.028420;,
       0.091384;-0.046002; 0.029479;,
       0.183683; 0.005240; 0.032586;,
       0.182546; 0.002561; 0.028657;,
       0.183520; 0.013099; 0.024530;,
       0.184783; 0.017440; 0.026395;,
       0.095650;-0.012229; 0.040119;,
       0.098748; 0.012885; 0.040291;,
       0.106474; 0.011542; 0.039605;,
       0.106165;-0.013491; 0.038803;,
       0.182895;-0.017703; 0.029734;,
       0.182546; 0.002561; 0.028657;,
       0.183683; 0.005240; 0.032586;,
       0.183702;-0.017972; 0.034549;,
       0.106165;-0.013491; 0.038803;,
       0.106474; 0.011542; 0.039605;,
       0.182546; 0.002561; 0.028657;,
       0.182895;-0.017703; 0.029734;,
       0.106972;-0.013760; 0.043618;,
       0.107040;-0.035239; 0.041218;,
       0.184161;-0.037218; 0.035218;,
       0.183702;-0.017972; 0.034549;,
      -0.018674;-0.018520; 0.048183;,
      -0.018540;-0.016128; 0.043921;,
      -0.020405;-0.031124; 0.035655;,
      -0.020836;-0.035362; 0.038056;,
       0.107611; 0.014222; 0.043534;,
       0.106972;-0.013760; 0.043618;,
       0.183702;-0.017972; 0.034549;,
       0.183683; 0.005240; 0.032586;,
       0.106525;-0.032789; 0.037018;,
       0.106165;-0.013491; 0.038803;,
       0.182895;-0.017703; 0.029734;,
       0.183645;-0.034767; 0.031018;,
       0.183645;-0.034767; 0.031018;,
       0.182895;-0.017703; 0.029734;,
       0.183702;-0.017972; 0.034549;,
       0.184161;-0.037218; 0.035218;,
       0.093176;-0.031862; 0.038604;,
       0.095650;-0.012229; 0.040119;,
       0.106165;-0.013491; 0.038803;,
       0.106525;-0.032789; 0.037018;,
       0.093041;-0.034254; 0.042866;,
       0.095810;-0.012419; 0.045002;,
      -0.015909; 0.003604; 0.049296;,
      -0.018674;-0.018520; 0.048183;,
       0.099241; 0.015669; 0.044280;,
       0.095810;-0.012419; 0.045002;,
       0.106972;-0.013760; 0.043618;,
       0.107611; 0.014222; 0.043534;,
      -0.018540;-0.016128; 0.043921;,
      -0.016069; 0.003795; 0.044413;,
       0.095650;-0.012229; 0.040119;,
       0.093176;-0.031862; 0.038604;,
      -0.018674;-0.018520; 0.048183;,
      -0.015909; 0.003604; 0.049296;,
      -0.016069; 0.003795; 0.044413;,
      -0.018540;-0.016128; 0.043921;,
       0.100220; 0.027857; 0.034892;,
      -0.011747; 0.042527; 0.037034;,
      -0.011126; 0.046987; 0.038940;,
       0.100840; 0.032316; 0.036798;,
       0.107937; 0.026365; 0.034469;,
       0.109201; 0.030705; 0.036333;,
       0.184783; 0.017440; 0.026395;,
       0.183520; 0.013099; 0.024530;,
       0.100220; 0.027857; 0.034892;,
       0.100840; 0.032316; 0.036798;,
       0.109201; 0.030705; 0.036333;,
       0.107937; 0.026365; 0.034469;,
       0.182546; 0.002561; 0.028657;,
       0.106474; 0.011542; 0.039605;,
       0.107937; 0.026365; 0.034469;,
       0.183520; 0.013099; 0.024530;,
       0.106474; 0.011542; 0.039605;,
       0.098748; 0.012885; 0.040291;,
       0.100220; 0.027857; 0.034892;,
       0.107937; 0.026365; 0.034469;,
       0.099241; 0.015669; 0.044280;,
       0.107611; 0.014222; 0.043534;,
       0.109201; 0.030705; 0.036333;,
       0.100840; 0.032316; 0.036798;,
       0.107611; 0.014222; 0.043534;,
       0.183683; 0.005240; 0.032586;,
       0.184783; 0.017440; 0.026395;,
       0.109201; 0.030705; 0.036333;,
      -0.013072; 0.028505; 0.043206;,
      -0.012579; 0.031289; 0.047196;,
      -0.011126; 0.046987; 0.038940;,
      -0.011747; 0.042527; 0.037034;,
       0.182376;-0.052217; 0.029104;,
       0.105030;-0.050754; 0.030774;,
       0.104229;-0.055004; 0.018477;,
       0.181379;-0.059694; 0.022132;,
      -0.020836;-0.035362; 0.038056;,
      -0.020405;-0.031124; 0.035655;,
      -0.021260;-0.036709; 0.026268;,
      -0.021884;-0.041371; 0.024932;,
       0.091384;-0.046002; 0.029479;,
       0.104809;-0.046474; 0.028420;,
       0.104200;-0.050304; 0.019826;,
       0.090732;-0.049876; 0.019887;,
       0.107040;-0.035239; 0.041218;,
       0.093041;-0.034254; 0.042866;,
       0.090952;-0.050240; 0.031879;,
       0.105030;-0.050754; 0.030774;,
       0.183645;-0.034767; 0.031018;,
       0.184161;-0.037218; 0.035218;,
       0.182376;-0.052217; 0.029104;,
       0.182156;-0.047937; 0.026749;,
       0.093041;-0.034254; 0.042866;,
      -0.018674;-0.018520; 0.048183;,
      -0.020836;-0.035362; 0.038056;,
       0.090952;-0.050240; 0.031879;,
       0.106525;-0.032789; 0.037018;,
       0.183645;-0.034767; 0.031018;,
       0.182156;-0.047937; 0.026749;,
       0.104809;-0.046474; 0.028420;,
      -0.018540;-0.016128; 0.043921;,
       0.093176;-0.031862; 0.038604;,
       0.091384;-0.046002; 0.029479;,
      -0.020405;-0.031124; 0.035655;,
      -0.021260;-0.036709; 0.026268;,
       0.090732;-0.049876; 0.019887;,
       0.090107;-0.054538; 0.018550;,
      -0.021884;-0.041371; 0.024932;,
       0.090107;-0.054538; 0.018550;,
       0.090732;-0.049876; 0.019887;,
       0.104200;-0.050304; 0.019826;,
       0.104229;-0.055004; 0.018477;,
       0.104229;-0.055004; 0.018477;,
       0.104200;-0.050304; 0.019826;,
       0.181350;-0.054994; 0.023481;,
       0.181379;-0.059694; 0.022132;,
       0.182156;-0.047937; 0.026749;,
       0.182376;-0.052217; 0.029104;,
       0.181379;-0.059694; 0.022132;,
       0.181350;-0.054994; 0.023481;,
       0.105030;-0.050754; 0.030774;,
       0.090952;-0.050240; 0.031879;,
       0.090107;-0.054538; 0.018550;,
       0.104229;-0.055004; 0.018477;,
       0.090952;-0.050240; 0.031879;,
      -0.020836;-0.035362; 0.038056;,
      -0.021884;-0.041371; 0.024932;,
       0.090107;-0.054538; 0.018550;,
      -0.020405;-0.031124; 0.035655;,
       0.091384;-0.046002; 0.029479;,
       0.090732;-0.049876; 0.019887;,
      -0.021260;-0.036709; 0.026268;,
       0.104809;-0.046474; 0.028420;,
       0.182156;-0.047937; 0.026749;,
       0.181350;-0.054994; 0.023481;,
       0.104200;-0.050304; 0.019826;,
       0.042180;-0.017573;-0.038183;,
       0.045093; 0.008081;-0.044714;,
       0.062884; 0.005877;-0.045233;,
       0.059971;-0.019777;-0.038701;,
       0.129522;-0.040800;-0.037232;,
       0.133638;-0.005643;-0.042887;,
       0.152648;-0.008558;-0.043155;,
       0.148533;-0.043716;-0.037500;,
       0.052004; 0.043277;-0.019318;,
       0.051145; 0.028742; 0.040640;,
       0.068937; 0.026537; 0.040123;,
       0.069142; 0.039057;-0.021221;,
       0.154896; 0.020442; 0.030457;,
       0.157702; 0.025484;-0.020248;,
       0.138691; 0.028399;-0.019980;,
       0.135871; 0.023275; 0.033168;,
       0.048587; 0.033042;-0.033516;,
       0.052004; 0.043277;-0.019318;,
       0.069142; 0.039057;-0.021221;,
       0.066378; 0.030837;-0.034034;,
       0.045093; 0.008081;-0.044714;,
       0.048587; 0.033042;-0.033516;,
       0.066378; 0.030837;-0.034034;,
       0.062884; 0.005877;-0.045233;,
       0.042779;-0.033146;-0.036474;,
       0.042180;-0.017573;-0.038183;,
       0.059971;-0.019777;-0.038701;,
       0.060570;-0.035350;-0.036992;,
       0.044312;-0.041997;-0.005505;,
       0.042779;-0.033146;-0.036474;,
       0.060570;-0.035350;-0.036992;,
       0.062103;-0.044202;-0.006024;,
       0.041819;-0.043279; 0.015987;,
       0.044312;-0.041997;-0.005505;,
       0.062103;-0.044202;-0.006024;,
       0.059610;-0.045484; 0.015470;,
       0.040143;-0.041197; 0.034162;,
       0.041819;-0.043279; 0.015987;,
       0.059610;-0.045484; 0.015470;,
       0.057935;-0.043401; 0.033643;,
       0.133638;-0.005643;-0.042887;,
       0.138670; 0.028403;-0.020003;,
       0.157680; 0.025487;-0.020272;,
       0.152648;-0.008558;-0.043155;,
       0.129289;-0.048983; 0.025924;,
       0.129522;-0.040800;-0.037232;,
       0.148533;-0.043716;-0.037500;,
       0.148301;-0.051898; 0.025656;;
      58;
      4;3,2,1,0;,
      4;7,6,5,4;,
      4;11,10,9,8;,
      4;15,14,13,12;,
      4;19,18,17,16;,
      4;23,22,21,20;,
      4;27,26,25,24;,
      4;31,30,29,28;,
      4;35,34,33,32;,
      4;39,38,37,36;,
      4;43,42,41,40;,
      4;47,46,45,44;,
      4;51,50,49,48;,
      4;55,54,53,52;,
      4;59,58,57,56;,
      4;63,62,61,60;,
      4;67,66,65,64;,
      4;71,70,69,68;,
      4;75,74,73,72;,
      4;79,78,77,76;,
      4;83,82,81,80;,
      4;87,86,85,84;,
      4;91,90,89,88;,
      4;95,94,93,92;,
      4;99,98,97,96;,
      4;103,102,101,100;,
      4;107,106,105,104;,
      4;111,110,109,108;,
      4;115,114,113,112;,
      4;119,118,117,116;,
      4;123,122,121,120;,
      4;127,126,125,124;,
      4;131,130,129,128;,
      4;135,134,133,132;,
      4;139,138,137,136;,
      4;143,142,141,140;,
      4;147,146,145,144;,
      4;151,150,149,148;,
      4;155,154,153,152;,
      4;159,158,157,156;,
      4;163,162,161,160;,
      4;167,166,165,164;,
      4;171,170,169,168;,
      4;175,174,173,172;,
      4;179,178,177,176;,
      4;183,182,181,180;,
      4;187,186,185,184;,
      4;191,190,189,188;,
      4;195,194,193,192;,
      4;199,198,197,196;,
      4;203,202,201,200;,
      4;207,206,205,204;,
      4;211,210,209,208;,
      4;215,214,213,212;,
      4;219,218,217,216;,
      4;223,222,221,220;,
      4;227,226,225,224;,
      4;231,230,229,228;;
      MeshNormals { // Cube normals
        232;
        -0.662008; 0.073702; 0.745842;,
        -0.609088; 0.260689; 0.749016;,
        -0.782189;-0.040681;-0.621693;,
        -0.734062; 0.100497;-0.671590;,
        -0.734062; 0.100497;-0.671590;,
        -0.782189;-0.040681;-0.621693;,
        -0.085482;-0.172399;-0.981292;,
        -0.071810; 0.038972;-0.996643;,
         0.072268;-0.034364; 0.996765;,
         0.040559;-0.336283; 0.940855;,
         0.073458;-0.311472; 0.947386;,
         0.112186;-0.028565; 0.993255;,
         0.072268;-0.034364; 0.996765;,
         0.092868; 0.223792; 0.970183;,
        -0.609088; 0.260689; 0.749016;,
        -0.662008; 0.073702; 0.745842;,
         0.744652;-0.221839; 0.629475;,
         0.073458;-0.311472; 0.947386;,
         0.005524;-0.749962; 0.661397;,
         0.706626;-0.545518; 0.450606;,
        -0.085482;-0.172399;-0.981292;,
        -0.782189;-0.040681;-0.621693;,
        -0.646321; 0.086398;-0.758141;,
        -0.035707; 0.032258;-0.998810;,
        -0.609088; 0.260689; 0.749016;,
         0.092868; 0.223792; 0.970183;,
         0.168004; 0.985717;-0.009186;,
        -0.454695; 0.890591;-0.009827;,
        -0.044435; 0.311319;-0.949248;,
        -0.076083; 0.279672;-0.957060;,
        -0.009186; 0.687124;-0.726463;,
         0.019532; 0.750084;-0.661031;,
         0.780358; 0.098117; 0.617542;,
         0.582751;-0.159001;-0.796930;,
         0.488479;-0.068178;-0.869869;,
         0.692648; 0.716330;-0.083926;,
        -0.071810; 0.038972;-0.996643;,
        -0.085482;-0.172399;-0.981292;,
        -0.135502;-0.153844;-0.978729;,
        -0.111728; 0.031739;-0.993225;,
         0.589709; 0.007355;-0.807550;,
         0.582751;-0.159001;-0.796930;,
         0.780358; 0.098117; 0.617542;,
         0.793847; 0.005402; 0.608051;,
        -0.111728; 0.031739;-0.993225;,
        -0.135502;-0.153844;-0.978729;,
         0.582751;-0.159001;-0.796930;,
         0.589709; 0.007355;-0.807550;,
         0.112186;-0.028565; 0.993255;,
         0.073458;-0.311472; 0.947386;,
         0.744652;-0.221839; 0.629475;,
         0.793847; 0.005402; 0.608051;,
        -0.655904;-0.160344; 0.737602;,
        -0.761223; 0.273019;-0.588183;,
        -0.727805; 0.545701;-0.415265;,
        -0.696371;-0.509262; 0.505631;,
         0.142399; 0.208747; 0.967528;,
         0.112186;-0.028565; 0.993255;,
         0.793847; 0.005402; 0.608051;,
         0.780358; 0.098117; 0.617542;,
        -0.076083; 0.279672;-0.957060;,
        -0.111728; 0.031739;-0.993225;,
         0.589709; 0.007355;-0.807550;,
         0.691671; 0.137455;-0.708975;,
         0.691671; 0.137455;-0.708975;,
         0.589709; 0.007355;-0.807550;,
         0.793847; 0.005402; 0.608051;,
         0.744652;-0.221839; 0.629475;,
        -0.044435; 0.311319;-0.949248;,
        -0.071810; 0.038972;-0.996643;,
        -0.111728; 0.031739;-0.993225;,
        -0.076083; 0.279672;-0.957060;,
         0.040559;-0.336283; 0.940855;,
         0.072268;-0.034364; 0.996765;,
        -0.662008; 0.073702; 0.745842;,
        -0.655904;-0.160344; 0.737602;,
         0.092868; 0.223792; 0.970183;,
         0.072268;-0.034364; 0.996765;,
         0.112186;-0.028565; 0.993255;,
         0.142399; 0.208747; 0.967528;,
        -0.761223; 0.273019;-0.588183;,
        -0.734062; 0.100497;-0.671590;,
        -0.071810; 0.038972;-0.996643;,
        -0.044435; 0.311319;-0.949248;,
        -0.655904;-0.160344; 0.737602;,
        -0.662008; 0.073702; 0.745842;,
        -0.734062; 0.100497;-0.671590;,
        -0.761223; 0.273019;-0.588183;,
        -0.035707; 0.032258;-0.998810;,
        -0.646321; 0.086398;-0.758141;,
        -0.454695; 0.890591;-0.009827;,
         0.168004; 0.985717;-0.009186;,
        -0.086795; 0.039308;-0.995422;,
         0.182440; 0.983184; 0.005585;,
         0.692648; 0.716330;-0.083926;,
         0.488479;-0.068178;-0.869869;,
        -0.035707; 0.032258;-0.998810;,
         0.168004; 0.985717;-0.009186;,
         0.182440; 0.983184; 0.005585;,
        -0.086795; 0.039308;-0.995422;,
         0.582751;-0.159001;-0.796930;,
        -0.135502;-0.153844;-0.978729;,
        -0.086795; 0.039308;-0.995422;,
         0.488479;-0.068178;-0.869869;,
        -0.135502;-0.153844;-0.978729;,
        -0.085482;-0.172399;-0.981292;,
        -0.035707; 0.032258;-0.998810;,
        -0.086795; 0.039308;-0.995422;,
         0.092868; 0.223792; 0.970183;,
         0.142399; 0.208747; 0.967528;,
         0.182440; 0.983184; 0.005585;,
         0.168004; 0.985717;-0.009186;,
         0.142399; 0.208747; 0.967528;,
         0.780358; 0.098117; 0.617542;,
         0.692648; 0.716330;-0.083926;,
         0.182440; 0.983184; 0.005585;,
        -0.782189;-0.040681;-0.621693;,
        -0.609088; 0.260689; 0.749016;,
        -0.454695; 0.890591;-0.009827;,
        -0.646321; 0.086398;-0.758141;,
         0.706626;-0.545518; 0.450606;,
         0.005524;-0.749962; 0.661397;,
         0.005890;-0.742424;-0.669881;,
         0.384930;-0.759911;-0.523759;,
        -0.696371;-0.509262; 0.505631;,
        -0.727805; 0.545701;-0.415265;,
        -0.595721; 0.564196;-0.571642;,
        -0.624043;-0.563280;-0.541520;,
         0.019532; 0.750084;-0.661031;,
        -0.009186; 0.687124;-0.726463;,
         0.031343; 0.595203;-0.802942;,
         0.022187; 0.640034;-0.767998;,
         0.073458;-0.311472; 0.947386;,
         0.040559;-0.336283; 0.940855;,
        -0.025788;-0.786920; 0.616504;,
         0.005524;-0.749962; 0.661397;,
         0.691671; 0.137455;-0.708975;,
         0.744652;-0.221839; 0.629475;,
         0.706626;-0.545518; 0.450606;,
         0.675893; 0.358043;-0.644154;,
         0.040559;-0.336283; 0.940855;,
        -0.655904;-0.160344; 0.737602;,
        -0.696371;-0.509262; 0.505631;,
        -0.025788;-0.786920; 0.616504;,
        -0.076083; 0.279672;-0.957060;,
         0.691671; 0.137455;-0.708975;,
         0.675893; 0.358043;-0.644154;,
        -0.009186; 0.687124;-0.726463;,
        -0.761223; 0.273019;-0.588183;,
        -0.044435; 0.311319;-0.949248;,
         0.019532; 0.750084;-0.661031;,
        -0.727805; 0.545701;-0.415265;,
        -0.595721; 0.564196;-0.571642;,
         0.022187; 0.640034;-0.767998;,
        -0.074038;-0.732017;-0.677236;,
        -0.624043;-0.563280;-0.541520;,
        -0.074038;-0.732017;-0.677236;,
         0.022187; 0.640034;-0.767998;,
         0.031343; 0.595203;-0.802942;,
         0.005890;-0.742424;-0.669881;,
         0.005890;-0.742424;-0.669881;,
         0.031343; 0.595203;-0.802942;,
         0.646687; 0.352306;-0.676504;,
         0.384930;-0.759911;-0.523759;,
         0.675893; 0.358043;-0.644154;,
         0.706626;-0.545518; 0.450606;,
         0.384930;-0.759911;-0.523759;,
         0.646687; 0.352306;-0.676504;,
         0.005524;-0.749962; 0.661397;,
        -0.025788;-0.786920; 0.616504;,
        -0.074038;-0.732017;-0.677236;,
         0.005890;-0.742424;-0.669881;,
        -0.025788;-0.786920; 0.616504;,
        -0.696371;-0.509262; 0.505631;,
        -0.624043;-0.563280;-0.541520;,
        -0.074038;-0.732017;-0.677236;,
        -0.727805; 0.545701;-0.415265;,
         0.019532; 0.750084;-0.661031;,
         0.022187; 0.640034;-0.767998;,
        -0.595721; 0.564196;-0.571642;,
        -0.009186; 0.687124;-0.726463;,
         0.675893; 0.358043;-0.644154;,
         0.646687; 0.352306;-0.676504;,
         0.031343; 0.595203;-0.802942;,
        -0.057955;-0.240120;-0.968993;,
        -0.018097; 0.087985;-0.995941;,
        -0.018097; 0.087954;-0.995941;,
        -0.057955;-0.240120;-0.968993;,
        -0.037568;-0.154393;-0.987274;,
         0.019562; 0.217292;-0.975890;,
         0.017853; 0.206427;-0.978271;,
        -0.037568;-0.154393;-0.987274;,
         0.191046; 0.957671; 0.215247;,
         0.191046; 0.957671; 0.215247;,
         0.191046; 0.957671; 0.215247;,
         0.191046; 0.957671; 0.215247;,
         0.156621; 0.982086; 0.104587;,
         0.156621; 0.982086; 0.104587;,
         0.156621; 0.982086; 0.104587;,
         0.156621; 0.982086; 0.104587;,
         0.108737; 0.809015;-0.577593;,
         0.108737; 0.809015;-0.577593;,
         0.108737; 0.809015;-0.577593;,
         0.108737; 0.809015;-0.577593;,
        -0.018097; 0.087985;-0.995941;,
         0.023743; 0.406415;-0.913358;,
         0.023743; 0.406415;-0.913358;,
        -0.018097; 0.087954;-0.995941;,
        -0.042604;-0.110569;-0.992950;,
        -0.042604;-0.110569;-0.992950;,
        -0.042604;-0.110569;-0.992950;,
        -0.042604;-0.110569;-0.992950;,
        -0.126164;-0.955443;-0.266823;,
        -0.126164;-0.955443;-0.266823;,
        -0.126164;-0.955443;-0.266823;,
        -0.126164;-0.955443;-0.266823;,
        -0.124729;-0.989441;-0.073458;,
        -0.124729;-0.989441;-0.073458;,
        -0.124729;-0.989441;-0.073458;,
        -0.124729;-0.989441;-0.073458;,
        -0.119388;-0.987548; 0.102115;,
        -0.119388;-0.987548; 0.102115;,
        -0.119388;-0.987548; 0.102115;,
        -0.119388;-0.987548; 0.102115;,
         0.019562; 0.217292;-0.975890;,
         0.072420; 0.548967;-0.832667;,
         0.072420; 0.548967;-0.832667;,
         0.017853; 0.206427;-0.978271;,
        -0.152074;-0.980102;-0.127537;,
        -0.152074;-0.980102;-0.127537;,
        -0.152074;-0.980102;-0.127537;,
        -0.152074;-0.980102;-0.127537;;
        58;
        4;3,2,1,0;,
        4;7,6,5,4;,
        4;11,10,9,8;,
        4;15,14,13,12;,
        4;19,18,17,16;,
        4;23,22,21,20;,
        4;27,26,25,24;,
        4;31,30,29,28;,
        4;35,34,33,32;,
        4;39,38,37,36;,
        4;43,42,41,40;,
        4;47,46,45,44;,
        4;51,50,49,48;,
        4;55,54,53,52;,
        4;59,58,57,56;,
        4;63,62,61,60;,
        4;67,66,65,64;,
        4;71,70,69,68;,
        4;75,74,73,72;,
        4;79,78,77,76;,
        4;83,82,81,80;,
        4;87,86,85,84;,
        4;91,90,89,88;,
        4;95,94,93,92;,
        4;99,98,97,96;,
        4;103,102,101,100;,
        4;107,106,105,104;,
        4;111,110,109,108;,
        4;115,114,113,112;,
        4;119,118,117,116;,
        4;123,122,121,120;,
        4;127,126,125,124;,
        4;131,130,129,128;,
        4;135,134,133,132;,
        4;139,138,137,136;,
        4;143,142,141,140;,
        4;147,146,145,144;,
        4;151,150,149,148;,
        4;155,154,153,152;,
        4;159,158,157,156;,
        4;163,162,161,160;,
        4;167,166,165,164;,
        4;171,170,169,168;,
        4;175,174,173,172;,
        4;179,178,177,176;,
        4;183,182,181,180;,
        4;187,186,185,184;,
        4;191,190,189,188;,
        4;195,194,193,192;,
        4;199,198,197,196;,
        4;203,202,201,200;,
        4;207,206,205,204;,
        4;211,210,209,208;,
        4;215,214,213,212;,
        4;219,218,217,216;,
        4;223,222,221,220;,
        4;227,226,225,224;,
        4;231,230,229,228;;
      } // End of Cube normals
      MeshTextureCoords { // Cube UV coordinates
        232;
         0.808677; 0.826729;,
         0.834206; 0.940096;,
         0.849245; 0.926145;,
         0.829261; 0.824555;,
         0.504138; 0.999111;,
         0.608594; 0.999404;,
         0.604239; 0.530806;,
         0.497500; 0.530376;,
         0.192979; 0.530751;,
         0.285228; 0.529151;,
         0.281272; 0.470631;,
         0.192128; 0.483755;,
         0.192979; 0.530751;,
         0.073278; 0.532053;,
         0.069148; 1.000000;,
         0.187547; 0.999019;,
         0.246021; 0.151306;,
         0.281272; 0.470631;,
         0.343999; 0.466352;,
         0.307845; 0.147996;,
         0.604239; 0.530806;,
         0.608594; 0.999404;,
         0.665499; 0.999747;,
         0.665499; 0.531237;,
         0.069148; 1.000000;,
         0.073278; 0.532053;,
         0.000319; 0.531979;,
         0.000000; 0.999708;,
         0.413480; 0.529910;,
         0.416394; 0.474150;,
         0.354863; 0.471912;,
         0.349798; 0.527615;,
         0.936825; 0.262720;,
         0.953612; 0.274532;,
         0.971743; 0.231168;,
         0.963723; 0.212702;,
         0.497500; 0.530376;,
         0.604239; 0.530806;,
         0.602648; 0.498170;,
         0.497543; 0.486159;,
         0.945639; 0.358331;,
         0.953612; 0.274532;,
         0.936825; 0.262720;,
         0.924941; 0.358694;,
         0.497543; 0.486159;,
         0.602648; 0.498170;,
         0.603030; 0.178007;,
         0.518964; 0.166252;,
         0.192128; 0.483755;,
         0.281272; 0.470631;,
         0.246021; 0.151306;,
         0.165462; 0.163644;,
         0.799977; 0.734442;,
         0.819288; 0.741761;,
         0.844852; 0.674792;,
         0.832231; 0.658700;,
         0.074582; 0.496675;,
         0.192128; 0.483755;,
         0.165462; 0.163644;,
         0.067648; 0.175907;,
         0.416394; 0.474150;,
         0.497543; 0.486159;,
         0.518964; 0.166252;,
         0.448573; 0.154569;,
         0.937009; 0.428765;,
         0.945639; 0.358331;,
         0.924941; 0.358694;,
         0.918745; 0.438305;,
         0.413480; 0.529910;,
         0.497500; 0.530376;,
         0.497543; 0.486159;,
         0.416394; 0.474150;,
         0.285228; 0.529151;,
         0.192979; 0.530751;,
         0.187547; 0.999019;,
         0.281330; 0.997627;,
         0.073278; 0.532053;,
         0.192979; 0.530751;,
         0.192128; 0.483755;,
         0.074582; 0.496675;,
         0.419315; 0.998737;,
         0.504138; 0.999111;,
         0.497500; 0.530376;,
         0.413480; 0.529910;,
         0.799977; 0.734442;,
         0.808677; 0.826729;,
         0.829261; 0.824555;,
         0.819288; 0.741761;,
         0.665499; 0.531237;,
         0.665499; 0.999747;,
         0.685232; 1.000000;,
         0.685232; 0.531490;,
         0.663384; 0.498623;,
         0.682957; 0.496162;,
         0.665561; 0.176023;,
         0.645988; 0.178485;,
         0.665499; 0.531237;,
         0.685232; 0.531490;,
         0.682957; 0.496162;,
         0.663384; 0.498623;,
         0.603030; 0.178007;,
         0.602648; 0.498170;,
         0.663384; 0.498623;,
         0.645988; 0.178485;,
         0.602648; 0.498170;,
         0.604239; 0.530806;,
         0.665499; 0.531237;,
         0.663384; 0.498623;,
         0.073278; 0.532053;,
         0.074582; 0.496675;,
         0.002405; 0.496654;,
         0.000319; 0.531979;,
         0.074582; 0.496675;,
         0.067648; 0.175907;,
         0.013997; 0.175884;,
         0.002405; 0.496654;,
         0.849245; 0.926145;,
         0.834206; 0.940096;,
         0.878305; 1.000000;,
         0.883599; 0.980375;,
         0.749079; 0.999419;,
         0.740702; 0.679625;,
         0.687701; 0.680456;,
         0.717854; 1.000000;,
         0.832231; 0.658700;,
         0.844852; 0.674792;,
         0.880813; 0.646058;,
         0.883599; 0.625943;,
         0.791581; 0.531172;,
         0.789976; 0.475494;,
         0.751691; 0.474673;,
         0.749080; 0.530347;,
         0.281272; 0.470631;,
         0.285228; 0.529151;,
         0.349798; 0.524729;,
         0.343999; 0.466352;,
         0.937009; 0.428765;,
         0.918745; 0.438305;,
         0.943155; 0.501581;,
         0.953806; 0.484174;,
         0.285228; 0.529151;,
         0.281330; 0.997627;,
         0.349798; 0.993348;,
         0.349798; 0.524729;,
         0.416394; 0.474150;,
         0.448573; 0.154569;,
         0.391028; 0.152747;,
         0.354863; 0.471912;,
         0.419315; 0.998737;,
         0.413480; 0.529910;,
         0.349798; 0.527615;,
         0.352354; 0.996508;,
         0.918745; 0.999392;,
         0.903946; 0.530710;,
         0.883599; 0.531318;,
         0.898398; 1.000000;,
         0.883599; 0.531318;,
         0.903946; 0.530710;,
         0.907302; 0.474922;,
         0.887043; 0.472813;,
         0.887043; 0.472813;,
         0.907302; 0.474922;,
         0.918745; 0.155487;,
         0.898485; 0.153378;,
         0.953806; 0.484174;,
         0.943155; 0.501581;,
         0.971744; 0.533633;,
         0.966897; 0.513990;,
         0.740702; 0.679625;,
         0.742609; 0.621166;,
         0.685232; 0.622016;,
         0.687701; 0.680456;,
         0.742609; 0.621166;,
         0.749080; 0.152391;,
         0.692165; 0.153162;,
         0.685232; 0.622016;,
         0.799977; 1.000000;,
         0.791581; 0.531172;,
         0.749080; 0.530347;,
         0.757336; 0.999163;,
         0.789976; 0.475494;,
         0.799977; 0.156065;,
         0.782176; 0.155237;,
         0.751691; 0.474673;,
         0.995481; 0.212702;,
         0.994647; 0.108520;,
         0.918745; 0.108515;,
         0.919578; 0.212697;,
         0.882658; 0.623470;,
         0.881287; 0.479352;,
         0.799977; 0.481825;,
         0.801349; 0.625943;,
         0.920326; 0.761633;,
         0.918745; 1.000000;,
         0.994681; 0.999445;,
         0.994681; 0.754162;,
         0.919157; 0.548454;,
         0.918745; 0.754162;,
         1.000000; 0.749332;,
         1.000000; 0.533633;,
         0.682775; 0.152391;,
         0.749080; 0.151374;,
         0.749080; 0.078085;,
         0.689949; 0.078264;,
         0.994647; 0.108520;,
         0.995481; 0.000005;,
         0.919578; 0.000000;,
         0.918745; 0.108515;,
         0.640241; 0.078322;,
         0.576102; 0.068528;,
         0.576102; 0.142952;,
         0.640241; 0.152747;,
         0.425629; 0.148874;,
         0.425629; 0.022030;,
         0.349799; 0.025906;,
         0.349798; 0.152747;,
         0.425629; 0.053192;,
         0.425630; 0.142463;,
         0.500835; 0.152747;,
         0.500835; 0.063469;,
         0.500835; 0.066703;,
         0.500838; 0.142881;,
         0.576102; 0.152747;,
         0.576102; 0.076573;,
         0.881287; 0.479352;,
         0.882658; 0.328249;,
         0.801349; 0.330722;,
         0.799977; 0.481825;,
         0.799977; 0.067832;,
         0.799981; 0.327803;,
         0.881352; 0.328249;,
         0.881352; 0.068278;;
      } // End of Cube UV coordinates
      MeshMaterialList { // Cube material list
        1;
        58;
        0,
        0,
        0,
        0,
        0,
        0,
        0,
        0,
        0,
        0,
        0,
        0,
        0,
        0,
        0,
        0,
        0,
        0,
        0,
        0,
        0,
        0,
        0,
        0,
        0,
        0,
        0,
        0,
        0,
        0,
        0,
        0,
        0,
        0,
        0,
        0,
        0,
        0,
        0,
        0,
        0,
        0,
        0,
        0,
        0,
        0,
        0,
        0,
        0,
        0,
        0,
        0,
        0,
        0,
        0,
        0,
        0,
        0;
        Material Material_001 {
           0.640000; 0.640000; 0.640000; 1.000000;;
           96.078431;
           0.500000; 0.500000; 0.500000;;
           0.000000; 0.000000; 0.000000;;
        }
      } // End of Cube material list
    } // End of Cube mesh
  } // End of Cube
} // End of Root
