xof 0303txt 0032

Frame Root {
  FrameTransformMatrix {
     1.000000, 0.000000, 0.000000, 0.000000,
     0.000000,-0.000000, 1.000000, 0.000000,
     0.000000, 1.000000, 0.000000, 0.000000,
     0.000000, 0.000000, 0.000000, 1.000000;;
  }
  Frame _000 {
    FrameTransformMatrix {
       1.000000, 0.000000, 0.000000, 0.000000,
       0.000000, 1.000000, 0.000000, 0.000000,
       0.000000, 0.000000, 1.000000, 0.000000,
       0.000000, 0.000000, 0.000000, 1.000000;;
    }
    Mesh { // _000 mesh
      552;
       0.036372;-0.029021; 0.045551;,
       0.038268; 0.003997; 0.045551;,
       0.005249; 0.005892; 0.045551;,
       0.003353;-0.027126; 0.045551;,
       0.003983;-0.061686; 0.020335;,
       0.033774;-0.063396; 0.020335;,
       0.036372;-0.029021; 0.045551;,
       0.003353;-0.027126; 0.045551;,
       0.004367;-0.063212;-0.022651;,
       0.034158;-0.064922;-0.022651;,
       0.033774;-0.063396; 0.020335;,
       0.003983;-0.061686; 0.020335;,
       0.002233;-0.024525;-0.050848;,
       0.035251;-0.026420;-0.050848;,
       0.034158;-0.064922;-0.022651;,
       0.004367;-0.063212;-0.022651;,
       0.002379; 0.007041;-0.050426;,
       0.035398; 0.005145;-0.050426;,
       0.035251;-0.026420;-0.050848;,
       0.002233;-0.024525;-0.050848;,
      -0.001161; 0.049799;-0.002123;,
      -0.001312; 0.047175;-0.002123;,
      -0.002516; 0.049218;-0.002431;,
      -0.002346; 0.052174;-0.002431;,
      -0.001312; 0.047175;-0.002123;,
      -0.001161; 0.049799;-0.002123;,
       0.132089; 0.042151;-0.002123;,
       0.131939; 0.039527;-0.002123;,
       0.131939; 0.039527;-0.002123;,
       0.132089; 0.042151;-0.002123;,
       0.134994; 0.044427;-0.002298;,
       0.134823; 0.041451;-0.002298;,
      -0.001471; 0.044396; 0.018201;,
      -0.001909; 0.036768; 0.032231;,
      -0.003189; 0.037491; 0.032781;,
      -0.002696; 0.046086; 0.016972;,
      -0.001312; 0.047175;-0.002123;,
       0.131939; 0.039527;-0.002123;,
       0.131779; 0.036748; 0.018201;,
      -0.001471; 0.044396; 0.018201;,
       0.132089; 0.042151;-0.002123;,
      -0.001161; 0.049799;-0.002123;,
      -0.001340; 0.046689; 0.019480;,
       0.131911; 0.039040; 0.019480;,
      -0.001909; 0.036768; 0.032231;,
       0.131341; 0.029120; 0.032231;,
       0.130529; 0.014961; 0.041665;,
      -0.002722; 0.022610; 0.041665;,
      -0.001471; 0.044396; 0.018201;,
       0.131779; 0.036748; 0.018201;,
       0.131341; 0.029120; 0.032231;,
      -0.001909; 0.036768; 0.032231;,
       0.131911; 0.039040; 0.019480;,
      -0.001340; 0.046689; 0.019480;,
      -0.001826; 0.038208; 0.034428;,
       0.131424; 0.030560; 0.034428;,
       0.130556; 0.015441; 0.044249;,
       0.129472;-0.003451; 0.047767;,
       0.132025;-0.007299; 0.050436;,
       0.133255; 0.014130; 0.046445;,
       0.130556; 0.015441; 0.044249;,
      -0.002694; 0.023089; 0.044249;,
      -0.003779; 0.004198; 0.047767;,
       0.129472;-0.003451; 0.047767;,
      -0.002694; 0.023089; 0.044249;,
      -0.001826; 0.038208; 0.034428;,
      -0.003096; 0.039113; 0.035256;,
      -0.004074; 0.022078; 0.046322;,
       0.131424; 0.030560; 0.034428;,
      -0.001826; 0.038208; 0.034428;,
      -0.002694; 0.023089; 0.044249;,
       0.130556; 0.015441; 0.044249;,
       0.131911; 0.039040; 0.019480;,
       0.131424; 0.030560; 0.034428;,
       0.134239; 0.031280; 0.035305;,
       0.134791; 0.040899; 0.018349;,
       0.129444;-0.003931; 0.045183;,
       0.129472;-0.003451; 0.047767;,
      -0.003779; 0.004198; 0.047767;,
      -0.003806; 0.003718; 0.045183;,
       0.129472;-0.003451; 0.047767;,
       0.129444;-0.003931; 0.045183;,
       0.131994;-0.007843; 0.047505;,
       0.132025;-0.007299; 0.050436;,
      -0.002722; 0.022610; 0.041665;,
       0.130529; 0.014961; 0.041665;,
       0.129444;-0.003931; 0.045183;,
      -0.003806; 0.003718; 0.045183;,
      -0.001340; 0.046689; 0.019480;,
      -0.001161; 0.049799;-0.002123;,
      -0.002346; 0.052174;-0.002431;,
      -0.002547; 0.048669; 0.018413;,
      -0.003189; 0.037491; 0.032781;,
      -0.004105; 0.021537; 0.043411;,
      -0.009161; 0.021828; 0.043411;,
      -0.008245; 0.037781; 0.032781;,
      -0.005296; 0.000791; 0.050287;,
      -0.004074; 0.022078; 0.046322;,
      -0.009130; 0.022368; 0.046322;,
      -0.010352; 0.001081; 0.050287;,
      -0.002516; 0.049218;-0.002431;,
      -0.002696; 0.046086; 0.016972;,
      -0.007752; 0.046376; 0.016972;,
      -0.007572; 0.049508;-0.002431;,
      -0.005327; 0.000250; 0.047375;,
      -0.005296; 0.000791; 0.050287;,
      -0.010352; 0.001081; 0.050287;,
      -0.010383; 0.000540; 0.047375;,
      -0.001312; 0.047175;-0.002123;,
      -0.001471; 0.044396; 0.018201;,
      -0.002696; 0.046086; 0.016972;,
      -0.002516; 0.049218;-0.002431;,
      -0.001826; 0.038208; 0.034428;,
      -0.001340; 0.046689; 0.019480;,
      -0.002547; 0.048669; 0.018413;,
      -0.003096; 0.039113; 0.035256;,
      -0.003806; 0.003718; 0.045183;,
      -0.003779; 0.004198; 0.047767;,
      -0.005296; 0.000791; 0.050287;,
      -0.005327; 0.000250; 0.047375;,
      -0.002722; 0.022610; 0.041665;,
      -0.003806; 0.003718; 0.045183;,
      -0.005327; 0.000250; 0.047375;,
      -0.004105; 0.021537; 0.043411;,
      -0.001909; 0.036768; 0.032231;,
      -0.002722; 0.022610; 0.041665;,
      -0.004105; 0.021537; 0.043411;,
      -0.003189; 0.037491; 0.032781;,
      -0.003779; 0.004198; 0.047767;,
      -0.002694; 0.023089; 0.044249;,
      -0.004074; 0.022078; 0.046322;,
      -0.005296; 0.000791; 0.050287;,
      -0.007752; 0.046376; 0.016972;,
      -0.007603; 0.048959; 0.018413;,
      -0.007402; 0.052464;-0.002431;,
      -0.007572; 0.049508;-0.002431;,
      -0.007603; 0.048959; 0.018413;,
      -0.007752; 0.046376; 0.016972;,
      -0.008245; 0.037781; 0.032781;,
      -0.008152; 0.039404; 0.035256;,
      -0.008152; 0.039404; 0.035256;,
      -0.008245; 0.037781; 0.032781;,
      -0.009161; 0.021828; 0.043411;,
      -0.009130; 0.022368; 0.046322;,
      -0.009130; 0.022368; 0.046322;,
      -0.009161; 0.021828; 0.043411;,
      -0.010383; 0.000540; 0.047375;,
      -0.010352; 0.001081; 0.050287;,
      -0.002696; 0.046086; 0.016972;,
      -0.003189; 0.037491; 0.032781;,
      -0.008245; 0.037781; 0.032781;,
      -0.007752; 0.046376; 0.016972;,
      -0.004105; 0.021537; 0.043411;,
      -0.005327; 0.000250; 0.047375;,
      -0.010383; 0.000540; 0.047375;,
      -0.009161; 0.021828; 0.043411;,
      -0.002547; 0.048669; 0.018413;,
      -0.002346; 0.052174;-0.002431;,
      -0.007402; 0.052464;-0.002431;,
      -0.007603; 0.048959; 0.018413;,
      -0.004074; 0.022078; 0.046322;,
      -0.003096; 0.039113; 0.035256;,
      -0.008152; 0.039404; 0.035256;,
      -0.009130; 0.022368; 0.046322;,
      -0.003096; 0.039113; 0.035256;,
      -0.002547; 0.048669; 0.018413;,
      -0.007603; 0.048959; 0.018413;,
      -0.008152; 0.039404; 0.035256;,
      -0.002346; 0.052174;-0.002431;,
      -0.002516; 0.049218;-0.002431;,
      -0.007572; 0.049508;-0.002431;,
      -0.007402; 0.052464;-0.002431;,
       0.134146; 0.029646; 0.032814;,
       0.134642; 0.038299; 0.016899;,
       0.139607; 0.038014; 0.016899;,
       0.139111; 0.029361; 0.032814;,
       0.133224; 0.013586; 0.043514;,
       0.134146; 0.029646; 0.032814;,
       0.139111; 0.029361; 0.032814;,
       0.138189; 0.013301; 0.043514;,
       0.134642; 0.038299; 0.016899;,
       0.134823; 0.041451;-0.002298;,
       0.139788; 0.041166;-0.002298;,
       0.139607; 0.038014; 0.016899;,
       0.133255; 0.014130; 0.046445;,
       0.132025;-0.007299; 0.050436;,
       0.136990;-0.007584; 0.050436;,
       0.138220; 0.013845; 0.046445;,
       0.131424; 0.030560; 0.034428;,
       0.130556; 0.015441; 0.044249;,
       0.133255; 0.014130; 0.046445;,
       0.134239; 0.031280; 0.035305;,
       0.129444;-0.003931; 0.045183;,
       0.130529; 0.014961; 0.041665;,
       0.133224; 0.013586; 0.043514;,
       0.131994;-0.007843; 0.047505;,
       0.131779; 0.036748; 0.018201;,
       0.131939; 0.039527;-0.002123;,
       0.134823; 0.041451;-0.002298;,
       0.134642; 0.038299; 0.016899;,
       0.130529; 0.014961; 0.041665;,
       0.131341; 0.029120; 0.032231;,
       0.134146; 0.029646; 0.032814;,
       0.133224; 0.013586; 0.043514;,
       0.131341; 0.029120; 0.032231;,
       0.131779; 0.036748; 0.018201;,
       0.134642; 0.038299; 0.016899;,
       0.134146; 0.029646; 0.032814;,
       0.132089; 0.042151;-0.002123;,
       0.131911; 0.039040; 0.019480;,
       0.134791; 0.040899; 0.018349;,
       0.134994; 0.044427;-0.002298;,
       0.139788; 0.041166;-0.002298;,
       0.139959; 0.044142;-0.002298;,
       0.139756; 0.040614; 0.018349;,
       0.139607; 0.038014; 0.016899;,
       0.139607; 0.038014; 0.016899;,
       0.139756; 0.040614; 0.018349;,
       0.139204; 0.030995; 0.035305;,
       0.139111; 0.029361; 0.032814;,
       0.139111; 0.029361; 0.032814;,
       0.139204; 0.030995; 0.035305;,
       0.138220; 0.013845; 0.046445;,
       0.138189; 0.013301; 0.043514;,
       0.138189; 0.013301; 0.043514;,
       0.138220; 0.013845; 0.046445;,
       0.136990;-0.007584; 0.050436;,
       0.136959;-0.008128; 0.047505;,
       0.131994;-0.007843; 0.047505;,
       0.133224; 0.013586; 0.043514;,
       0.138189; 0.013301; 0.043514;,
       0.136959;-0.008128; 0.047505;,
       0.134994; 0.044427;-0.002298;,
       0.134791; 0.040899; 0.018349;,
       0.139756; 0.040614; 0.018349;,
       0.139959; 0.044142;-0.002298;,
       0.134239; 0.031280; 0.035305;,
       0.133255; 0.014130; 0.046445;,
       0.138220; 0.013845; 0.046445;,
       0.139204; 0.030995; 0.035305;,
       0.134791; 0.040899; 0.018349;,
       0.134239; 0.031280; 0.035305;,
       0.139204; 0.030995; 0.035305;,
       0.139756; 0.040614; 0.018349;,
       0.132025;-0.007299; 0.050436;,
       0.131994;-0.007843; 0.047505;,
       0.136959;-0.008128; 0.047505;,
       0.136990;-0.007584; 0.050436;,
       0.134823; 0.041451;-0.002298;,
       0.134994; 0.044427;-0.002298;,
       0.139959; 0.044142;-0.002298;,
       0.139788; 0.041166;-0.002298;,
      -0.001161; 0.049799;-0.003467;,
      -0.002346; 0.052174;-0.003159;,
      -0.002516; 0.049218;-0.003159;,
      -0.001312; 0.047175;-0.003467;,
      -0.001312; 0.047175;-0.003467;,
       0.131939; 0.039527;-0.003467;,
       0.132089; 0.042151;-0.003467;,
      -0.001161; 0.049799;-0.003467;,
       0.131939; 0.039527;-0.003467;,
       0.134823; 0.041451;-0.003292;,
       0.134994; 0.044427;-0.003292;,
       0.132089; 0.042151;-0.003467;,
      -0.001471; 0.044396;-0.023791;,
      -0.002696; 0.046086;-0.022562;,
      -0.003189; 0.037491;-0.038371;,
      -0.001909; 0.036768;-0.037822;,
      -0.001312; 0.047175;-0.003467;,
      -0.001471; 0.044396;-0.023791;,
       0.131779; 0.036748;-0.023791;,
       0.131939; 0.039527;-0.003467;,
       0.132089; 0.042151;-0.003467;,
       0.131911; 0.039040;-0.025070;,
      -0.001340; 0.046689;-0.025070;,
      -0.001161; 0.049799;-0.003467;,
      -0.001909; 0.036768;-0.037822;,
      -0.002722; 0.022610;-0.047255;,
       0.130529; 0.014961;-0.047255;,
       0.131341; 0.029120;-0.037822;,
      -0.001471; 0.044396;-0.023791;,
      -0.001909; 0.036768;-0.037822;,
       0.131341; 0.029120;-0.037822;,
       0.131779; 0.036748;-0.023791;,
       0.131911; 0.039040;-0.025070;,
       0.131424; 0.030560;-0.040018;,
      -0.001826; 0.038208;-0.040018;,
      -0.001340; 0.046689;-0.025070;,
       0.130556; 0.015441;-0.049839;,
       0.133255; 0.014131;-0.052035;,
       0.132025;-0.007299;-0.056026;,
       0.129472;-0.003451;-0.053357;,
       0.130556; 0.015441;-0.049839;,
       0.129472;-0.003451;-0.053357;,
      -0.003779; 0.004198;-0.053357;,
      -0.002694; 0.023090;-0.049839;,
      -0.002694; 0.023090;-0.049839;,
      -0.004074; 0.022078;-0.051912;,
      -0.003096; 0.039113;-0.040847;,
      -0.001826; 0.038208;-0.040018;,
       0.131424; 0.030560;-0.040018;,
       0.130556; 0.015441;-0.049839;,
      -0.002694; 0.023090;-0.049839;,
      -0.001826; 0.038208;-0.040018;,
       0.131911; 0.039040;-0.025070;,
       0.134791; 0.040899;-0.023940;,
       0.134239; 0.031280;-0.040896;,
       0.131424; 0.030560;-0.040018;,
       0.129444;-0.003931;-0.050774;,
      -0.003806; 0.003718;-0.050774;,
      -0.003779; 0.004198;-0.053357;,
       0.129472;-0.003451;-0.053357;,
       0.129472;-0.003451;-0.053357;,
       0.132025;-0.007299;-0.056026;,
       0.131994;-0.007843;-0.053095;,
       0.129444;-0.003931;-0.050774;,
      -0.002722; 0.022610;-0.047255;,
      -0.003806; 0.003718;-0.050774;,
       0.129444;-0.003931;-0.050774;,
       0.130529; 0.014961;-0.047255;,
      -0.001340; 0.046689;-0.025070;,
      -0.002547; 0.048669;-0.024003;,
      -0.002346; 0.052174;-0.003159;,
      -0.001161; 0.049799;-0.003467;,
      -0.003189; 0.037491;-0.038371;,
      -0.008245; 0.037781;-0.038371;,
      -0.009161; 0.021828;-0.049001;,
      -0.004105; 0.021537;-0.049001;,
      -0.005296; 0.000791;-0.055877;,
      -0.010352; 0.001081;-0.055877;,
      -0.009130; 0.022368;-0.051912;,
      -0.004074; 0.022078;-0.051912;,
      -0.002516; 0.049218;-0.003159;,
      -0.007572; 0.049508;-0.003159;,
      -0.007752; 0.046376;-0.022562;,
      -0.002696; 0.046086;-0.022562;,
      -0.005327; 0.000250;-0.052965;,
      -0.010383; 0.000540;-0.052965;,
      -0.010352; 0.001081;-0.055877;,
      -0.005296; 0.000791;-0.055877;,
      -0.001312; 0.047175;-0.003467;,
      -0.002516; 0.049218;-0.003159;,
      -0.002696; 0.046086;-0.022562;,
      -0.001471; 0.044396;-0.023791;,
      -0.001826; 0.038208;-0.040018;,
      -0.003096; 0.039113;-0.040847;,
      -0.002547; 0.048669;-0.024003;,
      -0.001340; 0.046689;-0.025070;,
      -0.003806; 0.003718;-0.050774;,
      -0.005327; 0.000250;-0.052965;,
      -0.005296; 0.000791;-0.055877;,
      -0.003779; 0.004198;-0.053357;,
      -0.002722; 0.022610;-0.047255;,
      -0.004105; 0.021537;-0.049001;,
      -0.005327; 0.000250;-0.052965;,
      -0.003806; 0.003718;-0.050774;,
      -0.001909; 0.036768;-0.037822;,
      -0.003189; 0.037491;-0.038371;,
      -0.004105; 0.021537;-0.049001;,
      -0.002722; 0.022610;-0.047255;,
      -0.003779; 0.004198;-0.053357;,
      -0.005296; 0.000791;-0.055877;,
      -0.004074; 0.022078;-0.051912;,
      -0.002694; 0.023090;-0.049839;,
      -0.007752; 0.046376;-0.022562;,
      -0.007572; 0.049508;-0.003159;,
      -0.007402; 0.052464;-0.003159;,
      -0.007603; 0.048959;-0.024003;,
      -0.007603; 0.048959;-0.024003;,
      -0.008152; 0.039404;-0.040847;,
      -0.008245; 0.037781;-0.038371;,
      -0.007752; 0.046376;-0.022562;,
      -0.008152; 0.039404;-0.040847;,
      -0.009130; 0.022368;-0.051912;,
      -0.009161; 0.021828;-0.049001;,
      -0.008245; 0.037781;-0.038371;,
      -0.009130; 0.022368;-0.051912;,
      -0.010352; 0.001081;-0.055877;,
      -0.010383; 0.000540;-0.052965;,
      -0.009161; 0.021828;-0.049001;,
      -0.002696; 0.046086;-0.022562;,
      -0.007752; 0.046376;-0.022562;,
      -0.008245; 0.037781;-0.038371;,
      -0.003189; 0.037491;-0.038371;,
      -0.004105; 0.021537;-0.049001;,
      -0.009161; 0.021828;-0.049001;,
      -0.010383; 0.000540;-0.052965;,
      -0.005327; 0.000250;-0.052965;,
      -0.002547; 0.048669;-0.024003;,
      -0.007603; 0.048959;-0.024003;,
      -0.007402; 0.052464;-0.003159;,
      -0.002346; 0.052174;-0.003159;,
      -0.004074; 0.022078;-0.051912;,
      -0.009130; 0.022368;-0.051912;,
      -0.008152; 0.039404;-0.040847;,
      -0.003096; 0.039113;-0.040847;,
      -0.003096; 0.039113;-0.040847;,
      -0.008152; 0.039404;-0.040847;,
      -0.007603; 0.048959;-0.024003;,
      -0.002547; 0.048669;-0.024003;,
      -0.002346; 0.052174;-0.003159;,
      -0.007402; 0.052464;-0.003159;,
      -0.007572; 0.049508;-0.003159;,
      -0.002516; 0.049218;-0.003159;,
       0.134146; 0.029646;-0.038404;,
       0.139111; 0.029361;-0.038404;,
       0.139607; 0.038014;-0.022489;,
       0.134642; 0.038299;-0.022489;,
       0.133224; 0.013586;-0.049104;,
       0.138189; 0.013301;-0.049104;,
       0.139111; 0.029361;-0.038404;,
       0.134146; 0.029646;-0.038404;,
       0.134642; 0.038299;-0.022489;,
       0.139607; 0.038014;-0.022489;,
       0.139788; 0.041166;-0.003292;,
       0.134823; 0.041451;-0.003292;,
       0.133255; 0.014131;-0.052035;,
       0.138220; 0.013846;-0.052035;,
       0.136990;-0.007584;-0.056026;,
       0.132025;-0.007299;-0.056026;,
       0.131424; 0.030560;-0.040018;,
       0.134239; 0.031280;-0.040896;,
       0.133255; 0.014131;-0.052035;,
       0.130556; 0.015441;-0.049839;,
       0.129444;-0.003931;-0.050774;,
       0.131994;-0.007843;-0.053095;,
       0.133224; 0.013586;-0.049104;,
       0.130529; 0.014961;-0.047255;,
       0.131779; 0.036748;-0.023791;,
       0.134642; 0.038299;-0.022489;,
       0.134823; 0.041451;-0.003292;,
       0.131939; 0.039527;-0.003467;,
       0.130529; 0.014961;-0.047255;,
       0.133224; 0.013586;-0.049104;,
       0.134146; 0.029646;-0.038404;,
       0.131341; 0.029120;-0.037822;,
       0.131341; 0.029120;-0.037822;,
       0.134146; 0.029646;-0.038404;,
       0.134642; 0.038299;-0.022489;,
       0.131779; 0.036748;-0.023791;,
       0.132089; 0.042151;-0.003467;,
       0.134994; 0.044427;-0.003292;,
       0.134791; 0.040899;-0.023940;,
       0.131911; 0.039040;-0.025070;,
       0.139788; 0.041166;-0.003292;,
       0.139607; 0.038014;-0.022489;,
       0.139756; 0.040614;-0.023940;,
       0.139959; 0.044142;-0.003292;,
       0.139607; 0.038014;-0.022489;,
       0.139111; 0.029361;-0.038404;,
       0.139204; 0.030995;-0.040896;,
       0.139756; 0.040614;-0.023940;,
       0.139111; 0.029361;-0.038404;,
       0.138189; 0.013301;-0.049104;,
       0.138220; 0.013846;-0.052035;,
       0.139204; 0.030995;-0.040896;,
       0.138189; 0.013301;-0.049104;,
       0.136959;-0.008128;-0.053095;,
       0.136990;-0.007584;-0.056026;,
       0.138220; 0.013846;-0.052035;,
       0.131994;-0.007843;-0.053095;,
       0.136959;-0.008128;-0.053095;,
       0.138189; 0.013301;-0.049104;,
       0.133224; 0.013586;-0.049104;,
       0.134994; 0.044427;-0.003292;,
       0.139959; 0.044142;-0.003292;,
       0.139756; 0.040614;-0.023940;,
       0.134791; 0.040899;-0.023940;,
       0.134239; 0.031280;-0.040896;,
       0.139204; 0.030995;-0.040896;,
       0.138220; 0.013846;-0.052035;,
       0.133255; 0.014131;-0.052035;,
       0.134791; 0.040899;-0.023940;,
       0.139756; 0.040614;-0.023940;,
       0.139204; 0.030995;-0.040896;,
       0.134239; 0.031280;-0.040896;,
       0.132025;-0.007299;-0.056026;,
       0.136990;-0.007584;-0.056026;,
       0.136959;-0.008128;-0.053095;,
       0.131994;-0.007843;-0.053095;,
       0.134823; 0.041451;-0.003292;,
       0.139788; 0.041166;-0.003292;,
       0.139959; 0.044142;-0.003292;,
       0.134994; 0.044427;-0.003292;,
       0.134994; 0.044427;-0.002298;,
       0.134994; 0.044427;-0.003292;,
       0.139959; 0.044142;-0.003292;,
       0.139959; 0.044142;-0.002298;,
       0.139788; 0.041166;-0.003292;,
       0.139788; 0.041166;-0.002298;,
       0.139959; 0.044142;-0.002298;,
       0.139959; 0.044142;-0.003292;,
       0.134823; 0.041451;-0.003292;,
       0.134823; 0.041451;-0.002298;,
       0.139788; 0.041166;-0.002298;,
       0.139788; 0.041166;-0.003292;,
       0.131939; 0.039527;-0.002123;,
       0.131939; 0.039527;-0.003467;,
       0.134823; 0.041451;-0.003292;,
       0.134823; 0.041451;-0.002298;,
       0.131939; 0.039527;-0.002123;,
      -0.001312; 0.047175;-0.002123;,
      -0.001312; 0.047175;-0.003467;,
       0.131939; 0.039527;-0.003467;,
       0.132089; 0.042151;-0.003467;,
       0.132089; 0.042151;-0.002123;,
       0.134994; 0.044427;-0.002298;,
       0.134994; 0.044427;-0.003292;,
      -0.001161; 0.049799;-0.002123;,
       0.132089; 0.042151;-0.002123;,
       0.132089; 0.042151;-0.003467;,
      -0.001161; 0.049799;-0.003467;,
      -0.001161; 0.049799;-0.002123;,
      -0.001161; 0.049799;-0.003467;,
      -0.002346; 0.052174;-0.003159;,
      -0.002346; 0.052174;-0.002431;,
      -0.002346; 0.052174;-0.002431;,
      -0.007402; 0.052464;-0.002431;,
      -0.007402; 0.052464;-0.003159;,
      -0.002346; 0.052174;-0.003159;,
      -0.007402; 0.052464;-0.003159;,
      -0.007402; 0.052464;-0.002431;,
      -0.007572; 0.049508;-0.002431;,
      -0.007572; 0.049508;-0.003159;,
      -0.007572; 0.049508;-0.002431;,
      -0.002516; 0.049218;-0.002431;,
      -0.002516; 0.049218;-0.003159;,
      -0.007572; 0.049508;-0.003159;,
      -0.001312; 0.047175;-0.003467;,
      -0.001312; 0.047175;-0.002123;,
      -0.002516; 0.049218;-0.002431;,
      -0.002516; 0.049218;-0.003159;,
       0.124695;-0.034091; 0.045551;,
       0.126590;-0.001073; 0.045551;,
       0.093571; 0.000822; 0.045551;,
       0.091676;-0.032196; 0.045551;,
       0.092305;-0.066756; 0.020335;,
       0.122096;-0.068466; 0.020335;,
       0.124695;-0.034091; 0.045551;,
       0.091676;-0.032196; 0.045551;,
       0.092689;-0.068282;-0.022651;,
       0.122480;-0.069992;-0.022651;,
       0.122096;-0.068466; 0.020335;,
       0.092305;-0.066756; 0.020335;,
       0.090556;-0.029594;-0.050848;,
       0.123574;-0.031490;-0.050848;,
       0.122480;-0.069992;-0.022651;,
       0.092689;-0.068282;-0.022651;,
       0.090701; 0.001971;-0.050426;,
       0.123720; 0.000076;-0.050426;,
       0.123574;-0.031490;-0.050848;,
       0.090556;-0.029594;-0.050848;;
      138;
      4;3,2,1,0;,
      4;7,6,5,4;,
      4;11,10,9,8;,
      4;15,14,13,12;,
      4;19,18,17,16;,
      4;23,22,21,20;,
      4;27,26,25,24;,
      4;31,30,29,28;,
      4;35,34,33,32;,
      4;39,38,37,36;,
      4;43,42,41,40;,
      4;47,46,45,44;,
      4;51,50,49,48;,
      4;55,54,53,52;,
      4;59,58,57,56;,
      4;63,62,61,60;,
      4;67,66,65,64;,
      4;71,70,69,68;,
      4;75,74,73,72;,
      4;79,78,77,76;,
      4;83,82,81,80;,
      4;87,86,85,84;,
      4;91,90,89,88;,
      4;95,94,93,92;,
      4;99,98,97,96;,
      4;103,102,101,100;,
      4;107,106,105,104;,
      4;111,110,109,108;,
      4;115,114,113,112;,
      4;119,118,117,116;,
      4;123,122,121,120;,
      4;127,126,125,124;,
      4;131,130,129,128;,
      4;135,134,133,132;,
      4;139,138,137,136;,
      4;143,142,141,140;,
      4;147,146,145,144;,
      4;151,150,149,148;,
      4;155,154,153,152;,
      4;159,158,157,156;,
      4;163,162,161,160;,
      4;167,166,165,164;,
      4;171,170,169,168;,
      4;175,174,173,172;,
      4;179,178,177,176;,
      4;183,182,181,180;,
      4;187,186,185,184;,
      4;191,190,189,188;,
      4;195,194,193,192;,
      4;199,198,197,196;,
      4;203,202,201,200;,
      4;207,206,205,204;,
      4;211,210,209,208;,
      4;215,214,213,212;,
      4;219,218,217,216;,
      4;223,222,221,220;,
      4;227,226,225,224;,
      4;231,230,229,228;,
      4;235,234,233,232;,
      4;239,238,237,236;,
      4;243,242,241,240;,
      4;247,246,245,244;,
      4;251,250,249,248;,
      4;255,254,253,252;,
      4;259,258,257,256;,
      4;263,262,261,260;,
      4;267,266,265,264;,
      4;271,270,269,268;,
      4;275,274,273,272;,
      4;279,278,277,276;,
      4;283,282,281,280;,
      4;287,286,285,284;,
      4;291,290,289,288;,
      4;295,294,293,292;,
      4;299,298,297,296;,
      4;303,302,301,300;,
      4;307,306,305,304;,
      4;311,310,309,308;,
      4;315,314,313,312;,
      4;319,318,317,316;,
      4;323,322,321,320;,
      4;327,326,325,324;,
      4;331,330,329,328;,
      4;335,334,333,332;,
      4;339,338,337,336;,
      4;343,342,341,340;,
      4;347,346,345,344;,
      4;351,350,349,348;,
      4;355,354,353,352;,
      4;359,358,357,356;,
      4;363,362,361,360;,
      4;367,366,365,364;,
      4;371,370,369,368;,
      4;375,374,373,372;,
      4;379,378,377,376;,
      4;383,382,381,380;,
      4;387,386,385,384;,
      4;391,390,389,388;,
      4;395,394,393,392;,
      4;399,398,397,396;,
      4;403,402,401,400;,
      4;407,406,405,404;,
      4;411,410,409,408;,
      4;415,414,413,412;,
      4;419,418,417,416;,
      4;423,422,421,420;,
      4;427,426,425,424;,
      4;431,430,429,428;,
      4;435,434,433,432;,
      4;439,438,437,436;,
      4;443,442,441,440;,
      4;447,446,445,444;,
      4;451,450,449,448;,
      4;455,454,453,452;,
      4;459,458,457,456;,
      4;463,462,461,460;,
      4;467,466,465,464;,
      4;471,470,469,468;,
      4;475,474,473,472;,
      4;479,478,477,476;,
      4;483,482,481,480;,
      4;487,486,485,484;,
      4;491,490,489,488;,
      4;495,494,493,492;,
      4;499,498,497,496;,
      4;503,502,501,500;,
      4;507,506,505,504;,
      4;511,510,509,508;,
      4;515,514,513,512;,
      4;519,518,517,516;,
      4;523,522,521,520;,
      4;527,526,525,524;,
      4;531,530,529,528;,
      4;535,534,533,532;,
      4;539,538,537,536;,
      4;543,542,541,540;,
      4;547,546,545,544;,
      4;551,550,549,548;;
      MeshNormals { // _000 normals
        552;
         0.000000; 0.000000; 1.000000;,
         0.000000; 0.000000; 1.000000;,
         0.000000; 0.000000; 1.000000;,
         0.000000; 0.000000; 1.000000;,
        -0.033815;-0.589465; 0.807062;,
        -0.033815;-0.589465; 0.807062;,
        -0.033815;-0.589465; 0.807062;,
        -0.033815;-0.589465; 0.807062;,
        -0.057253;-0.997742; 0.034883;,
        -0.057253;-0.997742; 0.034883;,
        -0.057253;-0.997742; 0.034883;,
        -0.057253;-0.997742; 0.034883;,
        -0.033845;-0.589862;-0.806757;,
        -0.033845;-0.589862;-0.806757;,
        -0.033845;-0.589862;-0.806757;,
        -0.033845;-0.589862;-0.806757;,
         0.000763; 0.013337;-0.999908;,
         0.000763; 0.013337;-0.999908;,
         0.000763; 0.013337;-0.999908;,
         0.000763; 0.013337;-0.999908;,
         0.520707; 0.665273;-0.534989;,
        -0.448317;-0.793573;-0.411328;,
        -0.384045;-0.318430;-0.866634;,
         0.781457; 0.391156;-0.486068;,
        -0.448317;-0.793573;-0.411328;,
         0.520707; 0.665273;-0.534989;,
        -0.268532; 0.827082;-0.493728;,
         0.214972;-0.873775;-0.436171;,
         0.214972;-0.873775;-0.436171;,
        -0.268532; 0.827082;-0.493728;,
        -0.508286; 0.665822;-0.546159;,
         0.283853;-0.495987;-0.820582;,
        -0.385968;-0.858882;-0.336619;,
        -0.334300;-0.685781;-0.646474;,
        -0.311350;-0.694082;-0.649037;,
        -0.436506;-0.857509;-0.272256;,
        -0.448317;-0.793573;-0.411328;,
         0.214972;-0.873775;-0.436171;,
         0.150761;-0.928922;-0.338176;,
        -0.385968;-0.858882;-0.336619;,
        -0.268532; 0.827082;-0.493728;,
         0.520707; 0.665273;-0.534989;,
         0.453200; 0.826502; 0.333842;,
        -0.201788; 0.916715; 0.344798;,
        -0.334300;-0.685781;-0.646474;,
         0.118229;-0.735435;-0.667165;,
         0.172155;-0.412214;-0.894650;,
        -0.351939;-0.379772;-0.855495;,
        -0.385968;-0.858882;-0.336619;,
         0.150761;-0.928922;-0.338176;,
         0.118229;-0.735435;-0.667165;,
        -0.334300;-0.685781;-0.646474;,
        -0.201788; 0.916715; 0.344798;,
         0.453200; 0.826502; 0.333842;,
         0.412641; 0.652913; 0.635151;,
        -0.174932; 0.722129; 0.669210;,
        -0.226814; 0.403577; 0.886349;,
        -0.581713;-0.330515; 0.743187;,
        -0.439711;-0.509781; 0.739433;,
        -0.246803; 0.347728; 0.904508;,
        -0.226814; 0.403577; 0.886349;,
         0.424665; 0.352794; 0.833766;,
         0.707785;-0.331919; 0.623554;,
        -0.581713;-0.330515; 0.743187;,
         0.424665; 0.352794; 0.833766;,
         0.412641; 0.652913; 0.635151;,
         0.377361; 0.663320; 0.646199;,
         0.432234; 0.288400; 0.854366;,
        -0.174932; 0.722129; 0.669210;,
         0.412641; 0.652913; 0.635151;,
         0.424665; 0.352794; 0.833766;,
        -0.226814; 0.403577; 0.886349;,
        -0.201788; 0.916715; 0.344798;,
        -0.174932; 0.722129; 0.669210;,
        -0.161962; 0.722312; 0.672292;,
        -0.223426; 0.927122; 0.300851;,
         0.005890;-0.669332;-0.742912;,
        -0.581713;-0.330515; 0.743187;,
         0.707785;-0.331919; 0.623554;,
        -0.251473;-0.628101;-0.736320;,
        -0.581713;-0.330515; 0.743187;,
         0.005890;-0.669332;-0.742912;,
        -0.388775;-0.802942;-0.451735;,
        -0.439711;-0.509781; 0.739433;,
        -0.351939;-0.379772;-0.855495;,
         0.172155;-0.412214;-0.894650;,
         0.005890;-0.669332;-0.742912;,
        -0.251473;-0.628101;-0.736320;,
         0.453200; 0.826502; 0.333842;,
         0.520707; 0.665273;-0.534989;,
         0.781457; 0.391156;-0.486068;,
         0.473647; 0.834407; 0.281747;,
        -0.311350;-0.694082;-0.649037;,
        -0.386578;-0.297891;-0.872799;,
        -0.767937;-0.202795;-0.607532;,
        -0.791314;-0.430067;-0.434553;,
         0.460067;-0.532243; 0.710624;,
         0.432234; 0.288400; 0.854366;,
        -0.648885; 0.314127; 0.692984;,
        -0.602863;-0.428236; 0.673147;,
        -0.384045;-0.318430;-0.866634;,
        -0.436506;-0.857509;-0.272256;,
        -0.781854;-0.585162;-0.215064;,
        -0.086856; 0.015992;-0.996063;,
         0.406995;-0.795648;-0.448653;,
         0.460067;-0.532243; 0.710624;,
        -0.602863;-0.428236; 0.673147;,
        -0.614948;-0.638966;-0.462081;,
        -0.448317;-0.793573;-0.411328;,
        -0.385968;-0.858882;-0.336619;,
        -0.436506;-0.857509;-0.272256;,
        -0.384045;-0.318430;-0.866634;,
         0.412641; 0.652913; 0.635151;,
         0.453200; 0.826502; 0.333842;,
         0.473647; 0.834407; 0.281747;,
         0.377361; 0.663320; 0.646199;,
        -0.251473;-0.628101;-0.736320;,
         0.707785;-0.331919; 0.623554;,
         0.460067;-0.532243; 0.710624;,
         0.406995;-0.795648;-0.448653;,
        -0.351939;-0.379772;-0.855495;,
        -0.251473;-0.628101;-0.736320;,
         0.406995;-0.795648;-0.448653;,
        -0.386578;-0.297891;-0.872799;,
        -0.334300;-0.685781;-0.646474;,
        -0.351939;-0.379772;-0.855495;,
        -0.386578;-0.297891;-0.872799;,
        -0.311350;-0.694082;-0.649037;,
         0.707785;-0.331919; 0.623554;,
         0.424665; 0.352794; 0.833766;,
         0.432234; 0.288400; 0.854366;,
         0.460067;-0.532243; 0.710624;,
        -0.781854;-0.585162;-0.215064;,
        -0.628742; 0.736686; 0.248817;,
         0.125156;-0.023713;-0.991821;,
        -0.086856; 0.015992;-0.996063;,
        -0.628742; 0.736686; 0.248817;,
        -0.781854;-0.585162;-0.215064;,
        -0.791314;-0.430067;-0.434553;,
        -0.624928; 0.584948; 0.516984;,
        -0.624928; 0.584948; 0.516984;,
        -0.791314;-0.430067;-0.434553;,
        -0.767937;-0.202795;-0.607532;,
        -0.648885; 0.314127; 0.692984;,
        -0.648885; 0.314127; 0.692984;,
        -0.767937;-0.202795;-0.607532;,
        -0.614948;-0.638966;-0.462081;,
        -0.602863;-0.428236; 0.673147;,
        -0.436506;-0.857509;-0.272256;,
        -0.311350;-0.694082;-0.649037;,
        -0.791314;-0.430067;-0.434553;,
        -0.781854;-0.585162;-0.215064;,
        -0.386578;-0.297891;-0.872799;,
         0.406995;-0.795648;-0.448653;,
        -0.614948;-0.638966;-0.462081;,
        -0.767937;-0.202795;-0.607532;,
         0.473647; 0.834407; 0.281747;,
         0.781457; 0.391156;-0.486068;,
         0.125156;-0.023713;-0.991821;,
        -0.628742; 0.736686; 0.248817;,
         0.432234; 0.288400; 0.854366;,
         0.377361; 0.663320; 0.646199;,
        -0.624928; 0.584948; 0.516984;,
        -0.648885; 0.314127; 0.692984;,
         0.377361; 0.663320; 0.646199;,
         0.473647; 0.834407; 0.281747;,
        -0.628742; 0.736686; 0.248817;,
        -0.624928; 0.584948; 0.516984;,
         0.781457; 0.391156;-0.486068;,
        -0.384045;-0.318430;-0.866634;,
        -0.086856; 0.015992;-0.996063;,
         0.125156;-0.023713;-0.991821;,
         0.110752;-0.737022;-0.666677;,
         0.183355;-0.939085;-0.290658;,
         0.709433;-0.670827;-0.216041;,
         0.736900;-0.517777;-0.434553;,
         0.201788;-0.352031;-0.913968;,
         0.110752;-0.737022;-0.666677;,
         0.736900;-0.517777;-0.434553;,
         0.739677;-0.289346;-0.607532;,
         0.183355;-0.939085;-0.290658;,
         0.283853;-0.495987;-0.820582;,
         0.089419; 0.006226;-0.995972;,
         0.709433;-0.670827;-0.216041;,
        -0.246803; 0.347728; 0.904508;,
        -0.439711;-0.509781; 0.739433;,
         0.549913;-0.494400; 0.673147;,
         0.680563; 0.237831; 0.692984;,
        -0.174932; 0.722129; 0.669210;,
        -0.226814; 0.403577; 0.886349;,
        -0.246803; 0.347728; 0.904508;,
        -0.161962; 0.722312; 0.672292;,
         0.005890;-0.669332;-0.742912;,
         0.172155;-0.412214;-0.894650;,
         0.201788;-0.352031;-0.913968;,
        -0.388775;-0.802942;-0.451735;,
         0.150761;-0.928922;-0.338176;,
         0.214972;-0.873775;-0.436171;,
         0.283853;-0.495987;-0.820582;,
         0.183355;-0.939085;-0.290658;,
         0.172155;-0.412214;-0.894650;,
         0.118229;-0.735435;-0.667165;,
         0.110752;-0.737022;-0.666677;,
         0.201788;-0.352031;-0.913968;,
         0.118229;-0.735435;-0.667165;,
         0.150761;-0.928922;-0.338176;,
         0.183355;-0.939085;-0.290658;,
         0.110752;-0.737022;-0.666677;,
        -0.268532; 0.827082;-0.493728;,
        -0.201788; 0.916715; 0.344798;,
        -0.223426; 0.927122; 0.300851;,
        -0.508286; 0.665822;-0.546159;,
         0.089419; 0.006226;-0.995972;,
        -0.129460;-0.009674;-0.991516;,
         0.709159; 0.659322; 0.249672;,
         0.709433;-0.670827;-0.216041;,
         0.709433;-0.670827;-0.216041;,
         0.709159; 0.659322; 0.249672;,
         0.687765; 0.509598; 0.516984;,
         0.736900;-0.517777;-0.434553;,
         0.736900;-0.517777;-0.434553;,
         0.687765; 0.509598; 0.516984;,
         0.680563; 0.237831; 0.692984;,
         0.739677;-0.289346;-0.607532;,
         0.739677;-0.289346;-0.607532;,
         0.680563; 0.237831; 0.692984;,
         0.549913;-0.494400; 0.673147;,
         0.537797;-0.705130;-0.462081;,
        -0.388775;-0.802942;-0.451735;,
         0.201788;-0.352031;-0.913968;,
         0.739677;-0.289346;-0.607532;,
         0.537797;-0.705130;-0.462081;,
        -0.508286; 0.665822;-0.546159;,
        -0.223426; 0.927122; 0.300851;,
         0.709159; 0.659322; 0.249672;,
        -0.129460;-0.009674;-0.991516;,
        -0.161962; 0.722312; 0.672292;,
        -0.246803; 0.347728; 0.904508;,
         0.680563; 0.237831; 0.692984;,
         0.687765; 0.509598; 0.516984;,
        -0.223426; 0.927122; 0.300851;,
        -0.161962; 0.722312; 0.672292;,
         0.687765; 0.509598; 0.516984;,
         0.709159; 0.659322; 0.249672;,
        -0.439711;-0.509781; 0.739433;,
        -0.388775;-0.802942;-0.451735;,
         0.537797;-0.705130;-0.462081;,
         0.549913;-0.494400; 0.673147;,
         0.283853;-0.495987;-0.820582;,
        -0.508286; 0.665822;-0.546159;,
        -0.129460;-0.009674;-0.991516;,
         0.089419; 0.006226;-0.995972;,
         0.520707; 0.665273; 0.534989;,
         0.781457; 0.391156; 0.486068;,
        -0.384045;-0.318430; 0.866634;,
        -0.448317;-0.793573; 0.411328;,
        -0.448317;-0.793573; 0.411328;,
         0.214972;-0.873775; 0.436171;,
        -0.268563; 0.827082; 0.493728;,
         0.520707; 0.665273; 0.534989;,
         0.214972;-0.873775; 0.436171;,
         0.283853;-0.495987; 0.820582;,
        -0.508286; 0.665822; 0.546159;,
        -0.268563; 0.827082; 0.493728;,
        -0.385968;-0.858882; 0.336619;,
        -0.436506;-0.857509; 0.272256;,
        -0.311350;-0.694082; 0.649037;,
        -0.334300;-0.685781; 0.646474;,
        -0.448317;-0.793573; 0.411328;,
        -0.385968;-0.858882; 0.336619;,
         0.150761;-0.928922; 0.338176;,
         0.214972;-0.873775; 0.436171;,
        -0.268563; 0.827082; 0.493728;,
        -0.201788; 0.916715;-0.344798;,
         0.453200; 0.826502;-0.333842;,
         0.520707; 0.665273; 0.534989;,
        -0.334300;-0.685781; 0.646474;,
        -0.351970;-0.379772; 0.855495;,
         0.172155;-0.412214; 0.894650;,
         0.118229;-0.735435; 0.667165;,
        -0.385968;-0.858882; 0.336619;,
        -0.334300;-0.685781; 0.646474;,
         0.118229;-0.735435; 0.667165;,
         0.150761;-0.928922; 0.338176;,
        -0.201788; 0.916715;-0.344798;,
        -0.174932; 0.722160;-0.669210;,
         0.412641; 0.652913;-0.635151;,
         0.453200; 0.826502;-0.333842;,
        -0.226814; 0.403577;-0.886349;,
        -0.246803; 0.347728;-0.904508;,
        -0.439711;-0.509781;-0.739433;,
        -0.581713;-0.330515;-0.743187;,
        -0.226814; 0.403577;-0.886349;,
        -0.581713;-0.330515;-0.743187;,
         0.707785;-0.331919;-0.623554;,
         0.424665; 0.352794;-0.833766;,
         0.424665; 0.352794;-0.833766;,
         0.432234; 0.288400;-0.854366;,
         0.377361; 0.663320;-0.646199;,
         0.412641; 0.652913;-0.635151;,
        -0.174932; 0.722160;-0.669210;,
        -0.226814; 0.403577;-0.886349;,
         0.424665; 0.352794;-0.833766;,
         0.412641; 0.652913;-0.635151;,
        -0.201788; 0.916715;-0.344798;,
        -0.223426; 0.927122;-0.300851;,
        -0.161962; 0.722312;-0.672292;,
        -0.174932; 0.722160;-0.669210;,
         0.005890;-0.669332; 0.742912;,
        -0.251473;-0.628101; 0.736320;,
         0.707785;-0.331919;-0.623554;,
        -0.581713;-0.330515;-0.743187;,
        -0.581713;-0.330515;-0.743187;,
        -0.439711;-0.509781;-0.739433;,
        -0.388775;-0.802942; 0.451735;,
         0.005890;-0.669332; 0.742912;,
        -0.351970;-0.379772; 0.855495;,
        -0.251473;-0.628101; 0.736320;,
         0.005890;-0.669332; 0.742912;,
         0.172155;-0.412214; 0.894650;,
         0.453200; 0.826502;-0.333842;,
         0.473647; 0.834407;-0.281747;,
         0.781457; 0.391156; 0.486068;,
         0.520707; 0.665273; 0.534989;,
        -0.311350;-0.694082; 0.649037;,
        -0.791314;-0.430067; 0.434553;,
        -0.767937;-0.202795; 0.607532;,
        -0.386578;-0.297891; 0.872799;,
         0.460067;-0.532243;-0.710624;,
        -0.602863;-0.428236;-0.673147;,
        -0.648885; 0.314127;-0.692984;,
         0.432234; 0.288400;-0.854366;,
        -0.384045;-0.318430; 0.866634;,
        -0.086856; 0.015992; 0.996063;,
        -0.781854;-0.585162; 0.215064;,
        -0.436506;-0.857509; 0.272256;,
         0.406995;-0.795648; 0.448653;,
        -0.614948;-0.638966; 0.462081;,
        -0.602863;-0.428236;-0.673147;,
         0.460067;-0.532243;-0.710624;,
        -0.448317;-0.793573; 0.411328;,
        -0.384045;-0.318430; 0.866634;,
        -0.436506;-0.857509; 0.272256;,
        -0.385968;-0.858882; 0.336619;,
         0.412641; 0.652913;-0.635151;,
         0.377361; 0.663320;-0.646199;,
         0.473647; 0.834407;-0.281747;,
         0.453200; 0.826502;-0.333842;,
        -0.251473;-0.628101; 0.736320;,
         0.406995;-0.795648; 0.448653;,
         0.460067;-0.532243;-0.710624;,
         0.707785;-0.331919;-0.623554;,
        -0.351970;-0.379772; 0.855495;,
        -0.386578;-0.297891; 0.872799;,
         0.406995;-0.795648; 0.448653;,
        -0.251473;-0.628101; 0.736320;,
        -0.334300;-0.685781; 0.646474;,
        -0.311350;-0.694082; 0.649037;,
        -0.386578;-0.297891; 0.872799;,
        -0.351970;-0.379772; 0.855495;,
         0.707785;-0.331919;-0.623554;,
         0.460067;-0.532243;-0.710624;,
         0.432234; 0.288400;-0.854366;,
         0.424665; 0.352794;-0.833766;,
        -0.781854;-0.585162; 0.215064;,
        -0.086856; 0.015992; 0.996063;,
         0.125187;-0.023713; 0.991821;,
        -0.628742; 0.736686;-0.248817;,
        -0.628742; 0.736686;-0.248817;,
        -0.624928; 0.584948;-0.516984;,
        -0.791314;-0.430067; 0.434553;,
        -0.781854;-0.585162; 0.215064;,
        -0.624928; 0.584948;-0.516984;,
        -0.648885; 0.314127;-0.692984;,
        -0.767937;-0.202795; 0.607532;,
        -0.791314;-0.430067; 0.434553;,
        -0.648885; 0.314127;-0.692984;,
        -0.602863;-0.428236;-0.673147;,
        -0.614948;-0.638966; 0.462081;,
        -0.767937;-0.202795; 0.607532;,
        -0.436506;-0.857509; 0.272256;,
        -0.781854;-0.585162; 0.215064;,
        -0.791314;-0.430067; 0.434553;,
        -0.311350;-0.694082; 0.649037;,
        -0.386578;-0.297891; 0.872799;,
        -0.767937;-0.202795; 0.607532;,
        -0.614948;-0.638966; 0.462081;,
         0.406995;-0.795648; 0.448653;,
         0.473647; 0.834407;-0.281747;,
        -0.628742; 0.736686;-0.248817;,
         0.125187;-0.023713; 0.991821;,
         0.781457; 0.391156; 0.486068;,
         0.432234; 0.288400;-0.854366;,
        -0.648885; 0.314127;-0.692984;,
        -0.624928; 0.584948;-0.516984;,
         0.377361; 0.663320;-0.646199;,
         0.377361; 0.663320;-0.646199;,
        -0.624928; 0.584948;-0.516984;,
        -0.628742; 0.736686;-0.248817;,
         0.473647; 0.834407;-0.281747;,
         0.781457; 0.391156; 0.486068;,
         0.125187;-0.023713; 0.991821;,
        -0.086856; 0.015992; 0.996063;,
        -0.384045;-0.318430; 0.866634;,
         0.110752;-0.737022; 0.666677;,
         0.736900;-0.517777; 0.434553;,
         0.709433;-0.670827; 0.216041;,
         0.183355;-0.939085; 0.290658;,
         0.201788;-0.352031; 0.913968;,
         0.739677;-0.289315; 0.607532;,
         0.736900;-0.517777; 0.434553;,
         0.110752;-0.737022; 0.666677;,
         0.183355;-0.939085; 0.290658;,
         0.709433;-0.670827; 0.216041;,
         0.089419; 0.006226; 0.995972;,
         0.283853;-0.495987; 0.820582;,
        -0.246803; 0.347728;-0.904508;,
         0.680563; 0.237831;-0.692984;,
         0.549913;-0.494400;-0.673147;,
        -0.439711;-0.509781;-0.739433;,
        -0.174932; 0.722160;-0.669210;,
        -0.161962; 0.722312;-0.672292;,
        -0.246803; 0.347728;-0.904508;,
        -0.226814; 0.403577;-0.886349;,
         0.005890;-0.669332; 0.742912;,
        -0.388775;-0.802942; 0.451735;,
         0.201788;-0.352031; 0.913968;,
         0.172155;-0.412214; 0.894650;,
         0.150761;-0.928922; 0.338176;,
         0.183355;-0.939085; 0.290658;,
         0.283853;-0.495987; 0.820582;,
         0.214972;-0.873775; 0.436171;,
         0.172155;-0.412214; 0.894650;,
         0.201788;-0.352031; 0.913968;,
         0.110752;-0.737022; 0.666677;,
         0.118229;-0.735435; 0.667165;,
         0.118229;-0.735435; 0.667165;,
         0.110752;-0.737022; 0.666677;,
         0.183355;-0.939085; 0.290658;,
         0.150761;-0.928922; 0.338176;,
        -0.268563; 0.827082; 0.493728;,
        -0.508286; 0.665822; 0.546159;,
        -0.223426; 0.927122;-0.300851;,
        -0.201788; 0.916715;-0.344798;,
         0.089419; 0.006226; 0.995972;,
         0.709433;-0.670827; 0.216041;,
         0.709159; 0.659322;-0.249672;,
        -0.129460;-0.009674; 0.991516;,
         0.709433;-0.670827; 0.216041;,
         0.736900;-0.517777; 0.434553;,
         0.687735; 0.509598;-0.516984;,
         0.709159; 0.659322;-0.249672;,
         0.736900;-0.517777; 0.434553;,
         0.739677;-0.289315; 0.607532;,
         0.680563; 0.237831;-0.692984;,
         0.687735; 0.509598;-0.516984;,
         0.739677;-0.289315; 0.607532;,
         0.537797;-0.705130; 0.462081;,
         0.549913;-0.494400;-0.673147;,
         0.680563; 0.237831;-0.692984;,
        -0.388775;-0.802942; 0.451735;,
         0.537797;-0.705130; 0.462081;,
         0.739677;-0.289315; 0.607532;,
         0.201788;-0.352031; 0.913968;,
        -0.508286; 0.665822; 0.546159;,
        -0.129460;-0.009674; 0.991516;,
         0.709159; 0.659322;-0.249672;,
        -0.223426; 0.927122;-0.300851;,
        -0.161962; 0.722312;-0.672292;,
         0.687735; 0.509598;-0.516984;,
         0.680563; 0.237831;-0.692984;,
        -0.246803; 0.347728;-0.904508;,
        -0.223426; 0.927122;-0.300851;,
         0.709159; 0.659322;-0.249672;,
         0.687735; 0.509598;-0.516984;,
        -0.161962; 0.722312;-0.672292;,
        -0.439711;-0.509781;-0.739433;,
         0.549913;-0.494400;-0.673147;,
         0.537797;-0.705130; 0.462081;,
        -0.388775;-0.802942; 0.451735;,
         0.283853;-0.495987; 0.820582;,
         0.089419; 0.006226; 0.995972;,
        -0.129460;-0.009674; 0.991516;,
        -0.508286; 0.665822; 0.546159;,
        -0.508286; 0.665822;-0.546159;,
        -0.508286; 0.665822; 0.546159;,
        -0.129460;-0.009674; 0.991516;,
        -0.129460;-0.009674;-0.991516;,
         0.089419; 0.006226; 0.995972;,
         0.089419; 0.006226;-0.995972;,
        -0.129460;-0.009674;-0.991516;,
        -0.129460;-0.009674; 0.991516;,
         0.283853;-0.495987; 0.820582;,
         0.283853;-0.495987;-0.820582;,
         0.089419; 0.006226;-0.995972;,
         0.089419; 0.006226; 0.995972;,
         0.214972;-0.873775;-0.436171;,
         0.214972;-0.873775; 0.436171;,
         0.283853;-0.495987; 0.820582;,
         0.283853;-0.495987;-0.820582;,
         0.214972;-0.873775;-0.436171;,
        -0.448317;-0.793573;-0.411328;,
        -0.448317;-0.793573; 0.411328;,
         0.214972;-0.873775; 0.436171;,
        -0.268563; 0.827082; 0.493728;,
        -0.268532; 0.827082;-0.493728;,
        -0.508286; 0.665822;-0.546159;,
        -0.508286; 0.665822; 0.546159;,
         0.520707; 0.665273;-0.534989;,
        -0.268532; 0.827082;-0.493728;,
        -0.268563; 0.827082; 0.493728;,
         0.520707; 0.665273; 0.534989;,
         0.520707; 0.665273;-0.534989;,
         0.520707; 0.665273; 0.534989;,
         0.781457; 0.391156; 0.486068;,
         0.781457; 0.391156;-0.486068;,
         0.781457; 0.391156;-0.486068;,
         0.125156;-0.023713;-0.991821;,
         0.125187;-0.023713; 0.991821;,
         0.781457; 0.391156; 0.486068;,
         0.125187;-0.023713; 0.991821;,
         0.125156;-0.023713;-0.991821;,
        -0.086856; 0.015992;-0.996063;,
        -0.086856; 0.015992; 0.996063;,
        -0.086856; 0.015992;-0.996063;,
        -0.384045;-0.318430;-0.866634;,
        -0.384045;-0.318430; 0.866634;,
        -0.086856; 0.015992; 0.996063;,
        -0.448317;-0.793573; 0.411328;,
        -0.448317;-0.793573;-0.411328;,
        -0.384045;-0.318430;-0.866634;,
        -0.384045;-0.318430; 0.866634;,
         0.000000; 0.000000; 1.000000;,
         0.000000; 0.000000; 1.000000;,
         0.000000; 0.000000; 0.999969;,
         0.000000; 0.000000; 1.000000;,
        -0.033815;-0.589465; 0.807062;,
        -0.033815;-0.589465; 0.807062;,
        -0.033815;-0.589465; 0.807062;,
        -0.033815;-0.589465; 0.807062;,
        -0.057253;-0.997742; 0.034883;,
        -0.057253;-0.997742; 0.034883;,
        -0.057253;-0.997742; 0.034883;,
        -0.057253;-0.997742; 0.034883;,
        -0.033845;-0.589862;-0.806757;,
        -0.033845;-0.589862;-0.806757;,
        -0.033845;-0.589862;-0.806757;,
        -0.033845;-0.589862;-0.806757;,
         0.000763; 0.013337;-0.999908;,
         0.000763; 0.013337;-0.999908;,
         0.000763; 0.013337;-0.999908;,
         0.000763; 0.013337;-0.999908;;
        138;
        4;3,2,1,0;,
        4;7,6,5,4;,
        4;11,10,9,8;,
        4;15,14,13,12;,
        4;19,18,17,16;,
        4;23,22,21,20;,
        4;27,26,25,24;,
        4;31,30,29,28;,
        4;35,34,33,32;,
        4;39,38,37,36;,
        4;43,42,41,40;,
        4;47,46,45,44;,
        4;51,50,49,48;,
        4;55,54,53,52;,
        4;59,58,57,56;,
        4;63,62,61,60;,
        4;67,66,65,64;,
        4;71,70,69,68;,
        4;75,74,73,72;,
        4;79,78,77,76;,
        4;83,82,81,80;,
        4;87,86,85,84;,
        4;91,90,89,88;,
        4;95,94,93,92;,
        4;99,98,97,96;,
        4;103,102,101,100;,
        4;107,106,105,104;,
        4;111,110,109,108;,
        4;115,114,113,112;,
        4;119,118,117,116;,
        4;123,122,121,120;,
        4;127,126,125,124;,
        4;131,130,129,128;,
        4;135,134,133,132;,
        4;139,138,137,136;,
        4;143,142,141,140;,
        4;147,146,145,144;,
        4;151,150,149,148;,
        4;155,154,153,152;,
        4;159,158,157,156;,
        4;163,162,161,160;,
        4;167,166,165,164;,
        4;171,170,169,168;,
        4;175,174,173,172;,
        4;179,178,177,176;,
        4;183,182,181,180;,
        4;187,186,185,184;,
        4;191,190,189,188;,
        4;195,194,193,192;,
        4;199,198,197,196;,
        4;203,202,201,200;,
        4;207,206,205,204;,
        4;211,210,209,208;,
        4;215,214,213,212;,
        4;219,218,217,216;,
        4;223,222,221,220;,
        4;227,226,225,224;,
        4;231,230,229,228;,
        4;235,234,233,232;,
        4;239,238,237,236;,
        4;243,242,241,240;,
        4;247,246,245,244;,
        4;251,250,249,248;,
        4;255,254,253,252;,
        4;259,258,257,256;,
        4;263,262,261,260;,
        4;267,266,265,264;,
        4;271,270,269,268;,
        4;275,274,273,272;,
        4;279,278,277,276;,
        4;283,282,281,280;,
        4;287,286,285,284;,
        4;291,290,289,288;,
        4;295,294,293,292;,
        4;299,298,297,296;,
        4;303,302,301,300;,
        4;307,306,305,304;,
        4;311,310,309,308;,
        4;315,314,313,312;,
        4;319,318,317,316;,
        4;323,322,321,320;,
        4;327,326,325,324;,
        4;331,330,329,328;,
        4;335,334,333,332;,
        4;339,338,337,336;,
        4;343,342,341,340;,
        4;347,346,345,344;,
        4;351,350,349,348;,
        4;355,354,353,352;,
        4;359,358,357,356;,
        4;363,362,361,360;,
        4;367,366,365,364;,
        4;371,370,369,368;,
        4;375,374,373,372;,
        4;379,378,377,376;,
        4;383,382,381,380;,
        4;387,386,385,384;,
        4;391,390,389,388;,
        4;395,394,393,392;,
        4;399,398,397,396;,
        4;403,402,401,400;,
        4;407,406,405,404;,
        4;411,410,409,408;,
        4;415,414,413,412;,
        4;419,418,417,416;,
        4;423,422,421,420;,
        4;427,426,425,424;,
        4;431,430,429,428;,
        4;435,434,433,432;,
        4;439,438,437,436;,
        4;443,442,441,440;,
        4;447,446,445,444;,
        4;451,450,449,448;,
        4;455,454,453,452;,
        4;459,458,457,456;,
        4;463,462,461,460;,
        4;467,466,465,464;,
        4;471,470,469,468;,
        4;475,474,473,472;,
        4;479,478,477,476;,
        4;483,482,481,480;,
        4;487,486,485,484;,
        4;491,490,489,488;,
        4;495,494,493,492;,
        4;499,498,497,496;,
        4;503,502,501,500;,
        4;507,506,505,504;,
        4;511,510,509,508;,
        4;515,514,513,512;,
        4;519,518,517,516;,
        4;523,522,521,520;,
        4;527,526,525,524;,
        4;531,530,529,528;,
        4;535,534,533,532;,
        4;539,538,537,536;,
        4;543,542,541,540;,
        4;547,546,545,544;,
        4;551,550,549,548;;
      } // End of _000 normals
      MeshTextureCoords { // _000 UV coordinates
        552;
         0.529091; 0.000000;,
         0.529091; 0.123614;,
         0.619888; 0.136113;,
         0.619888; 0.012499;,
         0.913456; 0.066523;,
         0.833176; 0.086968;,
         0.824478; 0.240320;,
         0.913456; 0.217659;,
         0.843372; 0.403060;,
         0.735499; 0.402386;,
         0.735499; 0.563777;,
         0.843372; 0.564452;,
         0.836030; 0.643686;,
         0.746567; 0.623231;,
         0.755311; 0.793159;,
         0.836030; 0.811615;,
         0.900431; 1.000000;,
         0.990532; 0.982858;,
         0.990532; 0.864454;,
         0.900434; 0.881595;,
         0.276486; 0.454547;,
         0.276486; 0.464409;,
         0.280707; 0.456691;,
         0.280707; 0.445578;,
         0.289317; 0.463354;,
         0.298658; 0.464409;,
         0.290048; 0.078129;,
         0.280707; 0.077074;,
         0.280707; 0.077074;,
         0.290048; 0.078129;,
         0.298658; 0.070673;,
         0.288062; 0.069476;,
         0.559329; 0.209518;,
         0.595490; 0.178340;,
         0.593397; 0.172972;,
         0.552651; 0.208103;,
         0.403403; 0.998431;,
         0.401643; 0.493986;,
         0.327499; 0.494405;,
         0.329260; 0.998850;,
         0.139931; 0.970432;,
         0.142341; 0.465849;,
         0.063383; 0.465470;,
         0.060973; 0.970053;,
         0.595490; 0.178340;,
         0.609387; 0.564452;,
         0.665894; 0.546638;,
         0.651997; 0.160527;,
         0.329260; 0.998850;,
         0.327499; 0.494405;,
         0.274421; 0.495555;,
         0.276182; 1.000000;,
         0.060973; 0.970053;,
         0.063383; 0.465470;,
         0.005193; 0.464435;,
         0.002782; 0.969018;,
         0.913399; 0.490011;,
         0.919075; 0.420544;,
         0.908215; 0.404136;,
         0.901776; 0.482932;,
         0.202895; 0.070740;,
         0.188820; 0.437931;,
         0.258373; 0.441407;,
         0.272449; 0.074217;,
         0.188820; 0.437931;,
         0.129495; 0.417084;,
         0.126815; 0.423095;,
         0.193662; 0.446585;,
         0.143570; 0.049893;,
         0.129495; 0.417084;,
         0.188820; 0.437931;,
         0.202895; 0.070740;,
         0.060973; 0.970053;,
         0.002782; 0.969018;,
         0.000090; 0.979595;,
         0.066096; 0.980768;,
         0.990532; 0.360005;,
         0.981383; 0.359898;,
         0.981383; 0.864346;,
         0.990532; 0.864454;,
         0.919075; 0.420544;,
         0.925615; 0.419001;,
         0.915633; 0.402386;,
         0.908215; 0.404136;,
         0.651997; 0.160527;,
         0.665894; 0.546638;,
         0.735499; 0.544742;,
         0.721603; 0.158631;,
         0.091281; 0.381045;,
         0.068836; 0.326255;,
         0.060295; 0.329772;,
         0.083756; 0.382487;,
         0.593397; 0.172972;,
         0.657069; 0.152900;,
         0.656542; 0.138250;,
         0.592870; 0.158322;,
         0.272034; 0.450503;,
         0.193662; 0.446585;,
         0.193128; 0.460518;,
         0.271500; 0.464435;,
         0.926081; 0.405413;,
         0.925615; 0.479581;,
         0.943921; 0.479759;,
         0.944387; 0.405590;,
         0.756877; 0.585253;,
         0.746567; 0.585132;,
         0.746567; 0.604273;,
         0.756877; 0.604393;,
         0.536437; 0.257567;,
         0.559329; 0.209518;,
         0.552651; 0.208103;,
         0.529091; 0.253807;,
         0.129495; 0.417084;,
         0.091281; 0.381045;,
         0.083756; 0.382487;,
         0.126815; 0.423095;,
         0.258741; 0.434602;,
         0.258373; 0.441407;,
         0.272034; 0.450503;,
         0.272449; 0.442834;,
         0.651997; 0.160527;,
         0.721603; 0.158631;,
         0.735499; 0.150764;,
         0.657069; 0.152900;,
         0.595490; 0.178340;,
         0.651997; 0.160527;,
         0.657069; 0.152900;,
         0.593397; 0.172972;,
         0.258373; 0.441407;,
         0.188820; 0.437931;,
         0.193662; 0.446585;,
         0.272034; 0.450503;,
         0.867220; 0.575378;,
         0.858552; 0.581433;,
         0.895369; 0.615650;,
         0.901776; 0.606839;,
         0.858552; 0.581433;,
         0.867220; 0.575378;,
         0.852163; 0.531730;,
         0.843372; 0.533743;,
         0.843372; 0.533743;,
         0.852163; 0.531730;,
         0.864089; 0.472060;,
         0.856715; 0.470351;,
         0.856715; 0.470351;,
         0.864089; 0.472060;,
         0.901776; 0.404096;,
         0.894402; 0.402386;,
         0.925615; 0.479581;,
         0.926080; 0.542120;,
         0.944387; 0.542297;,
         0.943921; 0.479759;,
         0.657069; 0.152900;,
         0.735499; 0.150764;,
         0.734972; 0.136113;,
         0.656542; 0.138250;,
         0.925615; 0.610966;,
         0.926026; 0.690910;,
         0.944339; 0.690800;,
         0.943927; 0.610856;,
         0.193662; 0.446585;,
         0.126815; 0.423095;,
         0.126281; 0.437028;,
         0.193128; 0.460518;,
         0.926026; 0.542407;,
         0.925615; 0.610966;,
         0.943927; 0.610856;,
         0.944339; 0.542297;,
         0.012906; 0.206713;,
         0.002410; 0.205268;,
         0.002410; 0.219928;,
         0.012906; 0.221373;,
         0.272515; 0.484985;,
         0.332721; 0.483681;,
         0.332655; 0.464884;,
         0.272449; 0.466189;,
         0.900431; 0.793600;,
         0.910070; 0.862862;,
         0.923756; 0.864454;,
         0.914118; 0.795192;,
         0.332721; 0.483681;,
         0.402928; 0.483205;,
         0.402862; 0.464409;,
         0.332655; 0.464884;,
         0.847945; 0.925469;,
         0.881952; 1.000000;,
         0.893729; 0.994009;,
         0.859722; 0.919478;,
         0.925615; 0.546182;,
         0.913399; 0.490011;,
         0.901776; 0.482932;,
         0.915633; 0.546648;,
         0.933307; 0.222927;,
         0.923614; 0.153245;,
         0.913456; 0.161280;,
         0.924451; 0.240320;,
         0.327499; 0.494405;,
         0.401643; 0.493986;,
         0.402928; 0.483205;,
         0.332721; 0.483681;,
         0.923614; 0.153245;,
         0.933307; 0.098426;,
         0.924451; 0.099099;,
         0.913456; 0.161280;,
         0.274421; 0.495555;,
         0.327499; 0.494405;,
         0.332721; 0.483681;,
         0.272515; 0.484985;,
         0.139931; 0.970432;,
         0.060973; 0.970053;,
         0.066096; 0.980768;,
         0.141874; 0.981199;,
         0.900431; 0.750161;,
         0.894641; 0.740753;,
         0.861745; 0.787045;,
         0.869596; 0.792797;,
         0.869596; 0.792797;,
         0.861745; 0.787045;,
         0.847808; 0.846311;,
         0.855784; 0.847233;,
         0.855784; 0.847233;,
         0.847808; 0.846311;,
         0.859722; 0.919478;,
         0.866424; 0.916210;,
         0.866424; 0.916210;,
         0.859722; 0.919478;,
         0.893729; 0.994009;,
         0.900431; 0.990741;,
         0.910070; 0.711646;,
         0.900431; 0.793600;,
         0.914118; 0.795192;,
         0.923756; 0.713237;,
         0.141874; 0.981199;,
         0.066096; 0.980768;,
         0.066006; 0.999570;,
         0.141784; 1.000000;,
         0.836030; 0.852301;,
         0.847945; 0.925469;,
         0.859722; 0.919478;,
         0.847808; 0.846311;,
         0.066096; 0.980768;,
         0.000090; 0.979595;,
         0.000000; 0.998396;,
         0.066006; 0.999570;,
         0.746567; 0.585011;,
         0.756945; 0.585132;,
         0.756945; 0.566336;,
         0.746567; 0.566215;,
         0.288062; 0.069476;,
         0.298658; 0.070673;,
         0.298337; 0.056280;,
         0.287741; 0.055083;,
         0.068133; 0.322788;,
         0.059914; 0.327893;,
         0.070510; 0.327017;,
         0.077537; 0.322010;,
         0.307595; 0.053751;,
         0.298658; 0.440022;,
         0.308000; 0.438976;,
         0.316937; 0.052704;,
         0.298658; 0.440022;,
         0.306007; 0.447627;,
         0.316604; 0.446440;,
         0.308000; 0.438976;,
         0.570397; 0.919385;,
         0.563719; 0.920800;,
         0.604465; 0.955931;,
         0.606558; 0.950563;,
         0.408248; 0.998431;,
         0.480547; 0.998850;,
         0.478787; 0.494405;,
         0.406487; 0.493986;,
         0.144737; 0.970432;,
         0.220202; 0.970053;,
         0.222612; 0.465470;,
         0.147147; 0.465849;,
         0.606558; 0.950563;,
         0.663066; 0.968376;,
         0.676962; 0.582265;,
         0.620455; 0.564452;,
         0.480547; 0.998850;,
         0.528563; 1.000000;,
         0.526802; 0.495555;,
         0.478787; 0.494405;,
         0.220202; 0.970053;,
         0.268870; 0.969018;,
         0.271280; 0.464435;,
         0.222612; 0.465470;,
         0.913399; 0.603285;,
         0.901776; 0.610364;,
         0.908215; 0.689160;,
         0.919075; 0.672752;,
         0.459538; 0.443562;,
         0.529091; 0.440086;,
         0.515015; 0.072895;,
         0.445462; 0.076371;,
         0.445462; 0.076371;,
         0.450304; 0.067717;,
         0.383457; 0.091207;,
         0.386137; 0.097218;,
         0.400212; 0.464409;,
         0.459538; 0.443562;,
         0.445462; 0.076371;,
         0.386137; 0.097218;,
         0.220202; 0.970053;,
         0.217245; 0.980768;,
         0.272449; 0.979595;,
         0.268870; 0.969018;,
         0.990532; 0.495552;,
         0.990532; 1.000000;,
         1.000000; 0.999964;,
         1.000000; 0.495515;,
         0.919075; 0.672752;,
         0.908215; 0.689160;,
         0.915633; 0.690910;,
         0.925615; 0.674295;,
         0.663066; 0.968376;,
         0.732671; 0.970272;,
         0.746567; 0.584161;,
         0.676962; 0.582265;,
         0.347923; 0.133257;,
         0.340398; 0.131815;,
         0.316937; 0.184530;,
         0.325478; 0.188047;,
         0.604465; 0.955931;,
         0.603938; 0.970581;,
         0.667610; 0.990653;,
         0.668137; 0.976003;,
         0.528676; 0.063799;,
         0.528142; 0.049867;,
         0.449770; 0.053784;,
         0.450304; 0.067717;,
         0.717194; 0.136113;,
         0.735499; 0.135780;,
         0.735004; 0.063785;,
         0.716699; 0.064118;,
         0.002238; 0.221414;,
         0.002238; 0.240554;,
         0.012906; 0.240514;,
         0.012906; 0.221373;,
         0.547505; 0.871336;,
         0.540159; 0.875096;,
         0.563719; 0.920800;,
         0.570397; 0.919385;,
         0.386137; 0.097218;,
         0.383457; 0.091207;,
         0.340398; 0.131815;,
         0.347923; 0.133257;,
         0.515383; 0.079700;,
         0.529091; 0.071468;,
         0.528676; 0.063799;,
         0.515015; 0.072895;,
         0.663066; 0.968376;,
         0.668137; 0.976003;,
         0.746567; 0.978140;,
         0.732671; 0.970272;,
         0.606558; 0.950563;,
         0.604465; 0.955931;,
         0.668137; 0.976003;,
         0.663066; 0.968376;,
         0.515015; 0.072895;,
         0.528676; 0.063799;,
         0.450304; 0.067717;,
         0.445462; 0.076371;,
         0.563192; 0.935451;,
         0.539632; 0.889746;,
         0.529091; 0.890777;,
         0.554903; 0.939826;,
         0.554903; 0.939826;,
         0.599734; 0.977118;,
         0.603938; 0.970581;,
         0.563192; 0.935451;,
         0.599734; 0.977118;,
         0.667543; 0.997864;,
         0.667610; 0.990653;,
         0.603938; 0.970581;,
         0.667543; 0.997864;,
         0.745973; 1.000000;,
         0.746040; 0.992790;,
         0.667610; 0.990653;,
         0.716699; 0.064118;,
         0.735004; 0.063785;,
         0.735499; 0.007208;,
         0.717194; 0.007541;,
         0.668137; 0.976003;,
         0.667610; 0.990653;,
         0.746040; 0.992790;,
         0.746567; 0.978140;,
         0.933307; 0.182653;,
         0.951617; 0.182978;,
         0.952076; 0.107149;,
         0.933766; 0.106824;,
         0.450304; 0.067717;,
         0.449770; 0.053784;,
         0.382923; 0.077275;,
         0.383457; 0.091207;,
         0.933766; 0.239996;,
         0.952076; 0.240320;,
         0.951617; 0.182978;,
         0.933307; 0.182653;,
         0.529618; 0.876127;,
         0.529091; 0.890777;,
         0.539632; 0.889746;,
         0.540159; 0.875096;,
         0.529091; 0.484985;,
         0.529025; 0.466189;,
         0.474561; 0.464884;,
         0.474627; 0.483681;,
         0.012906; 0.158600;,
         0.026593; 0.157008;,
         0.036231; 0.087746;,
         0.022545; 0.089338;,
         0.474627; 0.483681;,
         0.474561; 0.464884;,
         0.406446; 0.464409;,
         0.406511; 0.483205;,
         0.036231; 0.165229;,
         0.049203; 0.167120;,
         0.059507; 0.085249;,
         0.046535; 0.083358;,
         0.925615; 0.547114;,
         0.915633; 0.546648;,
         0.901776; 0.610364;,
         0.913399; 0.603285;,
         0.943607; 0.739953;,
         0.934751; 0.722560;,
         0.923756; 0.801600;,
         0.933914; 0.809635;,
         0.478787; 0.494405;,
         0.474627; 0.483681;,
         0.406511; 0.483205;,
         0.406487; 0.493986;,
         0.933914; 0.809635;,
         0.923756; 0.801600;,
         0.934751; 0.863781;,
         0.943607; 0.864454;,
         0.526802; 0.495555;,
         0.529091; 0.484985;,
         0.474627; 0.483681;,
         0.478787; 0.494405;,
         0.144737; 0.970432;,
         0.145429; 0.981199;,
         0.217245; 0.980768;,
         0.220202; 0.970053;,
         0.059507; 0.455587;,
         0.024639; 0.420698;,
         0.015760; 0.426501;,
         0.052959; 0.464435;,
         0.024639; 0.420698;,
         0.009020; 0.373819;,
         0.000000; 0.375363;,
         0.015760; 0.426501;,
         0.009020; 0.373819;,
         0.021052; 0.311848;,
         0.013473; 0.309570;,
         0.000000; 0.375363;,
         0.021052; 0.311848;,
         0.059507; 0.242833;,
         0.051928; 0.240554;,
         0.013473; 0.309570;,
         0.022545; 0.240554;,
         0.036231; 0.238963;,
         0.026593; 0.157008;,
         0.012906; 0.158600;,
         0.145429; 0.981199;,
         0.145339; 1.000000;,
         0.217155; 0.999570;,
         0.217245; 0.980768;,
         0.046535; 0.238663;,
         0.059507; 0.240554;,
         0.049203; 0.167120;,
         0.036231; 0.165229;,
         0.217245; 0.980768;,
         0.217155; 0.999570;,
         0.272359; 0.998396;,
         0.272449; 0.979595;,
         0.746567; 0.604435;,
         0.746567; 0.623231;,
         0.757307; 0.623190;,
         0.757307; 0.604393;,
         0.306007; 0.447627;,
         0.305674; 0.462019;,
         0.316271; 0.460832;,
         0.316604; 0.446440;,
         0.272903; 0.464396;,
         0.276486; 0.464409;,
         0.276486; 0.445613;,
         0.272903; 0.445599;,
         0.305674; 0.462019;,
         0.306340; 0.464409;,
         0.316937; 0.463222;,
         0.316271; 0.460832;,
         0.280042; 0.426758;,
         0.276486; 0.426777;,
         0.276486; 0.445578;,
         0.280042; 0.445560;,
         0.401643; 0.493986;,
         0.406487; 0.493986;,
         0.406511; 0.483205;,
         0.402928; 0.483205;,
         0.401643; 0.493986;,
         0.403403; 0.998431;,
         0.408248; 0.998431;,
         0.406487; 0.493986;,
         0.144737; 0.970432;,
         0.139931; 0.970432;,
         0.141874; 0.981199;,
         0.145429; 0.981199;,
         0.142341; 0.465849;,
         0.139931; 0.970432;,
         0.144737; 0.970432;,
         0.147147; 0.465849;,
         0.068836; 0.326255;,
         0.068133; 0.322788;,
         0.059914; 0.327893;,
         0.060295; 0.329772;,
         0.273862; 0.426428;,
         0.273862; 0.445568;,
         0.276486; 0.445578;,
         0.276486; 0.426438;,
         0.273862; 0.426428;,
         0.275683; 0.426179;,
         0.275683; 0.415066;,
         0.273862; 0.415315;,
         0.276486; 0.407613;,
         0.276486; 0.426758;,
         0.279090; 0.426744;,
         0.279090; 0.407599;,
         0.547505; 0.871336;,
         0.546646; 0.868093;,
         0.539694; 0.873339;,
         0.540159; 0.875096;,
         0.934169; 0.402386;,
         0.934169; 0.278772;,
         0.843372; 0.266273;,
         0.843372; 0.389887;,
         0.824478; 0.066523;,
         0.744198; 0.086968;,
         0.735499; 0.240320;,
         0.824478; 0.217659;,
         0.843372; 0.240995;,
         0.735499; 0.240320;,
         0.735499; 0.401712;,
         0.843372; 0.402386;,
         0.836030; 0.832071;,
         0.746567; 0.811615;,
         0.755311; 0.981544;,
         0.836030; 1.000000;,
         0.619888; 0.136113;,
         0.709988; 0.118971;,
         0.709988; 0.000567;,
         0.619890; 0.017709;;
      } // End of _000 UV coordinates
      MeshMaterialList { // _000 material list
        1;
        138;
        0,
        0,
        0,
        0,
        0,
        0,
        0,
        0,
        0,
        0,
        0,
        0,
        0,
        0,
        0,
        0,
        0,
        0,
        0,
        0,
        0,
        0,
        0,
        0,
        0,
        0,
        0,
        0,
        0,
        0,
        0,
        0,
        0,
        0,
        0,
        0,
        0,
        0,
        0,
        0,
        0,
        0,
        0,
        0,
        0,
        0,
        0,
        0,
        0,
        0,
        0,
        0,
        0,
        0,
        0,
        0,
        0,
        0,
        0,
        0,
        0,
        0,
        0,
        0,
        0,
        0,
        0,
        0,
        0,
        0,
        0,
        0,
        0,
        0,
        0,
        0,
        0,
        0,
        0,
        0,
        0,
        0,
        0,
        0,
        0,
        0,
        0,
        0,
        0,
        0,
        0,
        0,
        0,
        0,
        0,
        0,
        0,
        0,
        0,
        0,
        0,
        0,
        0,
        0,
        0,
        0,
        0,
        0,
        0,
        0,
        0,
        0,
        0,
        0,
        0,
        0,
        0,
        0,
        0,
        0,
        0,
        0,
        0,
        0,
        0,
        0,
        0,
        0,
        0,
        0,
        0,
        0,
        0,
        0,
        0,
        0,
        0,
        0;
        Material Material_004 {
           0.640000; 0.640000; 0.640000; 1.000000;;
           96.078431;
           0.500000; 0.500000; 0.500000;;
           0.000000; 0.000000; 0.000000;;
        }
      } // End of _000 material list
    } // End of _000 mesh
  } // End of _000
} // End of Root
