xof 0303txt 0032

Frame Root {
  FrameTransformMatrix {
     1.000000, 0.000000, 0.000000, 0.000000,
     0.000000,-0.000000, 1.000000, 0.000000,
     0.000000, 1.000000, 0.000000, 0.000000,
     0.000000, 0.000000, 0.000000, 1.000000;;
  }
  Frame Cube {
    FrameTransformMatrix {
       1.000000, 0.000000, 0.000000, 0.000000,
       0.000000, 1.000000, 0.000000, 0.000000,
       0.000000, 0.000000, 1.000000, 0.000000,
       0.000000, 0.000000, 0.000000, 1.000000;;
    }
    Mesh { // Cube mesh
      192;
      -0.000559;-0.002483; 0.032424;,
       0.001190;-0.024642; 0.023684;,
       0.015186;-0.024464; 0.025645;,
       0.018854;-0.001930; 0.035164;,
       0.023979; 0.002124;-0.028832;,
       0.017132; 0.023802;-0.018771;,
       0.021567; 0.022754;-0.015785;,
       0.028750; 0.003657;-0.025287;,
       0.023979; 0.002124;-0.028832;,
       0.021887;-0.021192;-0.022489;,
       0.007680;-0.021484;-0.022592;,
       0.007495; 0.001782;-0.031150;,
      -0.003398; 0.025538; 0.001449;,
       0.021690; 0.027276; 0.005060;,
       0.017132; 0.023802;-0.018771;,
       0.003182; 0.023635;-0.020724;,
       0.029209;-0.027686; 0.002370;,
       0.003589;-0.029461;-0.001317;,
       0.007680;-0.021484;-0.022592;,
       0.021887;-0.021192;-0.022489;,
       0.034007;-0.017644; 0.003721;,
       0.026205;-0.017269;-0.021903;,
       0.028063;-0.015423;-0.019736;,
       0.036939;-0.014903; 0.004315;,
       0.021690; 0.027276; 0.005060;,
       0.010606; 0.020311; 0.028597;,
       0.015987; 0.020029; 0.024293;,
       0.029103; 0.022554; 0.005771;,
       0.029209;-0.027686; 0.002370;,
       0.021887;-0.021192;-0.022489;,
       0.026205;-0.017269;-0.021903;,
       0.034007;-0.017644; 0.003721;,
       0.018854;-0.001930; 0.035164;,
       0.015186;-0.024464; 0.025645;,
       0.020076;-0.020262; 0.022123;,
       0.026339; 0.000820; 0.024428;,
      -0.019898; 0.022122;-0.001081;,
      -0.013482; 0.019939;-0.021915;,
      -0.023038; 0.018999;-0.022602;,
      -0.038850; 0.019390;-0.003905;,
       0.003589;-0.029461;-0.001317;,
       0.001190;-0.024642; 0.023684;,
      -0.015328;-0.025432; 0.019950;,
      -0.013645;-0.029165;-0.003696;,
      -0.003398; 0.025538; 0.001449;,
       0.003182; 0.023635;-0.020724;,
      -0.013482; 0.019939;-0.021915;,
      -0.019898; 0.022122;-0.001081;,
      -0.034052;-0.005474; 0.024854;,
      -0.029043; 0.015774; 0.020681;,
      -0.041991; 0.012416; 0.017094;,
      -0.045958;-0.006573; 0.021106;,
      -0.013645;-0.029165;-0.003696;,
      -0.015328;-0.025432; 0.019950;,
      -0.024879;-0.024903; 0.017950;,
      -0.033194;-0.030018;-0.006476;,
      -0.037783;-0.022879; 0.010598;,
      -0.040431;-0.019859;-0.006793;,
      -0.038966;-0.027313;-0.007096;,
      -0.038137;-0.025203; 0.014527;,
      -0.022583;-0.001162;-0.033162;,
      -0.019112;-0.022098;-0.023132;,
      -0.032840;-0.022617;-0.023521;,
      -0.037421;-0.003340;-0.033604;,
      -0.033194;-0.030018;-0.006476;,
      -0.024879;-0.024903; 0.017950;,
      -0.038137;-0.025203; 0.014527;,
      -0.038966;-0.027313;-0.007096;,
      -0.038850; 0.019390;-0.003905;,
      -0.023038; 0.018999;-0.022602;,
      -0.036455; 0.015423;-0.023156;,
      -0.044925; 0.017649;-0.004869;,
      -0.043742; 0.011336;-0.005133;,
      -0.041215; 0.010947; 0.012419;,
      -0.041991; 0.012416; 0.017094;,
      -0.044925; 0.017649;-0.004869;,
      -0.038439;-0.003837;-0.026291;,
      -0.036531; 0.013235;-0.021228;,
      -0.036455; 0.015423;-0.023156;,
      -0.037421;-0.003340;-0.033604;,
      -0.040431;-0.019859;-0.006793;,
      -0.033098;-0.020591;-0.023049;,
      -0.032840;-0.022617;-0.023521;,
      -0.038966;-0.027313;-0.007096;,
      -0.044393;-0.005808; 0.009866;,
      -0.037783;-0.022879; 0.010598;,
      -0.038137;-0.025203; 0.014527;,
      -0.045958;-0.006573; 0.021106;,
       0.026339; 0.000820; 0.024428;,
       0.020076;-0.020262; 0.022123;,
       0.022419;-0.018180; 0.020808;,
       0.029603; 0.001249; 0.022602;,
       0.028750; 0.003657;-0.025287;,
       0.021567; 0.022754;-0.015785;,
       0.023780; 0.021098;-0.013806;,
       0.030371; 0.003426;-0.017935;,
       0.029103; 0.022554; 0.005771;,
       0.015987; 0.020029; 0.024293;,
       0.018685; 0.018610; 0.022789;,
       0.032460; 0.020453; 0.006095;,
      -0.019112;-0.022098;-0.023132;,
      -0.033194;-0.030018;-0.006476;,
      -0.038966;-0.027313;-0.007096;,
      -0.032840;-0.022617;-0.023521;,
      -0.009123;-0.022402;-0.024618;,
      -0.013645;-0.029165;-0.003696;,
      -0.033194;-0.030018;-0.006476;,
      -0.019112;-0.022098;-0.023132;,
       0.007680;-0.021484;-0.022592;,
       0.003589;-0.029461;-0.001317;,
      -0.013645;-0.029165;-0.003696;,
      -0.009123;-0.022402;-0.024618;,
       0.015186;-0.024464; 0.025645;,
       0.029209;-0.027686; 0.002370;,
       0.034007;-0.017644; 0.003721;,
       0.020076;-0.020262; 0.022123;,
       0.020076;-0.020262; 0.022123;,
       0.034007;-0.017644; 0.003721;,
       0.036939;-0.014903; 0.004315;,
       0.022419;-0.018180; 0.020808;,
       0.015186;-0.024464; 0.025645;,
       0.001190;-0.024642; 0.023684;,
       0.003589;-0.029461;-0.001317;,
       0.029209;-0.027686; 0.002370;,
       0.021567; 0.022754;-0.015785;,
       0.029103; 0.022554; 0.005771;,
       0.032460; 0.020453; 0.006095;,
       0.023780; 0.021098;-0.013806;,
      -0.036531; 0.013235;-0.021228;,
      -0.043742; 0.011336;-0.005133;,
      -0.044925; 0.017649;-0.004869;,
      -0.036455; 0.015423;-0.023156;,
      -0.029043; 0.015774; 0.020681;,
      -0.038850; 0.019390;-0.003905;,
      -0.044925; 0.017649;-0.004869;,
      -0.041991; 0.012416; 0.017094;,
      -0.003390; 0.020133; 0.026636;,
      -0.003398; 0.025538; 0.001449;,
      -0.019898; 0.022122;-0.001081;,
      -0.019633; 0.016632; 0.022756;,
      -0.019633; 0.016632; 0.022756;,
      -0.019898; 0.022122;-0.001081;,
      -0.038850; 0.019390;-0.003905;,
      -0.029043; 0.015774; 0.020681;,
       0.017132; 0.023802;-0.018771;,
       0.021690; 0.027276; 0.005060;,
       0.029103; 0.022554; 0.005771;,
       0.021567; 0.022754;-0.015785;,
      -0.003390; 0.020133; 0.026636;,
       0.010606; 0.020311; 0.028597;,
       0.021690; 0.027276; 0.005060;,
      -0.003398; 0.025538; 0.001449;,
       0.015987; 0.020029; 0.024293;,
       0.026339; 0.000820; 0.024428;,
       0.029603; 0.001249; 0.022602;,
       0.018685; 0.018610; 0.022789;,
      -0.041215; 0.010947; 0.012419;,
      -0.044393;-0.005808; 0.009866;,
      -0.045958;-0.006573; 0.021106;,
      -0.041991; 0.012416; 0.017094;,
      -0.024879;-0.024903; 0.017950;,
      -0.034052;-0.005474; 0.024854;,
      -0.045958;-0.006573; 0.021106;,
      -0.038137;-0.025203; 0.014527;,
       0.010606; 0.020311; 0.028597;,
       0.018854;-0.001930; 0.035164;,
       0.026339; 0.000820; 0.024428;,
       0.015987; 0.020029; 0.024293;,
      -0.003390; 0.020133; 0.026636;,
      -0.000559;-0.002483; 0.032424;,
       0.018854;-0.001930; 0.035164;,
       0.010606; 0.020311; 0.028597;,
       0.026205;-0.017269;-0.021903;,
       0.028750; 0.003657;-0.025287;,
       0.030371; 0.003426;-0.017935;,
       0.028063;-0.015423;-0.019736;,
      -0.033098;-0.020591;-0.023049;,
      -0.038439;-0.003837;-0.026291;,
      -0.037421;-0.003340;-0.033604;,
      -0.032840;-0.022617;-0.023521;,
      -0.023038; 0.018999;-0.022602;,
      -0.022583;-0.001162;-0.033162;,
      -0.037421;-0.003340;-0.033604;,
      -0.036455; 0.015423;-0.023156;,
       0.017132; 0.023802;-0.018771;,
       0.023979; 0.002124;-0.028832;,
       0.007495; 0.001782;-0.031150;,
       0.003182; 0.023635;-0.020724;,
       0.021887;-0.021192;-0.022489;,
       0.023979; 0.002124;-0.028832;,
       0.028750; 0.003657;-0.025287;,
       0.026205;-0.017269;-0.021903;;
      48;
      4;3,2,1,0;,
      4;7,6,5,4;,
      4;11,10,9,8;,
      4;15,14,13,12;,
      4;19,18,17,16;,
      4;23,22,21,20;,
      4;27,26,25,24;,
      4;31,30,29,28;,
      4;35,34,33,32;,
      4;39,38,37,36;,
      4;43,42,41,40;,
      4;47,46,45,44;,
      4;51,50,49,48;,
      4;55,54,53,52;,
      4;59,58,57,56;,
      4;63,62,61,60;,
      4;67,66,65,64;,
      4;71,70,69,68;,
      4;75,74,73,72;,
      4;79,78,77,76;,
      4;83,82,81,80;,
      4;87,86,85,84;,
      4;91,90,89,88;,
      4;95,94,93,92;,
      4;99,98,97,96;,
      4;103,102,101,100;,
      4;107,106,105,104;,
      4;111,110,109,108;,
      4;115,114,113,112;,
      4;119,118,117,116;,
      4;123,122,121,120;,
      4;127,126,125,124;,
      4;131,130,129,128;,
      4;135,134,133,132;,
      4;139,138,137,136;,
      4;143,142,141,140;,
      4;147,146,145,144;,
      4;151,150,149,148;,
      4;155,154,153,152;,
      4;159,158,157,156;,
      4;163,162,161,160;,
      4;167,166,165,164;,
      4;171,170,169,168;,
      4;175,174,173,172;,
      4;179,178,177,176;,
      4;183,182,181,180;,
      4;187,186,185,184;,
      4;191,190,189,188;;
      MeshNormals { // Cube normals
        192;
        -0.137730;-0.061861; 0.988525;,
        -0.043123;-0.874966; 0.482223;,
         0.284707;-0.712088; 0.641713;,
         0.398236;-0.037629; 0.916501;,
         0.338847; 0.079012;-0.937498;,
         0.235054; 0.789392;-0.567064;,
         0.601550; 0.701956;-0.381237;,
         0.767571; 0.183721;-0.614032;,
         0.338847; 0.079012;-0.937498;,
         0.380932;-0.642872;-0.664510;,
         0.080660;-0.816279;-0.571947;,
         0.107822; 0.092807;-0.989807;,
        -0.145177; 0.988464; 0.043031;,
         0.257851; 0.961058; 0.099246;,
         0.235054; 0.789392;-0.567064;,
        -0.035890; 0.907193;-0.419111;,
         0.569567;-0.821192; 0.034761;,
         0.036592;-0.996734;-0.071718;,
         0.080660;-0.816279;-0.571947;,
         0.380932;-0.642872;-0.664510;,
         0.786981;-0.609058; 0.098209;,
         0.756890;-0.364025;-0.542711;,
         0.867611;-0.401318;-0.293466;,
         0.736320;-0.671926; 0.079287;,
         0.257851; 0.961058; 0.099246;,
         0.159764; 0.680105; 0.715476;,
         0.541368; 0.623402; 0.564104;,
         0.551805; 0.823328; 0.132664;,
         0.569567;-0.821192; 0.034761;,
         0.380932;-0.642872;-0.664510;,
         0.756890;-0.364025;-0.542711;,
         0.786981;-0.609058; 0.098209;,
         0.398236;-0.037629; 0.916501;,
         0.284707;-0.712088; 0.641713;,
         0.738243;-0.398328; 0.544328;,
         0.653432; 0.037416; 0.756005;,
        -0.175542; 0.983703; 0.038484;,
        -0.156682; 0.977660;-0.139988;,
        -0.136662; 0.902707;-0.407910;,
        -0.233314; 0.972045; 0.026124;,
         0.036592;-0.996734;-0.071718;,
        -0.043123;-0.874966; 0.482223;,
        -0.017823;-0.984008; 0.177099;,
         0.013977;-0.996582;-0.081271;,
        -0.145177; 0.988464; 0.043031;,
        -0.035890; 0.907193;-0.419111;,
        -0.156682; 0.977660;-0.139988;,
        -0.175542; 0.983703; 0.038484;,
        -0.289193;-0.081545; 0.953764;,
        -0.262429; 0.847560; 0.461196;,
        -0.718436; 0.517838; 0.464400;,
        -0.834773;-0.111911; 0.539048;,
         0.013977;-0.996582;-0.081271;,
        -0.017823;-0.984008; 0.177099;,
        -0.124210;-0.895993; 0.426313;,
        -0.078860;-0.991668;-0.101779;,
        -0.979797;-0.197333;-0.031953;,
        -0.981384;-0.110538;-0.157018;,
        -0.697592;-0.696646;-0.167364;,
        -0.598926;-0.697439; 0.393506;,
        -0.001251; 0.036500;-0.999329;,
         0.022004;-0.827723;-0.560656;,
        -0.454268;-0.619312;-0.640339;,
        -0.614460;-0.050050;-0.787347;,
        -0.078860;-0.991668;-0.101779;,
        -0.124210;-0.895993; 0.426313;,
        -0.598926;-0.697439; 0.393506;,
        -0.697592;-0.696646;-0.167364;,
        -0.233314; 0.972045; 0.026124;,
        -0.136662; 0.902707;-0.407910;,
        -0.591845; 0.576067;-0.563738;,
        -0.864223; 0.493118;-0.099551;,
        -0.953246;-0.254158;-0.163396;,
        -0.995422;-0.094668;-0.012879;,
        -0.718436; 0.517838; 0.464400;,
        -0.864223; 0.493118;-0.099551;,
        -0.991333;-0.093020;-0.092441;,
        -0.964751;-0.048372;-0.258644;,
        -0.591845; 0.576067;-0.563738;,
        -0.614460;-0.050050;-0.787347;,
        -0.981384;-0.110538;-0.157018;,
        -0.946898;-0.233650;-0.220832;,
        -0.454268;-0.619312;-0.640339;,
        -0.697592;-0.696646;-0.167364;,
        -0.981292;-0.080203;-0.174932;,
        -0.979797;-0.197333;-0.031953;,
        -0.598926;-0.697439; 0.393506;,
        -0.834773;-0.111911; 0.539048;,
         0.653432; 0.037416; 0.756005;,
         0.738243;-0.398328; 0.544328;,
         0.624805;-0.473861; 0.620533;,
         0.552995; 0.013001; 0.833064;,
         0.767571; 0.183721;-0.614032;,
         0.601550; 0.701956;-0.381237;,
         0.742668; 0.621387;-0.249580;,
         0.936308; 0.172124;-0.306040;,
         0.551805; 0.823328; 0.132664;,
         0.541368; 0.623402; 0.564104;,
         0.525681; 0.525163; 0.669179;,
         0.596515; 0.790826; 0.136784;,
         0.022004;-0.827723;-0.560656;,
        -0.078860;-0.991668;-0.101779;,
        -0.697592;-0.696646;-0.167364;,
        -0.454268;-0.619312;-0.640339;,
         0.047548;-0.942137;-0.331828;,
         0.013977;-0.996582;-0.081271;,
        -0.078860;-0.991668;-0.101779;,
         0.022004;-0.827723;-0.560656;,
         0.080660;-0.816279;-0.571947;,
         0.036592;-0.996734;-0.071718;,
         0.013977;-0.996582;-0.081271;,
         0.047548;-0.942137;-0.331828;,
         0.284707;-0.712088; 0.641713;,
         0.569567;-0.821192; 0.034761;,
         0.786981;-0.609058; 0.098209;,
         0.738243;-0.398328; 0.544328;,
         0.738243;-0.398328; 0.544328;,
         0.786981;-0.609058; 0.098209;,
         0.736320;-0.671926; 0.079287;,
         0.624805;-0.473861; 0.620533;,
         0.284707;-0.712088; 0.641713;,
        -0.043123;-0.874966; 0.482223;,
         0.036592;-0.996734;-0.071718;,
         0.569567;-0.821192; 0.034761;,
         0.601550; 0.701956;-0.381237;,
         0.551805; 0.823328; 0.132664;,
         0.596515; 0.790826; 0.136784;,
         0.742668; 0.621387;-0.249580;,
        -0.964751;-0.048372;-0.258644;,
        -0.953246;-0.254158;-0.163396;,
        -0.864223; 0.493118;-0.099551;,
        -0.591845; 0.576067;-0.563738;,
        -0.262429; 0.847560; 0.461196;,
        -0.233314; 0.972045; 0.026124;,
        -0.864223; 0.493118;-0.099551;,
        -0.718436; 0.517838; 0.464400;,
        -0.170507; 0.835932; 0.521653;,
        -0.145177; 0.988464; 0.043031;,
        -0.175542; 0.983703; 0.038484;,
        -0.205542; 0.955138; 0.213080;,
        -0.205542; 0.955138; 0.213080;,
        -0.175542; 0.983703; 0.038484;,
        -0.233314; 0.972045; 0.026124;,
        -0.262429; 0.847560; 0.461196;,
         0.235054; 0.789392;-0.567064;,
         0.257851; 0.961058; 0.099246;,
         0.551805; 0.823328; 0.132664;,
         0.601550; 0.701956;-0.381237;,
        -0.170507; 0.835932; 0.521653;,
         0.159764; 0.680105; 0.715476;,
         0.257851; 0.961058; 0.099246;,
        -0.145177; 0.988464; 0.043031;,
         0.541368; 0.623402; 0.564104;,
         0.653432; 0.037416; 0.756005;,
         0.552995; 0.013001; 0.833064;,
         0.525681; 0.525163; 0.669179;,
        -0.995422;-0.094668;-0.012879;,
        -0.981292;-0.080203;-0.174932;,
        -0.834773;-0.111911; 0.539048;,
        -0.718436; 0.517838; 0.464400;,
        -0.124210;-0.895993; 0.426313;,
        -0.289193;-0.081545; 0.953764;,
        -0.834773;-0.111911; 0.539048;,
        -0.598926;-0.697439; 0.393506;,
         0.159764; 0.680105; 0.715476;,
         0.398236;-0.037629; 0.916501;,
         0.653432; 0.037416; 0.756005;,
         0.541368; 0.623402; 0.564104;,
        -0.170507; 0.835932; 0.521653;,
        -0.137730;-0.061861; 0.988525;,
         0.398236;-0.037629; 0.916501;,
         0.159764; 0.680105; 0.715476;,
         0.756890;-0.364025;-0.542711;,
         0.767571; 0.183721;-0.614032;,
         0.936308; 0.172124;-0.306040;,
         0.867611;-0.401318;-0.293466;,
        -0.946898;-0.233650;-0.220832;,
        -0.991333;-0.093020;-0.092441;,
        -0.614460;-0.050050;-0.787347;,
        -0.454268;-0.619312;-0.640339;,
        -0.136662; 0.902707;-0.407910;,
        -0.001251; 0.036500;-0.999329;,
        -0.614460;-0.050050;-0.787347;,
        -0.591845; 0.576067;-0.563738;,
         0.235054; 0.789392;-0.567064;,
         0.338847; 0.079012;-0.937498;,
         0.107822; 0.092807;-0.989807;,
        -0.035890; 0.907193;-0.419111;,
         0.380932;-0.642872;-0.664510;,
         0.338847; 0.079012;-0.937498;,
         0.767571; 0.183721;-0.614032;,
         0.756890;-0.364025;-0.542711;;
        48;
        4;3,2,1,0;,
        4;7,6,5,4;,
        4;11,10,9,8;,
        4;15,14,13,12;,
        4;19,18,17,16;,
        4;23,22,21,20;,
        4;27,26,25,24;,
        4;31,30,29,28;,
        4;35,34,33,32;,
        4;39,38,37,36;,
        4;43,42,41,40;,
        4;47,46,45,44;,
        4;51,50,49,48;,
        4;55,54,53,52;,
        4;59,58,57,56;,
        4;63,62,61,60;,
        4;67,66,65,64;,
        4;71,70,69,68;,
        4;75,74,73,72;,
        4;79,78,77,76;,
        4;83,82,81,80;,
        4;87,86,85,84;,
        4;91,90,89,88;,
        4;95,94,93,92;,
        4;99,98,97,96;,
        4;103,102,101,100;,
        4;107,106,105,104;,
        4;111,110,109,108;,
        4;115,114,113,112;,
        4;119,118,117,116;,
        4;123,122,121,120;,
        4;127,126,125,124;,
        4;131,130,129,128;,
        4;135,134,133,132;,
        4;139,138,137,136;,
        4;143,142,141,140;,
        4;147,146,145,144;,
        4;151,150,149,148;,
        4;155,154,153,152;,
        4;159,158,157,156;,
        4;163,162,161,160;,
        4;167,166,165,164;,
        4;171,170,169,168;,
        4;175,174,173,172;,
        4;179,178,177,176;,
        4;183,182,181,180;,
        4;187,186,185,184;,
        4;191,190,189,188;;
      } // End of Cube normals
      MeshTextureCoords { // Cube UV coordinates
        192;
         0.407723; 0.266342;,
         0.423685; 0.086635;,
         0.319020; 0.075879;,
         0.262321; 0.253601;,
         0.103837; 0.319217;,
         0.225607; 0.410283;,
         0.251203; 0.391099;,
         0.143639; 0.313672;,
         0.103837; 0.319217;,
         0.042707; 0.147027;,
         0.000000; 0.145100;,
         0.041839; 0.326421;,
         0.247112; 0.678244;,
         0.247544; 0.486369;,
         0.077072; 0.548193;,
         0.077075; 0.654218;,
         0.617207; 1.000000;,
         0.631804; 0.805064;,
         0.468262; 0.800296;,
         0.446238; 0.905303;,
         0.239805; 0.056747;,
         0.073786; 0.169044;,
         0.098608; 0.171252;,
         0.262320; 0.071328;,
         0.948076; 0.043995;,
         0.767600; 0.106463;,
         0.818646; 0.112624;,
         0.983813; 0.093079;,
         0.179133; 0.000000;,
         0.042707; 0.147027;,
         0.073786; 0.169044;,
         0.239805; 0.056747;,
         0.770257; 0.291102;,
         0.783918; 0.431853;,
         0.830781; 0.406061;,
         0.866014; 0.270334;,
         0.246136; 0.806321;,
         0.086205; 0.782310;,
         0.091169; 0.854878;,
         0.245378; 0.952440;,
         0.631804; 0.805064;,
         0.816187; 0.827491;,
         0.815628; 0.699592;,
         0.641944; 0.674002;,
         0.247112; 0.678244;,
         0.077075; 0.654218;,
         0.086205; 0.782310;,
         0.246136; 0.806321;,
         0.909312; 0.835041;,
         0.951898; 0.705836;,
         0.850088; 0.722914;,
         0.816187; 0.838230;,
         0.641944; 0.674002;,
         0.815628; 0.699592;,
         0.816187; 0.625828;,
         0.653191; 0.525275;,
         0.709017; 0.091026;,
         0.711823; 0.221001;,
         0.767600; 0.211291;,
         0.719003; 0.057946;,
         0.434042; 0.558480;,
         0.507311; 0.601725;,
         0.526553; 0.499813;,
         0.455140; 0.448395;,
         0.653191; 0.525275;,
         0.816187; 0.625828;,
         0.812547; 0.522458;,
         0.657149; 0.481495;,
         0.245378; 0.952440;,
         0.091169; 0.854878;,
         0.101622; 0.958039;,
         0.244871; 1.000000;,
         0.481223; 0.261181;,
         0.459124; 0.134570;,
         0.440176; 0.102397;,
         0.434042; 0.269395;,
         0.630360; 0.393285;,
         0.502100; 0.388130;,
         0.489560; 0.406136;,
         0.639701; 0.448395;,
         0.711823; 0.221001;,
         0.751993; 0.344586;,
         0.767600; 0.344672;,
         0.767600; 0.211291;,
         0.579558; 0.120886;,
         0.709017; 0.091026;,
         0.719003; 0.057946;,
         0.565203; 0.036185;,
         0.866014; 0.270334;,
         0.830781; 0.406061;,
         0.851460; 0.393747;,
         0.893480; 0.270896;,
         0.143639; 0.313672;,
         0.251203; 0.391099;,
         0.262320; 0.372389;,
         0.189007; 0.280661;,
         0.983813; 0.093079;,
         0.818646; 0.112624;,
         0.840380; 0.125807;,
         1.000000; 0.115042;,
         0.507311; 0.601725;,
         0.653191; 0.525275;,
         0.657149; 0.481495;,
         0.526553; 0.499813;,
         0.480628; 0.673068;,
         0.641944; 0.674002;,
         0.653191; 0.525275;,
         0.507311; 0.601725;,
         0.468262; 0.800296;,
         0.631804; 0.805064;,
         0.641944; 0.674002;,
         0.480628; 0.673068;,
         0.783918; 0.431853;,
         0.974235; 0.448395;,
         1.000000; 0.387586;,
         0.830781; 0.406061;,
         0.828727; 0.519584;,
         0.816187; 0.694044;,
         0.835025; 0.705836;,
         0.835025; 0.539161;,
         0.808042; 0.933950;,
         0.816187; 0.827491;,
         0.631804; 0.805064;,
         0.617207; 1.000000;,
         0.094741; 0.512816;,
         0.246078; 0.434017;,
         0.245425; 0.410283;,
         0.107386; 0.495500;,
         0.502100; 0.388130;,
         0.481223; 0.261181;,
         0.434042; 0.269395;,
         0.489560; 0.406136;,
         0.417411; 0.856122;,
         0.245378; 0.952440;,
         0.244871; 1.000000;,
         0.404950; 0.958840;,
         0.434042; 0.655573;,
         0.247112; 0.678244;,
         0.246136; 0.806321;,
         0.422849; 0.783232;,
         0.422849; 0.783232;,
         0.246136; 0.806321;,
         0.245378; 0.952440;,
         0.417411; 0.856122;,
         0.077072; 0.548193;,
         0.247544; 0.486369;,
         0.246078; 0.434017;,
         0.094741; 0.512816;,
         0.434042; 0.655573;,
         0.434042; 0.549189;,
         0.247544; 0.486369;,
         0.247112; 0.678244;,
         0.818646; 0.112624;,
         0.866014; 0.270334;,
         0.893480; 0.270896;,
         0.840380; 0.125807;,
         0.459124; 0.134570;,
         0.579558; 0.120886;,
         0.565203; 0.036185;,
         0.440176; 0.102397;,
         0.951898; 1.000000;,
         0.909312; 0.835041;,
         0.816187; 0.838230;,
         0.850040; 0.995087;,
         0.767600; 0.106463;,
         0.770257; 0.291102;,
         0.866014; 0.270334;,
         0.818646; 0.112624;,
         0.423685; 0.410283;,
         0.407723; 0.266342;,
         0.262321; 0.253601;,
         0.319020; 0.399528;,
         0.073786; 0.169044;,
         0.143639; 0.313672;,
         0.189007; 0.280661;,
         0.098608; 0.171252;,
         0.751993; 0.344586;,
         0.630360; 0.393285;,
         0.639701; 0.448395;,
         0.767600; 0.344672;,
         0.091169; 0.854878;,
         0.016752; 0.877968;,
         0.029222; 0.990527;,
         0.101622; 0.958039;,
         0.077072; 0.548193;,
         0.000040; 0.524327;,
         0.000000; 0.649737;,
         0.077075; 0.654218;,
         0.042707; 0.147027;,
         0.103837; 0.319217;,
         0.143639; 0.313672;,
         0.073786; 0.169044;;
      } // End of Cube UV coordinates
      MeshMaterialList { // Cube material list
        1;
        48;
        0,
        0,
        0,
        0,
        0,
        0,
        0,
        0,
        0,
        0,
        0,
        0,
        0,
        0,
        0,
        0,
        0,
        0,
        0,
        0,
        0,
        0,
        0,
        0,
        0,
        0,
        0,
        0,
        0,
        0,
        0,
        0,
        0,
        0,
        0,
        0,
        0,
        0,
        0,
        0,
        0,
        0,
        0,
        0,
        0,
        0,
        0,
        0;
        Material Material_002 {
           0.640000; 0.640000; 0.640000; 1.000000;;
           96.078431;
           0.500000; 0.500000; 0.500000;;
           0.000000; 0.000000; 0.000000;;
        }
      } // End of Cube material list
    } // End of Cube mesh
  } // End of Cube
} // End of Root
