xof 0303txt 0032

Frame Root {
  FrameTransformMatrix {
     1.000000, 0.000000, 0.000000, 0.000000,
     0.000000,-0.000000, 1.000000, 0.000000,
     0.000000, 1.000000, 0.000000, 0.000000,
     0.000000, 0.000000, 0.000000, 1.000000;;
  }
  Frame F_Necklace_Pearl {
    FrameTransformMatrix {
       1.000000, 0.000000, 0.000000, 0.000000,
       0.000000, 1.000000, 0.000000, 0.000000,
       0.000000, 0.000000, 1.000000, 0.000000,
       0.000000, 0.000000, 0.000000, 1.000000;;
    }
    Mesh {
      456;
       0.017514;-0.009801; 0.059420;,
       0.020006; 0.046483; 0.068556;,
       0.023019; 0.045983; 0.063262;,
       0.020528;-0.010301; 0.054126;,
       0.020528;-0.010301; 0.054126;,
       0.023019; 0.045983; 0.063262;,
       0.029059; 0.045049; 0.063261;,
       0.026568;-0.011235; 0.054125;,
       0.026568;-0.011235; 0.054125;,
       0.029059; 0.045049; 0.063261;,
       0.032086; 0.044616; 0.068553;,
       0.029594;-0.011669; 0.059417;,
       0.029594;-0.011669; 0.059417;,
       0.032086; 0.044616; 0.068553;,
       0.029072; 0.045115; 0.073846;,
       0.026581;-0.011169; 0.064710;,
       0.029059; 0.045049; 0.063261;,
       0.023019; 0.045983; 0.063262;,
       0.025332; 0.052284; 0.065511;,
       0.028758; 0.051755; 0.065510;,
       0.026581;-0.011169; 0.064710;,
       0.029072; 0.045115; 0.073846;,
       0.023032; 0.046049; 0.073848;,
       0.020541;-0.010235; 0.064712;,
       0.020541;-0.010235; 0.064712;,
       0.023032; 0.046049; 0.073848;,
       0.020006; 0.046483; 0.068556;,
       0.017514;-0.009801; 0.059420;,
       0.026568;-0.011235; 0.054125;,
       0.029594;-0.011669; 0.059417;,
       0.024407;-0.045173; 0.040146;,
       0.022181;-0.040636; 0.036709;,
       0.022181;-0.040636; 0.036709;,
       0.024407;-0.045173; 0.040146;,
       0.023178;-0.057442; 0.016138;,
       0.020338;-0.052149; 0.015011;,
       0.020541;-0.010235; 0.064712;,
       0.017514;-0.009801; 0.059420;,
       0.012361;-0.043132; 0.039774;,
       0.014587;-0.047669; 0.043212;,
       0.029594;-0.011669; 0.059417;,
       0.026581;-0.011169; 0.064710;,
       0.020610;-0.048689; 0.043398;,
       0.024407;-0.045173; 0.040146;,
       0.020528;-0.010301; 0.054126;,
       0.026568;-0.011235; 0.054125;,
       0.022181;-0.040636; 0.036709;,
       0.016158;-0.039616; 0.036523;,
       0.026581;-0.011169; 0.064710;,
       0.020541;-0.010235; 0.064712;,
       0.014587;-0.047669; 0.043212;,
       0.020610;-0.048689; 0.043398;,
       0.017514;-0.009801; 0.059420;,
       0.020528;-0.010301; 0.054126;,
       0.016158;-0.039616; 0.036523;,
       0.012361;-0.043132; 0.039774;,
       0.012999;-0.058258; 0.014884;,
       0.020338;-0.052149; 0.015011;,
       0.020678;-0.055993;-0.000591;,
       0.014607;-0.055601;-0.001171;,
       0.012361;-0.043132; 0.039774;,
       0.016158;-0.039616; 0.036523;,
       0.012999;-0.058258; 0.014884;,
       0.010967;-0.057007; 0.015801;,
       0.014587;-0.047669; 0.043212;,
       0.012361;-0.043132; 0.039774;,
       0.010967;-0.057007; 0.015801;,
       0.013806;-0.062300; 0.016928;,
       0.024407;-0.045173; 0.040146;,
       0.020610;-0.048689; 0.043398;,
       0.019911;-0.062518; 0.017097;,
       0.023178;-0.057442; 0.016138;,
       0.016158;-0.039616; 0.036523;,
       0.022181;-0.040636; 0.036709;,
       0.020338;-0.052149; 0.015011;,
       0.012999;-0.058258; 0.014884;,
       0.020610;-0.048689; 0.043398;,
       0.014587;-0.047669; 0.043212;,
       0.013806;-0.062300; 0.016928;,
       0.019911;-0.062518; 0.017097;,
       0.011372;-0.060513;-0.002835;,
       0.014607;-0.055601;-0.001171;,
       0.015873;-0.053132;-0.012099;,
       0.012885;-0.056779;-0.015988;,
       0.019911;-0.062518; 0.017097;,
       0.013806;-0.062300; 0.016928;,
       0.014209;-0.065816;-0.003918;,
       0.020281;-0.066208;-0.003339;,
       0.020338;-0.052149; 0.015011;,
       0.023178;-0.057442; 0.016138;,
       0.023515;-0.061297;-0.001675;,
       0.020678;-0.055993;-0.000591;,
       0.010967;-0.057007; 0.015801;,
       0.012999;-0.058258; 0.014884;,
       0.014607;-0.055601;-0.001171;,
       0.011372;-0.060513;-0.002835;,
       0.013806;-0.062300; 0.016928;,
       0.010967;-0.057007; 0.015801;,
       0.011372;-0.060513;-0.002835;,
       0.014209;-0.065816;-0.003918;,
       0.023178;-0.057442; 0.016138;,
       0.019911;-0.062518; 0.017097;,
       0.020281;-0.066208;-0.003339;,
       0.023515;-0.061297;-0.001675;,
       0.021912;-0.061868;-0.018151;,
       0.015905;-0.061147;-0.019013;,
       0.017340;-0.039066;-0.052837;,
       0.023347;-0.039787;-0.051974;,
       0.014209;-0.065816;-0.003918;,
       0.011372;-0.060513;-0.002835;,
       0.012885;-0.056779;-0.015988;,
       0.015905;-0.061147;-0.019013;,
       0.023515;-0.061297;-0.001675;,
       0.020281;-0.066208;-0.003339;,
       0.021912;-0.061868;-0.018151;,
       0.024900;-0.058220;-0.014262;,
       0.014607;-0.055601;-0.001171;,
       0.020678;-0.055993;-0.000591;,
       0.021880;-0.053852;-0.011236;,
       0.015873;-0.053132;-0.012099;,
       0.020281;-0.066208;-0.003339;,
       0.014209;-0.065816;-0.003918;,
       0.015905;-0.061147;-0.019013;,
       0.021912;-0.061868;-0.018151;,
       0.020678;-0.055993;-0.000591;,
       0.023515;-0.061297;-0.001675;,
       0.024900;-0.058220;-0.014262;,
       0.021880;-0.053852;-0.011236;,
       0.017340;-0.039066;-0.052837;,
       0.014320;-0.034698;-0.049811;,
       0.014463; 0.002915;-0.064743;,
       0.018378; 0.001856;-0.069315;,
       0.021880;-0.053852;-0.011236;,
       0.024900;-0.058220;-0.014262;,
       0.026335;-0.036139;-0.048086;,
       0.023315;-0.031771;-0.045060;,
       0.012885;-0.056779;-0.015988;,
       0.015873;-0.053132;-0.012099;,
       0.017308;-0.031050;-0.045923;,
       0.014320;-0.034698;-0.049811;,
       0.015905;-0.061147;-0.019013;,
       0.012885;-0.056779;-0.015988;,
       0.014320;-0.034698;-0.049811;,
       0.017340;-0.039066;-0.052837;,
       0.024900;-0.058220;-0.014262;,
       0.021912;-0.061868;-0.018151;,
       0.023347;-0.039787;-0.051974;,
       0.026335;-0.036139;-0.048086;,
       0.015873;-0.053132;-0.012099;,
       0.021880;-0.053852;-0.011236;,
       0.023315;-0.031771;-0.045060;,
       0.017308;-0.031050;-0.045923;,
       0.024395; 0.002347;-0.068362;,
       0.018378; 0.001856;-0.069315;,
       0.016402; 0.051819;-0.082583;,
       0.022419; 0.052310;-0.081630;,
       0.026335;-0.036139;-0.048086;,
       0.023347;-0.039787;-0.051974;,
       0.024395; 0.002347;-0.068362;,
       0.026497; 0.003897;-0.062836;,
       0.017308;-0.031050;-0.045923;,
       0.023315;-0.031771;-0.045060;,
       0.022582; 0.004957;-0.058264;,
       0.016565; 0.004465;-0.059218;,
       0.023347;-0.039787;-0.051974;,
       0.017340;-0.039066;-0.052837;,
       0.018378; 0.001856;-0.069315;,
       0.024395; 0.002347;-0.068362;,
       0.023315;-0.031771;-0.045060;,
       0.026335;-0.036139;-0.048086;,
       0.026497; 0.003897;-0.062836;,
       0.022582; 0.004957;-0.058264;,
       0.014320;-0.034698;-0.049811;,
       0.017308;-0.031050;-0.045923;,
       0.016565; 0.004465;-0.059218;,
       0.014463; 0.002915;-0.064743;,
       0.016402; 0.051819;-0.082583;,
       0.012487; 0.052879;-0.078011;,
       0.014579; 0.057471;-0.079194;,
       0.016759; 0.056881;-0.081740;,
       0.022582; 0.004957;-0.058264;,
       0.026497; 0.003897;-0.062836;,
       0.024521; 0.053861;-0.076104;,
       0.020606; 0.054920;-0.071532;,
       0.014463; 0.002915;-0.064743;,
       0.016565; 0.004465;-0.059218;,
       0.014590; 0.054429;-0.072485;,
       0.012487; 0.052879;-0.078011;,
       0.018378; 0.001856;-0.069315;,
       0.014463; 0.002915;-0.064743;,
       0.012487; 0.052879;-0.078011;,
       0.016402; 0.051819;-0.082583;,
       0.026497; 0.003897;-0.062836;,
       0.024395; 0.002347;-0.068362;,
       0.022419; 0.052310;-0.081630;,
       0.024521; 0.053861;-0.076104;,
       0.016565; 0.004465;-0.059218;,
       0.022582; 0.004957;-0.058264;,
       0.020606; 0.054920;-0.071532;,
       0.014590; 0.054429;-0.072485;,
       0.014579; 0.057471;-0.079194;,
       0.015749; 0.058334;-0.076118;,
       0.019099; 0.058607;-0.075587;,
       0.021279; 0.058018;-0.078133;,
       0.020109; 0.057154;-0.081209;,
       0.016759; 0.056881;-0.081740;,
       0.024521; 0.053861;-0.076104;,
       0.022419; 0.052310;-0.081630;,
       0.020109; 0.057154;-0.081209;,
       0.021279; 0.058018;-0.078133;,
       0.014590; 0.054429;-0.072485;,
       0.020606; 0.054920;-0.071532;,
       0.019099; 0.058607;-0.075587;,
       0.015749; 0.058334;-0.076118;,
       0.022419; 0.052310;-0.081630;,
       0.016402; 0.051819;-0.082583;,
       0.016759; 0.056881;-0.081740;,
       0.020109; 0.057154;-0.081209;,
       0.020606; 0.054920;-0.071532;,
       0.024521; 0.053861;-0.076104;,
       0.021279; 0.058018;-0.078133;,
       0.019099; 0.058607;-0.075587;,
       0.012487; 0.052879;-0.078011;,
       0.014590; 0.054429;-0.072485;,
       0.015749; 0.058334;-0.076118;,
       0.014579; 0.057471;-0.079194;,
       0.025332; 0.052284; 0.065511;,
       0.023623; 0.052568; 0.068514;,
       0.025339; 0.052322; 0.071515;,
       0.028765; 0.051792; 0.071514;,
       0.030475; 0.051509; 0.068512;,
       0.028758; 0.051755; 0.065510;,
       0.023032; 0.046049; 0.073848;,
       0.029072; 0.045115; 0.073846;,
       0.028765; 0.051792; 0.071514;,
       0.025339; 0.052322; 0.071515;,
       0.023019; 0.045983; 0.063262;,
       0.020006; 0.046483; 0.068556;,
       0.023623; 0.052568; 0.068514;,
       0.025332; 0.052284; 0.065511;,
       0.032086; 0.044616; 0.068553;,
       0.029059; 0.045049; 0.063261;,
       0.028758; 0.051755; 0.065510;,
       0.030475; 0.051509; 0.068512;,
       0.020006; 0.046483; 0.068556;,
       0.023032; 0.046049; 0.073848;,
       0.025339; 0.052322; 0.071515;,
       0.023623; 0.052568; 0.068514;,
       0.029072; 0.045115; 0.073846;,
       0.032086; 0.044616; 0.068553;,
       0.030475; 0.051509; 0.068512;,
       0.028765; 0.051792; 0.071514;,
       0.004093; 0.018440; 0.000920;,
       0.024293; 0.015791; 0.000912;,
       0.041246; 0.073716; 0.000531;,
       0.002747; 0.068330; 0.000611;,
       0.002747; 0.068330; 0.000611;,
       0.041246; 0.073716; 0.000531;,
       0.044109; 0.045340;-0.049685;,
       0.005062; 0.045300;-0.045246;,
       0.010513; 0.010686;-0.054891;,
       0.050835; 0.002633;-0.061584;,
       0.065495;-0.041466;-0.049170;,
       0.022522;-0.032380;-0.044784;,
       0.022522;-0.032380;-0.044784;,
       0.065495;-0.041466;-0.049170;,
       0.059829;-0.070516; 0.001406;,
       0.017936;-0.055893; 0.001366;,
      -0.018089; 0.024058; 0.000912;,
      -0.028773; 0.018160;-0.061584;,
       0.002136;-0.036407;-0.049125;,
      -0.001770;-0.056433; 0.001393;,
       0.050835; 0.002633;-0.061584;,
       0.024293; 0.015791; 0.000912;,
       0.059829;-0.070516; 0.001406;,
       0.065495;-0.041466;-0.049170;,
       0.044109; 0.045340;-0.049685;,
       0.041246; 0.073716; 0.000531;,
       0.024293; 0.015791; 0.000912;,
       0.050835; 0.002633;-0.061584;,
      -0.038362; 0.089244; 0.000531;,
      -0.035498; 0.060868;-0.049685;,
      -0.028773; 0.018160;-0.061584;,
      -0.018089; 0.024058; 0.000912;,
       0.005062; 0.045300;-0.045246;,
       0.044109; 0.045340;-0.049685;,
       0.050835; 0.002633;-0.061584;,
       0.010513; 0.010686;-0.054891;,
       0.017936;-0.055893; 0.001366;,
       0.059829;-0.070516; 0.001406;,
       0.024293; 0.015791; 0.000912;,
       0.004093; 0.018440; 0.000920;,
      -0.001770;-0.056433; 0.001393;,
       0.017936;-0.055893; 0.001366;,
       0.004093; 0.018440; 0.000920;,
      -0.018089; 0.024058; 0.000912;,
      -0.035498; 0.060868;-0.049685;,
       0.005062; 0.045300;-0.045246;,
       0.010513; 0.010686;-0.054891;,
      -0.028773; 0.018160;-0.061584;,
       0.002136;-0.036407;-0.049125;,
       0.022522;-0.032380;-0.044784;,
       0.017936;-0.055893; 0.001366;,
      -0.001770;-0.056433; 0.001393;,
      -0.028773; 0.018160;-0.061584;,
       0.010513; 0.010686;-0.054891;,
       0.022522;-0.032380;-0.044784;,
       0.002136;-0.036407;-0.049125;,
      -0.038362; 0.089244; 0.000531;,
       0.002747; 0.068330; 0.000611;,
       0.005062; 0.045300;-0.045246;,
      -0.035498; 0.060868;-0.049685;,
      -0.018089; 0.024058; 0.000912;,
       0.004093; 0.018440; 0.000920;,
       0.002747; 0.068330; 0.000611;,
      -0.038362; 0.089244; 0.000531;,
       0.002747; 0.068330; 0.000611;,
       0.005174; 0.045872; 0.046746;,
       0.044231; 0.045967; 0.051089;,
       0.041246; 0.073716; 0.000531;,
       0.010649; 0.011381; 0.056808;,
       0.022634;-0.031807; 0.047208;,
       0.065618;-0.040839; 0.051603;,
       0.050987; 0.003411; 0.063503;,
       0.022634;-0.031807; 0.047208;,
       0.017936;-0.055893; 0.001366;,
       0.059829;-0.070516; 0.001406;,
       0.065618;-0.040839; 0.051603;,
      -0.018089; 0.024058; 0.000912;,
      -0.001770;-0.056433; 0.001393;,
       0.002259;-0.035780; 0.051648;,
      -0.028621; 0.018939; 0.063503;,
       0.050987; 0.003411; 0.063503;,
       0.065618;-0.040839; 0.051603;,
       0.059829;-0.070516; 0.001406;,
       0.024293; 0.015791; 0.000912;,
       0.044231; 0.045967; 0.051089;,
       0.050987; 0.003411; 0.063503;,
       0.024293; 0.015791; 0.000912;,
       0.041246; 0.073716; 0.000531;,
      -0.038362; 0.089244; 0.000531;,
      -0.018089; 0.024058; 0.000912;,
      -0.028621; 0.018939; 0.063503;,
      -0.035376; 0.061495; 0.051089;,
       0.005174; 0.045872; 0.046746;,
       0.010649; 0.011381; 0.056808;,
       0.050987; 0.003411; 0.063503;,
       0.044231; 0.045967; 0.051089;,
      -0.035376; 0.061495; 0.051089;,
      -0.028621; 0.018939; 0.063503;,
       0.010649; 0.011381; 0.056808;,
       0.005174; 0.045872; 0.046746;,
       0.002259;-0.035780; 0.051648;,
      -0.001770;-0.056433; 0.001393;,
       0.017936;-0.055893; 0.001366;,
       0.022634;-0.031807; 0.047208;,
      -0.028621; 0.018939; 0.063503;,
       0.002259;-0.035780; 0.051648;,
       0.022634;-0.031807; 0.047208;,
       0.010649; 0.011381; 0.056808;,
      -0.038362; 0.089244; 0.000531;,
      -0.035376; 0.061495; 0.051089;,
       0.005174; 0.045872; 0.046746;,
       0.002747; 0.068330; 0.000611;,
       0.036950; 0.013680; 0.071105;,
       0.040849; 0.023760; 0.072885;,
       0.011602; 0.030260; 0.086286;,
       0.008629; 0.024927; 0.084475;,
      -0.003278; 0.056692; 0.057284;,
       0.000166; 0.062870; 0.059382;,
      -0.011349; 0.083455; 0.017671;,
      -0.014793; 0.077277; 0.015572;,
      -0.014793; 0.077277; 0.015572;,
      -0.011349; 0.083455; 0.017671;,
       0.022079; 0.073596; 0.002162;,
       0.018016; 0.064247; 0.000084;,
       0.029532; 0.043662; 0.041796;,
       0.033902; 0.054587; 0.043863;,
       0.040849; 0.023760; 0.072885;,
       0.036950; 0.013680; 0.071105;,
      -0.003278; 0.056692; 0.057284;,
      -0.014793; 0.077277; 0.015572;,
       0.018016; 0.064247; 0.000084;,
       0.029532; 0.043662; 0.041796;,
       0.000166; 0.062870; 0.059382;,
       0.011602; 0.030260; 0.086286;,
       0.040849; 0.023760; 0.072885;,
       0.033902; 0.054587; 0.043863;,
      -0.011349; 0.083455; 0.017671;,
       0.000166; 0.062870; 0.059382;,
       0.033902; 0.054587; 0.043863;,
       0.022079; 0.073596; 0.002162;,
       0.008629; 0.024927; 0.084475;,
      -0.003278; 0.056692; 0.057284;,
       0.029532; 0.043662; 0.041796;,
       0.036950; 0.013680; 0.071105;,
       0.018016; 0.064247; 0.000084;,
       0.022079; 0.073596; 0.002162;,
       0.033902; 0.054587; 0.043863;,
       0.029532; 0.043662; 0.041796;,
       0.008629; 0.024927; 0.084475;,
       0.011602; 0.030260; 0.086286;,
       0.000166; 0.062870; 0.059382;,
      -0.003278; 0.056692; 0.057284;,
       0.000885; 0.066357; 0.006205;,
       0.003980; 0.072822; 0.004458;,
      -0.028344; 0.083388;-0.013699;,
      -0.031438; 0.076923;-0.011952;,
      -0.010265; 0.052815;-0.063675;,
      -0.007170; 0.059280;-0.065422;,
       0.004754; 0.053221;-0.095188;,
       0.001659; 0.046756;-0.093441;,
       0.001659; 0.046756;-0.093441;,
       0.004754; 0.053221;-0.095188;,
       0.037077; 0.042655;-0.077031;,
       0.033983; 0.036190;-0.075284;,
       0.022059; 0.042249;-0.045518;,
       0.025153; 0.048714;-0.047265;,
       0.003980; 0.072822; 0.004458;,
       0.000885; 0.066357; 0.006205;,
      -0.010265; 0.052815;-0.063675;,
       0.001659; 0.046756;-0.093441;,
       0.033983; 0.036190;-0.075284;,
       0.022059; 0.042249;-0.045518;,
      -0.007170; 0.059280;-0.065422;,
      -0.028344; 0.083388;-0.013699;,
       0.003980; 0.072822; 0.004458;,
       0.025153; 0.048714;-0.047265;,
       0.004754; 0.053221;-0.095188;,
      -0.007170; 0.059280;-0.065422;,
       0.025153; 0.048714;-0.047265;,
       0.037077; 0.042655;-0.077031;,
      -0.031438; 0.076923;-0.011952;,
      -0.010265; 0.052815;-0.063675;,
       0.022059; 0.042249;-0.045518;,
       0.000885; 0.066357; 0.006205;,
       0.033983; 0.036190;-0.075284;,
       0.037077; 0.042655;-0.077031;,
       0.025153; 0.048714;-0.047265;,
       0.022059; 0.042249;-0.045518;,
      -0.031438; 0.076923;-0.011952;,
      -0.028344; 0.083388;-0.013699;,
      -0.007170; 0.059280;-0.065422;,
      -0.010265; 0.052815;-0.063675;,
       0.004762; 0.076946;-0.010277;,
      -0.003879; 0.069794;-0.023466;,
      -0.013596; 0.075574;-0.028907;,
      -0.007677; 0.086932;-0.010325;,
       0.004762; 0.076946;-0.010277;,
      -0.007677; 0.086932;-0.010325;,
      -0.000354; 0.088598; 0.016295;,
       0.010419; 0.078893; 0.009646;,
       0.010419; 0.078893; 0.009646;,
      -0.000354; 0.088598; 0.016295;,
       0.001529; 0.077526; 0.027941;,
       0.015015; 0.070350; 0.023348;;
      113;
      4;3,2,1,0;,
      4;7,6,5,4;,
      4;11,10,9,8;,
      4;15,14,13,12;,
      4;19,18,17,16;,
      4;23,22,21,20;,
      4;27,26,25,24;,
      4;31,30,29,28;,
      4;35,34,33,32;,
      4;39,38,37,36;,
      4;43,42,41,40;,
      4;47,46,45,44;,
      4;51,50,49,48;,
      4;55,54,53,52;,
      4;59,58,57,56;,
      4;63,62,61,60;,
      4;67,66,65,64;,
      4;71,70,69,68;,
      4;75,74,73,72;,
      4;79,78,77,76;,
      4;83,82,81,80;,
      4;87,86,85,84;,
      4;91,90,89,88;,
      4;95,94,93,92;,
      4;99,98,97,96;,
      4;103,102,101,100;,
      4;107,106,105,104;,
      4;111,110,109,108;,
      4;115,114,113,112;,
      4;119,118,117,116;,
      4;123,122,121,120;,
      4;127,126,125,124;,
      4;131,130,129,128;,
      4;135,134,133,132;,
      4;139,138,137,136;,
      4;143,142,141,140;,
      4;147,146,145,144;,
      4;151,150,149,148;,
      4;155,154,153,152;,
      4;159,158,157,156;,
      4;163,162,161,160;,
      4;167,166,165,164;,
      4;171,170,169,168;,
      4;175,174,173,172;,
      4;179,178,177,176;,
      4;183,182,181,180;,
      4;187,186,185,184;,
      4;191,190,189,188;,
      4;195,194,193,192;,
      4;199,198,197,196;,
      6;205,204,203,202,201,200;,
      4;209,208,207,206;,
      4;213,212,211,210;,
      4;217,216,215,214;,
      4;221,220,219,218;,
      4;225,224,223,222;,
      6;231,230,229,228,227,226;,
      4;235,234,233,232;,
      4;239,238,237,236;,
      4;243,242,241,240;,
      4;247,246,245,244;,
      4;251,250,249,248;,
      4;255,254,253,252;,
      4;259,258,257,256;,
      4;263,262,261,260;,
      4;267,266,265,264;,
      4;271,270,269,268;,
      4;275,274,273,272;,
      4;279,278,277,276;,
      4;283,282,281,280;,
      4;287,286,285,284;,
      4;291,290,289,288;,
      4;295,294,293,292;,
      4;299,298,297,296;,
      4;303,302,301,300;,
      4;307,306,305,304;,
      4;311,310,309,308;,
      4;315,314,313,312;,
      4;319,318,317,316;,
      4;323,322,321,320;,
      4;327,326,325,324;,
      4;331,330,329,328;,
      4;335,334,333,332;,
      4;339,338,337,336;,
      4;343,342,341,340;,
      4;347,346,345,344;,
      4;351,350,349,348;,
      4;355,354,353,352;,
      4;359,358,357,356;,
      4;363,362,361,360;,
      4;367,366,365,364;,
      4;371,370,369,368;,
      4;375,374,373,372;,
      4;379,378,377,376;,
      4;383,382,381,380;,
      4;387,386,385,384;,
      4;391,390,389,388;,
      4;395,394,393,392;,
      4;399,398,397,396;,
      4;403,402,401,400;,
      4;407,406,405,404;,
      4;411,410,409,408;,
      4;415,414,413,412;,
      4;419,418,417,416;,
      4;423,422,421,420;,
      4;427,426,425,424;,
      4;431,430,429,428;,
      4;435,434,433,432;,
      4;439,438,437,436;,
      4;443,442,441,440;,
      4;447,446,445,444;,
      4;451,450,449,448;,
      4;455,454,453,452;;
      MeshNormals {
        456;
        -0.997116; 0.062120; 0.043608;,
        -0.961594; 0.273212; 0.026305;,
        -0.476273; 0.290833;-0.829807;,
        -0.451624; 0.356555;-0.817866;,
        -0.451624; 0.356555;-0.817866;,
        -0.476273; 0.290833;-0.829807;,
         0.514506; 0.197597;-0.834409;,
         0.573200; 0.237349;-0.784288;,
         0.573200; 0.237349;-0.784288;,
         0.514506; 0.197597;-0.834409;,
         0.996543; 0.078075; 0.028388;,
         0.987786;-0.142827; 0.062280;,
         0.987786;-0.142827; 0.062280;,
         0.996543; 0.078075; 0.028388;,
         0.486115; 0.062779; 0.871637;,
         0.438981;-0.326003; 0.837268;,
         0.514506; 0.197597;-0.834409;,
        -0.476273; 0.290833;-0.829807;,
        -0.213576; 0.787374;-0.578297;,
         0.441033; 0.686201;-0.578462;,
         0.438981;-0.326003; 0.837268;,
         0.486115; 0.062779; 0.871637;,
        -0.479736; 0.165093; 0.861741;,
        -0.499805;-0.236864; 0.833121;,
        -0.499805;-0.236864; 0.833121;,
        -0.479736; 0.165093; 0.861741;,
        -0.961594; 0.273212; 0.026305;,
        -0.997116; 0.062120; 0.043608;,
         0.573200; 0.237349;-0.784288;,
         0.987786;-0.142827; 0.062280;,
         0.977512;-0.194500; 0.081489;,
         0.546041; 0.538160;-0.642046;,
         0.546041; 0.538160;-0.642046;,
         0.977512;-0.194500; 0.081489;,
         0.992915;-0.114414; 0.032094;,
         0.374648; 0.861549;-0.342597;,
        -0.499805;-0.236864; 0.833121;,
        -0.997116; 0.062120; 0.043608;,
        -0.991591; 0.129128; 0.008538;,
        -0.550706;-0.564828; 0.614567;,
         0.987786;-0.142827; 0.062280;,
         0.438981;-0.326003; 0.837268;,
         0.360853;-0.691284; 0.626029;,
         0.977512;-0.194500; 0.081489;,
        -0.451624; 0.356555;-0.817866;,
         0.573200; 0.237349;-0.784288;,
         0.546041; 0.538160;-0.642046;,
        -0.442996; 0.644114;-0.623596;,
         0.438981;-0.326003; 0.837268;,
        -0.499805;-0.236864; 0.833121;,
        -0.550706;-0.564828; 0.614567;,
         0.360853;-0.691284; 0.626029;,
        -0.997116; 0.062120; 0.043608;,
        -0.451624; 0.356555;-0.817866;,
        -0.442996; 0.644114;-0.623596;,
        -0.991591; 0.129128; 0.008538;,
        -0.485190; 0.844924;-0.225153;,
         0.374648; 0.861549;-0.342597;,
         0.477349; 0.875992; 0.069107;,
        -0.462228; 0.885845; 0.040294;,
        -0.991591; 0.129128; 0.008538;,
        -0.442996; 0.644114;-0.623596;,
        -0.485190; 0.844924;-0.225153;,
        -0.977251; 0.193539;-0.086734;,
        -0.550706;-0.564828; 0.614567;,
        -0.991591; 0.129128; 0.008538;,
        -0.977251; 0.193539;-0.086734;,
        -0.543864;-0.792745; 0.275260;,
         0.977512;-0.194500; 0.081489;,
         0.360853;-0.691284; 0.626029;,
         0.400632;-0.866439; 0.297956;,
         0.992915;-0.114414; 0.032094;,
        -0.442996; 0.644114;-0.623596;,
         0.546041; 0.538160;-0.642046;,
         0.374648; 0.861549;-0.342597;,
        -0.485190; 0.844924;-0.225153;,
         0.360853;-0.691284; 0.626029;,
        -0.550706;-0.564828; 0.614567;,
        -0.543864;-0.792745; 0.275260;,
         0.400632;-0.866439; 0.297956;,
        -0.997924; 0.047762;-0.043208;,
        -0.462228; 0.885845; 0.040294;,
        -0.479499; 0.823605; 0.302912;,
        -0.997516; 0.000583;-0.070435;,
         0.400632;-0.866439; 0.297956;,
        -0.543864;-0.792745; 0.275260;,
        -0.521362;-0.848058;-0.094762;,
         0.407728;-0.912726;-0.026251;,
         0.374648; 0.861549;-0.342597;,
         0.992915;-0.114414; 0.032094;,
         0.989419;-0.129319; 0.065777;,
         0.477349; 0.875992; 0.069107;,
        -0.977251; 0.193539;-0.086734;,
        -0.485190; 0.844924;-0.225153;,
        -0.462228; 0.885845; 0.040294;,
        -0.997924; 0.047762;-0.043208;,
        -0.543864;-0.792745; 0.275260;,
        -0.977251; 0.193539;-0.086734;,
        -0.997924; 0.047762;-0.043208;,
        -0.521362;-0.848058;-0.094762;,
         0.992915;-0.114414; 0.032094;,
         0.400632;-0.866439; 0.297956;,
         0.407728;-0.912726;-0.026251;,
         0.989419;-0.129319; 0.065777;,
         0.462448;-0.816491;-0.345665;,
        -0.494705;-0.768316;-0.406150;,
        -0.418209;-0.557267;-0.717325;,
         0.508117;-0.574980;-0.641260;,
        -0.521362;-0.848058;-0.094762;,
        -0.997924; 0.047762;-0.043208;,
        -0.997516; 0.000583;-0.070435;,
        -0.494705;-0.768316;-0.406150;,
         0.989419;-0.129319; 0.065777;,
         0.407728;-0.912726;-0.026251;,
         0.462448;-0.816491;-0.345665;,
         0.993429;-0.104796; 0.045998;,
        -0.462228; 0.885845; 0.040294;,
         0.477349; 0.875992; 0.069107;,
         0.562527; 0.750346; 0.347194;,
        -0.479499; 0.823605; 0.302912;,
         0.407728;-0.912726;-0.026251;,
        -0.521362;-0.848058;-0.094762;,
        -0.494705;-0.768316;-0.406150;,
         0.462448;-0.816491;-0.345665;,
         0.477349; 0.875992; 0.069107;,
         0.989419;-0.129319; 0.065777;,
         0.993429;-0.104796; 0.045998;,
         0.562527; 0.750346; 0.347194;,
        -0.418209;-0.557267;-0.717325;,
        -0.987402;-0.054124;-0.148688;,
        -0.987073;-0.067077;-0.145562;,
        -0.347875;-0.297392;-0.889123;,
         0.562527; 0.750346; 0.347194;,
         0.993429;-0.104796; 0.045998;,
         0.998465;-0.047673;-0.028197;,
         0.509893; 0.522926; 0.683050;,
        -0.997516; 0.000583;-0.070435;,
        -0.479499; 0.823605; 0.302912;,
        -0.598570; 0.494506; 0.630221;,
        -0.987402;-0.054124;-0.148688;,
        -0.494705;-0.768316;-0.406150;,
        -0.997516; 0.000583;-0.070435;,
        -0.987402;-0.054124;-0.148688;,
        -0.418209;-0.557267;-0.717325;,
         0.993429;-0.104796; 0.045998;,
         0.462448;-0.816491;-0.345665;,
         0.508117;-0.574980;-0.641260;,
         0.998465;-0.047673;-0.028197;,
        -0.479499; 0.823605; 0.302912;,
         0.562527; 0.750346; 0.347194;,
         0.509893; 0.522926; 0.683050;,
        -0.598570; 0.494506; 0.630221;,
         0.613442;-0.238420;-0.752891;,
        -0.347875;-0.297392;-0.889123;,
        -0.339746;-0.052543;-0.939049;,
         0.622064; 0.063358;-0.780399;,
         0.998465;-0.047673;-0.028197;,
         0.508117;-0.574980;-0.641260;,
         0.613442;-0.238420;-0.752891;,
         0.992293; 0.049108; 0.113770;,
        -0.598570; 0.494506; 0.630221;,
         0.509893; 0.522926; 0.683050;,
         0.369734; 0.286203; 0.883959;,
        -0.620791; 0.225264; 0.750916;,
         0.508117;-0.574980;-0.641260;,
        -0.418209;-0.557267;-0.717325;,
        -0.347875;-0.297392;-0.889123;,
         0.613442;-0.238420;-0.752891;,
         0.509893; 0.522926; 0.683050;,
         0.998465;-0.047673;-0.028197;,
         0.992293; 0.049108; 0.113770;,
         0.369734; 0.286203; 0.883959;,
        -0.987402;-0.054124;-0.148688;,
        -0.598570; 0.494506; 0.630221;,
        -0.620791; 0.225264; 0.750916;,
        -0.987073;-0.067077;-0.145562;,
        -0.339746;-0.052543;-0.939049;,
        -0.972045; 0.125202;-0.198628;,
        -0.653050; 0.689301;-0.313672;,
        -0.260399; 0.578685;-0.772862;,
         0.369734; 0.286203; 0.883959;,
         0.992293; 0.049108; 0.113770;,
         0.936056; 0.341046; 0.086529;,
         0.323777; 0.509883; 0.796986;,
        -0.987073;-0.067077;-0.145562;,
        -0.620791; 0.225264; 0.750916;,
        -0.621362; 0.409187; 0.668188;,
        -0.972045; 0.125202;-0.198628;,
        -0.347875;-0.297392;-0.889123;,
        -0.987073;-0.067077;-0.145562;,
        -0.972045; 0.125202;-0.198628;,
        -0.339746;-0.052543;-0.939049;,
         0.992293; 0.049108; 0.113770;,
         0.613442;-0.238420;-0.752891;,
         0.622064; 0.063358;-0.780399;,
         0.936056; 0.341046; 0.086529;,
        -0.620791; 0.225264; 0.750916;,
         0.369734; 0.286203; 0.883959;,
         0.323777; 0.509883; 0.796986;,
        -0.621362; 0.409187; 0.668188;,
        -0.653050; 0.689301;-0.313672;,
        -0.434908; 0.871482; 0.226661;,
         0.154079; 0.940161; 0.303902;,
         0.534032; 0.834436;-0.136112;,
         0.339345; 0.654185;-0.675935;,
        -0.260399; 0.578685;-0.772862;,
         0.936056; 0.341046; 0.086529;,
         0.622064; 0.063358;-0.780399;,
         0.339345; 0.654185;-0.675935;,
         0.534032; 0.834436;-0.136112;,
        -0.621362; 0.409187; 0.668188;,
         0.323777; 0.509883; 0.796986;,
         0.154079; 0.940161; 0.303902;,
        -0.434908; 0.871482; 0.226661;,
         0.622064; 0.063358;-0.780399;,
        -0.339746;-0.052543;-0.939049;,
        -0.260399; 0.578685;-0.772862;,
         0.339345; 0.654185;-0.675935;,
         0.323777; 0.509883; 0.796986;,
         0.936056; 0.341046; 0.086529;,
         0.534032; 0.834436;-0.136112;,
         0.154079; 0.940161; 0.303902;,
        -0.972045; 0.125202;-0.198628;,
        -0.621362; 0.409187; 0.668188;,
        -0.434908; 0.871482; 0.226661;,
        -0.653050; 0.689301;-0.313672;,
        -0.213576; 0.787374;-0.578297;,
        -0.540186; 0.841533;-0.004581;,
        -0.212184; 0.794514; 0.568969;,
         0.442427; 0.693339; 0.568806;,
         0.769043; 0.639178;-0.004912;,
         0.441033; 0.686201;-0.578462;,
        -0.479736; 0.165093; 0.861741;,
         0.486115; 0.062779; 0.871637;,
         0.442427; 0.693339; 0.568806;,
        -0.212184; 0.794514; 0.568969;,
        -0.476273; 0.290833;-0.829807;,
        -0.961594; 0.273212; 0.026305;,
        -0.540186; 0.841533;-0.004581;,
        -0.213576; 0.787374;-0.578297;,
         0.996543; 0.078075; 0.028388;,
         0.514506; 0.197597;-0.834409;,
         0.441033; 0.686201;-0.578462;,
         0.769043; 0.639178;-0.004912;,
        -0.961594; 0.273212; 0.026305;,
        -0.479736; 0.165093; 0.861741;,
        -0.212184; 0.794514; 0.568969;,
        -0.540186; 0.841533;-0.004581;,
         0.486115; 0.062779; 0.871637;,
         0.996543; 0.078075; 0.028388;,
         0.769043; 0.639178;-0.004912;,
         0.442427; 0.693339; 0.568806;,
         0.001214; 0.006223; 0.999980;,
         0.809830; 0.077302; 0.581549;,
         0.557713; 0.753682; 0.347735;,
         0.163384; 0.830878; 0.531928;,
         0.163384; 0.830878; 0.531928;,
         0.557713; 0.753682; 0.347735;,
         0.662491; 0.478360;-0.576436;,
         0.117624; 0.612085;-0.781995;,
         0.032263; 0.034703;-0.998877;,
         0.656862; 0.053029;-0.752143;,
         0.738688;-0.386248;-0.552406;,
        -0.053900;-0.609372;-0.791050;,
        -0.053900;-0.609372;-0.791050;,
         0.738688;-0.386248;-0.552406;,
         0.544867;-0.746194; 0.382511;,
        -0.051992;-0.849709; 0.524683;,
        -0.846955;-0.256725; 0.465574;,
        -0.632170;-0.114838;-0.766272;,
        -0.378909;-0.640529;-0.667945;,
        -0.428767;-0.805326; 0.409401;,
         0.656862; 0.053029;-0.752143;,
         0.809830; 0.077302; 0.581549;,
         0.544867;-0.746194; 0.382511;,
         0.738688;-0.386248;-0.552406;,
         0.662491; 0.478360;-0.576436;,
         0.557713; 0.753682; 0.347735;,
         0.809830; 0.077302; 0.581549;,
         0.656862; 0.053029;-0.752143;,
        -0.500446; 0.776412; 0.383063;,
        -0.601614; 0.499429;-0.623403;,
        -0.632170;-0.114838;-0.766272;,
        -0.846955;-0.256725; 0.465574;,
         0.117624; 0.612085;-0.781995;,
         0.662491; 0.478360;-0.576436;,
         0.656862; 0.053029;-0.752143;,
         0.032263; 0.034703;-0.998877;,
        -0.051992;-0.849709; 0.524683;,
         0.544867;-0.746194; 0.382511;,
         0.809830; 0.077302; 0.581549;,
         0.001214; 0.006223; 0.999980;,
        -0.428767;-0.805326; 0.409401;,
        -0.051992;-0.849709; 0.524683;,
         0.001214; 0.006223; 0.999980;,
        -0.846955;-0.256725; 0.465574;,
        -0.601614; 0.499429;-0.623403;,
         0.117624; 0.612085;-0.781995;,
         0.032263; 0.034703;-0.998877;,
        -0.632170;-0.114838;-0.766272;,
        -0.378909;-0.640529;-0.667945;,
        -0.053900;-0.609372;-0.791050;,
        -0.051992;-0.849709; 0.524683;,
        -0.428767;-0.805326; 0.409401;,
        -0.632170;-0.114838;-0.766272;,
         0.032263; 0.034703;-0.998877;,
        -0.053900;-0.609372;-0.791050;,
        -0.378909;-0.640529;-0.667945;,
        -0.500446; 0.776412; 0.383063;,
         0.163384; 0.830878; 0.531928;,
         0.117624; 0.612085;-0.781995;,
        -0.601614; 0.499429;-0.623403;,
        -0.846955;-0.256725; 0.465574;,
         0.001214; 0.006223; 0.999980;,
         0.163384; 0.830878; 0.531928;,
        -0.500446; 0.776412; 0.383063;,
         0.163384; 0.830878; 0.531928;,
         0.119513; 0.621767; 0.774030;,
         0.663881; 0.485486; 0.568828;,
         0.557713; 0.753682; 0.347735;,
         0.034687; 0.047130; 0.998286;,
        -0.051970;-0.599480; 0.798701;,
         0.740032;-0.379355; 0.555376;,
         0.658685; 0.062375; 0.749829;,
        -0.051970;-0.599480; 0.798701;,
        -0.051992;-0.849709; 0.524683;,
         0.544867;-0.746194; 0.382511;,
         0.740032;-0.379355; 0.555376;,
        -0.846955;-0.256725; 0.465574;,
        -0.428767;-0.805326; 0.409401;,
        -0.377277;-0.632161; 0.676782;,
        -0.630307;-0.105283; 0.769174;,
         0.658685; 0.062375; 0.749829;,
         0.740032;-0.379355; 0.555376;,
         0.544867;-0.746194; 0.382511;,
         0.809830; 0.077302; 0.581549;,
         0.663881; 0.485486; 0.568828;,
         0.658685; 0.062375; 0.749829;,
         0.809830; 0.077302; 0.581549;,
         0.557713; 0.753682; 0.347735;,
        -0.500446; 0.776412; 0.383063;,
        -0.846955;-0.256725; 0.465574;,
        -0.630307;-0.105283; 0.769174;,
        -0.600106; 0.507158; 0.618598;,
         0.119513; 0.621767; 0.774030;,
         0.034687; 0.047130; 0.998286;,
         0.658685; 0.062375; 0.749829;,
         0.663881; 0.485486; 0.568828;,
        -0.600106; 0.507158; 0.618598;,
        -0.630307;-0.105283; 0.769174;,
         0.034687; 0.047130; 0.998286;,
         0.119513; 0.621767; 0.774030;,
        -0.377277;-0.632161; 0.676782;,
        -0.428767;-0.805326; 0.409401;,
        -0.051992;-0.849709; 0.524683;,
        -0.051970;-0.599480; 0.798701;,
        -0.630307;-0.105283; 0.769174;,
        -0.377277;-0.632161; 0.676782;,
        -0.051970;-0.599480; 0.798701;,
         0.034687; 0.047130; 0.998286;,
        -0.500446; 0.776412; 0.383063;,
        -0.600106; 0.507158; 0.618598;,
         0.119513; 0.621767; 0.774030;,
         0.163384; 0.830878; 0.531928;,
         0.332287;-0.943029; 0.016793;,
         0.912184; 0.000090; 0.409781;,
        -0.052237; 0.253816; 0.965841;,
        -0.607136;-0.617698; 0.499835;,
        -0.950591;-0.281126; 0.131698;,
        -0.256732; 0.725858; 0.638138;,
        -0.422703; 0.898798;-0.116122;,
        -0.900043;-0.070169;-0.430116;,
        -0.900043;-0.070169;-0.430116;,
        -0.422703; 0.898798;-0.116122;,
         0.570238; 0.588148;-0.573507;,
         0.116441;-0.448535;-0.886148;,
         0.298956;-0.724801;-0.620717;,
         0.904065; 0.420019; 0.079061;,
         0.912184; 0.000090; 0.409781;,
         0.332287;-0.943029; 0.016793;,
        -0.950591;-0.281126; 0.131698;,
        -0.900043;-0.070169;-0.430116;,
         0.116441;-0.448535;-0.886148;,
         0.298956;-0.724801;-0.620717;,
        -0.256732; 0.725858; 0.638138;,
        -0.052237; 0.253816; 0.965841;,
         0.912184; 0.000090; 0.409781;,
         0.904065; 0.420019; 0.079061;,
        -0.422703; 0.898798;-0.116122;,
        -0.256732; 0.725858; 0.638138;,
         0.904065; 0.420019; 0.079061;,
         0.570238; 0.588148;-0.573507;,
        -0.607136;-0.617698; 0.499835;,
        -0.950591;-0.281126; 0.131698;,
         0.298956;-0.724801;-0.620717;,
         0.332287;-0.943029; 0.016793;,
         0.116441;-0.448535;-0.886148;,
         0.570238; 0.588148;-0.573507;,
         0.904065; 0.420019; 0.079061;,
         0.298956;-0.724801;-0.620717;,
        -0.607136;-0.617698; 0.499835;,
        -0.052237; 0.253816; 0.965841;,
        -0.256732; 0.725858; 0.638138;,
        -0.950591;-0.281126; 0.131698;,
         0.041081;-0.435527; 0.899238;,
         0.525432; 0.576400; 0.625847;,
        -0.442755; 0.892885; 0.081996;,
        -0.927111;-0.119040; 0.355379;,
        -0.856132;-0.479793;-0.191930;,
        -0.352594; 0.838490;-0.415465;,
        -0.052439; 0.518288;-0.853597;,
        -0.516712;-0.515916;-0.683256;,
        -0.516712;-0.515916;-0.683256;,
        -0.052439; 0.518288;-0.853597;,
         0.914176; 0.204367;-0.350023;,
         0.484161;-0.859260;-0.165106;,
         0.312719;-0.855510; 0.412686;,
         0.888286; 0.401515; 0.223009;,
         0.525432; 0.576400; 0.625847;,
         0.041081;-0.435527; 0.899238;,
        -0.856132;-0.479793;-0.191930;,
        -0.516712;-0.515916;-0.683256;,
         0.484161;-0.859260;-0.165106;,
         0.312719;-0.855510; 0.412686;,
        -0.352594; 0.838490;-0.415465;,
        -0.442755; 0.892885; 0.081996;,
         0.525432; 0.576400; 0.625847;,
         0.888286; 0.401515; 0.223009;,
        -0.052439; 0.518288;-0.853597;,
        -0.352594; 0.838490;-0.415465;,
         0.888286; 0.401515; 0.223009;,
         0.914176; 0.204367;-0.350023;,
        -0.927111;-0.119040; 0.355379;,
        -0.856132;-0.479793;-0.191930;,
         0.312719;-0.855510; 0.412686;,
         0.041081;-0.435527; 0.899238;,
         0.484161;-0.859260;-0.165106;,
         0.914176; 0.204367;-0.350023;,
         0.888286; 0.401515; 0.223009;,
         0.312719;-0.855510; 0.412686;,
        -0.927111;-0.119040; 0.355379;,
        -0.442755; 0.892885; 0.081996;,
        -0.352594; 0.838490;-0.415465;,
        -0.856132;-0.479793;-0.191930;,
         0.590062; 0.700574;-0.401277;,
         0.559021; 0.579000;-0.593510;,
         0.559021; 0.579000;-0.593510;,
         0.588231; 0.689349;-0.422826;,
         0.590062; 0.700574;-0.401277;,
         0.588231; 0.689349;-0.422826;,
         0.645854; 0.759371; 0.078917;,
         0.644387; 0.762266; 0.060956;,
         0.644387; 0.762266; 0.060956;,
         0.645854; 0.759371; 0.078917;,
         0.639601; 0.678401; 0.361500;,
         0.639601; 0.678401; 0.361500;;
        113;
        4;3,2,1,0;,
        4;7,6,5,4;,
        4;11,10,9,8;,
        4;15,14,13,12;,
        4;19,18,17,16;,
        4;23,22,21,20;,
        4;27,26,25,24;,
        4;31,30,29,28;,
        4;35,34,33,32;,
        4;39,38,37,36;,
        4;43,42,41,40;,
        4;47,46,45,44;,
        4;51,50,49,48;,
        4;55,54,53,52;,
        4;59,58,57,56;,
        4;63,62,61,60;,
        4;67,66,65,64;,
        4;71,70,69,68;,
        4;75,74,73,72;,
        4;79,78,77,76;,
        4;83,82,81,80;,
        4;87,86,85,84;,
        4;91,90,89,88;,
        4;95,94,93,92;,
        4;99,98,97,96;,
        4;103,102,101,100;,
        4;107,106,105,104;,
        4;111,110,109,108;,
        4;115,114,113,112;,
        4;119,118,117,116;,
        4;123,122,121,120;,
        4;127,126,125,124;,
        4;131,130,129,128;,
        4;135,134,133,132;,
        4;139,138,137,136;,
        4;143,142,141,140;,
        4;147,146,145,144;,
        4;151,150,149,148;,
        4;155,154,153,152;,
        4;159,158,157,156;,
        4;163,162,161,160;,
        4;167,166,165,164;,
        4;171,170,169,168;,
        4;175,174,173,172;,
        4;179,178,177,176;,
        4;183,182,181,180;,
        4;187,186,185,184;,
        4;191,190,189,188;,
        4;195,194,193,192;,
        4;199,198,197,196;,
        6;205,204,203,202,201,200;,
        4;209,208,207,206;,
        4;213,212,211,210;,
        4;217,216,215,214;,
        4;221,220,219,218;,
        4;225,224,223,222;,
        6;231,230,229,228,227,226;,
        4;235,234,233,232;,
        4;239,238,237,236;,
        4;243,242,241,240;,
        4;247,246,245,244;,
        4;251,250,249,248;,
        4;255,254,253,252;,
        4;259,258,257,256;,
        4;263,262,261,260;,
        4;267,266,265,264;,
        4;271,270,269,268;,
        4;275,274,273,272;,
        4;279,278,277,276;,
        4;283,282,281,280;,
        4;287,286,285,284;,
        4;291,290,289,288;,
        4;295,294,293,292;,
        4;299,298,297,296;,
        4;303,302,301,300;,
        4;307,306,305,304;,
        4;311,310,309,308;,
        4;315,314,313,312;,
        4;319,318,317,316;,
        4;323,322,321,320;,
        4;327,326,325,324;,
        4;331,330,329,328;,
        4;335,334,333,332;,
        4;339,338,337,336;,
        4;343,342,341,340;,
        4;347,346,345,344;,
        4;351,350,349,348;,
        4;355,354,353,352;,
        4;359,358,357,356;,
        4;363,362,361,360;,
        4;367,366,365,364;,
        4;371,370,369,368;,
        4;375,374,373,372;,
        4;379,378,377,376;,
        4;383,382,381,380;,
        4;387,386,385,384;,
        4;391,390,389,388;,
        4;395,394,393,392;,
        4;399,398,397,396;,
        4;403,402,401,400;,
        4;407,406,405,404;,
        4;411,410,409,408;,
        4;415,414,413,412;,
        4;419,418,417,416;,
        4;423,422,421,420;,
        4;427,426,425,424;,
        4;431,430,429,428;,
        4;435,434,433,432;,
        4;439,438,437,436;,
        4;443,442,441,440;,
        4;447,446,445,444;,
        4;451,450,449,448;,
        4;455,454,453,452;;
      }
      MeshTextureCoords {
        456;
         0.432664; 0.188367;,
         0.438936; 0.044979;,
         0.424088; 0.048857;,
         0.416733; 0.193837;,
         0.416733; 0.193837;,
         0.424088; 0.048857;,
         0.409673; 0.049268;,
         0.400261; 0.194315;,
         0.400261; 0.194315;,
         0.409673; 0.049268;,
         0.394679; 0.045436;,
         0.384628; 0.189134;,
         0.829593; 0.342217;,
         0.834585; 0.491215;,
         0.851304; 0.489957;,
         0.844886; 0.347439;,
         0.409673; 0.049268;,
         0.424088; 0.048857;,
         0.421419; 0.031546;,
         0.412260; 0.031465;,
         0.844886; 0.347439;,
         0.851304; 0.489957;,
         0.866493; 0.490676;,
         0.861390; 0.348194;,
         0.861390; 0.348194;,
         0.866493; 0.490676;,
         0.882918; 0.492682;,
         0.876841; 0.343649;,
         0.400261; 0.194315;,
         0.384628; 0.189134;,
         0.384682; 0.296471;,
         0.400379; 0.294863;,
         0.400379; 0.294863;,
         0.384682; 0.296471;,
         0.389043; 0.367782;,
         0.404536; 0.364445;,
         0.861390; 0.348194;,
         0.876841; 0.343649;,
         0.879449; 0.241119;,
         0.864673; 0.239366;,
         0.829593; 0.342217;,
         0.844886; 0.347439;,
         0.849264; 0.239131;,
         0.834498; 0.239972;,
         0.416733; 0.193837;,
         0.400261; 0.194315;,
         0.400379; 0.294863;,
         0.417567; 0.294515;,
         0.844886; 0.347439;,
         0.861390; 0.348194;,
         0.864673; 0.239366;,
         0.849264; 0.239131;,
         0.432664; 0.188367;,
         0.416733; 0.193837;,
         0.417567; 0.294515;,
         0.433648; 0.296416;,
         0.425912; 0.369166;,
         0.404536; 0.364445;,
         0.409696; 0.404784;,
         0.425485; 0.405517;,
         0.433648; 0.296416;,
         0.417567; 0.294515;,
         0.425912; 0.369166;,
         0.431186; 0.366520;,
         0.864673; 0.239366;,
         0.879449; 0.241119;,
         0.881765; 0.168140;,
         0.865393; 0.165920;,
         0.834498; 0.239972;,
         0.849264; 0.239131;,
         0.849163; 0.166367;,
         0.832761; 0.168769;,
         0.417567; 0.294515;,
         0.400379; 0.294863;,
         0.404536; 0.364445;,
         0.425912; 0.369166;,
         0.849264; 0.239131;,
         0.864673; 0.239366;,
         0.865393; 0.165920;,
         0.849163; 0.166367;,
         0.987434; 0.607271;,
         0.973423; 0.606398;,
         0.971377; 0.634813;,
         0.985959; 0.640118;,
         0.849163; 0.166367;,
         0.865393; 0.165920;,
         0.866070; 0.108055;,
         0.848101; 0.109212;,
         0.404536; 0.364445;,
         0.389043; 0.367782;,
         0.396622; 0.412645;,
         0.409696; 0.404784;,
         0.431186; 0.366520;,
         0.425912; 0.369166;,
         0.425485; 0.405517;,
         0.438936; 0.408738;,
         0.865393; 0.165920;,
         0.881765; 0.168140;,
         0.882918; 0.114288;,
         0.866070; 0.108055;,
         0.832761; 0.168769;,
         0.849163; 0.166367;,
         0.848101; 0.109212;,
         0.831900; 0.116815;,
         0.901312; 0.471804;,
         0.916991; 0.469635;,
         0.916247; 0.372489;,
         0.901175; 0.374684;,
         0.919793; 0.511434;,
         0.936412; 0.509456;,
         0.932518; 0.471988;,
         0.916991; 0.469635;,
         0.885904; 0.512393;,
         0.902608; 0.512335;,
         0.901312; 0.471804;,
         0.886384; 0.476778;,
         0.973423; 0.606398;,
         0.959247; 0.604942;,
         0.955566; 0.632361;,
         0.971377; 0.634813;,
         0.902608; 0.512335;,
         0.919793; 0.511434;,
         0.916991; 0.469635;,
         0.901312; 0.471804;,
         0.959247; 0.604942;,
         0.945068; 0.603413;,
         0.940320; 0.634331;,
         0.955566; 0.632361;,
         0.916247; 0.372489;,
         0.931418; 0.368882;,
         0.933918; 0.259108;,
         0.917240; 0.257783;,
         0.955566; 0.632361;,
         0.940320; 0.634331;,
         0.935274; 0.741483;,
         0.951668; 0.746377;,
         0.985959; 0.640118;,
         0.971377; 0.634813;,
         0.968906; 0.749307;,
         0.985940; 0.747941;,
         0.916991; 0.469635;,
         0.932518; 0.471988;,
         0.931418; 0.368882;,
         0.916247; 0.372489;,
         0.886384; 0.476778;,
         0.901312; 0.471804;,
         0.901175; 0.374684;,
         0.885459; 0.373493;,
         0.971377; 0.634813;,
         0.955566; 0.632361;,
         0.951668; 0.746377;,
         0.968906; 0.749307;,
         0.899897; 0.257289;,
         0.917240; 0.257783;,
         0.920367; 0.124850;,
         0.905191; 0.124787;,
         0.885459; 0.373493;,
         0.901175; 0.374684;,
         0.899897; 0.257289;,
         0.883717; 0.257728;,
         0.968906; 0.749307;,
         0.951668; 0.746377;,
         0.954874; 0.859731;,
         0.970850; 0.859269;,
         0.901175; 0.374684;,
         0.916247; 0.372489;,
         0.917240; 0.257783;,
         0.899897; 0.257289;,
         0.951668; 0.746377;,
         0.935274; 0.741483;,
         0.938949; 0.861069;,
         0.954874; 0.859731;,
         0.985940; 0.747941;,
         0.968906; 0.749307;,
         0.970850; 0.859269;,
         0.986064; 0.859799;,
         0.920367; 0.124850;,
         0.936412; 0.122267;,
         0.929102; 0.108544;,
         0.919428; 0.111163;,
         0.954874; 0.859731;,
         0.938949; 0.861069;,
         0.944999; 0.986597;,
         0.959328; 0.982103;,
         0.986064; 0.859799;,
         0.970850; 0.859269;,
         0.972829; 0.981900;,
         0.987434; 0.985012;,
         0.917240; 0.257783;,
         0.933918; 0.259108;,
         0.936412; 0.122267;,
         0.920367; 0.124850;,
         0.883717; 0.257728;,
         0.899897; 0.257289;,
         0.905191; 0.124787;,
         0.888830; 0.120922;,
         0.970850; 0.859269;,
         0.954874; 0.859731;,
         0.959328; 0.982103;,
         0.972829; 0.981900;,
         0.472176; 0.511738;,
         0.479889; 0.507285;,
         0.479889; 0.498379;,
         0.472176; 0.493926;,
         0.464463; 0.498379;,
         0.464463; 0.507285;,
         0.888830; 0.120922;,
         0.905191; 0.124787;,
         0.909214; 0.110523;,
         0.899378; 0.106744;,
         0.972829; 0.981900;,
         0.959328; 0.982103;,
         0.962805; 0.996122;,
         0.972445; 0.995368;,
         0.905191; 0.124787;,
         0.920367; 0.124850;,
         0.919428; 0.111163;,
         0.909214; 0.110523;,
         0.959328; 0.982103;,
         0.944999; 0.986597;,
         0.953952; 0.999601;,
         0.962805; 0.996122;,
         0.987434; 0.985012;,
         0.972829; 0.981900;,
         0.972445; 0.995368;,
         0.981437; 0.997924;,
         0.472032; 0.530682;,
         0.479889; 0.526146;,
         0.479889; 0.517073;,
         0.472032; 0.512537;,
         0.464175; 0.517073;,
         0.464175; 0.526146;,
         0.866493; 0.490676;,
         0.851304; 0.489957;,
         0.853293; 0.509851;,
         0.864143; 0.509670;,
         0.424088; 0.048857;,
         0.438936; 0.044979;,
         0.430040; 0.028751;,
         0.421419; 0.031546;,
         0.394679; 0.045436;,
         0.409673; 0.049268;,
         0.412260; 0.031465;,
         0.403465; 0.028606;,
         0.882918; 0.492682;,
         0.866493; 0.490676;,
         0.864143; 0.509670;,
         0.874259; 0.512063;,
         0.851304; 0.489957;,
         0.834585; 0.491215;,
         0.842594; 0.512393;,
         0.853293; 0.509851;,
         0.593720; 0.792814;,
         0.544136; 0.773211;,
         0.464175; 0.909433;,
         0.565326; 0.920307;,
         0.369096; 0.943563;,
         0.463376; 0.927256;,
         0.440003; 0.785118;,
         0.339380; 0.810462;,
         0.336598; 0.709492;,
         0.439555; 0.672798;,
         0.463375; 0.554798;,
         0.348216; 0.582043;,
         0.348216; 0.582043;,
         0.463375; 0.554798;,
         0.427985; 0.413444;,
         0.323294; 0.444906;,
         0.167016; 0.197726;,
         0.000399; 0.200945;,
         0.035911; 0.364466;,
         0.170111; 0.412645;,
         0.657137; 0.788018;,
         0.828795; 0.845433;,
         0.828795; 0.601158;,
         0.690055; 0.666513;,
         0.677713; 0.903555;,
         0.794406; 0.999601;,
         0.828795; 0.845433;,
         0.657137; 0.788018;,
         0.170111; 0.019094;,
         0.036213; 0.089187;,
         0.000399; 0.200945;,
         0.167016; 0.197726;,
         0.339380; 0.810462;,
         0.440003; 0.785118;,
         0.439555; 0.672798;,
         0.336598; 0.709492;,
         0.605977; 0.595309;,
         0.508964; 0.531481;,
         0.544136; 0.773211;,
         0.593720; 0.792814;,
         0.656338; 0.606502;,
         0.605977; 0.595309;,
         0.593720; 0.792814;,
         0.646442; 0.821215;,
         0.232287; 0.855914;,
         0.339380; 0.810462;,
         0.336598; 0.709492;,
         0.235223; 0.743694;,
         0.292172; 0.588095;,
         0.348216; 0.582043;,
         0.323294; 0.444906;,
         0.272149; 0.447915;,
         0.235223; 0.743694;,
         0.336598; 0.709492;,
         0.348216; 0.582043;,
         0.292172; 0.588095;,
         0.265496; 0.999601;,
         0.369096; 0.943563;,
         0.339380; 0.810462;,
         0.232287; 0.855914;,
         0.646442; 0.821215;,
         0.593720; 0.792814;,
         0.565326; 0.920307;,
         0.656338; 0.999601;,
         0.137209; 0.469482;,
         0.107492; 0.602583;,
         0.208115; 0.627926;,
         0.231488; 0.485789;,
         0.104711; 0.703553;,
         0.116328; 0.831001;,
         0.231488; 0.858246;,
         0.207667; 0.740247;,
         0.116328; 0.831001;,
         0.091407; 0.968139;,
         0.196098; 0.999601;,
         0.231488; 0.858246;,
         0.653243; 0.352050;,
         0.656338; 0.137131;,
         0.522138; 0.185310;,
         0.486626; 0.348832;,
         0.657137; 0.413500;,
         0.690054; 0.535004;,
         0.828794; 0.600359;,
         0.828794; 0.356084;,
         0.677713; 0.297962;,
         0.657137; 0.413500;,
         0.828794; 0.356084;,
         0.794406; 0.201917;,
         0.656338; 0.530682;,
         0.653243; 0.352050;,
         0.486626; 0.348832;,
         0.522440; 0.460589;,
         0.107492; 0.602583;,
         0.104711; 0.703553;,
         0.207667; 0.740247;,
         0.208115; 0.627926;,
         0.000399; 0.557131;,
         0.003336; 0.669351;,
         0.104711; 0.703553;,
         0.107492; 0.602583;,
         0.060284; 0.824950;,
         0.040261; 0.965130;,
         0.091407; 0.968139;,
         0.116328; 0.831001;,
         0.003336; 0.669351;,
         0.060284; 0.824950;,
         0.116328; 0.831001;,
         0.104711; 0.703553;,
         0.033609; 0.413444;,
         0.000399; 0.557131;,
         0.107492; 0.602583;,
         0.137209; 0.469482;,
         0.800439; 0.173127;,
         0.800439; 0.144462;,
         0.714746; 0.150350;,
         0.713569; 0.166975;,
         0.458832; 0.285761;,
         0.439735; 0.288607;,
         0.458219; 0.412645;,
         0.477317; 0.409799;,
         0.814459; 0.201117;,
         0.814459; 0.181809;,
         0.714937; 0.173926;,
         0.713569; 0.201118;,
         0.967010; 0.402600;,
         0.937211; 0.393140;,
         0.958870; 0.503318;,
         0.986060; 0.512393;,
         0.170910; 0.287405;,
         0.177394; 0.412645;,
         0.278149; 0.407429;,
         0.271665; 0.282189;,
         0.829593; 0.638531;,
         0.847725; 0.751702;,
         0.933584; 0.749207;,
         0.929153; 0.637007;,
         0.833751; 0.513192;,
         0.829593; 0.638531;,
         0.929153; 0.637007;,
         0.933584; 0.513218;,
         0.191177; 0.175447;,
         0.170910; 0.287405;,
         0.271665; 0.282189;,
         0.278149; 0.170944;,
         0.986060; 0.278647;,
         0.959829; 0.271354;,
         0.937211; 0.393140;,
         0.967010; 0.402600;,
         0.477317; 0.173495;,
         0.460832; 0.175952;,
         0.439735; 0.288607;,
         0.458832; 0.285761;,
         0.170910; 0.150837;,
         0.170910; 0.170145;,
         0.271800; 0.170145;,
         0.271800; 0.150837;,
         0.937211; 0.111681;,
         0.956468; 0.110283;,
         0.968006; 0.025662;,
         0.948749; 0.027061;,
         0.383829; 0.164747;,
         0.383829; 0.145439;,
         0.282940; 0.145439;,
         0.282940; 0.164747;,
         0.968805; 0.184536;,
         0.988063; 0.185934;,
         0.999601; 0.027060;,
         0.980343; 0.025662;,
         0.379805; 0.250854;,
         0.383829; 0.165546;,
         0.282972; 0.168095;,
         0.278948; 0.253403;,
         0.930451; 0.914292;,
         0.934475; 0.755050;,
         0.833617; 0.752501;,
         0.829593; 0.911743;,
         0.934475; 0.999601;,
         0.930451; 0.914292;,
         0.829593; 0.911743;,
         0.833618; 0.997052;,
         0.383829; 0.410097;,
         0.379805; 0.250854;,
         0.278948; 0.253403;,
         0.282972; 0.412645;,
         0.980343; 0.269157;,
         0.999601; 0.270555;,
         0.988063; 0.185934;,
         0.968805; 0.184536;,
         0.948748; 0.270555;,
         0.968006; 0.269157;,
         0.956468; 0.110283;,
         0.937211; 0.111681;,
         0.705687; 0.101261;,
         0.712770; 0.056507;,
         0.688205; 0.034715;,
         0.665685; 0.089317;,
         0.705687; 0.101261;,
         0.665685; 0.089317;,
         0.657137; 0.161197;,
         0.698454; 0.155221;,
         0.698454; 0.155221;,
         0.657137; 0.161197;,
         0.671251; 0.201118;,
         0.712770; 0.196760;;
      }
      MeshMaterialList {
        1;
        113;
        0,
        0,
        0,
        0,
        0,
        0,
        0,
        0,
        0,
        0,
        0,
        0,
        0,
        0,
        0,
        0,
        0,
        0,
        0,
        0,
        0,
        0,
        0,
        0,
        0,
        0,
        0,
        0,
        0,
        0,
        0,
        0,
        0,
        0,
        0,
        0,
        0,
        0,
        0,
        0,
        0,
        0,
        0,
        0,
        0,
        0,
        0,
        0,
        0,
        0,
        0,
        0,
        0,
        0,
        0,
        0,
        0,
        0,
        0,
        0,
        0,
        0,
        0,
        0,
        0,
        0,
        0,
        0,
        0,
        0,
        0,
        0,
        0,
        0,
        0,
        0,
        0,
        0,
        0,
        0,
        0,
        0,
        0,
        0,
        0,
        0,
        0,
        0,
        0,
        0,
        0,
        0,
        0,
        0,
        0,
        0,
        0,
        0,
        0,
        0,
        0,
        0,
        0,
        0,
        0,
        0,
        0,
        0,
        0,
        0,
        0,
        0,
        0;
        Material _16___Default {
           0.800000; 0.800000; 0.800000; 1.000000;;
           225.000000;
           0.500000; 0.500000; 0.500000;;
           0.000000; 0.000000; 0.000000;;
        }
      }
    }
  }
}
