xof 0303txt 0032

Frame Root {
  FrameTransformMatrix {
     1.000000, 0.000000, 0.000000, 0.000000,
     0.000000,-0.000000, 1.000000, 0.000000,
     0.000000, 1.000000, 0.000000, 0.000000,
     0.000000, 0.000000, 0.000000, 1.000000;;
  }
  Frame Cube_001 {
    FrameTransformMatrix {
       1.000000, 0.000000, 0.000000, 0.000000,
       0.000000, 1.000000, 0.000000, 0.000000,
       0.000000, 0.000000, 1.000000, 0.000000,
       0.000000, 0.000000, 0.000000, 1.000000;;
    }
    Mesh { // Cube_001 mesh
      320;
       0.018747; 0.065904; 0.009622;,
       0.047970; 0.065904; 0.009622;,
       0.047970; 0.062239; 0.059006;,
       0.018747; 0.062239; 0.059006;,
       0.018747; 0.062239; 0.059006;,
       0.047970; 0.062239; 0.059006;,
       0.047970; 0.071304; 0.059679;,
       0.018747; 0.071304; 0.059679;,
       0.018747; 0.071304; 0.059679;,
       0.047970; 0.071304; 0.059679;,
       0.047970; 0.074969; 0.010295;,
       0.018747; 0.074969; 0.010295;,
       0.018747; 0.074969; 0.010295;,
       0.047970; 0.074969; 0.010295;,
       0.047970; 0.065904; 0.009622;,
       0.018747; 0.065904; 0.009622;,
       0.018747; 0.062239; 0.059006;,
       0.018747; 0.071304; 0.059679;,
       0.018747; 0.074969; 0.010295;,
       0.018747; 0.065904; 0.009622;,
       0.047970; 0.062239; 0.059006;,
       0.047970; 0.065904; 0.009622;,
       0.055413; 0.066572; 0.015811;,
       0.055413; 0.063813; 0.052983;,
       0.055413; 0.070636; 0.053490;,
       0.055413; 0.063813; 0.052983;,
       0.055413; 0.066572; 0.015811;,
       0.055413; 0.073395; 0.016317;,
       0.047970; 0.065904; 0.009622;,
       0.047970; 0.074969; 0.010295;,
       0.055413; 0.073395; 0.016317;,
       0.055413; 0.066572; 0.015811;,
       0.047970; 0.071304; 0.059679;,
       0.047970; 0.062239; 0.059006;,
       0.055413; 0.063813; 0.052983;,
       0.055413; 0.070636; 0.053490;,
       0.047970; 0.074969; 0.010295;,
       0.047970; 0.071304; 0.059679;,
       0.055413; 0.070636; 0.053490;,
       0.055413; 0.073395; 0.016317;,
       0.005339; 0.061875;-0.003213;,
       0.080701; 0.061875;-0.003213;,
       0.080701; 0.057292; 0.061720;,
       0.005339; 0.057292; 0.061720;,
       0.005339; 0.063821; 0.064174;,
       0.005339; 0.057292; 0.061720;,
       0.015705; 0.040475; 0.082027;,
       0.015705; 0.042887; 0.087657;,
       0.005339; 0.063821; 0.064174;,
       0.080701; 0.063821; 0.064174;,
       0.080701; 0.068851;-0.003213;,
       0.005339; 0.068851;-0.003213;,
       0.005339; 0.068851;-0.003213;,
       0.080701; 0.068851;-0.003213;,
       0.080701; 0.061875;-0.003213;,
       0.005339; 0.061875;-0.003213;,
       0.005339; 0.057292; 0.061720;,
       0.005339; 0.063821; 0.064174;,
       0.005339; 0.068851;-0.003213;,
       0.005339; 0.061875;-0.003213;,
       0.080701; 0.063821; 0.064174;,
       0.080701; 0.057292; 0.061720;,
       0.080701; 0.061875;-0.003213;,
       0.080701; 0.068851;-0.003213;,
       0.015705; 0.042887; 0.087657;,
       0.015705; 0.040475; 0.082027;,
       0.015705;-0.002623; 0.087897;,
       0.015705;-0.004289; 0.093790;,
       0.080701; 0.057292; 0.061720;,
       0.080701; 0.063821; 0.064174;,
       0.081881; 0.042887; 0.087657;,
       0.081881; 0.040475; 0.082027;,
       0.005339; 0.057292; 0.061720;,
       0.080701; 0.057292; 0.061720;,
       0.081881; 0.040475; 0.082027;,
       0.015705; 0.040475; 0.082027;,
       0.080701; 0.063821; 0.064174;,
       0.005339; 0.063821; 0.064174;,
       0.015705; 0.042887; 0.087657;,
       0.081881; 0.042887; 0.087657;,
       0.081881;-0.002623; 0.087897;,
       0.081881;-0.004289; 0.093790;,
       0.081881;-0.049802; 0.089994;,
       0.081881;-0.048135; 0.084100;,
       0.081881; 0.040475; 0.082027;,
       0.081881; 0.042887; 0.087657;,
       0.081881;-0.004289; 0.093790;,
       0.081881;-0.002623; 0.087897;,
       0.015705; 0.040475; 0.082027;,
       0.081881; 0.040475; 0.082027;,
       0.081881;-0.002623; 0.087897;,
       0.015705;-0.002623; 0.087897;,
       0.081881; 0.042887; 0.087657;,
       0.015705; 0.042887; 0.087657;,
       0.015705;-0.004289; 0.093790;,
       0.081881;-0.004289; 0.093790;,
       0.081881;-0.049802; 0.089994;,
       0.015705;-0.049802; 0.089994;,
       0.015705;-0.084292; 0.043895;,
       0.081881;-0.084292; 0.043895;,
       0.015705;-0.002623; 0.087897;,
       0.081881;-0.002623; 0.087897;,
       0.081881;-0.048135; 0.084100;,
       0.015705;-0.048135; 0.084100;,
       0.081881;-0.004289; 0.093790;,
       0.015705;-0.004289; 0.093790;,
       0.015705;-0.049802; 0.089994;,
       0.081881;-0.049802; 0.089994;,
       0.015705;-0.004289; 0.093790;,
       0.015705;-0.002623; 0.087897;,
       0.015705;-0.048135; 0.084100;,
       0.015705;-0.049802; 0.089994;,
       0.081881;-0.078741; 0.041305;,
       0.081881;-0.084292; 0.043895;,
       0.081881;-0.089863;-0.003286;,
       0.081881;-0.084313;-0.002750;,
       0.015705;-0.049802; 0.089994;,
       0.015705;-0.048135; 0.084100;,
       0.015705;-0.078741; 0.041305;,
       0.015705;-0.084292; 0.043895;,
       0.081881;-0.048135; 0.084100;,
       0.081881;-0.049802; 0.089994;,
       0.081881;-0.084292; 0.043895;,
       0.081881;-0.078741; 0.041305;,
       0.015705;-0.048135; 0.084100;,
       0.081881;-0.048135; 0.084100;,
       0.081881;-0.078741; 0.041305;,
       0.015705;-0.078741; 0.041305;,
       0.015705;-0.084313;-0.002750;,
       0.081881;-0.084313;-0.002750;,
       0.081881;-0.089863;-0.003286;,
       0.015705;-0.089863;-0.003286;,
       0.015705;-0.078741; 0.041305;,
       0.081881;-0.078741; 0.041305;,
       0.081881;-0.084313;-0.002750;,
       0.015705;-0.084313;-0.002750;,
       0.081881;-0.084292; 0.043895;,
       0.015705;-0.084292; 0.043895;,
       0.015705;-0.089863;-0.003286;,
       0.081881;-0.089863;-0.003286;,
       0.015705;-0.084313;-0.002750;,
       0.015705;-0.089863;-0.003286;,
       0.011684;-0.088146; 0.001276;,
       0.011684;-0.083693; 0.001705;,
       0.005339; 0.061875;-0.001799;,
       0.005339; 0.057292;-0.066732;,
       0.080701; 0.057292;-0.066732;,
       0.080701; 0.061875;-0.001799;,
       0.005339; 0.063821;-0.069186;,
       0.015705; 0.042887;-0.092668;,
       0.015705; 0.040475;-0.087039;,
       0.005339; 0.057292;-0.066732;,
       0.005339; 0.063821;-0.069186;,
       0.005339; 0.068851;-0.001799;,
       0.080701; 0.068851;-0.001799;,
       0.080701; 0.063821;-0.069186;,
       0.005339; 0.068851;-0.001799;,
       0.005339; 0.061875;-0.001799;,
       0.080701; 0.061875;-0.001799;,
       0.080701; 0.068851;-0.001799;,
       0.005339; 0.057292;-0.066732;,
       0.005339; 0.061875;-0.001799;,
       0.005339; 0.068851;-0.001799;,
       0.005339; 0.063821;-0.069186;,
       0.080701; 0.063821;-0.069186;,
       0.080701; 0.068851;-0.001799;,
       0.080701; 0.061875;-0.001799;,
       0.080701; 0.057292;-0.066732;,
       0.015705; 0.042887;-0.092668;,
       0.015705;-0.004289;-0.098802;,
       0.015705;-0.002623;-0.092908;,
       0.015705; 0.040475;-0.087039;,
       0.080701; 0.057292;-0.066732;,
       0.081881; 0.040475;-0.087038;,
       0.081881; 0.042887;-0.092668;,
       0.080701; 0.063821;-0.069186;,
       0.005339; 0.057292;-0.066732;,
       0.015705; 0.040475;-0.087039;,
       0.081881; 0.040475;-0.087038;,
       0.080701; 0.057292;-0.066732;,
       0.080701; 0.063821;-0.069186;,
       0.081881; 0.042887;-0.092668;,
       0.015705; 0.042887;-0.092668;,
       0.005339; 0.063821;-0.069186;,
       0.081881;-0.002623;-0.092908;,
       0.081881;-0.048135;-0.089112;,
       0.081881;-0.049802;-0.095005;,
       0.081881;-0.004289;-0.098802;,
       0.081881; 0.040475;-0.087038;,
       0.081881;-0.002623;-0.092908;,
       0.081881;-0.004289;-0.098802;,
       0.081881; 0.042887;-0.092668;,
       0.015705; 0.040475;-0.087039;,
       0.015705;-0.002623;-0.092908;,
       0.081881;-0.002623;-0.092908;,
       0.081881; 0.040475;-0.087038;,
       0.081881; 0.042887;-0.092668;,
       0.081881;-0.004289;-0.098802;,
       0.015705;-0.004289;-0.098802;,
       0.015705; 0.042887;-0.092668;,
       0.081881;-0.049802;-0.095005;,
       0.081881;-0.084292;-0.048907;,
       0.015705;-0.084292;-0.048907;,
       0.015705;-0.049802;-0.095006;,
       0.015705;-0.002623;-0.092908;,
       0.015705;-0.048135;-0.089112;,
       0.081881;-0.048135;-0.089112;,
       0.081881;-0.002623;-0.092908;,
       0.081881;-0.004289;-0.098802;,
       0.081881;-0.049802;-0.095005;,
       0.015705;-0.049802;-0.095006;,
       0.015705;-0.004289;-0.098802;,
       0.015705;-0.004289;-0.098802;,
       0.015705;-0.049802;-0.095006;,
       0.015705;-0.048135;-0.089112;,
       0.015705;-0.002623;-0.092908;,
       0.081881;-0.078741;-0.046317;,
       0.081881;-0.084313;-0.002261;,
       0.081881;-0.089863;-0.001726;,
       0.081881;-0.084292;-0.048907;,
       0.015705;-0.049802;-0.095006;,
       0.015705;-0.084292;-0.048907;,
       0.015705;-0.078741;-0.046317;,
       0.015705;-0.048135;-0.089112;,
       0.081881;-0.048135;-0.089112;,
       0.081881;-0.078741;-0.046317;,
       0.081881;-0.084292;-0.048907;,
       0.081881;-0.049802;-0.095005;,
       0.015705;-0.048135;-0.089112;,
       0.015705;-0.078741;-0.046317;,
       0.081881;-0.078741;-0.046317;,
       0.081881;-0.048135;-0.089112;,
       0.015705;-0.084313;-0.002261;,
       0.015705;-0.089863;-0.001726;,
       0.081881;-0.089863;-0.001726;,
       0.081881;-0.084313;-0.002261;,
       0.015705;-0.078741;-0.046317;,
       0.015705;-0.084313;-0.002261;,
       0.081881;-0.084313;-0.002261;,
       0.081881;-0.078741;-0.046317;,
       0.081881;-0.084292;-0.048907;,
       0.081881;-0.089863;-0.001726;,
       0.015705;-0.089863;-0.001726;,
       0.015705;-0.084292;-0.048907;,
       0.015705;-0.084292;-0.048907;,
       0.015705;-0.089863;-0.001726;,
       0.015705;-0.084313;-0.002261;,
       0.015705;-0.078741;-0.046317;,
       0.011684;-0.083676; 0.039131;,
       0.011684;-0.079223; 0.037053;,
       0.011684;-0.083693; 0.001705;,
       0.011684;-0.088146; 0.001276;,
       0.015705;-0.078741; 0.041305;,
       0.015705;-0.084313;-0.002750;,
       0.011684;-0.083693; 0.001705;,
       0.011684;-0.079223; 0.037053;,
       0.015705;-0.084292; 0.043895;,
       0.015705;-0.078741; 0.041305;,
       0.011684;-0.079223; 0.037053;,
       0.011684;-0.083676; 0.039131;,
       0.015705;-0.089863;-0.003286;,
       0.015705;-0.084292; 0.043895;,
       0.011684;-0.083676; 0.039131;,
       0.011684;-0.088146; 0.001276;,
      -0.008783; 0.043146; 0.110774;,
      -0.008783; 0.043146; 0.088927;,
      -0.013404; 0.035937; 0.090579;,
      -0.013404; 0.035937; 0.109122;,
      -0.008783; 0.043146; 0.088927;,
      -0.008783; 0.043146; 0.110774;,
       0.088379; 0.043146; 0.101842;,
       0.088379; 0.043146; 0.079995;,
       0.088379; 0.043146; 0.101842;,
       0.088379;-0.052196; 0.101842;,
       0.094900;-0.044298; 0.098839;,
       0.094900; 0.035248; 0.098839;,
       0.088379;-0.052196; 0.079995;,
       0.088379;-0.052196; 0.101842;,
      -0.008783;-0.052196; 0.110774;,
      -0.008783;-0.052196; 0.088927;,
      -0.008783; 0.043146; 0.088927;,
       0.088379; 0.043146; 0.079995;,
       0.088379;-0.052196; 0.079995;,
      -0.008783;-0.052196; 0.088927;,
       0.088379; 0.043146; 0.101842;,
      -0.008783; 0.043146; 0.110774;,
      -0.008783;-0.052196; 0.110774;,
       0.088379;-0.052196; 0.101842;,
       0.094900; 0.035248; 0.081697;,
       0.094900; 0.035248; 0.098839;,
       0.094900;-0.044298; 0.098839;,
       0.094900;-0.044298; 0.081697;,
       0.088379; 0.043146; 0.079995;,
       0.088379; 0.043146; 0.101842;,
       0.094900; 0.035248; 0.098839;,
       0.094900; 0.035248; 0.081697;,
       0.088379;-0.052196; 0.101842;,
       0.088379;-0.052196; 0.079995;,
       0.094900;-0.044298; 0.081697;,
       0.094900;-0.044298; 0.098839;,
       0.088379;-0.052196; 0.079995;,
       0.088379; 0.043146; 0.079995;,
       0.094900; 0.035248; 0.081697;,
       0.094900;-0.044298; 0.081697;,
      -0.013404;-0.044986; 0.090579;,
      -0.013404;-0.044986; 0.109122;,
      -0.013404; 0.035937; 0.109122;,
      -0.013404; 0.035937; 0.090579;,
      -0.008783;-0.052196; 0.088927;,
      -0.008783;-0.052196; 0.110774;,
      -0.013404;-0.044986; 0.109122;,
      -0.013404;-0.044986; 0.090579;,
      -0.008783;-0.052196; 0.110774;,
      -0.008783; 0.043146; 0.110774;,
      -0.013404; 0.035937; 0.109122;,
      -0.013404;-0.044986; 0.109122;,
      -0.008783; 0.043146; 0.088927;,
      -0.008783;-0.052196; 0.088927;,
      -0.013404;-0.044986; 0.090579;,
      -0.013404; 0.035937; 0.090579;;
      80;
      4;3,2,1,0;,
      4;7,6,5,4;,
      4;11,10,9,8;,
      4;15,14,13,12;,
      4;19,18,17,16;,
      4;23,22,21,20;,
      4;27,26,25,24;,
      4;31,30,29,28;,
      4;35,34,33,32;,
      4;39,38,37,36;,
      4;43,42,41,40;,
      4;47,46,45,44;,
      4;51,50,49,48;,
      4;55,54,53,52;,
      4;59,58,57,56;,
      4;63,62,61,60;,
      4;67,66,65,64;,
      4;71,70,69,68;,
      4;75,74,73,72;,
      4;79,78,77,76;,
      4;83,82,81,80;,
      4;87,86,85,84;,
      4;91,90,89,88;,
      4;95,94,93,92;,
      4;99,98,97,96;,
      4;103,102,101,100;,
      4;107,106,105,104;,
      4;111,110,109,108;,
      4;115,114,113,112;,
      4;119,118,117,116;,
      4;123,122,121,120;,
      4;127,126,125,124;,
      4;131,130,129,128;,
      4;135,134,133,132;,
      4;139,138,137,136;,
      4;143,142,141,140;,
      4;147,146,145,144;,
      4;151,150,149,148;,
      4;155,154,153,152;,
      4;159,158,157,156;,
      4;163,162,161,160;,
      4;167,166,165,164;,
      4;171,170,169,168;,
      4;175,174,173,172;,
      4;179,178,177,176;,
      4;183,182,181,180;,
      4;187,186,185,184;,
      4;191,190,189,188;,
      4;195,194,193,192;,
      4;199,198,197,196;,
      4;203,202,201,200;,
      4;207,206,205,204;,
      4;211,210,209,208;,
      4;215,214,213,212;,
      4;219,218,217,216;,
      4;223,222,221,220;,
      4;227,226,225,224;,
      4;231,230,229,228;,
      4;235,234,233,232;,
      4;239,238,237,236;,
      4;243,242,241,240;,
      4;247,246,245,244;,
      4;251,250,249,248;,
      4;255,254,253,252;,
      4;259,258,257,256;,
      4;263,262,261,260;,
      4;267,266,265,264;,
      4;271,270,269,268;,
      4;275,274,273,272;,
      4;279,278,277,276;,
      4;283,282,281,280;,
      4;287,286,285,284;,
      4;291,290,289,288;,
      4;295,294,293,292;,
      4;299,298,297,296;,
      4;303,302,301,300;,
      4;307,306,305,304;,
      4;311,310,309,308;,
      4;315,314,313,312;,
      4;319,318,317,316;;
      MeshNormals { // Cube_001 normals
        278;
        -0.577349;-0.533036;-0.618488;,
         0.278695;-0.591571;-0.756523;,
         0.278695;-0.696768; 0.660909;,
        -0.577349;-0.618488; 0.533006;,
        -0.577349;-0.618488; 0.533006;,
         0.278695;-0.696768; 0.660909;,
         0.278695; 0.591571; 0.756523;,
        -0.577349; 0.533006; 0.618488;,
        -0.577349; 0.533006; 0.618488;,
         0.278695; 0.591571; 0.756523;,
         0.278695; 0.696768;-0.660909;,
        -0.577349; 0.618488;-0.533036;,
        -0.577349; 0.618488;-0.533036;,
         0.278695; 0.696768;-0.660909;,
         0.278695;-0.591571;-0.756523;,
        -0.577349;-0.533036;-0.618488;,
        -0.577349;-0.618488; 0.533006;,
        -0.577349; 0.533006; 0.618488;,
        -0.577349; 0.618488;-0.533036;,
        -0.577349;-0.533036;-0.618488;,
         0.278695;-0.696768; 0.660909;,
         0.278695;-0.591571;-0.756523;,
         0.755730;-0.539323;-0.371441;,
         0.755730;-0.588244; 0.287759;,
         0.755730; 0.539323; 0.371441;,
         0.755730;-0.588244; 0.287759;,
         0.755730;-0.539323;-0.371441;,
         0.755730; 0.588244;-0.287759;,
         0.278695;-0.591571;-0.756523;,
         0.278695; 0.696768;-0.660909;,
         0.755730; 0.588244;-0.287759;,
         0.755730;-0.539323;-0.371441;,
         0.278695; 0.591571; 0.756523;,
         0.278695;-0.696768; 0.660909;,
         0.755730;-0.588244; 0.287759;,
         0.755730; 0.539323; 0.371441;,
         0.278695; 0.696768;-0.660909;,
         0.278695; 0.591571; 0.756523;,
         0.755730; 0.539323; 0.371441;,
         0.755730; 0.588244;-0.287759;,
        -0.581133;-0.554796;-0.595355;,
         0.581133;-0.554796;-0.595325;,
         0.780908;-0.572893;-0.248848;,
        -0.776818;-0.623737;-0.086245;,
        -0.689993; 0.630238; 0.355876;,
        -0.776818;-0.623737;-0.086245;,
        -0.763726;-0.443098;-0.469405;,
        -0.575671; 0.326212; 0.749748;,
        -0.689993; 0.630238; 0.355876;,
         0.634846; 0.714621; 0.293710;,
         0.573534; 0.600391;-0.557268;,
        -0.573504; 0.600391;-0.557268;,
        -0.573504; 0.600391;-0.557268;,
         0.573534; 0.600391;-0.557268;,
         0.581133;-0.554796;-0.595325;,
        -0.581133;-0.554796;-0.595355;,
        -0.776818;-0.623737;-0.086245;,
        -0.689993; 0.630238; 0.355876;,
        -0.573504; 0.600391;-0.557268;,
        -0.581133;-0.554796;-0.595355;,
         0.634846; 0.714621; 0.293710;,
         0.780908;-0.572893;-0.248848;,
         0.581133;-0.554796;-0.595325;,
         0.573534; 0.600391;-0.557268;,
        -0.575671; 0.326212; 0.749748;,
        -0.763726;-0.443098;-0.469405;,
        -0.732475;-0.017731;-0.680532;,
        -0.683981; 0.016785; 0.729270;,
         0.780908;-0.572893;-0.248848;,
         0.634846; 0.714621; 0.293710;,
         0.642781; 0.364879; 0.673544;,
         0.799860;-0.274239;-0.533830;,
        -0.776818;-0.623737;-0.086245;,
         0.780908;-0.572893;-0.248848;,
         0.799860;-0.274239;-0.533830;,
        -0.763726;-0.443098;-0.469405;,
         0.634846; 0.714621; 0.293710;,
        -0.689993; 0.630238; 0.355876;,
        -0.575671; 0.326212; 0.749748;,
         0.642781; 0.364879; 0.673544;,
         0.732475;-0.017731;-0.680532;,
         0.683981; 0.016785; 0.729270;,
         0.625385;-0.378094; 0.682577;,
         0.814875; 0.286264;-0.503983;,
         0.799860;-0.274239;-0.533830;,
         0.642781; 0.364879; 0.673544;,
         0.683981; 0.016785; 0.729270;,
         0.732475;-0.017731;-0.680532;,
        -0.763726;-0.443098;-0.469405;,
         0.799860;-0.274239;-0.533830;,
         0.732475;-0.017731;-0.680532;,
        -0.732475;-0.017731;-0.680532;,
         0.642781; 0.364879; 0.673544;,
        -0.575671; 0.326212; 0.749748;,
        -0.683981; 0.016785; 0.729270;,
         0.683981; 0.016785; 0.729270;,
         0.625385;-0.378094; 0.682577;,
        -0.625385;-0.378094; 0.682577;,
        -0.539689;-0.718345; 0.438948;,
         0.653096;-0.703238; 0.280831;,
        -0.732475;-0.017731;-0.680532;,
         0.732475;-0.017731;-0.680532;,
         0.814875; 0.286264;-0.503983;,
        -0.814875; 0.286264;-0.503983;,
         0.683981; 0.016785; 0.729270;,
        -0.683981; 0.016785; 0.729270;,
        -0.625385;-0.378094; 0.682577;,
         0.625385;-0.378094; 0.682577;,
        -0.683981; 0.016785; 0.729270;,
        -0.732475;-0.017731;-0.680532;,
        -0.814875; 0.286264;-0.503983;,
        -0.625385;-0.378094; 0.682577;,
         0.766625; 0.597858;-0.234169;,
         0.653096;-0.703238; 0.280831;,
         0.566912;-0.588672;-0.576220;,
         0.589923; 0.562426;-0.579333;,
        -0.625385;-0.378094; 0.682577;,
        -0.814875; 0.286264;-0.503983;,
        -0.591845; 0.805963;-0.010590;,
        -0.539689;-0.718345; 0.438948;,
         0.814875; 0.286264;-0.503983;,
         0.625385;-0.378094; 0.682577;,
         0.653096;-0.703238; 0.280831;,
         0.766625; 0.597858;-0.234169;,
        -0.814875; 0.286264;-0.503983;,
         0.814875; 0.286264;-0.503983;,
         0.766625; 0.597858;-0.234169;,
        -0.591845; 0.805963;-0.010590;,
        -0.306681; 0.612659;-0.728385;,
         0.589923; 0.562426;-0.579333;,
         0.566912;-0.588672;-0.576220;,
        -0.352519;-0.645253;-0.677755;,
        -0.591845; 0.805963;-0.010590;,
         0.766625; 0.597858;-0.234169;,
         0.589923; 0.562426;-0.579333;,
        -0.306681; 0.612659;-0.728385;,
         0.653096;-0.703238; 0.280831;,
        -0.539689;-0.718345; 0.438948;,
        -0.352519;-0.645253;-0.677755;,
         0.566912;-0.588672;-0.576220;,
        -0.306681; 0.612659;-0.728385;,
        -0.352519;-0.645253;-0.677755;,
        -0.819697;-0.518845;-0.242561;,
        -0.708396; 0.631123;-0.315928;,
        -0.581133;-0.554796; 0.595325;,
        -0.776818;-0.623768; 0.086245;,
         0.780908;-0.572893; 0.248848;,
         0.581133;-0.554796; 0.595355;,
        -0.689993; 0.630238;-0.355907;,
        -0.575671; 0.326212;-0.749748;,
        -0.763726;-0.443098; 0.469405;,
        -0.776818;-0.623768; 0.086245;,
        -0.689993; 0.630238;-0.355907;,
        -0.573534; 0.600391; 0.557268;,
         0.573504; 0.600391; 0.557268;,
         0.634846; 0.714621;-0.293710;,
        -0.573534; 0.600391; 0.557268;,
        -0.581133;-0.554796; 0.595325;,
         0.581133;-0.554796; 0.595355;,
         0.573504; 0.600391; 0.557268;,
        -0.776818;-0.623768; 0.086245;,
        -0.581133;-0.554796; 0.595325;,
        -0.573534; 0.600391; 0.557268;,
        -0.689993; 0.630238;-0.355907;,
         0.634846; 0.714621;-0.293710;,
         0.573504; 0.600391; 0.557268;,
         0.581133;-0.554796; 0.595355;,
         0.780908;-0.572893; 0.248848;,
        -0.575671; 0.326212;-0.749748;,
        -0.683981; 0.016785;-0.729270;,
        -0.732475;-0.017731; 0.680532;,
        -0.763726;-0.443098; 0.469405;,
         0.780908;-0.572893; 0.248848;,
         0.799860;-0.274239; 0.533830;,
         0.642781; 0.364879;-0.673544;,
         0.634846; 0.714621;-0.293710;,
        -0.776818;-0.623768; 0.086245;,
        -0.763726;-0.443098; 0.469405;,
         0.799860;-0.274239; 0.533830;,
         0.780908;-0.572893; 0.248848;,
         0.634846; 0.714621;-0.293710;,
         0.642781; 0.364879;-0.673544;,
        -0.575671; 0.326212;-0.749748;,
        -0.689993; 0.630238;-0.355907;,
         0.732475;-0.017731; 0.680532;,
         0.814875; 0.286264; 0.503983;,
         0.625385;-0.378094;-0.682577;,
         0.683981; 0.016785;-0.729270;,
         0.799860;-0.274239; 0.533830;,
         0.732475;-0.017731; 0.680532;,
         0.683981; 0.016785;-0.729270;,
         0.642781; 0.364879;-0.673544;,
        -0.763726;-0.443098; 0.469405;,
        -0.732475;-0.017731; 0.680532;,
         0.732475;-0.017731; 0.680532;,
         0.799860;-0.274239; 0.533830;,
         0.642781; 0.364879;-0.673544;,
         0.683981; 0.016785;-0.729270;,
        -0.683981; 0.016785;-0.729270;,
        -0.575671; 0.326212;-0.749748;,
         0.625385;-0.378094;-0.682577;,
         0.653096;-0.703238;-0.280831;,
        -0.653096;-0.703238;-0.280831;,
        -0.625385;-0.378094;-0.682577;,
        -0.732475;-0.017731; 0.680532;,
        -0.814875; 0.286264; 0.503983;,
         0.814875; 0.286264; 0.503983;,
         0.732475;-0.017731; 0.680532;,
         0.683981; 0.016785;-0.729270;,
         0.625385;-0.378094;-0.682577;,
        -0.625385;-0.378094;-0.682577;,
        -0.683981; 0.016785;-0.729270;,
        -0.683981; 0.016785;-0.729270;,
        -0.625385;-0.378094;-0.682577;,
        -0.814875; 0.286264; 0.503983;,
        -0.732475;-0.017731; 0.680532;,
         0.766625; 0.597858; 0.234169;,
         0.589923; 0.562426; 0.579333;,
         0.566912;-0.588672; 0.576220;,
         0.653096;-0.703238;-0.280831;,
        -0.625385;-0.378094;-0.682577;,
        -0.653096;-0.703238;-0.280831;,
        -0.766625; 0.597858; 0.234169;,
        -0.814875; 0.286264; 0.503983;,
         0.814875; 0.286264; 0.503983;,
         0.766625; 0.597858; 0.234169;,
         0.653096;-0.703238;-0.280831;,
         0.625385;-0.378094;-0.682577;,
        -0.814875; 0.286264; 0.503983;,
        -0.766625; 0.597858; 0.234169;,
         0.766625; 0.597858; 0.234169;,
         0.814875; 0.286264; 0.503983;,
        -0.589923; 0.562426; 0.579333;,
        -0.566912;-0.588672; 0.576220;,
         0.566912;-0.588672; 0.576220;,
         0.589923; 0.562426; 0.579333;,
        -0.766625; 0.597858; 0.234169;,
        -0.589923; 0.562426; 0.579333;,
         0.589923; 0.562426; 0.579333;,
         0.766625; 0.597858; 0.234169;,
         0.653096;-0.703238;-0.280831;,
         0.566912;-0.588672; 0.576220;,
        -0.566912;-0.588672; 0.576220;,
        -0.653096;-0.703238;-0.280831;,
        -0.653096;-0.703238;-0.280831;,
        -0.566912;-0.588672; 0.576220;,
        -0.589923; 0.562426; 0.579333;,
        -0.766625; 0.597858; 0.234169;,
        -0.823817;-0.420118; 0.380474;,
        -0.704215; 0.696188; 0.139195;,
        -0.708396; 0.631123;-0.315928;,
        -0.819697;-0.518845;-0.242561;,
        -0.591845; 0.805963;-0.010590;,
        -0.306681; 0.612659;-0.728385;,
        -0.708396; 0.631123;-0.315928;,
        -0.704215; 0.696188; 0.139195;,
        -0.539689;-0.718345; 0.438948;,
        -0.591845; 0.805963;-0.010590;,
        -0.704215; 0.696188; 0.139195;,
        -0.823817;-0.420118; 0.380474;,
        -0.352519;-0.645253;-0.677755;,
        -0.539689;-0.718345; 0.438948;,
        -0.823817;-0.420118; 0.380474;,
        -0.819697;-0.518845;-0.242561;,
        -0.841926; 0.539593; 0.000000;,
         0.000000; 1.000000; 0.000000;,
         0.418219; 0.000000; 0.908346;,
         0.000000;-1.000000; 0.000000;,
        -0.091545; 0.000000;-0.995801;,
         0.091545; 0.000000; 0.995801;,
         1.000000;-0.000000; 0.000000;,
         0.771139; 0.636667; 0.000000;,
         0.771139;-0.636667; 0.000000;,
         0.252565; 0.000000;-0.967580;,
        -1.000000;-0.000000; 0.000000;,
        -0.841926;-0.539593; 0.000000;,
        -0.336665; 0.000000; 0.941624;,
        -0.336665; 0.000000;-0.941624;;
        80;
        4;3,2,1,0;,
        4;7,6,5,4;,
        4;11,10,9,8;,
        4;15,14,13,12;,
        4;19,18,17,16;,
        4;23,22,21,20;,
        4;27,26,25,24;,
        4;31,30,29,28;,
        4;35,34,33,32;,
        4;39,38,37,36;,
        4;43,42,41,40;,
        4;47,46,45,44;,
        4;51,50,49,48;,
        4;55,54,53,52;,
        4;59,58,57,56;,
        4;63,62,61,60;,
        4;67,66,65,64;,
        4;71,70,69,68;,
        4;75,74,73,72;,
        4;79,78,77,76;,
        4;83,82,81,80;,
        4;87,86,85,84;,
        4;91,90,89,88;,
        4;95,94,93,92;,
        4;99,98,97,96;,
        4;103,102,101,100;,
        4;107,106,105,104;,
        4;111,110,109,108;,
        4;115,114,113,112;,
        4;119,118,117,116;,
        4;123,122,121,120;,
        4;127,126,125,124;,
        4;131,130,129,128;,
        4;135,134,133,132;,
        4;139,138,137,136;,
        4;143,142,141,140;,
        4;147,146,145,144;,
        4;151,150,149,148;,
        4;155,154,153,152;,
        4;159,158,157,156;,
        4;163,162,161,160;,
        4;167,166,165,164;,
        4;171,170,169,168;,
        4;175,174,173,172;,
        4;179,178,177,176;,
        4;183,182,181,180;,
        4;187,186,185,184;,
        4;191,190,189,188;,
        4;195,194,193,192;,
        4;199,198,197,196;,
        4;203,202,201,200;,
        4;207,206,205,204;,
        4;211,210,209,208;,
        4;215,214,213,212;,
        4;219,218,217,216;,
        4;223,222,221,220;,
        4;227,226,225,224;,
        4;231,230,229,228;,
        4;235,234,233,232;,
        4;239,238,237,236;,
        4;243,242,241,240;,
        4;247,246,245,244;,
        4;251,250,249,248;,
        4;255,254,253,252;,
        4;259,258,257,256;,
        4;263,262,261,260;,
        4;264,264,264,264;,
        4;265,265,265,265;,
        4;266,266,266,266;,
        4;267,267,267,267;,
        4;268,268,268,268;,
        4;269,269,269,269;,
        4;270,270,270,270;,
        4;271,271,271,271;,
        4;272,272,272,272;,
        4;273,273,273,273;,
        4;274,274,274,274;,
        4;275,275,275,275;,
        4;276,276,276,276;,
        4;277,277,277,277;;
      } // End of Cube_001 normals
      MeshTextureCoords { // Cube_001 UV coordinates
        320;
         0.000000; 0.206691;,
         0.065530; 0.206617;,
         0.065530; 0.097276;,
         0.000000; 0.097350;,
         0.102508; 0.206664;,
         0.102508; 0.141992;,
         0.082181; 0.142019;,
         0.082181; 0.206691;,
         0.825090; 0.999905;,
         0.890615; 1.000000;,
         0.890615; 0.890672;,
         0.825090; 0.890577;,
         0.122860; 0.206691;,
         0.122860; 0.142019;,
         0.102508; 0.141999;,
         0.102508; 0.206670;,
         0.213797; 0.131546;,
         0.193420; 0.131544;,
         0.193420; 0.241151;,
         0.213797; 0.241153;,
         0.065530; 0.097276;,
         0.065530; 0.206617;,
         0.082181; 0.192905;,
         0.082181; 0.110602;,
         0.172509; 0.124187;,
         0.157165; 0.124187;,
         0.157165; 0.206691;,
         0.172509; 0.206691;,
         0.102508; 0.141999;,
         0.122860; 0.142019;,
         0.119555; 0.125784;,
         0.104236; 0.125769;,
         0.082181; 0.142019;,
         0.102508; 0.141992;,
         0.098956; 0.125284;,
         0.083655; 0.125304;,
         0.890615; 0.890672;,
         0.890615; 1.000000;,
         0.907358; 0.986329;,
         0.907358; 0.904036;,
         0.825090; 0.810940;,
         0.656095; 0.811122;,
         0.656095; 0.954887;,
         0.825090; 0.954706;,
         0.284119; 0.988942;,
         0.289617; 0.974494;,
         0.244056; 0.936639;,
         0.231432; 0.941982;,
         0.386306; 0.258894;,
         0.217324; 0.258648;,
         0.217324; 0.407833;,
         0.386306; 0.408079;,
         0.182513; 0.241153;,
         0.182513; 0.407934;,
         0.198154; 0.407930;,
         0.198154; 0.241149;,
         0.289617; 0.974494;,
         0.284119; 0.988942;,
         0.435255; 1.000000;,
         0.435248; 0.984568;,
         0.501746; 0.659758;,
         0.507244; 0.674212;,
         0.652876; 0.664134;,
         0.652883; 0.648696;,
         0.231432; 0.941982;,
         0.244056; 0.936639;,
         0.230848; 0.841294;,
         0.217628; 0.837612;,
         0.507244; 0.674212;,
         0.501746; 0.659758;,
         0.449060; 0.706081;,
         0.461684; 0.711425;,
         0.825090; 0.954706;,
         0.656095; 0.954887;,
         0.652883; 1.000000;,
         0.801278; 0.999841;,
         0.217324; 0.258648;,
         0.386306; 0.258894;,
         0.362181; 0.206757;,
         0.213797; 0.206541;,
         0.448475; 0.806811;,
         0.435256; 0.810494;,
         0.443723; 0.911234;,
         0.456943; 0.907551;,
         0.461684; 0.711425;,
         0.449060; 0.706081;,
         0.435256; 0.810494;,
         0.448475; 0.806811;,
         0.802611; 0.211028;,
         0.951002; 0.211028;,
         0.950740; 0.115865;,
         0.802348; 0.115865;,
         0.802348; 0.416194;,
         0.950740; 0.416194;,
         0.950980; 0.311751;,
         0.802588; 0.311751;,
         0.809037; 0.416194;,
         0.660642; 0.416194;,
         0.661921; 0.517894;,
         0.810316; 0.517894;,
         0.802348; 0.115865;,
         0.950740; 0.115865;,
         0.950861; 0.015003;,
         0.802469; 0.015003;,
         0.802588; 0.311751;,
         0.950980; 0.311751;,
         0.950827; 0.211028;,
         0.802435; 0.211028;,
         0.217628; 0.837612;,
         0.230848; 0.841294;,
         0.239315; 0.740596;,
         0.226095; 0.736914;,
         0.552888; 0.975338;,
         0.547074; 0.987620;,
         0.652883; 1.000000;,
         0.651688; 0.987714;,
         0.226095; 0.736914;,
         0.239315; 0.740596;,
         0.335261; 0.672837;,
         0.329446; 0.660559;,
         0.456943; 0.907551;,
         0.443723; 0.911234;,
         0.547074; 0.987620;,
         0.552888; 0.975338;,
         0.818108; 0.622270;,
         0.966492; 0.622270;,
         0.967905; 0.527733;,
         0.819521; 0.527733;,
         0.632652; 0.150923;,
         0.632652; 0.297374;,
         0.645118; 0.297391;,
         0.645118; 0.150941;,
         0.819521; 0.527733;,
         0.967905; 0.527733;,
         0.968167; 0.430255;,
         0.819783; 0.430255;,
         0.810316; 0.517894;,
         0.661921; 0.517894;,
         0.662134; 0.622270;,
         0.810529; 0.622270;,
         0.434060; 0.660465;,
         0.435256; 0.648184;,
         0.425027; 0.652246;,
         0.424068; 0.662100;,
         0.825090; 0.810940;,
         0.825090; 0.667263;,
         0.656095; 0.667058;,
         0.656095; 0.810735;,
         0.066491; 0.659243;,
         0.013804; 0.706203;,
         0.026428; 0.711545;,
         0.071989; 0.673690;,
         0.172509; 0.355815;,
         0.172509; 0.206691;,
         0.003527; 0.206955;,
         0.003527; 0.356080;,
         0.213797; 0.241153;,
         0.198154; 0.241153;,
         0.198154; 0.407934;,
         0.213797; 0.407934;,
         0.071989; 0.673690;,
         0.217621; 0.663617;,
         0.217628; 0.648184;,
         0.066491; 0.659243;,
         0.501746; 0.637633;,
         0.652883; 0.648696;,
         0.652876; 0.633257;,
         0.507244; 0.623179;,
         0.013804; 0.706203;,
         0.000000; 0.810573;,
         0.013220; 0.806891;,
         0.026428; 0.711545;,
         0.507244; 0.623179;,
         0.461684; 0.585966;,
         0.449060; 0.591311;,
         0.501746; 0.637633;,
         0.825090; 0.667263;,
         0.801278; 0.622450;,
         0.652883; 0.622270;,
         0.656095; 0.667058;,
         0.003527; 0.356080;,
         0.000000; 0.407934;,
         0.148384; 0.407702;,
         0.172509; 0.355815;,
         0.448475; 0.490581;,
         0.456943; 0.389841;,
         0.443723; 0.386158;,
         0.435256; 0.486898;,
         0.461684; 0.585966;,
         0.448475; 0.490581;,
         0.435256; 0.486898;,
         0.449060; 0.591311;,
         0.825090; 0.622270;,
         0.825325; 0.717640;,
         0.973717; 0.717640;,
         0.973482; 0.622270;,
         0.435469; 0.092176;,
         0.435256; 0.196808;,
         0.583647; 0.196808;,
         0.583861; 0.092176;,
         0.801278; 0.415920;,
         0.802348; 0.313551;,
         0.653953; 0.313825;,
         0.652883; 0.416194;,
         0.825325; 0.717640;,
         0.825178; 0.818391;,
         0.973570; 0.818391;,
         0.973717; 0.717640;,
         0.435256; 0.196808;,
         0.435437; 0.297391;,
         0.583829; 0.297391;,
         0.583647; 0.196808;,
         0.000000; 0.810573;,
         0.008467; 0.911271;,
         0.021687; 0.907589;,
         0.013220; 0.806891;,
         0.552888; 0.322054;,
         0.651688; 0.309677;,
         0.652883; 0.297391;,
         0.547074; 0.309771;,
         0.008467; 0.911271;,
         0.111819; 0.987625;,
         0.117633; 0.975348;,
         0.021687; 0.907589;,
         0.456943; 0.389841;,
         0.552888; 0.322054;,
         0.547074; 0.309771;,
         0.443723; 0.386158;,
         0.652806; 0.016239;,
         0.653965; 0.111149;,
         0.802348; 0.111521;,
         0.801189; 0.016611;,
         0.193420; 0.094702;,
         0.180970; 0.094681;,
         0.180970; 0.241132;,
         0.193420; 0.241153;,
         0.653965; 0.111149;,
         0.653965; 0.208696;,
         0.802348; 0.209067;,
         0.802348; 0.111521;,
         0.802348; 0.313551;,
         0.802348; 0.209067;,
         0.653953; 0.209341;,
         0.653953; 0.313825;,
         0.111819; 0.987625;,
         0.217628; 1.000000;,
         0.216432; 0.987719;,
         0.117633; 0.975348;,
         0.340133; 0.662175;,
         0.344798; 0.672026;,
         0.424068; 0.662100;,
         0.425027; 0.652246;,
         0.819521; 0.527733;,
         0.819783; 0.430255;,
         0.810739; 0.440113;,
         0.810529; 0.518324;,
         0.329446; 0.660559;,
         0.335261; 0.672837;,
         0.344798; 0.672026;,
         0.340133; 0.662175;,
         0.662134; 0.622270;,
         0.661921; 0.517894;,
         0.652883; 0.528446;,
         0.653054; 0.612190;,
         0.951002; 0.421969;,
         1.000000; 0.421969;,
         0.996295; 0.406315;,
         0.954708; 0.406315;,
         0.632652; 0.081469;,
         0.583861; 0.077039;,
         0.583861; 0.292961;,
         0.632652; 0.297391;,
         0.213797; 0.422625;,
         0.427624; 0.422651;,
         0.409902; 0.408100;,
         0.231502; 0.408079;,
         0.435097; 0.187710;,
         0.386306; 0.192141;,
         0.386306; 0.408079;,
         0.435097; 0.403648;,
         0.000000; 0.418206;,
         0.000000; 0.633583;,
         0.213797; 0.633842;,
         0.213797; 0.418465;,
         0.213797; 0.422625;,
         0.213797; 0.638000;,
         0.427624; 0.638025;,
         0.427624; 0.422651;,
         0.996183; 0.017538;,
         0.957736; 0.017538;,
         0.957736; 0.193603;,
         0.996183; 0.193603;,
         1.000000; 0.000000;,
         0.951003; 0.000000;,
         0.957736; 0.017538;,
         0.996183; 0.017538;,
         0.951002; 0.211028;,
         1.000000; 0.211028;,
         0.996183; 0.193603;,
         0.957736; 0.193603;,
         0.213797; 0.633842;,
         0.000000; 0.633583;,
         0.017625; 0.647968;,
         0.196001; 0.648184;,
         0.996295; 0.227277;,
         0.954708; 0.227277;,
         0.954708; 0.406315;,
         0.996295; 0.406315;,
         1.000000; 0.211028;,
         0.951003; 0.211028;,
         0.954708; 0.227277;,
         0.996295; 0.227277;,
         0.427624; 0.638025;,
         0.213797; 0.638000;,
         0.229959; 0.648163;,
         0.411447; 0.648184;,
         0.000000; 0.418206;,
         0.213797; 0.418465;,
         0.197585; 0.408155;,
         0.016121; 0.407934;;
      } // End of Cube_001 UV coordinates
      MeshMaterialList { // Cube_001 material list
        1;
        80;
        0,
        0,
        0,
        0,
        0,
        0,
        0,
        0,
        0,
        0,
        0,
        0,
        0,
        0,
        0,
        0,
        0,
        0,
        0,
        0,
        0,
        0,
        0,
        0,
        0,
        0,
        0,
        0,
        0,
        0,
        0,
        0,
        0,
        0,
        0,
        0,
        0,
        0,
        0,
        0,
        0,
        0,
        0,
        0,
        0,
        0,
        0,
        0,
        0,
        0,
        0,
        0,
        0,
        0,
        0,
        0,
        0,
        0,
        0,
        0,
        0,
        0,
        0,
        0,
        0,
        0,
        0,
        0,
        0,
        0,
        0,
        0,
        0,
        0,
        0,
        0,
        0,
        0,
        0,
        0;
        Material Material_003 {
           0.640000; 0.640000; 0.640000; 1.000000;;
           96.078431;
           0.500000; 0.500000; 0.500000;;
           0.000000; 0.000000; 0.000000;;
        }
      } // End of Cube_001 material list
    } // End of Cube_001 mesh
  } // End of Cube_001
} // End of Root
