xof 0303txt 0032

Frame Root {
  FrameTransformMatrix {
     1.000000, 0.000000, 0.000000, 0.000000,
     0.000000,-0.000000, 1.000000, 0.000000,
     0.000000, 1.000000, 0.000000, 0.000000,
     0.000000, 0.000000, 0.000000, 1.000000;;
  }
  Frame Cube {
    FrameTransformMatrix {
       1.000000, 0.000000, 0.000000, 0.000000,
       0.000000, 1.000000, 0.000000, 0.000000,
       0.000000, 0.000000, 1.000000, 0.000000,
       0.000000, 0.000000, 0.000000, 1.000000;;
    }
    Mesh {
      304;
      -0.012492; 0.106150;-0.098515;,
      -0.010126; 0.067443;-0.073216;,
      -0.006710; 0.073122;-0.064846;,
      -0.009076; 0.111829;-0.090145;,
      -0.004793; 0.112335;-0.089771;,
      -0.002427; 0.073628;-0.064472;,
       0.003170; 0.074289;-0.063984;,
       0.000804; 0.112997;-0.089283;,
       0.008105; 0.098031;-0.112862;,
       0.010470; 0.059324;-0.087563;,
       0.008368; 0.053800;-0.095819;,
       0.006002; 0.092507;-0.121118;,
       0.000406; 0.091846;-0.121606;,
       0.002771; 0.053138;-0.096307;,
      -0.001512; 0.052632;-0.096681;,
      -0.003878; 0.091340;-0.121980;,
      -0.000894; 0.096968;-0.113647;,
       0.008105; 0.098031;-0.112862;,
       0.006002; 0.092507;-0.121118;,
       0.000406; 0.091846;-0.121606;,
       0.007871; 0.069569;-0.071646;,
       0.003170; 0.074289;-0.063984;,
       0.009567;-0.030394; 0.004438;,
       0.014269;-0.035115;-0.003224;,
      -0.001129;-0.047486;-0.020712;,
       0.004885;-0.052051;-0.028259;,
       0.015830;-0.218842; 0.083310;,
       0.009953;-0.214820; 0.090014;,
      -0.007527; 0.057198;-0.089133;,
      -0.001512; 0.052632;-0.096681;,
       0.004885;-0.052051;-0.028259;,
      -0.001129;-0.047486;-0.020712;,
       0.002771; 0.053138;-0.096307;,
       0.008368; 0.053800;-0.095819;,
       0.014765;-0.050884;-0.027397;,
       0.009169;-0.051545;-0.027886;,
      -0.002427; 0.073628;-0.064472;,
      -0.006710; 0.073122;-0.064846;,
      -0.000313;-0.031561; 0.003576;,
       0.003971;-0.031055; 0.003949;,
       0.019160;-0.218449; 0.083600;,
       0.023803;-0.217900; 0.084005;,
       0.027341;-0.294065; 0.135924;,
       0.023608;-0.294506; 0.135598;,
       0.009169;-0.051545;-0.027886;,
       0.014765;-0.050884;-0.027397;,
       0.023803;-0.217900; 0.084005;,
       0.019160;-0.218449; 0.083600;,
       0.003971;-0.031055; 0.003949;,
      -0.000313;-0.031561; 0.003576;,
       0.011183;-0.200524; 0.111770;,
       0.014512;-0.200131; 0.112061;,
       0.014269;-0.035115;-0.003224;,
       0.009567;-0.030394; 0.004438;,
       0.019155;-0.199583; 0.112466;,
       0.023719;-0.203760; 0.105648;,
       0.027652;-0.281478; 0.155151;,
       0.023220;-0.277819; 0.161165;,
       0.025075;-0.307667; 0.169695;,
       0.026012;-0.308850; 0.167798;,
       0.014512;-0.200131; 0.112061;,
       0.011183;-0.200524; 0.111770;,
       0.017067;-0.278546; 0.160628;,
       0.019487;-0.278260; 0.160839;,
       0.023719;-0.203760; 0.105648;,
       0.019155;-0.199583; 0.112466;,
       0.023220;-0.277819; 0.161165;,
       0.027652;-0.281478; 0.155151;,
       0.009953;-0.214820; 0.090014;,
       0.015830;-0.218842; 0.083310;,
       0.021189;-0.294791; 0.135387;,
       0.015443;-0.291287; 0.141286;,
       0.023689;-0.315239; 0.162751;,
       0.020118;-0.313585; 0.161103;,
       0.021056;-0.314768; 0.159206;,
       0.024060;-0.315139; 0.158357;,
       0.015443;-0.291287; 0.141286;,
       0.021189;-0.294791; 0.135387;,
       0.021056;-0.314768; 0.159206;,
       0.020118;-0.313585; 0.161103;,
       0.023608;-0.294506; 0.135598;,
       0.027341;-0.294065; 0.135924;,
       0.026707;-0.314101; 0.159699;,
       0.024060;-0.315139; 0.158357;,
       0.019487;-0.278260; 0.160839;,
       0.017067;-0.278546; 0.160628;,
       0.019424;-0.308334; 0.169202;,
       0.022070;-0.307296; 0.170544;,
       0.023220;-0.277819; 0.161165;,
       0.019487;-0.278260; 0.160839;,
       0.022070;-0.307296; 0.170544;,
       0.025075;-0.307667; 0.169695;,
       0.021189;-0.294791; 0.135387;,
       0.023608;-0.294506; 0.135598;,
       0.024060;-0.315139; 0.158357;,
       0.021056;-0.314768; 0.159206;,
       0.027007;-0.312771; 0.161704;,
       0.023689;-0.315239; 0.162751;,
       0.024060;-0.315139; 0.158357;,
       0.026707;-0.314101; 0.159699;,
       0.019155;-0.199583; 0.112466;,
       0.014512;-0.200131; 0.112061;,
       0.019487;-0.278260; 0.160839;,
       0.023220;-0.277819; 0.161165;,
       0.009567;-0.030394; 0.004438;,
       0.003971;-0.031055; 0.003949;,
       0.014512;-0.200131; 0.112061;,
       0.019155;-0.199583; 0.112466;,
       0.004885;-0.052051;-0.028259;,
       0.009169;-0.051545;-0.027886;,
       0.019160;-0.218449; 0.083600;,
       0.015830;-0.218842; 0.083310;,
       0.015830;-0.218842; 0.083310;,
       0.019160;-0.218449; 0.083600;,
       0.023608;-0.294506; 0.135598;,
       0.021189;-0.294791; 0.135387;,
       0.003170; 0.074289;-0.063984;,
      -0.002427; 0.073628;-0.064472;,
       0.003971;-0.031055; 0.003949;,
       0.009567;-0.030394; 0.004438;,
      -0.001512; 0.052632;-0.096681;,
       0.002771; 0.053138;-0.096307;,
       0.009169;-0.051545;-0.027886;,
       0.004885;-0.052051;-0.028259;,
      -0.009892; 0.095905;-0.114433;,
      -0.000894; 0.096968;-0.113647;,
       0.000406; 0.091846;-0.121606;,
      -0.003878; 0.091340;-0.121980;,
       0.006002; 0.092507;-0.121118;,
       0.008368; 0.053800;-0.095819;,
       0.002771; 0.053138;-0.096307;,
       0.000406; 0.091846;-0.121606;,
      -0.009076; 0.111829;-0.090145;,
      -0.006710; 0.073122;-0.064846;,
      -0.002427; 0.073628;-0.064472;,
      -0.004793; 0.112335;-0.089771;,
      -0.012492; 0.106150;-0.098515;,
      -0.003493; 0.107213;-0.097730;,
      -0.002194; 0.102091;-0.105689;,
      -0.011192; 0.101028;-0.106474;,
       0.026012;-0.308850; 0.167798;,
       0.022694;-0.311318; 0.168844;,
       0.023218;-0.313726; 0.166090;,
       0.026510;-0.310810; 0.164751;,
       0.013382;-0.283164; 0.153906;,
       0.014413;-0.287226; 0.147596;,
       0.019620;-0.311624; 0.164150;,
       0.019123;-0.309663; 0.167197;,
       0.022694;-0.311318; 0.168844;,
       0.019123;-0.309663; 0.167197;,
       0.019620;-0.311624; 0.164150;,
       0.023218;-0.313726; 0.166090;,
       0.007630;-0.205661; 0.104244;,
       0.008791;-0.210240; 0.097129;,
       0.014413;-0.287226; 0.147596;,
       0.013382;-0.283164; 0.153906;,
       0.026042;-0.212919; 0.091417;,
       0.024881;-0.208340; 0.098532;,
       0.028682;-0.285540; 0.148841;,
       0.029712;-0.289601; 0.142531;,
       0.029712;-0.289601; 0.142531;,
       0.028682;-0.285540; 0.148841;,
       0.026510;-0.310810; 0.164751;,
       0.027007;-0.312771; 0.161704;,
       0.016868;-0.045360;-0.019142;,
       0.015568;-0.040237;-0.011183;,
       0.024881;-0.208340; 0.098532;,
       0.026042;-0.212919; 0.091417;,
      -0.010126; 0.067443;-0.073216;,
      -0.008826; 0.062320;-0.081175;,
      -0.002429;-0.042363;-0.012753;,
      -0.003728;-0.037241;-0.004794;,
      -0.003728;-0.037241;-0.004794;,
      -0.002429;-0.042363;-0.012753;,
       0.008791;-0.210240; 0.097129;,
       0.007630;-0.205661; 0.104244;,
       0.010470; 0.059324;-0.087563;,
       0.009170; 0.064446;-0.079604;,
       0.015568;-0.040237;-0.011183;,
       0.016868;-0.045360;-0.019142;,
      -0.003493; 0.107213;-0.097730;,
       0.005505; 0.108276;-0.096945;,
       0.006805; 0.103154;-0.104904;,
      -0.002194; 0.102091;-0.105689;,
       0.005505; 0.108276;-0.096945;,
       0.007871; 0.069569;-0.071646;,
       0.009170; 0.064446;-0.079604;,
       0.006805; 0.103154;-0.104904;,
      -0.009892; 0.095905;-0.114433;,
      -0.007527; 0.057198;-0.089133;,
      -0.008826; 0.062320;-0.081175;,
      -0.011192; 0.101028;-0.106474;,
      -0.003878; 0.091340;-0.121980;,
      -0.001512; 0.052632;-0.096681;,
      -0.007527; 0.057198;-0.089133;,
      -0.009892; 0.095905;-0.114433;,
       0.008368; 0.053800;-0.095819;,
       0.010470; 0.059324;-0.087563;,
       0.016868;-0.045360;-0.019142;,
       0.014765;-0.050884;-0.027397;,
       0.014765;-0.050884;-0.027397;,
       0.016868;-0.045360;-0.019142;,
       0.026042;-0.212919; 0.091417;,
       0.023803;-0.217900; 0.084005;,
       0.027341;-0.294065; 0.135924;,
       0.029712;-0.289601; 0.142531;,
       0.027007;-0.312771; 0.161704;,
       0.026707;-0.314101; 0.159699;,
       0.023803;-0.217900; 0.084005;,
       0.026042;-0.212919; 0.091417;,
       0.029712;-0.289601; 0.142531;,
       0.027341;-0.294065; 0.135924;,
      -0.011192; 0.101028;-0.106474;,
      -0.002194; 0.102091;-0.105689;,
      -0.000894; 0.096968;-0.113647;,
      -0.009892; 0.095905;-0.114433;,
       0.026510;-0.310810; 0.164751;,
       0.023218;-0.313726; 0.166090;,
       0.023689;-0.315239; 0.162751;,
       0.027007;-0.312771; 0.161704;,
       0.014413;-0.287226; 0.147596;,
       0.015443;-0.291287; 0.141286;,
       0.020118;-0.313585; 0.161103;,
       0.019620;-0.311624; 0.164150;,
       0.023218;-0.313726; 0.166090;,
       0.019620;-0.311624; 0.164150;,
       0.020118;-0.313585; 0.161103;,
       0.023689;-0.315239; 0.162751;,
       0.008791;-0.210240; 0.097129;,
       0.009953;-0.214820; 0.090014;,
       0.015443;-0.291287; 0.141286;,
       0.014413;-0.287226; 0.147596;,
      -0.008826; 0.062320;-0.081175;,
      -0.007527; 0.057198;-0.089133;,
      -0.001129;-0.047486;-0.020712;,
      -0.002429;-0.042363;-0.012753;,
      -0.002429;-0.042363;-0.012753;,
      -0.001129;-0.047486;-0.020712;,
       0.009953;-0.214820; 0.090014;,
       0.008791;-0.210240; 0.097129;,
      -0.002194; 0.102091;-0.105689;,
       0.006805; 0.103154;-0.104904;,
       0.008105; 0.098031;-0.112862;,
      -0.000894; 0.096968;-0.113647;,
       0.006805; 0.103154;-0.104904;,
       0.009170; 0.064446;-0.079604;,
       0.010470; 0.059324;-0.087563;,
       0.008105; 0.098031;-0.112862;,
       0.000804; 0.112997;-0.089283;,
       0.003170; 0.074289;-0.063984;,
       0.007871; 0.069569;-0.071646;,
       0.005505; 0.108276;-0.096945;,
      -0.004793; 0.112335;-0.089771;,
       0.000804; 0.112997;-0.089283;,
       0.005505; 0.108276;-0.096945;,
      -0.003493; 0.107213;-0.097730;,
      -0.000313;-0.031561; 0.003576;,
      -0.003728;-0.037241;-0.004794;,
       0.007630;-0.205661; 0.104244;,
       0.011183;-0.200524; 0.111770;,
      -0.006710; 0.073122;-0.064846;,
      -0.010126; 0.067443;-0.073216;,
      -0.003728;-0.037241;-0.004794;,
      -0.000313;-0.031561; 0.003576;,
       0.011183;-0.200524; 0.111770;,
       0.007630;-0.205661; 0.104244;,
       0.013382;-0.283164; 0.153906;,
       0.017067;-0.278546; 0.160628;,
       0.022070;-0.307296; 0.170544;,
       0.019424;-0.308334; 0.169202;,
       0.019123;-0.309663; 0.167197;,
       0.022694;-0.311318; 0.168844;,
       0.017067;-0.278546; 0.160628;,
       0.013382;-0.283164; 0.153906;,
       0.019123;-0.309663; 0.167197;,
       0.019424;-0.308334; 0.169202;,
       0.025075;-0.307667; 0.169695;,
       0.022070;-0.307296; 0.170544;,
       0.022694;-0.311318; 0.168844;,
       0.026012;-0.308850; 0.167798;,
      -0.009076; 0.111829;-0.090145;,
      -0.004793; 0.112335;-0.089771;,
      -0.003493; 0.107213;-0.097730;,
      -0.012492; 0.106150;-0.098515;,
       0.024881;-0.208340; 0.098532;,
       0.023719;-0.203760; 0.105648;,
       0.027652;-0.281478; 0.155151;,
       0.028682;-0.285540; 0.148841;,
       0.028682;-0.285540; 0.148841;,
       0.027652;-0.281478; 0.155151;,
       0.026012;-0.308850; 0.167798;,
       0.026510;-0.310810; 0.164751;,
       0.015568;-0.040237;-0.011183;,
       0.014269;-0.035115;-0.003224;,
       0.023719;-0.203760; 0.105648;,
       0.024881;-0.208340; 0.098532;,
       0.009170; 0.064446;-0.079604;,
       0.007871; 0.069569;-0.071646;,
       0.014269;-0.035115;-0.003224;,
       0.015568;-0.040237;-0.011183;,
      -0.011192; 0.101028;-0.106474;,
      -0.008826; 0.062320;-0.081175;,
      -0.010126; 0.067443;-0.073216;,
      -0.012492; 0.106150;-0.098515;;
      76;
      4;3,2,1,0;,
      4;7,6,5,4;,
      4;11,10,9,8;,
      4;15,14,13,12;,
      4;19,18,17,16;,
      4;23,22,21,20;,
      4;27,26,25,24;,
      4;31,30,29,28;,
      4;35,34,33,32;,
      4;39,38,37,36;,
      4;43,42,41,40;,
      4;47,46,45,44;,
      4;51,50,49,48;,
      4;55,54,53,52;,
      4;59,58,57,56;,
      4;63,62,61,60;,
      4;67,66,65,64;,
      4;71,70,69,68;,
      4;75,74,73,72;,
      4;79,78,77,76;,
      4;83,82,81,80;,
      4;87,86,85,84;,
      4;91,90,89,88;,
      4;95,94,93,92;,
      4;99,98,97,96;,
      4;103,102,101,100;,
      4;107,106,105,104;,
      4;111,110,109,108;,
      4;115,114,113,112;,
      4;119,118,117,116;,
      4;123,122,121,120;,
      4;127,126,125,124;,
      4;131,130,129,128;,
      4;135,134,133,132;,
      4;139,138,137,136;,
      4;143,142,141,140;,
      4;147,146,145,144;,
      4;151,150,149,148;,
      4;155,154,153,152;,
      4;159,158,157,156;,
      4;163,162,161,160;,
      4;167,166,165,164;,
      4;171,170,169,168;,
      4;175,174,173,172;,
      4;179,178,177,176;,
      4;183,182,181,180;,
      4;187,186,185,184;,
      4;191,190,189,188;,
      4;195,194,193,192;,
      4;199,198,197,196;,
      4;203,202,201,200;,
      4;207,206,205,204;,
      4;211,210,209,208;,
      4;215,214,213,212;,
      4;219,218,217,216;,
      4;223,222,221,220;,
      4;227,226,225,224;,
      4;231,230,229,228;,
      4;235,234,233,232;,
      4;239,238,237,236;,
      4;243,242,241,240;,
      4;247,246,245,244;,
      4;251,250,249,248;,
      4;255,254,253,252;,
      4;259,258,257,256;,
      4;263,262,261,260;,
      4;267,266,265,264;,
      4;271,270,269,268;,
      4;275,274,273,272;,
      4;279,278,277,276;,
      4;283,282,281,280;,
      4;287,286,285,284;,
      4;291,290,289,288;,
      4;295,294,293,292;,
      4;299,298,297,296;,
      4;303,302,301,300;;
      MeshNormals {
        76;
        -0.946063; 0.134753; 0.294629;,
        -0.136025; 0.536184; 0.833069;,
         0.976998;-0.071585;-0.200875;,
         0.136025;-0.536184;-0.833069;,
        -0.051089; 0.835973;-0.546388;,
         0.884875; 0.291542; 0.363316;,
        -0.811548;-0.359788;-0.460372;,
        -0.824622;-0.343939;-0.449116;,
         0.136026;-0.536183;-0.833069;,
        -0.136026; 0.536183; 0.833069;,
         0.137071;-0.553579;-0.821439;,
         0.136537;-0.544581;-0.827520;,
        -0.135506; 0.527731; 0.838533;,
         0.876879; 0.293731; 0.380534;,
         0.861485; 0.179103; 0.475149;,
        -0.134919; 0.518553; 0.844334;,
         0.857310; 0.305072; 0.414669;,
        -0.781387;-0.387373;-0.489261;,
        -0.303957;-0.947447; 0.099773;,
        -0.787082;-0.481954;-0.384997;,
         0.327521;-0.712065;-0.621042;,
        -0.343306; 0.252300; 0.904702;,
         0.070763; 0.299949; 0.951327;,
        -0.088784;-0.751065;-0.654232;,
         0.493213;-0.853265; 0.169351;,
        -0.134932; 0.518551; 0.844333;,
        -0.135506; 0.527731; 0.838533;,
         0.136535;-0.544581;-0.827520;,
         0.137058;-0.553581;-0.821440;,
        -0.136025; 0.536183; 0.833069;,
         0.136026;-0.536183;-0.833069;,
        -0.051088; 0.835971;-0.546391;,
         0.136027;-0.536184;-0.833069;,
        -0.136025; 0.536184; 0.833069;,
        -0.051088; 0.835969;-0.546394;,
         0.642216;-0.553601; 0.530174;,
        -0.975318;-0.220102;-0.017592;,
        -0.577611;-0.697714; 0.423746;,
        -0.988828;-0.125216;-0.080867;,
         0.989847; 0.108541; 0.091766;,
         0.988046; 0.011845; 0.153705;,
         0.989621; 0.112872; 0.088941;,
        -0.989387;-0.116884;-0.086321;,
        -0.989131;-0.120893;-0.083698;,
         0.989387; 0.116884; 0.086321;,
        -0.051091; 0.835969;-0.546394;,
         0.989387; 0.116884; 0.086321;,
        -0.989387;-0.116884;-0.086320;,
        -0.824621;-0.343939;-0.449116;,
         0.976998;-0.071585;-0.200875;,
         0.973518;-0.087203;-0.211324;,
         0.963415;-0.222697;-0.149124;,
         0.964064;-0.115733;-0.239136;,
        -0.051087; 0.835970;-0.546393;,
         0.657853;-0.615246; 0.434398;,
        -0.975319;-0.220100;-0.017589;,
        -0.561961;-0.759359; 0.327985;,
        -0.988828;-0.125217;-0.080867;,
        -0.989387;-0.116884;-0.086320;,
        -0.989131;-0.120893;-0.083698;,
        -0.051088; 0.835968;-0.546396;,
         0.989387; 0.116884; 0.086321;,
         0.884875; 0.291542; 0.363316;,
        -0.051090; 0.835971;-0.546390;,
        -0.938336; 0.139981; 0.316120;,
        -0.946063; 0.134753; 0.294629;,
        -0.919863; 0.158463; 0.358806;,
        -0.408313;-0.536148; 0.738800;,
        -0.915515; 0.024288; 0.401551;,
         0.388876;-0.441988; 0.808345;,
        -0.051087; 0.835970;-0.546391;,
         0.989847; 0.108540; 0.091766;,
         0.988045; 0.011848; 0.153709;,
         0.989621; 0.112872; 0.088941;,
         0.989387; 0.116884; 0.086321;,
        -0.989387;-0.116884;-0.086321;;
        76;
        4;0,0,0,0;,
        4;1,1,1,1;,
        4;2,2,2,2;,
        4;3,3,3,3;,
        4;4,4,4,4;,
        4;5,5,5,5;,
        4;6,6,6,6;,
        4;7,7,7,7;,
        4;8,8,8,8;,
        4;9,9,9,9;,
        4;10,10,10,10;,
        4;11,11,11,11;,
        4;12,12,12,12;,
        4;13,13,13,13;,
        4;14,14,14,14;,
        4;15,15,15,15;,
        4;16,16,16,16;,
        4;17,17,17,17;,
        4;18,18,18,18;,
        4;19,19,19,19;,
        4;20,20,20,20;,
        4;21,21,21,21;,
        4;22,22,22,22;,
        4;23,23,23,23;,
        4;24,24,24,24;,
        4;25,25,25,25;,
        4;26,26,26,26;,
        4;27,27,27,27;,
        4;28,28,28,28;,
        4;29,29,29,29;,
        4;30,30,30,30;,
        4;31,31,31,31;,
        4;32,32,32,32;,
        4;33,33,33,33;,
        4;34,34,34,34;,
        4;35,35,35,35;,
        4;36,36,36,36;,
        4;37,37,37,37;,
        4;38,38,38,38;,
        4;39,39,39,39;,
        4;40,40,40,40;,
        4;41,41,41,41;,
        4;42,42,42,42;,
        4;43,43,43,43;,
        4;44,44,44,44;,
        4;45,45,45,45;,
        4;46,46,46,46;,
        4;47,47,47,47;,
        4;48,48,48,48;,
        4;49,49,49,49;,
        4;50,50,50,50;,
        4;51,51,51,51;,
        4;52,52,52,52;,
        4;53,53,53,53;,
        4;54,54,54,54;,
        4;55,55,55,55;,
        4;56,56,56,56;,
        4;57,57,57,57;,
        4;58,58,58,58;,
        4;59,59,59,59;,
        4;60,60,60,60;,
        4;61,61,61,61;,
        4;62,62,62,62;,
        4;63,63,63,63;,
        4;64,64,64,64;,
        4;65,65,65,65;,
        4;66,66,66,66;,
        4;67,67,67,67;,
        4;68,68,68,68;,
        4;69,69,69,69;,
        4;70,70,70,70;,
        4;71,71,71,71;,
        4;72,72,72,72;,
        4;73,73,73,73;,
        4;74,74,74,74;,
        4;75,75,75,75;;
      }
      MeshTextureCoords {
        304;
         0.132139; 0.000000;,
         0.132139; 0.093025;,
         0.152631; 0.093225;,
         0.152631; 0.000198;,
         0.181406; 0.001204;,
         0.181406; 0.094105;,
         0.192776; 0.094107;,
         0.192776; 0.001207;,
         0.057610; 0.000109;,
         0.057610; 0.093130;,
         0.076814; 0.093357;,
         0.076814; 0.000336;,
         0.164002; 0.001204;,
         0.164002; 0.094105;,
         0.172704; 0.094101;,
         0.172704; 0.001202;,
         0.211058; 0.942390;,
         0.229340; 0.942390;,
         0.222429; 0.923186;,
         0.211058; 0.923186;,
         0.019203; 0.093130;,
         0.000000; 0.093357;,
         0.000000; 0.344933;,
         0.019203; 0.344707;,
         0.094230; 0.344807;,
         0.076814; 0.345198;,
         0.081143; 0.748970;,
         0.096550; 0.748589;,
         0.094230; 0.093218;,
         0.076814; 0.093609;,
         0.076814; 0.345198;,
         0.094230; 0.344807;,
         0.164002; 0.094105;,
         0.152631; 0.094107;,
         0.152631; 0.345354;,
         0.164002; 0.345350;,
         0.181406; 0.094105;,
         0.172704; 0.094101;,
         0.172704; 0.345348;,
         0.181406; 0.345350;,
         0.164020; 0.748783;,
         0.154587; 0.748787;,
         0.156454; 0.934050;,
         0.164038; 0.934046;,
         0.164002; 0.345350;,
         0.152631; 0.345354;,
         0.154587; 0.748787;,
         0.164020; 0.748783;,
         0.181406; 0.345350;,
         0.172704; 0.345348;,
         0.174623; 0.748781;,
         0.181387; 0.748783;,
         0.019203; 0.344707;,
         0.000000; 0.344933;,
         0.004071; 0.748711;,
         0.021239; 0.748484;,
         0.023181; 0.933813;,
         0.007955; 0.934040;,
         0.026347; 0.993784;,
         0.031055; 0.993742;,
         0.181387; 0.748783;,
         0.174623; 0.748781;,
         0.176454; 0.934046;,
         0.181370; 0.934046;,
         0.021239; 0.748484;,
         0.004071; 0.748711;,
         0.007955; 0.934040;,
         0.023181; 0.933813;,
         0.096550; 0.748589;,
         0.081143; 0.748970;,
         0.085274; 0.934286;,
         0.098764; 0.933914;,
         0.164143; 1.000000;,
         0.171141; 0.995052;,
         0.169862; 0.994766;,
         0.164109; 0.994608;,
         0.098764; 0.933914;,
         0.085274; 0.934286;,
         0.103295; 0.993855;,
         0.107740; 0.993792;,
         0.164038; 0.934046;,
         0.156454; 0.934050;,
         0.158381; 0.994770;,
         0.164109; 0.994608;,
         0.181370; 0.934046;,
         0.176454; 0.934046;,
         0.175546; 0.994766;,
         0.181298; 0.994608;,
         0.188954; 0.934050;,
         0.181370; 0.934046;,
         0.181298; 0.994608;,
         0.187026; 0.994770;,
         0.168953; 0.934046;,
         0.164038; 0.934046;,
         0.164109; 0.994608;,
         0.169862; 0.994766;,
         0.157144; 0.995056;,
         0.164143; 1.000000;,
         0.164109; 0.994608;,
         0.158381; 0.994770;,
         0.190820; 0.748787;,
         0.181387; 0.748783;,
         0.181370; 0.934046;,
         0.188954; 0.934050;,
         0.192776; 0.345354;,
         0.181406; 0.345350;,
         0.181387; 0.748783;,
         0.190820; 0.748787;,
         0.172704; 0.345348;,
         0.164002; 0.345350;,
         0.164020; 0.748783;,
         0.170785; 0.748781;,
         0.170785; 0.748781;,
         0.164020; 0.748783;,
         0.164038; 0.934046;,
         0.168953; 0.934046;,
         0.192776; 0.094107;,
         0.181406; 0.094105;,
         0.181406; 0.345350;,
         0.192776; 0.345354;,
         0.172704; 0.094101;,
         0.164002; 0.094105;,
         0.164002; 0.345350;,
         0.172704; 0.345348;,
         0.192776; 0.942390;,
         0.211058; 0.942390;,
         0.211058; 0.923186;,
         0.202356; 0.923186;,
         0.152631; 0.001207;,
         0.152631; 0.094107;,
         0.164002; 0.094105;,
         0.164002; 0.001204;,
         0.172704; 0.001202;,
         0.172704; 0.094101;,
         0.181406; 0.094105;,
         0.181406; 0.001204;,
         0.192776; 0.980797;,
         0.211058; 0.980797;,
         0.211058; 0.961593;,
         0.192776; 0.961593;,
         0.031055; 0.993742;,
         0.031055; 0.998924;,
         0.038407; 1.000000;,
         0.038407; 0.993742;,
         0.128821; 0.933762;,
         0.113792; 0.933838;,
         0.114996; 0.993755;,
         0.122252; 0.993719;,
         0.123375; 0.998888;,
         0.122252; 0.993719;,
         0.114996; 0.993755;,
         0.116119; 1.000000;,
         0.130441; 0.748417;,
         0.113496; 0.748503;,
         0.113792; 0.933838;,
         0.128821; 0.933762;,
         0.055575; 0.748484;,
         0.038407; 0.748484;,
         0.038407; 0.933813;,
         0.053632; 0.933813;,
         0.053632; 0.933813;,
         0.038407; 0.933813;,
         0.038407; 0.993742;,
         0.045758; 0.993742;,
         0.057610; 0.344707;,
         0.038407; 0.344707;,
         0.038407; 0.748484;,
         0.055575; 0.748484;,
         0.132139; 0.093025;,
         0.113185; 0.093122;,
         0.113185; 0.344709;,
         0.132139; 0.344614;,
         0.132139; 0.344614;,
         0.113185; 0.344709;,
         0.113496; 0.748503;,
         0.130441; 0.748417;,
         0.057610; 0.093130;,
         0.038407; 0.093130;,
         0.038407; 0.344707;,
         0.057610; 0.344707;,
         0.211058; 0.980797;,
         0.229340; 0.980797;,
         0.229340; 0.961593;,
         0.211058; 0.961593;,
         0.019203; 0.000109;,
         0.019203; 0.093130;,
         0.038407; 0.093130;,
         0.038407; 0.000109;,
         0.094230; 0.000193;,
         0.094230; 0.093218;,
         0.113185; 0.093122;,
         0.113185; 0.000095;,
         0.076814; 0.000584;,
         0.076814; 0.093609;,
         0.094230; 0.093218;,
         0.094230; 0.000193;,
         0.076814; 0.093357;,
         0.057610; 0.093130;,
         0.057610; 0.344707;,
         0.076814; 0.344933;,
         0.076814; 0.344933;,
         0.057610; 0.344707;,
         0.055575; 0.748484;,
         0.072743; 0.748711;,
         0.068858; 0.934040;,
         0.053632; 0.933813;,
         0.045758; 0.993742;,
         0.050466; 0.993784;,
         0.072743; 0.748711;,
         0.055575; 0.748484;,
         0.053632; 0.933813;,
         0.068858; 0.934040;,
         0.192776; 0.961593;,
         0.211058; 0.961593;,
         0.211058; 0.942390;,
         0.192776; 0.942390;,
         0.038407; 0.993742;,
         0.038407; 1.000000;,
         0.045758; 0.998924;,
         0.045758; 0.993742;,
         0.113792; 0.933838;,
         0.098764; 0.933914;,
         0.107740; 0.993792;,
         0.114996; 0.993755;,
         0.116119; 1.000000;,
         0.114996; 0.993755;,
         0.107740; 0.993792;,
         0.108863; 0.998960;,
         0.113496; 0.748503;,
         0.096550; 0.748589;,
         0.098764; 0.933914;,
         0.113792; 0.933838;,
         0.113185; 0.093122;,
         0.094230; 0.093218;,
         0.094230; 0.344807;,
         0.113185; 0.344709;,
         0.113185; 0.344709;,
         0.094230; 0.344807;,
         0.096550; 0.748589;,
         0.113496; 0.748503;,
         0.211058; 0.961593;,
         0.229340; 0.961593;,
         0.229340; 0.942390;,
         0.211058; 0.942390;,
         0.038407; 0.000109;,
         0.038407; 0.093130;,
         0.057610; 0.093130;,
         0.057610; 0.000109;,
         0.000000; 0.000336;,
         0.000000; 0.093357;,
         0.019203; 0.093130;,
         0.019203; 0.000109;,
         0.211058; 1.000000;,
         0.222429; 1.000000;,
         0.229340; 0.980797;,
         0.211058; 0.980797;,
         0.152631; 0.344812;,
         0.132139; 0.344614;,
         0.130441; 0.748417;,
         0.148924; 0.748627;,
         0.152631; 0.093225;,
         0.132139; 0.093025;,
         0.132139; 0.344614;,
         0.152631; 0.344812;,
         0.148924; 0.748627;,
         0.130441; 0.748417;,
         0.128821; 0.933762;,
         0.145387; 0.933981;,
         0.130631; 0.993896;,
         0.127101; 0.993734;,
         0.122252; 0.993719;,
         0.123375; 0.998888;,
         0.145387; 0.933981;,
         0.128821; 0.933762;,
         0.122252; 0.993719;,
         0.127101; 0.993734;,
         0.187026; 0.994770;,
         0.181298; 0.994608;,
         0.181265; 1.000000;,
         0.188263; 0.995056;,
         0.202356; 1.000000;,
         0.211058; 1.000000;,
         0.211058; 0.980797;,
         0.192776; 0.980797;,
         0.038407; 0.748484;,
         0.021239; 0.748484;,
         0.023181; 0.933813;,
         0.038407; 0.933813;,
         0.038407; 0.933813;,
         0.023181; 0.933813;,
         0.031055; 0.993742;,
         0.038407; 0.993742;,
         0.038407; 0.344707;,
         0.019203; 0.344707;,
         0.021239; 0.748484;,
         0.038407; 0.748484;,
         0.038407; 0.093130;,
         0.019203; 0.093130;,
         0.019203; 0.344707;,
         0.038407; 0.344707;,
         0.113185; 0.000095;,
         0.113185; 0.093122;,
         0.132139; 0.093025;,
         0.132139; 0.000000;;
      }
      MeshMaterialList {
        1;
        76;
        0,
        0,
        0,
        0,
        0,
        0,
        0,
        0,
        0,
        0,
        0,
        0,
        0,
        0,
        0,
        0,
        0,
        0,
        0,
        0,
        0,
        0,
        0,
        0,
        0,
        0,
        0,
        0,
        0,
        0,
        0,
        0,
        0,
        0,
        0,
        0,
        0,
        0,
        0,
        0,
        0,
        0,
        0,
        0,
        0,
        0,
        0,
        0,
        0,
        0,
        0,
        0,
        0,
        0,
        0,
        0,
        0,
        0,
        0,
        0,
        0,
        0,
        0,
        0,
        0,
        0,
        0,
        0,
        0,
        0,
        0,
        0,
        0,
        0,
        0,
        0;
        Material Material_001 {
           0.800000; 0.800000; 0.800000; 1.000000;;
           323.999994;
           0.500000; 0.500000; 0.500000;;
           0.000000; 0.000000; 0.000000;;
          TextureFilename {"SwordSheath.png";}
        }
      }
    }
  }
}
