xof 0303txt 0032

Frame Root {
  FrameTransformMatrix {
     1.000000, 0.000000, 0.000000, 0.000000,
     0.000000,-0.000000, 1.000000, 0.000000,
     0.000000, 1.000000, 0.000000, 0.000000,
     0.000000, 0.000000, 0.000000, 1.000000;;
  }
  Frame Plane_008 {
    FrameTransformMatrix {
       1.000000, 0.000000, 0.000000, 0.000000,
       0.000000, 1.000000, 0.000000, 0.000000,
       0.000000, 0.000000, 1.000000, 0.000000,
       0.000000, 0.000000, 0.000000, 1.000000;;
    }
    Mesh { // Plane_008 mesh
      672;
      -0.012405; 0.013596;-0.103380;,
      -0.012530; 0.002693;-0.103393;,
      -0.006019; 0.002618;-0.103323;,
      -0.005894; 0.013521;-0.103310;,
       0.031613;-0.027754; 0.109616;,
       0.031563;-0.027244; 0.114778;,
      -0.011264;-0.026988; 0.114343;,
      -0.011214;-0.027498; 0.109181;,
      -0.011214;-0.027498; 0.109181;,
      -0.011264;-0.026988; 0.114343;,
      -0.024308; 0.011027; 0.110462;,
      -0.024258; 0.010517; 0.105300;,
      -0.024258; 0.010517; 0.105300;,
      -0.024308; 0.011027; 0.110462;,
       0.036573; 0.010766; 0.111070;,
       0.036622; 0.010256; 0.105908;,
       0.036622; 0.010256; 0.105908;,
       0.036573; 0.010766; 0.111070;,
       0.031563;-0.027244; 0.114778;,
       0.031613;-0.027754; 0.109616;,
      -0.011214;-0.027498; 0.109181;,
      -0.024258; 0.010517; 0.105300;,
       0.036622; 0.010256; 0.105908;,
       0.031613;-0.027754; 0.109616;,
      -0.024308; 0.011027; 0.110462;,
      -0.011264;-0.026988; 0.114343;,
       0.031563;-0.027244; 0.114778;,
       0.036573; 0.010766; 0.111070;,
      -0.026051; 0.081216; 0.008210;,
      -0.026050; 0.084450; 0.008210;,
      -0.025427; 0.084443;-0.056752;,
      -0.025428; 0.081209;-0.056752;,
      -0.025428; 0.081209;-0.056752;,
      -0.025427; 0.084443;-0.056752;,
       0.012768; 0.084432;-0.056386;,
       0.012767; 0.081198;-0.056386;,
       0.012767; 0.081198;-0.056386;,
       0.012768; 0.084432;-0.056386;,
       0.012145; 0.084440; 0.008576;,
       0.012144; 0.081206; 0.008577;,
       0.012144; 0.081206; 0.008577;,
       0.012145; 0.084440; 0.008576;,
      -0.026050; 0.084450; 0.008210;,
      -0.026051; 0.081216; 0.008210;,
      -0.025428; 0.081209;-0.056752;,
       0.012767; 0.081198;-0.056386;,
       0.012144; 0.081206; 0.008577;,
      -0.026051; 0.081216; 0.008210;,
       0.012768; 0.084432;-0.056386;,
      -0.025427; 0.084443;-0.056752;,
      -0.026050; 0.084450; 0.008210;,
       0.012145; 0.084440; 0.008576;,
       0.046251; 0.055598; 0.089508;,
       0.046225; 0.059930; 0.092360;,
      -0.029098; 0.060086; 0.091432;,
      -0.029072; 0.055754; 0.088580;,
      -0.029072; 0.055754; 0.088580;,
      -0.029098; 0.060086; 0.091432;,
      -0.028641; 0.081088; 0.059530;,
      -0.028615; 0.076755; 0.056678;,
      -0.028615; 0.076755; 0.056678;,
      -0.028641; 0.081088; 0.059530;,
       0.040619; 0.080934; 0.060400;,
       0.040646; 0.076601; 0.057548;,
       0.040646; 0.076601; 0.057548;,
       0.040619; 0.080934; 0.060400;,
       0.046225; 0.059930; 0.092360;,
       0.046251; 0.055598; 0.089508;,
      -0.029072; 0.055754; 0.088580;,
      -0.028615; 0.076755; 0.056678;,
       0.040646; 0.076601; 0.057548;,
       0.046251; 0.055598; 0.089508;,
      -0.028641; 0.081088; 0.059530;,
      -0.029098; 0.060086; 0.091432;,
       0.046225; 0.059930; 0.092360;,
       0.040619; 0.080934; 0.060400;,
       0.038365; 0.079207; 0.052885;,
       0.038366; 0.084394; 0.052884;,
      -0.026593; 0.084412; 0.052015;,
      -0.026595; 0.079225; 0.052016;,
      -0.026595; 0.079225; 0.052016;,
      -0.026593; 0.084412; 0.052015;,
      -0.026082; 0.084407; 0.013822;,
      -0.026084; 0.079220; 0.013823;,
      -0.026084; 0.079220; 0.013823;,
      -0.026082; 0.084407; 0.013822;,
       0.029630; 0.084392; 0.014602;,
       0.029628; 0.079205; 0.014603;,
       0.029628; 0.079205; 0.014603;,
       0.029630; 0.084392; 0.014602;,
       0.038366; 0.084394; 0.052884;,
       0.038365; 0.079207; 0.052885;,
      -0.026595; 0.079225; 0.052016;,
      -0.026084; 0.079220; 0.013823;,
       0.029628; 0.079205; 0.014603;,
       0.038365; 0.079207; 0.052885;,
      -0.026082; 0.084407; 0.013822;,
      -0.026593; 0.084412; 0.052015;,
       0.038366; 0.084394; 0.052884;,
       0.029630; 0.084392; 0.014602;,
       0.037305; 0.073715;-0.057791;,
       0.037336; 0.077894;-0.060863;,
      -0.027624; 0.077767;-0.061684;,
      -0.027655; 0.073587;-0.058612;,
      -0.027655; 0.073587;-0.058612;,
      -0.027624; 0.077767;-0.061684;,
      -0.027191; 0.055144;-0.092458;,
      -0.027221; 0.050964;-0.089386;,
      -0.027221; 0.050964;-0.089386;,
      -0.027191; 0.055144;-0.092458;,
       0.053393; 0.055267;-0.091487;,
       0.053363; 0.051088;-0.088415;,
       0.053363; 0.051088;-0.088415;,
       0.053393; 0.055267;-0.091487;,
       0.037336; 0.077894;-0.060863;,
       0.037305; 0.073715;-0.057791;,
      -0.027655; 0.073587;-0.058612;,
      -0.027221; 0.050964;-0.089386;,
       0.053363; 0.051088;-0.088415;,
       0.037305; 0.073715;-0.057791;,
      -0.027191; 0.055144;-0.092458;,
      -0.027624; 0.077767;-0.061684;,
       0.037336; 0.077894;-0.060863;,
       0.053393; 0.055267;-0.091487;,
       0.050863; 0.047216;-0.089718;,
       0.050912; 0.048581;-0.094722;,
      -0.028509; 0.048366;-0.095549;,
      -0.028557; 0.047001;-0.090545;,
      -0.028557; 0.047001;-0.090545;,
      -0.028509; 0.048366;-0.095549;,
      -0.028278; 0.011515;-0.105598;,
      -0.028326; 0.010150;-0.100594;,
      -0.028326; 0.010150;-0.100594;,
      -0.028278; 0.011515;-0.105598;,
       0.036683; 0.011735;-0.104910;,
       0.036635; 0.010370;-0.099906;,
       0.036635; 0.010370;-0.099906;,
       0.036683; 0.011735;-0.104910;,
       0.050912; 0.048581;-0.094722;,
       0.050863; 0.047216;-0.089718;,
      -0.028557; 0.047001;-0.090545;,
      -0.028326; 0.010150;-0.100594;,
       0.036635; 0.010370;-0.099906;,
       0.050863; 0.047216;-0.089718;,
      -0.028278; 0.011515;-0.105598;,
      -0.028509; 0.048366;-0.095549;,
       0.050912; 0.048581;-0.094722;,
       0.036683; 0.011735;-0.104910;,
       0.036497; 0.007346;-0.100638;,
       0.036546; 0.007571;-0.105820;,
      -0.028415; 0.007343;-0.106454;,
      -0.028465; 0.007118;-0.101272;,
      -0.028465; 0.007118;-0.101272;,
      -0.028415; 0.007343;-0.106454;,
      -0.007917;-0.030823;-0.107914;,
      -0.007967;-0.031048;-0.102731;,
      -0.007967;-0.031048;-0.102731;,
      -0.007917;-0.030823;-0.107914;,
       0.030033;-0.030588;-0.107539;,
       0.029983;-0.030813;-0.102357;,
       0.029983;-0.030813;-0.102357;,
       0.030033;-0.030588;-0.107539;,
       0.036546; 0.007571;-0.105820;,
       0.036497; 0.007346;-0.100638;,
      -0.028465; 0.007118;-0.101272;,
      -0.007967;-0.031048;-0.102731;,
       0.029983;-0.030813;-0.102357;,
       0.036497; 0.007346;-0.100638;,
      -0.007917;-0.030823;-0.107914;,
      -0.028415; 0.007343;-0.106454;,
       0.036546; 0.007571;-0.105820;,
       0.030033;-0.030588;-0.107539;,
       0.035731; 0.014080; 0.104535;,
       0.035684; 0.015648; 0.109479;,
      -0.024171; 0.015899; 0.108831;,
      -0.024124; 0.014331; 0.103887;,
      -0.024124; 0.014331; 0.103887;,
      -0.024171; 0.015899; 0.108831;,
      -0.029011; 0.052309; 0.097237;,
      -0.028964; 0.050741; 0.092293;,
      -0.028964; 0.050741; 0.092293;,
      -0.029011; 0.052309; 0.097237;,
       0.046973; 0.052054; 0.098040;,
       0.047020; 0.050486; 0.093096;,
       0.047020; 0.050486; 0.093096;,
       0.046973; 0.052054; 0.098040;,
       0.035684; 0.015648; 0.109479;,
       0.035731; 0.014080; 0.104535;,
      -0.024124; 0.014331; 0.103887;,
      -0.028964; 0.050741; 0.092293;,
       0.047020; 0.050486; 0.093096;,
       0.035731; 0.014080; 0.104535;,
      -0.029011; 0.052309; 0.097237;,
      -0.024171; 0.015899; 0.108831;,
       0.035684; 0.015648; 0.109479;,
       0.046973; 0.052054; 0.098040;,
       0.087606; 0.066311; 0.075717;,
       0.089018; 0.066294;-0.071461;,
       0.041879; 0.081467;-0.071915;,
       0.040467; 0.081484; 0.075264;,
       0.086126; 0.061988;-0.071489;,
       0.089018; 0.066294;-0.071461;,
       0.120724; 0.044995;-0.071155;,
       0.117832; 0.040689;-0.071182;,
       0.117832; 0.040689;-0.071182;,
       0.120724; 0.044995;-0.071155;,
       0.119312; 0.045012; 0.076024;,
       0.116420; 0.040707; 0.075997;,
       0.116420; 0.040707; 0.075997;,
       0.119312; 0.045012; 0.076024;,
       0.087606; 0.066311; 0.075717;,
       0.084714; 0.062005; 0.075690;,
       0.086126; 0.061988;-0.071489;,
       0.117832; 0.040689;-0.071182;,
       0.116420; 0.040707; 0.075997;,
       0.084714; 0.062005; 0.075690;,
       0.120724; 0.044995;-0.071155;,
       0.089018; 0.066294;-0.071461;,
       0.087606; 0.066311; 0.075717;,
       0.119312; 0.045012; 0.076024;,
       0.041175; 0.076345; 0.075271;,
       0.040467; 0.081484; 0.075264;,
       0.041879; 0.081467;-0.071915;,
       0.042587; 0.076328;-0.071908;,
       0.086126; 0.061988;-0.071489;,
       0.084714; 0.062005; 0.075690;,
       0.041175; 0.076345; 0.075271;,
       0.042587; 0.076328;-0.071908;,
       0.089018; 0.066294;-0.071461;,
       0.086126; 0.061988;-0.071489;,
       0.042587; 0.076328;-0.071908;,
       0.041879; 0.081467;-0.071915;,
       0.084714; 0.062005; 0.075690;,
       0.087606; 0.066311; 0.075717;,
       0.040467; 0.081484; 0.075264;,
       0.041175; 0.076345; 0.075271;,
      -0.069058; 0.076020; 0.042252;,
      -0.069057; 0.078652; 0.042251;,
      -0.068196; 0.078642;-0.047562;,
      -0.068196; 0.076009;-0.047562;,
      -0.068196; 0.076009;-0.047562;,
      -0.068196; 0.078642;-0.047562;,
      -0.029909; 0.078911;-0.056795;,
      -0.029910; 0.075716;-0.056794;,
      -0.029910; 0.075716;-0.056794;,
      -0.029909; 0.078911;-0.056795;,
      -0.030954; 0.078924; 0.052217;,
      -0.030955; 0.075729; 0.052217;,
      -0.030955; 0.075729; 0.052217;,
      -0.030954; 0.078924; 0.052217;,
      -0.069057; 0.078652; 0.042251;,
      -0.069058; 0.076020; 0.042252;,
      -0.068196; 0.076009;-0.047562;,
      -0.029910; 0.075716;-0.056794;,
      -0.030955; 0.075729; 0.052217;,
      -0.069058; 0.076020; 0.042252;,
      -0.029909; 0.078911;-0.056795;,
      -0.068196; 0.078642;-0.047562;,
      -0.069057; 0.078652; 0.042251;,
      -0.030954; 0.078924; 0.052217;,
       0.011269; 0.083847;-0.037189;,
       0.043656; 0.080464;-0.036878;,
       0.043843; 0.080461;-0.056326;,
       0.011455; 0.083845;-0.056637;,
       0.010890; 0.083852; 0.002283;,
       0.043277; 0.080468; 0.002594;,
       0.043464; 0.080466;-0.016854;,
       0.011077; 0.083850;-0.017165;,
       0.031706; 0.083850; 0.034915;,
       0.042549; 0.082717; 0.035019;,
       0.042612; 0.082716; 0.028508;,
       0.031768; 0.083849; 0.028404;,
      -0.013555; 0.083860; 0.014711;,
      -0.002712; 0.082727; 0.014815;,
      -0.002649; 0.082726; 0.008304;,
      -0.013493; 0.083859; 0.008199;,
      -0.034577; 0.077413; 0.045001;,
      -0.025150; 0.082892; 0.045091;,
      -0.025088; 0.082891; 0.038579;,
      -0.034514; 0.077412; 0.038489;,
      -0.033708; 0.077402;-0.045497;,
      -0.024282; 0.082882;-0.045407;,
      -0.024220; 0.082881;-0.051919;,
      -0.033646; 0.077402;-0.052009;,
      -0.012849; 0.083037;-0.055112;,
      -0.012911; 0.074334;-0.061679;,
      -0.006399; 0.074269;-0.061654;,
      -0.006337; 0.082973;-0.055087;,
      -0.012541; 0.054125;-0.088013;,
      -0.012603; 0.045422;-0.094580;,
      -0.006092; 0.045357;-0.094555;,
      -0.006030; 0.054060;-0.087988;,
      -0.007147; 0.017931; 0.105955;,
      -0.007301; 0.007432; 0.108894;,
      -0.000790; 0.007362; 0.108983;,
      -0.000636; 0.017861; 0.106045;,
      -0.012921; 0.058003; 0.090815;,
      -0.013075; 0.047504; 0.093753;,
      -0.006564; 0.047434; 0.093843;,
      -0.006410; 0.057933; 0.090904;,
      -0.020072; 0.082086; 0.050163;,
      -0.020289; 0.077142; 0.059879;,
      -0.013779; 0.077114; 0.060010;,
      -0.013562; 0.082058; 0.050295;,
       0.112733; 0.059772; 0.054531;,
       0.131472; 0.049553; 0.071311;,
       0.131472; 0.049553; 0.047576;,
       0.112733; 0.059772; 0.037691;,
       0.112733; 0.059772; 0.037691;,
       0.131472; 0.049553; 0.047576;,
       0.129570; 0.047261; 0.047576;,
       0.110831; 0.057479; 0.037691;,
       0.110831; 0.057479; 0.037691;,
       0.129570; 0.047261; 0.047576;,
       0.129570; 0.047261; 0.071311;,
       0.110831; 0.057479; 0.054531;,
       0.110831; 0.057479; 0.054531;,
       0.129570; 0.047261; 0.071311;,
       0.131472; 0.049553; 0.071311;,
       0.112733; 0.059772; 0.054531;,
       0.110831; 0.057479; 0.054531;,
       0.112733; 0.059772; 0.054531;,
       0.102879; 0.063309; 0.049931;,
       0.101356; 0.061473; 0.049931;,
       0.129570; 0.047261; 0.071311;,
       0.129570; 0.047261; 0.047576;,
       0.152120; 0.013351; 0.052518;,
       0.152120; 0.013351; 0.082002;,
       0.152120; 0.013351; 0.052518;,
       0.155072; 0.013751; 0.052518;,
       0.158628;-0.039568; 0.052518;,
       0.155658;-0.039341; 0.052518;,
       0.131472; 0.049553; 0.047576;,
       0.131472; 0.049553; 0.071311;,
       0.155072; 0.013751; 0.082002;,
       0.155072; 0.013751; 0.052518;,
       0.131472; 0.049553; 0.071311;,
       0.129570; 0.047261; 0.071311;,
       0.152120; 0.013351; 0.082002;,
       0.155072; 0.013751; 0.082002;,
       0.129570; 0.047261; 0.047576;,
       0.131472; 0.049553; 0.047576;,
       0.155072; 0.013751; 0.052518;,
       0.152120; 0.013351; 0.052518;,
       0.155658;-0.039341; 0.075107;,
       0.155658;-0.039341; 0.052518;,
       0.138138;-0.075880; 0.040438;,
       0.138138;-0.075880; 0.063027;,
       0.152120; 0.013351; 0.082002;,
       0.152120; 0.013351; 0.052518;,
       0.155658;-0.039341; 0.052518;,
       0.155658;-0.039341; 0.075107;,
       0.155072; 0.013751; 0.052518;,
       0.155072; 0.013751; 0.082002;,
       0.158629;-0.039568; 0.075107;,
       0.158628;-0.039568; 0.052518;,
       0.155072; 0.013751; 0.082002;,
       0.152120; 0.013351; 0.082002;,
       0.155658;-0.039341; 0.075107;,
       0.158629;-0.039568; 0.075107;,
       0.141108;-0.076107; 0.063027;,
       0.138138;-0.075880; 0.063027;,
       0.101002;-0.084543; 0.022158;,
       0.101197;-0.087515; 0.022158;,
       0.158628;-0.039568; 0.052518;,
       0.158629;-0.039568; 0.075107;,
       0.141108;-0.076107; 0.063027;,
       0.141108;-0.076107; 0.040438;,
       0.158629;-0.039568; 0.075107;,
       0.155658;-0.039341; 0.075107;,
       0.138138;-0.075880; 0.063027;,
       0.141108;-0.076107; 0.063027;,
       0.155658;-0.039341; 0.052518;,
       0.158628;-0.039568; 0.052518;,
       0.141108;-0.076107; 0.040438;,
       0.138138;-0.075880; 0.040438;,
       0.101002;-0.084543; 0.022158;,
       0.101002;-0.084543;-0.000431;,
       0.074538;-0.086504;-0.000831;,
       0.090897;-0.084987; 0.014671;,
       0.138138;-0.075880; 0.040438;,
       0.141108;-0.076107; 0.040438;,
       0.101197;-0.087515;-0.000431;,
       0.101002;-0.084543;-0.000431;,
       0.138138;-0.075880; 0.063027;,
       0.138138;-0.075880; 0.040438;,
       0.101002;-0.084543;-0.000431;,
       0.101002;-0.084543; 0.022158;,
       0.141108;-0.076107; 0.040438;,
       0.141108;-0.076107; 0.063027;,
       0.101197;-0.087515; 0.022158;,
       0.101197;-0.087515;-0.000431;,
       0.090897;-0.084987; 0.014671;,
       0.074538;-0.086504;-0.000831;,
       0.047008;-0.090588; 0.041432;,
       0.068365;-0.084052; 0.044814;,
       0.101197;-0.087515;-0.000431;,
       0.101197;-0.087515; 0.022158;,
       0.091118;-0.087957; 0.014729;,
       0.074758;-0.089474;-0.000773;,
       0.101197;-0.087515; 0.022158;,
       0.101002;-0.084543; 0.022158;,
       0.090897;-0.084987; 0.014671;,
       0.091118;-0.087957; 0.014729;,
       0.101002;-0.084543;-0.000431;,
       0.101197;-0.087515;-0.000431;,
       0.074758;-0.089474;-0.000773;,
       0.074538;-0.086504;-0.000831;,
       0.068500;-0.085755; 0.047253;,
       0.068365;-0.084052; 0.044814;,
       0.059077;-0.076002; 0.062750;,
       0.059144;-0.076972; 0.065565;,
       0.074758;-0.089474;-0.000773;,
       0.091118;-0.087957; 0.014729;,
       0.068500;-0.085755; 0.047253;,
       0.047143;-0.092291; 0.043871;,
       0.091118;-0.087957; 0.014729;,
       0.090897;-0.084987; 0.014671;,
       0.068365;-0.084052; 0.044814;,
       0.068500;-0.085755; 0.047253;,
       0.074538;-0.086504;-0.000831;,
       0.074758;-0.089474;-0.000773;,
       0.047143;-0.092291; 0.043871;,
       0.047008;-0.090588; 0.041432;,
       0.039143;-0.083505;-0.058880;,
       0.060430;-0.076218;-0.060886;,
       0.028306;-0.033046;-0.103463;,
       0.005882;-0.034895;-0.101457;,
       0.047008;-0.090588; 0.041432;,
       0.047143;-0.092291; 0.043871;,
       0.037857;-0.084260; 0.063559;,
       0.037790;-0.083289; 0.060744;,
       0.068365;-0.084052; 0.044814;,
       0.047008;-0.090588; 0.041432;,
       0.037790;-0.083289; 0.060744;,
       0.059077;-0.076002; 0.062750;,
       0.047143;-0.092291; 0.043871;,
       0.068500;-0.085755; 0.047253;,
       0.059144;-0.076972; 0.065565;,
       0.037857;-0.084260; 0.063559;,
       0.039210;-0.084476;-0.061696;,
       0.039143;-0.083505;-0.058880;,
       0.005882;-0.034895;-0.101457;,
       0.005709;-0.035852;-0.104272;,
       0.028133;-0.034004;-0.106278;,
       0.005709;-0.035852;-0.104272;,
       0.008185;-0.029456;-0.105324;,
       0.024493;-0.028892;-0.106778;,
       0.030944;-0.030667; 0.111545;,
       0.008451;-0.031242; 0.109539;,
       0.010516;-0.026031; 0.110784;,
       0.028252;-0.025578; 0.112365;,
       0.037857;-0.084260; 0.063559;,
       0.059144;-0.076972; 0.065565;,
       0.030717;-0.031613; 0.114361;,
       0.008224;-0.032188; 0.112355;,
       0.008224;-0.032188; 0.112355;,
       0.030717;-0.031613; 0.114361;,
       0.028073;-0.026324; 0.114585;,
       0.010337;-0.026778; 0.113004;,
       0.030717;-0.031613; 0.114361;,
       0.030944;-0.030667; 0.111545;,
       0.028252;-0.025578; 0.112365;,
       0.028073;-0.026324; 0.114585;,
       0.008451;-0.031242; 0.109539;,
       0.008224;-0.032188; 0.112355;,
       0.010337;-0.026778; 0.113004;,
       0.010516;-0.026031; 0.110784;,
       0.028073;-0.026324; 0.114585;,
       0.028252;-0.025578; 0.112365;,
       0.010516;-0.026031; 0.110784;,
       0.010337;-0.026778; 0.113004;,
       0.059077;-0.076002; 0.062750;,
       0.037790;-0.083289; 0.060744;,
       0.008451;-0.031242; 0.109539;,
       0.030944;-0.030667; 0.111545;,
       0.060430;-0.076218;-0.060886;,
       0.060497;-0.077189;-0.063702;,
       0.028133;-0.034004;-0.106278;,
       0.028306;-0.033046;-0.103463;,
       0.037790;-0.083289; 0.060744;,
       0.037857;-0.084260; 0.063559;,
       0.008224;-0.032188; 0.112355;,
       0.008451;-0.031242; 0.109539;,
       0.059144;-0.076972; 0.065565;,
       0.059077;-0.076002; 0.062750;,
       0.030944;-0.030667; 0.111545;,
       0.030717;-0.031613; 0.114361;,
       0.102879; 0.063309; 0.036441;,
       0.101356; 0.061473; 0.036441;,
       0.101356; 0.061473; 0.049931;,
       0.102879; 0.063309; 0.049931;,
       0.112733; 0.059772; 0.037691;,
       0.110831; 0.057479; 0.037691;,
       0.101356; 0.061473; 0.036441;,
       0.102879; 0.063309; 0.036441;,
       0.112733; 0.059772; 0.054531;,
       0.112733; 0.059772; 0.037691;,
       0.102879; 0.063309; 0.036441;,
       0.102879; 0.063309; 0.049931;,
       0.110831; 0.057479; 0.037691;,
       0.110831; 0.057479; 0.054531;,
       0.101356; 0.061473; 0.049931;,
       0.101356; 0.061473; 0.036441;,
       0.112733; 0.059772;-0.055764;,
       0.112733; 0.059772;-0.038924;,
       0.131472; 0.049553;-0.048809;,
       0.131472; 0.049553;-0.072545;,
       0.112733; 0.059772;-0.038924;,
       0.110831; 0.057479;-0.038924;,
       0.129570; 0.047261;-0.048809;,
       0.131472; 0.049553;-0.048809;,
       0.110831; 0.057479;-0.038924;,
       0.110831; 0.057479;-0.055764;,
       0.129570; 0.047261;-0.072545;,
       0.129570; 0.047261;-0.048809;,
       0.110831; 0.057479;-0.055764;,
       0.112733; 0.059772;-0.055764;,
       0.131472; 0.049553;-0.072545;,
       0.129570; 0.047261;-0.072545;,
       0.110831; 0.057479;-0.055764;,
       0.101356; 0.061473;-0.051164;,
       0.102879; 0.063309;-0.051164;,
       0.112733; 0.059772;-0.055764;,
       0.129570; 0.047261;-0.072545;,
       0.152120; 0.013351;-0.083235;,
       0.152120; 0.013351;-0.053751;,
       0.129570; 0.047261;-0.048809;,
       0.152120; 0.013351;-0.053751;,
       0.155658;-0.039341;-0.053751;,
       0.158628;-0.039568;-0.053751;,
       0.155072; 0.013751;-0.053751;,
       0.131472; 0.049553;-0.048809;,
       0.155072; 0.013751;-0.053751;,
       0.155072; 0.013751;-0.083235;,
       0.131472; 0.049553;-0.072545;,
       0.131472; 0.049553;-0.072545;,
       0.155072; 0.013751;-0.083235;,
       0.152120; 0.013351;-0.083235;,
       0.129570; 0.047261;-0.072545;,
       0.129570; 0.047261;-0.048809;,
       0.152120; 0.013351;-0.053751;,
       0.155072; 0.013751;-0.053751;,
       0.131472; 0.049553;-0.048809;,
       0.155658;-0.039341;-0.076340;,
       0.138138;-0.075880;-0.064260;,
       0.138138;-0.075880;-0.041671;,
       0.155658;-0.039341;-0.053751;,
       0.152120; 0.013351;-0.083235;,
       0.155658;-0.039341;-0.076340;,
       0.155658;-0.039341;-0.053751;,
       0.152120; 0.013351;-0.053751;,
       0.155072; 0.013751;-0.053751;,
       0.158628;-0.039568;-0.053751;,
       0.158628;-0.039568;-0.076340;,
       0.155072; 0.013751;-0.083235;,
       0.155072; 0.013751;-0.083235;,
       0.158628;-0.039568;-0.076340;,
       0.155658;-0.039341;-0.076340;,
       0.152120; 0.013351;-0.083235;,
       0.141108;-0.076107;-0.064260;,
       0.101197;-0.087515;-0.023391;,
       0.101002;-0.084543;-0.023391;,
       0.138138;-0.075880;-0.064260;,
       0.158628;-0.039568;-0.053751;,
       0.141108;-0.076107;-0.041671;,
       0.141108;-0.076107;-0.064260;,
       0.158628;-0.039568;-0.076340;,
       0.158628;-0.039568;-0.076340;,
       0.141108;-0.076107;-0.064260;,
       0.138138;-0.075880;-0.064260;,
       0.155658;-0.039341;-0.076340;,
       0.155658;-0.039341;-0.053751;,
       0.138138;-0.075880;-0.041671;,
       0.141108;-0.076107;-0.041671;,
       0.158628;-0.039568;-0.053751;,
       0.101002;-0.084543;-0.023391;,
       0.090897;-0.084987;-0.015905;,
       0.074538;-0.086504;-0.000402;,
       0.101002;-0.084543;-0.000802;,
       0.138138;-0.075880;-0.041671;,
       0.101002;-0.084543;-0.000802;,
       0.101197;-0.087515;-0.000802;,
       0.141108;-0.076107;-0.041671;,
       0.138138;-0.075880;-0.064260;,
       0.101002;-0.084543;-0.023391;,
       0.101002;-0.084543;-0.000802;,
       0.138138;-0.075880;-0.041671;,
       0.141108;-0.076107;-0.041671;,
       0.101197;-0.087515;-0.000802;,
       0.101197;-0.087515;-0.023391;,
       0.141108;-0.076107;-0.064260;,
       0.090897;-0.084987;-0.015905;,
       0.068219;-0.082486;-0.042838;,
       0.046863;-0.089022;-0.039456;,
       0.074538;-0.086504;-0.000402;,
       0.101197;-0.087515;-0.000802;,
       0.074758;-0.089474;-0.000460;,
       0.091118;-0.087957;-0.015963;,
       0.101197;-0.087515;-0.023391;,
       0.101197;-0.087515;-0.023391;,
       0.091118;-0.087957;-0.015963;,
       0.090897;-0.084987;-0.015905;,
       0.101002;-0.084543;-0.023391;,
       0.101002;-0.084543;-0.000802;,
       0.074538;-0.086504;-0.000402;,
       0.074758;-0.089474;-0.000460;,
       0.101197;-0.087515;-0.000802;,
       0.068354;-0.084190;-0.045278;,
       0.060497;-0.077189;-0.063702;,
       0.060430;-0.076218;-0.060886;,
       0.068219;-0.082486;-0.042838;,
       0.074758;-0.089474;-0.000460;,
       0.046998;-0.090726;-0.041896;,
       0.068354;-0.084190;-0.045278;,
       0.091118;-0.087957;-0.015963;,
       0.091118;-0.087957;-0.015963;,
       0.068354;-0.084190;-0.045278;,
       0.068219;-0.082486;-0.042838;,
       0.090897;-0.084987;-0.015905;,
       0.074538;-0.086504;-0.000402;,
       0.046863;-0.089022;-0.039456;,
       0.046998;-0.090726;-0.041896;,
       0.074758;-0.089474;-0.000460;,
       0.046863;-0.089022;-0.039456;,
       0.039143;-0.083505;-0.058880;,
       0.039210;-0.084476;-0.061696;,
       0.046998;-0.090726;-0.041896;,
       0.068219;-0.082486;-0.042838;,
       0.060430;-0.076218;-0.060886;,
       0.039143;-0.083505;-0.058880;,
       0.046863;-0.089022;-0.039456;,
       0.046998;-0.090726;-0.041896;,
       0.039210;-0.084476;-0.061696;,
       0.060497;-0.077189;-0.063702;,
       0.068354;-0.084190;-0.045278;,
       0.028306;-0.033046;-0.103463;,
       0.028133;-0.034004;-0.106278;,
       0.024493;-0.028892;-0.106778;,
       0.024651;-0.028205;-0.104737;,
       0.005882;-0.034895;-0.101457;,
       0.028306;-0.033046;-0.103463;,
       0.024651;-0.028205;-0.104737;,
       0.008344;-0.028768;-0.103282;,
       0.005709;-0.035852;-0.104272;,
       0.005882;-0.034895;-0.101457;,
       0.008344;-0.028768;-0.103282;,
       0.008185;-0.029456;-0.105324;,
       0.024493;-0.028892;-0.106778;,
       0.008185;-0.029456;-0.105324;,
       0.008344;-0.028768;-0.103282;,
       0.024651;-0.028205;-0.104737;,
       0.060497;-0.077189;-0.063702;,
       0.039210;-0.084476;-0.061696;,
       0.005709;-0.035852;-0.104272;,
       0.028133;-0.034004;-0.106278;,
       0.102879; 0.063309;-0.037674;,
       0.102879; 0.063309;-0.051164;,
       0.101356; 0.061473;-0.051164;,
       0.101356; 0.061473;-0.037674;,
       0.112733; 0.059772;-0.038924;,
       0.102879; 0.063309;-0.037674;,
       0.101356; 0.061473;-0.037674;,
       0.110831; 0.057479;-0.038924;,
       0.112733; 0.059772;-0.055764;,
       0.102879; 0.063309;-0.051164;,
       0.102879; 0.063309;-0.037674;,
       0.112733; 0.059772;-0.038924;,
       0.110831; 0.057479;-0.038924;,
       0.101356; 0.061473;-0.037674;,
       0.101356; 0.061473;-0.051164;,
       0.110831; 0.057479;-0.055764;;
      168;
      4;3,2,1,0;,
      4;7,6,5,4;,
      4;11,10,9,8;,
      4;15,14,13,12;,
      4;19,18,17,16;,
      4;23,22,21,20;,
      4;27,26,25,24;,
      4;31,30,29,28;,
      4;35,34,33,32;,
      4;39,38,37,36;,
      4;43,42,41,40;,
      4;47,46,45,44;,
      4;51,50,49,48;,
      4;55,54,53,52;,
      4;59,58,57,56;,
      4;63,62,61,60;,
      4;67,66,65,64;,
      4;71,70,69,68;,
      4;75,74,73,72;,
      4;79,78,77,76;,
      4;83,82,81,80;,
      4;87,86,85,84;,
      4;91,90,89,88;,
      4;95,94,93,92;,
      4;99,98,97,96;,
      4;103,102,101,100;,
      4;107,106,105,104;,
      4;111,110,109,108;,
      4;115,114,113,112;,
      4;119,118,117,116;,
      4;123,122,121,120;,
      4;127,126,125,124;,
      4;131,130,129,128;,
      4;135,134,133,132;,
      4;139,138,137,136;,
      4;143,142,141,140;,
      4;147,146,145,144;,
      4;151,150,149,148;,
      4;155,154,153,152;,
      4;159,158,157,156;,
      4;163,162,161,160;,
      4;167,166,165,164;,
      4;171,170,169,168;,
      4;175,174,173,172;,
      4;179,178,177,176;,
      4;183,182,181,180;,
      4;187,186,185,184;,
      4;191,190,189,188;,
      4;195,194,193,192;,
      4;199,198,197,196;,
      4;203,202,201,200;,
      4;207,206,205,204;,
      4;211,210,209,208;,
      4;215,214,213,212;,
      4;219,218,217,216;,
      4;223,222,221,220;,
      4;227,226,225,224;,
      4;231,230,229,228;,
      4;235,234,233,232;,
      4;239,238,237,236;,
      4;243,242,241,240;,
      4;247,246,245,244;,
      4;251,250,249,248;,
      4;255,254,253,252;,
      4;259,258,257,256;,
      4;263,262,261,260;,
      4;267,266,265,264;,
      4;271,270,269,268;,
      4;275,274,273,272;,
      4;279,278,277,276;,
      4;283,282,281,280;,
      4;287,286,285,284;,
      4;291,290,289,288;,
      4;295,294,293,292;,
      4;299,298,297,296;,
      4;303,302,301,300;,
      4;307,306,305,304;,
      4;311,310,309,308;,
      4;315,314,313,312;,
      4;319,318,317,316;,
      4;323,322,321,320;,
      4;327,326,325,324;,
      4;331,330,329,328;,
      4;335,334,333,332;,
      4;339,338,337,336;,
      4;343,342,341,340;,
      4;347,346,345,344;,
      4;351,350,349,348;,
      4;355,354,353,352;,
      4;359,358,357,356;,
      4;363,362,361,360;,
      4;367,366,365,364;,
      4;371,370,369,368;,
      4;375,374,373,372;,
      4;379,378,377,376;,
      4;383,382,381,380;,
      4;387,386,385,384;,
      4;391,390,389,388;,
      4;395,394,393,392;,
      4;399,398,397,396;,
      4;403,402,401,400;,
      4;407,406,405,404;,
      4;411,410,409,408;,
      4;415,414,413,412;,
      4;419,418,417,416;,
      4;423,422,421,420;,
      4;427,426,425,424;,
      4;431,430,429,428;,
      4;435,434,433,432;,
      4;439,438,437,436;,
      4;443,442,441,440;,
      4;447,446,445,444;,
      4;451,450,449,448;,
      4;455,454,453,452;,
      4;459,458,457,456;,
      4;463,462,461,460;,
      4;467,466,465,464;,
      4;471,470,469,468;,
      4;475,474,473,472;,
      4;479,478,477,476;,
      4;483,482,481,480;,
      4;487,486,485,484;,
      4;491,490,489,488;,
      4;495,494,493,492;,
      4;499,498,497,496;,
      4;503,502,501,500;,
      4;507,506,505,504;,
      4;511,510,509,508;,
      4;515,514,513,512;,
      4;519,518,517,516;,
      4;523,522,521,520;,
      4;527,526,525,524;,
      4;531,530,529,528;,
      4;535,534,533,532;,
      4;539,538,537,536;,
      4;543,542,541,540;,
      4;547,546,545,544;,
      4;551,550,549,548;,
      4;555,554,553,552;,
      4;559,558,557,556;,
      4;563,562,561,560;,
      4;567,566,565,564;,
      4;571,570,569,568;,
      4;575,574,573,572;,
      4;579,578,577,576;,
      4;583,582,581,580;,
      4;587,586,585,584;,
      4;591,590,589,588;,
      4;595,594,593,592;,
      4;599,598,597,596;,
      4;603,602,601,600;,
      4;607,606,605,604;,
      4;611,610,609,608;,
      4;615,614,613,612;,
      4;619,618,617,616;,
      4;623,622,621,620;,
      4;627,626,625,624;,
      4;631,630,629,628;,
      4;635,634,633,632;,
      4;639,638,637,636;,
      4;643,642,641,640;,
      4;647,646,645,644;,
      4;651,650,649,648;,
      4;655,654,653,652;,
      4;659,658,657,656;,
      4;663,662,661,660;,
      4;667,666,665,664;,
      4;671,670,669,668;;
      MeshNormals { // Plane_008 normals
        672;
        -0.010743;-0.001038; 0.999939;,
        -0.010743;-0.001038; 0.999939;,
        -0.010743;-0.001038; 0.999939;,
        -0.010743;-0.001038; 0.999939;,
         0.538713;-0.665944;-0.516007;,
         0.527573;-0.551042; 0.646474;,
        -0.474593;-0.589373; 0.653737;,
        -0.463240;-0.706809;-0.534593;,
        -0.463240;-0.706809;-0.534593;,
        -0.474593;-0.589373; 0.653737;,
        -0.676901; 0.535325; 0.505142;,
        -0.666219; 0.424848;-0.612873;,
        -0.666219; 0.424848;-0.612873;,
        -0.676901; 0.535325; 0.505142;,
         0.612995; 0.593890; 0.521012;,
         0.623890; 0.481582;-0.615467;,
         0.623890; 0.481582;-0.615467;,
         0.612995; 0.593890; 0.521012;,
         0.527573;-0.551042; 0.646474;,
         0.538713;-0.665944;-0.516007;,
        -0.463240;-0.706809;-0.534593;,
        -0.666219; 0.424848;-0.612873;,
         0.623890; 0.481582;-0.615467;,
         0.538713;-0.665944;-0.516007;,
        -0.676901; 0.535325; 0.505142;,
        -0.474593;-0.589373; 0.653737;,
         0.527573;-0.551042; 0.646474;,
         0.612995; 0.593890; 0.521012;,
        -0.582995;-0.577105; 0.571825;,
        -0.582690; 0.577563; 0.571703;,
        -0.571612; 0.577441;-0.582904;,
        -0.571917;-0.577258;-0.582781;,
        -0.571917;-0.577258;-0.582781;,
        -0.571612; 0.577441;-0.582904;,
         0.582995; 0.577105;-0.571825;,
         0.582690;-0.577563;-0.571703;,
         0.582690;-0.577563;-0.571703;,
         0.582995; 0.577105;-0.571825;,
         0.571917; 0.577258; 0.582781;,
         0.571612;-0.577441; 0.582904;,
         0.571612;-0.577441; 0.582904;,
         0.571917; 0.577258; 0.582781;,
        -0.582690; 0.577563; 0.571703;,
        -0.582995;-0.577105; 0.571825;,
        -0.571917;-0.577258;-0.582781;,
         0.582690;-0.577563;-0.571703;,
         0.571612;-0.577441; 0.582904;,
        -0.582995;-0.577105; 0.571825;,
         0.582995; 0.577105;-0.571825;,
        -0.571612; 0.577441;-0.582904;,
        -0.582690; 0.577563; 0.571703;,
         0.571917; 0.577258; 0.582781;,
         0.621693;-0.770531; 0.140416;,
         0.615955; 0.180883; 0.766717;,
        -0.586963; 0.166021; 0.792383;,
        -0.581133;-0.798395; 0.157537;,
        -0.581133;-0.798395; 0.157537;,
        -0.586963; 0.166021; 0.792383;,
        -0.573351; 0.801019;-0.172033;,
        -0.567553;-0.163488;-0.806940;,
        -0.567553;-0.163488;-0.806940;,
        -0.573351; 0.801019;-0.172033;,
         0.530381; 0.827143;-0.185766;,
         0.536271;-0.151891;-0.830226;,
         0.536271;-0.151891;-0.830226;,
         0.530381; 0.827143;-0.185766;,
         0.615955; 0.180883; 0.766717;,
         0.621693;-0.770531; 0.140416;,
        -0.581133;-0.798395; 0.157537;,
        -0.567553;-0.163488;-0.806940;,
         0.536271;-0.151891;-0.830226;,
         0.621693;-0.770531; 0.140416;,
        -0.573351; 0.801019;-0.172033;,
        -0.586963; 0.166021; 0.792383;,
         0.615955; 0.180883; 0.766717;,
         0.530381; 0.827143;-0.185766;,
         0.640980;-0.565966; 0.518418;,
         0.641285; 0.565722; 0.518296;,
        -0.584857; 0.577563; 0.569506;,
        -0.585162;-0.577105; 0.569628;,
        -0.585162;-0.577105; 0.569628;,
        -0.584857; 0.577563; 0.569506;,
        -0.569231; 0.577380;-0.585253;,
        -0.569567;-0.577197;-0.585131;,
        -0.569567;-0.577197;-0.585131;,
        -0.569231; 0.577380;-0.585253;,
         0.507553; 0.590716;-0.627216;,
         0.507218;-0.591144;-0.627094;,
         0.507218;-0.591144;-0.627094;,
         0.507553; 0.590716;-0.627216;,
         0.641285; 0.565722; 0.518296;,
         0.640980;-0.565966; 0.518418;,
        -0.585162;-0.577105; 0.569628;,
        -0.569567;-0.577197;-0.585131;,
         0.507218;-0.591144;-0.627094;,
         0.640980;-0.565966; 0.518418;,
        -0.569231; 0.577380;-0.585253;,
        -0.584857; 0.577563; 0.569506;,
         0.641285; 0.565722; 0.518296;,
         0.507553; 0.590716;-0.627216;,
         0.434736;-0.089877; 0.896023;,
         0.441847; 0.877834; 0.184729;,
        -0.580432; 0.805994; 0.115909;,
        -0.587237;-0.124363; 0.799768;,
        -0.587237;-0.124363; 0.799768;,
        -0.580432; 0.805994; 0.115909;,
        -0.567522; 0.122257;-0.814203;,
        -0.574328;-0.808161;-0.130284;,
        -0.574328;-0.808161;-0.130284;,
        -0.567522; 0.122257;-0.814203;,
         0.696249; 0.178411;-0.695242;,
         0.689627;-0.723411;-0.032380;,
         0.689627;-0.723411;-0.032380;,
         0.696249; 0.178411;-0.695242;,
         0.441847; 0.877834; 0.184729;,
         0.434736;-0.089877; 0.896023;,
        -0.587237;-0.124363; 0.799768;,
        -0.574328;-0.808161;-0.130284;,
         0.689627;-0.723411;-0.032380;,
         0.434736;-0.089877; 0.896023;,
        -0.567522; 0.122257;-0.814203;,
        -0.580432; 0.805994; 0.115909;,
         0.441847; 0.877834; 0.184729;,
         0.696249; 0.178411;-0.695242;,
         0.673452; 0.308359; 0.671804;,
         0.683920; 0.603442;-0.409955;,
        -0.575213; 0.707144;-0.411084;,
        -0.585986; 0.403333; 0.702780;,
        -0.585986; 0.403333; 0.702780;,
        -0.575213; 0.707144;-0.411084;,
        -0.568438;-0.406995;-0.714957;,
        -0.579211;-0.710868; 0.398938;,
        -0.579211;-0.710868; 0.398938;,
        -0.568438;-0.406995;-0.714957;,
         0.464522;-0.476730;-0.746269;,
         0.453352;-0.791864; 0.409101;,
         0.453352;-0.791864; 0.409101;,
         0.464522;-0.476730;-0.746269;,
         0.683920; 0.603442;-0.409955;,
         0.673452; 0.308359; 0.671804;,
        -0.585986; 0.403333; 0.702780;,
        -0.579211;-0.710868; 0.398938;,
         0.453352;-0.791864; 0.409101;,
         0.673452; 0.308359; 0.671804;,
        -0.568438;-0.406995;-0.714957;,
        -0.575213; 0.707144;-0.411084;,
         0.683920; 0.603442;-0.409955;,
         0.464522;-0.476730;-0.746269;,
         0.622028; 0.506241; 0.597308;,
         0.632923; 0.555559;-0.539140;,
        -0.708792; 0.449324;-0.543748;,
        -0.719474; 0.401105; 0.566942;,
        -0.719474; 0.401105; 0.566942;,
        -0.708792; 0.449324;-0.543748;,
        -0.399731;-0.655965;-0.640187;,
        -0.411389;-0.708640; 0.573168;,
        -0.411389;-0.708640; 0.573168;,
        -0.399731;-0.655965;-0.640187;,
         0.529710;-0.591052;-0.608264;,
         0.518448;-0.641987; 0.564837;,
         0.518448;-0.641987; 0.564837;,
         0.529710;-0.591052;-0.608264;,
         0.632923; 0.555559;-0.539140;,
         0.622028; 0.506241; 0.597308;,
        -0.719474; 0.401105; 0.566942;,
        -0.411389;-0.708640; 0.573168;,
         0.518448;-0.641987; 0.564837;,
         0.622028; 0.506241; 0.597308;,
        -0.399731;-0.655965;-0.640187;,
        -0.708792; 0.449324;-0.543748;,
         0.632923; 0.555559;-0.539140;,
         0.529710;-0.591052;-0.608264;,
         0.484634;-0.794366;-0.366131;,
         0.473891;-0.435499; 0.765313;,
        -0.543870;-0.402997; 0.736045;,
        -0.533280;-0.756493;-0.378521;,
        -0.533280;-0.756493;-0.378521;,
        -0.543870;-0.402997; 0.736045;,
        -0.619434; 0.690237; 0.373943;,
        -0.609088; 0.345195;-0.714011;,
        -0.609088; 0.345195;-0.714011;,
        -0.619434; 0.690237; 0.373943;,
         0.658010; 0.641346; 0.394513;,
         0.668233; 0.300363;-0.680593;,
         0.668233; 0.300363;-0.680593;,
         0.658010; 0.641346; 0.394513;,
         0.473891;-0.435499; 0.765313;,
         0.484634;-0.794366;-0.366131;,
        -0.533280;-0.756493;-0.378521;,
        -0.609088; 0.345195;-0.714011;,
         0.668233; 0.300363;-0.680593;,
         0.484634;-0.794366;-0.366131;,
        -0.619434; 0.690237; 0.373943;,
        -0.543870;-0.402997; 0.736045;,
         0.473891;-0.435499; 0.765313;,
         0.658010; 0.641346; 0.394513;,
         0.314554; 0.662313; 0.679952;,
         0.327555; 0.662160;-0.673940;,
        -0.528336; 0.635914;-0.562517;,
        -0.539018; 0.636036; 0.552141;,
        -0.288797;-0.605182;-0.741813;,
         0.327555; 0.662160;-0.673940;,
         0.806696; 0.157262;-0.569628;,
         0.162847;-0.801233;-0.575701;,
         0.162847;-0.801233;-0.575701;,
         0.806696; 0.157262;-0.569628;,
         0.795618; 0.157384; 0.584979;,
         0.151769;-0.801111; 0.578906;,
         0.151769;-0.801111; 0.578906;,
         0.795618; 0.157384; 0.584979;,
         0.314554; 0.662313; 0.679952;,
        -0.302988;-0.605029; 0.736290;,
        -0.288797;-0.605182;-0.741813;,
         0.162847;-0.801233;-0.575701;,
         0.151769;-0.801111; 0.578906;,
        -0.302988;-0.605029; 0.736290;,
         0.806696; 0.157262;-0.569628;,
         0.327555; 0.662160;-0.673940;,
         0.314554; 0.662313; 0.679952;,
         0.795618; 0.157384; 0.584979;,
        -0.617328;-0.509629; 0.599292;,
        -0.539018; 0.636036; 0.552141;,
        -0.528336; 0.635914;-0.562517;,
        -0.605731;-0.509751;-0.610889;,
        -0.288797;-0.605182;-0.741813;,
        -0.302988;-0.605029; 0.736290;,
        -0.617328;-0.509629; 0.599292;,
        -0.605731;-0.509751;-0.610889;,
         0.327555; 0.662160;-0.673940;,
        -0.288797;-0.605182;-0.741813;,
        -0.605731;-0.509751;-0.610889;,
        -0.528336; 0.635914;-0.562517;,
        -0.302988;-0.605029; 0.736290;,
         0.314554; 0.662313; 0.679952;,
        -0.539018; 0.636036; 0.552141;,
        -0.617328;-0.509629; 0.599292;,
        -0.642994;-0.588641; 0.489914;,
        -0.642659; 0.589129; 0.489792;,
        -0.633137; 0.589007;-0.502152;,
        -0.633473;-0.588763;-0.502029;,
        -0.633473;-0.588763;-0.502029;,
        -0.633137; 0.589007;-0.502152;,
         0.511948; 0.567339;-0.644978;,
         0.511612;-0.567766;-0.644856;,
         0.511612;-0.567766;-0.644856;,
         0.511948; 0.567339;-0.644978;,
         0.499466; 0.567492; 0.654561;,
         0.499161;-0.567614; 0.654683;,
         0.499161;-0.567614; 0.654683;,
         0.499466; 0.567492; 0.654561;,
        -0.642659; 0.589129; 0.489792;,
        -0.642994;-0.588641; 0.489914;,
        -0.633473;-0.588763;-0.502029;,
         0.511612;-0.567766;-0.644856;,
         0.499161;-0.567614; 0.654683;,
        -0.642994;-0.588641; 0.489914;,
         0.511948; 0.567339;-0.644978;,
        -0.633137; 0.589007;-0.502152;,
        -0.642659; 0.589129; 0.489792;,
         0.499466; 0.567492; 0.654561;,
         0.103885; 0.994568; 0.000855;,
         0.103885; 0.994568; 0.000855;,
         0.103885; 0.994568; 0.000855;,
         0.103885; 0.994568; 0.000855;,
         0.103885; 0.994568; 0.000855;,
         0.103885; 0.994568; 0.000855;,
         0.103885; 0.994568; 0.000855;,
         0.103885; 0.994568; 0.000855;,
         0.103885; 0.994568; 0.000855;,
         0.103885; 0.994568; 0.000855;,
         0.103885; 0.994568; 0.000855;,
         0.103885; 0.994568; 0.000855;,
         0.103885; 0.994568; 0.000855;,
         0.103885; 0.994568; 0.000855;,
         0.103885; 0.994568; 0.000855;,
         0.103885; 0.994568; 0.000855;,
        -0.502487; 0.864559;-0.004913;,
        -0.502487; 0.864559;-0.004913;,
        -0.502487; 0.864559;-0.004913;,
        -0.502487; 0.864559;-0.004913;,
        -0.502487; 0.864559;-0.004913;,
        -0.502487; 0.864559;-0.004913;,
        -0.502487; 0.864559;-0.004913;,
        -0.502487; 0.864559;-0.004913;,
        -0.008972;-0.602222; 0.798242;,
        -0.008972;-0.602222; 0.798242;,
        -0.008972;-0.602222; 0.798242;,
        -0.008972;-0.602222; 0.798242;,
        -0.008972;-0.602222; 0.798242;,
        -0.008972;-0.602222; 0.798242;,
        -0.008972;-0.602222; 0.798242;,
        -0.008972;-0.602222; 0.798242;,
        -0.010315; 0.269662; 0.962889;,
        -0.010315; 0.269662; 0.962889;,
        -0.010315; 0.269662; 0.962889;,
        -0.010315; 0.269662; 0.962889;,
        -0.010315; 0.269662; 0.962889;,
        -0.010315; 0.269662; 0.962889;,
        -0.010315; 0.269662; 0.962889;,
        -0.010315; 0.269662; 0.962889;,
        -0.005249; 0.891232; 0.453475;,
        -0.005249; 0.891232; 0.453475;,
        -0.005249; 0.891232; 0.453475;,
        -0.005249; 0.891232; 0.453475;,
         0.046999; 0.853572; 0.518815;,
         0.299814; 0.712180; 0.634693;,
         0.639210; 0.483963;-0.597613;,
         0.464644; 0.517685;-0.718375;,
         0.464644; 0.517685;-0.718375;,
         0.639210; 0.483963;-0.597613;,
        -0.301187;-0.654134;-0.693777;,
        -0.127293;-0.698843;-0.703818;,
        -0.127293;-0.698843;-0.703818;,
        -0.301187;-0.654134;-0.693777;,
        -0.682607;-0.162481; 0.712485;,
        -0.636097;-0.445387; 0.630055;,
        -0.636097;-0.445387; 0.630055;,
        -0.682607;-0.162481; 0.712485;,
         0.299814; 0.712180; 0.634693;,
         0.046999; 0.853572; 0.518815;,
        -0.636097;-0.445387; 0.630055;,
         0.046999; 0.853572; 0.518815;,
        -0.291147; 0.853664; 0.431806;,
        -0.883755;-0.176092; 0.433515;,
        -0.682607;-0.162481; 0.712485;,
        -0.301187;-0.654134;-0.693777;,
        -0.596149;-0.260475;-0.759423;,
        -0.607532;-0.131474; 0.783319;,
        -0.596149;-0.260475;-0.759423;,
         0.738273; 0.222571;-0.636677;,
         0.782159;-0.078951;-0.618030;,
        -0.646809; 0.259529;-0.717093;,
         0.639210; 0.483963;-0.597613;,
         0.299814; 0.712180; 0.634693;,
         0.661641; 0.240944; 0.710013;,
         0.738273; 0.222571;-0.636677;,
         0.299814; 0.712180; 0.634693;,
        -0.682607;-0.162481; 0.712485;,
        -0.607532;-0.131474; 0.783319;,
         0.661641; 0.240944; 0.710013;,
        -0.301187;-0.654134;-0.693777;,
         0.639210; 0.483963;-0.597613;,
         0.738273; 0.222571;-0.636677;,
        -0.596149;-0.260475;-0.759423;,
        -0.631184;-0.079806; 0.771477;,
        -0.646809; 0.259529;-0.717093;,
        -0.082766; 0.859523;-0.504288;,
        -0.764367;-0.014649; 0.644581;,
        -0.607532;-0.131474; 0.783319;,
        -0.596149;-0.260475;-0.759423;,
        -0.646809; 0.259529;-0.717093;,
        -0.631184;-0.079806; 0.771477;,
         0.738273; 0.222571;-0.636677;,
         0.661641; 0.240944; 0.710013;,
         0.715506;-0.251564; 0.651692;,
         0.782159;-0.078951;-0.618030;,
         0.661641; 0.240944; 0.710013;,
        -0.607532;-0.131474; 0.783319;,
        -0.631184;-0.079806; 0.771477;,
         0.715506;-0.251564; 0.651692;,
         0.368084;-0.686911; 0.626606;,
        -0.764367;-0.014649; 0.644581;,
        -0.598559; 0.560564; 0.572222;,
        -0.211798;-0.858852; 0.466353;,
         0.782159;-0.078951;-0.618030;,
         0.715506;-0.251564; 0.651692;,
         0.368084;-0.686911; 0.626606;,
         0.613086;-0.473067;-0.632649;,
         0.715506;-0.251564; 0.651692;,
        -0.631184;-0.079806; 0.771477;,
        -0.764367;-0.014649; 0.644581;,
         0.368084;-0.686911; 0.626606;,
        -0.646809; 0.259529;-0.717093;,
         0.782159;-0.078951;-0.618030;,
         0.613086;-0.473067;-0.632649;,
        -0.082766; 0.859523;-0.504288;,
        -0.598559; 0.560564; 0.572222;,
         0.157933; 0.759056;-0.631519;,
        -0.441542; 0.483291;-0.755913;,
        -0.025300; 0.936094; 0.350749;,
        -0.082766; 0.859523;-0.504288;,
         0.613086;-0.473067;-0.632649;,
         0.353648;-0.506485;-0.786370;,
         0.157933; 0.759056;-0.631519;,
        -0.764367;-0.014649; 0.644581;,
        -0.082766; 0.859523;-0.504288;,
         0.157933; 0.759056;-0.631519;,
        -0.598559; 0.560564; 0.572222;,
         0.613086;-0.473067;-0.632649;,
         0.368084;-0.686911; 0.626606;,
        -0.211798;-0.858852; 0.466353;,
         0.353648;-0.506485;-0.786370;,
        -0.025300; 0.936094; 0.350749;,
        -0.441542; 0.483291;-0.755913;,
        -0.776543; 0.307077;-0.550127;,
         0.404187; 0.905667; 0.127873;,
         0.353648;-0.506485;-0.786370;,
        -0.211798;-0.858852; 0.466353;,
         0.135655;-0.871090; 0.471969;,
        -0.266182;-0.731986;-0.627155;,
        -0.211798;-0.858852; 0.466353;,
        -0.598559; 0.560564; 0.572222;,
        -0.025300; 0.936094; 0.350749;,
         0.135655;-0.871090; 0.471969;,
         0.157933; 0.759056;-0.631519;,
         0.353648;-0.506485;-0.786370;,
        -0.266182;-0.731986;-0.627155;,
        -0.441542; 0.483291;-0.755913;,
         0.761467;-0.467299; 0.449171;,
         0.404187; 0.905667; 0.127873;,
         0.503433; 0.827967;-0.246895;,
         0.741722;-0.316965; 0.591021;,
        -0.266182;-0.731986;-0.627155;,
         0.135655;-0.871090; 0.471969;,
         0.761467;-0.467299; 0.449171;,
        -0.423658;-0.905576; 0.020417;,
         0.135655;-0.871090; 0.471969;,
        -0.025300; 0.936094; 0.350749;,
         0.404187; 0.905667; 0.127873;,
         0.761467;-0.467299; 0.449171;,
        -0.441542; 0.483291;-0.755913;,
        -0.266182;-0.731986;-0.627155;,
        -0.423658;-0.905576; 0.020417;,
        -0.776543; 0.307077;-0.550127;,
        -0.809503; 0.154271; 0.566454;,
         0.516221; 0.831294; 0.205969;,
         0.614582; 0.701743; 0.360271;,
        -0.808191; 0.200018; 0.553880;,
        -0.776543; 0.307077;-0.550127;,
        -0.423658;-0.905576; 0.020417;,
        -0.490493;-0.808191; 0.325877;,
        -0.798669; 0.170080;-0.577197;,
         0.404187; 0.905667; 0.127873;,
        -0.776543; 0.307077;-0.550127;,
        -0.798669; 0.170080;-0.577197;,
         0.503433; 0.827967;-0.246895;,
        -0.423658;-0.905576; 0.020417;,
         0.761467;-0.467299; 0.449171;,
         0.741722;-0.316965; 0.591021;,
        -0.490493;-0.808191; 0.325877;,
        -0.433302;-0.838679;-0.329875;,
        -0.809503; 0.154271; 0.566454;,
        -0.808191; 0.200018; 0.553880;,
        -0.741722;-0.312326;-0.593493;,
         0.581927;-0.026521;-0.812769;,
        -0.741722;-0.312326;-0.593493;,
        -0.514817; 0.499680;-0.696554;,
         0.288003; 0.550493;-0.783532;,
         0.684500; 0.630360;-0.366161;,
        -0.807245; 0.229347;-0.543779;,
        -0.418958; 0.788598;-0.450056;,
         0.441572; 0.815546;-0.373913;,
        -0.490493;-0.808191; 0.325877;,
         0.741722;-0.316965; 0.591021;,
         0.589740;-0.106143; 0.800562;,
        -0.735527;-0.286233; 0.614032;,
        -0.735527;-0.286233; 0.614032;,
         0.589740;-0.106143; 0.800562;,
         0.347148; 0.551714; 0.758324;,
        -0.513932; 0.524979; 0.678396;,
         0.589740;-0.106143; 0.800562;,
         0.684500; 0.630360;-0.366161;,
         0.441572; 0.815546;-0.373913;,
         0.347148; 0.551714; 0.758324;,
        -0.807245; 0.229347;-0.543779;,
        -0.735527;-0.286233; 0.614032;,
        -0.513932; 0.524979; 0.678396;,
        -0.418958; 0.788598;-0.450056;,
         0.347148; 0.551714; 0.758324;,
         0.441572; 0.815546;-0.373913;,
        -0.418958; 0.788598;-0.450056;,
        -0.513932; 0.524979; 0.678396;,
         0.503433; 0.827967;-0.246895;,
        -0.798669; 0.170080;-0.577197;,
        -0.807245; 0.229347;-0.543779;,
         0.684500; 0.630360;-0.366161;,
         0.516221; 0.831294; 0.205969;,
         0.749962;-0.302316;-0.588305;,
         0.581927;-0.026521;-0.812769;,
         0.614582; 0.701743; 0.360271;,
        -0.798669; 0.170080;-0.577197;,
        -0.490493;-0.808191; 0.325877;,
        -0.735527;-0.286233; 0.614032;,
        -0.807245; 0.229347;-0.543779;,
         0.741722;-0.316965; 0.591021;,
         0.503433; 0.827967;-0.246895;,
         0.684500; 0.630360;-0.366161;,
         0.589740;-0.106143; 0.800562;,
        -0.179388; 0.746574;-0.640614;,
        -0.775445;-0.205084;-0.597156;,
        -0.883755;-0.176092; 0.433515;,
        -0.291147; 0.853664; 0.431806;,
         0.464644; 0.517685;-0.718375;,
        -0.127293;-0.698843;-0.703818;,
        -0.775445;-0.205084;-0.597156;,
        -0.179388; 0.746574;-0.640614;,
         0.046999; 0.853572; 0.518815;,
         0.464644; 0.517685;-0.718375;,
        -0.179388; 0.746574;-0.640614;,
        -0.291147; 0.853664; 0.431806;,
        -0.127293;-0.698843;-0.703818;,
        -0.636097;-0.445387; 0.630055;,
        -0.883755;-0.176092; 0.433515;,
        -0.775445;-0.205084;-0.597156;,
         0.046999; 0.853572;-0.518815;,
         0.464644; 0.517685; 0.718375;,
         0.639210; 0.483963; 0.597613;,
         0.299814; 0.712180;-0.634693;,
         0.464644; 0.517685; 0.718375;,
        -0.127293;-0.698843; 0.703818;,
        -0.301187;-0.654134; 0.693777;,
         0.639210; 0.483963; 0.597613;,
        -0.127293;-0.698843; 0.703818;,
        -0.636097;-0.445387;-0.630055;,
        -0.682607;-0.162481;-0.712455;,
        -0.301187;-0.654134; 0.693777;,
        -0.636097;-0.445387;-0.630055;,
         0.046999; 0.853572;-0.518815;,
         0.299814; 0.712180;-0.634693;,
        -0.682607;-0.162481;-0.712455;,
        -0.636097;-0.445387;-0.630055;,
        -0.883755;-0.176092;-0.433515;,
        -0.291147; 0.853664;-0.431806;,
         0.046999; 0.853572;-0.518815;,
        -0.682607;-0.162481;-0.712455;,
        -0.607532;-0.131474;-0.783319;,
        -0.596149;-0.260475; 0.759423;,
        -0.301187;-0.654134; 0.693777;,
        -0.596149;-0.260475; 0.759423;,
        -0.646809; 0.259529; 0.717093;,
         0.782159;-0.078951; 0.618030;,
         0.738273; 0.222571; 0.636677;,
         0.639210; 0.483963; 0.597613;,
         0.738273; 0.222571; 0.636677;,
         0.661641; 0.240944;-0.710013;,
         0.299814; 0.712180;-0.634693;,
         0.299814; 0.712180;-0.634693;,
         0.661641; 0.240944;-0.710013;,
        -0.607532;-0.131474;-0.783319;,
        -0.682607;-0.162481;-0.712455;,
        -0.301187;-0.654134; 0.693777;,
        -0.596149;-0.260475; 0.759423;,
         0.738273; 0.222571; 0.636677;,
         0.639210; 0.483963; 0.597613;,
        -0.631184;-0.079806;-0.771477;,
        -0.764367;-0.014649;-0.644581;,
        -0.082766; 0.859523; 0.504288;,
        -0.646809; 0.259529; 0.717093;,
        -0.607532;-0.131474;-0.783319;,
        -0.631184;-0.079806;-0.771477;,
        -0.646809; 0.259529; 0.717093;,
        -0.596149;-0.260475; 0.759423;,
         0.738273; 0.222571; 0.636677;,
         0.782159;-0.078951; 0.618030;,
         0.715506;-0.251564;-0.651692;,
         0.661641; 0.240944;-0.710013;,
         0.661641; 0.240944;-0.710013;,
         0.715506;-0.251564;-0.651692;,
        -0.631184;-0.079806;-0.771477;,
        -0.607532;-0.131474;-0.783319;,
         0.368084;-0.686911;-0.626606;,
        -0.211798;-0.858852;-0.466353;,
        -0.598559; 0.560564;-0.572222;,
        -0.764367;-0.014649;-0.644581;,
         0.782159;-0.078951; 0.618030;,
         0.613086;-0.473098; 0.632649;,
         0.368084;-0.686911;-0.626606;,
         0.715506;-0.251564;-0.651692;,
         0.715506;-0.251564;-0.651692;,
         0.368084;-0.686911;-0.626606;,
        -0.764367;-0.014649;-0.644581;,
        -0.631184;-0.079806;-0.771477;,
        -0.646809; 0.259529; 0.717093;,
        -0.082766; 0.859523; 0.504288;,
         0.613086;-0.473098; 0.632649;,
         0.782159;-0.078951; 0.618030;,
        -0.598559; 0.560564;-0.572222;,
        -0.018036; 0.935331;-0.353282;,
        -0.424146; 0.475631; 0.770623;,
         0.157933; 0.759056; 0.631550;,
        -0.082766; 0.859523; 0.504288;,
         0.157933; 0.759056; 0.631550;,
         0.353648;-0.506485; 0.786370;,
         0.613086;-0.473098; 0.632649;,
        -0.764367;-0.014649;-0.644581;,
        -0.598559; 0.560564;-0.572222;,
         0.157933; 0.759056; 0.631550;,
        -0.082766; 0.859523; 0.504288;,
         0.613086;-0.473098; 0.632649;,
         0.353648;-0.506485; 0.786370;,
        -0.211798;-0.858852;-0.466353;,
         0.368084;-0.686911;-0.626606;,
        -0.018036; 0.935331;-0.353282;,
         0.370251; 0.919919;-0.128880;,
        -0.772240; 0.332743; 0.541185;,
        -0.424146; 0.475631; 0.770623;,
         0.353648;-0.506485; 0.786370;,
        -0.258583;-0.743492; 0.616688;,
         0.112949;-0.864956;-0.488907;,
        -0.211798;-0.858852;-0.466353;,
        -0.211798;-0.858852;-0.466353;,
         0.112949;-0.864956;-0.488907;,
        -0.018036; 0.935331;-0.353282;,
        -0.598559; 0.560564;-0.572222;,
         0.157933; 0.759056; 0.631550;,
        -0.424146; 0.475631; 0.770623;,
        -0.258583;-0.743492; 0.616688;,
         0.353648;-0.506485; 0.786370;,
         0.765557;-0.467055;-0.442427;,
         0.749962;-0.302316;-0.588305;,
         0.516221; 0.831294; 0.205969;,
         0.370251; 0.919919;-0.128880;,
        -0.258583;-0.743492; 0.616688;,
        -0.444807;-0.895505; 0.012543;,
         0.765557;-0.467055;-0.442427;,
         0.112949;-0.864956;-0.488907;,
         0.112949;-0.864956;-0.488907;,
         0.765557;-0.467055;-0.442427;,
         0.370251; 0.919919;-0.128880;,
        -0.018036; 0.935331;-0.353282;,
        -0.424146; 0.475631; 0.770623;,
        -0.772240; 0.332743; 0.541185;,
        -0.444807;-0.895505; 0.012543;,
        -0.258583;-0.743492; 0.616688;,
        -0.772240; 0.332743; 0.541185;,
        -0.809503; 0.154271; 0.566454;,
        -0.433302;-0.838679;-0.329875;,
        -0.444807;-0.895505; 0.012543;,
         0.370251; 0.919919;-0.128880;,
         0.516221; 0.831294; 0.205969;,
        -0.809503; 0.154271; 0.566454;,
        -0.772240; 0.332743; 0.541185;,
        -0.444807;-0.895505; 0.012543;,
        -0.433302;-0.838679;-0.329875;,
         0.749962;-0.302316;-0.588305;,
         0.765557;-0.467055;-0.442427;,
         0.614582; 0.701743; 0.360271;,
         0.581927;-0.026521;-0.812769;,
         0.288003; 0.550493;-0.783532;,
         0.380627; 0.857356; 0.346385;,
        -0.808191; 0.200018; 0.553880;,
         0.614582; 0.701743; 0.360271;,
         0.380627; 0.857356; 0.346385;,
        -0.426618; 0.803522; 0.415082;,
        -0.741722;-0.312326;-0.593493;,
        -0.808191; 0.200018; 0.553880;,
        -0.426618; 0.803522; 0.415082;,
        -0.514817; 0.499680;-0.696554;,
         0.288003; 0.550493;-0.783532;,
        -0.514817; 0.499680;-0.696554;,
        -0.426618; 0.803522; 0.415082;,
         0.380627; 0.857356; 0.346385;,
         0.749962;-0.302316;-0.588305;,
        -0.433302;-0.838679;-0.329875;,
        -0.741722;-0.312326;-0.593493;,
         0.581927;-0.026521;-0.812769;,
        -0.179388; 0.746574; 0.640614;,
        -0.291147; 0.853664;-0.431806;,
        -0.883755;-0.176092;-0.433515;,
        -0.775445;-0.205084; 0.597156;,
         0.464644; 0.517685; 0.718375;,
        -0.179388; 0.746574; 0.640614;,
        -0.775445;-0.205084; 0.597156;,
        -0.127293;-0.698843; 0.703818;,
         0.046999; 0.853572;-0.518815;,
        -0.291147; 0.853664;-0.431806;,
        -0.179388; 0.746574; 0.640614;,
         0.464644; 0.517685; 0.718375;,
        -0.127293;-0.698843; 0.703818;,
        -0.775445;-0.205084; 0.597156;,
        -0.883755;-0.176092;-0.433515;,
        -0.636097;-0.445387;-0.630055;;
        168;
        4;3,2,1,0;,
        4;7,6,5,4;,
        4;11,10,9,8;,
        4;15,14,13,12;,
        4;19,18,17,16;,
        4;23,22,21,20;,
        4;27,26,25,24;,
        4;31,30,29,28;,
        4;35,34,33,32;,
        4;39,38,37,36;,
        4;43,42,41,40;,
        4;47,46,45,44;,
        4;51,50,49,48;,
        4;55,54,53,52;,
        4;59,58,57,56;,
        4;63,62,61,60;,
        4;67,66,65,64;,
        4;71,70,69,68;,
        4;75,74,73,72;,
        4;79,78,77,76;,
        4;83,82,81,80;,
        4;87,86,85,84;,
        4;91,90,89,88;,
        4;95,94,93,92;,
        4;99,98,97,96;,
        4;103,102,101,100;,
        4;107,106,105,104;,
        4;111,110,109,108;,
        4;115,114,113,112;,
        4;119,118,117,116;,
        4;123,122,121,120;,
        4;127,126,125,124;,
        4;131,130,129,128;,
        4;135,134,133,132;,
        4;139,138,137,136;,
        4;143,142,141,140;,
        4;147,146,145,144;,
        4;151,150,149,148;,
        4;155,154,153,152;,
        4;159,158,157,156;,
        4;163,162,161,160;,
        4;167,166,165,164;,
        4;171,170,169,168;,
        4;175,174,173,172;,
        4;179,178,177,176;,
        4;183,182,181,180;,
        4;187,186,185,184;,
        4;191,190,189,188;,
        4;195,194,193,192;,
        4;199,198,197,196;,
        4;203,202,201,200;,
        4;207,206,205,204;,
        4;211,210,209,208;,
        4;215,214,213,212;,
        4;219,218,217,216;,
        4;223,222,221,220;,
        4;227,226,225,224;,
        4;231,230,229,228;,
        4;235,234,233,232;,
        4;239,238,237,236;,
        4;243,242,241,240;,
        4;247,246,245,244;,
        4;251,250,249,248;,
        4;255,254,253,252;,
        4;259,258,257,256;,
        4;263,262,261,260;,
        4;267,266,265,264;,
        4;271,270,269,268;,
        4;275,274,273,272;,
        4;279,278,277,276;,
        4;283,282,281,280;,
        4;287,286,285,284;,
        4;291,290,289,288;,
        4;295,294,293,292;,
        4;299,298,297,296;,
        4;303,302,301,300;,
        4;307,306,305,304;,
        4;311,310,309,308;,
        4;315,314,313,312;,
        4;319,318,317,316;,
        4;323,322,321,320;,
        4;327,326,325,324;,
        4;331,330,329,328;,
        4;335,334,333,332;,
        4;339,338,337,336;,
        4;343,342,341,340;,
        4;347,346,345,344;,
        4;351,350,349,348;,
        4;355,354,353,352;,
        4;359,358,357,356;,
        4;363,362,361,360;,
        4;367,366,365,364;,
        4;371,370,369,368;,
        4;375,374,373,372;,
        4;379,378,377,376;,
        4;383,382,381,380;,
        4;387,386,385,384;,
        4;391,390,389,388;,
        4;395,394,393,392;,
        4;399,398,397,396;,
        4;403,402,401,400;,
        4;407,406,405,404;,
        4;411,410,409,408;,
        4;415,414,413,412;,
        4;419,418,417,416;,
        4;423,422,421,420;,
        4;427,426,425,424;,
        4;431,430,429,428;,
        4;435,434,433,432;,
        4;439,438,437,436;,
        4;443,442,441,440;,
        4;447,446,445,444;,
        4;451,450,449,448;,
        4;455,454,453,452;,
        4;459,458,457,456;,
        4;463,462,461,460;,
        4;467,466,465,464;,
        4;471,470,469,468;,
        4;475,474,473,472;,
        4;479,478,477,476;,
        4;483,482,481,480;,
        4;487,486,485,484;,
        4;491,490,489,488;,
        4;495,494,493,492;,
        4;499,498,497,496;,
        4;503,502,501,500;,
        4;507,506,505,504;,
        4;511,510,509,508;,
        4;515,514,513,512;,
        4;519,518,517,516;,
        4;523,522,521,520;,
        4;527,526,525,524;,
        4;531,530,529,528;,
        4;535,534,533,532;,
        4;539,538,537,536;,
        4;543,542,541,540;,
        4;547,546,545,544;,
        4;551,550,549,548;,
        4;555,554,553,552;,
        4;559,558,557,556;,
        4;563,562,561,560;,
        4;567,566,565,564;,
        4;571,570,569,568;,
        4;575,574,573,572;,
        4;579,578,577,576;,
        4;583,582,581,580;,
        4;587,586,585,584;,
        4;591,590,589,588;,
        4;595,594,593,592;,
        4;599,598,597,596;,
        4;603,602,601,600;,
        4;607,606,605,604;,
        4;611,610,609,608;,
        4;615,614,613,612;,
        4;619,618,617,616;,
        4;623,622,621,620;,
        4;627,626,625,624;,
        4;631,630,629,628;,
        4;635,634,633,632;,
        4;639,638,637,636;,
        4;643,642,641,640;,
        4;647,646,645,644;,
        4;651,650,649,648;,
        4;655,654,653,652;,
        4;659,658,657,656;,
        4;663,662,661,660;,
        4;667,666,665,664;,
        4;671,670,669,668;;
      } // End of Plane_008 normals
      MeshTextureCoords { // Plane_008 UV coordinates
        672;
         0.673369; 0.730159;,
         0.673369; 0.707630;,
         0.659931; 0.707632;,
         0.659931; 0.730160;,
         0.327321; 0.276312;,
         0.316661; 0.276338;,
         0.316661; 0.364847;,
         0.327321; 0.364821;,
         0.828417; 0.511289;,
         0.839122; 0.511287;,
         0.839122; 0.430555;,
         0.828417; 0.430557;,
         0.987302; 0.916073;,
         0.997936; 0.916160;,
         0.997936; 0.790617;,
         0.987302; 0.790530;,
         0.410229; 0.029899;,
         0.399526; 0.029919;,
         0.399525; 0.108220;,
         0.410229; 0.108201;,
         0.867863; 0.389796;,
         0.946246; 0.417068;,
         0.946246; 0.291219;,
         0.867713; 0.301265;,
         0.945861; 0.129985;,
         0.867329; 0.157388;,
         0.867179; 0.245928;,
         0.945861; 0.255846;,
         0.169980; 0.106966;,
         0.163325; 0.106963;,
         0.163325; 0.241260;,
         0.169980; 0.241263;,
         0.577697; 0.124136;,
         0.571024; 0.124135;,
         0.571024; 0.203089;,
         0.577697; 0.203090;,
         0.163325; 0.379695;,
         0.169988; 0.379697;,
         0.169988; 0.245399;,
         0.163325; 0.245397;,
         0.577694; 0.041039;,
         0.571024; 0.041038;,
         0.571024; 0.120000;,
         0.577694; 0.120001;,
         0.331448; 0.246668;,
         0.410229; 0.246650;,
         0.410229; 0.112354;,
         0.331448; 0.112373;,
         0.942258; 0.545264;,
         0.863658; 0.545357;,
         0.863658; 0.679640;,
         0.942258; 0.679546;,
         0.687585; 0.182318;,
         0.696341; 0.182329;,
         0.696341; 0.026607;,
         0.687585; 0.026596;,
         0.331448; 0.108190;,
         0.342135; 0.108220;,
         0.342135; 0.029354;,
         0.331448; 0.029323;,
         0.986566; 0.311947;,
         0.977666; 0.311844;,
         0.977666; 0.455014;,
         0.986566; 0.455117;,
         0.932866; 0.461874;,
         0.922174; 0.461809;,
         0.922174; 0.541064;,
         0.932866; 0.541129;,
         0.479879; 0.091020;,
         0.414357; 0.089711;,
         0.414391; 0.232835;,
         0.479879; 0.246668;,
         0.257125; 0.247646;,
         0.323627; 0.244577;,
         0.323627; 0.089275;,
         0.257160; 0.104839;,
         0.983174; 0.781861;,
         0.972475; 0.781861;,
         0.972475; 0.916160;,
         0.983174; 0.916160;,
         0.217565; 0.109219;,
         0.228241; 0.109227;,
         0.228241; 0.030269;,
         0.217565; 0.030261;,
         0.918046; 0.425968;,
         0.907342; 0.425966;,
         0.907342; 0.541128;,
         0.918046; 0.541129;,
         0.925458; 0.125710;,
         0.936146; 0.125851;,
         0.936146; 0.046967;,
         0.925458; 0.046826;,
         0.924997; 0.689733;,
         0.846176; 0.689714;,
         0.846248; 0.804835;,
         0.924997; 0.823961;,
         0.704756; 0.187483;,
         0.783570; 0.187575;,
         0.783570; 0.053656;,
         0.704828; 0.072627;,
         0.683249; 0.019014;,
         0.674433; 0.019022;,
         0.674433; 0.153321;,
         0.683249; 0.153313;,
         0.252998; 0.030288;,
         0.242315; 0.030311;,
         0.242315; 0.109227;,
         0.252998; 0.109204;,
         0.964871; 0.455117;,
         0.973539; 0.455011;,
         0.973539; 0.288435;,
         0.964871; 0.288541;,
         0.853943; 0.431043;,
         0.843249; 0.431206;,
         0.843249; 0.511289;,
         0.853943; 0.511126;,
         0.095136; 0.379697;,
         0.158985; 0.378048;,
         0.158985; 0.211546;,
         0.095057; 0.245479;,
         0.909035; 0.831827;,
         0.846254; 0.828095;,
         0.846176; 0.961991;,
         0.909035; 0.997933;,
         0.960743; 0.291219;,
         0.950373; 0.291427;,
         0.950373; 0.455117;,
         0.960743; 0.454909;,
         0.346262; 0.108220;,
         0.356963; 0.108202;,
         0.356963; 0.029407;,
         0.346262; 0.029424;,
         0.986716; 0.121635;,
         0.976409; 0.121530;,
         0.976409; 0.255741;,
         0.986716; 0.255846;,
         0.968123; 0.920662;,
         0.957420; 0.920615;,
         0.957420; 0.997886;,
         0.968123; 0.997933;,
         0.859531; 0.515450;,
         0.784159; 0.515423;,
         0.784248; 0.649722;,
         0.859531; 0.679640;,
         0.487516; 0.363772;,
         0.563418; 0.364149;,
         0.563418; 0.199977;,
         0.487605; 0.229489;,
         0.972812; 0.679640;,
         0.983512; 0.679616;,
         0.983512; 0.545736;,
         0.972812; 0.545759;,
         0.483389; 0.280385;,
         0.472685; 0.280339;,
         0.472685; 0.362168;,
         0.483389; 0.362214;,
         0.371781; 0.029822;,
         0.361090; 0.029801;,
         0.361090; 0.108199;,
         0.371781; 0.108220;,
         0.395398; 0.030100;,
         0.384694; 0.030105;,
         0.384694; 0.108220;,
         0.395398; 0.108215;,
         0.566281; 0.061544;,
         0.487516; 0.103586;,
         0.487727; 0.182043;,
         0.566281; 0.195842;,
         0.174116; 0.205527;,
         0.252998; 0.247646;,
         0.252998; 0.113361;,
         0.174326; 0.127078;,
         0.921331; 0.002067;,
         0.911105; 0.002158;,
         0.911105; 0.125851;,
         0.921331; 0.125760;,
         0.913162; 0.907598;,
         0.923865; 0.907588;,
         0.923865; 0.828095;,
         0.913162; 0.828105;,
         0.577697; 0.207469;,
         0.567545; 0.207224;,
         0.567545; 0.363904;,
         0.577697; 0.364149;,
         0.787683; 0.094642;,
         0.798385; 0.094565;,
         0.798385; 0.016861;,
         0.787683; 0.016937;,
         0.787786; 0.245692;,
         0.863052; 0.255846;,
         0.863052; 0.098776;,
         0.787683; 0.121963;,
         0.863586; 0.259981;,
         0.787787; 0.270569;,
         0.787683; 0.394311;,
         0.863586; 0.417068;,
         0.101429; 0.997319;,
         0.101429; 0.693088;,
         0.002064; 0.692711;,
         0.002064; 0.996942;,
         0.956971; 0.599965;,
         0.946386; 0.601557;,
         0.958100; 0.679640;,
         0.968685; 0.678047;,
         0.474837; 0.670615;,
         0.483389; 0.670644;,
         0.483389; 0.366377;,
         0.474837; 0.366349;,
         0.972282; 0.077885;,
         0.961700; 0.076286;,
         0.949989; 0.154355;,
         0.960571; 0.155953;,
         0.103148; 0.688281;,
         0.169988; 0.688577;,
         0.169988; 0.384315;,
         0.103148; 0.384020;,
         0.169988; 0.693702;,
         0.101429; 0.693088;,
         0.101429; 0.997319;,
         0.169988; 0.997933;,
         0.327321; 0.368982;,
         0.316638; 0.368986;,
         0.316638; 0.673249;,
         0.327321; 0.673245;,
         0.103148; 0.688281;,
         0.103148; 0.384020;,
         0.012373; 0.383831;,
         0.012373; 0.688093;,
         0.946386; 0.601557;,
         0.956971; 0.599965;,
         0.968685; 0.505935;,
         0.959727; 0.500064;,
         0.960571; 0.155953;,
         0.949989; 0.154355;,
         0.963327; 0.255846;,
         0.972282; 0.249981;,
         0.008245; 0.502906;,
         0.002828; 0.502903;,
         0.002827; 0.688574;,
         0.008245; 0.688577;,
         0.163779; 0.102829;,
         0.169211; 0.102829;,
         0.169918; 0.023591;,
         0.163325; 0.023591;,
         0.687585; 0.411825;,
         0.694169; 0.411827;,
         0.694169; 0.186465;,
         0.687585; 0.186463;,
         0.972475; 0.768764;,
         0.979065; 0.768763;,
         0.979065; 0.689714;,
         0.973636; 0.689715;,
         0.704756; 0.397238;,
         0.783556; 0.417068;,
         0.783556; 0.191709;,
         0.704756; 0.211568;,
         0.090929; 0.154361;,
         0.012373; 0.174305;,
         0.012373; 0.359957;,
         0.090929; 0.379697;,
         0.953292; 0.997915;,
         0.953292; 0.930623;,
         0.913162; 0.930641;,
         0.913162; 0.997933;,
         0.824290; 0.511271;,
         0.824290; 0.443978;,
         0.784159; 0.443997;,
         0.784159; 0.511289;,
         0.624804; 0.707630;,
         0.624804; 0.730160;,
         0.638240; 0.730154;,
         0.638240; 0.707624;,
         0.642367; 0.707630;,
         0.642367; 0.730160;,
         0.655804; 0.730154;,
         0.655804; 0.707624;,
         0.642367; 0.684765;,
         0.642367; 0.703344;,
         0.655803; 0.703489;,
         0.655803; 0.684911;,
         0.624804; 0.684765;,
         0.624804; 0.703344;,
         0.638239; 0.703489;,
         0.638239; 0.684911;,
         0.659929; 0.684879;,
         0.659929; 0.702448;,
         0.673366; 0.702335;,
         0.673366; 0.684765;,
         0.690930; 0.702334;,
         0.690930; 0.684765;,
         0.677493; 0.684879;,
         0.677493; 0.702448;,
         0.708499; 0.730160;,
         0.708499; 0.708279;,
         0.695061; 0.708277;,
         0.695061; 0.730158;,
         0.677496; 0.708277;,
         0.677496; 0.730158;,
         0.690934; 0.730160;,
         0.690934; 0.708279;,
         0.726022; 0.730160;,
         0.726022; 0.709910;,
         0.712626; 0.709441;,
         0.712626; 0.729692;,
         0.898678; 0.502177;,
         0.903215; 0.449069;,
         0.863658; 0.477994;,
         0.870613; 0.522699;,
         0.303600; 0.680984;,
         0.261873; 0.695054;,
         0.264896; 0.700414;,
         0.306624; 0.686345;,
         0.181304; 0.036230;,
         0.174116; 0.079973;,
         0.213437; 0.109227;,
         0.209203; 0.056985;,
         0.601592; 0.668589;,
         0.560891; 0.649436;,
         0.557332; 0.654456;,
         0.598034; 0.673609;,
         0.601592; 0.668589;,
         0.598034; 0.673609;,
         0.619011; 0.679640;,
         0.621862; 0.675618;,
         0.730896; 0.997933;,
         0.779794; 0.995101;,
         0.765518; 0.922502;,
         0.704775; 0.926020;,
         0.206714; 0.761206;,
         0.200867; 0.759308;,
         0.174116; 0.866474;,
         0.180230; 0.867103;,
         0.700629; 0.418751;,
         0.651733; 0.415961;,
         0.625989; 0.491145;,
         0.686729; 0.494612;,
         0.557332; 0.654456;,
         0.560891; 0.649436;,
         0.508878; 0.582435;,
         0.502867; 0.583721;,
         0.264896; 0.700414;,
         0.261873; 0.695054;,
         0.200867; 0.759308;,
         0.206714; 0.761206;,
         0.712689; 0.816208;,
         0.759225; 0.813513;,
         0.779794; 0.739497;,
         0.733257; 0.742192;,
         0.704775; 0.926020;,
         0.765518; 0.922502;,
         0.759225; 0.813513;,
         0.712689; 0.816208;,
         0.686729; 0.494612;,
         0.625989; 0.491145;,
         0.633942; 0.602238;,
         0.680477; 0.604894;,
         0.502867; 0.583721;,
         0.508878; 0.582435;,
         0.493662; 0.474842;,
         0.487516; 0.474838;,
         0.518307; 0.397554;,
         0.524453; 0.397557;,
         0.600889; 0.376408;,
         0.600026; 0.370314;,
         0.680477; 0.604894;,
         0.633942; 0.602238;,
         0.654094; 0.676984;,
         0.700629; 0.679640;,
         0.487516; 0.474838;,
         0.493662; 0.474842;,
         0.524453; 0.397557;,
         0.518307; 0.397554;,
         0.180230; 0.867103;,
         0.174116; 0.866474;,
         0.196228; 0.947046;,
         0.202343; 0.947675;,
         0.378626; 0.326197;,
         0.332018; 0.326302;,
         0.331448; 0.380551;,
         0.363267; 0.346992;,
         0.202343; 0.947675;,
         0.196228; 0.947046;,
         0.272813; 0.984253;,
         0.274298; 0.978278;,
         0.462398; 0.250803;,
         0.415789; 0.250908;,
         0.332018; 0.326302;,
         0.378626; 0.326197;,
         0.263508; 0.673249;,
         0.310100; 0.671816;,
         0.223121; 0.592768;,
         0.176529; 0.594201;,
         0.363267; 0.346992;,
         0.331448; 0.380551;,
         0.418983; 0.436468;,
         0.425591; 0.393445;,
         0.176529; 0.594201;,
         0.223121; 0.592768;,
         0.207152; 0.572454;,
         0.174116; 0.539756;,
         0.600026; 0.370314;,
         0.600889; 0.376408;,
         0.621862; 0.374372;,
         0.620946; 0.368284;,
         0.274298; 0.978278;,
         0.272813; 0.984253;,
         0.325786; 0.997933;,
         0.327321; 0.991971;,
         0.586181; 0.303091;,
         0.591858; 0.305449;,
         0.586715; 0.264478;,
         0.581903; 0.260648;,
         0.174116; 0.539756;,
         0.207152; 0.572454;,
         0.272820; 0.523531;,
         0.264404; 0.480088;,
         0.616614; 0.364149;,
         0.621862; 0.360944;,
         0.591858; 0.305449;,
         0.586181; 0.303091;,
         0.842049; 0.727421;,
         0.836675; 0.724431;,
         0.788866; 0.803547;,
         0.794444; 0.800961;,
         0.114660; 0.193607;,
         0.158985; 0.207412;,
         0.158985; 0.093322;,
         0.119421; 0.069075;,
         0.794444; 0.800961;,
         0.788866; 0.803547;,
         0.783921; 0.847806;,
         0.788577; 0.843784;,
         0.425591; 0.393445;,
         0.418983; 0.436468;,
         0.458654; 0.456515;,
         0.462398; 0.413759;,
         0.264404; 0.480088;,
         0.272820; 0.523531;,
         0.310100; 0.502448;,
         0.304517; 0.459113;,
         0.625989; 0.295711;,
         0.630722; 0.299641;,
         0.674962; 0.169946;,
         0.670284; 0.165985;,
         0.670089; 0.121297;,
         0.630540; 0.145705;,
         0.642500; 0.153321;,
         0.670306; 0.134270;,
         0.017089; 0.040366;,
         0.057939; 0.018300;,
         0.048922; 0.011079;,
         0.016711; 0.028478;,
         0.107647; 0.022347;,
         0.062066; 0.013419;,
         0.066789; 0.120540;,
         0.107647; 0.142740;,
         0.107647; 0.142740;,
         0.066789; 0.120540;,
         0.066103; 0.132721;,
         0.098320; 0.150226;,
         0.608962; 0.122953;,
         0.613709; 0.126834;,
         0.621862; 0.119545;,
         0.618119; 0.116485;,
         0.834327; 0.987271;,
         0.829753; 0.991342;,
         0.838442; 0.997933;,
         0.842049; 0.994723;,
         0.003635; 0.498769;,
         0.008245; 0.498616;,
         0.008245; 0.461986;,
         0.003635; 0.462139;,
         0.012373; 0.150226;,
         0.057939; 0.141444;,
         0.057939; 0.018300;,
         0.017089; 0.040366;,
         0.934065; 0.781223;,
         0.929124; 0.784886;,
         0.956322; 0.909194;,
         0.961214; 0.905505;,
         0.788577; 0.843784;,
         0.783921; 0.847806;,
         0.829753; 0.991342;,
         0.834327; 0.987271;,
         0.581903; 0.260648;,
         0.586715; 0.264478;,
         0.613709; 0.126834;,
         0.608962; 0.122953;,
         0.466108; 0.632677;,
         0.469659; 0.632666;,
         0.469659; 0.604779;,
         0.466108; 0.604789;,
         0.303600; 0.680984;,
         0.306624; 0.686345;,
         0.327321; 0.681678;,
         0.324899; 0.677383;,
         0.898678; 0.502177;,
         0.870613; 0.522699;,
         0.880733; 0.541129;,
         0.903215; 0.524690;,
         0.181304; 0.036230;,
         0.209203; 0.056985;,
         0.213437; 0.035411;,
         0.191089; 0.018785;,
         0.902477; 0.073129;,
         0.874241; 0.052844;,
         0.867179; 0.097260;,
         0.906977; 0.125851;,
         0.459711; 0.994354;,
         0.462754; 0.989005;,
         0.421408; 0.975526;,
         0.418364; 0.980875;,
         0.589809; 0.094882;,
         0.617622; 0.074014;,
         0.621862; 0.021592;,
         0.582659; 0.051006;,
         0.600539; 0.694538;,
         0.596965; 0.689528;,
         0.556728; 0.707550;,
         0.560302; 0.712559;,
         0.600539; 0.694538;,
         0.620677; 0.687788;,
         0.617814; 0.683774;,
         0.596965; 0.689528;,
         0.731134; 0.421202;,
         0.704756; 0.493100;,
         0.765498; 0.496619;,
         0.780032; 0.424036;,
         0.363633; 0.914925;,
         0.337564; 0.808978;,
         0.331448; 0.809585;,
         0.357779; 0.916802;,
         0.700648; 0.995173;,
         0.685546; 0.919375;,
         0.624804; 0.922803;,
         0.651750; 0.997933;,
         0.556728; 0.707550;,
         0.502724; 0.777684;,
         0.508740; 0.778950;,
         0.560302; 0.712559;,
         0.421408; 0.975526;,
         0.363633; 0.914925;,
         0.357779; 0.916802;,
         0.418364; 0.980875;,
         0.712671; 0.602912;,
         0.733495; 0.676943;,
         0.780032; 0.679640;,
         0.759208; 0.605608;,
         0.704756; 0.493100;,
         0.712671; 0.602912;,
         0.759208; 0.605608;,
         0.765498; 0.496619;,
         0.685546; 0.919375;,
         0.679325; 0.809091;,
         0.632788; 0.811717;,
         0.624804; 0.922803;,
         0.502724; 0.777684;,
         0.487516; 0.887189;,
         0.493663; 0.887165;,
         0.508740; 0.778950;,
         0.518236; 0.965320;,
         0.599035; 0.995407;,
         0.599881; 0.989308;,
         0.524382; 0.965296;,
         0.679325; 0.809091;,
         0.700648; 0.734295;,
         0.654112; 0.736921;,
         0.632788; 0.811717;,
         0.487516; 0.887189;,
         0.518236; 0.965320;,
         0.524382; 0.965296;,
         0.493663; 0.887165;,
         0.337564; 0.808978;,
         0.359595; 0.727624;,
         0.353479; 0.728232;,
         0.331448; 0.809585;,
         0.220677; 0.376047;,
         0.206134; 0.354613;,
         0.175585; 0.319719;,
         0.174116; 0.373955;,
         0.359595; 0.727624;,
         0.430336; 0.694279;,
         0.428874; 0.688301;,
         0.353479; 0.728232;,
         0.301941; 0.454979;,
         0.220677; 0.376047;,
         0.174116; 0.373955;,
         0.255379; 0.452887;,
         0.415368; 0.460958;,
         0.331753; 0.543199;,
         0.378366; 0.542890;,
         0.461981; 0.460649;,
         0.206134; 0.354613;,
         0.263786; 0.310019;,
         0.258465; 0.266729;,
         0.175585; 0.319719;,
         0.331753; 0.543199;,
         0.331448; 0.597695;,
         0.363186; 0.563786;,
         0.378366; 0.542890;,
         0.599035; 0.995407;,
         0.619780; 0.997933;,
         0.620677; 0.991843;,
         0.599881; 0.989308;,
         0.430336; 0.694279;,
         0.483389; 0.680739;,
         0.481879; 0.674778;,
         0.428874; 0.688301;,
         0.937873; 0.744987;,
         0.929124; 0.784886;,
         0.934065; 0.781223;,
         0.943627; 0.742822;,
         0.331448; 0.597695;,
         0.417360; 0.654398;,
         0.423948; 0.610673;,
         0.363186; 0.563786;,
         0.963211; 0.689714;,
         0.937873; 0.744987;,
         0.943627; 0.742822;,
         0.968348; 0.693093;,
         0.683458; 0.408732;,
         0.640819; 0.340426;,
         0.635191; 0.337950;,
         0.678143; 0.411827;,
         0.640819; 0.340426;,
         0.630722; 0.299641;,
         0.625989; 0.295711;,
         0.635191; 0.337950;,
         0.263786; 0.310019;,
         0.301941; 0.294684;,
         0.299419; 0.251781;,
         0.258465; 0.266729;,
         0.417360; 0.654398;,
         0.458242; 0.670644;,
         0.461981; 0.627132;,
         0.423948; 0.610673;,
         0.961214; 0.905505;,
         0.956322; 0.909194;,
         0.964815; 0.916160;,
         0.968348; 0.913476;,
         0.119421; 0.069075;,
         0.158985; 0.093322;,
         0.158848; 0.080704;,
         0.131030; 0.061769;,
         0.670284; 0.165985;,
         0.674962; 0.169946;,
         0.683458; 0.160338;,
         0.680081; 0.157456;,
         0.470300; 0.670644;,
         0.470300; 0.636975;,
         0.466108; 0.636811;,
         0.466108; 0.670480;,
         0.670306; 0.009499;,
         0.625989; 0.023462;,
         0.630540; 0.145705;,
         0.670089; 0.121297;,
         0.469659; 0.600634;,
         0.469659; 0.572747;,
         0.466108; 0.572757;,
         0.466108; 0.600644;,
         0.459711; 0.994354;,
         0.480951; 0.997933;,
         0.483389; 0.993648;,
         0.462754; 0.989005;,
         0.902477; 0.073129;,
         0.906977; 0.050688;,
         0.884358; 0.034439;,
         0.874241; 0.052844;,
         0.589809; 0.094882;,
         0.599581; 0.112350;,
         0.621862; 0.095633;,
         0.617622; 0.074014;;
      } // End of Plane_008 UV coordinates
      MeshMaterialList { // Plane_008 material list
        1;
        168;
        0,
        0,
        0,
        0,
        0,
        0,
        0,
        0,
        0,
        0,
        0,
        0,
        0,
        0,
        0,
        0,
        0,
        0,
        0,
        0,
        0,
        0,
        0,
        0,
        0,
        0,
        0,
        0,
        0,
        0,
        0,
        0,
        0,
        0,
        0,
        0,
        0,
        0,
        0,
        0,
        0,
        0,
        0,
        0,
        0,
        0,
        0,
        0,
        0,
        0,
        0,
        0,
        0,
        0,
        0,
        0,
        0,
        0,
        0,
        0,
        0,
        0,
        0,
        0,
        0,
        0,
        0,
        0,
        0,
        0,
        0,
        0,
        0,
        0,
        0,
        0,
        0,
        0,
        0,
        0,
        0,
        0,
        0,
        0,
        0,
        0,
        0,
        0,
        0,
        0,
        0,
        0,
        0,
        0,
        0,
        0,
        0,
        0,
        0,
        0,
        0,
        0,
        0,
        0,
        0,
        0,
        0,
        0,
        0,
        0,
        0,
        0,
        0,
        0,
        0,
        0,
        0,
        0,
        0,
        0,
        0,
        0,
        0,
        0,
        0,
        0,
        0,
        0,
        0,
        0,
        0,
        0,
        0,
        0,
        0,
        0,
        0,
        0,
        0,
        0,
        0,
        0,
        0,
        0,
        0,
        0,
        0,
        0,
        0,
        0,
        0,
        0,
        0,
        0,
        0,
        0,
        0,
        0,
        0,
        0,
        0,
        0,
        0,
        0,
        0,
        0,
        0,
        0;
        Material Material_001 {
           0.640000; 0.640000; 0.640000; 1.000000;;
           249.019608;
           0.400000; 0.400000; 0.400000;;
           0.000000; 0.000000; 0.000000;;
        }
      } // End of Plane_008 material list
    } // End of Plane_008 mesh
  } // End of Plane_008
} // End of Root
