xof 0303txt 0032

Frame Root {
  FrameTransformMatrix {
     1.000000, 0.000000, 0.000000, 0.000000,
     0.000000,-0.000000, 1.000000, 0.000000,
     0.000000, 1.000000, 0.000000, 0.000000,
     0.000000, 0.000000, 0.000000, 1.000000;;
  }
  Frame Plane_001 {
    FrameTransformMatrix {
       1.000000, 0.000000, 0.000000, 0.000000,
       0.000000, 1.000000, 0.000000, 0.000000,
       0.000000, 0.000000, 1.000000, 0.000000,
       0.000000, 0.000000, 0.000000, 1.000000;;
    }
    Mesh { // Plane_001 mesh
      596;
       0.131542;-0.020653;-0.059714;,
       0.103438;-0.017889;-0.059714;,
       0.106201; 0.023067;-0.054872;,
       0.134306; 0.020303;-0.054872;,
       0.103438;-0.017889;-0.059714;,
       0.131542;-0.020653;-0.059714;,
       0.131151;-0.072558;-0.049990;,
       0.103046;-0.069794;-0.049990;,
       0.103046;-0.069794;-0.049990;,
       0.131151;-0.072558;-0.049990;,
       0.135100;-0.085028;-0.007660;,
       0.106996;-0.082264;-0.007660;,
       0.106996;-0.082264;-0.007660;,
       0.135100;-0.085028;-0.007660;,
       0.134507;-0.069232; 0.041037;,
       0.106402;-0.066468; 0.041037;,
       0.106402;-0.066468; 0.041037;,
       0.134507;-0.069232; 0.041037;,
       0.133939;-0.019882; 0.055959;,
       0.105834;-0.017118; 0.055959;,
       0.105834;-0.017118; 0.055959;,
       0.133939;-0.019882; 0.055959;,
       0.134506; 0.006327; 0.051086;,
       0.106402; 0.009091; 0.051086;,
       0.106402; 0.009091; 0.051086;,
       0.134506; 0.006327; 0.051086;,
       0.139424; 0.021677; 0.044479;,
       0.111320; 0.024441; 0.044479;,
       0.154081; 0.013077; 0.047255;,
       0.153946; 0.011516; 0.042391;,
       0.161701; 0.012693; 0.048495;,
       0.161874; 0.014693; 0.054726;,
       0.157876; 0.057026; 0.021621;,
       0.102622; 0.061797; 0.021621;,
       0.101790; 0.052164; 0.036063;,
       0.157044; 0.047393; 0.036063;,
       0.100850; 0.041272; 0.044898;,
       0.101790; 0.052164; 0.036063;,
       0.092998; 0.056477; 0.036846;,
       0.091970; 0.044575; 0.046500;,
       0.102568; 0.061170;-0.003481;,
       0.103008; 0.066261;-0.003481;,
       0.158261; 0.061490;-0.003481;,
       0.157821; 0.056399;-0.003481;,
       0.157509; 0.052778; 0.018805;,
       0.102255; 0.057549; 0.018805;,
       0.102568; 0.061170;-0.003481;,
       0.157821; 0.056399;-0.003481;,
       0.102622; 0.061797; 0.021621;,
       0.157876; 0.057026; 0.021621;,
       0.158261; 0.061490;-0.003481;,
       0.103008; 0.066261;-0.003481;,
       0.157044; 0.047393; 0.036063;,
       0.101790; 0.052164; 0.036063;,
       0.100850; 0.041272; 0.044898;,
       0.156103; 0.036501; 0.044898;,
       0.157876; 0.057026; 0.021621;,
       0.157044; 0.047393; 0.036063;,
       0.164783; 0.048386; 0.046033;,
       0.166084; 0.063459; 0.027533;,
       0.100715; 0.039711; 0.040034;,
       0.098693; 0.016287; 0.042391;,
       0.089613; 0.017272; 0.043761;,
       0.091823; 0.042869; 0.041185;,
       0.102255; 0.057549; 0.018805;,
       0.157509; 0.052778; 0.018805;,
       0.156763; 0.044142; 0.032130;,
       0.101510; 0.048913; 0.032130;,
       0.157509; 0.052778; 0.018805;,
       0.157821; 0.056399;-0.003481;,
       0.165779; 0.059923;-0.004624;,
       0.165378; 0.055284; 0.023926;,
       0.153946; 0.011516; 0.042391;,
       0.155969; 0.034940; 0.040034;,
       0.163405; 0.032434; 0.051120;,
       0.161701; 0.012693; 0.048495;,
       0.101510; 0.048913; 0.032130;,
       0.100715; 0.039711; 0.040034;,
       0.091823; 0.042869; 0.041185;,
       0.092691; 0.052924; 0.032549;,
       0.101510; 0.048913; 0.032130;,
       0.156763; 0.044142; 0.032130;,
       0.155969; 0.034940; 0.040034;,
       0.100715; 0.039711; 0.040034;,
       0.153946; 0.011516; 0.042391;,
       0.154081; 0.013077; 0.047255;,
       0.098827; 0.017848; 0.047255;,
       0.098693; 0.016287; 0.042391;,
       0.101790; 0.052164; 0.036063;,
       0.102622; 0.061797; 0.021621;,
       0.093907; 0.067004; 0.021064;,
       0.092998; 0.056477; 0.036846;,
       0.100715; 0.039711; 0.040034;,
       0.155969; 0.034940; 0.040034;,
       0.153946; 0.011516; 0.042391;,
       0.098693; 0.016287; 0.042391;,
       0.156103; 0.036501; 0.044898;,
       0.100850; 0.041272; 0.044898;,
       0.098827; 0.017848; 0.047255;,
       0.154081; 0.013077; 0.047255;,
       0.092998; 0.056477; 0.036846;,
       0.093907; 0.067004; 0.021064;,
       0.024399; 0.073006; 0.021064;,
       0.023490; 0.062479; 0.036846;,
       0.091970; 0.044575; 0.046500;,
       0.092998; 0.056477; 0.036846;,
       0.023490; 0.062479; 0.036846;,
       0.022462; 0.050576; 0.046500;,
       0.093848; 0.066319;-0.004486;,
       0.093506; 0.062362; 0.017987;,
       0.023998; 0.068363; 0.017987;,
       0.024340; 0.072320;-0.004486;,
       0.091823; 0.042869; 0.041185;,
       0.089613; 0.017272; 0.043761;,
       0.020105; 0.023273; 0.043761;,
       0.022315; 0.048871; 0.041185;,
       0.102568; 0.061170;-0.003481;,
       0.102255; 0.057549; 0.018805;,
       0.093506; 0.062362; 0.017987;,
       0.093848; 0.066319;-0.004486;,
       0.098693; 0.016287; 0.042391;,
       0.098827; 0.017848; 0.047255;,
       0.089760; 0.018978; 0.049076;,
       0.089613; 0.017272; 0.043761;,
       0.098827; 0.017848; 0.047255;,
       0.100850; 0.041272; 0.044898;,
       0.091970; 0.044575; 0.046500;,
       0.089760; 0.018978; 0.049076;,
       0.102622; 0.061797; 0.021621;,
       0.103008; 0.066261;-0.003481;,
       0.094328; 0.071882;-0.004486;,
       0.093907; 0.067004; 0.021064;,
       0.102255; 0.057549; 0.018805;,
       0.101510; 0.048913; 0.032130;,
       0.092691; 0.052924; 0.032549;,
       0.093506; 0.062362; 0.017987;,
       0.103008; 0.066261;-0.003481;,
       0.102568; 0.061170;-0.003481;,
       0.093848; 0.066319;-0.004486;,
       0.094328; 0.071882;-0.004486;,
       0.023490; 0.062479; 0.036846;,
       0.024399; 0.073006; 0.021064;,
       0.011497; 0.083927; 0.019209;,
       0.010345; 0.070584; 0.039213;,
       0.022462; 0.050576; 0.046500;,
       0.023490; 0.062479; 0.036846;,
       0.010345; 0.070584; 0.039213;,
       0.009042; 0.055496; 0.051451;,
       0.024340; 0.072320;-0.004486;,
       0.023998; 0.068363; 0.017987;,
       0.019517; 0.072065; 0.015308;,
       0.019929; 0.076843;-0.004114;,
       0.022315; 0.048871; 0.041185;,
       0.020105; 0.023273; 0.043761;,
       0.015468; 0.025176; 0.047979;,
       0.017383; 0.047356; 0.044713;,
       0.089760; 0.018978; 0.049076;,
       0.091970; 0.044575; 0.046500;,
       0.022462; 0.050576; 0.046500;,
       0.020252; 0.024979; 0.049076;,
       0.093907; 0.067004; 0.021064;,
       0.094328; 0.071882;-0.004486;,
       0.024820; 0.077884;-0.004486;,
       0.024399; 0.073006; 0.021064;,
       0.092691; 0.052924; 0.032549;,
       0.091823; 0.042869; 0.041185;,
       0.022315; 0.048871; 0.041185;,
       0.023183; 0.058926; 0.032549;,
       0.093506; 0.062362; 0.017987;,
       0.092691; 0.052924; 0.032549;,
       0.023183; 0.058926; 0.032549;,
       0.023998; 0.068363; 0.017987;,
       0.094328; 0.071882;-0.004486;,
       0.093848; 0.066319;-0.004486;,
       0.024340; 0.072320;-0.004486;,
       0.024820; 0.077884;-0.004486;,
       0.089760; 0.018978; 0.049076;,
       0.020252; 0.024979; 0.049076;,
       0.030019; 0.005982; 0.053946;,
       0.076882; 0.001936; 0.053946;,
       0.019517; 0.072065; 0.015308;,
       0.011497; 0.083927; 0.019209;,
       0.012011; 0.089873;-0.004114;,
       0.019929; 0.076843;-0.004114;,
       0.011497; 0.083927; 0.019209;,
       0.019517; 0.072065; 0.015308;,
       0.018484; 0.060102; 0.033766;,
       0.010345; 0.070584; 0.039213;,
       0.010345; 0.070584; 0.039213;,
       0.018484; 0.060102; 0.033766;,
       0.017383; 0.047356; 0.044713;,
       0.009042; 0.055496; 0.051451;,
       0.009042; 0.055496; 0.051451;,
       0.017383; 0.047356; 0.044713;,
       0.015468; 0.025176; 0.047979;,
       0.009130; 0.027902; 0.054716;,
       0.020252; 0.024979; 0.049076;,
       0.022462; 0.050576; 0.046500;,
       0.009042; 0.055496; 0.051451;,
       0.009130; 0.027902; 0.054716;,
       0.024399; 0.073006; 0.021064;,
       0.024820; 0.077884;-0.004486;,
       0.012011; 0.089873;-0.004114;,
       0.011497; 0.083927; 0.019209;,
       0.023183; 0.058926; 0.032549;,
       0.022315; 0.048871; 0.041185;,
       0.017383; 0.047356; 0.044713;,
       0.018484; 0.060102; 0.033766;,
       0.023998; 0.068363; 0.017987;,
       0.023183; 0.058926; 0.032549;,
       0.018484; 0.060102; 0.033766;,
       0.019517; 0.072065; 0.015308;,
       0.024820; 0.077884;-0.004486;,
       0.024340; 0.072320;-0.004486;,
       0.019929; 0.076843;-0.004114;,
       0.012011; 0.089873;-0.004114;,
       0.020105; 0.023273; 0.043761;,
       0.020252; 0.024979; 0.049076;,
       0.009130; 0.027902; 0.054716;,
       0.015468; 0.025176; 0.047979;,
       0.165779; 0.059923;-0.004624;,
       0.166578; 0.069177;-0.004624;,
       0.166084; 0.063459; 0.027533;,
       0.165378; 0.055284; 0.023926;,
       0.165378; 0.055284; 0.023926;,
       0.166084; 0.063459; 0.027533;,
       0.164783; 0.048386; 0.046033;,
       0.164423; 0.044221; 0.040996;,
       0.163405; 0.032434; 0.051120;,
       0.163578; 0.034433; 0.057351;,
       0.161874; 0.014693; 0.054726;,
       0.161701; 0.012693; 0.048495;,
       0.164423; 0.044221; 0.040996;,
       0.164783; 0.048386; 0.046033;,
       0.163578; 0.034433; 0.057351;,
       0.163405; 0.032434; 0.051120;,
       0.157821; 0.056399;-0.003481;,
       0.158261; 0.061490;-0.003481;,
       0.166578; 0.069177;-0.004624;,
       0.165779; 0.059923;-0.004624;,
       0.156763; 0.044142; 0.032130;,
       0.157509; 0.052778; 0.018805;,
       0.165378; 0.055284; 0.023926;,
       0.164423; 0.044221; 0.040996;,
       0.157044; 0.047393; 0.036063;,
       0.156103; 0.036501; 0.044898;,
       0.163578; 0.034433; 0.057351;,
       0.164783; 0.048386; 0.046033;,
       0.156103; 0.036501; 0.044898;,
       0.154081; 0.013077; 0.047255;,
       0.161874; 0.014693; 0.054726;,
       0.163578; 0.034433; 0.057351;,
       0.158261; 0.061490;-0.003481;,
       0.157876; 0.057026; 0.021621;,
       0.166084; 0.063459; 0.027533;,
       0.166578; 0.069177;-0.004624;,
       0.155969; 0.034940; 0.040034;,
       0.156763; 0.044142; 0.032130;,
       0.164423; 0.044221; 0.040996;,
       0.163405; 0.032434; 0.051120;,
       0.076783; 0.000786; 0.050363;,
       0.076882; 0.001936; 0.053946;,
       0.030019; 0.005982; 0.053946;,
       0.029919; 0.004833; 0.050363;,
       0.020105; 0.023273; 0.043761;,
       0.089613; 0.017272; 0.043761;,
       0.076783; 0.000786; 0.050363;,
       0.029919; 0.004833; 0.050363;,
       0.089613; 0.017272; 0.043761;,
       0.089760; 0.018978; 0.049076;,
       0.076882; 0.001936; 0.053946;,
       0.076783; 0.000786; 0.050363;,
       0.020252; 0.024979; 0.049076;,
       0.020105; 0.023273; 0.043761;,
       0.029919; 0.004833; 0.050363;,
       0.030019; 0.005982; 0.053946;,
       0.154081; 0.013077;-0.057736;,
       0.161874; 0.014693;-0.065208;,
       0.161701; 0.012693;-0.058977;,
       0.153946; 0.011516;-0.052873;,
       0.157876; 0.057026;-0.032103;,
       0.157044; 0.047393;-0.046544;,
       0.101790; 0.052164;-0.046544;,
       0.102622; 0.061797;-0.032103;,
       0.100850; 0.041272;-0.055379;,
       0.091970; 0.044575;-0.056982;,
       0.092998; 0.056477;-0.047327;,
       0.101790; 0.052164;-0.046544;,
       0.102568; 0.061170;-0.007000;,
       0.157821; 0.056399;-0.007000;,
       0.158261; 0.061490;-0.007000;,
       0.103008; 0.066261;-0.007000;,
       0.157509; 0.052778;-0.029287;,
       0.157821; 0.056399;-0.007000;,
       0.102568; 0.061170;-0.007000;,
       0.102255; 0.057549;-0.029287;,
       0.102622; 0.061797;-0.032103;,
       0.103008; 0.066261;-0.007000;,
       0.158261; 0.061490;-0.007000;,
       0.157876; 0.057026;-0.032103;,
       0.157044; 0.047393;-0.046544;,
       0.156103; 0.036501;-0.055379;,
       0.100850; 0.041272;-0.055379;,
       0.101790; 0.052164;-0.046544;,
       0.157876; 0.057026;-0.032103;,
       0.166084; 0.063459;-0.038015;,
       0.164783; 0.048386;-0.056515;,
       0.157044; 0.047393;-0.046544;,
       0.100715; 0.039711;-0.050515;,
       0.091823; 0.042869;-0.051667;,
       0.089613; 0.017272;-0.054243;,
       0.098693; 0.016287;-0.052873;,
       0.102255; 0.057549;-0.029287;,
       0.101510; 0.048913;-0.042612;,
       0.156763; 0.044142;-0.042612;,
       0.157509; 0.052778;-0.029287;,
       0.157509; 0.052778;-0.029287;,
       0.165378; 0.055284;-0.034407;,
       0.165779; 0.059923;-0.005857;,
       0.157821; 0.056399;-0.007000;,
       0.153946; 0.011516;-0.052873;,
       0.161701; 0.012693;-0.058977;,
       0.163405; 0.032434;-0.061602;,
       0.155969; 0.034940;-0.050515;,
       0.101510; 0.048913;-0.042612;,
       0.092691; 0.052924;-0.043030;,
       0.091823; 0.042869;-0.051667;,
       0.100715; 0.039711;-0.050515;,
       0.101510; 0.048913;-0.042612;,
       0.100715; 0.039711;-0.050515;,
       0.155969; 0.034940;-0.050515;,
       0.156763; 0.044142;-0.042612;,
       0.153946; 0.011516;-0.052873;,
       0.098693; 0.016287;-0.052873;,
       0.098827; 0.017848;-0.057736;,
       0.154081; 0.013077;-0.057736;,
       0.101790; 0.052164;-0.046544;,
       0.092998; 0.056477;-0.047327;,
       0.093907; 0.067004;-0.031546;,
       0.102622; 0.061797;-0.032103;,
       0.100715; 0.039711;-0.050515;,
       0.098693; 0.016287;-0.052873;,
       0.153946; 0.011516;-0.052873;,
       0.155969; 0.034940;-0.050515;,
       0.156103; 0.036501;-0.055379;,
       0.154081; 0.013077;-0.057736;,
       0.098827; 0.017848;-0.057736;,
       0.100850; 0.041272;-0.055379;,
       0.092998; 0.056477;-0.047327;,
       0.023490; 0.062479;-0.047327;,
       0.024399; 0.073006;-0.031546;,
       0.093907; 0.067004;-0.031546;,
       0.091970; 0.044575;-0.056982;,
       0.022462; 0.050576;-0.056982;,
       0.023490; 0.062479;-0.047327;,
       0.092998; 0.056477;-0.047327;,
       0.093848; 0.066319;-0.005996;,
       0.024340; 0.072320;-0.005996;,
       0.023998; 0.068363;-0.028469;,
       0.093506; 0.062362;-0.028469;,
       0.091823; 0.042869;-0.051667;,
       0.022315; 0.048871;-0.051667;,
       0.020105; 0.023273;-0.054243;,
       0.089613; 0.017272;-0.054243;,
       0.102568; 0.061170;-0.007000;,
       0.093848; 0.066319;-0.005996;,
       0.093506; 0.062362;-0.028469;,
       0.102255; 0.057549;-0.029287;,
       0.098693; 0.016287;-0.052873;,
       0.089613; 0.017272;-0.054243;,
       0.089760; 0.018977;-0.059558;,
       0.098827; 0.017848;-0.057736;,
       0.098827; 0.017848;-0.057736;,
       0.089760; 0.018977;-0.059558;,
       0.091970; 0.044575;-0.056982;,
       0.100850; 0.041272;-0.055379;,
       0.102622; 0.061797;-0.032103;,
       0.093907; 0.067004;-0.031546;,
       0.094328; 0.071882;-0.005996;,
       0.103008; 0.066261;-0.007000;,
       0.102255; 0.057549;-0.029287;,
       0.093506; 0.062362;-0.028469;,
       0.092691; 0.052924;-0.043030;,
       0.101510; 0.048913;-0.042612;,
       0.103008; 0.066261;-0.007000;,
       0.094328; 0.071882;-0.005996;,
       0.093848; 0.066319;-0.005996;,
       0.102568; 0.061170;-0.007000;,
       0.023490; 0.062479;-0.047327;,
       0.010345; 0.070584;-0.049694;,
       0.011497; 0.083927;-0.029690;,
       0.024399; 0.073006;-0.031546;,
       0.022462; 0.050576;-0.056982;,
       0.009042; 0.055496;-0.061932;,
       0.010345; 0.070584;-0.049694;,
       0.023490; 0.062479;-0.047327;,
       0.024340; 0.072320;-0.005996;,
       0.019929; 0.076843;-0.006367;,
       0.019517; 0.072065;-0.025789;,
       0.023998; 0.068363;-0.028469;,
       0.022315; 0.048871;-0.051667;,
       0.017383; 0.047356;-0.055195;,
       0.015468; 0.025176;-0.058460;,
       0.020105; 0.023273;-0.054243;,
       0.089760; 0.018977;-0.059558;,
       0.020252; 0.024979;-0.059558;,
       0.022462; 0.050576;-0.056982;,
       0.091970; 0.044575;-0.056982;,
       0.093907; 0.067004;-0.031546;,
       0.024399; 0.073006;-0.031546;,
       0.024820; 0.077884;-0.005996;,
       0.094328; 0.071882;-0.005996;,
       0.092691; 0.052924;-0.043030;,
       0.023183; 0.058926;-0.043030;,
       0.022315; 0.048871;-0.051667;,
       0.091823; 0.042869;-0.051667;,
       0.093506; 0.062362;-0.028469;,
       0.023998; 0.068363;-0.028469;,
       0.023183; 0.058926;-0.043030;,
       0.092691; 0.052924;-0.043030;,
       0.094328; 0.071882;-0.005996;,
       0.024820; 0.077884;-0.005996;,
       0.024340; 0.072320;-0.005996;,
       0.093848; 0.066319;-0.005996;,
       0.089760; 0.018977;-0.059558;,
       0.076882; 0.001936;-0.064428;,
       0.030019; 0.005982;-0.064428;,
       0.020252; 0.024979;-0.059558;,
       0.019517; 0.072065;-0.025789;,
       0.019929; 0.076843;-0.006367;,
       0.012011; 0.089873;-0.006367;,
       0.011497; 0.083927;-0.029690;,
       0.011497; 0.083927;-0.029690;,
       0.010345; 0.070584;-0.049694;,
       0.018484; 0.060102;-0.044247;,
       0.019517; 0.072065;-0.025789;,
       0.010345; 0.070584;-0.049694;,
       0.009042; 0.055496;-0.061932;,
       0.017383; 0.047356;-0.055195;,
       0.018484; 0.060102;-0.044247;,
       0.009042; 0.055496;-0.061932;,
       0.009130; 0.027902;-0.065197;,
       0.015468; 0.025176;-0.058460;,
       0.017383; 0.047356;-0.055195;,
       0.020252; 0.024979;-0.059558;,
       0.009130; 0.027902;-0.065197;,
       0.009042; 0.055496;-0.061932;,
       0.022462; 0.050576;-0.056982;,
       0.024399; 0.073006;-0.031546;,
       0.011497; 0.083927;-0.029690;,
       0.012011; 0.089873;-0.006367;,
       0.024820; 0.077884;-0.005996;,
       0.023183; 0.058926;-0.043030;,
       0.018484; 0.060102;-0.044247;,
       0.017383; 0.047356;-0.055195;,
       0.022315; 0.048871;-0.051667;,
       0.023998; 0.068363;-0.028469;,
       0.019517; 0.072065;-0.025789;,
       0.018484; 0.060102;-0.044247;,
       0.023183; 0.058926;-0.043030;,
       0.024820; 0.077884;-0.005996;,
       0.012011; 0.089873;-0.006367;,
       0.019929; 0.076843;-0.006367;,
       0.024340; 0.072320;-0.005996;,
       0.020105; 0.023273;-0.054243;,
       0.015468; 0.025176;-0.058460;,
       0.009130; 0.027902;-0.065197;,
       0.020252; 0.024979;-0.059558;,
       0.165779; 0.059923;-0.005857;,
       0.165378; 0.055284;-0.034407;,
       0.166084; 0.063459;-0.038015;,
       0.166578; 0.069177;-0.005857;,
       0.165378; 0.055284;-0.034407;,
       0.164423; 0.044221;-0.051477;,
       0.164783; 0.048386;-0.056515;,
       0.166084; 0.063459;-0.038015;,
       0.163405; 0.032434;-0.061602;,
       0.161701; 0.012693;-0.058977;,
       0.161874; 0.014693;-0.065208;,
       0.163578; 0.034433;-0.067833;,
       0.164423; 0.044221;-0.051477;,
       0.163405; 0.032434;-0.061602;,
       0.163578; 0.034433;-0.067833;,
       0.164783; 0.048386;-0.056515;,
       0.157821; 0.056399;-0.007000;,
       0.165779; 0.059923;-0.005857;,
       0.166578; 0.069177;-0.005857;,
       0.158261; 0.061490;-0.007000;,
       0.156763; 0.044142;-0.042612;,
       0.164423; 0.044221;-0.051477;,
       0.165378; 0.055284;-0.034407;,
       0.157509; 0.052778;-0.029287;,
       0.157044; 0.047393;-0.046544;,
       0.164783; 0.048386;-0.056515;,
       0.163578; 0.034433;-0.067833;,
       0.156103; 0.036501;-0.055379;,
       0.156103; 0.036501;-0.055379;,
       0.163578; 0.034433;-0.067833;,
       0.161874; 0.014693;-0.065208;,
       0.154081; 0.013077;-0.057736;,
       0.158261; 0.061490;-0.007000;,
       0.166578; 0.069177;-0.005857;,
       0.166084; 0.063459;-0.038015;,
       0.157876; 0.057026;-0.032103;,
       0.155969; 0.034940;-0.050515;,
       0.163405; 0.032434;-0.061602;,
       0.164423; 0.044221;-0.051477;,
       0.156763; 0.044142;-0.042612;,
       0.076783; 0.000786;-0.060844;,
       0.029919; 0.004833;-0.060844;,
       0.030019; 0.005982;-0.064428;,
       0.076882; 0.001936;-0.064428;,
       0.020105; 0.023273;-0.054243;,
       0.029919; 0.004833;-0.060844;,
       0.076783; 0.000786;-0.060844;,
       0.089613; 0.017272;-0.054243;,
       0.089613; 0.017272;-0.054243;,
       0.076783; 0.000786;-0.060844;,
       0.076882; 0.001936;-0.064428;,
       0.089760; 0.018977;-0.059558;,
       0.020252; 0.024979;-0.059558;,
       0.030019; 0.005982;-0.064428;,
       0.029919; 0.004833;-0.060844;,
       0.020105; 0.023273;-0.054243;,
       0.012011; 0.089873;-0.004114;,
       0.024820; 0.077884;-0.004486;,
       0.024820; 0.077884;-0.005996;,
       0.012011; 0.089873;-0.006367;,
       0.094328; 0.071882;-0.004486;,
       0.094328; 0.071882;-0.005996;,
       0.024820; 0.077884;-0.005996;,
       0.024820; 0.077884;-0.004486;,
       0.103008; 0.066261;-0.007000;,
       0.094328; 0.071882;-0.005996;,
       0.094328; 0.071882;-0.004486;,
       0.103008; 0.066261;-0.003481;,
       0.103008; 0.066261;-0.003481;,
       0.158261; 0.061490;-0.003481;,
       0.158261; 0.061490;-0.007000;,
       0.103008; 0.066261;-0.007000;,
       0.158261; 0.061490;-0.007000;,
       0.158261; 0.061490;-0.003481;,
       0.166578; 0.069177;-0.004624;,
       0.166578; 0.069177;-0.005857;,
       0.165779; 0.059923;-0.004624;,
       0.165779; 0.059923;-0.005857;,
       0.166578; 0.069177;-0.005857;,
       0.166578; 0.069177;-0.004624;,
       0.157821; 0.056399;-0.007000;,
       0.165779; 0.059923;-0.005857;,
       0.165779; 0.059923;-0.004624;,
       0.157821; 0.056399;-0.003481;,
       0.157821; 0.056399;-0.003481;,
       0.102568; 0.061170;-0.003481;,
       0.102568; 0.061170;-0.007000;,
       0.157821; 0.056399;-0.007000;,
       0.102568; 0.061170;-0.003481;,
       0.093848; 0.066319;-0.004486;,
       0.093848; 0.066319;-0.005996;,
       0.102568; 0.061170;-0.007000;,
       0.024340; 0.072320;-0.004486;,
       0.024340; 0.072320;-0.005996;,
       0.093848; 0.066319;-0.005996;,
       0.093848; 0.066319;-0.004486;,
       0.019929; 0.076843;-0.006367;,
       0.024340; 0.072320;-0.005996;,
       0.024340; 0.072320;-0.004486;,
       0.019929; 0.076843;-0.004114;,
       0.012011; 0.089873;-0.004114;,
       0.012011; 0.089873;-0.006367;,
       0.019929; 0.076843;-0.006367;,
       0.019929; 0.076843;-0.004114;,
       0.059583;-0.020653;-0.059714;,
       0.031478;-0.017889;-0.059714;,
       0.034242; 0.010210;-0.059153;,
       0.062346; 0.007446;-0.059153;,
       0.031478;-0.017889;-0.059714;,
       0.059583;-0.020653;-0.059714;,
       0.059191;-0.072558;-0.049990;,
       0.031087;-0.069794;-0.049990;,
       0.031087;-0.069794;-0.049990;,
       0.059191;-0.072558;-0.049990;,
       0.063141;-0.085028;-0.007660;,
       0.035036;-0.082264;-0.007660;,
       0.035036;-0.082264;-0.007660;,
       0.063141;-0.085028;-0.007660;,
       0.062547;-0.069232; 0.041037;,
       0.034442;-0.066468; 0.041037;,
       0.034442;-0.066468; 0.041037;,
       0.062547;-0.069232; 0.041037;,
       0.061979;-0.019882; 0.055959;,
       0.033875;-0.017118; 0.055959;,
       0.033875;-0.017118; 0.055959;,
       0.061979;-0.019882; 0.055959;,
       0.062547; 0.006327; 0.051086;,
       0.034442; 0.009091; 0.051086;;
      149;
      4;3,2,1,0;,
      4;7,6,5,4;,
      4;11,10,9,8;,
      4;15,14,13,12;,
      4;19,18,17,16;,
      4;23,22,21,20;,
      4;27,26,25,24;,
      4;31,30,29,28;,
      4;35,34,33,32;,
      4;39,38,37,36;,
      4;43,42,41,40;,
      4;47,46,45,44;,
      4;51,50,49,48;,
      4;55,54,53,52;,
      4;59,58,57,56;,
      4;63,62,61,60;,
      4;67,66,65,64;,
      4;71,70,69,68;,
      4;75,74,73,72;,
      4;79,78,77,76;,
      4;83,82,81,80;,
      4;87,86,85,84;,
      4;91,90,89,88;,
      4;95,94,93,92;,
      4;99,98,97,96;,
      4;103,102,101,100;,
      4;107,106,105,104;,
      4;111,110,109,108;,
      4;115,114,113,112;,
      4;119,118,117,116;,
      4;123,122,121,120;,
      4;127,126,125,124;,
      4;131,130,129,128;,
      4;135,134,133,132;,
      4;139,138,137,136;,
      4;143,142,141,140;,
      4;147,146,145,144;,
      4;151,150,149,148;,
      4;155,154,153,152;,
      4;159,158,157,156;,
      4;163,162,161,160;,
      4;167,166,165,164;,
      4;171,170,169,168;,
      4;175,174,173,172;,
      4;179,178,177,176;,
      4;183,182,181,180;,
      4;187,186,185,184;,
      4;191,190,189,188;,
      4;195,194,193,192;,
      4;199,198,197,196;,
      4;203,202,201,200;,
      4;207,206,205,204;,
      4;211,210,209,208;,
      4;215,214,213,212;,
      4;219,218,217,216;,
      4;223,222,221,220;,
      4;227,226,225,224;,
      4;231,230,229,228;,
      4;235,234,233,232;,
      4;239,238,237,236;,
      4;243,242,241,240;,
      4;247,246,245,244;,
      4;251,250,249,248;,
      4;255,254,253,252;,
      4;259,258,257,256;,
      4;263,262,261,260;,
      4;267,266,265,264;,
      4;271,270,269,268;,
      4;275,274,273,272;,
      4;279,278,277,276;,
      4;283,282,281,280;,
      4;287,286,285,284;,
      4;291,290,289,288;,
      4;295,294,293,292;,
      4;299,298,297,296;,
      4;303,302,301,300;,
      4;307,306,305,304;,
      4;311,310,309,308;,
      4;315,314,313,312;,
      4;319,318,317,316;,
      4;323,322,321,320;,
      4;327,326,325,324;,
      4;331,330,329,328;,
      4;335,334,333,332;,
      4;339,338,337,336;,
      4;343,342,341,340;,
      4;347,346,345,344;,
      4;351,350,349,348;,
      4;355,354,353,352;,
      4;359,358,357,356;,
      4;363,362,361,360;,
      4;367,366,365,364;,
      4;371,370,369,368;,
      4;375,374,373,372;,
      4;379,378,377,376;,
      4;383,382,381,380;,
      4;387,386,385,384;,
      4;391,390,389,388;,
      4;395,394,393,392;,
      4;399,398,397,396;,
      4;403,402,401,400;,
      4;407,406,405,404;,
      4;411,410,409,408;,
      4;415,414,413,412;,
      4;419,418,417,416;,
      4;423,422,421,420;,
      4;427,426,425,424;,
      4;431,430,429,428;,
      4;435,434,433,432;,
      4;439,438,437,436;,
      4;443,442,441,440;,
      4;447,446,445,444;,
      4;451,450,449,448;,
      4;455,454,453,452;,
      4;459,458,457,456;,
      4;463,462,461,460;,
      4;467,466,465,464;,
      4;471,470,469,468;,
      4;475,474,473,472;,
      4;479,478,477,476;,
      4;483,482,481,480;,
      4;487,486,485,484;,
      4;491,490,489,488;,
      4;495,494,493,492;,
      4;499,498,497,496;,
      4;503,502,501,500;,
      4;507,506,505,504;,
      4;511,510,509,508;,
      4;515,514,513,512;,
      4;519,518,517,516;,
      4;523,522,521,520;,
      4;527,526,525,524;,
      4;531,530,529,528;,
      4;535,534,533,532;,
      4;539,538,537,536;,
      4;543,542,541,540;,
      4;547,546,545,544;,
      4;551,550,549,548;,
      4;555,554,553,552;,
      4;559,558,557,556;,
      4;563,562,561,560;,
      4;567,566,565,564;,
      4;571,570,569,568;,
      4;575,574,573,572;,
      4;579,578,577,576;,
      4;583,582,581,580;,
      4;587,586,585,584;,
      4;591,590,589,588;,
      4;595,594,593,592;;
      MeshNormals { // Plane_001 normals
        596;
        -0.003906;-0.039705;-0.999176;,
        -0.002747;-0.028169;-0.999573;,
         0.011444; 0.116611;-0.993103;,
         0.011444; 0.116611;-0.993103;,
        -0.002747;-0.028169;-0.999573;,
        -0.003906;-0.039705;-0.999176;,
        -0.068819;-0.699942;-0.710837;,
        -0.062990;-0.640492;-0.765343;,
        -0.062990;-0.640492;-0.765343;,
        -0.068819;-0.699942;-0.710837;,
        -0.097842;-0.994873; 0.024781;,
        -0.097873;-0.995117; 0.010346;,
        -0.097873;-0.995117; 0.010346;,
        -0.097842;-0.994873; 0.024781;,
        -0.070376;-0.715537; 0.694998;,
        -0.066958;-0.680898; 0.729270;,
        -0.066958;-0.680898; 0.729270;,
        -0.070376;-0.715537; 0.694998;,
        -0.006775;-0.068941; 0.997589;,
        -0.004028;-0.041108; 0.999115;,
        -0.004028;-0.041108; 0.999115;,
        -0.006775;-0.068941; 0.997589;,
         0.028382; 0.288797; 0.956938;,
         0.027619; 0.280923; 0.959319;,
         0.027619; 0.280923; 0.959319;,
         0.028382; 0.288797; 0.956938;,
         0.037843; 0.384808; 0.922208;,
         0.037843; 0.384808; 0.922208;,
        -0.281594;-0.663381; 0.693258;,
         0.263771;-0.792932;-0.549211;,
         0.685720;-0.710379;-0.158330;,
         0.273049;-0.476760; 0.835536;,
        -0.350932; 0.873959; 0.336131;,
         0.282723; 0.880245; 0.381024;,
         0.227332; 0.704794; 0.671957;,
        -0.363750; 0.705710; 0.607959;,
         0.160710; 0.347850; 0.923643;,
         0.227332; 0.704794; 0.671957;,
         0.226356; 0.716666; 0.659627;,
         0.162999; 0.377636; 0.911466;,
        -0.248878;-0.850490;-0.463301;,
         0.316477; 0.839381;-0.441847;,
        -0.329844; 0.801599;-0.498611;,
         0.122288;-0.880520;-0.457900;,
         0.198859;-0.925382;-0.322581;,
        -0.262123;-0.891079;-0.370403;,
        -0.248878;-0.850490;-0.463301;,
         0.122288;-0.880520;-0.457900;,
         0.282723; 0.880245; 0.381024;,
        -0.350932; 0.873959; 0.336131;,
        -0.329844; 0.801599;-0.498611;,
         0.316477; 0.839381;-0.441847;,
        -0.363750; 0.705710; 0.607959;,
         0.227332; 0.704794; 0.671957;,
         0.160710; 0.347850; 0.923643;,
        -0.441145; 0.388440; 0.808985;,
        -0.350932; 0.873959; 0.336131;,
        -0.363750; 0.705710; 0.607959;,
         0.388440; 0.621662; 0.680135;,
         0.391858; 0.825251; 0.406629;,
        -0.137761;-0.363018;-0.921537;,
        -0.122074;-0.813990;-0.567858;,
         0.182226;-0.678426;-0.711692;,
        -0.142491;-0.394421;-0.907804;,
        -0.262123;-0.891079;-0.370403;,
         0.198859;-0.925382;-0.322581;,
         0.275613;-0.749077;-0.602405;,
        -0.206977;-0.723136;-0.658956;,
         0.198859;-0.925382;-0.322581;,
         0.122288;-0.880520;-0.457900;,
         0.742088;-0.540605;-0.396222;,
         0.868313;-0.465468;-0.171300;,
         0.263771;-0.792932;-0.549211;,
         0.395795;-0.410840;-0.821284;,
         0.954253;-0.151036;-0.258003;,
         0.685720;-0.710379;-0.158330;,
        -0.206977;-0.723136;-0.658956;,
        -0.137761;-0.363018;-0.921537;,
        -0.142491;-0.394421;-0.907804;,
        -0.207312;-0.734184;-0.646504;,
        -0.206977;-0.723136;-0.658956;,
         0.275613;-0.749077;-0.602405;,
         0.395795;-0.410840;-0.821284;,
        -0.137761;-0.363018;-0.921537;,
         0.263771;-0.792932;-0.549211;,
        -0.281594;-0.663381; 0.693258;,
         0.020753;-0.575823; 0.817286;,
        -0.122074;-0.813990;-0.567858;,
         0.227332; 0.704794; 0.671957;,
         0.282723; 0.880245; 0.381024;,
         0.279702; 0.890042; 0.359935;,
         0.226356; 0.716666; 0.659627;,
        -0.137761;-0.363018;-0.921537;,
         0.395795;-0.410840;-0.821284;,
         0.263771;-0.792932;-0.549211;,
        -0.122074;-0.813990;-0.567858;,
        -0.441145; 0.388440; 0.808985;,
         0.160710; 0.347850; 0.923643;,
         0.020753;-0.575823; 0.817286;,
        -0.281594;-0.663381; 0.693258;,
         0.226356; 0.716666; 0.659627;,
         0.279702; 0.890042; 0.359935;,
         0.351329; 0.851192; 0.389843;,
         0.288369; 0.690237; 0.663594;,
         0.162999; 0.377636; 0.911466;,
         0.226356; 0.716666; 0.659627;,
         0.288369; 0.690237; 0.663594;,
         0.255989; 0.348582; 0.901608;,
        -0.216437;-0.798364;-0.561876;,
        -0.261483;-0.900327;-0.347850;,
        -0.270516;-0.874111;-0.403363;,
        -0.377972;-0.813685;-0.441572;,
        -0.142491;-0.394421;-0.907804;,
         0.182226;-0.678426;-0.711692;,
        -0.540788;-0.451582;-0.709616;,
        -0.263314;-0.417432;-0.869716;,
        -0.248878;-0.850490;-0.463301;,
        -0.262123;-0.891079;-0.370403;,
        -0.261483;-0.900327;-0.347850;,
        -0.216437;-0.798364;-0.561876;,
        -0.122074;-0.813990;-0.567858;,
         0.020753;-0.575823; 0.817286;,
         0.289529;-0.307962; 0.906247;,
         0.182226;-0.678426;-0.711692;,
         0.020753;-0.575823; 0.817286;,
         0.160710; 0.347850; 0.923643;,
         0.162999; 0.377636; 0.911466;,
         0.289529;-0.307962; 0.906247;,
         0.282723; 0.880245; 0.381024;,
         0.316477; 0.839381;-0.441847;,
         0.314066; 0.888791;-0.333750;,
         0.279702; 0.890042; 0.359935;,
        -0.262123;-0.891079;-0.370403;,
        -0.206977;-0.723136;-0.658956;,
        -0.207312;-0.734184;-0.646504;,
        -0.261483;-0.900327;-0.347850;,
         0.316477; 0.839381;-0.441847;,
        -0.248878;-0.850490;-0.463301;,
        -0.216437;-0.798364;-0.561876;,
         0.314066; 0.888791;-0.333750;,
         0.288369; 0.690237; 0.663594;,
         0.351329; 0.851192; 0.389843;,
        -0.621326; 0.758324; 0.197058;,
        -0.695914; 0.558611; 0.451247;,
         0.255989; 0.348582; 0.901608;,
         0.288369; 0.690237; 0.663594;,
        -0.695914; 0.558611; 0.451247;,
        -0.716575; 0.252937; 0.650014;,
        -0.377972;-0.813685;-0.441572;,
        -0.270516;-0.874111;-0.403363;,
        -0.726218;-0.632557;-0.269173;,
        -0.696188;-0.544267;-0.468001;,
        -0.263314;-0.417432;-0.869716;,
        -0.540788;-0.451582;-0.709616;,
        -0.579028;-0.737785;-0.346904;,
        -0.669729;-0.209449;-0.712424;,
         0.289529;-0.307962; 0.906247;,
         0.162999; 0.377636; 0.911466;,
         0.255989; 0.348582; 0.901608;,
        -0.179540;-0.391461; 0.902463;,
         0.279702; 0.890042; 0.359935;,
         0.314066; 0.888791;-0.333750;,
         0.339854; 0.809626;-0.478469;,
         0.351329; 0.851192; 0.389843;,
        -0.207312;-0.734184;-0.646504;,
        -0.142491;-0.394421;-0.907804;,
        -0.263314;-0.417432;-0.869716;,
        -0.205145;-0.731895;-0.649770;,
        -0.261483;-0.900327;-0.347850;,
        -0.207312;-0.734184;-0.646504;,
        -0.205145;-0.731895;-0.649770;,
        -0.270516;-0.874111;-0.403363;,
         0.314066; 0.888791;-0.333750;,
        -0.216437;-0.798364;-0.561876;,
        -0.377972;-0.813685;-0.441572;,
         0.339854; 0.809626;-0.478469;,
         0.289529;-0.307962; 0.906247;,
        -0.179540;-0.391461; 0.902463;,
        -0.427778;-0.454207; 0.781457;,
         0.343608;-0.520798; 0.781457;,
        -0.726218;-0.632557;-0.269173;,
        -0.621326; 0.758324; 0.197058;,
        -0.599170; 0.759484;-0.253304;,
        -0.696188;-0.544267;-0.468001;,
        -0.621326; 0.758324; 0.197058;,
        -0.726218;-0.632557;-0.269173;,
        -0.609302;-0.564074;-0.557237;,
        -0.695914; 0.558611; 0.451247;,
        -0.695914; 0.558611; 0.451247;,
        -0.609302;-0.564074;-0.557237;,
        -0.669729;-0.209449;-0.712424;,
        -0.716575; 0.252937; 0.650014;,
        -0.716575; 0.252937; 0.650014;,
        -0.669729;-0.209449;-0.712424;,
        -0.579028;-0.737785;-0.346904;,
        -0.727409;-0.393078; 0.562395;,
        -0.179540;-0.391461; 0.902463;,
         0.255989; 0.348582; 0.901608;,
        -0.716575; 0.252937; 0.650014;,
        -0.727409;-0.393078; 0.562395;,
         0.351329; 0.851192; 0.389843;,
         0.339854; 0.809626;-0.478469;,
        -0.599170; 0.759484;-0.253304;,
        -0.621326; 0.758324; 0.197058;,
        -0.205145;-0.731895;-0.649770;,
        -0.263314;-0.417432;-0.869716;,
        -0.669729;-0.209449;-0.712424;,
        -0.609302;-0.564074;-0.557237;,
        -0.270516;-0.874111;-0.403363;,
        -0.205145;-0.731895;-0.649770;,
        -0.609302;-0.564074;-0.557237;,
        -0.726218;-0.632557;-0.269173;,
         0.339854; 0.809626;-0.478469;,
        -0.377972;-0.813685;-0.441572;,
        -0.696188;-0.544267;-0.468001;,
        -0.599170; 0.759484;-0.253304;,
        -0.540788;-0.451582;-0.709616;,
        -0.179540;-0.391461; 0.902463;,
        -0.727409;-0.393078; 0.562395;,
        -0.579028;-0.737785;-0.346904;,
         0.742088;-0.540605;-0.396222;,
         0.370434; 0.891781;-0.259743;,
         0.391858; 0.825251; 0.406629;,
         0.868313;-0.465468;-0.171300;,
         0.868313;-0.465468;-0.171300;,
         0.391858; 0.825251; 0.406629;,
         0.388440; 0.621662; 0.680135;,
         0.897580;-0.352886;-0.264138;,
         0.954253;-0.151036;-0.258003;,
         0.286142; 0.221412; 0.932218;,
         0.273049;-0.476760; 0.835536;,
         0.685720;-0.710379;-0.158330;,
         0.897580;-0.352886;-0.264138;,
         0.388440; 0.621662; 0.680135;,
         0.286142; 0.221412; 0.932218;,
         0.954253;-0.151036;-0.258003;,
         0.122288;-0.880520;-0.457900;,
        -0.329844; 0.801599;-0.498611;,
         0.370434; 0.891781;-0.259743;,
         0.742088;-0.540605;-0.396222;,
         0.275613;-0.749077;-0.602405;,
         0.198859;-0.925382;-0.322581;,
         0.868313;-0.465468;-0.171300;,
         0.897580;-0.352886;-0.264138;,
        -0.363750; 0.705710; 0.607959;,
        -0.441145; 0.388440; 0.808985;,
         0.286142; 0.221412; 0.932218;,
         0.388440; 0.621662; 0.680135;,
        -0.441145; 0.388440; 0.808985;,
        -0.281594;-0.663381; 0.693258;,
         0.273049;-0.476760; 0.835536;,
         0.286142; 0.221412; 0.932218;,
        -0.329844; 0.801599;-0.498611;,
        -0.350932; 0.873959; 0.336131;,
         0.391858; 0.825251; 0.406629;,
         0.370434; 0.891781;-0.259743;,
         0.395795;-0.410840;-0.821284;,
         0.275613;-0.749077;-0.602405;,
         0.897580;-0.352886;-0.264138;,
         0.954253;-0.151036;-0.258003;,
         0.312265;-0.883541;-0.348949;,
         0.343608;-0.520798; 0.781457;,
        -0.427778;-0.454207; 0.781457;,
        -0.459090;-0.816950;-0.348949;,
        -0.540788;-0.451582;-0.709616;,
         0.182226;-0.678426;-0.711692;,
         0.312265;-0.883541;-0.348949;,
        -0.459090;-0.816950;-0.348949;,
         0.182226;-0.678426;-0.711692;,
         0.289529;-0.307962; 0.906247;,
         0.343608;-0.520798; 0.781457;,
         0.312265;-0.883541;-0.348949;,
        -0.179540;-0.391461; 0.902463;,
        -0.540788;-0.451582;-0.709616;,
        -0.459090;-0.816950;-0.348949;,
        -0.427778;-0.454207; 0.781457;,
        -0.281594;-0.663381;-0.693258;,
         0.273049;-0.476760;-0.835536;,
         0.685720;-0.710379; 0.158330;,
         0.263771;-0.792932; 0.549211;,
        -0.350932; 0.873959;-0.336131;,
        -0.363750; 0.705710;-0.607959;,
         0.227332; 0.704794;-0.671957;,
         0.282723; 0.880245;-0.381024;,
         0.160710; 0.347850;-0.923643;,
         0.162999; 0.377636;-0.911466;,
         0.226356; 0.716666;-0.659627;,
         0.227332; 0.704794;-0.671957;,
        -0.248878;-0.850490; 0.463301;,
         0.122288;-0.880520; 0.457900;,
        -0.329844; 0.801599; 0.498611;,
         0.316477; 0.839381; 0.441847;,
         0.198859;-0.925382; 0.322581;,
         0.122288;-0.880520; 0.457900;,
        -0.248878;-0.850490; 0.463301;,
        -0.262123;-0.891079; 0.370403;,
         0.282723; 0.880245;-0.381024;,
         0.316477; 0.839381; 0.441847;,
        -0.329844; 0.801599; 0.498611;,
        -0.350932; 0.873959;-0.336131;,
        -0.363750; 0.705710;-0.607959;,
        -0.441145; 0.388440;-0.808985;,
         0.160710; 0.347850;-0.923643;,
         0.227332; 0.704794;-0.671957;,
        -0.350932; 0.873959;-0.336131;,
         0.391858; 0.825251;-0.406629;,
         0.388440; 0.621662;-0.680135;,
        -0.363750; 0.705710;-0.607959;,
        -0.137761;-0.363018; 0.921537;,
        -0.142491;-0.394421; 0.907804;,
         0.182226;-0.678426; 0.711692;,
        -0.122074;-0.813990; 0.567858;,
        -0.262123;-0.891079; 0.370403;,
        -0.206977;-0.723136; 0.658956;,
         0.275613;-0.749077; 0.602405;,
         0.198859;-0.925382; 0.322581;,
         0.198859;-0.925382; 0.322581;,
         0.868313;-0.465468; 0.171300;,
         0.742088;-0.540605; 0.396222;,
         0.122288;-0.880520; 0.457900;,
         0.263771;-0.792932; 0.549211;,
         0.685720;-0.710379; 0.158330;,
         0.954253;-0.151036; 0.258003;,
         0.395795;-0.410840; 0.821284;,
        -0.206977;-0.723136; 0.658956;,
        -0.207312;-0.734184; 0.646504;,
        -0.142491;-0.394421; 0.907804;,
        -0.137761;-0.363018; 0.921537;,
        -0.206977;-0.723136; 0.658956;,
        -0.137761;-0.363018; 0.921537;,
         0.395795;-0.410840; 0.821284;,
         0.275613;-0.749077; 0.602405;,
         0.263771;-0.792932; 0.549211;,
        -0.122074;-0.813990; 0.567858;,
         0.020753;-0.575823;-0.817286;,
        -0.281594;-0.663381;-0.693258;,
         0.227332; 0.704794;-0.671957;,
         0.226356; 0.716666;-0.659627;,
         0.279702; 0.890042;-0.359935;,
         0.282723; 0.880245;-0.381024;,
        -0.137761;-0.363018; 0.921537;,
        -0.122074;-0.813990; 0.567858;,
         0.263771;-0.792932; 0.549211;,
         0.395795;-0.410840; 0.821284;,
        -0.441145; 0.388440;-0.808985;,
        -0.281594;-0.663381;-0.693258;,
         0.020753;-0.575823;-0.817286;,
         0.160710; 0.347850;-0.923643;,
         0.226356; 0.716666;-0.659627;,
         0.288369; 0.690237;-0.663594;,
         0.351329; 0.851192;-0.389843;,
         0.279702; 0.890042;-0.359935;,
         0.162999; 0.377636;-0.911466;,
         0.255989; 0.348582;-0.901608;,
         0.288369; 0.690237;-0.663594;,
         0.226356; 0.716666;-0.659627;,
        -0.216437;-0.798364; 0.561876;,
        -0.377972;-0.813685; 0.441572;,
        -0.270516;-0.874111; 0.403363;,
        -0.261483;-0.900327; 0.347850;,
        -0.142491;-0.394421; 0.907804;,
        -0.263314;-0.417432; 0.869716;,
        -0.540788;-0.451582; 0.709616;,
         0.182226;-0.678426; 0.711692;,
        -0.248878;-0.850490; 0.463301;,
        -0.216437;-0.798364; 0.561876;,
        -0.261483;-0.900327; 0.347850;,
        -0.262123;-0.891079; 0.370403;,
        -0.122074;-0.813990; 0.567858;,
         0.182226;-0.678426; 0.711692;,
         0.289529;-0.307962;-0.906247;,
         0.020753;-0.575823;-0.817286;,
         0.020753;-0.575823;-0.817286;,
         0.289529;-0.307962;-0.906247;,
         0.162999; 0.377636;-0.911466;,
         0.160710; 0.347850;-0.923643;,
         0.282723; 0.880245;-0.381024;,
         0.279702; 0.890042;-0.359935;,
         0.314066; 0.888791; 0.333750;,
         0.316477; 0.839381; 0.441847;,
        -0.262123;-0.891079; 0.370403;,
        -0.261483;-0.900327; 0.347850;,
        -0.207312;-0.734184; 0.646504;,
        -0.206977;-0.723136; 0.658956;,
         0.316477; 0.839381; 0.441847;,
         0.314066; 0.888791; 0.333750;,
        -0.216437;-0.798364; 0.561876;,
        -0.248878;-0.850490; 0.463301;,
         0.288369; 0.690237;-0.663594;,
        -0.695914; 0.558611;-0.451247;,
        -0.621326; 0.758324;-0.197058;,
         0.351329; 0.851192;-0.389843;,
         0.255989; 0.348582;-0.901608;,
        -0.716575; 0.252937;-0.650014;,
        -0.695914; 0.558611;-0.451247;,
         0.288369; 0.690237;-0.663594;,
        -0.377972;-0.813685; 0.441572;,
        -0.696188;-0.544267; 0.468001;,
        -0.726218;-0.632557; 0.269173;,
        -0.270516;-0.874111; 0.403363;,
        -0.263314;-0.417432; 0.869716;,
        -0.669729;-0.209449; 0.712424;,
        -0.579028;-0.737785; 0.346904;,
        -0.540788;-0.451582; 0.709616;,
         0.289529;-0.307962;-0.906247;,
        -0.179540;-0.391461;-0.902463;,
         0.255989; 0.348582;-0.901608;,
         0.162999; 0.377636;-0.911466;,
         0.279702; 0.890042;-0.359935;,
         0.351329; 0.851192;-0.389843;,
         0.339854; 0.809626; 0.478469;,
         0.314066; 0.888791; 0.333750;,
        -0.207312;-0.734184; 0.646504;,
        -0.205145;-0.731895; 0.649770;,
        -0.263314;-0.417432; 0.869716;,
        -0.142491;-0.394421; 0.907804;,
        -0.261483;-0.900327; 0.347850;,
        -0.270516;-0.874111; 0.403363;,
        -0.205145;-0.731895; 0.649770;,
        -0.207312;-0.734184; 0.646504;,
         0.314066; 0.888791; 0.333750;,
         0.339854; 0.809626; 0.478469;,
        -0.377972;-0.813685; 0.441572;,
        -0.216437;-0.798364; 0.561876;,
         0.289529;-0.307962;-0.906247;,
         0.343608;-0.520798;-0.781457;,
        -0.427778;-0.454207;-0.781457;,
        -0.179540;-0.391461;-0.902463;,
        -0.726218;-0.632557; 0.269173;,
        -0.696188;-0.544267; 0.468001;,
        -0.599170; 0.759484; 0.253304;,
        -0.621326; 0.758324;-0.197058;,
        -0.621326; 0.758324;-0.197058;,
        -0.695914; 0.558611;-0.451247;,
        -0.609302;-0.564074; 0.557237;,
        -0.726218;-0.632557; 0.269173;,
        -0.695914; 0.558611;-0.451247;,
        -0.716575; 0.252937;-0.650014;,
        -0.669729;-0.209449; 0.712424;,
        -0.609302;-0.564074; 0.557237;,
        -0.716575; 0.252937;-0.650014;,
        -0.727409;-0.393078;-0.562395;,
        -0.579028;-0.737785; 0.346904;,
        -0.669729;-0.209449; 0.712424;,
        -0.179540;-0.391461;-0.902463;,
        -0.727409;-0.393078;-0.562395;,
        -0.716575; 0.252937;-0.650014;,
         0.255989; 0.348582;-0.901608;,
         0.351329; 0.851192;-0.389843;,
        -0.621326; 0.758324;-0.197058;,
        -0.599170; 0.759484; 0.253304;,
         0.339854; 0.809626; 0.478469;,
        -0.205145;-0.731895; 0.649770;,
        -0.609302;-0.564074; 0.557237;,
        -0.669729;-0.209449; 0.712424;,
        -0.263314;-0.417432; 0.869716;,
        -0.270516;-0.874111; 0.403363;,
        -0.726218;-0.632557; 0.269173;,
        -0.609302;-0.564074; 0.557237;,
        -0.205145;-0.731895; 0.649770;,
         0.339854; 0.809626; 0.478469;,
        -0.599170; 0.759484; 0.253304;,
        -0.696188;-0.544267; 0.468001;,
        -0.377972;-0.813685; 0.441572;,
        -0.540788;-0.451582; 0.709616;,
        -0.579028;-0.737785; 0.346904;,
        -0.727409;-0.393078;-0.562395;,
        -0.179540;-0.391461;-0.902463;,
         0.742088;-0.540605; 0.396222;,
         0.868313;-0.465468; 0.171300;,
         0.391858; 0.825251;-0.406629;,
         0.370434; 0.891781; 0.259743;,
         0.868313;-0.465468; 0.171300;,
         0.897580;-0.352886; 0.264138;,
         0.388440; 0.621662;-0.680135;,
         0.391858; 0.825251;-0.406629;,
         0.954253;-0.151036; 0.258003;,
         0.685720;-0.710379; 0.158330;,
         0.273049;-0.476760;-0.835536;,
         0.286142; 0.221412;-0.932218;,
         0.897580;-0.352886; 0.264138;,
         0.954253;-0.151036; 0.258003;,
         0.286142; 0.221412;-0.932218;,
         0.388440; 0.621662;-0.680135;,
         0.122288;-0.880520; 0.457900;,
         0.742088;-0.540605; 0.396222;,
         0.370434; 0.891781; 0.259743;,
        -0.329844; 0.801599; 0.498611;,
         0.275613;-0.749077; 0.602405;,
         0.897580;-0.352886; 0.264138;,
         0.868313;-0.465468; 0.171300;,
         0.198859;-0.925382; 0.322581;,
        -0.363750; 0.705710;-0.607959;,
         0.388440; 0.621662;-0.680135;,
         0.286142; 0.221412;-0.932218;,
        -0.441145; 0.388440;-0.808985;,
        -0.441145; 0.388440;-0.808985;,
         0.286142; 0.221412;-0.932218;,
         0.273049;-0.476760;-0.835536;,
        -0.281594;-0.663381;-0.693258;,
        -0.329844; 0.801599; 0.498611;,
         0.370434; 0.891781; 0.259743;,
         0.391858; 0.825251;-0.406629;,
        -0.350932; 0.873959;-0.336131;,
         0.395795;-0.410840; 0.821284;,
         0.954253;-0.151036; 0.258003;,
         0.897580;-0.352886; 0.264138;,
         0.275613;-0.749077; 0.602405;,
         0.312265;-0.883541; 0.348949;,
        -0.459090;-0.816950; 0.348949;,
        -0.427778;-0.454207;-0.781457;,
         0.343608;-0.520798;-0.781457;,
        -0.540788;-0.451582; 0.709616;,
        -0.459090;-0.816950; 0.348949;,
         0.312265;-0.883541; 0.348949;,
         0.182226;-0.678426; 0.711692;,
         0.182226;-0.678426; 0.711692;,
         0.312265;-0.883541; 0.348949;,
         0.343608;-0.520798;-0.781457;,
         0.289529;-0.307962;-0.906247;,
        -0.179540;-0.391461;-0.902463;,
        -0.427778;-0.454207;-0.781457;,
        -0.459090;-0.816950; 0.348949;,
        -0.540788;-0.451582; 0.709616;,
        -0.599170; 0.759484;-0.253304;,
         0.339854; 0.809626;-0.478469;,
         0.339854; 0.809626; 0.478469;,
        -0.599170; 0.759484; 0.253304;,
         0.314066; 0.888791;-0.333750;,
         0.314066; 0.888791; 0.333750;,
         0.339854; 0.809626; 0.478469;,
         0.339854; 0.809626;-0.478469;,
         0.316477; 0.839381; 0.441847;,
         0.314066; 0.888791; 0.333750;,
         0.314066; 0.888791;-0.333750;,
         0.316477; 0.839381;-0.441847;,
         0.316477; 0.839381;-0.441847;,
        -0.329844; 0.801599;-0.498611;,
        -0.329844; 0.801599; 0.498611;,
         0.316477; 0.839381; 0.441847;,
        -0.329844; 0.801599; 0.498611;,
        -0.329844; 0.801599;-0.498611;,
         0.370434; 0.891781;-0.259743;,
         0.370434; 0.891781; 0.259743;,
         0.742088;-0.540605;-0.396222;,
         0.742088;-0.540605; 0.396222;,
         0.370434; 0.891781; 0.259743;,
         0.370434; 0.891781;-0.259743;,
         0.122288;-0.880520; 0.457900;,
         0.742088;-0.540605; 0.396222;,
         0.742088;-0.540605;-0.396222;,
         0.122288;-0.880520;-0.457900;,
         0.122288;-0.880520;-0.457900;,
        -0.248878;-0.850490;-0.463301;,
        -0.248878;-0.850490; 0.463301;,
         0.122288;-0.880520; 0.457900;,
        -0.248878;-0.850490;-0.463301;,
        -0.216437;-0.798364;-0.561876;,
        -0.216437;-0.798364; 0.561876;,
        -0.248878;-0.850490; 0.463301;,
        -0.377972;-0.813685;-0.441572;,
        -0.377972;-0.813685; 0.441572;,
        -0.216437;-0.798364; 0.561876;,
        -0.216437;-0.798364;-0.561876;,
        -0.696188;-0.544267; 0.468001;,
        -0.377972;-0.813685; 0.441572;,
        -0.377972;-0.813685;-0.441572;,
        -0.696188;-0.544267;-0.468001;,
        -0.599170; 0.759484;-0.253304;,
        -0.599170; 0.759484; 0.253304;,
        -0.696188;-0.544267; 0.468001;,
        -0.696188;-0.544267;-0.468001;,
        -0.008393;-0.085360;-0.996307;,
        -0.007813;-0.079562;-0.996796;,
         0.001923; 0.019745;-0.999786;,
         0.001923; 0.019745;-0.999786;,
        -0.007813;-0.079562;-0.996796;,
        -0.008393;-0.085360;-0.996307;,
        -0.068819;-0.699942;-0.710837;,
        -0.062990;-0.640492;-0.765343;,
        -0.062990;-0.640492;-0.765343;,
        -0.068819;-0.699942;-0.710837;,
        -0.097842;-0.994873; 0.024781;,
        -0.097873;-0.995117; 0.010346;,
        -0.097873;-0.995117; 0.010346;,
        -0.097842;-0.994873; 0.024781;,
        -0.070376;-0.715537; 0.694998;,
        -0.066958;-0.680898; 0.729270;,
        -0.066958;-0.680898; 0.729270;,
        -0.070376;-0.715537; 0.694998;,
        -0.006775;-0.068941; 0.997589;,
        -0.004028;-0.041108; 0.999115;,
        -0.004028;-0.041108; 0.999115;,
        -0.006775;-0.068941; 0.997589;,
         0.017914; 0.182379; 0.983032;,
         0.017914; 0.182379; 0.983032;;
        149;
        4;3,2,1,0;,
        4;7,6,5,4;,
        4;11,10,9,8;,
        4;15,14,13,12;,
        4;19,18,17,16;,
        4;23,22,21,20;,
        4;27,26,25,24;,
        4;31,30,29,28;,
        4;35,34,33,32;,
        4;39,38,37,36;,
        4;43,42,41,40;,
        4;47,46,45,44;,
        4;51,50,49,48;,
        4;55,54,53,52;,
        4;59,58,57,56;,
        4;63,62,61,60;,
        4;67,66,65,64;,
        4;71,70,69,68;,
        4;75,74,73,72;,
        4;79,78,77,76;,
        4;83,82,81,80;,
        4;87,86,85,84;,
        4;91,90,89,88;,
        4;95,94,93,92;,
        4;99,98,97,96;,
        4;103,102,101,100;,
        4;107,106,105,104;,
        4;111,110,109,108;,
        4;115,114,113,112;,
        4;119,118,117,116;,
        4;123,122,121,120;,
        4;127,126,125,124;,
        4;131,130,129,128;,
        4;135,134,133,132;,
        4;139,138,137,136;,
        4;143,142,141,140;,
        4;147,146,145,144;,
        4;151,150,149,148;,
        4;155,154,153,152;,
        4;159,158,157,156;,
        4;163,162,161,160;,
        4;167,166,165,164;,
        4;171,170,169,168;,
        4;175,174,173,172;,
        4;179,178,177,176;,
        4;183,182,181,180;,
        4;187,186,185,184;,
        4;191,190,189,188;,
        4;195,194,193,192;,
        4;199,198,197,196;,
        4;203,202,201,200;,
        4;207,206,205,204;,
        4;211,210,209,208;,
        4;215,214,213,212;,
        4;219,218,217,216;,
        4;223,222,221,220;,
        4;227,226,225,224;,
        4;231,230,229,228;,
        4;235,234,233,232;,
        4;239,238,237,236;,
        4;243,242,241,240;,
        4;247,246,245,244;,
        4;251,250,249,248;,
        4;255,254,253,252;,
        4;259,258,257,256;,
        4;263,262,261,260;,
        4;267,266,265,264;,
        4;271,270,269,268;,
        4;275,274,273,272;,
        4;279,278,277,276;,
        4;283,282,281,280;,
        4;287,286,285,284;,
        4;291,290,289,288;,
        4;295,294,293,292;,
        4;299,298,297,296;,
        4;303,302,301,300;,
        4;307,306,305,304;,
        4;311,310,309,308;,
        4;315,314,313,312;,
        4;319,318,317,316;,
        4;323,322,321,320;,
        4;327,326,325,324;,
        4;331,330,329,328;,
        4;335,334,333,332;,
        4;339,338,337,336;,
        4;343,342,341,340;,
        4;347,346,345,344;,
        4;351,350,349,348;,
        4;355,354,353,352;,
        4;359,358,357,356;,
        4;363,362,361,360;,
        4;367,366,365,364;,
        4;371,370,369,368;,
        4;375,374,373,372;,
        4;379,378,377,376;,
        4;383,382,381,380;,
        4;387,386,385,384;,
        4;391,390,389,388;,
        4;395,394,393,392;,
        4;399,398,397,396;,
        4;403,402,401,400;,
        4;407,406,405,404;,
        4;411,410,409,408;,
        4;415,414,413,412;,
        4;419,418,417,416;,
        4;423,422,421,420;,
        4;427,426,425,424;,
        4;431,430,429,428;,
        4;435,434,433,432;,
        4;439,438,437,436;,
        4;443,442,441,440;,
        4;447,446,445,444;,
        4;451,450,449,448;,
        4;455,454,453,452;,
        4;459,458,457,456;,
        4;463,462,461,460;,
        4;467,466,465,464;,
        4;471,470,469,468;,
        4;475,474,473,472;,
        4;479,478,477,476;,
        4;483,482,481,480;,
        4;487,486,485,484;,
        4;491,490,489,488;,
        4;495,494,493,492;,
        4;499,498,497,496;,
        4;503,502,501,500;,
        4;507,506,505,504;,
        4;511,510,509,508;,
        4;515,514,513,512;,
        4;519,518,517,516;,
        4;523,522,521,520;,
        4;527,526,525,524;,
        4;531,530,529,528;,
        4;535,534,533,532;,
        4;539,538,537,536;,
        4;543,542,541,540;,
        4;547,546,545,544;,
        4;551,550,549,548;,
        4;555,554,553,552;,
        4;559,558,557,556;,
        4;563,562,561,560;,
        4;567,566,565,564;,
        4;571,570,569,568;,
        4;575,574,573,572;,
        4;579,578,577,576;,
        4;583,582,581,580;,
        4;587,586,585,584;,
        4;591,590,589,588;,
        4;595,594,593,592;;
      } // End of Plane_001 normals
      MeshTextureCoords { // Plane_001 UV coordinates
        596;
         0.357851; 0.393807;,
         0.273084; 0.399476;,
         0.277648; 0.524627;,
         0.362415; 0.518958;,
         0.273084; 0.399476;,
         0.357851; 0.393807;,
         0.362415; 0.237985;,
         0.277648; 0.243654;,
         0.648683; 0.245958;,
         0.563779; 0.248575;,
         0.551675; 0.380084;,
         0.636579; 0.377467;,
         0.636579; 0.377467;,
         0.551675; 0.380084;,
         0.563779; 0.523269;,
         0.648683; 0.520652;,
         0.189030; 0.518773;,
         0.273084; 0.524627;,
         0.258040; 0.382764;,
         0.173985; 0.376910;,
         0.173985; 0.376910;,
         0.258040; 0.382764;,
         0.257938; 0.301880;,
         0.173884; 0.296026;,
         0.173884; 0.296026;,
         0.257938; 0.301880;,
         0.273084; 0.252503;,
         0.189030; 0.246649;,
         0.923226; 0.754690;,
         0.909051; 0.753810;,
         0.925136; 0.778001;,
         0.943295; 0.779128;,
         0.490503; 0.546055;,
         0.494047; 0.713175;,
         0.541843; 0.709577;,
         0.538298; 0.542456;,
         0.504016; 0.353901;,
         0.540594; 0.354258;,
         0.548899; 0.325631;,
         0.508927; 0.325241;,
         0.902375; 0.266512;,
         0.917710; 0.267256;,
         0.925563; 0.099080;,
         0.910228; 0.098336;,
         0.099368; 0.548249;,
         0.099740; 0.716539;,
         0.167463; 0.716575;,
         0.167090; 0.548286;,
         0.494047; 0.713175;,
         0.490503; 0.546055;,
         0.413801; 0.547722;,
         0.417345; 0.714843;,
         0.551675; 0.520824;,
         0.540594; 0.354258;,
         0.504016; 0.353901;,
         0.515097; 0.520467;,
         0.334993; 0.230335;,
         0.316294; 0.191273;,
         0.279823; 0.180358;,
         0.300399; 0.237985;,
         0.787987; 0.831440;,
         0.858252; 0.831637;,
         0.857434; 0.803993;,
         0.780649; 0.803777;,
         0.099740; 0.716539;,
         0.099368; 0.548249;,
         0.057281; 0.547551;,
         0.057654; 0.715841;,
         0.099368; 0.548249;,
         0.167090; 0.548286;,
         0.171496; 0.525568;,
         0.084741; 0.525521;,
         0.173884; 0.481058;,
         0.103645; 0.472127;,
         0.106269; 0.505866;,
         0.165809; 0.499395;,
         0.761491; 0.830981;,
         0.787987; 0.831440;,
         0.780649; 0.803777;,
         0.751695; 0.803275;,
         0.761491; 0.830981;,
         0.761491; 0.999343;,
         0.787987; 0.999803;,
         0.787987; 0.831440;,
         0.909051; 0.753810;,
         0.923226; 0.754690;,
         0.935851; 0.586884;,
         0.921676; 0.586004;,
         0.541843; 0.709577;,
         0.494047; 0.713175;,
         0.490684; 0.742342;,
         0.542914; 0.738409;,
         0.787987; 0.831440;,
         0.787987; 0.999803;,
         0.858252; 1.000000;,
         0.858252; 0.831637;,
         0.515097; 0.520467;,
         0.504016; 0.353901;,
         0.433199; 0.359160;,
         0.444280; 0.525726;,
         0.542914; 0.738409;,
         0.490684; 0.742342;,
         0.495143; 0.952577;,
         0.547373; 0.948645;,
         0.508927; 0.325241;,
         0.548899; 0.325631;,
         0.534959; 0.116093;,
         0.494987; 0.115703;,
         0.171611; 0.744723;,
         0.103248; 0.744654;,
         0.103717; 0.956360;,
         0.172080; 0.956429;,
         0.780649; 0.803777;,
         0.857434; 0.803993;,
         0.857434; 0.592194;,
         0.780650; 0.591979;,
         0.167463; 0.716575;,
         0.099740; 0.716539;,
         0.103248; 0.744654;,
         0.171611; 0.744723;,
         0.921676; 0.586004;,
         0.935851; 0.586884;,
         0.943295; 0.559615;,
         0.927805; 0.558654;,
         0.433199; 0.359160;,
         0.504016; 0.353901;,
         0.508927; 0.325241;,
         0.431540; 0.330988;,
         0.494047; 0.713175;,
         0.417345; 0.714843;,
         0.412442; 0.744164;,
         0.490684; 0.742342;,
         0.099740; 0.716539;,
         0.057654; 0.715841;,
         0.057257; 0.743891;,
         0.103248; 0.744654;,
         0.917710; 0.267256;,
         0.902375; 0.266512;,
         0.914064; 0.294885;,
         0.930822; 0.295699;,
         0.547373; 0.948645;,
         0.495143; 0.952577;,
         0.485469; 0.997779;,
         0.551675; 0.992794;,
         0.494987; 0.115703;,
         0.534959; 0.116093;,
         0.551675; 0.072003;,
         0.501008; 0.071509;,
         0.172080; 0.956429;,
         0.103717; 0.956360;,
         0.112594; 0.971177;,
         0.172012; 0.971378;,
         0.780650; 0.591979;,
         0.857434; 0.592194;,
         0.852267; 0.577900;,
         0.785897; 0.577657;,
         0.431540; 0.330988;,
         0.508927; 0.325241;,
         0.494987; 0.115703;,
         0.417600; 0.121449;,
         0.490684; 0.742342;,
         0.412442; 0.744164;,
         0.416900; 0.954399;,
         0.495143; 0.952577;,
         0.751695; 0.803275;,
         0.780649; 0.803777;,
         0.780650; 0.591979;,
         0.751695; 0.591477;,
         0.103248; 0.744654;,
         0.057257; 0.743891;,
         0.057726; 0.955597;,
         0.103717; 0.956360;,
         0.930822; 0.295699;,
         0.914064; 0.294885;,
         0.904185; 0.506449;,
         0.920943; 0.507262;,
         0.431540; 0.330988;,
         0.417600; 0.121449;,
         0.363954; 0.158520;,
         0.373352; 0.299795;,
         0.112594; 0.971177;,
         0.103691; 0.999736;,
         0.175094; 1.000000;,
         0.172012; 0.971378;,
         0.103691; 0.999736;,
         0.112594; 0.971177;,
         0.054297; 0.970210;,
         0.040417; 0.998649;,
         0.040417; 0.998649;,
         0.054297; 0.970210;,
         0.018327; 0.969046;,
         0.000000; 0.997260;,
         0.762619; 0.550651;,
         0.785897; 0.577657;,
         0.852267; 0.577900;,
         0.844679; 0.558380;,
         0.417600; 0.121449;,
         0.494987; 0.115703;,
         0.501008; 0.071509;,
         0.418474; 0.084863;,
         0.495143; 0.952577;,
         0.416900; 0.954399;,
         0.413272; 1.000000;,
         0.485469; 0.997779;,
         0.057726; 0.955597;,
         0.029349; 0.954679;,
         0.018327; 0.969046;,
         0.054297; 0.970210;,
         0.103717; 0.956360;,
         0.057726; 0.955597;,
         0.054297; 0.970210;,
         0.112594; 0.971177;,
         0.920943; 0.507262;,
         0.904185; 0.506449;,
         0.915953; 0.521537;,
         0.951590; 0.550651;,
         0.069776; 0.097212;,
         0.058052; 0.107475;,
         0.067604; 0.144650;,
         0.069776; 0.116444;,
         0.027820; 0.334579;,
         0.000000; 0.333877;,
         0.014774; 0.431919;,
         0.039620; 0.421589;,
         0.039620; 0.421589;,
         0.014774; 0.431919;,
         0.058695; 0.489215;,
         0.071594; 0.474241;,
         0.106269; 0.505866;,
         0.099790; 0.524627;,
         0.159330; 0.518156;,
         0.165809; 0.499395;,
         0.071594; 0.474241;,
         0.058695; 0.489215;,
         0.099790; 0.524627;,
         0.106269; 0.505866;,
         0.910228; 0.098336;,
         0.925563; 0.099080;,
         0.951590; 0.077232;,
         0.923714; 0.075879;,
         0.057281; 0.547551;,
         0.099368; 0.548249;,
         0.084741; 0.525521;,
         0.030827; 0.524627;,
         0.316294; 0.191273;,
         0.311034; 0.153497;,
         0.273084; 0.131965;,
         0.279823; 0.180358;,
         0.311034; 0.153497;,
         0.334993; 0.086451;,
         0.303049; 0.079396;,
         0.273084; 0.131965;,
         0.413801; 0.547722;,
         0.490503; 0.546055;,
         0.503852; 0.525726;,
         0.405594; 0.527862;,
         0.103645; 0.472127;,
         0.076577; 0.447441;,
         0.071594; 0.474241;,
         0.106269; 0.505866;,
         0.351952; 0.237985;,
         0.362415; 0.237834;,
         0.362415; 0.095097;,
         0.351952; 0.095249;,
         0.857434; 0.592194;,
         0.857434; 0.803993;,
         0.909051; 0.769905;,
         0.909051; 0.627106;,
         0.351787; 0.178381;,
         0.334993; 0.178381;,
         0.338550; 0.237985;,
         0.349873; 0.237985;,
         0.013298; 0.079566;,
         0.000000; 0.078119;,
         0.004332; 0.143675;,
         0.013298; 0.144650;,
         0.923982; 0.803871;,
         0.945052; 0.779128;,
         0.925924; 0.780521;,
         0.909051; 0.804958;,
         0.331310; 0.546055;,
         0.293521; 0.542456;,
         0.297065; 0.709577;,
         0.334854; 0.713175;,
         0.674184; 0.719302;,
         0.682734; 0.746762;,
         0.720102; 0.744597;,
         0.708379; 0.717322;,
         0.951590; 0.362238;,
         0.959416; 0.528992;,
         0.974589; 0.527966;,
         0.966763; 0.361211;,
         0.243578; 0.547512;,
         0.177641; 0.548232;,
         0.178014; 0.716521;,
         0.243951; 0.715801;,
         0.334854; 0.713175;,
         0.406919; 0.714843;,
         0.403374; 0.547722;,
         0.331310; 0.546055;,
         0.700999; 0.549124;,
         0.666804; 0.551104;,
         0.674184; 0.719302;,
         0.708379; 0.717322;,
         0.732276; 0.546963;,
         0.751695; 0.523269;,
         0.703396; 0.526398;,
         0.700999; 0.549124;,
         0.785471; 0.309478;,
         0.777871; 0.336651;,
         0.853167; 0.334124;,
         0.854374; 0.307165;,
         0.243951; 0.715801;,
         0.281780; 0.714695;,
         0.281407; 0.546406;,
         0.243578; 0.547512;,
         0.243578; 0.547512;,
         0.259662; 0.524627;,
         0.175194; 0.525549;,
         0.177641; 0.548232;,
         0.854374; 0.140224;,
         0.846176; 0.114981;,
         0.786051; 0.115118;,
         0.785471; 0.142537;,
         0.013298; 0.144650;,
         0.034990; 0.143627;,
         0.034990; 0.106419;,
         0.013298; 0.110602;,
         0.761517; 0.313130;,
         0.785471; 0.309478;,
         0.785471; 0.142537;,
         0.761517; 0.146189;,
         0.909051; 0.804958;,
         0.922393; 0.972708;,
         0.937324; 0.971621;,
         0.923982; 0.803871;,
         0.297065; 0.709577;,
         0.293496; 0.738409;,
         0.334791; 0.742342;,
         0.334854; 0.713175;,
         0.785471; 0.309478;,
         0.854374; 0.307165;,
         0.854374; 0.140224;,
         0.785471; 0.142537;,
         0.666804; 0.551104;,
         0.595864; 0.554336;,
         0.603244; 0.722534;,
         0.674184; 0.719302;,
         0.293496; 0.738409;,
         0.297955; 0.948645;,
         0.339250; 0.952577;,
         0.334791; 0.742342;,
         0.682734; 0.746762;,
         0.692018; 0.958353;,
         0.729386; 0.956188;,
         0.720102; 0.744597;,
         0.176140; 0.744700;,
         0.176609; 0.956405;,
         0.243021; 0.955647;,
         0.242552; 0.743942;,
         0.777871; 0.336651;,
         0.777871; 0.546661;,
         0.853167; 0.544134;,
         0.853167; 0.334124;,
         0.178014; 0.716521;,
         0.176140; 0.744700;,
         0.242552; 0.743942;,
         0.243951; 0.715801;,
         0.922393; 0.972708;,
         0.928735; 1.000000;,
         0.945052; 0.998812;,
         0.937324; 0.971621;,
         0.603244; 0.722534;,
         0.605211; 0.750293;,
         0.682734; 0.746762;,
         0.674184; 0.719302;,
         0.334854; 0.713175;,
         0.334791; 0.742342;,
         0.407966; 0.744164;,
         0.406919; 0.714843;,
         0.243951; 0.715801;,
         0.242552; 0.743942;,
         0.283890; 0.742732;,
         0.281780; 0.714695;,
         0.966763; 0.361211;,
         0.979422; 0.332409;,
         0.962841; 0.333531;,
         0.951590; 0.362238;,
         0.297955; 0.948645;,
         0.288230; 0.992794;,
         0.340574; 0.997779;,
         0.339250; 0.952577;,
         0.692018; 0.958353;,
         0.704329; 1.000000;,
         0.751695; 0.997256;,
         0.729386; 0.956188;,
         0.176609; 0.956405;,
         0.178769; 0.971344;,
         0.235831; 0.970547;,
         0.243021; 0.955647;,
         0.604803; 0.160833;,
         0.593069; 0.175025;,
         0.622717; 0.236366;,
         0.641253; 0.230059;,
         0.605211; 0.750293;,
         0.614495; 0.961884;,
         0.692018; 0.958353;,
         0.682734; 0.746762;,
         0.334791; 0.742342;,
         0.339250; 0.952577;,
         0.412425; 0.954399;,
         0.407966; 0.744164;,
         0.751695; 0.340641;,
         0.751695; 0.550651;,
         0.777871; 0.546661;,
         0.777871; 0.336651;,
         0.242552; 0.743942;,
         0.243021; 0.955647;,
         0.284359; 0.954438;,
         0.283890; 0.742732;,
         0.979422; 0.332409;,
         0.969577; 0.122634;,
         0.952996; 0.123756;,
         0.962841; 0.333531;,
         0.605211; 0.750293;,
         0.551675; 0.787434;,
         0.557934; 0.930092;,
         0.614495; 0.961884;,
         0.608336; 0.072850;,
         0.637030; 0.035051;,
         0.601771; 0.012203;,
         0.567648; 0.058128;,
         0.567648; 0.058128;,
         0.551675; 0.118722;,
         0.593033; 0.127862;,
         0.608336; 0.072850;,
         0.551675; 0.118722;,
         0.553068; 0.173604;,
         0.593069; 0.175025;,
         0.593033; 0.127862;,
         0.553068; 0.173604;,
         0.595338; 0.245958;,
         0.622717; 0.236366;,
         0.593069; 0.175025;,
         0.614495; 0.961884;,
         0.620992; 0.996345;,
         0.704329; 1.000000;,
         0.692018; 0.958353;,
         0.339250; 0.952577;,
         0.340574; 0.997779;,
         0.406595; 1.000000;,
         0.412425; 0.954399;,
         0.604775; 0.123626;,
         0.593033; 0.127862;,
         0.593069; 0.175025;,
         0.604803; 0.160833;,
         0.243021; 0.955647;,
         0.235831; 0.970547;,
         0.288230; 0.969014;,
         0.284359; 0.954438;,
         0.969577; 0.122634;,
         1.000000; 0.079119;,
         0.964748; 0.108683;,
         0.952996; 0.123756;,
         0.058052; 0.144650;,
         0.058052; 0.124987;,
         0.055884; 0.096093;,
         0.045965; 0.133525;,
         0.027913; 0.330835;,
         0.044003; 0.244527;,
         0.019699; 0.232958;,
         0.000093; 0.330133;,
         0.044003; 0.244527;,
         0.078543; 0.193552;,
         0.066400; 0.177947;,
         0.019699; 0.232958;,
         0.114739; 0.163715;,
         0.173884; 0.173178;,
         0.168342; 0.154114;,
         0.109196; 0.144650;,
         0.078543; 0.193552;,
         0.114739; 0.163715;,
         0.109196; 0.144650;,
         0.066400; 0.177947;,
         0.959416; 0.528992;,
         0.972418; 0.550651;,
         1.000000; 0.548785;,
         0.974589; 0.527966;,
         0.082194; 0.220571;,
         0.078543; 0.193552;,
         0.044003; 0.244527;,
         0.055231; 0.260363;,
         0.700999; 0.549124;,
         0.703396; 0.526398;,
         0.659591; 0.528935;,
         0.666804; 0.551104;,
         0.666804; 0.551104;,
         0.659591; 0.528935;,
         0.600526; 0.531373;,
         0.595864; 0.554336;,
         0.403374; 0.547722;,
         0.401940; 0.527862;,
         0.309622; 0.525726;,
         0.331310; 0.546055;,
         0.110449; 0.197279;,
         0.114739; 0.163715;,
         0.078543; 0.193552;,
         0.082194; 0.220571;,
         0.745691; 0.245958;,
         0.745691; 0.103221;,
         0.734662; 0.103131;,
         0.734662; 0.245868;,
         0.853167; 0.544134;,
         0.902375; 0.506296;,
         0.902375; 0.364704;,
         0.853167; 0.334124;,
         0.351787; 0.178381;,
         0.349873; 0.118776;,
         0.338550; 0.118776;,
         0.334993; 0.178380;,
         0.045965; 0.144650;,
         0.045965; 0.086903;,
         0.038566; 0.082201;,
         0.034990; 0.137677;,
         0.413272; 1.000000;,
         0.416900; 0.954399;,
         0.412425; 0.954399;,
         0.406595; 1.000000;,
         0.412442; 0.744164;,
         0.407966; 0.744164;,
         0.412425; 0.954399;,
         0.416900; 0.954399;,
         0.406919; 0.714843;,
         0.407966; 0.744164;,
         0.412442; 0.744164;,
         0.417345; 0.714843;,
         0.417345; 0.714843;,
         0.413801; 0.547722;,
         0.403374; 0.547722;,
         0.406919; 0.714843;,
         0.403374; 0.547722;,
         0.413801; 0.547722;,
         0.405594; 0.527862;,
         0.401940; 0.527862;,
         0.027820; 0.334579;,
         0.027913; 0.330835;,
         0.000093; 0.330133;,
         0.000000; 0.333877;,
         0.177641; 0.548232;,
         0.175194; 0.525549;,
         0.171496; 0.525568;,
         0.167090; 0.548286;,
         0.167090; 0.548286;,
         0.167463; 0.716575;,
         0.178014; 0.716521;,
         0.177641; 0.548232;,
         0.167463; 0.716575;,
         0.171611; 0.744723;,
         0.176140; 0.744700;,
         0.178014; 0.716521;,
         0.172080; 0.956429;,
         0.176609; 0.956405;,
         0.176140; 0.744700;,
         0.171611; 0.744723;,
         0.178769; 0.971344;,
         0.176609; 0.956405;,
         0.172080; 0.956429;,
         0.172012; 0.971378;,
         0.605994; 0.009244;,
         0.601771; 0.012203;,
         0.637030; 0.035051;,
         0.641253; 0.032092;,
         0.258674; 0.155801;,
         0.173884; 0.161112;,
         0.179096; 0.246649;,
         0.263885; 0.241338;,
         0.173884; 0.161112;,
         0.258674; 0.155801;,
         0.263885; 0.000000;,
         0.179096; 0.005311;,
         0.745691; 0.245958;,
         0.660787; 0.248575;,
         0.648683; 0.380084;,
         0.733587; 0.377467;,
         0.733587; 0.377467;,
         0.648683; 0.380084;,
         0.660787; 0.523269;,
         0.745691; 0.520652;,
         0.646639; 0.234311;,
         0.730099; 0.245958;,
         0.724713; 0.103388;,
         0.641253; 0.091741;,
         0.641253; 0.091741;,
         0.724713; 0.103388;,
         0.730099; 0.022687;,
         0.646639; 0.011040;;
      } // End of Plane_001 UV coordinates
      MeshMaterialList { // Plane_001 material list
        1;
        149;
        0,
        0,
        0,
        0,
        0,
        0,
        0,
        0,
        0,
        0,
        0,
        0,
        0,
        0,
        0,
        0,
        0,
        0,
        0,
        0,
        0,
        0,
        0,
        0,
        0,
        0,
        0,
        0,
        0,
        0,
        0,
        0,
        0,
        0,
        0,
        0,
        0,
        0,
        0,
        0,
        0,
        0,
        0,
        0,
        0,
        0,
        0,
        0,
        0,
        0,
        0,
        0,
        0,
        0,
        0,
        0,
        0,
        0,
        0,
        0,
        0,
        0,
        0,
        0,
        0,
        0,
        0,
        0,
        0,
        0,
        0,
        0,
        0,
        0,
        0,
        0,
        0,
        0,
        0,
        0,
        0,
        0,
        0,
        0,
        0,
        0,
        0,
        0,
        0,
        0,
        0,
        0,
        0,
        0,
        0,
        0,
        0,
        0,
        0,
        0,
        0,
        0,
        0,
        0,
        0,
        0,
        0,
        0,
        0,
        0,
        0,
        0,
        0,
        0,
        0,
        0,
        0,
        0,
        0,
        0,
        0,
        0,
        0,
        0,
        0,
        0,
        0,
        0,
        0,
        0,
        0,
        0,
        0,
        0,
        0,
        0,
        0,
        0,
        0,
        0,
        0,
        0,
        0,
        0,
        0,
        0,
        0,
        0,
        0;
        Material Material_001 {
           0.640000; 0.640000; 0.640000; 1.000000;;
           96.078431;
           0.500000; 0.500000; 0.500000;;
           0.000000; 0.000000; 0.000000;;
        }
      } // End of Plane_001 material list
    } // End of Plane_001 mesh
  } // End of Plane_001
} // End of Root
