xof 0303txt 0032

Frame Root {
  FrameTransformMatrix {
     1.000000, 0.000000, 0.000000, 0.000000,
     0.000000,-0.000000, 1.000000, 0.000000,
     0.000000, 1.000000, 0.000000, 0.000000,
     0.000000, 0.000000, 0.000000, 1.000000;;
  }
  Frame Cube_001 {
    FrameTransformMatrix {
       1.000000, 0.000000, 0.000000, 0.000000,
       0.000000, 1.000000, 0.000000, 0.000000,
       0.000000, 0.000000, 1.000000, 0.000000,
       0.000000, 0.000000, 0.000000, 1.000000;;
    }
    Mesh { // Cube_001 mesh
      232;
       0.087797; 0.056214; 0.007165;,
       0.122100; 0.057257; 0.004662;,
       0.109780; 0.043914;-0.034754;,
       0.085092; 0.043163;-0.032563;,
       0.118938;-0.055560; 0.004869;,
       0.128192;-0.050462; 0.006951;,
       0.121076;-0.034714; 0.042456;,
       0.112981;-0.039192; 0.044856;,
       0.118938;-0.055560; 0.004869;,
       0.089834;-0.056445; 0.007218;,
       0.087672;-0.038968;-0.032551;,
       0.112377;-0.041502;-0.034754;,
       0.081737;-0.000317; 0.053666;,
       0.088376;-0.039940; 0.047059;,
       0.112981;-0.039192; 0.044856;,
       0.126267; 0.001037; 0.052220;,
       0.128864; 0.001116;-0.045186;,
       0.112377;-0.041502;-0.034754;,
       0.087672;-0.038968;-0.032551;,
       0.083391;-0.000266;-0.043709;,
       0.139262; 0.001432;-0.028492;,
       0.144957; 0.001605;-0.024225;,
       0.124673;-0.038525;-0.025638;,
       0.120687;-0.041739;-0.028695;,
       0.126267; 0.001037; 0.052220;,
       0.138410; 0.001406; 0.042642;,
       0.118914; 0.036406; 0.042456;,
       0.110495; 0.044882; 0.044372;,
       0.128864; 0.001116;-0.045186;,
       0.139262; 0.001432;-0.028492;,
       0.120687;-0.041739;-0.028695;,
       0.112377;-0.041502;-0.034754;,
       0.122100; 0.057257; 0.004662;,
       0.133428; 0.036847; 0.007031;,
       0.118312; 0.036388;-0.028695;,
       0.109780; 0.043914;-0.034754;,
       0.052011;-0.001220; 0.050646;,
       0.018099;-0.002251; 0.049259;,
       0.041707;-0.037738; 0.043834;,
       0.058582;-0.038450; 0.043705;,
       0.083391;-0.000266;-0.043709;,
       0.053091;-0.001188;-0.040110;,
       0.055567; 0.039870;-0.031118;,
       0.085092; 0.043163;-0.032563;,
       0.081737;-0.000317; 0.053666;,
       0.052011;-0.001220; 0.050646;,
       0.058582;-0.038450; 0.043705;,
       0.088376;-0.039940; 0.047059;,
       0.027680; 0.049697; 0.007675;,
       0.006092; 0.045543; 0.007699;,
       0.015589; 0.035676; 0.039641;,
       0.039358; 0.039099; 0.043338;,
       0.053091;-0.001188;-0.040110;,
       0.018490;-0.002239;-0.038107;,
       0.038704; 0.038132;-0.028550;,
       0.055567; 0.039870;-0.031118;,
       0.015230; 0.027543;-0.023228;,
       0.014981; 0.034711;-0.026849;,
       0.008847;-0.002532;-0.032346;,
       0.007709;-0.002567;-0.019057;,
       0.036756;-0.053938; 0.007666;,
       0.010550;-0.051661; 0.006676;,
       0.017034;-0.032808;-0.026849;,
       0.041004;-0.034779;-0.028538;,
       0.018490;-0.002239;-0.038107;,
       0.008847;-0.002532;-0.032346;,
       0.014981; 0.034711;-0.026849;,
       0.038704; 0.038132;-0.028550;,
       0.018099;-0.002251; 0.049259;,
       0.007060;-0.002587; 0.047301;,
       0.017691;-0.035767; 0.040126;,
       0.041707;-0.037738; 0.043834;,
       0.007921;-0.002561; 0.036056;,
       0.007060;-0.002587; 0.047301;,
       0.015589; 0.035676; 0.039641;,
       0.015735; 0.027559; 0.036506;,
       0.010156;-0.038683; 0.006676;,
       0.010550;-0.051661; 0.006676;,
       0.017691;-0.035767; 0.040126;,
       0.017550;-0.032150; 0.036506;,
       0.007709;-0.002567;-0.019057;,
       0.008847;-0.002532;-0.032346;,
       0.017034;-0.032808;-0.026849;,
       0.017045;-0.032165;-0.023228;,
       0.006698; 0.025598; 0.007699;,
       0.006092; 0.045543; 0.007699;,
       0.014981; 0.034711;-0.026849;,
       0.015230; 0.027543;-0.023228;,
       0.133428; 0.036847; 0.007031;,
       0.138800; 0.033005; 0.006987;,
       0.122486; 0.033422;-0.025638;,
       0.118312; 0.036388;-0.028695;,
       0.128192;-0.050462; 0.006951;,
       0.132430;-0.037946; 0.006912;,
       0.125010;-0.031501; 0.039330;,
       0.121076;-0.034714; 0.042456;,
       0.138410; 0.001406; 0.042642;,
       0.143916; 0.001573; 0.038370;,
       0.123036; 0.033439; 0.039330;,
       0.118914; 0.036406; 0.042456;,
       0.041004;-0.034779;-0.028538;,
       0.017034;-0.032808;-0.026849;,
       0.008847;-0.002532;-0.032346;,
       0.018490;-0.002239;-0.038107;,
       0.057971;-0.039217;-0.031118;,
       0.041004;-0.034779;-0.028538;,
       0.018490;-0.002239;-0.038107;,
       0.053091;-0.001188;-0.040110;,
       0.087672;-0.038968;-0.032551;,
       0.057971;-0.039217;-0.031118;,
       0.053091;-0.001188;-0.040110;,
       0.083391;-0.000266;-0.043709;,
       0.109780; 0.043914;-0.034754;,
       0.118312; 0.036388;-0.028695;,
       0.139262; 0.001432;-0.028492;,
       0.128864; 0.001116;-0.045186;,
       0.118312; 0.036388;-0.028695;,
       0.122486; 0.033422;-0.025638;,
       0.144957; 0.001605;-0.024225;,
       0.139262; 0.001432;-0.028492;,
       0.109780; 0.043914;-0.034754;,
       0.128864; 0.001116;-0.045186;,
       0.083391;-0.000266;-0.043709;,
       0.085092; 0.043163;-0.032563;,
       0.121076;-0.034714; 0.042456;,
       0.125010;-0.031501; 0.039330;,
       0.143916; 0.001573; 0.038370;,
       0.138410; 0.001406; 0.042642;,
       0.017550;-0.032150; 0.036506;,
       0.017691;-0.035767; 0.040126;,
       0.007060;-0.002587; 0.047301;,
       0.007921;-0.002561; 0.036056;,
       0.039358; 0.039099; 0.043338;,
       0.015589; 0.035676; 0.039641;,
       0.007060;-0.002587; 0.047301;,
       0.018099;-0.002251; 0.049259;,
       0.085806; 0.044132; 0.046563;,
       0.056241; 0.040838; 0.043220;,
       0.052011;-0.001220; 0.050646;,
       0.081737;-0.000317; 0.053666;,
       0.056241; 0.040838; 0.043220;,
       0.039358; 0.039099; 0.043338;,
       0.018099;-0.002251; 0.049259;,
       0.052011;-0.001220; 0.050646;,
       0.112981;-0.039192; 0.044856;,
       0.121076;-0.034714; 0.042456;,
       0.138410; 0.001406; 0.042642;,
       0.126267; 0.001037; 0.052220;,
       0.085806; 0.044132; 0.046563;,
       0.081737;-0.000317; 0.053666;,
       0.126267; 0.001037; 0.052220;,
       0.110495; 0.044882; 0.044372;,
       0.118914; 0.036406; 0.042456;,
       0.123036; 0.033439; 0.039330;,
       0.138800; 0.033005; 0.006987;,
       0.133428; 0.036847; 0.007031;,
       0.015735; 0.027559; 0.036506;,
       0.015589; 0.035676; 0.039641;,
       0.006092; 0.045543; 0.007699;,
       0.006698; 0.025598; 0.007699;,
       0.038704; 0.038132;-0.028550;,
       0.014981; 0.034711;-0.026849;,
       0.006092; 0.045543; 0.007699;,
       0.027680; 0.049697; 0.007675;,
       0.110495; 0.044882; 0.044372;,
       0.118914; 0.036406; 0.042456;,
       0.133428; 0.036847; 0.007031;,
       0.122100; 0.057257; 0.004662;,
       0.085806; 0.044132; 0.046563;,
       0.110495; 0.044882; 0.044372;,
       0.122100; 0.057257; 0.004662;,
       0.087797; 0.056214; 0.007165;,
       0.120687;-0.041739;-0.028695;,
       0.124673;-0.038525;-0.025638;,
       0.132430;-0.037946; 0.006912;,
       0.128192;-0.050462; 0.006951;,
       0.017045;-0.032165;-0.023228;,
       0.017034;-0.032808;-0.026849;,
       0.010550;-0.051661; 0.006676;,
       0.010156;-0.038683; 0.006676;,
       0.041707;-0.037738; 0.043834;,
       0.017691;-0.035767; 0.040126;,
       0.010550;-0.051661; 0.006676;,
       0.036756;-0.053938; 0.007666;,
       0.112981;-0.039192; 0.044856;,
       0.088376;-0.039940; 0.047059;,
       0.089834;-0.056445; 0.007218;,
       0.118938;-0.055560; 0.004869;,
       0.112377;-0.041502;-0.034754;,
       0.120687;-0.041739;-0.028695;,
       0.128192;-0.050462; 0.006951;,
       0.118938;-0.055560; 0.004869;,
      -0.003888;-0.031500;-0.033199;,
      -0.008384; 0.033944;-0.033112;,
      -0.010269; 0.033830;-0.056737;,
      -0.005773;-0.031615;-0.056823;,
      -0.008384; 0.033944;-0.033112;,
       0.141272; 0.043917;-0.037785;,
       0.139388; 0.043803;-0.061410;,
      -0.010269; 0.033830;-0.056737;,
       0.141272; 0.043917;-0.037785;,
       0.145768;-0.021527;-0.037872;,
       0.143884;-0.021642;-0.061497;,
       0.139388; 0.043803;-0.061410;,
       0.145768;-0.021527;-0.037872;,
      -0.003888;-0.031500;-0.033199;,
      -0.005773;-0.031615;-0.056823;,
       0.143884;-0.021642;-0.061497;,
      -0.008384; 0.033944;-0.033112;,
      -0.003888;-0.031500;-0.033199;,
       0.145768;-0.021527;-0.037872;,
       0.141272; 0.043917;-0.037785;,
      -0.005773;-0.031615;-0.056823;,
       0.001233;-0.027873;-0.063709;,
       0.136016;-0.018891;-0.067918;,
       0.143884;-0.021642;-0.061497;,
       0.131966; 0.040049;-0.067840;,
       0.136016;-0.018891;-0.067918;,
       0.001233;-0.027873;-0.063709;,
      -0.002816; 0.031068;-0.063631;,
       0.139388; 0.043803;-0.061410;,
       0.131966; 0.040049;-0.067840;,
      -0.002816; 0.031068;-0.063631;,
      -0.010269; 0.033830;-0.056737;,
       0.143884;-0.021642;-0.061497;,
       0.136016;-0.018891;-0.067918;,
       0.131966; 0.040049;-0.067840;,
       0.139388; 0.043803;-0.061410;,
      -0.010269; 0.033830;-0.056737;,
      -0.002816; 0.031068;-0.063631;,
       0.001233;-0.027873;-0.063709;,
      -0.005773;-0.031615;-0.056823;;
      58;
      4;3,2,1,0;,
      4;7,6,5,4;,
      4;11,10,9,8;,
      4;15,14,13,12;,
      4;19,18,17,16;,
      4;23,22,21,20;,
      4;27,26,25,24;,
      4;31,30,29,28;,
      4;35,34,33,32;,
      4;39,38,37,36;,
      4;43,42,41,40;,
      4;47,46,45,44;,
      4;51,50,49,48;,
      4;55,54,53,52;,
      4;59,58,57,56;,
      4;63,62,61,60;,
      4;67,66,65,64;,
      4;71,70,69,68;,
      4;75,74,73,72;,
      4;79,78,77,76;,
      4;83,82,81,80;,
      4;87,86,85,84;,
      4;91,90,89,88;,
      4;95,94,93,92;,
      4;99,98,97,96;,
      4;103,102,101,100;,
      4;107,106,105,104;,
      4;111,110,109,108;,
      4;115,114,113,112;,
      4;119,118,117,116;,
      4;123,122,121,120;,
      4;127,126,125,124;,
      4;131,130,129,128;,
      4;135,134,133,132;,
      4;139,138,137,136;,
      4;143,142,141,140;,
      4;147,146,145,144;,
      4;151,150,149,148;,
      4;155,154,153,152;,
      4;159,158,157,156;,
      4;163,162,161,160;,
      4;167,166,165,164;,
      4;171,170,169,168;,
      4;175,174,173,172;,
      4;179,178,177,176;,
      4;183,182,181,180;,
      4;187,186,185,184;,
      4;191,190,189,188;,
      4;195,194,193,192;,
      4;199,198,197,196;,
      4;203,202,201,200;,
      4;207,206,205,204;,
      4;211,210,209,208;,
      4;215,214,213,212;,
      4;219,218,217,216;,
      4;223,222,221,220;,
      4;227,226,225,224;,
      4;231,230,229,228;;
      MeshNormals { // Cube_001 normals
        202;
        -0.029939; 0.999512; 0.005280;,
         0.493973; 0.868831;-0.032899;,
         0.281259; 0.651662;-0.704398;,
        -0.077578; 0.539140;-0.838618;,
         0.236244;-0.971648;-0.007538;,
         0.707480;-0.703574; 0.066469;,
         0.623127;-0.487930; 0.611194;,
         0.248787;-0.638478; 0.728294;,
         0.236244;-0.971648;-0.007538;,
         0.003418;-0.999573; 0.028596;,
        -0.069185;-0.523820;-0.848994;,
         0.234779;-0.659047;-0.714469;,
        -0.037080;-0.005005; 0.999298;,
         0.009949;-0.470077; 0.882534;,
         0.248787;-0.638478; 0.728294;,
         0.364788; 0.009125; 0.931028;,
         0.482467; 0.025819;-0.875515;,
         0.234779;-0.659047;-0.714469;,
        -0.069185;-0.523820;-0.848994;,
        -0.074313;-0.011200;-0.997162;,
         0.726341; 0.051790;-0.685354;,
         0.667653; 0.042512;-0.743217;,
         0.782769;-0.358806;-0.508438;,
         0.648823;-0.596545;-0.472365;,
         0.364788; 0.009125; 0.931028;,
         0.644948; 0.019471; 0.763970;,
         0.663198; 0.461470; 0.589221;,
         0.309122; 0.649037; 0.695059;,
         0.482467; 0.025819;-0.875515;,
         0.726341; 0.051790;-0.685354;,
         0.648823;-0.596545;-0.472365;,
         0.234779;-0.659047;-0.714469;,
         0.493973; 0.868831;-0.032899;,
         0.735618; 0.677358; 0.005341;,
         0.750572; 0.486129;-0.447554;,
         0.281259; 0.651662;-0.704398;,
        -0.068087;-0.005951; 0.997650;,
        -0.127781;-0.011231; 0.991729;,
        -0.088778;-0.447859; 0.889676;,
        -0.070376;-0.184698; 0.980255;,
        -0.074313;-0.011200;-0.997162;,
        -0.097751;-0.018250;-0.995025;,
        -0.098514; 0.240699;-0.965575;,
        -0.077578; 0.539140;-0.838618;,
        -0.037080;-0.005005; 0.999298;,
        -0.068087;-0.005951; 0.997650;,
        -0.070376;-0.184698; 0.980255;,
         0.009949;-0.470077; 0.882534;,
        -0.185614; 0.982604; 0.000458;,
        -0.775048; 0.631825; 0.008209;,
        -0.603900; 0.504837; 0.616749;,
        -0.119816; 0.431501; 0.894101;,
        -0.097751;-0.018250;-0.995025;,
        -0.191321;-0.028932;-0.981079;,
        -0.166234; 0.493728;-0.853542;,
        -0.098514; 0.240699;-0.965575;,
        -0.992126; 0.086337;-0.090579;,
        -0.618671; 0.499557;-0.606342;,
        -0.779931;-0.046327;-0.624104;,
        -0.998993;-0.043092;-0.010804;,
        -0.111209;-0.993652;-0.015839;,
        -0.701926;-0.711814;-0.023743;,
        -0.585345;-0.546739;-0.598651;,
        -0.127018;-0.505570;-0.853359;,
        -0.191321;-0.028932;-0.981079;,
        -0.779931;-0.046327;-0.624104;,
        -0.618671; 0.499557;-0.606342;,
        -0.166234; 0.493728;-0.853542;,
        -0.127781;-0.011231; 0.991729;,
        -0.814722;-0.037355; 0.578631;,
        -0.589862;-0.532548; 0.606952;,
        -0.088778;-0.447859; 0.889676;,
        -0.986663;-0.043245;-0.156774;,
        -0.814722;-0.037355; 0.578631;,
        -0.603900; 0.504837; 0.616749;,
        -0.994842; 0.100375; 0.014008;,
        -0.999695; 0.020875; 0.011017;,
        -0.701926;-0.711814;-0.023743;,
        -0.589862;-0.532548; 0.606952;,
        -0.987762;-0.149693; 0.043733;,
        -0.998993;-0.043092;-0.010804;,
        -0.779931;-0.046327;-0.624104;,
        -0.585345;-0.546739;-0.598651;,
        -0.984832;-0.102206;-0.140080;,
        -0.997833;-0.062838; 0.018342;,
        -0.775048; 0.631825; 0.008209;,
        -0.618671; 0.499557;-0.606342;,
        -0.992126; 0.086337;-0.090579;,
         0.735618; 0.677358; 0.005341;,
         0.642628; 0.766137;-0.003876;,
         0.639363; 0.578784;-0.506119;,
         0.750572; 0.486129;-0.447554;,
         0.707480;-0.703574; 0.066469;,
         0.908078;-0.415418; 0.052644;,
         0.769280;-0.367351; 0.522691;,
         0.623127;-0.487930; 0.611194;,
         0.644948; 0.019471; 0.763970;,
         0.686239; 0.020844; 0.727042;,
         0.649556; 0.573687; 0.498917;,
         0.663198; 0.461470; 0.589221;,
        -0.127018;-0.505570;-0.853359;,
        -0.585345;-0.546739;-0.598651;,
        -0.779931;-0.046327;-0.624104;,
        -0.191321;-0.028932;-0.981079;,
        -0.087497;-0.273934;-0.957732;,
        -0.127018;-0.505570;-0.853359;,
        -0.191321;-0.028932;-0.981079;,
        -0.097751;-0.018250;-0.995025;,
        -0.069185;-0.523820;-0.848994;,
        -0.087497;-0.273934;-0.957732;,
        -0.097751;-0.018250;-0.995025;,
        -0.074313;-0.011200;-0.997162;,
         0.281259; 0.651662;-0.704398;,
         0.750572; 0.486129;-0.447554;,
         0.726341; 0.051790;-0.685354;,
         0.482467; 0.025819;-0.875515;,
         0.750572; 0.486129;-0.447554;,
         0.639363; 0.578784;-0.506119;,
         0.667653; 0.042512;-0.743217;,
         0.726341; 0.051790;-0.685354;,
         0.281259; 0.651662;-0.704398;,
         0.482467; 0.025819;-0.875515;,
        -0.074313;-0.011200;-0.997162;,
        -0.077578; 0.539140;-0.838618;,
         0.623127;-0.487930; 0.611194;,
         0.769280;-0.367351; 0.522691;,
         0.686239; 0.020844; 0.727042;,
         0.644948; 0.019471; 0.763970;,
        -0.987762;-0.149693; 0.043733;,
        -0.589862;-0.532548; 0.606952;,
        -0.814722;-0.037355; 0.578631;,
        -0.986663;-0.043245;-0.156774;,
        -0.119816; 0.431501; 0.894101;,
        -0.603900; 0.504837; 0.616749;,
        -0.814722;-0.037355; 0.578631;,
        -0.127781;-0.011231; 0.991729;,
        -0.023286; 0.482315; 0.875668;,
        -0.080782; 0.172277; 0.981719;,
        -0.068087;-0.005951; 0.997650;,
        -0.037080;-0.005005; 0.999298;,
        -0.080782; 0.172277; 0.981719;,
        -0.119816; 0.431501; 0.894101;,
        -0.127781;-0.011231; 0.991729;,
        -0.068087;-0.005951; 0.997650;,
         0.248787;-0.638478; 0.728294;,
         0.623127;-0.487930; 0.611194;,
         0.644948; 0.019471; 0.763970;,
         0.364788; 0.009125; 0.931028;,
        -0.023286; 0.482315; 0.875668;,
        -0.037080;-0.005005; 0.999298;,
         0.364788; 0.009125; 0.931028;,
         0.309122; 0.649037; 0.695059;,
         0.663198; 0.461470; 0.589221;,
         0.649556; 0.573687; 0.498917;,
         0.642628; 0.766137;-0.003876;,
         0.735618; 0.677358; 0.005341;,
        -0.994842; 0.100375; 0.014008;,
        -0.603900; 0.504837; 0.616749;,
        -0.775048; 0.631825; 0.008209;,
        -0.997833;-0.062838; 0.018342;,
        -0.166234; 0.493728;-0.853542;,
        -0.618671; 0.499557;-0.606342;,
        -0.775048; 0.631825; 0.008209;,
        -0.185614; 0.982604; 0.000458;,
         0.309122; 0.649037; 0.695059;,
         0.663198; 0.461470; 0.589221;,
         0.735618; 0.677358; 0.005341;,
         0.493973; 0.868831;-0.032899;,
        -0.023286; 0.482315; 0.875668;,
         0.309122; 0.649037; 0.695059;,
         0.493973; 0.868831;-0.032899;,
        -0.029939; 0.999512; 0.005280;,
         0.648823;-0.596545;-0.472365;,
         0.782769;-0.358806;-0.508438;,
         0.908078;-0.415418; 0.052644;,
         0.707480;-0.703574; 0.066469;,
        -0.984832;-0.102206;-0.140080;,
        -0.585345;-0.546739;-0.598651;,
        -0.701926;-0.711814;-0.023743;,
        -0.999695; 0.020875; 0.011017;,
        -0.088778;-0.447859; 0.889676;,
        -0.589862;-0.532548; 0.606952;,
        -0.701926;-0.711814;-0.023743;,
        -0.111209;-0.993652;-0.015839;,
         0.248787;-0.638478; 0.728294;,
         0.009949;-0.470077; 0.882534;,
         0.003418;-0.999573; 0.028596;,
         0.236244;-0.971648;-0.007538;,
         0.234779;-0.659047;-0.714469;,
         0.648823;-0.596545;-0.472365;,
         0.707480;-0.703574; 0.066469;,
         0.236244;-0.971648;-0.007538;,
        -0.994471;-0.068427; 0.079659;,
        -0.066477; 0.997788; 0.000466;,
         0.994471; 0.068427;-0.079658;,
         0.066477;-0.997788;-0.000466;,
         0.031159; 0.000814; 0.999514;,
         0.045991;-0.896578;-0.440492;,
        -0.031159;-0.000814;-0.999514;,
        -0.073384; 0.895860;-0.438234;,
         0.641046; 0.045058;-0.766178;,
        -0.687523;-0.046272;-0.724686;;
        58;
        4;3,2,1,0;,
        4;7,6,5,4;,
        4;11,10,9,8;,
        4;15,14,13,12;,
        4;19,18,17,16;,
        4;23,22,21,20;,
        4;27,26,25,24;,
        4;31,30,29,28;,
        4;35,34,33,32;,
        4;39,38,37,36;,
        4;43,42,41,40;,
        4;47,46,45,44;,
        4;51,50,49,48;,
        4;55,54,53,52;,
        4;59,58,57,56;,
        4;63,62,61,60;,
        4;67,66,65,64;,
        4;71,70,69,68;,
        4;75,74,73,72;,
        4;79,78,77,76;,
        4;83,82,81,80;,
        4;87,86,85,84;,
        4;91,90,89,88;,
        4;95,94,93,92;,
        4;99,98,97,96;,
        4;103,102,101,100;,
        4;107,106,105,104;,
        4;111,110,109,108;,
        4;115,114,113,112;,
        4;119,118,117,116;,
        4;123,122,121,120;,
        4;127,126,125,124;,
        4;131,130,129,128;,
        4;135,134,133,132;,
        4;139,138,137,136;,
        4;143,142,141,140;,
        4;147,146,145,144;,
        4;151,150,149,148;,
        4;155,154,153,152;,
        4;159,158,157,156;,
        4;163,162,161,160;,
        4;167,166,165,164;,
        4;171,170,169,168;,
        4;175,174,173,172;,
        4;179,178,177,176;,
        4;183,182,181,180;,
        4;187,186,185,184;,
        4;191,190,189,188;,
        4;192,192,192,192;,
        4;193,193,193,193;,
        4;194,194,194,194;,
        4;195,195,195,195;,
        4;196,196,196,196;,
        4;197,197,197,197;,
        4;198,198,198,198;,
        4;199,199,199,199;,
        4;200,200,200,200;,
        4;201,201,201,201;;
      } // End of Cube_001 normals
      MeshTextureCoords { // Cube_001 UV coordinates
        232;
         0.102499; 0.178878;,
         0.000000; 0.185035;,
         0.039241; 0.303785;,
         0.113022; 0.298161;,
         0.730865; 0.870206;,
         0.702584; 0.877104;,
         0.722605; 0.986905;,
         0.747453; 0.993840;,
         0.730865; 0.870206;,
         0.817992; 0.876705;,
         0.821117; 0.755474;,
         0.747596; 0.749130;,
         0.119088; 0.828291;,
         0.000000; 0.843695;,
         0.000000; 0.918748;,
         0.119104; 0.964617;,
         0.376346; 1.000000;,
         0.506403; 0.951913;,
         0.501971; 0.875449;,
         0.386068; 0.860872;,
         0.930800; 0.869282;,
         0.915200; 0.869528;,
         0.978677; 0.990679;,
         0.989854; 1.000000;,
         0.119104; 0.964617;,
         0.119050; 1.000000;,
         0.225437; 0.943434;,
         0.251546; 0.918783;,
         0.552472; 0.257407;,
         0.578967; 0.292327;,
         0.677572; 0.194629;,
         0.670895; 0.182918;,
         0.554171; 0.488299;,
         0.589944; 0.446484;,
         0.527116; 0.371987;,
         0.506403; 0.376822;,
         0.119052; 0.736506;,
         0.119024; 0.632198;,
         0.010777; 0.700228;,
         0.007122; 0.751857;,
         0.386068; 0.860872;,
         0.392734; 0.767334;,
         0.270427; 0.766643;,
         0.256925; 0.856817;,
         0.119088; 0.828291;,
         0.119052; 0.736506;,
         0.007122; 0.751857;,
         0.000000; 0.843695;,
         0.178467; 0.191720;,
         0.113022; 0.191535;,
         0.137535; 0.291936;,
         0.209151; 0.303785;,
         0.392734; 0.767334;,
         0.400195; 0.661186;,
         0.277839; 0.714565;,
         0.270427; 0.766643;,
         0.193862; 0.558635;,
         0.200921; 0.582225;,
         0.234838; 0.472815;,
         0.195554; 0.465949;,
         0.899079; 0.889955;,
         0.821117; 0.893437;,
         0.843811; 0.995216;,
         0.915200; 1.000000;,
         0.400195; 0.661186;,
         0.402649; 0.629945;,
         0.291045; 0.642039;,
         0.277839; 0.714565;,
         0.119024; 0.632198;,
         0.119006; 0.597949;,
         0.018813; 0.626074;,
         0.010777; 0.700228;,
         0.033229; 0.437513;,
         0.000000; 0.431705;,
         0.004658; 0.550788;,
         0.017960; 0.527817;,
         0.138077; 0.343111;,
         0.144596; 0.303785;,
         0.039111; 0.334044;,
         0.047954; 0.346877;,
         0.195554; 0.465949;,
         0.234838; 0.472815;,
         0.234838; 0.377619;,
         0.223856; 0.377695;,
         0.102566; 0.537507;,
         0.092547; 0.597949;,
         0.200921; 0.582225;,
         0.193862; 0.558635;,
         0.773858; 0.108031;,
         0.758943; 0.107144;,
         0.806573; 0.207980;,
         0.818090; 0.218141;,
         0.728317; 0.489493;,
         0.756083; 0.461214;,
         0.693610; 0.379423;,
         0.677572; 0.380160;,
         0.761148; 0.298103;,
         0.774974; 0.306716;,
         0.818090; 0.231482;,
         0.813897; 0.218141;,
         0.495379; 0.731135;,
         0.492501; 0.657150;,
         0.402649; 0.629945;,
         0.400195; 0.661186;,
         0.506403; 0.784343;,
         0.495379; 0.731135;,
         0.400195; 0.661186;,
         0.392734; 0.767334;,
         0.501971; 0.875449;,
         0.506403; 0.784343;,
         0.392734; 0.767334;,
         0.386068; 0.860872;,
         0.506403; 0.376822;,
         0.527116; 0.371987;,
         0.578967; 0.292327;,
         0.552472; 0.257407;,
         0.989854; 0.759867;,
         0.978677; 0.769540;,
         0.915200; 0.869528;,
         0.930800; 0.869282;,
         0.251546; 0.932796;,
         0.376346; 1.000000;,
         0.386068; 0.860872;,
         0.256925; 0.856817;,
         0.677572; 0.380160;,
         0.693610; 0.379423;,
         0.774974; 0.306716;,
         0.761148; 0.298103;,
         0.047954; 0.346877;,
         0.039111; 0.334044;,
         0.000000; 0.431705;,
         0.033229; 0.437513;,
         0.240676; 0.700012;,
         0.232567; 0.626121;,
         0.119006; 0.597949;,
         0.119024; 0.632198;,
         0.251546; 0.843472;,
         0.244349; 0.751897;,
         0.119052; 0.736506;,
         0.119088; 0.828291;,
         0.244349; 0.751897;,
         0.240676; 0.700012;,
         0.119024; 0.632198;,
         0.119052; 0.736506;,
         0.000000; 0.918748;,
         0.012641; 0.943504;,
         0.119050; 1.000000;,
         0.119104; 0.964617;,
         0.251546; 0.843472;,
         0.119088; 0.828291;,
         0.119104; 0.964617;,
         0.251546; 0.918783;,
         0.818090; 0.000000;,
         0.806573; 0.008793;,
         0.758943; 0.107144;,
         0.773858; 0.108031;,
         0.017960; 0.527817;,
         0.004658; 0.550788;,
         0.092547; 0.597949;,
         0.102566; 0.537507;,
         0.209151; 0.083571;,
         0.137505; 0.088273;,
         0.113022; 0.191535;,
         0.178467; 0.191720;,
         0.671840; 0.542907;,
         0.677572; 0.519398;,
         0.589944; 0.446484;,
         0.554171; 0.488299;,
         0.113022; 0.055756;,
         0.039241; 0.061381;,
         0.000000; 0.185035;,
         0.102499; 0.178878;,
         0.815175; 0.542907;,
         0.818089; 0.529416;,
         0.756083; 0.461214;,
         0.728317; 0.489493;,
         0.223856; 0.377695;,
         0.234838; 0.377619;,
         0.144596; 0.303785;,
         0.138077; 0.343111;,
         0.915200; 0.777821;,
         0.843801; 0.789623;,
         0.821117; 0.893437;,
         0.899079; 0.889955;,
         0.747453; 0.993840;,
         0.821117; 1.000000;,
         0.817992; 0.876705;,
         0.730865; 0.870206;,
         0.747596; 0.749130;,
         0.722950; 0.767922;,
         0.702584; 0.877104;,
         0.730865; 0.870206;,
         0.867174; 0.749130;,
         0.867174; 0.547610;,
         0.796364; 0.547595;,
         0.796364; 0.749114;,
         0.909310; 0.081854;,
         0.909310; 0.542907;,
         0.980106; 0.539367;,
         0.980106; 0.078314;,
         0.796364; 0.749130;,
         0.796364; 0.552878;,
         0.726020; 0.550792;,
         0.726020; 0.747044;,
         0.909310; 0.542907;,
         0.909310; 0.082091;,
         0.838804; 0.078780;,
         0.838804; 0.539596;,
         0.506403; 1.000000;,
         0.702584; 0.999374;,
         0.702584; 0.542907;,
         0.506403; 0.543533;,
         0.838804; 0.078780;,
         0.818090; 0.101381;,
         0.818090; 0.516398;,
         0.838804; 0.539596;,
         0.436875; 0.191374;,
         0.260228; 0.191374;,
         0.260829; 0.606468;,
         0.437475; 0.606468;,
         0.980106; 0.539367;,
         1.000000; 0.516363;,
         1.000000; 0.101132;,
         0.980106; 0.078314;,
         0.726020; 0.550792;,
         0.702584; 0.564942;,
         0.702584; 0.741689;,
         0.726020; 0.747044;,
         0.447687; 0.629945;,
         0.437475; 0.606468;,
         0.260829; 0.606468;,
         0.251546; 0.629945;;
      } // End of Cube_001 UV coordinates
      MeshMaterialList { // Cube_001 material list
        1;
        58;
        0,
        0,
        0,
        0,
        0,
        0,
        0,
        0,
        0,
        0,
        0,
        0,
        0,
        0,
        0,
        0,
        0,
        0,
        0,
        0,
        0,
        0,
        0,
        0,
        0,
        0,
        0,
        0,
        0,
        0,
        0,
        0,
        0,
        0,
        0,
        0,
        0,
        0,
        0,
        0,
        0,
        0,
        0,
        0,
        0,
        0,
        0,
        0,
        0,
        0,
        0,
        0,
        0,
        0,
        0,
        0,
        0,
        0;
        Material Material_003 {
           0.640000; 0.640000; 0.640000; 1.000000;;
           96.078431;
           0.500000; 0.500000; 0.500000;;
           0.000000; 0.000000; 0.000000;;
        }
      } // End of Cube_001 material list
    } // End of Cube_001 mesh
  } // End of Cube_001
} // End of Root
