xof 0303txt 0032

Frame Root {
  FrameTransformMatrix {
     1.000000, 0.000000, 0.000000, 0.000000,
     0.000000,-0.000000, 1.000000, 0.000000,
     0.000000, 1.000000, 0.000000, 0.000000,
     0.000000, 0.000000, 0.000000, 1.000000;;
  }
  Frame Cube {
    FrameTransformMatrix {
       1.000000, 0.000000, 0.000000, 0.000000,
       0.000000, 1.000000, 0.000000, 0.000000,
       0.000000, 0.000000, 1.000000, 0.000000,
       0.000000, 0.000000, 0.000000, 1.000000;;
    }
    Mesh { // Cube mesh
      208;
       0.141078;-0.045997;-0.107145;,
       0.151353;-0.038556;-0.108681;,
       0.159019;-0.036493;-0.051631;,
       0.148744;-0.043935;-0.050094;,
       0.135759;-0.036607;-0.127951;,
       0.148356;-0.033218;-0.120305;,
       0.149467;-0.037345;-0.120305;,
       0.139623;-0.046389;-0.118768;,
       0.153833;-0.028015;-0.109347;,
       0.151353;-0.038556;-0.108681;,
       0.149467;-0.037345;-0.120305;,
       0.148356;-0.033218;-0.120305;,
       0.131284; 0.055791;-0.109347;,
       0.124871; 0.054066;-0.120305;,
       0.122390; 0.063288;-0.120305;,
       0.123931; 0.063361;-0.108681;,
       0.153833;-0.028015;-0.109347;,
       0.148356;-0.033218;-0.120305;,
       0.124871; 0.054066;-0.120305;,
       0.131284; 0.055791;-0.109347;,
       0.110792; 0.066563;-0.107145;,
       0.123931; 0.063361;-0.108681;,
       0.122390; 0.063288;-0.120305;,
       0.109337; 0.066171;-0.118768;,
       0.118459; 0.068626;-0.050094;,
       0.131597; 0.065424;-0.051631;,
       0.123931; 0.063361;-0.108681;,
       0.110792; 0.066563;-0.107145;,
       0.161500;-0.025953;-0.052297;,
       0.153833;-0.028015;-0.109347;,
       0.131284; 0.055791;-0.109347;,
       0.138950; 0.057854;-0.052297;,
       0.138950; 0.057854;-0.052297;,
       0.131284; 0.055791;-0.109347;,
       0.123931; 0.063361;-0.108681;,
       0.131597; 0.065424;-0.051631;,
       0.161500;-0.025953;-0.052297;,
       0.159019;-0.036493;-0.051631;,
       0.151353;-0.038556;-0.108681;,
       0.153833;-0.028015;-0.109347;,
       0.139623;-0.046389;-0.118768;,
       0.149467;-0.037345;-0.120305;,
       0.151353;-0.038556;-0.108681;,
       0.141078;-0.045997;-0.107145;,
       0.124871; 0.054066;-0.120305;,
       0.112274; 0.050676;-0.127951;,
       0.109337; 0.066171;-0.118768;,
       0.122390; 0.063288;-0.120305;,
       0.148356;-0.033218;-0.120305;,
       0.135759;-0.036607;-0.127951;,
       0.112274; 0.050676;-0.127951;,
       0.124871; 0.054066;-0.120305;,
       0.141078;-0.045997; 0.107145;,
       0.148744;-0.043935; 0.050094;,
       0.159019;-0.036493; 0.051631;,
       0.151353;-0.038556; 0.108681;,
       0.135758;-0.036607; 0.127951;,
       0.139623;-0.046389; 0.118768;,
       0.149467;-0.037345; 0.120305;,
       0.148356;-0.033218; 0.120305;,
       0.153833;-0.028015; 0.109347;,
       0.148356;-0.033218; 0.120305;,
       0.149467;-0.037345; 0.120305;,
       0.151353;-0.038556; 0.108681;,
       0.131284; 0.055791; 0.109347;,
       0.123931; 0.063361; 0.108681;,
       0.122390; 0.063288; 0.120305;,
       0.124871; 0.054066; 0.120305;,
       0.153833;-0.028015; 0.109347;,
       0.131284; 0.055791; 0.109347;,
       0.124871; 0.054066; 0.120305;,
       0.148356;-0.033218; 0.120305;,
       0.110792; 0.066563; 0.107145;,
       0.109337; 0.066171; 0.118768;,
       0.122390; 0.063288; 0.120305;,
       0.123931; 0.063361; 0.108681;,
       0.118459; 0.068626; 0.050094;,
       0.110792; 0.066563; 0.107145;,
       0.123931; 0.063361; 0.108681;,
       0.131597; 0.065424; 0.051631;,
       0.161500;-0.025953; 0.052297;,
       0.138950; 0.057854; 0.052297;,
       0.131284; 0.055791; 0.109347;,
       0.153833;-0.028015; 0.109347;,
       0.138950; 0.057854; 0.052297;,
       0.131597; 0.065424; 0.051631;,
       0.123931; 0.063361; 0.108681;,
       0.131284; 0.055791; 0.109347;,
       0.161500;-0.025953; 0.052297;,
       0.153833;-0.028015; 0.109347;,
       0.151353;-0.038556; 0.108681;,
       0.159019;-0.036493; 0.051631;,
       0.139623;-0.046389; 0.118768;,
       0.141078;-0.045997; 0.107145;,
       0.151353;-0.038556; 0.108681;,
       0.149467;-0.037345; 0.120305;,
       0.124871; 0.054066; 0.120305;,
       0.122390; 0.063288; 0.120305;,
       0.109337; 0.066171; 0.118768;,
       0.112274; 0.050676; 0.127951;,
       0.148356;-0.033218; 0.120305;,
       0.124871; 0.054066; 0.120305;,
       0.112274; 0.050676; 0.127951;,
       0.135758;-0.036607; 0.127951;,
       0.122326;-0.051043;-0.134679;,
       0.132600;-0.043601;-0.136216;,
       0.140266;-0.041538;-0.079166;,
       0.129992;-0.048980;-0.077629;,
       0.117006;-0.041653;-0.155486;,
       0.129604;-0.038263;-0.147840;,
       0.130714;-0.042391;-0.147840;,
       0.120871;-0.051434;-0.146303;,
       0.135081;-0.033061;-0.136882;,
       0.132600;-0.043601;-0.136216;,
       0.130714;-0.042391;-0.147840;,
       0.129604;-0.038263;-0.147840;,
       0.112532; 0.050746;-0.136882;,
       0.106119; 0.049020;-0.147840;,
       0.103637; 0.058243;-0.147840;,
       0.105178; 0.058315;-0.136216;,
       0.135081;-0.033061;-0.136882;,
       0.129604;-0.038263;-0.147840;,
       0.106119; 0.049020;-0.147840;,
       0.112532; 0.050746;-0.136882;,
       0.092040; 0.061517;-0.134679;,
       0.105178; 0.058315;-0.136216;,
       0.103637; 0.058243;-0.147840;,
       0.090585; 0.061126;-0.146303;,
       0.099706; 0.063580;-0.077629;,
       0.112845; 0.060378;-0.079166;,
       0.105178; 0.058315;-0.136216;,
       0.092040; 0.061517;-0.134679;,
       0.142747;-0.030998;-0.079831;,
       0.135081;-0.033061;-0.136882;,
       0.112532; 0.050746;-0.136882;,
       0.120198; 0.052808;-0.079831;,
       0.120198; 0.052808;-0.079831;,
       0.112532; 0.050746;-0.136882;,
       0.105178; 0.058315;-0.136216;,
       0.112845; 0.060378;-0.079166;,
       0.142747;-0.030998;-0.079831;,
       0.140266;-0.041538;-0.079166;,
       0.132600;-0.043601;-0.136216;,
       0.135081;-0.033061;-0.136882;,
       0.120871;-0.051434;-0.146303;,
       0.130714;-0.042391;-0.147840;,
       0.132600;-0.043601;-0.136216;,
       0.122326;-0.051043;-0.134679;,
       0.106119; 0.049020;-0.147840;,
       0.093521; 0.045631;-0.155486;,
       0.090585; 0.061126;-0.146303;,
       0.103637; 0.058243;-0.147840;,
       0.129604;-0.038263;-0.147840;,
       0.117006;-0.041653;-0.155486;,
       0.093521; 0.045631;-0.155486;,
       0.106119; 0.049020;-0.147840;,
       0.122325;-0.051043; 0.134679;,
       0.129992;-0.048980; 0.077629;,
       0.140266;-0.041538; 0.079166;,
       0.132600;-0.043601; 0.136216;,
       0.117006;-0.041653; 0.155486;,
       0.120871;-0.051434; 0.146303;,
       0.130714;-0.042391; 0.147840;,
       0.129604;-0.038263; 0.147840;,
       0.135081;-0.033061; 0.136882;,
       0.129604;-0.038263; 0.147840;,
       0.130714;-0.042391; 0.147840;,
       0.132600;-0.043601; 0.136216;,
       0.112531; 0.050746; 0.136882;,
       0.105178; 0.058315; 0.136216;,
       0.103637; 0.058243; 0.147840;,
       0.106119; 0.049020; 0.147840;,
       0.135081;-0.033061; 0.136882;,
       0.112531; 0.050746; 0.136882;,
       0.106119; 0.049020; 0.147840;,
       0.129604;-0.038263; 0.147840;,
       0.092040; 0.061517; 0.134679;,
       0.090585; 0.061126; 0.146303;,
       0.103637; 0.058243; 0.147840;,
       0.105178; 0.058315; 0.136216;,
       0.099706; 0.063580; 0.077629;,
       0.092040; 0.061517; 0.134679;,
       0.105178; 0.058315; 0.136216;,
       0.112844; 0.060378; 0.079166;,
       0.142747;-0.030998; 0.079831;,
       0.120198; 0.052808; 0.079831;,
       0.112531; 0.050746; 0.136882;,
       0.135081;-0.033061; 0.136882;,
       0.120198; 0.052808; 0.079831;,
       0.112844; 0.060378; 0.079166;,
       0.105178; 0.058315; 0.136216;,
       0.112531; 0.050746; 0.136882;,
       0.142747;-0.030998; 0.079831;,
       0.135081;-0.033061; 0.136882;,
       0.132600;-0.043601; 0.136216;,
       0.140266;-0.041538; 0.079166;,
       0.120871;-0.051434; 0.146303;,
       0.122325;-0.051043; 0.134679;,
       0.132600;-0.043601; 0.136216;,
       0.130714;-0.042391; 0.147840;,
       0.106119; 0.049020; 0.147840;,
       0.103637; 0.058243; 0.147840;,
       0.090585; 0.061126; 0.146303;,
       0.093521; 0.045631; 0.155486;,
       0.129604;-0.038263; 0.147840;,
       0.106119; 0.049020; 0.147840;,
       0.093521; 0.045631; 0.155486;,
       0.117006;-0.041653; 0.155486;;
      52;
      4;3,2,1,0;,
      4;7,6,5,4;,
      4;11,10,9,8;,
      4;15,14,13,12;,
      4;19,18,17,16;,
      4;23,22,21,20;,
      4;27,26,25,24;,
      4;31,30,29,28;,
      4;35,34,33,32;,
      4;39,38,37,36;,
      4;43,42,41,40;,
      4;47,46,45,44;,
      4;51,50,49,48;,
      4;55,54,53,52;,
      4;59,58,57,56;,
      4;63,62,61,60;,
      4;67,66,65,64;,
      4;71,70,69,68;,
      4;75,74,73,72;,
      4;79,78,77,76;,
      4;83,82,81,80;,
      4;87,86,85,84;,
      4;91,90,89,88;,
      4;95,94,93,92;,
      4;99,98,97,96;,
      4;103,102,101,100;,
      4;107,106,105,104;,
      4;111,110,109,108;,
      4;115,114,113,112;,
      4;119,118,117,116;,
      4;123,122,121,120;,
      4;127,126,125,124;,
      4;131,130,129,128;,
      4;135,134,133,132;,
      4;139,138,137,136;,
      4;143,142,141,140;,
      4;147,146,145,144;,
      4;151,150,149,148;,
      4;155,154,153,152;,
      4;159,158,157,156;,
      4;163,162,161,160;,
      4;167,166,165,164;,
      4;171,170,169,168;,
      4;175,174,173,172;,
      4;179,178,177,176;,
      4;183,182,181,180;,
      4;187,186,185,184;,
      4;191,190,189,188;,
      4;195,194,193,192;,
      4;199,198,197,196;,
      4;203,202,201,200;,
      4;207,206,205,204;;
      MeshNormals { // Cube normals
        208;
         0.600543;-0.795282;-0.082675;,
         0.833979;-0.530320;-0.152257;,
         0.825373;-0.557207;-0.090762;,
         0.581103;-0.812342;-0.048708;,
         0.481491;-0.089297;-0.871853;,
         0.742302;-0.051302;-0.668050;,
         0.736534;-0.454726;-0.500687;,
         0.589496;-0.662435;-0.462203;,
         0.955962; 0.055879;-0.288064;,
         0.833979;-0.530320;-0.152257;,
         0.736534;-0.454726;-0.500687;,
         0.742302;-0.051302;-0.668050;,
         0.857051; 0.429884;-0.283944;,
         0.629444; 0.329691;-0.703604;,
         0.459426; 0.697653;-0.549699;,
         0.527635; 0.836055;-0.150243;,
         0.955962; 0.055879;-0.288064;,
         0.742302;-0.051302;-0.668050;,
         0.629444; 0.329691;-0.703604;,
         0.857051; 0.429884;-0.283944;,
         0.224830; 0.972716;-0.056856;,
         0.527635; 0.836055;-0.150243;,
         0.459426; 0.697653;-0.549699;,
         0.250587; 0.841029;-0.479385;,
         0.228950; 0.971191;-0.065859;,
         0.487899; 0.867489;-0.096927;,
         0.527635; 0.836055;-0.150243;,
         0.224830; 0.972716;-0.056856;,
         0.990936; 0.012055;-0.133580;,
         0.955962; 0.055879;-0.288064;,
         0.857051; 0.429884;-0.283944;,
         0.859767; 0.492935;-0.133335;,
         0.859767; 0.492935;-0.133335;,
         0.857051; 0.429884;-0.283944;,
         0.527635; 0.836055;-0.150243;,
         0.487899; 0.867489;-0.096927;,
         0.990936; 0.012055;-0.133580;,
         0.825373;-0.557207;-0.090762;,
         0.833979;-0.530320;-0.152257;,
         0.955962; 0.055879;-0.288064;,
         0.589496;-0.662435;-0.462203;,
         0.736534;-0.454726;-0.500687;,
         0.833979;-0.530320;-0.152257;,
         0.600543;-0.795282;-0.082675;,
         0.629444; 0.329691;-0.703604;,
         0.370006; 0.246284;-0.895779;,
         0.250587; 0.841029;-0.479385;,
         0.459426; 0.697653;-0.549699;,
         0.742302;-0.051302;-0.668050;,
         0.481491;-0.089297;-0.871853;,
         0.370006; 0.246284;-0.895779;,
         0.629444; 0.329691;-0.703604;,
         0.600543;-0.795282; 0.082675;,
         0.581103;-0.812342; 0.048708;,
         0.825373;-0.557207; 0.090762;,
         0.833979;-0.530320; 0.152257;,
         0.481491;-0.089297; 0.871853;,
         0.589496;-0.662435; 0.462203;,
         0.736534;-0.454726; 0.500687;,
         0.742302;-0.051302; 0.668050;,
         0.955962; 0.055879; 0.288064;,
         0.742302;-0.051302; 0.668050;,
         0.736534;-0.454726; 0.500687;,
         0.833979;-0.530320; 0.152257;,
         0.857051; 0.429884; 0.283944;,
         0.527635; 0.836055; 0.150243;,
         0.459426; 0.697653; 0.549699;,
         0.629444; 0.329691; 0.703604;,
         0.955962; 0.055879; 0.288064;,
         0.857051; 0.429884; 0.283944;,
         0.629444; 0.329691; 0.703604;,
         0.742302;-0.051302; 0.668050;,
         0.224830; 0.972716; 0.056856;,
         0.250587; 0.841029; 0.479385;,
         0.459426; 0.697653; 0.549699;,
         0.527635; 0.836055; 0.150243;,
         0.228950; 0.971191; 0.065859;,
         0.224830; 0.972716; 0.056856;,
         0.527635; 0.836055; 0.150243;,
         0.487899; 0.867489; 0.096927;,
         0.990936; 0.012055; 0.133580;,
         0.859767; 0.492935; 0.133335;,
         0.857051; 0.429884; 0.283944;,
         0.955962; 0.055879; 0.288064;,
         0.859767; 0.492935; 0.133335;,
         0.487899; 0.867489; 0.096927;,
         0.527635; 0.836055; 0.150243;,
         0.857051; 0.429884; 0.283944;,
         0.990936; 0.012055; 0.133580;,
         0.955962; 0.055879; 0.288064;,
         0.833979;-0.530320; 0.152257;,
         0.825373;-0.557207; 0.090762;,
         0.589496;-0.662435; 0.462203;,
         0.600543;-0.795282; 0.082675;,
         0.833979;-0.530320; 0.152257;,
         0.736534;-0.454726; 0.500687;,
         0.629444; 0.329691; 0.703604;,
         0.459426; 0.697653; 0.549699;,
         0.250587; 0.841029; 0.479385;,
         0.370006; 0.246284; 0.895779;,
         0.742302;-0.051302; 0.668050;,
         0.629444; 0.329691; 0.703604;,
         0.370006; 0.246284; 0.895779;,
         0.481491;-0.089297; 0.871853;,
         0.600543;-0.795282;-0.082675;,
         0.833979;-0.530320;-0.152257;,
         0.825373;-0.557207;-0.090762;,
         0.581103;-0.812342;-0.048708;,
         0.481491;-0.089297;-0.871853;,
         0.742302;-0.051302;-0.668050;,
         0.736534;-0.454726;-0.500687;,
         0.589496;-0.662435;-0.462203;,
         0.955962; 0.055879;-0.288064;,
         0.833979;-0.530320;-0.152257;,
         0.736534;-0.454726;-0.500687;,
         0.742302;-0.051302;-0.668050;,
         0.857051; 0.429884;-0.283944;,
         0.629444; 0.329691;-0.703604;,
         0.459426; 0.697653;-0.549699;,
         0.527635; 0.836055;-0.150243;,
         0.955962; 0.055879;-0.288064;,
         0.742302;-0.051302;-0.668050;,
         0.629444; 0.329691;-0.703604;,
         0.857051; 0.429884;-0.283944;,
         0.224830; 0.972716;-0.056856;,
         0.527635; 0.836055;-0.150243;,
         0.459426; 0.697653;-0.549699;,
         0.250587; 0.841029;-0.479385;,
         0.228950; 0.971191;-0.065859;,
         0.487899; 0.867489;-0.096927;,
         0.527635; 0.836055;-0.150243;,
         0.224830; 0.972716;-0.056856;,
         0.990936; 0.012055;-0.133580;,
         0.955962; 0.055879;-0.288064;,
         0.857051; 0.429884;-0.283944;,
         0.859767; 0.492935;-0.133335;,
         0.859767; 0.492935;-0.133335;,
         0.857051; 0.429884;-0.283944;,
         0.527635; 0.836055;-0.150243;,
         0.487899; 0.867489;-0.096927;,
         0.990936; 0.012055;-0.133580;,
         0.825373;-0.557207;-0.090762;,
         0.833979;-0.530320;-0.152257;,
         0.955962; 0.055879;-0.288064;,
         0.589496;-0.662435;-0.462203;,
         0.736534;-0.454726;-0.500687;,
         0.833979;-0.530320;-0.152257;,
         0.600543;-0.795282;-0.082675;,
         0.629444; 0.329691;-0.703604;,
         0.370006; 0.246284;-0.895779;,
         0.250587; 0.841029;-0.479385;,
         0.459426; 0.697653;-0.549699;,
         0.742302;-0.051302;-0.668050;,
         0.481491;-0.089297;-0.871853;,
         0.370006; 0.246284;-0.895779;,
         0.629444; 0.329691;-0.703604;,
         0.600543;-0.795282; 0.082675;,
         0.581103;-0.812342; 0.048708;,
         0.825373;-0.557207; 0.090762;,
         0.833979;-0.530320; 0.152257;,
         0.481491;-0.089297; 0.871853;,
         0.589496;-0.662435; 0.462203;,
         0.736534;-0.454726; 0.500687;,
         0.742302;-0.051302; 0.668050;,
         0.955962; 0.055879; 0.288064;,
         0.742302;-0.051302; 0.668050;,
         0.736534;-0.454726; 0.500687;,
         0.833979;-0.530320; 0.152257;,
         0.857051; 0.429884; 0.283944;,
         0.527635; 0.836055; 0.150243;,
         0.459456; 0.697653; 0.549699;,
         0.629444; 0.329691; 0.703604;,
         0.955962; 0.055879; 0.288064;,
         0.857051; 0.429884; 0.283944;,
         0.629444; 0.329691; 0.703604;,
         0.742302;-0.051302; 0.668050;,
         0.224830; 0.972716; 0.056856;,
         0.250587; 0.841029; 0.479385;,
         0.459456; 0.697653; 0.549699;,
         0.527635; 0.836055; 0.150243;,
         0.228950; 0.971191; 0.065859;,
         0.224830; 0.972716; 0.056856;,
         0.527635; 0.836055; 0.150243;,
         0.487899; 0.867489; 0.096927;,
         0.990936; 0.012055; 0.133580;,
         0.859767; 0.492935; 0.133335;,
         0.857051; 0.429884; 0.283944;,
         0.955962; 0.055879; 0.288064;,
         0.859767; 0.492935; 0.133335;,
         0.487899; 0.867489; 0.096927;,
         0.527635; 0.836055; 0.150243;,
         0.857051; 0.429884; 0.283944;,
         0.990936; 0.012055; 0.133580;,
         0.955962; 0.055879; 0.288064;,
         0.833979;-0.530320; 0.152257;,
         0.825373;-0.557207; 0.090762;,
         0.589496;-0.662435; 0.462203;,
         0.600543;-0.795282; 0.082675;,
         0.833979;-0.530320; 0.152257;,
         0.736534;-0.454726; 0.500687;,
         0.629444; 0.329691; 0.703604;,
         0.459456; 0.697653; 0.549699;,
         0.250587; 0.841029; 0.479385;,
         0.370006; 0.246284; 0.895779;,
         0.742302;-0.051302; 0.668050;,
         0.629444; 0.329691; 0.703604;,
         0.370006; 0.246284; 0.895779;,
         0.481491;-0.089297; 0.871853;;
        52;
        4;3,2,1,0;,
        4;7,6,5,4;,
        4;11,10,9,8;,
        4;15,14,13,12;,
        4;19,18,17,16;,
        4;23,22,21,20;,
        4;27,26,25,24;,
        4;31,30,29,28;,
        4;35,34,33,32;,
        4;39,38,37,36;,
        4;43,42,41,40;,
        4;47,46,45,44;,
        4;51,50,49,48;,
        4;55,54,53,52;,
        4;59,58,57,56;,
        4;63,62,61,60;,
        4;67,66,65,64;,
        4;71,70,69,68;,
        4;75,74,73,72;,
        4;79,78,77,76;,
        4;83,82,81,80;,
        4;87,86,85,84;,
        4;91,90,89,88;,
        4;95,94,93,92;,
        4;99,98,97,96;,
        4;103,102,101,100;,
        4;107,106,105,104;,
        4;111,110,109,108;,
        4;115,114,113,112;,
        4;119,118,117,116;,
        4;123,122,121,120;,
        4;127,126,125,124;,
        4;131,130,129,128;,
        4;135,134,133,132;,
        4;139,138,137,136;,
        4;143,142,141,140;,
        4;147,146,145,144;,
        4;151,150,149,148;,
        4;155,154,153,152;,
        4;159,158,157,156;,
        4;163,162,161,160;,
        4;167,166,165,164;,
        4;171,170,169,168;,
        4;175,174,173,172;,
        4;179,178,177,176;,
        4;183,182,181,180;,
        4;187,186,185,184;,
        4;191,190,189,188;,
        4;195,194,193,192;,
        4;199,198,197,196;,
        4;203,202,201,200;,
        4;207,206,205,204;;
      } // End of Cube normals
      MeshTextureCoords { // Cube UV coordinates
        208;
         0.259587; 0.455158;,
         0.316243; 0.455306;,
         0.318891; 0.202016;,
         0.262235; 0.201869;,
         0.133405; 0.039902;,
         0.200108; 0.040987;,
         0.200108; 0.022406;,
         0.155105; 0.000000;,
         0.883233; 0.464795;,
         0.881475; 0.507107;,
         0.933297; 0.499862;,
         0.933297; 0.481043;,
         0.883233; 0.082670;,
         0.933297; 0.083063;,
         0.933297; 0.041012;,
         0.881475; 0.042407;,
         0.883233; 0.464795;,
         0.933297; 0.481043;,
         0.933297; 0.083063;,
         0.883233; 0.082670;,
         0.877417; 0.014536;,
         0.881475; 0.042407;,
         0.933297; 0.041012;,
         0.929239; 0.014594;,
         0.622942; 0.014215;,
         0.627001; 0.042086;,
         0.881475; 0.042407;,
         0.877417; 0.014536;,
         0.628759; 0.464475;,
         0.883233; 0.464795;,
         0.883233; 0.082670;,
         0.628759; 0.082349;,
         0.628759; 0.082349;,
         0.883233; 0.082670;,
         0.881475; 0.042407;,
         0.627001; 0.042086;,
         0.628759; 0.464475;,
         0.627001; 0.506787;,
         0.881475; 0.507107;,
         0.883233; 0.464795;,
         0.259500; 0.506711;,
         0.318891; 0.506537;,
         0.316243; 0.455306;,
         0.259587; 0.455158;,
         0.200108; 0.433910;,
         0.133405; 0.432825;,
         0.155105; 0.506711;,
         0.200108; 0.475427;,
         0.200108; 0.040987;,
         0.133405; 0.039902;,
         0.133405; 0.432825;,
         0.200108; 0.433910;,
         0.200195; 0.253422;,
         0.202843; 0.506711;,
         0.259500; 0.506563;,
         0.256851; 0.253274;,
         0.066703; 0.466809;,
         0.088402; 0.506711;,
         0.133405; 0.484305;,
         0.133405; 0.465724;,
         0.575955; 0.549018;,
         0.622942; 0.532697;,
         0.622942; 0.513877;,
         0.571819; 0.506711;,
         0.575955; 0.931144;,
         0.571819; 0.971411;,
         0.622942; 0.972728;,
         0.622942; 0.930677;,
         0.575955; 0.549018;,
         0.575955; 0.931144;,
         0.622942; 0.930677;,
         0.622942; 0.532697;,
         0.562267; 0.999293;,
         0.613391; 0.999156;,
         0.622942; 0.972728;,
         0.571819; 0.971411;,
         0.311471; 1.000000;,
         0.562267; 0.999293;,
         0.571819; 0.971411;,
         0.321023; 0.972118;,
         0.325159; 0.549725;,
         0.325159; 0.931851;,
         0.575955; 0.931144;,
         0.575955; 0.549018;,
         0.325159; 0.931851;,
         0.321023; 0.972118;,
         0.571819; 0.971411;,
         0.575955; 0.931144;,
         0.325159; 0.549725;,
         0.575955; 0.549018;,
         0.571819; 0.506711;,
         0.321023; 0.507418;,
         0.200108; 0.201869;,
         0.200195; 0.253422;,
         0.256851; 0.253274;,
         0.259500; 0.202042;,
         0.133405; 0.072801;,
         0.133405; 0.031284;,
         0.088402; 0.000000;,
         0.066703; 0.073885;,
         0.133405; 0.465724;,
         0.133405; 0.072801;,
         0.066703; 0.073885;,
         0.066703; 0.466809;,
         0.378371; 0.455158;,
         0.435027; 0.455306;,
         0.437675; 0.202016;,
         0.381019; 0.201869;,
         0.000000; 0.039902;,
         0.066703; 0.040987;,
         0.066703; 0.022406;,
         0.021699; 0.000000;,
         0.883233; 0.957688;,
         0.881475; 1.000000;,
         0.933297; 0.992755;,
         0.933297; 0.973935;,
         0.883233; 0.575562;,
         0.933297; 0.575955;,
         0.933297; 0.533904;,
         0.881475; 0.535300;,
         0.883233; 0.957688;,
         0.933297; 0.973935;,
         0.933297; 0.575955;,
         0.883233; 0.575562;,
         0.877417; 0.507428;,
         0.881475; 0.535300;,
         0.933297; 0.533904;,
         0.929239; 0.507486;,
         0.622942; 0.507107;,
         0.627001; 0.534979;,
         0.881475; 0.535300;,
         0.877417; 0.507428;,
         0.628759; 0.957367;,
         0.883233; 0.957688;,
         0.883233; 0.575562;,
         0.628759; 0.575242;,
         0.628759; 0.575242;,
         0.883233; 0.575562;,
         0.881475; 0.535300;,
         0.627001; 0.534979;,
         0.628759; 0.957367;,
         0.627001; 0.999679;,
         0.881475; 1.000000;,
         0.883233; 0.957688;,
         0.378283; 0.506711;,
         0.437675; 0.506537;,
         0.435027; 0.455306;,
         0.378371; 0.455158;,
         0.066703; 0.433910;,
         0.000000; 0.432825;,
         0.021699; 0.506711;,
         0.066703; 0.475427;,
         0.066703; 0.040987;,
         0.000000; 0.039902;,
         0.000000; 0.432825;,
         0.066703; 0.433910;,
         0.318979; 0.253422;,
         0.321627; 0.506711;,
         0.378283; 0.506563;,
         0.375635; 0.253274;,
         1.000000; 0.533191;,
         0.978300; 0.493289;,
         0.933297; 0.515695;,
         0.933297; 0.534276;,
         0.264484; 0.549018;,
         0.311471; 0.532697;,
         0.311471; 0.513877;,
         0.260347; 0.506711;,
         0.264484; 0.931144;,
         0.260347; 0.971411;,
         0.311471; 0.972728;,
         0.311471; 0.930677;,
         0.264484; 0.549018;,
         0.264484; 0.931144;,
         0.311471; 0.930677;,
         0.311471; 0.532697;,
         0.250796; 0.999293;,
         0.301919; 0.999156;,
         0.311471; 0.972728;,
         0.260347; 0.971411;,
         0.000000; 1.000000;,
         0.250796; 0.999293;,
         0.260347; 0.971411;,
         0.009552; 0.972118;,
         0.013688; 0.549725;,
         0.013688; 0.931851;,
         0.264484; 0.931144;,
         0.264484; 0.549018;,
         0.013688; 0.931851;,
         0.009552; 0.972118;,
         0.260347; 0.971411;,
         0.264484; 0.931144;,
         0.013688; 0.549725;,
         0.264484; 0.549018;,
         0.260347; 0.506711;,
         0.009552; 0.507418;,
         0.318891; 0.201869;,
         0.318979; 0.253422;,
         0.375635; 0.253274;,
         0.378283; 0.202042;,
         0.933297; 0.927199;,
         0.933297; 0.968716;,
         0.978300; 1.000000;,
         1.000000; 0.926115;,
         0.933297; 0.534276;,
         0.933297; 0.927199;,
         1.000000; 0.926115;,
         1.000000; 0.533191;;
      } // End of Cube UV coordinates
      MeshMaterialList { // Cube material list
        1;
        52;
        0,
        0,
        0,
        0,
        0,
        0,
        0,
        0,
        0,
        0,
        0,
        0,
        0,
        0,
        0,
        0,
        0,
        0,
        0,
        0,
        0,
        0,
        0,
        0,
        0,
        0,
        0,
        0,
        0,
        0,
        0,
        0,
        0,
        0,
        0,
        0,
        0,
        0,
        0,
        0,
        0,
        0,
        0,
        0,
        0,
        0,
        0,
        0,
        0,
        0,
        0,
        0;
        Material Material_001 {
           0.640000; 0.640000; 0.640000; 1.000000;;
           96.078431;
           0.500000; 0.500000; 0.500000;;
           0.000000; 0.000000; 0.000000;;
        }
      } // End of Cube material list
    } // End of Cube mesh
  } // End of Cube
} // End of Root
