xof 0303txt 0032

Frame Root {
  FrameTransformMatrix {
     1.000000, 0.000000, 0.000000, 0.000000,
     0.000000,-0.000000, 1.000000, 0.000000,
     0.000000, 1.000000, 0.000000, 0.000000,
     0.000000, 0.000000, 0.000000, 1.000000;;
  }
  Frame _0002 {
    FrameTransformMatrix {
       1.000000, 0.000000, 0.000000, 0.000000,
       0.000000, 1.000000, 0.000000, 0.000000,
       0.000000, 0.000000, 1.000000, 0.000000,
       0.000000, 0.000000, 0.000000, 1.000000;;
    }
    Mesh { // _0002 mesh
      116;
       0.096794; 0.016472;-0.043132;,
       0.096794; 0.049863; 0.004601;,
       0.172418; 0.049863; 0.004601;,
       0.175161; 0.016472;-0.043132;,
       0.096794; 0.017168;-0.037678;,
       0.096794; 0.016472;-0.043132;,
       0.175161; 0.016472;-0.043132;,
       0.175161; 0.017168;-0.037678;,
       0.096794; 0.017027; 0.046865;,
       0.096794; 0.044557; 0.004601;,
       0.172418; 0.044557; 0.004601;,
       0.175161; 0.017027; 0.046865;,
       0.096794; 0.016612; 0.052348;,
       0.096794; 0.017027; 0.046865;,
       0.175161; 0.017027; 0.046865;,
       0.175161; 0.016612; 0.052348;,
       0.018427; 0.016612; 0.052348;,
       0.020264; 0.049863; 0.004601;,
       0.020264; 0.044557; 0.004601;,
       0.018427; 0.017027; 0.046865;,
       0.175161; 0.017027; 0.046865;,
       0.172418; 0.044557; 0.004601;,
       0.172418; 0.049863; 0.004601;,
       0.175161; 0.016612; 0.052348;,
       0.172418; 0.044557; 0.004601;,
       0.175161; 0.017168;-0.037678;,
       0.175161; 0.016472;-0.043132;,
       0.172418; 0.049863; 0.004601;,
       0.020264; 0.049863; 0.004601;,
       0.018427; 0.016472;-0.043132;,
       0.018427; 0.017168;-0.037678;,
       0.020264; 0.044557; 0.004601;,
       0.096794; 0.044557; 0.004601;,
       0.096794; 0.017168;-0.037678;,
       0.175161; 0.017168;-0.037678;,
       0.172418; 0.044557; 0.004601;,
       0.096794; 0.049863; 0.004601;,
       0.096794; 0.016612; 0.052348;,
       0.175161; 0.016612; 0.052348;,
       0.172418; 0.049863; 0.004601;,
       0.020264; 0.049863; 0.004601;,
       0.018427; 0.016612; 0.052348;,
       0.096794; 0.016612; 0.052348;,
       0.096794; 0.049863; 0.004601;,
       0.020264; 0.044557; 0.004601;,
       0.018427; 0.017168;-0.037678;,
       0.096794; 0.017168;-0.037678;,
       0.096794; 0.044557; 0.004601;,
       0.076019;-0.012809;-0.039205;,
       0.096794; 0.017168;-0.037678;,
       0.018427; 0.017168;-0.037678;,
       0.034545;-0.012809;-0.039205;,
       0.018427; 0.017027; 0.046865;,
       0.020264; 0.044557; 0.004601;,
       0.096794; 0.044557; 0.004601;,
       0.096794; 0.017027; 0.046865;,
       0.076019;-0.012949; 0.049645;,
       0.096794; 0.017027; 0.046865;,
       0.096794; 0.016612; 0.052348;,
       0.076019;-0.013364; 0.051425;,
       0.018427; 0.016472;-0.043132;,
       0.020264; 0.049863; 0.004601;,
       0.096794; 0.049863; 0.004601;,
       0.096794; 0.016472;-0.043132;,
       0.034545;-0.013364; 0.051425;,
       0.034545;-0.012949; 0.049645;,
       0.076019;-0.012949; 0.049645;,
       0.076019;-0.013364; 0.051425;,
       0.034545;-0.012809;-0.039205;,
       0.034545;-0.013505;-0.040741;,
       0.076019;-0.013505;-0.040741;,
       0.076019;-0.012809;-0.039205;,
       0.034545;-0.012809;-0.039205;,
       0.018427; 0.017168;-0.037678;,
       0.018427; 0.016472;-0.043132;,
       0.034545;-0.013505;-0.040741;,
       0.076019;-0.013364; 0.051425;,
       0.096794; 0.016612; 0.052348;,
       0.018427; 0.016612; 0.052348;,
       0.034545;-0.013364; 0.051425;,
       0.034545;-0.012949; 0.049645;,
       0.018427; 0.017027; 0.046865;,
       0.096794; 0.017027; 0.046865;,
       0.076019;-0.012949; 0.049645;,
       0.034545;-0.013505;-0.040741;,
       0.018427; 0.016472;-0.043132;,
       0.096794; 0.016472;-0.043132;,
       0.076019;-0.013505;-0.040741;,
       0.034545;-0.013364; 0.051425;,
       0.018427; 0.016612; 0.052348;,
       0.018427; 0.017027; 0.046865;,
       0.034545;-0.012949; 0.049645;,
       0.076019;-0.013505;-0.040741;,
       0.096794; 0.016472;-0.043132;,
       0.096794; 0.017168;-0.037678;,
       0.076019;-0.012809;-0.039205;,
       0.071425;-0.010569; 0.050427;,
       0.040033;-0.010569; 0.050427;,
       0.040033;-0.041960; 0.050427;,
       0.071425;-0.041960; 0.050427;,
       0.070832;-0.074675; 0.026493;,
       0.071425;-0.041960; 0.050427;,
       0.040033;-0.041960; 0.050427;,
       0.042509;-0.074675; 0.026493;,
       0.071279;-0.076100;-0.014308;,
       0.070832;-0.074675; 0.026493;,
       0.042509;-0.074675; 0.026493;,
       0.042956;-0.076100;-0.014308;,
       0.070221;-0.039556;-0.041071;,
       0.071279;-0.076100;-0.014308;,
       0.042956;-0.076100;-0.014308;,
       0.038830;-0.039556;-0.041071;,
       0.068643;-0.007830;-0.039492;,
       0.070221;-0.039556;-0.041071;,
       0.038830;-0.039556;-0.041071;,
       0.037251;-0.007830;-0.039492;;
      29;
      4;3,2,1,0;,
      4;7,6,5,4;,
      4;11,10,9,8;,
      4;15,14,13,12;,
      4;19,18,17,16;,
      4;23,22,21,20;,
      4;27,26,25,24;,
      4;31,30,29,28;,
      4;35,34,33,32;,
      4;39,38,37,36;,
      4;43,42,41,40;,
      4;47,46,45,44;,
      4;51,50,49,48;,
      4;55,54,53,52;,
      4;59,58,57,56;,
      4;63,62,61,60;,
      4;67,66,65,64;,
      4;71,70,69,68;,
      4;75,74,73,72;,
      4;79,78,77,76;,
      4;83,82,81,80;,
      4;87,86,85,84;,
      4;91,90,89,88;,
      4;95,94,93,92;,
      4;99,98,97,96;,
      4;103,102,101,100;,
      4;107,106,105,104;,
      4;111,110,109,108;,
      4;115,114,113,112;;
      MeshNormals { // _0002 normals
        116;
         0.000000; 0.819391;-0.573199;,
         0.000000; 0.819391;-0.573199;,
         0.000000; 0.819391;-0.573199;,
         0.000000; 0.819391;-0.573199;,
         0.000000;-0.991943; 0.126560;,
         0.000000;-0.991943; 0.126560;,
         0.000000;-0.991943; 0.126560;,
         0.000000;-0.991943; 0.126560;,
         0.000000;-0.837886;-0.545793;,
         0.000000;-0.837886;-0.545793;,
         0.000000;-0.837886;-0.545793;,
         0.000000;-0.837886;-0.545793;,
         0.000000;-0.997131;-0.075472;,
         0.000000;-0.997131;-0.075472;,
         0.000000;-0.997131;-0.075472;,
         0.000000;-0.997131;-0.075472;,
        -0.999390; 0.026002;-0.023194;,
        -0.999390; 0.026002;-0.023194;,
        -0.999390; 0.026002;-0.023194;,
        -0.999390; 0.026002;-0.023194;,
         0.998627; 0.038820;-0.034639;,
         0.998627; 0.038820;-0.034639;,
         0.998627; 0.038820;-0.034639;,
         0.998627; 0.038820;-0.034639;,
         0.998596; 0.040010; 0.033815;,
         0.998596; 0.040010; 0.033815;,
         0.998596; 0.040010; 0.033815;,
         0.998596; 0.040010; 0.033815;,
        -0.999359; 0.026826; 0.022675;,
        -0.999359; 0.026826; 0.022675;,
        -0.999359; 0.026826; 0.022675;,
        -0.999359; 0.026826; 0.022675;,
         0.000000;-0.839259; 0.543687;,
         0.000000;-0.839259; 0.543687;,
         0.000000;-0.839259; 0.543687;,
         0.000000;-0.839259; 0.543687;,
         0.000000; 0.820612; 0.571459;,
         0.000000; 0.820612; 0.571459;,
         0.000000; 0.820612; 0.571459;,
         0.000000; 0.820612; 0.571459;,
         0.000000; 0.820612; 0.571459;,
         0.000000; 0.820612; 0.571459;,
         0.000000; 0.820612; 0.571459;,
         0.000000; 0.820612; 0.571459;,
         0.000000;-0.839259; 0.543687;,
         0.000000;-0.839259; 0.543687;,
         0.000000;-0.839259; 0.543687;,
         0.000000;-0.839259; 0.543687;,
         0.000000;-0.050844; 0.998688;,
         0.000000;-0.050844; 0.998688;,
         0.000000;-0.050844; 0.998688;,
         0.000000;-0.050844; 0.998688;,
         0.000000;-0.837886;-0.545793;,
         0.000000;-0.837886;-0.545793;,
         0.000000;-0.837886;-0.545793;,
         0.000000;-0.837886;-0.545793;,
         0.819208;-0.569750;-0.065096;,
         0.819208;-0.569750;-0.065096;,
         0.819208;-0.569750;-0.065096;,
         0.819208;-0.569750;-0.065096;,
         0.000000; 0.819391;-0.573199;,
         0.000000; 0.819391;-0.573199;,
         0.000000; 0.819391;-0.573199;,
         0.000000; 0.819391;-0.573199;,
         0.000000;-0.973876;-0.227027;,
         0.000000;-0.973876;-0.227027;,
         0.000000;-0.973876;-0.227027;,
         0.000000;-0.973876;-0.227027;,
         0.000000;-0.910825; 0.412702;,
         0.000000;-0.910825; 0.412702;,
         0.000000;-0.910825; 0.412702;,
         0.000000;-0.910825; 0.412702;,
        -0.877438;-0.470412; 0.093661;,
        -0.877438;-0.470412; 0.093661;,
        -0.877438;-0.470412; 0.093661;,
        -0.877438;-0.470412; 0.093661;,
         0.000000;-0.030763; 0.999512;,
         0.000000;-0.030763; 0.999512;,
         0.000000;-0.030763; 0.999512;,
         0.000000;-0.030763; 0.999512;,
         0.000000;-0.092318;-0.995697;,
         0.000000;-0.092318;-0.995697;,
         0.000000;-0.092318;-0.995697;,
         0.000000;-0.092318;-0.995697;,
         0.000000;-0.079501;-0.996826;,
         0.000000;-0.079501;-0.996826;,
         0.000000;-0.079501;-0.996826;,
         0.000000;-0.079501;-0.996826;,
        -0.878750;-0.474166;-0.054170;,
        -0.878750;-0.474166;-0.054170;,
        -0.878750;-0.474166;-0.054170;,
        -0.878750;-0.474166;-0.054170;,
         0.817438;-0.564898; 0.112491;,
         0.817438;-0.564898; 0.112491;,
         0.817438;-0.564898; 0.112491;,
         0.817438;-0.564898; 0.112491;,
         0.000000; 0.000000; 1.000000;,
         0.000000; 0.000000; 1.000000;,
         0.000000; 0.000000; 1.000000;,
         0.000000; 0.000000; 1.000000;,
         0.000000;-0.590442; 0.807062;,
         0.000000;-0.590442; 0.807062;,
         0.000000;-0.590442; 0.807062;,
         0.000000;-0.590442; 0.807062;,
         0.000000;-0.999390; 0.034883;,
         0.000000;-0.999390; 0.034883;,
         0.000000;-0.999390; 0.034883;,
         0.000000;-0.999390; 0.034883;,
         0.000000;-0.590838;-0.806757;,
         0.000000;-0.590838;-0.806757;,
         0.000000;-0.590838;-0.806757;,
         0.000000;-0.590838;-0.806757;,
         0.000000; 0.049684;-0.998749;,
         0.000000; 0.049684;-0.998749;,
         0.000000; 0.049684;-0.998749;,
         0.000000; 0.049684;-0.998749;;
        29;
        4;3,2,1,0;,
        4;7,6,5,4;,
        4;11,10,9,8;,
        4;15,14,13,12;,
        4;19,18,17,16;,
        4;23,22,21,20;,
        4;27,26,25,24;,
        4;31,30,29,28;,
        4;35,34,33,32;,
        4;39,38,37,36;,
        4;43,42,41,40;,
        4;47,46,45,44;,
        4;51,50,49,48;,
        4;55,54,53,52;,
        4;59,58,57,56;,
        4;63,62,61,60;,
        4;67,66,65,64;,
        4;71,70,69,68;,
        4;75,74,73,72;,
        4;79,78,77,76;,
        4;83,82,81,80;,
        4;87,86,85,84;,
        4;91,90,89,88;,
        4;95,94,93,92;,
        4;99,98,97,96;,
        4;103,102,101,100;,
        4;107,106,105,104;,
        4;111,110,109,108;,
        4;115,114,113,112;;
      } // End of _0002 normals
      MeshTextureCoords { // _0002 UV coordinates
        116;
         0.249658; 0.666667;,
         0.000000; 0.666667;,
         0.000000; 0.988333;,
         0.249658; 1.000000;,
         1.000000; 0.666667;,
         0.977621; 0.666667;,
         0.977621; 1.000000;,
         1.000000; 1.000000;,
         0.909277; 0.333333;,
         0.713111; 0.333333;,
         0.713111; 0.654999;,
         0.909277; 0.666667;,
         0.999888; 0.333333;,
         0.979448; 0.333333;,
         0.979448; 0.666667;,
         0.999888; 0.666667;,
         0.882397; 0.333333;,
         0.882397; 0.089369;,
         0.863987; 0.101548;,
         0.870758; 0.313007;,
         0.815042; 0.105778;,
         0.808404; 0.320425;,
         0.827036; 0.333333;,
         0.827036; 0.085645;,
         0.827036; 0.098305;,
         0.834659; 0.312641;,
         0.845640; 0.333333;,
         0.845640; 0.085357;,
         0.863987; 0.333333;,
         0.863987; 0.088419;,
         0.853379; 0.109297;,
         0.845640; 0.321062;,
         0.713111; 0.333333;,
         0.499021; 0.333333;,
         0.499021; 0.666667;,
         0.713111; 0.654999;,
         0.249364; 0.333333;,
         0.000000; 0.333333;,
         0.000000; 0.666667;,
         0.249363; 0.654999;,
         0.249658; 0.658853;,
         0.499021; 0.666667;,
         0.499021; 0.333333;,
         0.249658; 0.333333;,
         0.499315; 0.992186;,
         0.713406; 1.000000;,
         0.713406; 0.666667;,
         0.499315; 0.666667;,
         0.977621; 0.755033;,
         0.909571; 0.666667;,
         0.909571; 1.000000;,
         0.977621; 0.931442;,
         0.713406; 1.000000;,
         0.909571; 0.992186;,
         0.909571; 0.666667;,
         0.713406; 0.666667;,
         0.747383; 0.076331;,
         0.731521; 0.199808;,
         0.755064; 0.198790;,
         0.755065; 0.074810;,
         0.499315; 0.666667;,
         0.249658; 0.674480;,
         0.249658; 1.000000;,
         0.499315; 1.000000;,
         0.942502; 0.156924;,
         0.936384; 0.156924;,
         0.936384; 0.333333;,
         0.942502; 0.333333;,
         0.936384; 0.156924;,
         0.929158; 0.156924;,
         0.929158; 0.333333;,
         0.936384; 0.333333;,
         0.905628; 0.330170;,
         0.905628; 0.190139;,
         0.882397; 0.194030;,
         0.899172; 0.333333;,
         0.979448; 0.421700;,
         0.909277; 0.333333;,
         0.909277; 0.666667;,
         0.979448; 0.598109;,
         0.115185; 0.068558;,
         0.000000; 0.000000;,
         0.000000; 0.333333;,
         0.115185; 0.244967;,
         0.229489; 0.068558;,
         0.115185; 0.000000;,
         0.115185; 0.333333;,
         0.229489; 0.244967;,
         0.929158; 0.333333;,
         0.929158; 0.193395;,
         0.905628; 0.192270;,
         0.921493; 0.331808;,
         0.808404; 0.199808;,
         0.808404; 0.075473;,
         0.784865; 0.074415;,
         0.801600; 0.197392;,
         0.808404; 0.333333;,
         0.808404; 0.199808;,
         0.731521; 0.199808;,
         0.731521; 0.333333;,
         0.366528; 0.181513;,
         0.363986; 0.333333;,
         0.498525; 0.333333;,
         0.487913; 0.181513;,
         0.498525; 0.172657;,
         0.498525; 0.331895;,
         0.619901; 0.333333;,
         0.619901; 0.174095;,
         0.363986; 0.330207;,
         0.363986; 0.137992;,
         0.242634; 0.140812;,
         0.229489; 0.333333;,
         0.619901; 0.326621;,
         0.731521; 0.333333;,
         0.731521; 0.199812;,
         0.619901; 0.193096;;
      } // End of _0002 UV coordinates
      MeshMaterialList { // _0002 material list
        1;
        29;
        0,
        0,
        0,
        0,
        0,
        0,
        0,
        0,
        0,
        0,
        0,
        0,
        0,
        0,
        0,
        0,
        0,
        0,
        0,
        0,
        0,
        0,
        0,
        0,
        0,
        0,
        0,
        0,
        0;
        Material _0008 {
           0.640000; 0.640000; 0.640000; 1.000000;;
           96.078431;
           0.250000; 0.250000; 0.250000;;
           0.000000; 0.000000; 0.000000;;
        }
      } // End of _0002 material list
    } // End of _0002 mesh
  } // End of _0002
} // End of Root
