xof 0303txt 0032

Frame Root {
  FrameTransformMatrix {
     1.000000, 0.000000, 0.000000, 0.000000,
     0.000000,-0.000000, 1.000000, 0.000000,
     0.000000, 1.000000, 0.000000, 0.000000,
     0.000000, 0.000000, 0.000000, 1.000000;;
  }
  Frame Cube {
    FrameTransformMatrix {
       1.000000, 0.000000, 0.000000, 0.000000,
       0.000000, 1.000000, 0.000000, 0.000000,
       0.000000, 0.000000, 1.000000, 0.000000,
       0.005249,-0.008898, 0.000000, 1.000000;;
    }
    Mesh { // Cube mesh
      152;
       0.056596;-0.015981;-0.000548;,
       0.057354;-0.020438;-0.000545;,
       0.055919;-0.015032;-0.021140;,
       0.055480;-0.011961;-0.017851;,
      -0.053293;-0.030452;-0.015127;,
       0.055480;-0.011961;-0.017851;,
       0.053905;-0.003488;-0.023203;,
      -0.054867;-0.021979;-0.020479;,
      -0.052176;-0.034472; 0.002176;,
      -0.051418;-0.038929; 0.002179;,
      -0.052005;-0.032364; 0.023305;,
      -0.052304;-0.031248; 0.018934;,
      -0.052853;-0.033523;-0.018416;,
      -0.053293;-0.030452;-0.015127;,
      -0.054867;-0.021979;-0.020479;,
      -0.055026;-0.021708;-0.024988;,
       0.056596;-0.015981;-0.000548;,
      -0.052176;-0.034472; 0.002176;,
      -0.052304;-0.031248; 0.018934;,
       0.056468;-0.012757; 0.016210;,
      -0.051418;-0.038929; 0.002179;,
       0.057354;-0.020438;-0.000545;,
       0.056767;-0.013873; 0.020581;,
      -0.052005;-0.032364; 0.023305;,
      -0.052853;-0.033523;-0.018416;,
       0.055919;-0.015032;-0.021140;,
       0.057354;-0.020438;-0.000545;,
      -0.051418;-0.038929; 0.002179;,
       0.055480;-0.011961;-0.017851;,
      -0.053293;-0.030452;-0.015127;,
      -0.052176;-0.034472; 0.002176;,
       0.056596;-0.015981;-0.000548;,
      -0.053293;-0.030452;-0.015127;,
      -0.052853;-0.033523;-0.018416;,
      -0.051418;-0.038929; 0.002179;,
      -0.052176;-0.034472; 0.002176;,
       0.056468;-0.012757; 0.016210;,
       0.056767;-0.013873; 0.020581;,
       0.057354;-0.020438;-0.000545;,
       0.056596;-0.015981;-0.000548;,
      -0.055026;-0.021708;-0.024988;,
      -0.054867;-0.021979;-0.020479;,
      -0.057543;-0.006151;-0.019884;,
      -0.057702;-0.005880;-0.024394;,
       0.054947;-0.003108; 0.020980;,
      -0.053825;-0.021599; 0.023703;,
      -0.056501;-0.005771; 0.024298;,
       0.052271; 0.012720; 0.021574;,
      -0.052005;-0.032364; 0.023305;,
       0.056767;-0.013873; 0.020581;,
       0.055064;-0.003130; 0.025499;,
      -0.053708;-0.021621; 0.028223;,
      -0.052304;-0.031248; 0.018934;,
      -0.052005;-0.032364; 0.023305;,
      -0.053708;-0.021621; 0.028223;,
      -0.053825;-0.021599; 0.023703;,
       0.055919;-0.015032;-0.021140;,
      -0.052853;-0.033523;-0.018416;,
      -0.055026;-0.021708;-0.024988;,
       0.053746;-0.003217;-0.027712;,
       0.055480;-0.011961;-0.017851;,
       0.055919;-0.015032;-0.021140;,
       0.053746;-0.003217;-0.027712;,
       0.053905;-0.003488;-0.023203;,
       0.056767;-0.013873; 0.020581;,
       0.056468;-0.012757; 0.016210;,
       0.054947;-0.003108; 0.020980;,
       0.055064;-0.003130; 0.025499;,
       0.056468;-0.012757; 0.016210;,
      -0.052304;-0.031248; 0.018934;,
      -0.053825;-0.021599; 0.023703;,
       0.054947;-0.003108; 0.020980;,
       0.051229; 0.012340;-0.022608;,
       0.051070; 0.012611;-0.027118;,
      -0.057702;-0.005880;-0.024394;,
      -0.057543;-0.006151;-0.019884;,
      -0.056501;-0.005771; 0.024298;,
      -0.056384;-0.005793; 0.028817;,
       0.052388; 0.012698; 0.026093;,
       0.052271; 0.012720; 0.021574;,
      -0.054867;-0.021979;-0.020479;,
       0.053905;-0.003488;-0.023203;,
       0.051229; 0.012340;-0.022608;,
      -0.057543;-0.006151;-0.019884;,
       0.055064;-0.003130; 0.025499;,
       0.054947;-0.003108; 0.020980;,
       0.052271; 0.012720; 0.021574;,
       0.052388; 0.012698; 0.026093;,
      -0.053708;-0.021621; 0.028223;,
       0.055064;-0.003130; 0.025499;,
       0.052388; 0.012698; 0.026093;,
      -0.056384;-0.005793; 0.028817;,
      -0.053825;-0.021599; 0.023703;,
      -0.053708;-0.021621; 0.028223;,
      -0.056384;-0.005793; 0.028817;,
      -0.056501;-0.005771; 0.024298;,
       0.053746;-0.003217;-0.027712;,
      -0.055026;-0.021708;-0.024988;,
      -0.057702;-0.005880;-0.024394;,
       0.051070; 0.012611;-0.027118;,
       0.053905;-0.003488;-0.023203;,
       0.053746;-0.003217;-0.027712;,
       0.051070; 0.012611;-0.027118;,
       0.051229; 0.012340;-0.022608;,
       0.037466; 0.030646; 0.006099;,
       0.039867; 0.027850;-0.013870;,
       0.022753; 0.026096;-0.015447;,
       0.020353; 0.028891; 0.004521;,
       0.039867; 0.027850;-0.013870;,
       0.041166; 0.007723;-0.024072;,
       0.024052; 0.005968;-0.025649;,
       0.022753; 0.026096;-0.015447;,
       0.019862; 0.010631; 0.024446;,
       0.020656;-0.012049; 0.021215;,
       0.037770;-0.010294; 0.022792;,
       0.036977; 0.012386; 0.026024;,
       0.043310;-0.014723;-0.020418;,
       0.026195;-0.016478;-0.021996;,
       0.024044; 0.005967;-0.025972;,
       0.041158; 0.007722;-0.024395;,
       0.019027; 0.026154; 0.012014;,
       0.019862; 0.010631; 0.024446;,
       0.036977; 0.012386; 0.026024;,
       0.036142; 0.027908; 0.013590;,
       0.020384; 0.029069; 0.004430;,
       0.019027; 0.026154; 0.012014;,
       0.036142; 0.027908; 0.013590;,
       0.037499; 0.030824; 0.006007;,
      -0.054225; 0.015050;-0.003032;,
      -0.051720; 0.012300; 0.016930;,
      -0.035008; 0.016296; 0.015149;,
      -0.037513; 0.019047;-0.004812;,
      -0.051720; 0.012300; 0.016930;,
      -0.044384;-0.006787; 0.026560;,
      -0.027671;-0.002791; 0.024778;,
      -0.035008; 0.016296; 0.015149;,
      -0.034882; 0.001290;-0.025023;,
      -0.027573;-0.020278;-0.022409;,
      -0.044286;-0.024274;-0.020627;,
      -0.051596;-0.002705;-0.023242;,
      -0.039715;-0.028809; 0.022686;,
      -0.023002;-0.024813; 0.020904;,
      -0.027602;-0.002779; 0.025093;,
      -0.044315;-0.006775; 0.026875;,
      -0.036820; 0.016642;-0.012502;,
      -0.034882; 0.001290;-0.025023;,
      -0.051596;-0.002705;-0.023242;,
      -0.053533; 0.012646;-0.010720;,
      -0.037583; 0.019207;-0.004712;,
      -0.036820; 0.016642;-0.012502;,
      -0.053533; 0.012646;-0.010720;,
      -0.054296; 0.015211;-0.002930;;
      38;
      4;3,2,1,0;,
      4;7,6,5,4;,
      4;11,10,9,8;,
      4;15,14,13,12;,
      4;19,18,17,16;,
      4;23,22,21,20;,
      4;27,26,25,24;,
      4;31,30,29,28;,
      4;35,34,33,32;,
      4;39,38,37,36;,
      4;43,42,41,40;,
      4;47,46,45,44;,
      4;51,50,49,48;,
      4;55,54,53,52;,
      4;59,58,57,56;,
      4;63,62,61,60;,
      4;67,66,65,64;,
      4;71,70,69,68;,
      4;75,74,73,72;,
      4;79,78,77,76;,
      4;83,82,81,80;,
      4;87,86,85,84;,
      4;91,90,89,88;,
      4;95,94,93,92;,
      4;99,98,97,96;,
      4;103,102,101,100;,
      4;107,106,105,104;,
      4;111,110,109,108;,
      4;115,114,113,112;,
      4;119,118,117,116;,
      4;123,122,121,120;,
      4;127,126,125,124;,
      4;131,130,129,128;,
      4;135,134,133,132;,
      4;139,138,137,136;,
      4;143,142,141,140;,
      4;147,146,145,144;,
      4;151,150,149,148;;
      MeshNormals { // Cube normals
        152;
         0.637745; 0.770226;-0.003449;,
         0.767754;-0.640706;-0.001801;,
         0.710166;-0.499069;-0.496506;,
         0.719382; 0.611988; 0.328501;,
        -0.864254; 0.342784; 0.368145;,
         0.719382; 0.611988; 0.328501;,
         0.755669; 0.291543; 0.586474;,
        -0.780053; 0.030488; 0.624928;,
        -0.855678; 0.516343; 0.033906;,
        -0.512192;-0.858303; 0.030213;,
        -0.505844;-0.679067; 0.531938;,
        -0.895077; 0.305734;-0.324564;,
        -0.528794;-0.709708;-0.465499;,
        -0.864254; 0.342784; 0.368145;,
        -0.780053; 0.030488; 0.624928;,
        -0.631245;-0.284066;-0.721671;,
         0.637745; 0.770226;-0.003449;,
        -0.855678; 0.516343; 0.033906;,
        -0.895077; 0.305734;-0.324564;,
         0.726981; 0.581469;-0.365184;,
        -0.512192;-0.858303; 0.030213;,
         0.767754;-0.640706;-0.001801;,
         0.726951;-0.469466; 0.501083;,
        -0.505844;-0.679067; 0.531938;,
        -0.528794;-0.709708;-0.465499;,
         0.710166;-0.499069;-0.496506;,
         0.767754;-0.640706;-0.001801;,
        -0.512192;-0.858303; 0.030213;,
         0.719382; 0.611988; 0.328501;,
        -0.864254; 0.342784; 0.368145;,
        -0.855678; 0.516343; 0.033906;,
         0.637745; 0.770226;-0.003449;,
        -0.864254; 0.342784; 0.368145;,
        -0.528794;-0.709708;-0.465499;,
        -0.512192;-0.858303; 0.030213;,
        -0.855678; 0.516343; 0.033906;,
         0.726981; 0.581469;-0.365184;,
         0.726951;-0.469466; 0.501083;,
         0.767754;-0.640706;-0.001801;,
         0.637745; 0.770226;-0.003449;,
        -0.631245;-0.284066;-0.721671;,
        -0.780053; 0.030488; 0.624928;,
        -0.647328; 0.444258; 0.619312;,
        -0.682577; 0.499435;-0.533494;,
         0.703818; 0.280892;-0.652425;,
        -0.787957; 0.027284;-0.615070;,
        -0.683004; 0.482070;-0.548692;,
         0.457930; 0.676046;-0.577258;,
        -0.505844;-0.679067; 0.531938;,
         0.726951;-0.469466; 0.501083;,
         0.702841;-0.053621; 0.709311;,
        -0.610309;-0.276833; 0.742180;,
        -0.895077; 0.305734;-0.324564;,
        -0.505844;-0.679067; 0.531938;,
        -0.610309;-0.276833; 0.742180;,
        -0.787957; 0.027284;-0.615070;,
         0.710166;-0.499069;-0.496506;,
        -0.528794;-0.709708;-0.465499;,
        -0.631245;-0.284066;-0.721671;,
         0.653737;-0.065615;-0.753838;,
         0.719382; 0.611988; 0.328501;,
         0.710166;-0.499069;-0.496506;,
         0.653737;-0.065615;-0.753838;,
         0.755669; 0.291543; 0.586474;,
         0.726951;-0.469466; 0.501083;,
         0.726981; 0.581469;-0.365184;,
         0.703818; 0.280892;-0.652425;,
         0.702841;-0.053621; 0.709311;,
         0.726981; 0.581469;-0.365184;,
        -0.895077; 0.305734;-0.324564;,
        -0.787957; 0.027284;-0.615070;,
         0.703818; 0.280892;-0.652425;,
         0.493606; 0.638234; 0.590747;,
         0.452528; 0.692404;-0.561907;,
        -0.682577; 0.499435;-0.533494;,
        -0.647328; 0.444258; 0.619312;,
        -0.683004; 0.482070;-0.548692;,
        -0.647786; 0.462569; 0.605274;,
         0.487320; 0.655538; 0.576830;,
         0.457930; 0.676046;-0.577258;,
        -0.780053; 0.030488; 0.624928;,
         0.755669; 0.291543; 0.586474;,
         0.493606; 0.638234; 0.590747;,
        -0.647328; 0.444258; 0.619312;,
         0.702841;-0.053621; 0.709311;,
         0.703818; 0.280892;-0.652425;,
         0.457930; 0.676046;-0.577258;,
         0.487320; 0.655538; 0.576830;,
        -0.610309;-0.276833; 0.742180;,
         0.702841;-0.053621; 0.709311;,
         0.487320; 0.655538; 0.576830;,
        -0.647786; 0.462569; 0.605274;,
        -0.787957; 0.027284;-0.615070;,
        -0.610309;-0.276833; 0.742180;,
        -0.647786; 0.462569; 0.605274;,
        -0.683004; 0.482070;-0.548692;,
         0.653737;-0.065615;-0.753838;,
        -0.631245;-0.284066;-0.721671;,
        -0.682577; 0.499435;-0.533494;,
         0.452528; 0.692404;-0.561907;,
         0.755669; 0.291543; 0.586474;,
         0.653737;-0.065615;-0.753838;,
         0.452528; 0.692404;-0.561907;,
         0.493606; 0.638234; 0.590747;,
        -0.087283; 0.985046;-0.148381;,
        -0.087283; 0.985046;-0.148381;,
        -0.087283; 0.985046;-0.148381;,
        -0.087283; 0.985046;-0.148381;,
         0.035524; 0.453658;-0.890439;,
         0.035524; 0.453658;-0.890439;,
         0.035524; 0.453658;-0.890439;,
         0.035524; 0.453658;-0.890439;,
        -0.076235;-0.143223; 0.986724;,
        -0.076235;-0.143223; 0.986724;,
        -0.076235;-0.143223; 0.986724;,
        -0.076235;-0.143223; 0.986724;,
         0.107120;-0.163457;-0.980712;,
         0.107120;-0.163457;-0.980712;,
         0.107120;-0.163457;-0.980712;,
         0.107120;-0.163457;-0.980712;,
        -0.134648; 0.615040; 0.776879;,
        -0.134648; 0.615040; 0.776879;,
        -0.134648; 0.615040; 0.776879;,
        -0.134648; 0.615040; 0.776879;,
        -0.126652; 0.933256; 0.336100;,
        -0.126652; 0.933256; 0.336100;,
        -0.126652; 0.933256; 0.336100;,
        -0.126652; 0.933256; 0.336100;,
        -0.213446; 0.963805; 0.159581;,
        -0.213446; 0.963805; 0.159581;,
        -0.213446; 0.963805; 0.159581;,
        -0.213446; 0.963805; 0.159581;,
        -0.011475; 0.446883; 0.894498;,
        -0.011475; 0.446883; 0.894498;,
        -0.011475; 0.446883; 0.894498;,
        -0.011475; 0.446883; 0.894498;,
        -0.070864;-0.143651;-0.987060;,
        -0.070864;-0.143651;-0.987060;,
        -0.070864;-0.143651;-0.987060;,
        -0.070864;-0.143651;-0.987060;,
         0.141545;-0.156285; 0.977508;,
         0.141545;-0.156285; 0.977508;,
         0.141545;-0.156285; 0.977508;,
         0.141545;-0.156285; 0.977508;,
        -0.225043; 0.598621;-0.768731;,
        -0.225043; 0.598621;-0.768731;,
        -0.225043; 0.598621;-0.768731;,
        -0.225043; 0.598621;-0.768731;,
        -0.252541; 0.911405;-0.324870;,
        -0.252541; 0.911405;-0.324870;,
        -0.252541; 0.911405;-0.324870;,
        -0.252541; 0.911405;-0.324870;;
        38;
        4;3,2,1,0;,
        4;7,6,5,4;,
        4;11,10,9,8;,
        4;15,14,13,12;,
        4;19,18,17,16;,
        4;23,22,21,20;,
        4;27,26,25,24;,
        4;31,30,29,28;,
        4;35,34,33,32;,
        4;39,38,37,36;,
        4;43,42,41,40;,
        4;47,46,45,44;,
        4;51,50,49,48;,
        4;55,54,53,52;,
        4;59,58,57,56;,
        4;63,62,61,60;,
        4;67,66,65,64;,
        4;71,70,69,68;,
        4;75,74,73,72;,
        4;79,78,77,76;,
        4;83,82,81,80;,
        4;87,86,85,84;,
        4;91,90,89,88;,
        4;95,94,93,92;,
        4;99,98,97,96;,
        4;103,102,101,100;,
        4;107,106,105,104;,
        4;111,110,109,108;,
        4;115,114,113,112;,
        4;119,118,117,116;,
        4;123,122,121,120;,
        4;127,126,125,124;,
        4;131,130,129,128;,
        4;135,134,133,132;,
        4;139,138,137,136;,
        4;143,142,141,140;,
        4;147,146,145,144;,
        4;151,150,149,148;;
      } // End of Cube normals
      MeshTextureCoords { // Cube UV coordinates
        152;
         0.023759; 0.210182;,
         0.000000; 0.210115;,
         0.029066; 0.328455;,
         0.045396; 0.309603;,
         0.824600; 0.366290;,
         0.824599; 0.999955;,
         0.868106; 0.999997;,
         0.868106; 0.366332;,
         0.243161; 0.213556;,
         0.219402; 0.213623;,
         0.254146; 0.334881;,
         0.260150; 0.309769;,
         0.248467; 0.095283;,
         0.264798; 0.114135;,
         0.310036; 0.083307;,
         0.311532; 0.057404;,
         0.307190; 0.999901;,
         0.307190; 0.366241;,
         0.219402; 0.366332;,
         0.219402; 0.999991;,
         0.107708; 0.366334;,
         0.107708; 1.000000;,
         0.219402; 1.000000;,
         0.219402; 0.366334;,
         0.000000; 0.366334;,
         0.000000; 1.000000;,
         0.107708; 1.000000;,
         0.107708; 0.366334;,
         0.398539; 1.000000;,
         0.398539; 0.366340;,
         0.307190; 0.366241;,
         0.307190; 0.999901;,
         0.264798; 0.114135;,
         0.248467; 0.095283;,
         0.219402; 0.213623;,
         0.243161; 0.213556;,
         0.040748; 0.113969;,
         0.034745; 0.088857;,
         0.000000; 0.210115;,
         0.023759; 0.210182;,
         0.311532; 0.057404;,
         0.310036; 0.083307;,
         0.394410; 0.086542;,
         0.395906; 0.060639;,
         0.740180; 0.365883;,
         0.740180; 0.999350;,
         0.824599; 0.999322;,
         0.824599; 0.365855;,
         0.545210; 0.366335;,
         0.545209; 1.000000;,
         0.603835; 0.999970;,
         0.603835; 0.366304;,
         0.260150; 0.309769;,
         0.254146; 0.334881;,
         0.311362; 0.363006;,
         0.311532; 0.337052;,
         0.398539; 0.365546;,
         0.398539; 0.999013;,
         0.460790; 1.000000;,
         0.460790; 0.366532;,
         0.045396; 0.309603;,
         0.029066; 0.328455;,
         0.092130; 0.366334;,
         0.090635; 0.340431;,
         0.034745; 0.088857;,
         0.040748; 0.113969;,
         0.092130; 0.086686;,
         0.091960; 0.060732;,
         0.688237; 0.366532;,
         0.688237; 1.000000;,
         0.740180; 0.999350;,
         0.740180; 0.365883;,
         1.000000; 0.366340;,
         0.976267; 0.366335;,
         0.976267; 0.999995;,
         1.000000; 1.000000;,
         0.976267; 0.366339;,
         0.952508; 0.366340;,
         0.952508; 1.000000;,
         0.976267; 0.999999;,
         0.868106; 0.366332;,
         0.868106; 0.999997;,
         0.952508; 1.000000;,
         0.952508; 0.366334;,
         0.091960; 0.060732;,
         0.092130; 0.086686;,
         0.176504; 0.083451;,
         0.176333; 0.057496;,
         0.603835; 0.366304;,
         0.603835; 0.999970;,
         0.688237; 0.999972;,
         0.688237; 0.366307;,
         0.311532; 0.337052;,
         0.311362; 0.363006;,
         0.395735; 0.366241;,
         0.395906; 0.340287;,
         0.460790; 0.366532;,
         0.460790; 1.000000;,
         0.545209; 0.999972;,
         0.545209; 0.366504;,
         0.090635; 0.340431;,
         0.092130; 0.366334;,
         0.176504; 0.363099;,
         0.175008; 0.337196;,
         0.869309; 0.365708;,
         0.869309; 0.250898;,
         0.778723; 0.251049;,
         0.778723; 0.365855;,
         0.635553; 0.226580;,
         0.635553; 0.109365;,
         0.545209; 0.105521;,
         0.545213; 0.222741;,
         0.398539; 0.234407;,
         0.398539; 0.365546;,
         0.488458; 0.358689;,
         0.488458; 0.227550;,
         0.778646; 0.104615;,
         0.688237; 0.103705;,
         0.688237; 0.232552;,
         0.778646; 0.233461;,
         0.622804; 0.007054;,
         0.545209; 0.000000;,
         0.545215; 0.098466;,
         0.622804; 0.105521;,
         0.217331; 0.267372;,
         0.176504; 0.260934;,
         0.176508; 0.359895;,
         0.217331; 0.366334;,
         0.869279; 0.232950;,
         0.869279; 0.117461;,
         0.778646; 0.117977;,
         0.778646; 0.233461;,
         0.488265; 0.227550;,
         0.488265; 0.113951;,
         0.398539; 0.101035;,
         0.398543; 0.214639;,
         0.635100; 0.356925;,
         0.635100; 0.226580;,
         0.545210; 0.235959;,
         0.545209; 0.366304;,
         0.688237; 0.365855;,
         0.778723; 0.363929;,
         0.778723; 0.233461;,
         0.688238; 0.235387;,
         0.778646; 0.117461;,
         0.861121; 0.107877;,
         0.861121; 0.009233;,
         0.778651; 0.018817;,
         0.675391; 0.267290;,
         0.635100; 0.260870;,
         0.635104; 0.359884;,
         0.675391; 0.366304;;
      } // End of Cube UV coordinates
      MeshMaterialList { // Cube material list
        1;
        38;
        0,
        0,
        0,
        0,
        0,
        0,
        0,
        0,
        0,
        0,
        0,
        0,
        0,
        0,
        0,
        0,
        0,
        0,
        0,
        0,
        0,
        0,
        0,
        0,
        0,
        0,
        0,
        0,
        0,
        0,
        0,
        0,
        0,
        0,
        0,
        0,
        0,
        0;
        Material Material_002 {
           0.640000; 0.640000; 0.640000; 1.000000;;
           96.078431;
           0.500000; 0.500000; 0.500000;;
           0.000000; 0.000000; 0.000000;;
        }
      } // End of Cube material list
    } // End of Cube mesh
  } // End of Cube
} // End of Root
