xof 0303txt 0032

Frame Root {
  FrameTransformMatrix {
     1.000000, 0.000000, 0.000000, 0.000000,
     0.000000,-0.000000, 1.000000, 0.000000,
     0.000000, 1.000000, 0.000000, 0.000000,
     0.000000, 0.000000, 0.000000, 1.000000;;
  }
  Frame Hat_CultHelmet2_x_Root_Cube_001 {
    FrameTransformMatrix {
       1.000000, 0.000000, 0.000000, 0.000000,
       0.000000, 1.000000, 0.000000, 0.000000,
       0.000000, 0.000000, 1.000000, 0.000000,
       0.000000, 0.000000, 0.000000, 1.000000;;
    }
    Mesh { // Hat_CultHelmet2_x_Root_Cube_001 mesh
      720;
       0.045018; 0.030785; 0.065926;,
       0.038215; 0.034993; 0.060976;,
       0.010176; 0.025122; 0.053614;,
       0.013035; 0.022525; 0.059849;,
       0.029601;-0.071337; 0.000050;,
       0.034463;-0.060060; 0.028758;,
       0.008172;-0.045728; 0.025152;,
       0.004592;-0.053379; 0.000050;,
       0.152428;-0.039407; 0.021291;,
       0.157326;-0.019669; 0.021998;,
       0.144567;-0.017879; 0.046596;,
       0.142230;-0.034362; 0.042531;,
       0.127931;-0.066691; 0.000050;,
       0.122229;-0.059323; 0.032541;,
       0.088394;-0.065463; 0.029753;,
       0.088394;-0.077176; 0.000050;,
       0.088394;-0.000942; 0.064505;,
       0.118768;-0.002373; 0.062971;,
       0.088394; 0.034993; 0.063158;,
       0.117249; 0.048603; 0.054104;,
       0.119602; 0.020792; 0.056581;,
       0.120436; 0.043957; 0.050191;,
       0.124912; 0.052178; 0.051184;,
       0.041985;-0.048058; 0.028235;,
       0.008172;-0.045728; 0.025152;,
       0.010176;-0.038605; 0.043991;,
       0.044233;-0.040067; 0.049368;,
       0.141616; 0.038728; 0.040338;,
       0.152814; 0.038728; 0.020194;,
       0.139523; 0.055466; 0.026290;,
       0.132781;-0.040130; 0.046977;,
       0.133533;-0.021007; 0.053326;,
       0.118982;-0.024136; 0.058877;,
       0.119195;-0.045898; 0.051422;,
       0.142551;-0.057200; 0.000050;,
       0.138706;-0.051726; 0.026916;,
       0.122229;-0.059323; 0.032541;,
       0.127931;-0.066691; 0.000050;,
       0.135095;-0.001885; 0.054756;,
       0.133333; 0.020095; 0.052581;,
       0.119602; 0.020792; 0.056581;,
       0.118768;-0.002373; 0.062971;,
       0.037969;-0.056640; 0.000075;,
       0.004592;-0.053379; 0.000050;,
       0.008172;-0.045728; 0.025152;,
       0.041985;-0.048058; 0.028235;,
       0.044233; 0.031421;-0.060012;,
       0.010176; 0.025122;-0.053514;,
       0.010176; 0.004632;-0.055426;,
       0.044233; 0.008435;-0.062157;,
       0.095280; 0.054746; 0.058162;,
       0.088394; 0.034993; 0.063158;,
       0.118768;-0.002373; 0.062971;,
       0.109585; 0.045028; 0.057023;,
       0.159104;-0.001396; 0.022706;,
       0.156847; 0.018666; 0.021973;,
       0.145648; 0.018666; 0.043373;,
       0.147905;-0.001396; 0.045362;,
       0.088394;-0.077176; 0.000050;,
       0.088394;-0.065463; 0.029753;,
       0.057528;-0.067755; 0.029231;,
       0.058184;-0.079304; 0.000050;,
       0.013035; 0.022525; 0.059849;,
       0.010176; 0.025122; 0.053614;,
       0.010176; 0.004632; 0.055526;,
       0.013035; 0.003015; 0.061819;,
       0.037646;-0.001130; 0.070490;,
       0.045018; 0.030785; 0.065926;,
       0.013035; 0.022525; 0.059849;,
       0.013035; 0.003015; 0.061819;,
       0.083376;-0.003713; 0.071505;,
       0.083376; 0.030785; 0.065926;,
       0.045018; 0.030785; 0.065926;,
       0.037646;-0.001130; 0.070490;,
       0.085624;-0.039866; 0.056632;,
       0.088394;-0.053750; 0.051556;,
       0.088394;-0.027346; 0.064099;,
       0.088394;-0.000942; 0.064505;,
       0.083376;-0.003713; 0.071505;,
       0.083376;-0.035277; 0.066011;,
       0.037925;-0.035863; 0.056841;,
       0.038215;-0.048783; 0.047021;,
       0.059075;-0.052347; 0.048349;,
       0.059429;-0.037668; 0.056747;,
       0.011645;-0.026108; 0.053527;,
       0.010176;-0.038605; 0.043991;,
       0.038215;-0.048783; 0.047021;,
       0.037925;-0.035863; 0.056841;,
       0.083376; 0.030785; 0.065926;,
       0.088394; 0.034993; 0.063158;,
       0.038215; 0.034993; 0.060976;,
       0.045018; 0.030785; 0.065926;,
       0.124912; 0.052178; 0.051184;,
       0.121285; 0.079002; 0.029542;,
       0.088530; 0.116073; 0.019984;,
       0.088530; 0.089801; 0.044200;,
       0.109585; 0.045028; 0.057023;,
       0.117249; 0.048603; 0.054104;,
       0.091905; 0.072273; 0.051181;,
       0.095280; 0.054746; 0.058162;,
       0.121285; 0.079002; 0.029542;,
       0.120436; 0.072867; 0.029354;,
       0.120436; 0.069663; 0.000050;,
       0.129147; 0.075584; 0.000050;,
       0.088530; 0.116073; 0.019984;,
       0.083146; 0.116219; 0.018375;,
       0.083146; 0.101634; 0.036701;,
       0.088530; 0.089801; 0.044200;,
       0.091905; 0.072273; 0.051181;,
       0.085770; 0.068314; 0.049929;,
       0.088394; 0.034993; 0.063158;,
       0.095280; 0.054746; 0.058162;,
       0.088530; 0.127417; 0.000050;,
       0.083146; 0.127011; 0.000050;,
       0.083146; 0.116219; 0.018375;,
       0.088530; 0.116073; 0.019984;,
       0.124912; 0.052178; 0.051184;,
       0.120436; 0.043957; 0.050191;,
       0.120436; 0.072867; 0.029354;,
       0.121285; 0.079002; 0.029542;,
       0.121285; 0.079002; 0.029542;,
       0.129147; 0.075584; 0.000050;,
       0.088530; 0.127417; 0.000050;,
       0.088530; 0.116073; 0.019984;,
       0.088394;-0.065463; 0.029753;,
       0.088394;-0.053750; 0.051556;,
       0.059075;-0.052347; 0.048349;,
       0.057528;-0.067755; 0.029231;,
       0.138706;-0.051726; 0.026916;,
       0.132781;-0.040130; 0.046977;,
       0.119195;-0.045898; 0.051422;,
       0.122229;-0.059323; 0.032541;,
       0.122229;-0.059323; 0.032541;,
       0.119195;-0.045898; 0.051422;,
       0.088394;-0.053750; 0.051556;,
       0.088394;-0.065463; 0.029753;,
       0.034463;-0.060060; 0.028758;,
       0.038215;-0.048783; 0.047021;,
       0.010176;-0.038605; 0.043991;,
       0.008172;-0.045728; 0.025152;,
       0.034463;-0.060060; 0.028758;,
       0.057528;-0.067755; 0.029231;,
       0.059075;-0.052347; 0.048349;,
       0.038215;-0.048783; 0.047021;,
       0.029601;-0.071337; 0.000050;,
       0.058184;-0.079304; 0.000050;,
       0.057528;-0.067755; 0.029231;,
       0.034463;-0.060060; 0.028758;,
       0.083376; 0.030785; 0.065926;,
       0.083376;-0.003713; 0.071505;,
       0.088394;-0.000942; 0.064505;,
       0.088394; 0.034993; 0.063158;,
       0.013035;-0.021457; 0.065265;,
       0.013035; 0.003015; 0.061819;,
       0.010176; 0.004632; 0.055526;,
       0.010176;-0.038605; 0.043991;,
       0.011645;-0.026108; 0.053527;,
       0.037646;-0.030686; 0.068944;,
       0.037646;-0.001130; 0.070490;,
       0.013035; 0.003015; 0.061819;,
       0.013035;-0.021457; 0.065265;,
       0.118982;-0.024136; 0.058877;,
       0.088394;-0.027346; 0.064099;,
       0.088394;-0.053750; 0.051556;,
       0.119195;-0.045898; 0.051422;,
       0.083376;-0.035277; 0.066011;,
       0.083376;-0.003713; 0.071505;,
       0.037646;-0.001130; 0.070490;,
       0.037646;-0.030686; 0.068944;,
       0.059985;-0.032929; 0.067511;,
       0.037646;-0.030686; 0.068944;,
       0.037925;-0.035863; 0.056841;,
       0.059429;-0.037668; 0.056747;,
       0.059985;-0.032929; 0.067511;,
       0.013035;-0.021457; 0.065265;,
       0.011645;-0.026108; 0.053527;,
       0.037925;-0.035863; 0.056841;,
       0.037646;-0.030686; 0.068944;,
       0.085624;-0.039866; 0.056632;,
       0.059429;-0.037668; 0.056747;,
       0.059075;-0.052347; 0.048349;,
       0.088394;-0.053750; 0.051556;,
       0.083376;-0.035277; 0.066011;,
       0.059985;-0.032929; 0.067511;,
       0.059429;-0.037668; 0.056747;,
       0.085624;-0.039866; 0.056632;,
       0.120436; 0.072867; 0.029354;,
       0.130524; 0.063604; 0.026667;,
       0.130361; 0.065118; 0.000050;,
       0.120436; 0.069663; 0.000050;,
       0.120436; 0.043957; 0.050191;,
       0.131570; 0.042075; 0.045929;,
       0.130524; 0.063604; 0.026667;,
       0.120436; 0.072867; 0.029354;,
       0.118768;-0.002373; 0.062971;,
       0.088394;-0.000942; 0.064505;,
       0.088394;-0.027346; 0.064099;,
       0.118982;-0.024136; 0.058877;,
       0.044233;-0.040067; 0.049368;,
       0.010176;-0.038605; 0.043991;,
       0.010176; 0.004632; 0.055526;,
       0.044233; 0.008435; 0.062308;,
       0.041985;-0.048058;-0.028084;,
       0.008172;-0.045728;-0.025053;,
       0.004592;-0.053379; 0.000050;,
       0.037969;-0.056640; 0.000075;,
       0.133533;-0.021007; 0.053326;,
       0.135095;-0.001885; 0.054756;,
       0.118768;-0.002373; 0.062971;,
       0.118982;-0.024136; 0.058877;,
       0.157326;-0.019669; 0.021998;,
       0.159104;-0.001396; 0.022706;,
       0.147905;-0.001396; 0.045362;,
       0.144567;-0.017879; 0.046596;,
       0.140724;-0.014373; 0.052612;,
       0.137972;-0.014758; 0.050886;,
       0.141341;-0.013886; 0.049229;,
       0.143066;-0.013766; 0.051461;,
       0.159476;-0.021458; 0.000050;,
       0.154414;-0.042986; 0.000050;,
       0.142551;-0.057200; 0.000050;,
       0.144371;-0.024760; 0.000050;,
       0.131570; 0.042075; 0.045929;,
       0.141616; 0.038728; 0.040338;,
       0.139523; 0.055466; 0.026290;,
       0.130524; 0.063604; 0.026667;,
       0.130524; 0.063604; 0.026667;,
       0.139523; 0.055466; 0.026290;,
       0.140286; 0.060572; 0.000050;,
       0.130361; 0.065118; 0.000050;,
       0.152428;-0.039407; 0.021291;,
       0.142230;-0.034362; 0.042531;,
       0.132781;-0.040130; 0.046977;,
       0.138706;-0.051726; 0.026916;,
       0.161090;-0.001396; 0.000050;,
       0.159476;-0.021458; 0.000050;,
       0.144371;-0.024760; 0.000050;,
       0.145845; 0.004585; 0.000050;,
       0.147905;-0.001396; 0.045362;,
       0.145648; 0.018666; 0.043373;,
       0.133333; 0.020095; 0.052581;,
       0.135095;-0.001885; 0.054756;,
       0.154414;-0.042986; 0.000050;,
       0.152428;-0.039407; 0.021291;,
       0.138706;-0.051726; 0.026916;,
       0.142551;-0.057200; 0.000050;,
       0.142230;-0.034362; 0.042531;,
       0.144567;-0.017879; 0.046596;,
       0.133533;-0.021007; 0.053326;,
       0.132781;-0.040130; 0.046977;,
       0.158833; 0.018666; 0.000050;,
       0.161090;-0.001396; 0.000050;,
       0.145845; 0.004585; 0.000050;,
       0.130361; 0.065118; 0.000050;,
       0.140286; 0.060572; 0.000050;,
       0.154801; 0.038728; 0.000050;,
       0.145648; 0.018666; 0.043373;,
       0.141616; 0.038728; 0.040338;,
       0.131570; 0.042075; 0.045929;,
       0.133333; 0.020095; 0.052581;,
       0.088530; 0.089801; 0.044200;,
       0.083146; 0.101634; 0.036701;,
       0.085770; 0.068314; 0.049929;,
       0.091905; 0.072273; 0.051181;,
       0.117249; 0.048603; 0.054104;,
       0.124912; 0.052178; 0.051184;,
       0.088530; 0.089801; 0.044200;,
       0.091905; 0.072273; 0.051181;,
       0.156847; 0.018666; 0.021973;,
       0.152814; 0.038728; 0.020194;,
       0.141616; 0.038728; 0.040338;,
       0.145648; 0.018666; 0.043373;,
       0.133333; 0.020095; 0.052581;,
       0.131570; 0.042075; 0.045929;,
       0.120436; 0.043957; 0.050191;,
       0.119602; 0.020792; 0.056581;,
       0.109585; 0.045028; 0.057023;,
       0.118768;-0.002373; 0.062971;,
       0.119602; 0.020792; 0.056581;,
       0.117249; 0.048603; 0.054104;,
       0.010176; 0.025122;-0.053514;,
       0.038215; 0.034993;-0.060876;,
       0.045018; 0.030785;-0.065826;,
       0.013035; 0.022525;-0.059749;,
       0.008172;-0.045728;-0.025053;,
       0.034463;-0.060060;-0.028658;,
       0.029601;-0.071337; 0.000050;,
       0.004592;-0.053379; 0.000050;,
       0.144567;-0.017879;-0.046497;,
       0.157326;-0.019669;-0.021899;,
       0.152428;-0.039407;-0.021191;,
       0.142230;-0.034362;-0.042432;,
       0.088394;-0.065463;-0.029653;,
       0.122229;-0.059323;-0.032441;,
       0.127931;-0.066691; 0.000050;,
       0.088394;-0.077176; 0.000050;,
       0.088394; 0.034993;-0.063058;,
       0.118768;-0.002373;-0.062872;,
       0.088394;-0.000942;-0.064405;,
       0.120436; 0.043957;-0.050091;,
       0.119602; 0.020792;-0.056481;,
       0.117249; 0.048603;-0.054004;,
       0.124912; 0.052178;-0.051084;,
       0.139523; 0.055466;-0.026190;,
       0.152814; 0.038728;-0.020094;,
       0.141616; 0.038728;-0.040238;,
       0.118982;-0.024136;-0.058777;,
       0.133533;-0.021007;-0.053226;,
       0.132781;-0.040130;-0.046877;,
       0.119195;-0.045898;-0.051322;,
       0.122229;-0.059323;-0.032441;,
       0.138706;-0.051726;-0.026816;,
       0.142551;-0.057200; 0.000050;,
       0.127931;-0.066691; 0.000050;,
       0.119602; 0.020792;-0.056481;,
       0.133333; 0.020095;-0.052482;,
       0.135096;-0.001885;-0.054656;,
       0.118768;-0.002373;-0.062872;,
       0.118768;-0.002373;-0.062872;,
       0.088394; 0.034993;-0.063058;,
       0.095280; 0.054746;-0.058062;,
       0.109585; 0.045028;-0.056923;,
       0.145648; 0.018666;-0.043273;,
       0.156847; 0.018666;-0.021873;,
       0.159104;-0.001396;-0.022606;,
       0.147905;-0.001396;-0.045262;,
       0.057528;-0.067755;-0.029131;,
       0.088394;-0.065463;-0.029653;,
       0.088394;-0.077176; 0.000050;,
       0.058184;-0.079304; 0.000050;,
       0.010176; 0.004632;-0.055426;,
       0.010176; 0.025122;-0.053514;,
       0.013035; 0.022525;-0.059749;,
       0.013035; 0.003015;-0.061719;,
       0.013035; 0.022525;-0.059749;,
       0.045018; 0.030785;-0.065826;,
       0.037646;-0.001130;-0.070390;,
       0.013035; 0.003015;-0.061719;,
       0.045018; 0.030785;-0.065826;,
       0.083376; 0.030785;-0.065826;,
       0.083376;-0.003713;-0.071406;,
       0.037646;-0.001130;-0.070390;,
       0.088394;-0.027346;-0.063999;,
       0.088394;-0.053750;-0.051457;,
       0.085624;-0.039866;-0.056532;,
       0.083376;-0.035277;-0.065911;,
       0.083376;-0.003713;-0.071406;,
       0.088394;-0.000942;-0.064405;,
       0.059075;-0.052347;-0.048249;,
       0.038215;-0.048783;-0.046921;,
       0.037925;-0.035863;-0.056741;,
       0.059429;-0.037668;-0.056647;,
       0.038215;-0.048783;-0.046921;,
       0.010176;-0.038605;-0.043891;,
       0.011645;-0.026108;-0.053428;,
       0.037925;-0.035863;-0.056741;,
       0.038215; 0.034993;-0.060876;,
       0.088394; 0.034993;-0.063058;,
       0.083376; 0.030785;-0.065826;,
       0.045018; 0.030785;-0.065826;,
       0.088530; 0.116073;-0.019884;,
       0.121285; 0.079002;-0.029442;,
       0.124912; 0.052178;-0.051084;,
       0.088530; 0.089801;-0.044100;,
       0.091905; 0.072273;-0.051081;,
       0.117249; 0.048603;-0.054004;,
       0.109585; 0.045028;-0.056923;,
       0.095280; 0.054746;-0.058062;,
       0.120436; 0.069663; 0.000050;,
       0.120436; 0.072867;-0.029254;,
       0.121285; 0.079002;-0.029442;,
       0.129147; 0.075584; 0.000050;,
       0.083146; 0.101634;-0.036601;,
       0.083146; 0.116219;-0.018276;,
       0.088530; 0.116073;-0.019884;,
       0.088530; 0.089801;-0.044100;,
       0.088394; 0.034993;-0.063058;,
       0.085770; 0.068314;-0.049830;,
       0.091905; 0.072273;-0.051081;,
       0.095280; 0.054746;-0.058062;,
       0.083146; 0.116219;-0.018276;,
       0.083146; 0.127011; 0.000050;,
       0.088530; 0.127417; 0.000050;,
       0.088530; 0.116073;-0.019884;,
       0.120436; 0.072867;-0.029254;,
       0.120436; 0.043957;-0.050091;,
       0.124912; 0.052178;-0.051084;,
       0.121285; 0.079002;-0.029442;,
       0.088530; 0.127417; 0.000050;,
       0.129147; 0.075584; 0.000050;,
       0.121285; 0.079002;-0.029442;,
       0.088530; 0.116073;-0.019884;,
       0.059075;-0.052347;-0.048249;,
       0.088394;-0.053750;-0.051457;,
       0.088394;-0.065463;-0.029653;,
       0.057528;-0.067755;-0.029131;,
       0.119195;-0.045898;-0.051322;,
       0.132781;-0.040130;-0.046877;,
       0.138706;-0.051726;-0.026816;,
       0.122229;-0.059323;-0.032441;,
       0.088394;-0.053750;-0.051457;,
       0.119195;-0.045898;-0.051322;,
       0.122229;-0.059323;-0.032441;,
       0.088394;-0.065463;-0.029653;,
       0.010176;-0.038605;-0.043891;,
       0.038215;-0.048783;-0.046921;,
       0.034463;-0.060060;-0.028658;,
       0.008172;-0.045728;-0.025053;,
       0.059075;-0.052347;-0.048249;,
       0.057528;-0.067755;-0.029131;,
       0.034463;-0.060060;-0.028658;,
       0.038215;-0.048783;-0.046921;,
       0.057528;-0.067755;-0.029131;,
       0.058184;-0.079304; 0.000050;,
       0.029601;-0.071337; 0.000050;,
       0.034463;-0.060060;-0.028658;,
       0.088394;-0.000942;-0.064405;,
       0.083376;-0.003713;-0.071406;,
       0.083376; 0.030785;-0.065826;,
       0.088394; 0.034993;-0.063058;,
       0.010176; 0.004632;-0.055426;,
       0.013035; 0.003015;-0.061719;,
       0.013035;-0.021457;-0.065166;,
       0.011645;-0.026108;-0.053428;,
       0.010176;-0.038605;-0.043891;,
       0.013035; 0.003015;-0.061719;,
       0.037646;-0.001130;-0.070390;,
       0.037646;-0.030686;-0.068844;,
       0.013035;-0.021457;-0.065166;,
       0.088394;-0.053750;-0.051457;,
       0.088394;-0.027346;-0.063999;,
       0.118982;-0.024136;-0.058777;,
       0.119195;-0.045898;-0.051322;,
       0.037646;-0.001130;-0.070390;,
       0.083376;-0.003713;-0.071406;,
       0.083376;-0.035277;-0.065911;,
       0.059985;-0.032929;-0.067412;,
       0.037646;-0.030686;-0.068844;,
       0.059429;-0.037668;-0.056647;,
       0.037925;-0.035863;-0.056741;,
       0.037646;-0.030686;-0.068844;,
       0.059985;-0.032929;-0.067412;,
       0.037925;-0.035863;-0.056741;,
       0.011645;-0.026108;-0.053428;,
       0.013035;-0.021457;-0.065166;,
       0.037646;-0.030686;-0.068844;,
       0.059075;-0.052347;-0.048249;,
       0.059429;-0.037668;-0.056647;,
       0.085624;-0.039866;-0.056532;,
       0.088394;-0.053750;-0.051457;,
       0.059429;-0.037668;-0.056647;,
       0.059985;-0.032929;-0.067412;,
       0.083376;-0.035277;-0.065911;,
       0.085624;-0.039866;-0.056532;,
       0.130361; 0.065118; 0.000050;,
       0.130524; 0.063604;-0.026567;,
       0.120436; 0.072867;-0.029254;,
       0.120436; 0.069663; 0.000050;,
       0.130524; 0.063604;-0.026567;,
       0.131570; 0.042075;-0.045830;,
       0.120436; 0.043957;-0.050091;,
       0.120436; 0.072867;-0.029254;,
       0.088394;-0.027346;-0.063999;,
       0.088394;-0.000942;-0.064405;,
       0.118768;-0.002373;-0.062872;,
       0.118982;-0.024136;-0.058777;,
       0.118768;-0.002373;-0.062872;,
       0.135096;-0.001885;-0.054656;,
       0.133533;-0.021007;-0.053226;,
       0.118982;-0.024136;-0.058777;,
       0.147905;-0.001396;-0.045262;,
       0.159104;-0.001396;-0.022606;,
       0.157326;-0.019669;-0.021899;,
       0.144567;-0.017879;-0.046497;,
       0.140900;-0.007953;-0.053973;,
       0.139106;-0.007017;-0.051367;,
       0.142258;-0.006859;-0.048618;,
       0.144052;-0.007796;-0.051224;,
       0.139523; 0.055466;-0.026190;,
       0.141616; 0.038728;-0.040238;,
       0.131570; 0.042075;-0.045830;,
       0.130524; 0.063604;-0.026567;,
       0.140286; 0.060572; 0.000050;,
       0.139523; 0.055466;-0.026190;,
       0.130524; 0.063604;-0.026567;,
       0.130361; 0.065118; 0.000050;,
       0.132781;-0.040130;-0.046877;,
       0.142230;-0.034362;-0.042432;,
       0.152428;-0.039407;-0.021191;,
       0.138706;-0.051726;-0.026816;,
       0.133333; 0.020095;-0.052482;,
       0.145648; 0.018666;-0.043273;,
       0.147905;-0.001396;-0.045262;,
       0.135096;-0.001885;-0.054656;,
       0.138706;-0.051726;-0.026816;,
       0.152428;-0.039407;-0.021191;,
       0.154414;-0.042986; 0.000050;,
       0.142551;-0.057200; 0.000050;,
       0.133533;-0.021007;-0.053226;,
       0.144567;-0.017879;-0.046497;,
       0.142230;-0.034362;-0.042432;,
       0.132781;-0.040130;-0.046877;,
       0.131570; 0.042075;-0.045830;,
       0.141616; 0.038728;-0.040238;,
       0.145648; 0.018666;-0.043273;,
       0.133333; 0.020095;-0.052482;,
       0.085770; 0.068314;-0.049830;,
       0.083146; 0.101634;-0.036601;,
       0.088530; 0.089801;-0.044100;,
       0.091905; 0.072273;-0.051081;,
       0.088530; 0.089801;-0.044100;,
       0.124912; 0.052178;-0.051084;,
       0.117249; 0.048603;-0.054004;,
       0.091905; 0.072273;-0.051081;,
       0.141616; 0.038728;-0.040238;,
       0.152814; 0.038728;-0.020094;,
       0.156847; 0.018666;-0.021873;,
       0.145648; 0.018666;-0.043273;,
       0.120436; 0.043957;-0.050091;,
       0.131570; 0.042075;-0.045830;,
       0.133333; 0.020095;-0.052482;,
       0.119602; 0.020792;-0.056481;,
       0.119602; 0.020792;-0.056481;,
       0.118768;-0.002373;-0.062872;,
       0.109585; 0.045028;-0.056923;,
       0.117249; 0.048603;-0.054004;,
       0.147905;-0.001396; 0.045362;,
       0.142696;-0.006436; 0.048457;,
       0.141341;-0.013886; 0.049229;,
       0.144567;-0.017879; 0.046596;,
       0.135095;-0.001885; 0.054756;,
       0.138795;-0.006618; 0.051722;,
       0.142696;-0.006436; 0.048457;,
       0.147905;-0.001396; 0.045362;,
       0.144567;-0.017879; 0.046596;,
       0.141341;-0.013886; 0.049229;,
       0.137972;-0.014758; 0.050886;,
       0.133533;-0.021007; 0.053326;,
       0.133533;-0.021007; 0.053326;,
       0.137972;-0.014758; 0.050886;,
       0.138795;-0.006618; 0.051722;,
       0.135095;-0.001885; 0.054756;,
       0.143066;-0.013766; 0.051461;,
       0.144007;-0.008588; 0.050924;,
       0.141296;-0.008715; 0.053193;,
       0.140724;-0.014373; 0.052612;,
       0.143066;-0.013766; 0.051461;,
       0.141341;-0.013886; 0.049229;,
       0.142696;-0.006436; 0.048457;,
       0.144007;-0.008588; 0.050924;,
       0.141296;-0.008715; 0.053193;,
       0.138795;-0.006618; 0.051722;,
       0.137972;-0.014758; 0.050886;,
       0.140724;-0.014373; 0.052612;,
       0.144007;-0.008588; 0.050924;,
       0.142696;-0.006436; 0.048457;,
       0.138795;-0.006618; 0.051722;,
       0.141296;-0.008715; 0.053193;,
       0.144567;-0.017879;-0.046497;,
       0.141069;-0.013550;-0.049351;,
       0.142258;-0.006859;-0.048618;,
       0.147905;-0.001396;-0.045262;,
       0.147905;-0.001396;-0.045262;,
       0.142258;-0.006859;-0.048618;,
       0.139106;-0.007017;-0.051367;,
       0.135096;-0.001885;-0.054656;,
       0.133533;-0.021007;-0.053226;,
       0.138345;-0.014233;-0.050581;,
       0.141069;-0.013550;-0.049351;,
       0.144567;-0.017879;-0.046497;,
       0.135096;-0.001885;-0.054656;,
       0.139106;-0.007017;-0.051367;,
       0.138345;-0.014233;-0.050581;,
       0.133533;-0.021007;-0.053226;,
       0.140900;-0.007953;-0.053973;,
       0.144052;-0.007796;-0.051224;,
       0.142863;-0.014487;-0.051957;,
       0.140139;-0.015169;-0.053187;,
       0.142863;-0.014487;-0.051957;,
       0.141069;-0.013550;-0.049351;,
       0.138345;-0.014233;-0.050581;,
       0.140139;-0.015169;-0.053187;,
       0.144052;-0.007796;-0.051224;,
       0.142258;-0.006859;-0.048618;,
       0.141069;-0.013550;-0.049351;,
       0.142863;-0.014487;-0.051957;,
       0.140139;-0.015169;-0.053187;,
       0.138345;-0.014233;-0.050581;,
       0.139106;-0.007017;-0.051367;,
       0.140900;-0.007953;-0.053973;,
       0.156847; 0.018666; 0.021973;,
       0.159104;-0.001396; 0.022706;,
       0.161090;-0.001396; 0.000050;,
       0.158833; 0.018666; 0.000050;,
       0.158833; 0.018666; 0.000050;,
       0.161090;-0.001396; 0.000050;,
       0.159104;-0.001396;-0.022606;,
       0.156847; 0.018666;-0.021873;,
       0.154801; 0.038728; 0.000050;,
       0.158833; 0.018666; 0.000050;,
       0.156847; 0.018666;-0.021873;,
       0.152814; 0.038728;-0.020094;,
       0.156847; 0.018666; 0.021973;,
       0.158833; 0.018666; 0.000050;,
       0.154801; 0.038728; 0.000050;,
       0.152814; 0.038728; 0.020194;,
       0.154801; 0.038728; 0.000050;,
       0.140286; 0.060572; 0.000050;,
       0.139523; 0.055466; 0.026290;,
       0.152814; 0.038728; 0.020194;,
       0.140286; 0.060572; 0.000050;,
       0.154801; 0.038728; 0.000050;,
       0.152814; 0.038728;-0.020094;,
       0.139523; 0.055466;-0.026190;,
       0.157326;-0.019669; 0.021998;,
       0.159476;-0.021458; 0.000050;,
       0.161090;-0.001396; 0.000050;,
       0.159104;-0.001396; 0.022706;,
       0.159104;-0.001396;-0.022606;,
       0.161090;-0.001396; 0.000050;,
       0.159476;-0.021458; 0.000050;,
       0.157326;-0.019669;-0.021899;,
       0.159476;-0.021458; 0.000050;,
       0.154414;-0.042986; 0.000050;,
       0.152428;-0.039407;-0.021191;,
       0.157326;-0.019669;-0.021899;,
       0.152428;-0.039407; 0.021291;,
       0.154414;-0.042986; 0.000050;,
       0.159476;-0.021458; 0.000050;,
       0.157326;-0.019669; 0.021998;,
       0.044233;-0.040067;-0.049217;,
       0.010176;-0.038605;-0.043891;,
       0.008172;-0.045728;-0.025053;,
       0.041985;-0.048058;-0.028084;,
       0.044233; 0.008435;-0.062157;,
       0.010176; 0.004632;-0.055426;,
       0.010176;-0.038605;-0.043891;,
       0.044233;-0.040067;-0.049217;,
       0.044233; 0.008435; 0.062308;,
       0.010176; 0.004632; 0.055526;,
       0.010176; 0.025122; 0.053614;,
       0.044233; 0.031421; 0.060163;,
       0.088154;-0.039444; 0.050567;,
       0.044233;-0.040067; 0.049368;,
       0.044233; 0.008435; 0.062308;,
       0.088154; 0.009058; 0.063507;,
       0.081890;-0.056017; 0.001275;,
       0.037969;-0.056640; 0.000075;,
       0.041985;-0.048058; 0.028235;,
       0.085907;-0.047435; 0.029435;,
       0.088154; 0.009058; 0.063507;,
       0.044233; 0.008435; 0.062308;,
       0.044233; 0.031421; 0.060163;,
       0.088154; 0.032044; 0.061362;,
       0.088154; 0.032044;-0.058812;,
       0.044233; 0.031421;-0.060012;,
       0.044233; 0.008435;-0.062157;,
       0.088154; 0.009058;-0.060957;,
       0.085907;-0.047435; 0.029435;,
       0.041985;-0.048058; 0.028235;,
       0.044233;-0.040067; 0.049368;,
       0.088154;-0.039444; 0.050567;,
       0.085907;-0.047435;-0.026884;,
       0.041985;-0.048058;-0.028084;,
       0.037969;-0.056640; 0.000075;,
       0.081890;-0.056017; 0.001275;,
       0.088154;-0.039444;-0.048017;,
       0.044233;-0.040067;-0.049217;,
       0.041985;-0.048058;-0.028084;,
       0.085907;-0.047435;-0.026884;,
       0.088154; 0.009058;-0.060957;,
       0.044233; 0.008435;-0.062157;,
       0.044233;-0.040067;-0.049217;,
       0.088154;-0.039444;-0.048017;,
       0.038215; 0.034993;-0.060876;,
       0.010176; 0.025122;-0.053514;,
       0.044233; 0.031421;-0.060012;,
       0.088394; 0.034993;-0.063058;,
       0.038215; 0.034993;-0.060876;,
       0.044233; 0.031421;-0.060012;,
       0.088154; 0.032044;-0.058812;,
       0.010176; 0.025122; 0.053614;,
       0.038215; 0.034993; 0.060976;,
       0.044233; 0.031421; 0.060163;,
       0.038215; 0.034993; 0.060976;,
       0.088394; 0.034993; 0.063158;,
       0.088154; 0.032044; 0.061362;,
       0.044233; 0.031421; 0.060163;,
       0.093269; 0.055542;-0.027191;,
       0.083146; 0.116219;-0.018276;,
       0.083146; 0.101634;-0.036601;,
       0.093269; 0.040958;-0.045517;,
       0.093269; 0.055542; 0.009460;,
       0.083146; 0.116219; 0.018375;,
       0.083146; 0.127011; 0.000050;,
       0.093269; 0.066335;-0.008866;,
       0.093269; 0.066335;-0.008866;,
       0.083146; 0.127011; 0.000050;,
       0.083146; 0.116219;-0.018276;,
       0.093269; 0.055542;-0.027191;,
       0.093269; 0.040958; 0.027785;,
       0.083146; 0.101634; 0.036701;,
       0.083146; 0.116219; 0.018375;,
       0.093269; 0.055542; 0.009460;,
       0.088394; 0.034993; 0.063158;,
       0.085770; 0.068314; 0.049929;,
       0.083146; 0.101634; 0.036701;,
       0.093269; 0.040958; 0.027785;,
       0.085770; 0.068314;-0.049830;,
       0.088394; 0.034993;-0.063058;,
       0.093269; 0.040958;-0.045517;,
       0.083146; 0.101634;-0.036601;,
       0.093269; 0.040958; 0.027785;,
       0.088154; 0.009058; 0.063507;,
       0.088154; 0.032044; 0.061362;,
       0.088394; 0.034993; 0.063158;,
       0.088154; 0.032044;-0.058812;,
       0.088154; 0.009058;-0.060957;,
       0.093269; 0.040958;-0.045517;,
       0.088394; 0.034993;-0.063058;;
      179;
      4;3,2,1,0;,
      4;7,6,5,4;,
      4;11,10,9,8;,
      4;15,14,13,12;,
      3;18,17,16;,
      4;22,21,20,19;,
      4;26,25,24,23;,
      3;29,28,27;,
      4;33,32,31,30;,
      4;37,36,35,34;,
      4;41,40,39,38;,
      4;45,44,43,42;,
      4;49,48,47,46;,
      4;53,52,51,50;,
      4;57,56,55,54;,
      4;61,60,59,58;,
      4;65,64,63,62;,
      4;69,68,67,66;,
      4;73,72,71,70;,
      6;79,78,77,76,75,74;,
      4;83,82,81,80;,
      4;87,86,85,84;,
      4;91,90,89,88;,
      4;95,94,93,92;,
      4;99,98,97,96;,
      4;103,102,101,100;,
      4;107,106,105,104;,
      4;111,110,109,108;,
      4;115,114,113,112;,
      4;119,118,117,116;,
      4;123,122,121,120;,
      4;127,126,125,124;,
      4;131,130,129,128;,
      4;135,134,133,132;,
      4;139,138,137,136;,
      4;143,142,141,140;,
      4;147,146,145,144;,
      4;151,150,149,148;,
      5;156,155,154,153,152;,
      4;160,159,158,157;,
      4;164,163,162,161;,
      5;169,168,167,166,165;,
      4;173,172,171,170;,
      4;177,176,175,174;,
      4;181,180,179,178;,
      4;185,184,183,182;,
      4;189,188,187,186;,
      4;193,192,191,190;,
      4;197,196,195,194;,
      4;201,200,199,198;,
      4;205,204,203,202;,
      4;209,208,207,206;,
      4;213,212,211,210;,
      4;217,216,215,214;,
      4;221,220,219,218;,
      4;225,224,223,222;,
      4;229,228,227,226;,
      4;233,232,231,230;,
      4;237,236,235,234;,
      4;241,240,239,238;,
      4;245,244,243,242;,
      4;249,248,247,246;,
      6;255,254,253,252,251,250;,
      4;259,258,257,256;,
      4;263,262,261,260;,
      4;267,266,265,264;,
      4;271,270,269,268;,
      4;275,274,273,272;,
      4;279,278,277,276;,
      4;283,282,281,280;,
      4;287,286,285,284;,
      4;291,290,289,288;,
      4;295,294,293,292;,
      3;298,297,296;,
      4;302,301,300,299;,
      3;305,304,303;,
      4;309,308,307,306;,
      4;313,312,311,310;,
      4;317,316,315,314;,
      4;321,320,319,318;,
      4;325,324,323,322;,
      4;329,328,327,326;,
      4;333,332,331,330;,
      4;337,336,335,334;,
      4;341,340,339,338;,
      6;347,346,345,344,343,342;,
      4;351,350,349,348;,
      4;355,354,353,352;,
      4;359,358,357,356;,
      4;363,362,361,360;,
      4;367,366,365,364;,
      4;371,370,369,368;,
      4;375,374,373,372;,
      4;379,378,377,376;,
      4;383,382,381,380;,
      4;387,386,385,384;,
      4;391,390,389,388;,
      4;395,394,393,392;,
      4;399,398,397,396;,
      4;403,402,401,400;,
      4;407,406,405,404;,
      4;411,410,409,408;,
      4;415,414,413,412;,
      4;419,418,417,416;,
      5;424,423,422,421,420;,
      4;428,427,426,425;,
      4;432,431,430,429;,
      5;437,436,435,434,433;,
      4;441,440,439,438;,
      4;445,444,443,442;,
      4;449,448,447,446;,
      4;453,452,451,450;,
      4;457,456,455,454;,
      4;461,460,459,458;,
      4;465,464,463,462;,
      4;469,468,467,466;,
      4;473,472,471,470;,
      4;477,476,475,474;,
      4;481,480,479,478;,
      4;485,484,483,482;,
      4;489,488,487,486;,
      4;493,492,491,490;,
      4;497,496,495,494;,
      4;501,500,499,498;,
      4;505,504,503,502;,
      4;509,508,507,506;,
      4;513,512,511,510;,
      4;517,516,515,514;,
      4;521,520,519,518;,
      4;525,524,523,522;,
      4;529,528,527,526;,
      4;533,532,531,530;,
      4;537,536,535,534;,
      4;541,540,539,538;,
      4;545,544,543,542;,
      4;549,548,547,546;,
      4;553,552,551,550;,
      4;557,556,555,554;,
      4;561,560,559,558;,
      4;565,564,563,562;,
      4;569,568,567,566;,
      4;573,572,571,570;,
      4;577,576,575,574;,
      4;581,580,579,578;,
      4;585,584,583,582;,
      4;589,588,587,586;,
      4;593,592,591,590;,
      4;597,596,595,594;,
      4;601,600,599,598;,
      4;605,604,603,602;,
      4;609,608,607,606;,
      4;613,612,611,610;,
      4;617,616,615,614;,
      4;621,620,619,618;,
      4;625,624,623,622;,
      4;629,628,627,626;,
      4;633,632,631,630;,
      4;637,636,635,634;,
      4;641,640,639,638;,
      4;645,644,643,642;,
      4;649,648,647,646;,
      4;653,652,651,650;,
      4;657,656,655,654;,
      4;661,660,659,658;,
      4;665,664,663,662;,
      4;669,668,667,666;,
      4;673,672,671,670;,
      3;676,675,674;,
      4;680,679,678,677;,
      3;683,682,681;,
      4;687,686,685,684;,
      4;691,690,689,688;,
      4;695,694,693,692;,
      4;699,698,697,696;,
      4;703,702,701,700;,
      4;707,706,705,704;,
      4;711,710,709,708;,
      4;715,714,713,712;,
      4;719,718,717,716;;
      MeshNormals { // Hat_CultHelmet2_x_Root_Cube_001 normals
        720;
        -0.346660; 0.637959; 0.687582;,
        -0.346660; 0.637959; 0.687582;,
        -0.346660; 0.637959; 0.687582;,
        -0.346660; 0.637959; 0.687582;,
        -0.515702;-0.779656; 0.355144;,
        -0.515702;-0.779656; 0.355144;,
        -0.515702;-0.779656; 0.355144;,
        -0.515702;-0.779656; 0.355144;,
         0.855464;-0.231849; 0.462996;,
         0.855464;-0.231849; 0.462996;,
         0.855464;-0.231849; 0.462996;,
         0.855464;-0.231849; 0.462996;,
         0.199500;-0.931516; 0.304056;,
         0.199500;-0.931516; 0.304056;,
         0.199500;-0.931516; 0.304056;,
         0.199500;-0.931516; 0.304056;,
         0.052156; 0.037385; 0.997925;,
         0.052156; 0.037385; 0.997925;,
         0.052156; 0.037385; 0.997925;,
         0.764367;-0.018464; 0.644490;,
         0.764367;-0.018464; 0.644490;,
         0.764367;-0.018464; 0.644490;,
         0.764367;-0.018464; 0.644490;,
         0.096805; 0.927519;-0.361003;,
         0.096805; 0.927519;-0.361003;,
         0.096805; 0.927519;-0.361003;,
         0.096805; 0.927519;-0.361003;,
         0.776360; 0.459304; 0.431562;,
         0.776360; 0.459304; 0.431562;,
         0.776360; 0.459304; 0.431562;,
         0.401776;-0.297678; 0.865993;,
         0.401776;-0.297678; 0.865993;,
         0.401776;-0.297678; 0.865993;,
         0.401776;-0.297678; 0.865993;,
         0.500717;-0.825861; 0.259194;,
         0.500717;-0.825861; 0.259194;,
         0.500717;-0.825861; 0.259194;,
         0.500717;-0.825861; 0.259194;,
         0.371349; 0.180425; 0.910764;,
         0.371349; 0.180425; 0.910764;,
         0.371349; 0.180425; 0.910764;,
         0.371349; 0.180425; 0.910764;,
         0.092898; 0.948637;-0.302377;,
         0.092898; 0.948637;-0.302377;,
         0.092898; 0.948637;-0.302377;,
         0.092898; 0.948637;-0.302377;,
         0.202826;-0.090976; 0.974944;,
         0.202826;-0.090976; 0.974944;,
         0.202826;-0.090976; 0.974944;,
         0.202826;-0.090976; 0.974944;,
         0.201727; 0.164251; 0.965545;,
         0.201727; 0.164251; 0.965545;,
         0.201727; 0.164251; 0.965545;,
         0.201727; 0.164251; 0.965545;,
         0.883847; 0.129917; 0.449324;,
         0.883847; 0.129917; 0.449324;,
         0.883847; 0.129917; 0.449324;,
         0.883847; 0.129917; 0.449324;,
         0.063997;-0.927885; 0.367260;,
         0.063997;-0.927885; 0.367260;,
         0.063997;-0.927885; 0.367260;,
         0.063997;-0.927885; 0.367260;,
        -0.903592; 0.041353; 0.426313;,
        -0.903592; 0.041353; 0.426313;,
        -0.903592; 0.041353; 0.426313;,
        -0.903592; 0.041353; 0.426313;,
        -0.259743; 0.158269; 0.952605;,
        -0.259743; 0.158269; 0.952605;,
        -0.259743; 0.158269; 0.952605;,
        -0.259743; 0.158269; 0.952605;,
        -0.007263; 0.151738; 0.988372;,
        -0.007263; 0.151738; 0.988372;,
        -0.007263; 0.151738; 0.988372;,
        -0.007263; 0.151738; 0.988372;,
         0.622242;-0.200201; 0.756767;,
         0.622242;-0.200201; 0.756767;,
         0.622242;-0.200201; 0.756767;,
         0.622242;-0.200201; 0.756767;,
         0.622242;-0.200201; 0.756767;,
         0.622242;-0.200201; 0.756767;,
        -0.093692;-0.548296; 0.830988;,
        -0.093692;-0.548296; 0.830988;,
        -0.093692;-0.548296; 0.830988;,
        -0.093692;-0.548296; 0.830988;,
        -0.298410;-0.569445; 0.765923;,
        -0.298410;-0.569445; 0.765923;,
        -0.298410;-0.569445; 0.765923;,
        -0.298410;-0.569445; 0.765923;,
        -0.018189; 0.673666; 0.738792;,
        -0.018189; 0.673666; 0.738792;,
        -0.018189; 0.673666; 0.738792;,
        -0.018189; 0.673666; 0.738792;,
         0.483718; 0.590747; 0.645741;,
         0.483718; 0.590747; 0.645741;,
         0.483718; 0.590747; 0.645741;,
         0.483718; 0.590747; 0.645741;,
         0.266671; 0.364360; 0.892239;,
         0.266671; 0.364360; 0.892239;,
         0.266671; 0.364360; 0.892239;,
         0.266671; 0.364360; 0.892239;,
         0.770531;-0.613697; 0.172124;,
         0.770531;-0.613697; 0.172124;,
         0.770531;-0.613697; 0.172124;,
         0.770531;-0.613697; 0.172124;,
         0.211554; 0.704917; 0.676992;,
         0.211554; 0.704917; 0.676992;,
         0.211554; 0.704917; 0.676992;,
         0.211554; 0.704917; 0.676992;,
        -0.320536; 0.316935; 0.892605;,
        -0.320536; 0.316935; 0.892605;,
        -0.320536; 0.316935; 0.892605;,
        -0.320536; 0.316935; 0.892605;,
        -0.095279; 0.861599; 0.498520;,
        -0.095279; 0.861599; 0.498520;,
        -0.095279; 0.861599; 0.498520;,
        -0.095279; 0.861599; 0.498520;,
         0.852962;-0.280129;-0.440382;,
         0.852962;-0.280129;-0.440382;,
         0.852962;-0.280129;-0.440382;,
         0.852962;-0.280129;-0.440382;,
         0.740684; 0.634907; 0.219611;,
         0.740684; 0.634907; 0.219611;,
         0.740684; 0.634907; 0.219611;,
         0.740684; 0.634907; 0.219611;,
        -0.021943;-0.832942; 0.552873;,
        -0.021943;-0.832942; 0.552873;,
        -0.021943;-0.832942; 0.552873;,
        -0.021943;-0.832942; 0.552873;,
         0.486129;-0.680044; 0.548784;,
         0.486129;-0.680044; 0.548784;,
         0.486129;-0.680044; 0.548784;,
         0.486129;-0.680044; 0.548784;,
         0.158971;-0.834529; 0.527482;,
         0.158971;-0.834529; 0.527482;,
         0.158971;-0.834529; 0.527482;,
         0.158971;-0.834529; 0.527482;,
        -0.411725;-0.789361; 0.455336;,
        -0.411725;-0.789361; 0.455336;,
        -0.411725;-0.789361; 0.455336;,
        -0.411725;-0.789361; 0.455336;,
        -0.223487;-0.778039; 0.587085;,
        -0.223487;-0.778039; 0.587085;,
        -0.223487;-0.778039; 0.587085;,
        -0.223487;-0.778039; 0.587085;,
        -0.272683;-0.888089; 0.369976;,
        -0.272683;-0.888089; 0.369976;,
        -0.272683;-0.888089; 0.369976;,
        -0.272683;-0.888089; 0.369976;,
         0.669179; 0.072695; 0.739494;,
         0.669179; 0.072695; 0.739494;,
         0.669179; 0.072695; 0.739494;,
         0.669179; 0.072695; 0.739494;,
        -0.972167;-0.034303; 0.231666;,
        -0.972167;-0.034303; 0.231666;,
        -0.972167;-0.034303; 0.231666;,
        -0.972167;-0.034303; 0.231666;,
        -0.972167;-0.034303; 0.231666;,
        -0.234474; 0.034150; 0.971496;,
        -0.234474; 0.034150; 0.971496;,
        -0.234474; 0.034150; 0.971496;,
        -0.234474; 0.034150; 0.971496;,
         0.147923;-0.378674; 0.913602;,
         0.147923;-0.378674; 0.913602;,
         0.147923;-0.378674; 0.913602;,
         0.147923;-0.378674; 0.913602;,
         0.011841;-0.114414; 0.993347;,
         0.011841;-0.114414; 0.993347;,
         0.011841;-0.114414; 0.993347;,
         0.011841;-0.114414; 0.993347;,
         0.011841;-0.114414; 0.993347;,
        -0.070620;-0.914823; 0.397565;,
        -0.070620;-0.914823; 0.397565;,
        -0.070620;-0.914823; 0.397565;,
        -0.070620;-0.914823; 0.397565;,
        -0.368908;-0.853114; 0.368847;,
        -0.368908;-0.853114; 0.368847;,
        -0.368908;-0.853114; 0.368847;,
        -0.368908;-0.853114; 0.368847;,
        -0.078005;-0.430708; 0.899075;,
        -0.078005;-0.430708; 0.899075;,
        -0.078005;-0.430708; 0.899075;,
        -0.078005;-0.430708; 0.899075;,
        -0.069674;-0.907407; 0.414350;,
        -0.069674;-0.907407; 0.414350;,
        -0.069674;-0.907407; 0.414350;,
        -0.069674;-0.907407; 0.414350;,
         0.565264; 0.824458;-0.026551;,
         0.565264; 0.824458;-0.026551;,
         0.565264; 0.824458;-0.026551;,
         0.565264; 0.824458;-0.026551;,
         0.504959; 0.543504; 0.670492;,
         0.504959; 0.543504; 0.670492;,
         0.504959; 0.543504; 0.670492;,
         0.504959; 0.543504; 0.670492;,
         0.112308;-0.091922; 0.989380;,
         0.112308;-0.091922; 0.989380;,
         0.112308;-0.091922; 0.989380;,
         0.112308;-0.091922; 0.989380;,
         0.161443; 0.254372;-0.953520;,
         0.161443; 0.254372;-0.953520;,
         0.161443; 0.254372;-0.953520;,
         0.161443; 0.254372;-0.953520;,
         0.092441; 0.948698; 0.302316;,
         0.092441; 0.948698; 0.302316;,
         0.092441; 0.948698; 0.302316;,
         0.092441; 0.948698; 0.302316;,
         0.416608;-0.135166; 0.898953;,
         0.416608;-0.135166; 0.898953;,
         0.416608;-0.135166; 0.898953;,
         0.416608;-0.135166; 0.898953;,
         0.883206;-0.123142; 0.452467;,
         0.883206;-0.123142; 0.452467;,
         0.883206;-0.123142; 0.452467;,
         0.883206;-0.123142; 0.452467;,
         0.201361;-0.974029;-0.103488;,
         0.201361;-0.974029;-0.103488;,
         0.201361;-0.974029;-0.103488;,
         0.201361;-0.974029;-0.103488;,
         0.000000; 0.000000;-1.000000;,
         0.000000; 0.000000;-1.000000;,
         0.000000; 0.000000;-1.000000;,
         0.000000; 0.000000;-0.999969;,
         0.540056; 0.577319; 0.612354;,
         0.540056; 0.577349; 0.612354;,
         0.540056; 0.577319; 0.612354;,
         0.540056; 0.577319; 0.612354;,
         0.554888; 0.824641; 0.109561;,
         0.554888; 0.824641; 0.109561;,
         0.554888; 0.824641; 0.109561;,
         0.554888; 0.824641; 0.109561;,
         0.658925;-0.572466; 0.487899;,
         0.658925;-0.572466; 0.487899;,
         0.658925;-0.572466; 0.487899;,
         0.658925;-0.572466; 0.487899;,
         0.000000; 0.000000;-1.000000;,
         0.000000; 0.000000;-1.000000;,
         0.000000; 0.000000;-1.000000;,
         0.000000; 0.000000;-1.000000;,
         0.592822; 0.135289; 0.793878;,
         0.592822; 0.135289; 0.793878;,
         0.592822; 0.135289; 0.793878;,
         0.592822; 0.135289; 0.793878;,
         0.725578;-0.654897; 0.211188;,
         0.725578;-0.654897; 0.211188;,
         0.725578;-0.654897; 0.211188;,
         0.725578;-0.654897; 0.211188;,
         0.550310;-0.277993; 0.787286;,
         0.550310;-0.277993; 0.787286;,
         0.550310;-0.277993; 0.787286;,
         0.550310;-0.277993; 0.787286;,
         0.000000; 0.000000;-1.000000;,
         0.000000; 0.000000;-1.000000;,
         0.000000; 0.000000;-1.000000;,
         0.000000; 0.000000;-1.000000;,
         0.000000; 0.000000;-1.000000;,
         0.000000; 0.000000;-1.000000;,
         0.570910; 0.258248; 0.779290;,
         0.570910; 0.258248; 0.779290;,
         0.570910; 0.258248; 0.779290;,
         0.570910; 0.258248; 0.779290;,
        -0.449599; 0.283578; 0.846980;,
        -0.449599; 0.283578; 0.846980;,
        -0.449599; 0.283578; 0.846980;,
        -0.449599; 0.283578; 0.846980;,
         0.228278; 0.375103; 0.898404;,
         0.228278; 0.375103; 0.898404;,
         0.228278; 0.375103; 0.898404;,
         0.228278; 0.375103; 0.898404;,
         0.857082; 0.227699; 0.462050;,
         0.857082; 0.227699; 0.462050;,
         0.857082; 0.227699; 0.462050;,
         0.857082; 0.227699; 0.462050;,
         0.328684; 0.268349; 0.905484;,
         0.328684; 0.268349; 0.905484;,
         0.328684; 0.268349; 0.905484;,
         0.328684; 0.268349; 0.905484;,
         0.441725; 0.166478; 0.881527;,
         0.441725; 0.166478; 0.881527;,
         0.441725; 0.166478; 0.881527;,
         0.441725; 0.166478; 0.881527;,
        -0.346660; 0.637959;-0.687582;,
        -0.346660; 0.637959;-0.687582;,
        -0.346660; 0.637959;-0.687582;,
        -0.346660; 0.637959;-0.687582;,
        -0.515702;-0.779656;-0.355144;,
        -0.515702;-0.779656;-0.355144;,
        -0.515702;-0.779656;-0.355144;,
        -0.515702;-0.779656;-0.355144;,
         0.855464;-0.231880;-0.462996;,
         0.855464;-0.231880;-0.462996;,
         0.855464;-0.231880;-0.462996;,
         0.855464;-0.231880;-0.462996;,
         0.199500;-0.931516;-0.304056;,
         0.199500;-0.931516;-0.304056;,
         0.199500;-0.931516;-0.304056;,
         0.199500;-0.931516;-0.304056;,
         0.052126; 0.037385;-0.997925;,
         0.052126; 0.037385;-0.997925;,
         0.052126; 0.037385;-0.997925;,
         0.764367;-0.018464;-0.644490;,
         0.764367;-0.018464;-0.644490;,
         0.764367;-0.018464;-0.644490;,
         0.764367;-0.018464;-0.644490;,
         0.776360; 0.459304;-0.431562;,
         0.776360; 0.459304;-0.431562;,
         0.776360; 0.459304;-0.431562;,
         0.401776;-0.297678;-0.865993;,
         0.401776;-0.297678;-0.865993;,
         0.401776;-0.297678;-0.865993;,
         0.401776;-0.297678;-0.865993;,
         0.500717;-0.825861;-0.259194;,
         0.500717;-0.825861;-0.259194;,
         0.500717;-0.825861;-0.259194;,
         0.500717;-0.825861;-0.259194;,
         0.371349; 0.180425;-0.910764;,
         0.371349; 0.180425;-0.910764;,
         0.371349; 0.180425;-0.910764;,
         0.371349; 0.180425;-0.910764;,
         0.201727; 0.164251;-0.965545;,
         0.201727; 0.164251;-0.965545;,
         0.201727; 0.164251;-0.965545;,
         0.201727; 0.164251;-0.965545;,
         0.883847; 0.129917;-0.449324;,
         0.883847; 0.129917;-0.449324;,
         0.883847; 0.129917;-0.449324;,
         0.883847; 0.129917;-0.449324;,
         0.063997;-0.927885;-0.367260;,
         0.063997;-0.927885;-0.367260;,
         0.063997;-0.927885;-0.367260;,
         0.063997;-0.927885;-0.367260;,
        -0.903592; 0.041353;-0.426313;,
        -0.903592; 0.041353;-0.426313;,
        -0.903592; 0.041353;-0.426313;,
        -0.903592; 0.041353;-0.426313;,
        -0.259743; 0.158269;-0.952605;,
        -0.259743; 0.158269;-0.952605;,
        -0.259743; 0.158269;-0.952605;,
        -0.259743; 0.158269;-0.952605;,
        -0.007263; 0.151769;-0.988372;,
        -0.007263; 0.151769;-0.988372;,
        -0.007263; 0.151769;-0.988372;,
        -0.007263; 0.151769;-0.988372;,
         0.622272;-0.200201;-0.756737;,
         0.622272;-0.200201;-0.756737;,
         0.622272;-0.200201;-0.756737;,
         0.622272;-0.200201;-0.756737;,
         0.622272;-0.200201;-0.756737;,
         0.622272;-0.200201;-0.756737;,
        -0.093692;-0.548296;-0.830988;,
        -0.093692;-0.548296;-0.830988;,
        -0.093692;-0.548296;-0.830988;,
        -0.093692;-0.548296;-0.830988;,
        -0.298410;-0.569445;-0.765923;,
        -0.298410;-0.569445;-0.765923;,
        -0.298410;-0.569445;-0.765923;,
        -0.298410;-0.569445;-0.765923;,
        -0.018189; 0.673666;-0.738792;,
        -0.018189; 0.673666;-0.738792;,
        -0.018189; 0.673666;-0.738792;,
        -0.018189; 0.673666;-0.738792;,
         0.483718; 0.590747;-0.645741;,
         0.483718; 0.590747;-0.645741;,
         0.483718; 0.590747;-0.645741;,
         0.483718; 0.590747;-0.645741;,
         0.266671; 0.364360;-0.892239;,
         0.266671; 0.364360;-0.892239;,
         0.266671; 0.364360;-0.892239;,
         0.266671; 0.364360;-0.892239;,
         0.770531;-0.613697;-0.172124;,
         0.770531;-0.613697;-0.172124;,
         0.770531;-0.613697;-0.172124;,
         0.770531;-0.613697;-0.172124;,
         0.211585; 0.704886;-0.676992;,
         0.211585; 0.704886;-0.676992;,
         0.211585; 0.704886;-0.676992;,
         0.211585; 0.704886;-0.676992;,
        -0.320475; 0.316965;-0.892636;,
        -0.320475; 0.316965;-0.892636;,
        -0.320475; 0.316965;-0.892636;,
        -0.320475; 0.316965;-0.892636;,
        -0.095218; 0.861629;-0.498489;,
        -0.095218; 0.861629;-0.498489;,
        -0.095218; 0.861629;-0.498489;,
        -0.095218; 0.861629;-0.498489;,
         0.852962;-0.280129; 0.440382;,
         0.852962;-0.280129; 0.440382;,
         0.852962;-0.280129; 0.440382;,
         0.852962;-0.280129; 0.440382;,
         0.740684; 0.634907;-0.219611;,
         0.740684; 0.634907;-0.219611;,
         0.740684; 0.634907;-0.219611;,
         0.740684; 0.634907;-0.219611;,
        -0.021943;-0.832942;-0.552873;,
        -0.021943;-0.832942;-0.552873;,
        -0.021943;-0.832942;-0.552873;,
        -0.021943;-0.832942;-0.552873;,
         0.486129;-0.680044;-0.548784;,
         0.486129;-0.680044;-0.548784;,
         0.486129;-0.680044;-0.548784;,
         0.486129;-0.680044;-0.548784;,
         0.159001;-0.834529;-0.527482;,
         0.159001;-0.834529;-0.527482;,
         0.159001;-0.834529;-0.527482;,
         0.159001;-0.834529;-0.527482;,
        -0.411725;-0.789361;-0.455336;,
        -0.411725;-0.789361;-0.455336;,
        -0.411725;-0.789361;-0.455336;,
        -0.411725;-0.789361;-0.455336;,
        -0.223487;-0.778039;-0.587085;,
        -0.223487;-0.778039;-0.587085;,
        -0.223487;-0.778039;-0.587085;,
        -0.223487;-0.778039;-0.587085;,
        -0.272683;-0.888089;-0.369976;,
        -0.272683;-0.888089;-0.369976;,
        -0.272683;-0.888089;-0.369976;,
        -0.272683;-0.888089;-0.369976;,
         0.669210; 0.072726;-0.739464;,
         0.669210; 0.072726;-0.739464;,
         0.669210; 0.072726;-0.739464;,
         0.669210; 0.072726;-0.739464;,
        -0.972167;-0.034303;-0.231635;,
        -0.972167;-0.034303;-0.231635;,
        -0.972167;-0.034303;-0.231635;,
        -0.972167;-0.034303;-0.231635;,
        -0.972167;-0.034303;-0.231635;,
        -0.234443; 0.034181;-0.971526;,
        -0.234443; 0.034181;-0.971526;,
        -0.234443; 0.034181;-0.971526;,
        -0.234443; 0.034181;-0.971526;,
         0.147954;-0.378643;-0.913633;,
         0.147954;-0.378643;-0.913633;,
         0.147954;-0.378643;-0.913633;,
         0.147954;-0.378643;-0.913633;,
         0.011841;-0.114414;-0.993347;,
         0.011841;-0.114414;-0.993347;,
         0.011841;-0.114414;-0.993347;,
         0.011841;-0.114414;-0.993347;,
         0.011841;-0.114414;-0.993347;,
        -0.070620;-0.914853;-0.397534;,
        -0.070620;-0.914853;-0.397534;,
        -0.070620;-0.914853;-0.397534;,
        -0.070620;-0.914853;-0.397534;,
        -0.368908;-0.853114;-0.368877;,
        -0.368908;-0.853114;-0.368877;,
        -0.368908;-0.853114;-0.368877;,
        -0.368908;-0.853114;-0.368877;,
        -0.078005;-0.430677;-0.899106;,
        -0.078005;-0.430677;-0.899106;,
        -0.078005;-0.430677;-0.899106;,
        -0.078005;-0.430677;-0.899106;,
        -0.069674;-0.907437;-0.414350;,
        -0.069674;-0.907437;-0.414350;,
        -0.069674;-0.907437;-0.414350;,
        -0.069674;-0.907437;-0.414350;,
         0.565264; 0.824458; 0.026551;,
         0.565264; 0.824458; 0.026551;,
         0.565264; 0.824458; 0.026551;,
         0.565264; 0.824458; 0.026551;,
         0.504959; 0.543535;-0.670492;,
         0.504959; 0.543535;-0.670492;,
         0.504959; 0.543535;-0.670492;,
         0.504959; 0.543535;-0.670492;,
         0.112308;-0.091952;-0.989380;,
         0.112308;-0.091952;-0.989380;,
         0.112308;-0.091952;-0.989380;,
         0.112308;-0.091952;-0.989380;,
         0.416608;-0.135228;-0.898953;,
         0.416608;-0.135228;-0.898953;,
         0.416608;-0.135228;-0.898953;,
         0.416608;-0.135228;-0.898953;,
         0.883236;-0.123112;-0.452467;,
         0.883236;-0.123112;-0.452467;,
         0.883236;-0.123112;-0.452467;,
         0.883236;-0.123112;-0.452467;,
         0.157842; 0.958861;-0.235908;,
         0.157842; 0.958861;-0.235908;,
         0.157842; 0.958861;-0.235908;,
         0.157842; 0.958861;-0.235908;,
         0.540086; 0.577319;-0.612323;,
         0.540086; 0.577319;-0.612323;,
         0.540086; 0.577319;-0.612323;,
         0.540086; 0.577319;-0.612323;,
         0.554888; 0.824641;-0.109561;,
         0.554888; 0.824641;-0.109561;,
         0.554888; 0.824641;-0.109561;,
         0.554888; 0.824641;-0.109561;,
         0.658925;-0.572497;-0.487869;,
         0.658925;-0.572497;-0.487869;,
         0.658925;-0.572497;-0.487869;,
         0.658925;-0.572497;-0.487869;,
         0.592853; 0.135289;-0.793847;,
         0.592853; 0.135289;-0.793847;,
         0.592853; 0.135289;-0.793847;,
         0.592853; 0.135289;-0.793847;,
         0.725578;-0.654897;-0.211188;,
         0.725578;-0.654897;-0.211188;,
         0.725578;-0.654897;-0.211188;,
         0.725578;-0.654897;-0.211188;,
         0.550249;-0.277993;-0.787317;,
         0.550249;-0.277993;-0.787317;,
         0.550249;-0.277993;-0.787317;,
         0.550249;-0.277993;-0.787317;,
         0.570971; 0.258248;-0.779260;,
         0.570971; 0.258248;-0.779260;,
         0.570971; 0.258248;-0.779260;,
         0.570971; 0.258248;-0.779260;,
        -0.449538; 0.283608;-0.847011;,
        -0.449538; 0.283608;-0.847011;,
        -0.449538; 0.283608;-0.847011;,
        -0.449538; 0.283608;-0.847011;,
         0.228278; 0.375103;-0.898404;,
         0.228278; 0.375103;-0.898404;,
         0.228278; 0.375103;-0.898404;,
         0.228278; 0.375103;-0.898404;,
         0.857082; 0.227699;-0.462050;,
         0.857082; 0.227699;-0.462050;,
         0.857082; 0.227699;-0.462050;,
         0.857082; 0.227699;-0.462050;,
         0.328623; 0.268349;-0.905515;,
         0.328623; 0.268349;-0.905515;,
         0.328623; 0.268349;-0.905515;,
         0.328623; 0.268349;-0.905515;,
         0.441786; 0.166509;-0.881527;,
         0.441786; 0.166509;-0.881527;,
         0.441786; 0.166509;-0.881527;,
         0.441786; 0.166509;-0.881527;,
         0.564806;-0.041658; 0.824122;,
         0.564806;-0.041658; 0.824122;,
         0.564806;-0.041658; 0.824122;,
         0.564806;-0.041658; 0.824122;,
         0.603717;-0.088260; 0.792261;,
         0.603717;-0.088260; 0.792261;,
         0.603717;-0.088260; 0.792261;,
         0.603717;-0.088260; 0.792261;,
         0.517655;-0.077334; 0.852077;,
         0.517655;-0.077334; 0.852077;,
         0.517655;-0.077334; 0.852077;,
         0.517655;-0.077334; 0.852077;,
         0.569170;-0.117435; 0.813746;,
         0.569170;-0.117435; 0.813746;,
         0.569170;-0.117435; 0.813746;,
         0.569170;-0.117435; 0.813746;,
         0.566790;-0.082461; 0.819697;,
         0.566790;-0.082461; 0.819697;,
         0.566790;-0.082461; 0.819697;,
         0.566790;-0.082461; 0.819697;,
         0.780023;-0.203162;-0.591815;,
         0.780023;-0.203162;-0.591815;,
         0.780023;-0.203162;-0.591815;,
         0.780023;-0.203162;-0.591815;,
        -0.527604;-0.033815; 0.848781;,
        -0.527604;-0.033815; 0.848781;,
        -0.527604;-0.033815; 0.848781;,
        -0.527604;-0.033815; 0.848781;,
         0.372875; 0.788232; 0.489517;,
         0.372875; 0.788232; 0.489517;,
         0.372875; 0.788232; 0.489517;,
         0.372875; 0.788232; 0.489517;,
         0.564714;-0.040315;-0.824274;,
         0.564714;-0.040315;-0.824274;,
         0.564714;-0.040315;-0.824274;,
         0.564714;-0.040315;-0.824274;,
         0.605365;-0.088504;-0.790979;,
         0.605365;-0.088504;-0.790979;,
         0.605365;-0.088504;-0.790979;,
         0.605365;-0.088504;-0.790979;,
         0.515152;-0.077029;-0.853603;,
         0.515152;-0.077029;-0.853603;,
         0.515152;-0.077029;-0.853603;,
         0.515152;-0.077029;-0.853603;,
         0.569292;-0.118656;-0.813501;,
         0.569292;-0.118656;-0.813501;,
         0.569292;-0.118656;-0.813501;,
         0.569292;-0.118656;-0.813501;,
         0.566820;-0.082583;-0.819666;,
         0.566820;-0.082583;-0.819666;,
         0.566820;-0.082583;-0.819666;,
         0.566820;-0.082583;-0.819666;,
         0.062258;-0.924833; 0.375225;,
         0.062258;-0.924833; 0.375225;,
         0.062258;-0.924833; 0.375225;,
         0.062258;-0.924833; 0.375225;,
         0.770867;-0.203101; 0.603717;,
         0.770867;-0.203101; 0.603717;,
         0.770867;-0.203101; 0.603717;,
         0.770867;-0.203101; 0.603717;,
        -0.819391; 0.024018;-0.572710;,
        -0.819391; 0.024018;-0.572710;,
        -0.819391; 0.024018;-0.572710;,
        -0.819391; 0.024018;-0.572710;,
         0.989654; 0.112949; 0.088168;,
         0.989654; 0.112949; 0.088168;,
         0.989654; 0.112949; 0.088168;,
         0.989654; 0.112949; 0.088168;,
         0.989654; 0.112949;-0.088168;,
         0.989654; 0.112949;-0.088168;,
         0.989654; 0.112949;-0.088168;,
         0.989654; 0.112949;-0.088168;,
         0.975402; 0.200140;-0.092105;,
         0.975402; 0.200140;-0.092105;,
         0.975402; 0.200140;-0.092105;,
         0.975402; 0.200140;-0.092105;,
         0.975402; 0.200140; 0.092105;,
         0.975402; 0.200140; 0.092105;,
         0.975402; 0.200140; 0.092105;,
         0.975402; 0.200140; 0.092105;,
         0.814478; 0.569445; 0.110965;,
         0.814478; 0.569445; 0.110965;,
         0.814478; 0.569445; 0.110965;,
         0.814478; 0.569445; 0.110965;,
         0.814478; 0.569445;-0.110965;,
         0.814478; 0.569445;-0.110965;,
         0.814478; 0.569445;-0.110965;,
         0.814478; 0.569445;-0.110965;,
         0.991394;-0.089480; 0.095492;,
         0.991394;-0.089480; 0.095492;,
         0.991394;-0.089480; 0.095492;,
         0.991394;-0.089480; 0.095492;,
         0.991394;-0.089480;-0.095492;,
         0.991394;-0.089480;-0.095492;,
         0.991394;-0.089480;-0.095492;,
         0.991394;-0.089480;-0.095492;,
         0.964385;-0.234840;-0.121525;,
         0.964385;-0.234840;-0.121525;,
         0.964385;-0.234840;-0.121525;,
         0.964385;-0.234840;-0.121525;,
         0.964385;-0.234840; 0.121525;,
         0.964385;-0.234840; 0.121525;,
         0.964385;-0.234840; 0.121525;,
         0.964385;-0.234840; 0.121525;,
         0.096255; 0.927580; 0.360973;,
         0.096255; 0.927580; 0.360973;,
         0.096255; 0.927580; 0.360973;,
         0.096255; 0.927580; 0.360973;,
         0.160070; 0.254433; 0.953734;,
         0.160070; 0.254433; 0.953734;,
         0.160070; 0.254433; 0.953734;,
         0.160070; 0.254433; 0.953734;,
         0.204230;-0.090945;-0.974670;,
         0.204230;-0.090945;-0.974670;,
         0.204230;-0.090945;-0.974670;,
         0.204230;-0.090945;-0.974670;,
         0.022706; 0.257698;-0.965941;,
         0.022706; 0.257698;-0.965941;,
         0.022706; 0.257698;-0.965941;,
         0.022706; 0.257698;-0.965941;,
        -0.005615; 0.956755;-0.290780;,
        -0.005615; 0.956755;-0.290780;,
        -0.005615; 0.956755;-0.290780;,
        -0.005615; 0.956755;-0.290780;,
         0.028474;-0.092868;-0.995270;,
         0.028474;-0.092868;-0.995270;,
         0.028474;-0.092868;-0.995270;,
         0.028474;-0.092868;-0.995270;,
        -0.025849;-0.092868; 0.995331;,
        -0.025849;-0.092868; 0.995331;,
        -0.025849;-0.092868; 0.995331;,
        -0.025849;-0.092868; 0.995331;,
        -0.003601; 0.935453;-0.353343;,
        -0.003601; 0.935453;-0.353343;,
        -0.003601; 0.935453;-0.353343;,
        -0.003601; 0.935453;-0.353343;,
        -0.021455; 0.957183; 0.288644;,
        -0.021455; 0.957183; 0.288644;,
        -0.021455; 0.957183; 0.288644;,
        -0.021455; 0.957183; 0.288644;,
        -0.022858; 0.935911; 0.351451;,
        -0.022858; 0.935911; 0.351451;,
        -0.022858; 0.935911; 0.351451;,
        -0.022858; 0.935911; 0.351451;,
        -0.030030; 0.257637; 0.965758;,
        -0.030030; 0.257637; 0.965758;,
        -0.030030; 0.257637; 0.965758;,
        -0.030030; 0.257637; 0.965758;,
         0.101779; 0.392560; 0.914060;,
         0.101779; 0.392560; 0.914060;,
         0.101779; 0.392560; 0.914060;,
         0.004089; 0.619037; 0.785333;,
         0.004089; 0.619037; 0.785333;,
         0.004089; 0.619037; 0.785333;,
         0.004089; 0.619037; 0.785333;,
         0.104953; 0.385479;-0.916684;,
         0.104953; 0.385479;-0.916684;,
         0.104953; 0.385479;-0.916684;,
         0.030366; 0.394360;-0.918424;,
         0.030366; 0.394360;-0.918424;,
         0.030366; 0.394360;-0.918424;,
         0.030366; 0.394360;-0.918424;,
        -0.972045;-0.183630; 0.146153;,
        -0.972045;-0.183630; 0.146153;,
        -0.972045;-0.183630; 0.146153;,
        -0.972045;-0.183630; 0.146153;,
        -0.984466;-0.151158;-0.089022;,
        -0.984466;-0.151158;-0.089022;,
        -0.984466;-0.151158;-0.089022;,
        -0.984466;-0.151158;-0.089022;,
        -0.978240;-0.178655; 0.105197;,
        -0.978240;-0.178655; 0.105197;,
        -0.978240;-0.178655; 0.105197;,
        -0.978240;-0.178655; 0.105197;,
        -0.982238;-0.146702;-0.116764;,
        -0.982238;-0.146702;-0.116764;,
        -0.982238;-0.146702;-0.116764;,
        -0.982238;-0.146702;-0.116764;,
        -0.977416;-0.139805;-0.158269;,
        -0.977416;-0.139805;-0.158269;,
        -0.977416;-0.139805;-0.158269;,
        -0.977416;-0.139805;-0.158269;,
        -0.923765;-0.201910; 0.325358;,
        -0.923765;-0.201910; 0.325358;,
        -0.923765;-0.201910; 0.325358;,
        -0.923765;-0.201910; 0.325358;,
        -0.988830; 0.007141;-0.148717;,
        -0.988830; 0.007141;-0.148717;,
        -0.988830; 0.007141;-0.148717;,
        -0.988830; 0.007141;-0.148717;,
        -0.940550; 0.036042; 0.337687;,
        -0.940550; 0.036042; 0.337687;,
        -0.940550; 0.036042; 0.337687;,
        -0.940550; 0.036042; 0.337687;;
        179;
        4;3,2,1,0;,
        4;7,6,5,4;,
        4;11,10,9,8;,
        4;15,14,13,12;,
        3;18,17,16;,
        4;22,21,20,19;,
        4;26,25,24,23;,
        3;29,28,27;,
        4;33,32,31,30;,
        4;37,36,35,34;,
        4;41,40,39,38;,
        4;45,44,43,42;,
        4;49,48,47,46;,
        4;53,52,51,50;,
        4;57,56,55,54;,
        4;61,60,59,58;,
        4;65,64,63,62;,
        4;69,68,67,66;,
        4;73,72,71,70;,
        6;79,78,77,76,75,74;,
        4;83,82,81,80;,
        4;87,86,85,84;,
        4;91,90,89,88;,
        4;95,94,93,92;,
        4;99,98,97,96;,
        4;103,102,101,100;,
        4;107,106,105,104;,
        4;111,110,109,108;,
        4;115,114,113,112;,
        4;119,118,117,116;,
        4;123,122,121,120;,
        4;127,126,125,124;,
        4;131,130,129,128;,
        4;135,134,133,132;,
        4;139,138,137,136;,
        4;143,142,141,140;,
        4;147,146,145,144;,
        4;151,150,149,148;,
        5;156,155,154,153,152;,
        4;160,159,158,157;,
        4;164,163,162,161;,
        5;169,168,167,166,165;,
        4;173,172,171,170;,
        4;177,176,175,174;,
        4;181,180,179,178;,
        4;185,184,183,182;,
        4;189,188,187,186;,
        4;193,192,191,190;,
        4;197,196,195,194;,
        4;201,200,199,198;,
        4;205,204,203,202;,
        4;209,208,207,206;,
        4;213,212,211,210;,
        4;217,216,215,214;,
        4;221,220,219,218;,
        4;225,224,223,222;,
        4;229,228,227,226;,
        4;233,232,231,230;,
        4;237,236,235,234;,
        4;241,240,239,238;,
        4;245,244,243,242;,
        4;249,248,247,246;,
        6;255,254,253,252,251,250;,
        4;259,258,257,256;,
        4;263,262,261,260;,
        4;267,266,265,264;,
        4;271,270,269,268;,
        4;275,274,273,272;,
        4;279,278,277,276;,
        4;283,282,281,280;,
        4;287,286,285,284;,
        4;291,290,289,288;,
        4;295,294,293,292;,
        3;298,297,296;,
        4;302,301,300,299;,
        3;305,304,303;,
        4;309,308,307,306;,
        4;313,312,311,310;,
        4;317,316,315,314;,
        4;321,320,319,318;,
        4;325,324,323,322;,
        4;329,328,327,326;,
        4;333,332,331,330;,
        4;337,336,335,334;,
        4;341,340,339,338;,
        6;347,346,345,344,343,342;,
        4;351,350,349,348;,
        4;355,354,353,352;,
        4;359,358,357,356;,
        4;363,362,361,360;,
        4;367,366,365,364;,
        4;371,370,369,368;,
        4;375,374,373,372;,
        4;379,378,377,376;,
        4;383,382,381,380;,
        4;387,386,385,384;,
        4;391,390,389,388;,
        4;395,394,393,392;,
        4;399,398,397,396;,
        4;403,402,401,400;,
        4;407,406,405,404;,
        4;411,410,409,408;,
        4;415,414,413,412;,
        4;419,418,417,416;,
        5;424,423,422,421,420;,
        4;428,427,426,425;,
        4;432,431,430,429;,
        5;437,436,435,434,433;,
        4;441,440,439,438;,
        4;445,444,443,442;,
        4;449,448,447,446;,
        4;453,452,451,450;,
        4;457,456,455,454;,
        4;461,460,459,458;,
        4;465,464,463,462;,
        4;469,468,467,466;,
        4;473,472,471,470;,
        4;477,476,475,474;,
        4;481,480,479,478;,
        4;485,484,483,482;,
        4;489,488,487,486;,
        4;493,492,491,490;,
        4;497,496,495,494;,
        4;501,500,499,498;,
        4;505,504,503,502;,
        4;509,508,507,506;,
        4;513,512,511,510;,
        4;517,516,515,514;,
        4;521,520,519,518;,
        4;525,524,523,522;,
        4;529,528,527,526;,
        4;533,532,531,530;,
        4;537,536,535,534;,
        4;541,540,539,538;,
        4;545,544,543,542;,
        4;549,548,547,546;,
        4;553,552,551,550;,
        4;557,556,555,554;,
        4;561,560,559,558;,
        4;565,564,563,562;,
        4;569,568,567,566;,
        4;573,572,571,570;,
        4;577,576,575,574;,
        4;581,580,579,578;,
        4;585,584,583,582;,
        4;589,588,587,586;,
        4;593,592,591,590;,
        4;597,596,595,594;,
        4;601,600,599,598;,
        4;605,604,603,602;,
        4;609,608,607,606;,
        4;613,612,611,610;,
        4;617,616,615,614;,
        4;621,620,619,618;,
        4;625,624,623,622;,
        4;629,628,627,626;,
        4;633,632,631,630;,
        4;637,636,635,634;,
        4;641,640,639,638;,
        4;645,644,643,642;,
        4;649,648,647,646;,
        4;653,652,651,650;,
        4;657,656,655,654;,
        4;661,660,659,658;,
        4;665,664,663,662;,
        4;669,668,667,666;,
        4;673,672,671,670;,
        3;676,675,674;,
        4;680,679,678,677;,
        3;683,682,681;,
        4;687,686,685,684;,
        4;691,690,689,688;,
        4;695,694,693,692;,
        4;699,698,697,696;,
        4;703,702,701,700;,
        4;707,706,705,704;,
        4;711,710,709,708;,
        4;715,714,713,712;,
        4;719,718,717,716;;
      } // End of Hat_CultHelmet2_x_Root_Cube_001 normals
      MeshTextureCoords { // Hat_CultHelmet2_x_Root_Cube_001 UV coordinates
        720;
         0.277611; 0.706041;,
         0.298996; 0.707865;,
         0.346392; 0.652750;,
         0.335204; 0.647989;,
         0.843402; 0.186478;,
         0.867136; 0.260591;,
         0.921095; 0.246734;,
         0.905200; 0.182221;,
         0.517560; 0.441117;,
         0.525606; 0.487639;,
         0.591462; 0.468338;,
         0.575559; 0.432634;,
         0.462229; 0.350822;,
         0.547496; 0.352856;,
         0.549451; 0.287406;,
         0.471244; 0.267486;,
         0.142943; 0.702782;,
         0.077360; 0.743098;,
         0.192695; 0.776659;,
         0.948749; 0.831077;,
         1.000000; 0.836772;,
         0.955133; 0.819592;,
         0.931598; 0.818603;,
         0.705904; 0.371732;,
         0.780561; 0.379248;,
         0.786239; 0.331722;,
         0.712274; 0.318418;,
         0.793224; 0.782123;,
         0.769571; 0.833171;,
         0.820931; 0.817866;,
         0.000000; 0.694699;,
         0.023087; 0.731135;,
         0.048033; 0.701383;,
         0.019564; 0.661535;,
         0.461153; 0.392681;,
         0.531118; 0.394527;,
         0.547496; 0.352856;,
         0.462229; 0.350822;,
         0.045723; 0.771435;,
         0.080214; 0.814914;,
         0.109085; 0.794953;,
         0.077360; 0.743098;,
         0.702448; 0.442792;,
         0.777480; 0.442594;,
         0.780561; 0.379248;,
         0.705904; 0.371732;,
         0.882555; 0.656086;,
         0.863463; 0.569484;,
         0.814293; 0.569964;,
         0.827398; 0.656625;,
         0.206621; 0.829239;,
         0.192695; 0.776659;,
         0.077360; 0.743098;,
         0.163404; 0.830053;,
         0.534108; 0.526330;,
         0.541114; 0.562292;,
         0.597814; 0.542280;,
         0.593916; 0.506186;,
         0.471244; 0.267486;,
         0.549451; 0.287406;,
         0.557565; 0.233994;,
         0.480497; 0.215382;,
         0.050967; 0.232235;,
         0.068375; 0.237549;,
         0.055974; 0.189399;,
         0.038790; 0.186458;,
         0.248097; 0.628273;,
         0.277611; 0.706041;,
         0.335204; 0.647989;,
         0.307876; 0.607192;,
         0.147920; 0.686253;,
         0.196777; 0.759557;,
         0.277611; 0.706041;,
         0.248097; 0.628273;,
         0.087105; 0.156909;,
         0.068375; 0.134241;,
         0.109261; 0.185483;,
         0.120100; 0.237549;,
         0.138198; 0.223674;,
         0.112840; 0.161772;,
         0.314161; 0.255886;,
         0.289189; 0.262637;,
         0.289673; 0.316171;,
         0.320055; 0.310141;,
         0.327235; 0.185866;,
         0.302274; 0.188050;,
         0.289189; 0.262637;,
         0.314161; 0.255886;,
         0.196777; 0.759557;,
         0.192695; 0.776659;,
         0.298996; 0.707865;,
         0.277611; 0.706041;,
         0.142428; 0.869230;,
         0.192481; 0.930785;,
         0.314917; 0.965839;,
         0.272609; 0.898918;,
         0.163404; 0.830053;,
         0.152916; 0.849642;,
         0.239615; 0.864079;,
         0.206621; 0.829239;,
         0.892776; 0.767132;,
         0.906425; 0.767529;,
         0.925966; 0.696290;,
         0.901259; 0.690110;,
         0.314917; 0.965839;,
         0.326873; 0.959518;,
         0.302140; 0.919656;,
         0.272609; 0.898918;,
         0.239615; 0.864079;,
         0.247418; 0.848157;,
         0.192695; 0.776659;,
         0.206621; 0.829239;,
         0.335604; 1.000000;,
         0.346392; 0.991664;,
         0.326873; 0.959518;,
         0.314917; 0.965839;,
         0.931598; 0.818603;,
         0.955133; 0.819592;,
         0.906425; 0.767529;,
         0.892776; 0.767132;,
         0.792408; 0.359304;,
         0.786239; 0.436668;,
         0.941083; 0.405753;,
         0.915602; 0.359304;,
         0.549451; 0.287406;,
         0.608111; 0.308156;,
         0.610548; 0.264750;,
         0.557565; 0.233994;,
         0.531118; 0.394527;,
         0.587402; 0.405833;,
         0.600629; 0.372469;,
         0.547496; 0.352856;,
         0.547496; 0.352856;,
         0.600629; 0.372469;,
         0.608111; 0.308156;,
         0.549451; 0.287406;,
         0.867136; 0.260591;,
         0.891683; 0.308151;,
         0.936869; 0.295092;,
         0.921095; 0.246734;,
         0.867136; 0.260591;,
         0.831605; 0.266290;,
         0.867768; 0.315797;,
         0.891683; 0.308151;,
         0.843402; 0.186478;,
         0.803168; 0.192169;,
         0.831605; 0.266290;,
         0.867136; 0.260591;,
         0.196777; 0.759557;,
         0.147920; 0.686253;,
         0.142943; 0.702782;,
         0.192695; 0.776659;,
         0.021098; 0.129482;,
         0.038790; 0.186458;,
         0.055974; 0.189399;,
         0.068375; 0.080690;,
         0.048918; 0.113942;,
         0.207855; 0.568985;,
         0.248097; 0.628273;,
         0.307876; 0.607192;,
         0.273347; 0.555474;,
         0.048033; 0.701383;,
         0.106742; 0.649275;,
         0.073641; 0.602511;,
         0.019564; 0.661535;,
         0.105923; 0.625071;,
         0.147920; 0.686253;,
         0.248097; 0.628273;,
         0.207855; 0.568985;,
         0.158063; 0.596382;,
         0.138198; 0.098335;,
         0.106205; 0.089383;,
         0.097594; 0.119826;,
         0.125811; 0.129323;,
         0.021098; 0.129482;,
         0.048918; 0.113942;,
         0.027949; 0.074211;,
         0.000000; 0.092314;,
         0.327235; 0.376228;,
         0.320055; 0.310141;,
         0.289673; 0.316171;,
         0.298215; 0.389702;,
         0.112840; 0.161772;,
         0.125811; 0.129323;,
         0.097594; 0.119826;,
         0.087105; 0.156909;,
         0.885453; 0.810184;,
         0.851259; 0.816944;,
         0.853709; 0.884279;,
         0.880996; 0.884251;,
         0.140811; 0.846809;,
         0.115848; 0.860881;,
         0.152573; 0.913936;,
         0.185881; 0.917219;,
         0.077360; 0.743098;,
         0.142943; 0.702782;,
         0.106742; 0.649275;,
         0.048033; 0.701383;,
         0.803168; 0.203513;,
         0.801156; 0.116336;,
         0.690513; 0.117791;,
         0.679051; 0.205145;,
         0.705904; 0.514167;,
         0.780561; 0.506220;,
         0.777480; 0.442594;,
         0.702448; 0.442792;,
         0.023087; 0.731135;,
         0.045723; 0.771435;,
         0.077360; 0.743098;,
         0.048033; 0.701383;,
         0.525606; 0.487639;,
         0.534108; 0.526330;,
         0.593916; 0.506186;,
         0.591462; 0.468338;,
         0.327234; 0.346041;,
         0.332904; 0.348179;,
         0.332904; 0.339457;,
         0.327234; 0.339978;,
         0.945898; 0.230368;,
         0.963905; 0.283165;,
         0.997086; 0.315797;,
         0.984460; 0.234721;,
         0.819098; 0.767935;,
         0.793224; 0.782123;,
         0.820931; 0.817866;,
         0.851259; 0.816944;,
         0.851259; 0.816944;,
         0.820931; 0.817866;,
         0.826421; 0.884307;,
         0.853709; 0.884279;,
         0.517560; 0.441117;,
         0.575559; 0.432634;,
         0.587402; 0.405833;,
         0.531118; 0.394527;,
         0.936869; 0.180354;,
         0.945898; 0.230368;,
         0.984460; 0.234721;,
         0.973470; 0.161333;,
         0.021798; 0.795520;,
         0.054647; 0.834303;,
         0.080214; 0.814914;,
         0.045723; 0.771435;,
         0.462897; 0.439459;,
         0.517560; 0.441117;,
         0.531118; 0.394527;,
         0.461153; 0.392681;,
         0.575559; 0.432634;,
         0.591462; 0.468338;,
         0.610548; 0.443975;,
         0.587402; 0.405833;,
         0.937513; 0.129328;,
         0.936869; 0.180354;,
         0.973470; 0.161333;,
         0.997086; 0.005107;,
         0.973419; 0.019129;,
         0.942594; 0.077839;,
         0.054647; 0.834303;,
         0.091505; 0.871191;,
         0.115848; 0.860881;,
         0.080214; 0.814914;,
         0.272609; 0.898918;,
         0.302140; 0.919656;,
         0.247418; 0.848157;,
         0.239615; 0.864079;,
         0.152916; 0.849642;,
         0.142428; 0.869230;,
         0.272609; 0.898918;,
         0.239615; 0.864079;,
         0.733143; 0.828428;,
         0.769571; 0.833171;,
         0.793224; 0.782123;,
         0.756796; 0.774202;,
         0.080214; 0.814914;,
         0.115848; 0.860881;,
         0.140811; 0.846809;,
         0.109085; 0.794953;,
         0.163404; 0.830053;,
         0.077360; 0.743098;,
         0.109085; 0.794953;,
         0.152916; 0.849642;,
         0.700465; 0.878790;,
         0.663034; 0.816967;,
         0.643773; 0.815685;,
         0.691652; 0.881018;,
         0.921095; 0.120273;,
         0.867136; 0.115964;,
         0.843402; 0.186478;,
         0.905200; 0.182221;,
         0.361107; 0.478121;,
         0.416985; 0.492253;,
         0.412441; 0.445581;,
         0.365322; 0.441563;,
         0.402453; 0.293649;,
         0.386702; 0.359685;,
         0.462229; 0.350822;,
         0.471244; 0.267486;,
         0.565911; 0.737608;,
         0.446614; 0.761792;,
         0.508138; 0.807842;,
         0.516213; 0.665508;,
         0.481413; 0.713650;,
         0.530482; 0.662646;,
         0.520931; 0.642671;,
         0.820931; 0.950591;,
         0.769571; 0.935062;,
         0.793224; 0.985904;,
         0.410478; 0.802620;,
         0.386438; 0.771803;,
         0.356099; 0.808409;,
         0.373841; 0.842512;,
         0.386702; 0.359685;,
         0.398161; 0.400174;,
         0.461153; 0.392681;,
         0.462229; 0.350822;,
         0.481413; 0.713650;,
         0.453027; 0.692009;,
         0.414468; 0.732536;,
         0.446614; 0.761792;,
         0.446614; 0.761792;,
         0.565911; 0.737608;,
         0.583662; 0.686842;,
         0.540032; 0.682621;,
         0.756796; 0.993337;,
         0.733143; 0.939318;,
         0.700464; 0.940912;,
         0.724117; 0.998107;,
         0.413152; 0.240128;,
         0.402453; 0.293649;,
         0.471244; 0.267486;,
         0.480497; 0.215382;,
         0.332698; 0.438094;,
         0.345203; 0.389701;,
         0.328995; 0.396048;,
         0.316716; 0.442075;,
         0.691652; 0.881018;,
         0.643773; 0.815685;,
         0.607280; 0.890747;,
         0.660471; 0.919495;,
         0.643773; 0.815685;,
         0.569280; 0.754556;,
         0.514457; 0.823174;,
         0.607280; 0.890747;,
         0.465479; 0.859060;,
         0.421010; 0.906898;,
         0.449546; 0.885735;,
         0.462714; 0.883007;,
         0.514457; 0.823174;,
         0.508138; 0.807842;,
         0.479733; 0.950000;,
         0.525795; 0.975946;,
         0.548667; 0.954026;,
         0.503980; 0.923238;,
         0.525795; 0.975946;,
         0.596216; 1.000000;,
         0.614947; 0.976019;,
         0.548667; 0.954026;,
         0.663034; 0.816967;,
         0.565911; 0.737608;,
         0.569280; 0.754556;,
         0.643773; 0.815685;,
         0.935563; 0.458139;,
         0.821939; 0.505525;,
         0.788618; 0.567746;,
         0.911787; 0.525046;,
         0.617452; 0.656203;,
         0.530482; 0.662646;,
         0.540032; 0.682621;,
         0.583662; 0.686842;,
         0.925966; 0.696290;,
         0.932647; 0.624763;,
         0.919166; 0.623452;,
         0.901259; 0.690110;,
         0.679669; 0.609050;,
         0.700465; 0.575595;,
         0.690014; 0.567746;,
         0.651241; 0.625564;,
         0.565911; 0.737608;,
         0.622790; 0.673329;,
         0.617452; 0.656203;,
         0.583662; 0.686842;,
         0.946093; 0.451813;,
         0.951666; 0.403559;,
         0.941083; 0.405753;,
         0.935563; 0.458139;,
         0.932647; 0.624763;,
         1.000000; 0.575313;,
         0.977355; 0.569484;,
         0.919166; 0.623452;,
         0.941083; 0.405753;,
         0.786239; 0.436668;,
         0.821939; 0.505525;,
         0.935563; 0.458139;,
         0.479733; 0.950000;,
         0.421010; 0.906898;,
         0.398860; 0.923598;,
         0.455028; 0.977098;,
         0.346392; 0.383267;,
         0.355165; 0.415696;,
         0.398161; 0.400174;,
         0.386702; 0.359685;,
         0.353210; 0.318982;,
         0.346392; 0.383267;,
         0.386702; 0.359685;,
         0.402453; 0.293649;,
         0.936869; 0.073725;,
         0.891683; 0.071521;,
         0.867136; 0.115964;,
         0.921095; 0.120273;,
         0.479733; 0.950000;,
         0.455028; 0.977098;,
         0.512164; 0.998764;,
         0.525795; 0.975946;,
         0.831605; 0.119283;,
         0.803168; 0.192169;,
         0.843402; 0.186478;,
         0.867136; 0.115964;,
         0.508138; 0.807842;,
         0.514457; 0.823174;,
         0.569280; 0.754556;,
         0.565911; 0.737608;,
         0.332698; 0.438094;,
         0.316716; 0.442075;,
         0.298876; 0.499494;,
         0.326274; 0.513379;,
         0.345203; 0.545258;,
         0.660471; 0.919495;,
         0.607280; 0.890747;,
         0.559367; 0.947775;,
         0.621503; 0.968031;,
         0.421010; 0.906898;,
         0.465479; 0.859060;,
         0.410478; 0.802620;,
         0.373841; 0.842512;,
         0.607280; 0.890747;,
         0.514457; 0.823174;,
         0.462714; 0.883007;,
         0.512153; 0.916137;,
         0.559367; 0.947775;,
         0.276250; 0.187894;,
         0.276250; 0.156392;,
         0.252003; 0.173852;,
         0.254852; 0.204967;,
         0.317503; 0.555474;,
         0.326274; 0.513379;,
         0.298876; 0.499494;,
         0.289189; 0.538951;,
         0.479733; 0.950000;,
         0.503980; 0.923238;,
         0.449546; 0.885735;,
         0.421010; 0.906898;,
         0.276250; 0.187894;,
         0.254852; 0.204967;,
         0.257835; 0.237549;,
         0.276250; 0.226266;,
         0.853709; 0.884279;,
         0.851259; 0.951575;,
         0.885453; 0.958408;,
         0.880996; 0.884251;,
         0.524809; 0.604687;,
         0.490918; 0.650236;,
         0.516213; 0.665508;,
         0.559744; 0.603505;,
         0.465479; 0.859060;,
         0.508138; 0.807842;,
         0.446614; 0.761792;,
         0.410478; 0.802620;,
         0.446614; 0.761792;,
         0.414468; 0.732536;,
         0.386438; 0.771803;,
         0.410478; 0.802620;,
         0.369670; 0.515710;,
         0.421984; 0.531091;,
         0.416985; 0.492253;,
         0.361107; 0.478121;,
         0.333321; 0.338460;,
         0.341541; 0.337101;,
         0.341541; 0.327648;,
         0.333321; 0.329007;,
         0.820931; 0.950591;,
         0.793224; 0.985904;,
         0.819098; 1.000000;,
         0.851259; 0.951575;,
         0.826421; 0.884307;,
         0.820931; 0.950591;,
         0.851259; 0.951575;,
         0.853709; 0.884279;,
         0.355165; 0.415696;,
         0.365322; 0.441563;,
         0.412441; 0.445581;,
         0.398161; 0.400174;,
         0.453027; 0.692009;,
         0.425430; 0.672599;,
         0.388977; 0.708557;,
         0.414468; 0.732536;,
         0.398161; 0.388455;,
         0.412441; 0.433862;,
         0.462897; 0.427740;,
         0.461153; 0.380962;,
         0.386438; 0.771803;,
         0.369052; 0.746264;,
         0.346392; 0.780900;,
         0.356099; 0.808409;,
         0.490918; 0.650236;,
         0.465175; 0.639178;,
         0.425430; 0.672599;,
         0.453027; 0.692009;,
         0.622790; 0.673329;,
         0.679669; 0.609050;,
         0.651241; 0.625564;,
         0.617452; 0.656203;,
         0.651241; 0.625564;,
         0.520931; 0.642671;,
         0.530482; 0.662646;,
         0.617452; 0.656203;,
         0.793224; 0.985904;,
         0.769571; 0.935062;,
         0.733143; 0.939318;,
         0.756796; 0.993337;,
         0.516213; 0.665508;,
         0.490918; 0.650236;,
         0.453027; 0.692009;,
         0.481413; 0.713650;,
         0.481413; 0.713650;,
         0.446614; 0.761792;,
         0.540032; 0.682621;,
         0.530482; 0.662646;,
         0.021798; 0.795520;,
         0.025058; 0.776276;,
         0.017472; 0.758795;,
         0.005855; 0.756634;,
         0.045723; 0.771435;,
         0.032194; 0.768648;,
         0.025058; 0.776276;,
         0.021798; 0.795520;,
         0.005855; 0.756634;,
         0.017472; 0.758795;,
         0.022949; 0.751400;,
         0.023087; 0.731135;,
         0.023087; 0.731135;,
         0.022949; 0.751400;,
         0.032194; 0.768648;,
         0.045723; 0.771435;,
         0.013432; 0.760205;,
         0.018705; 0.772357;,
         0.023665; 0.767054;,
         0.017239; 0.755065;,
         0.332059; 0.349550;,
         0.327234; 0.348179;,
         0.327234; 0.367158;,
         0.332059; 0.362743;,
         0.023665; 0.767054;,
         0.032194; 0.768648;,
         0.022949; 0.751400;,
         0.017239; 0.755065;,
         0.333321; 0.349464;,
         0.341814; 0.349974;,
         0.341814; 0.338460;,
         0.333321; 0.341461;,
         0.369052; 0.746264;,
         0.383255; 0.744218;,
         0.391632; 0.729113;,
         0.388977; 0.708557;,
         0.388977; 0.708557;,
         0.391632; 0.729113;,
         0.397910; 0.735207;,
         0.414468; 0.732536;,
         0.386438; 0.771803;,
         0.387628; 0.750228;,
         0.383255; 0.744218;,
         0.369052; 0.746264;,
         0.414468; 0.732536;,
         0.397910; 0.735207;,
         0.387628; 0.750228;,
         0.386438; 0.771803;,
         0.343938; 0.371498;,
         0.335315; 0.370015;,
         0.336934; 0.387212;,
         0.343938; 0.389701;,
         0.334697; 0.383699;,
         0.327234; 0.382669;,
         0.327852; 0.388671;,
         0.335315; 0.389701;,
         0.335315; 0.368189;,
         0.327852; 0.367158;,
         0.327234; 0.382669;,
         0.334697; 0.383699;,
         0.335315; 0.370016;,
         0.341814; 0.366936;,
         0.341814; 0.349974;,
         0.335315; 0.353053;,
         0.541114; 0.562292;,
         0.534108; 0.526330;,
         0.477381; 0.531861;,
         0.486201; 0.567746;,
         0.127562; 0.289846;,
         0.177784; 0.289405;,
         0.177784; 0.346924;,
         0.127516; 0.345519;,
         0.811784; 0.832263;,
         0.779014; 0.804594;,
         0.780567; 0.860116;,
         0.809241; 0.868541;,
         0.733143; 0.828428;,
         0.728948; 0.883891;,
         0.765376; 0.884135;,
         0.769571; 0.833171;,
         0.765376; 0.884135;,
         0.826421; 0.884307;,
         0.820931; 0.817866;,
         0.769571; 0.833171;,
         0.128432; 0.289798;,
         0.191969; 0.289798;,
         0.189130; 0.340912;,
         0.138426; 0.356690;,
         0.525606; 0.487639;,
         0.469857; 0.489835;,
         0.477381; 0.531861;,
         0.534108; 0.526330;,
         0.419659; 0.421003;,
         0.468080; 0.421773;,
         0.462881; 0.374321;,
         0.415435; 0.345055;,
         0.427991; 0.400276;,
         0.379595; 0.402883;,
         0.383988; 0.348415;,
         0.427991; 0.344328;,
         0.517560; 0.441117;,
         0.462897; 0.439459;,
         0.469857; 0.489835;,
         0.525606; 0.487639;,
         0.712274; 0.567746;,
         0.786239; 0.553983;,
         0.780561; 0.506220;,
         0.705904; 0.514167;,
         0.827398; 0.656625;,
         0.814293; 0.569964;,
         0.701140; 0.569484;,
         0.700465; 0.656086;,
         0.679051; 0.205145;,
         0.690513; 0.117791;,
         0.638992; 0.116336;,
         0.621256; 0.203513;,
         0.800137; 0.314166;,
         0.803168; 0.203513;,
         0.679051; 0.205145;,
         0.676020; 0.315798;,
         0.610548; 0.440172;,
         0.702448; 0.442792;,
         0.705904; 0.371732;,
         0.614005; 0.369111;,
         0.676020; 0.315798;,
         0.679051; 0.205145;,
         0.621256; 0.203513;,
         0.618225; 0.314166;,
         0.882973; 0.766964;,
         0.882555; 0.656086;,
         0.827398; 0.656625;,
         0.827816; 0.767503;,
         0.614005; 0.369111;,
         0.705904; 0.371732;,
         0.712274; 0.318418;,
         0.620374; 0.315797;,
         0.614005; 0.511546;,
         0.705904; 0.514167;,
         0.702448; 0.442792;,
         0.610548; 0.440172;,
         0.620374; 0.565125;,
         0.712274; 0.567746;,
         0.705904; 0.514167;,
         0.614005; 0.511546;,
         0.827816; 0.767503;,
         0.827398; 0.656625;,
         0.700465; 0.656086;,
         0.700882; 0.766964;,
         0.891902; 0.640910;,
         0.863463; 0.569484;,
         0.882555; 0.656086;,
         0.892776; 0.767935;,
         0.891902; 0.640910;,
         0.882555; 0.656086;,
         0.882973; 0.766964;,
         0.638992; 0.116336;,
         0.612312; 0.188477;,
         0.621256; 0.203513;,
         0.612312; 0.188477;,
         0.610548; 0.315161;,
         0.618225; 0.314166;,
         0.621256; 0.203513;,
         0.180417; 0.462716;,
         0.026124; 0.438465;,
         0.061428; 0.485585;,
         0.215721; 0.509836;,
         0.180417; 0.370396;,
         0.026124; 0.346145;,
         0.000000; 0.391594;,
         0.154293; 0.415846;,
         0.154293; 0.415846;,
         0.000000; 0.391594;,
         0.026124; 0.438465;,
         0.180417; 0.462716;,
         0.215721; 0.325197;,
         0.061428; 0.300945;,
         0.026124; 0.346145;,
         0.180417; 0.370396;,
         0.226587; 0.237549;,
         0.144008; 0.269247;,
         0.061428; 0.300945;,
         0.215721; 0.325197;,
         0.144008; 0.520529;,
         0.226587; 0.555474;,
         0.215721; 0.509836;,
         0.061428; 0.485585;,
         0.215721; 0.325197;,
         0.289189; 0.238428;,
         0.233548; 0.242317;,
         0.226587; 0.237549;,
         0.233548; 0.545026;,
         0.289189; 0.551942;,
         0.215721; 0.509836;,
         0.226587; 0.555474;;
      } // End of Hat_CultHelmet2_x_Root_Cube_001 UV coordinates
      MeshMaterialList { // Hat_CultHelmet2_x_Root_Cube_001 material list
        1;
        179;
        0,
        0,
        0,
        0,
        0,
        0,
        0,
        0,
        0,
        0,
        0,
        0,
        0,
        0,
        0,
        0,
        0,
        0,
        0,
        0,
        0,
        0,
        0,
        0,
        0,
        0,
        0,
        0,
        0,
        0,
        0,
        0,
        0,
        0,
        0,
        0,
        0,
        0,
        0,
        0,
        0,
        0,
        0,
        0,
        0,
        0,
        0,
        0,
        0,
        0,
        0,
        0,
        0,
        0,
        0,
        0,
        0,
        0,
        0,
        0,
        0,
        0,
        0,
        0,
        0,
        0,
        0,
        0,
        0,
        0,
        0,
        0,
        0,
        0,
        0,
        0,
        0,
        0,
        0,
        0,
        0,
        0,
        0,
        0,
        0,
        0,
        0,
        0,
        0,
        0,
        0,
        0,
        0,
        0,
        0,
        0,
        0,
        0,
        0,
        0,
        0,
        0,
        0,
        0,
        0,
        0,
        0,
        0,
        0,
        0,
        0,
        0,
        0,
        0,
        0,
        0,
        0,
        0,
        0,
        0,
        0,
        0,
        0,
        0,
        0,
        0,
        0,
        0,
        0,
        0,
        0,
        0,
        0,
        0,
        0,
        0,
        0,
        0,
        0,
        0,
        0,
        0,
        0,
        0,
        0,
        0,
        0,
        0,
        0,
        0,
        0,
        0,
        0,
        0,
        0,
        0,
        0,
        0,
        0,
        0,
        0,
        0,
        0,
        0,
        0,
        0,
        0,
        0,
        0,
        0,
        0,
        0,
        0,
        0,
        0,
        0,
        0,
        0,
        0;
        Material Material_001 {
           0.640000; 0.640000; 0.640000; 1.000000;;
           96.078431;
           0.500000; 0.500000; 0.500000;;
           0.000000; 0.000000; 0.000000;;
        }
      } // End of Hat_CultHelmet2_x_Root_Cube_001 material list
    } // End of Hat_CultHelmet2_x_Root_Cube_001 mesh
  } // End of Hat_CultHelmet2_x_Root_Cube_001
} // End of Root
