xof 0303txt 0032

Frame Root {
  FrameTransformMatrix {
     1.000000, 0.000000, 0.000000, 0.000000,
     0.000000,-0.000000, 1.000000, 0.000000,
     0.000000, 1.000000, 0.000000, 0.000000,
     0.000000, 0.000000, 0.000000, 1.000000;;
  }
  Frame Cube_002 {
    FrameTransformMatrix {
       1.000000, 0.000000, 0.000000, 0.000000,
       0.000000, 1.000000, 0.000000, 0.000000,
       0.000000, 0.000000, 1.000000, 0.000000,
       0.000000, 0.000000, 0.000000, 1.000000;;
    }
    Mesh { // Cube_002 mesh
      608;
       0.130170; 0.006341;-0.049450;,
       0.122693; 0.006726;-0.052926;,
       0.128394; 0.008517;-0.065844;,
       0.133999; 0.008229;-0.063238;,
       0.133999; 0.008229;-0.063238;,
       0.128394; 0.008517;-0.065844;,
       0.128518; 0.014689;-0.065429;,
       0.134123; 0.014401;-0.062823;,
       0.134123; 0.014401;-0.062823;,
       0.128518; 0.014689;-0.065429;,
       0.122859; 0.014960;-0.052371;,
       0.130336; 0.014575;-0.048895;,
       0.130336; 0.014575;-0.048895;,
       0.122859; 0.014960;-0.052371;,
       0.122693; 0.006726;-0.052926;,
       0.130170; 0.006341;-0.049450;,
       0.133999; 0.008229;-0.063238;,
       0.134123; 0.014401;-0.062823;,
       0.130336; 0.014575;-0.048895;,
       0.130170; 0.006341;-0.049450;,
       0.128518; 0.014689;-0.065429;,
       0.128394; 0.008517;-0.065844;,
       0.122693; 0.006726;-0.052926;,
       0.122859; 0.014960;-0.052371;,
       0.110836; 0.076929; 0.005062;,
       0.110623; 0.066357; 0.004350;,
       0.126485; 0.061032; 0.004013;,
       0.126579; 0.065715; 0.004328;,
       0.130752; 0.049381;-0.042542;,
       0.130727; 0.048166;-0.039021;,
       0.130655; 0.045221;-0.043165;,
       0.130679; 0.046435;-0.046685;,
       0.086215; 0.064288;-0.031350;,
       0.110564; 0.063420;-0.031227;,
       0.110623; 0.066357; 0.004350;,
       0.085919; 0.067428; 0.004388;,
      -0.005239; 0.065746;-0.031227;,
      -0.005135; 0.070919;-0.032907;,
      -0.002863; 0.056688;-0.051017;,
      -0.002910; 0.054326;-0.047120;,
       0.086303; 0.068703;-0.032783;,
       0.110668; 0.068593;-0.032907;,
       0.110384; 0.054414;-0.051017;,
       0.088191; 0.054859;-0.051017;,
       0.085919; 0.067428; 0.004388;,
       0.110623; 0.066357; 0.004350;,
       0.110836; 0.076929; 0.005062;,
       0.087641; 0.077394; 0.005062;,
       0.128724; 0.060470;-0.029036;,
       0.128655; 0.057004;-0.027468;,
       0.130727; 0.048166;-0.039021;,
       0.130752; 0.049381;-0.042542;,
       0.065952; 0.052942;-0.047120;,
      -0.002910; 0.054326;-0.047120;,
       0.002532; 0.026492;-0.052932;,
       0.067738; 0.025182;-0.052932;,
       0.110564; 0.063420;-0.031227;,
       0.110336; 0.052051;-0.047120;,
       0.130727; 0.048166;-0.039021;,
       0.128655; 0.057004;-0.027468;,
       0.110668; 0.068593;-0.032907;,
       0.110836; 0.076929; 0.005062;,
       0.126579; 0.065715; 0.004328;,
       0.128724; 0.060470;-0.029036;,
       0.088799; 0.027123;-0.056828;,
       0.109813; 0.026701;-0.056828;,
       0.109766; 0.024338;-0.052932;,
       0.088752; 0.024760;-0.052932;,
       0.109813; 0.026701;-0.056828;,
       0.130679; 0.046435;-0.046685;,
       0.141809;-0.004264;-0.061830;,
       0.121198;-0.004290;-0.067171;,
       0.130727; 0.048166;-0.039021;,
       0.110336; 0.052051;-0.047120;,
       0.109766; 0.024338;-0.052932;,
       0.130655; 0.045221;-0.043165;,
      -0.002910; 0.054326;-0.047120;,
      -0.002863; 0.056688;-0.051017;,
       0.002580; 0.028855;-0.056828;,
       0.002532; 0.026492;-0.052932;,
       0.088191; 0.054859;-0.051017;,
       0.110384; 0.054414;-0.051017;,
       0.109813; 0.026701;-0.056828;,
       0.088799; 0.027123;-0.056828;,
       0.110384; 0.054414;-0.051017;,
       0.130752; 0.049381;-0.042542;,
       0.130679; 0.046435;-0.046685;,
       0.109813; 0.026701;-0.056828;,
       0.121169;-0.005719;-0.064815;,
       0.121198;-0.004290;-0.067171;,
       0.141809;-0.004264;-0.061830;,
       0.141794;-0.004998;-0.059701;,
       0.130655; 0.045221;-0.043165;,
       0.109766; 0.024338;-0.052932;,
       0.121169;-0.005719;-0.064815;,
       0.141794;-0.004998;-0.059701;,
       0.130679; 0.046435;-0.046685;,
       0.130655; 0.045221;-0.043165;,
       0.141794;-0.004998;-0.059701;,
       0.141809;-0.004264;-0.061830;,
       0.109766; 0.024338;-0.052932;,
       0.109813; 0.026701;-0.056828;,
       0.121198;-0.004290;-0.067171;,
       0.121169;-0.005719;-0.064815;,
       0.110384; 0.054414;-0.051017;,
       0.110668; 0.068593;-0.032907;,
       0.128724; 0.060470;-0.029036;,
       0.130752; 0.049381;-0.042542;,
       0.110623; 0.066357; 0.004350;,
       0.110564; 0.063420;-0.031227;,
       0.128655; 0.057004;-0.027468;,
       0.126485; 0.061032; 0.004013;,
       0.126579; 0.065715; 0.004328;,
       0.126485; 0.061032; 0.004013;,
       0.128655; 0.057004;-0.027468;,
       0.128724; 0.060470;-0.029036;,
       0.087641; 0.077394; 0.005062;,
       0.110836; 0.076929; 0.005062;,
       0.110668; 0.068593;-0.032907;,
       0.086303; 0.068703;-0.032783;,
       0.086159; 0.075716;-0.005623;,
      -0.007737; 0.068734; 0.004350;,
      -0.007525; 0.079306; 0.005062;,
      -0.005135; 0.070919;-0.032907;,
      -0.005239; 0.065746;-0.031227;,
       0.088144; 0.052497;-0.047120;,
       0.110336; 0.052051;-0.047120;,
       0.110564; 0.063420;-0.031227;,
       0.086215; 0.064288;-0.031350;,
      -0.002910; 0.054326;-0.047120;,
       0.065952; 0.052942;-0.047120;,
       0.068004; 0.064654;-0.031350;,
      -0.005239; 0.065746;-0.031227;,
      -0.007525; 0.079306; 0.005062;,
       0.064447; 0.077860; 0.005062;,
       0.066102; 0.076088;-0.005761;,
       0.068092; 0.069069;-0.032783;,
      -0.005135; 0.070919;-0.032907;,
      -0.002863; 0.056688;-0.051017;,
       0.065999; 0.055305;-0.051017;,
       0.067786; 0.027545;-0.056828;,
       0.002580; 0.028855;-0.056828;,
       0.002580; 0.028855;-0.056828;,
       0.067786; 0.027545;-0.056828;,
       0.067738; 0.025182;-0.052932;,
       0.002532; 0.026492;-0.052932;,
       0.077048; 0.052720;-0.047120;,
       0.065952; 0.052942;-0.047120;,
       0.067738; 0.025182;-0.052932;,
       0.078245; 0.024971;-0.052932;,
      -0.007737; 0.068734; 0.004350;,
       0.065785; 0.067832; 0.004388;,
       0.064447; 0.077860; 0.005062;,
      -0.007525; 0.079306; 0.005062;,
      -0.005135; 0.070919;-0.032907;,
       0.068092; 0.069069;-0.032783;,
       0.065999; 0.055305;-0.051017;,
      -0.002863; 0.056688;-0.051017;,
      -0.005239; 0.065746;-0.031227;,
       0.068004; 0.064654;-0.031350;,
       0.065785; 0.067832; 0.004388;,
      -0.007737; 0.068734; 0.004350;,
       0.110336; 0.052051;-0.047120;,
       0.088144; 0.052497;-0.047120;,
       0.088752; 0.024760;-0.052932;,
       0.109766; 0.024338;-0.052932;,
       0.077048; 0.052720;-0.047120;,
       0.088144; 0.052497;-0.047120;,
       0.086215; 0.064288;-0.031350;,
       0.076497; 0.062748;-0.035174;,
       0.076044; 0.077627; 0.005062;,
       0.087641; 0.077394; 0.005062;,
       0.086159; 0.075716;-0.005623;,
       0.076145; 0.076194;-0.001455;,
       0.077095; 0.055082;-0.051017;,
       0.088191; 0.054859;-0.051017;,
       0.088799; 0.027123;-0.056828;,
       0.078293; 0.027334;-0.056828;,
       0.078293; 0.027334;-0.056828;,
       0.088799; 0.027123;-0.056828;,
       0.088752; 0.024760;-0.052932;,
       0.078245; 0.024971;-0.052932;,
       0.075832; 0.067056; 0.004350;,
       0.085919; 0.067428; 0.004388;,
       0.087641; 0.077394; 0.005062;,
       0.076044; 0.077627; 0.005062;,
       0.076567; 0.066217;-0.036968;,
       0.086303; 0.068703;-0.032783;,
       0.088191; 0.054859;-0.051017;,
       0.077095; 0.055082;-0.051017;,
       0.076567; 0.066217;-0.036968;,
       0.076497; 0.062748;-0.035174;,
       0.086215; 0.064288;-0.031350;,
       0.086303; 0.068703;-0.032783;,
       0.075832; 0.067056; 0.004350;,
       0.076145; 0.076194;-0.001455;,
       0.086159; 0.075716;-0.005623;,
       0.085919; 0.067428; 0.004388;,
       0.066102; 0.076088;-0.005761;,
       0.065785; 0.067832; 0.004388;,
       0.068004; 0.064654;-0.031350;,
       0.068092; 0.069069;-0.032783;,
       0.086159; 0.075716;-0.005623;,
       0.086303; 0.068703;-0.032783;,
       0.086215; 0.064288;-0.031350;,
       0.085919; 0.067428; 0.004388;,
       0.068092; 0.069069;-0.032783;,
       0.068004; 0.064654;-0.031350;,
       0.076497; 0.062748;-0.035174;,
       0.076567; 0.066217;-0.036968;,
       0.068092; 0.069069;-0.032783;,
       0.076567; 0.066217;-0.036968;,
       0.077095; 0.055082;-0.051017;,
       0.065999; 0.055305;-0.051017;,
       0.067786; 0.027545;-0.056828;,
       0.078293; 0.027334;-0.056828;,
       0.078245; 0.024971;-0.052932;,
       0.067738; 0.025182;-0.052932;,
       0.065999; 0.055305;-0.051017;,
       0.077095; 0.055082;-0.051017;,
       0.078293; 0.027334;-0.056828;,
       0.067786; 0.027545;-0.056828;,
       0.065952; 0.052942;-0.047120;,
       0.077048; 0.052720;-0.047120;,
       0.076497; 0.062748;-0.035174;,
       0.068004; 0.064654;-0.031350;,
       0.088144; 0.052497;-0.047120;,
       0.077048; 0.052720;-0.047120;,
       0.078245; 0.024971;-0.052932;,
       0.088752; 0.024760;-0.052932;,
       0.065785; 0.067832; 0.004388;,
       0.066102; 0.076088;-0.005761;,
       0.076145; 0.076194;-0.001455;,
       0.075832; 0.067056; 0.004350;,
       0.065785; 0.067832; 0.004388;,
       0.075832; 0.067056; 0.004350;,
       0.076044; 0.077627; 0.005062;,
       0.064447; 0.077860; 0.005062;,
       0.064447; 0.077860; 0.005062;,
       0.076044; 0.077627; 0.005062;,
       0.076145; 0.076194;-0.001455;,
       0.066102; 0.076088;-0.005761;,
       0.130629; 0.043246; 0.048597;,
       0.130545; 0.039771; 0.052308;,
       0.130531; 0.039040; 0.048656;,
       0.130614; 0.042514; 0.044945;,
       0.086119; 0.059527; 0.039384;,
       0.085919; 0.067428; 0.004388;,
       0.110623; 0.066357; 0.004350;,
       0.110469; 0.058678; 0.039211;,
      -0.005334; 0.061004; 0.039211;,
      -0.003046; 0.047557; 0.053437;,
      -0.003010; 0.049376; 0.057615;,
      -0.005236; 0.065906; 0.041569;,
       0.086203; 0.063710; 0.041397;,
       0.088045; 0.047547; 0.057615;,
       0.110237; 0.047101; 0.057615;,
       0.110568; 0.063580; 0.041569;,
       0.128635; 0.056045; 0.036694;,
       0.130629; 0.043246; 0.048597;,
       0.130614; 0.042514; 0.044945;,
       0.128571; 0.052821; 0.034675;,
       0.065816; 0.046173; 0.053437;,
       0.067592; 0.017884; 0.055480;,
       0.002386; 0.019194; 0.055480;,
      -0.003046; 0.047557; 0.053437;,
       0.110469; 0.058678; 0.039211;,
       0.128571; 0.052821; 0.034675;,
       0.130614; 0.042514; 0.044945;,
       0.110200; 0.045282; 0.053437;,
       0.110568; 0.063580; 0.041569;,
       0.128635; 0.056045; 0.036694;,
       0.126579; 0.065715; 0.004328;,
       0.110836; 0.076929; 0.005062;,
       0.088642; 0.019281; 0.059658;,
       0.088605; 0.017462; 0.055480;,
       0.109619; 0.017040; 0.055480;,
       0.109656; 0.018859; 0.059658;,
       0.109656; 0.018859; 0.059658;,
       0.121018;-0.013240; 0.065785;,
       0.141643;-0.012502; 0.060551;,
       0.130545; 0.039771; 0.052308;,
       0.130614; 0.042514; 0.044945;,
       0.130531; 0.039040; 0.048656;,
       0.109619; 0.017040; 0.055480;,
       0.110200; 0.045282; 0.053437;,
      -0.003046; 0.047557; 0.053437;,
       0.002386; 0.019194; 0.055480;,
       0.002422; 0.021013; 0.059658;,
      -0.003010; 0.049376; 0.057615;,
       0.088045; 0.047547; 0.057615;,
       0.088642; 0.019281; 0.059658;,
       0.109656; 0.018859; 0.059658;,
       0.110237; 0.047101; 0.057615;,
       0.110237; 0.047101; 0.057615;,
       0.109656; 0.018859; 0.059658;,
       0.130545; 0.039771; 0.052308;,
       0.130629; 0.043246; 0.048597;,
       0.120996;-0.014340; 0.063259;,
       0.141634;-0.012945; 0.058343;,
       0.141643;-0.012502; 0.060551;,
       0.121018;-0.013240; 0.065785;,
       0.130531; 0.039040; 0.048656;,
       0.141634;-0.012945; 0.058343;,
       0.120996;-0.014340; 0.063259;,
       0.109619; 0.017040; 0.055480;,
       0.130545; 0.039771; 0.052308;,
       0.141643;-0.012502; 0.060551;,
       0.141634;-0.012945; 0.058343;,
       0.130531; 0.039040; 0.048656;,
       0.109619; 0.017040; 0.055480;,
       0.120996;-0.014340; 0.063259;,
       0.121018;-0.013240; 0.065785;,
       0.109656; 0.018859; 0.059658;,
       0.110237; 0.047101; 0.057615;,
       0.130629; 0.043246; 0.048597;,
       0.128635; 0.056045; 0.036694;,
       0.110568; 0.063580; 0.041569;,
       0.110623; 0.066357; 0.004350;,
       0.126485; 0.061032; 0.004013;,
       0.128571; 0.052821; 0.034675;,
       0.110469; 0.058678; 0.039211;,
       0.126579; 0.065715; 0.004328;,
       0.128635; 0.056045; 0.036694;,
       0.128571; 0.052821; 0.034675;,
       0.126485; 0.061032; 0.004013;,
       0.087641; 0.077394; 0.005062;,
       0.086131; 0.074299; 0.015421;,
       0.086203; 0.063710; 0.041397;,
       0.110568; 0.063580; 0.041569;,
       0.110836; 0.076929; 0.005062;,
      -0.007737; 0.068734; 0.004350;,
      -0.005334; 0.061004; 0.039211;,
      -0.005236; 0.065906; 0.041569;,
      -0.007525; 0.079306; 0.005062;,
       0.088008; 0.045728; 0.053437;,
       0.086119; 0.059527; 0.039384;,
       0.110469; 0.058678; 0.039211;,
       0.110200; 0.045282; 0.053437;,
      -0.003046; 0.047557; 0.053437;,
      -0.005334; 0.061004; 0.039211;,
       0.067908; 0.059893; 0.039384;,
       0.065816; 0.046173; 0.053437;,
      -0.007525; 0.079306; 0.005062;,
      -0.005236; 0.065906; 0.041569;,
       0.067992; 0.064075; 0.041397;,
       0.066073; 0.074654; 0.015553;,
       0.064447; 0.077860; 0.005062;,
      -0.003010; 0.049376; 0.057615;,
       0.002422; 0.021013; 0.059658;,
       0.067628; 0.019704; 0.059658;,
       0.065852; 0.047993; 0.057615;,
       0.002422; 0.021013; 0.059658;,
       0.002386; 0.019194; 0.055480;,
       0.067592; 0.017884; 0.055480;,
       0.067628; 0.019704; 0.059658;,
       0.076912; 0.045950; 0.053437;,
       0.078098; 0.017673; 0.055480;,
       0.067592; 0.017884; 0.055480;,
       0.065816; 0.046173; 0.053437;,
      -0.005236; 0.065906; 0.041569;,
      -0.003010; 0.049376; 0.057615;,
       0.065852; 0.047993; 0.057615;,
       0.067992; 0.064075; 0.041397;,
      -0.005334; 0.061004; 0.039211;,
      -0.007737; 0.068734; 0.004350;,
       0.065785; 0.067832; 0.004388;,
       0.067908; 0.059893; 0.039384;,
       0.110200; 0.045282; 0.053437;,
       0.109619; 0.017040; 0.055480;,
       0.088605; 0.017462; 0.055480;,
       0.088008; 0.045728; 0.053437;,
       0.076912; 0.045950; 0.053437;,
       0.076392; 0.057489; 0.042941;,
       0.086119; 0.059527; 0.039384;,
       0.088008; 0.045728; 0.053437;,
       0.076044; 0.077627; 0.005062;,
       0.076128; 0.075334; 0.011328;,
       0.086131; 0.074299; 0.015421;,
       0.087641; 0.077394; 0.005062;,
       0.076948; 0.047770; 0.057615;,
       0.078135; 0.019492; 0.059658;,
       0.088642; 0.019281; 0.059658;,
       0.088045; 0.047547; 0.057615;,
       0.078135; 0.019492; 0.059658;,
       0.078098; 0.017673; 0.055480;,
       0.088605; 0.017462; 0.055480;,
       0.088642; 0.019281; 0.059658;,
       0.076456; 0.060687; 0.045184;,
       0.076948; 0.047770; 0.057615;,
       0.088045; 0.047547; 0.057615;,
       0.086203; 0.063710; 0.041397;,
       0.076456; 0.060687; 0.045184;,
       0.086203; 0.063710; 0.041397;,
       0.086119; 0.059527; 0.039384;,
       0.076392; 0.057489; 0.042941;,
       0.075832; 0.067056; 0.004350;,
       0.085919; 0.067428; 0.004388;,
       0.086131; 0.074299; 0.015421;,
       0.076128; 0.075334; 0.011328;,
       0.066073; 0.074654; 0.015553;,
       0.067992; 0.064075; 0.041397;,
       0.067908; 0.059893; 0.039384;,
       0.065785; 0.067832; 0.004388;,
       0.086131; 0.074299; 0.015421;,
       0.085919; 0.067428; 0.004388;,
       0.086119; 0.059527; 0.039384;,
       0.086203; 0.063710; 0.041397;,
       0.067992; 0.064075; 0.041397;,
       0.076456; 0.060687; 0.045184;,
       0.076392; 0.057489; 0.042941;,
       0.067908; 0.059893; 0.039384;,
       0.067992; 0.064075; 0.041397;,
       0.065852; 0.047993; 0.057615;,
       0.076948; 0.047770; 0.057615;,
       0.076456; 0.060687; 0.045184;,
       0.067628; 0.019704; 0.059658;,
       0.067592; 0.017884; 0.055480;,
       0.078098; 0.017673; 0.055480;,
       0.078135; 0.019492; 0.059658;,
       0.065852; 0.047993; 0.057615;,
       0.067628; 0.019704; 0.059658;,
       0.078135; 0.019492; 0.059658;,
       0.076948; 0.047770; 0.057615;,
       0.065816; 0.046173; 0.053437;,
       0.067908; 0.059893; 0.039384;,
       0.076392; 0.057489; 0.042941;,
       0.076912; 0.045950; 0.053437;,
       0.088008; 0.045728; 0.053437;,
       0.088605; 0.017462; 0.055480;,
       0.078098; 0.017673; 0.055480;,
       0.076912; 0.045950; 0.053437;,
       0.065785; 0.067832; 0.004388;,
       0.075832; 0.067056; 0.004350;,
       0.076128; 0.075334; 0.011328;,
       0.066073; 0.074654; 0.015553;,
       0.064447; 0.077860; 0.005062;,
       0.066073; 0.074654; 0.015553;,
       0.076128; 0.075334; 0.011328;,
       0.076044; 0.077627; 0.005062;,
       0.165584;-0.020701;-0.001436;,
       0.164325; 0.024248; 0.001588;,
       0.156262; 0.021864; 0.039389;,
       0.155360;-0.023042; 0.036365;,
       0.155462;-0.017952;-0.039238;,
       0.156364; 0.026953;-0.036213;,
       0.164325; 0.024248; 0.001588;,
       0.165584;-0.020701;-0.001436;,
       0.155360;-0.023042; 0.036365;,
       0.156262; 0.021864; 0.039389;,
       0.127348; 0.009590; 0.056707;,
       0.126587;-0.028273; 0.055195;,
       0.155462;-0.017952;-0.039238;,
       0.154503;-0.057853;-0.031783;,
       0.125492;-0.053801;-0.058036;,
       0.125093;-0.015415;-0.058904;,
       0.164325; 0.024248; 0.001588;,
       0.156364; 0.026953;-0.036213;,
       0.149454; 0.044609;-0.032062;,
       0.153317; 0.045028;-0.001091;,
       0.127348; 0.009590; 0.056707;,
       0.156262; 0.021864; 0.039389;,
       0.149371; 0.040462; 0.029534;,
       0.125763; 0.028004; 0.052765;,
       0.156262; 0.021864; 0.039389;,
       0.164325; 0.024248; 0.001588;,
       0.153317; 0.045028;-0.001091;,
       0.149371; 0.040462; 0.029534;,
       0.156364; 0.026953;-0.036213;,
       0.125848; 0.022189;-0.053542;,
       0.124553; 0.038856;-0.045782;,
       0.149454; 0.044609;-0.032062;,
       0.156364; 0.026953;-0.036213;,
       0.155462;-0.017952;-0.039238;,
       0.125093;-0.015415;-0.058904;,
       0.125848; 0.022189;-0.053542;,
       0.154428;-0.061583; 0.023614;,
       0.155360;-0.023042; 0.036365;,
       0.126587;-0.028273; 0.055195;,
       0.126897;-0.065890; 0.049232;,
       0.154503;-0.057853;-0.031783;,
       0.155462;-0.017952;-0.039238;,
       0.165584;-0.020701;-0.001436;,
       0.159690;-0.059823;-0.004085;,
       0.159690;-0.059823;-0.004085;,
       0.165584;-0.020701;-0.001436;,
       0.155360;-0.023042; 0.036365;,
       0.154428;-0.061583; 0.023614;,
       0.154428;-0.061583; 0.023614;,
       0.126897;-0.065890; 0.049232;,
       0.126673;-0.078824; 0.041520;,
       0.140203;-0.080148; 0.025952;,
       0.125492;-0.053801;-0.058036;,
       0.154503;-0.057853;-0.031783;,
       0.140285;-0.076045;-0.035000;,
       0.125468;-0.068457;-0.050469;,
       0.159690;-0.059823;-0.004085;,
       0.154428;-0.061583; 0.023614;,
       0.140203;-0.080148; 0.025952;,
       0.144057;-0.078173;-0.004524;,
       0.154503;-0.057853;-0.031783;,
       0.159690;-0.059823;-0.004085;,
       0.144057;-0.078173;-0.004524;,
       0.140285;-0.076045;-0.035000;,
       0.125848; 0.022189;-0.053542;,
       0.125093;-0.015415;-0.058904;,
       0.055989;-0.004710;-0.060938;,
       0.090313; 0.012402;-0.056200;,
       0.126673;-0.078824; 0.041520;,
       0.126897;-0.065890; 0.049232;,
       0.069122;-0.061439; 0.054838;,
       0.078700;-0.082323; 0.042098;,
       0.125093;-0.015415;-0.058904;,
       0.125492;-0.053801;-0.058036;,
       0.067717;-0.049350;-0.060476;,
       0.055989;-0.004710;-0.060938;,
       0.126897;-0.065890; 0.049232;,
       0.126587;-0.028273; 0.055195;,
       0.069744;-0.012424; 0.061569;,
       0.069122;-0.061439; 0.054838;,
       0.125492;-0.053801;-0.058036;,
       0.125468;-0.068457;-0.050469;,
       0.077495;-0.071956;-0.049892;,
       0.067717;-0.049350;-0.060476;,
       0.126587;-0.028273; 0.055195;,
       0.127348; 0.009590; 0.056707;,
       0.089364; 0.004218; 0.058210;,
       0.069744;-0.012424; 0.061569;,
       0.112896;-0.078763;-0.043622;,
       0.121971;-0.084734;-0.031338;,
       0.089413;-0.089772;-0.027450;,
       0.086081;-0.085417;-0.036548;,
       0.124965;-0.086424;-0.007139;,
       0.121905;-0.087992; 0.017061;,
       0.089365;-0.092185; 0.008396;,
       0.091631;-0.091023;-0.009527;,
       0.087936;-0.077924;-0.046793;,
       0.112896;-0.078763;-0.043622;,
       0.086081;-0.085417;-0.036548;,
       0.084133;-0.080240;-0.043468;,
       0.113853;-0.086994; 0.029422;,
       0.088880;-0.086777; 0.035482;,
       0.084817;-0.087579; 0.029092;,
       0.086790;-0.091514; 0.017551;,
       0.121905;-0.087992; 0.017061;,
       0.113853;-0.086994; 0.029422;,
       0.086790;-0.091514; 0.017551;,
       0.089365;-0.092185; 0.008396;,
       0.121971;-0.084734;-0.031338;,
       0.124965;-0.086424;-0.007139;,
       0.091631;-0.091023;-0.009527;,
       0.089413;-0.089772;-0.027450;,
       0.055989;-0.004710;-0.060938;,
       0.067717;-0.049350;-0.060476;,
       0.009093;-0.023694;-0.069731;,
       0.009147;-0.016406;-0.069921;,
       0.069122;-0.061439; 0.054838;,
       0.069744;-0.012424; 0.061569;,
       0.036247;-0.041441; 0.067142;,
       0.036176;-0.048429; 0.066010;,
       0.140285;-0.076045;-0.035000;,
       0.144057;-0.078173;-0.004524;,
       0.124965;-0.086424;-0.007139;,
       0.121971;-0.084734;-0.031338;,
       0.140203;-0.080148; 0.025952;,
       0.126673;-0.078824; 0.041520;,
       0.113853;-0.086994; 0.029422;,
       0.121905;-0.087992; 0.017061;,
       0.126673;-0.078824; 0.041520;,
       0.078700;-0.082323; 0.042098;,
       0.088880;-0.086777; 0.035482;,
       0.113853;-0.086994; 0.029422;,
       0.077495;-0.071956;-0.049892;,
       0.125468;-0.068457;-0.050469;,
       0.112896;-0.078763;-0.043622;,
       0.087936;-0.077924;-0.046793;,
       0.144057;-0.078173;-0.004524;,
       0.140203;-0.080148; 0.025952;,
       0.121905;-0.087992; 0.017061;,
       0.124965;-0.086424;-0.007139;,
       0.125468;-0.068457;-0.050469;,
       0.140285;-0.076045;-0.035000;,
       0.121971;-0.084734;-0.031338;,
       0.112896;-0.078763;-0.043622;,
       0.122810;-0.000494; 0.054249;,
       0.130642;-0.000476; 0.051641;,
       0.132580;-0.000246; 0.063040;,
       0.126709;-0.000260; 0.064995;,
       0.126709;-0.000260; 0.064995;,
       0.132580;-0.000246; 0.063040;,
       0.132704; 0.005926; 0.063456;,
       0.126833; 0.005912; 0.065411;,
       0.126833; 0.005912; 0.065411;,
       0.132704; 0.005926; 0.063456;,
       0.130807; 0.007758; 0.052196;,
       0.122976; 0.007740; 0.054804;,
       0.122976; 0.007740; 0.054804;,
       0.130807; 0.007758; 0.052196;,
       0.130642;-0.000476; 0.051641;,
       0.122810;-0.000494; 0.054249;,
       0.126709;-0.000260; 0.064995;,
       0.126833; 0.005912; 0.065411;,
       0.122976; 0.007740; 0.054804;,
       0.122810;-0.000494; 0.054249;,
       0.132704; 0.005926; 0.063456;,
       0.132580;-0.000246; 0.063040;,
       0.130642;-0.000476; 0.051641;,
       0.130807; 0.007758; 0.052196;;
      151;
      4;3,2,1,0;,
      4;7,6,5,4;,
      4;11,10,9,8;,
      4;15,14,13,12;,
      4;19,18,17,16;,
      4;23,22,21,20;,
      4;27,26,25,24;,
      4;31,30,29,28;,
      4;35,34,33,32;,
      4;39,38,37,36;,
      4;43,42,41,40;,
      4;47,46,45,44;,
      4;51,50,49,48;,
      4;55,54,53,52;,
      4;59,58,57,56;,
      4;63,62,61,60;,
      4;67,66,65,64;,
      4;71,70,69,68;,
      4;75,74,73,72;,
      4;79,78,77,76;,
      4;83,82,81,80;,
      4;87,86,85,84;,
      4;91,90,89,88;,
      4;95,94,93,92;,
      4;99,98,97,96;,
      4;103,102,101,100;,
      4;107,106,105,104;,
      4;111,110,109,108;,
      4;115,114,113,112;,
      5;120,119,118,117,116;,
      4;124,123,122,121;,
      4;128,127,126,125;,
      4;132,131,130,129;,
      5;137,136,135,134,133;,
      4;141,140,139,138;,
      4;145,144,143,142;,
      4;149,148,147,146;,
      4;153,152,151,150;,
      4;157,156,155,154;,
      4;161,160,159,158;,
      4;165,164,163,162;,
      4;169,168,167,166;,
      4;173,172,171,170;,
      4;177,176,175,174;,
      4;181,180,179,178;,
      4;185,184,183,182;,
      4;189,188,187,186;,
      4;193,192,191,190;,
      4;197,196,195,194;,
      4;201,200,199,198;,
      4;205,204,203,202;,
      4;209,208,207,206;,
      4;213,212,211,210;,
      4;217,216,215,214;,
      4;221,220,219,218;,
      4;225,224,223,222;,
      4;229,228,227,226;,
      4;233,232,231,230;,
      4;237,236,235,234;,
      4;241,240,239,238;,
      4;245,244,243,242;,
      4;249,248,247,246;,
      4;253,252,251,250;,
      4;257,256,255,254;,
      4;261,260,259,258;,
      4;265,264,263,262;,
      4;269,268,267,266;,
      4;273,272,271,270;,
      4;277,276,275,274;,
      4;281,280,279,278;,
      4;285,284,283,282;,
      4;289,288,287,286;,
      4;293,292,291,290;,
      4;297,296,295,294;,
      4;301,300,299,298;,
      4;305,304,303,302;,
      4;309,308,307,306;,
      4;313,312,311,310;,
      4;317,316,315,314;,
      4;321,320,319,318;,
      4;325,324,323,322;,
      5;330,329,328,327,326;,
      4;334,333,332,331;,
      4;338,337,336,335;,
      4;342,341,340,339;,
      5;347,346,345,344,343;,
      4;351,350,349,348;,
      4;355,354,353,352;,
      4;359,358,357,356;,
      4;363,362,361,360;,
      4;367,366,365,364;,
      4;371,370,369,368;,
      4;375,374,373,372;,
      4;379,378,377,376;,
      4;383,382,381,380;,
      4;387,386,385,384;,
      4;391,390,389,388;,
      4;395,394,393,392;,
      4;399,398,397,396;,
      4;403,402,401,400;,
      4;407,406,405,404;,
      4;411,410,409,408;,
      4;415,414,413,412;,
      4;419,418,417,416;,
      4;423,422,421,420;,
      4;427,426,425,424;,
      4;431,430,429,428;,
      4;435,434,433,432;,
      4;439,438,437,436;,
      4;443,442,441,440;,
      4;447,446,445,444;,
      4;451,450,449,448;,
      4;455,454,453,452;,
      4;459,458,457,456;,
      4;463,462,461,460;,
      4;467,466,465,464;,
      4;471,470,469,468;,
      4;475,474,473,472;,
      4;479,478,477,476;,
      4;483,482,481,480;,
      4;487,486,485,484;,
      4;491,490,489,488;,
      4;495,494,493,492;,
      4;499,498,497,496;,
      4;503,502,501,500;,
      4;507,506,505,504;,
      4;511,510,509,508;,
      4;515,514,513,512;,
      4;519,518,517,516;,
      4;523,522,521,520;,
      4;527,526,525,524;,
      4;531,530,529,528;,
      4;535,534,533,532;,
      4;539,538,537,536;,
      4;543,542,541,540;,
      4;547,546,545,544;,
      4;551,550,549,548;,
      4;555,554,553,552;,
      4;559,558,557,556;,
      4;563,562,561,560;,
      4;567,566,565,564;,
      4;571,570,569,568;,
      4;575,574,573,572;,
      4;579,578,577,576;,
      4;583,582,581,580;,
      4;587,586,585,584;,
      4;591,590,589,588;,
      4;595,594,593,592;,
      4;599,598,597,596;,
      4;603,602,601,600;,
      4;607,606,605,604;;
      MeshNormals { // Cube_002 normals
        608;
         0.335704;-0.644337; 0.687063;,
        -0.763268;-0.603168; 0.231452;,
        -0.295755;-0.493332;-0.817988;,
         0.734428;-0.551622;-0.395306;,
         0.734428;-0.551622;-0.395306;,
        -0.295755;-0.493332;-0.817988;,
        -0.273598; 0.609943;-0.743706;,
         0.756981; 0.569811;-0.319803;,
         0.756981; 0.569811;-0.319803;,
        -0.273598; 0.609943;-0.743706;,
        -0.739158; 0.596728; 0.312265;,
         0.359355; 0.532517; 0.766320;,
         0.359355; 0.532517; 0.766320;,
        -0.739158; 0.596728; 0.312265;,
        -0.763268;-0.603168; 0.231452;,
         0.335704;-0.644337; 0.687063;,
         0.734428;-0.551622;-0.395306;,
         0.756981; 0.569811;-0.319803;,
         0.359355; 0.532517; 0.766320;,
         0.335704;-0.644337; 0.687063;,
        -0.273598; 0.609943;-0.743706;,
        -0.295755;-0.493332;-0.817988;,
        -0.763268;-0.603168; 0.231452;,
        -0.739158; 0.596728; 0.312265;,
         0.243355; 0.847163; 0.472274;,
        -0.164586;-0.886196; 0.433058;,
         0.572375;-0.780084; 0.252602;,
         0.772851; 0.482742; 0.411847;,
         0.856899; 0.316630;-0.406720;,
         0.609149;-0.425001; 0.669546;,
         0.684164;-0.174322; 0.708152;,
         0.728477; 0.276315;-0.626850;,
        -0.513077;-0.610920; 0.602893;,
        -0.195837;-0.917539; 0.346049;,
        -0.164586;-0.886196; 0.433058;,
        -0.330882;-0.838832; 0.432234;,
        -0.782098;-0.606006; 0.145054;,
        -0.648885; 0.669149;-0.362163;,
        -0.629505; 0.354534;-0.691366;,
        -0.805536;-0.433515; 0.403882;,
        -0.427717; 0.888852;-0.164129;,
         0.245430; 0.880917;-0.404614;,
         0.189520; 0.536729;-0.822169;,
         0.013550; 0.531480;-0.846950;,
        -0.330882;-0.838832; 0.432234;,
        -0.164586;-0.886196; 0.433058;,
         0.243355; 0.847163; 0.472274;,
         0.011444; 0.854579; 0.519120;,
         0.816218; 0.542772;-0.197821;,
         0.622456;-0.699820; 0.350322;,
         0.609149;-0.425001; 0.669546;,
         0.856899; 0.316630;-0.406720;,
         0.002655;-0.535813; 0.844325;,
        -0.805536;-0.433515; 0.403882;,
        -0.516282;-0.792291; 0.325114;,
        -0.018403;-0.917142; 0.398114;,
        -0.195837;-0.917539; 0.346049;,
        -0.172124;-0.549303; 0.817682;,
         0.609149;-0.425001; 0.669546;,
         0.622456;-0.699820; 0.350322;,
         0.245430; 0.880917;-0.404614;,
         0.243355; 0.847163; 0.472274;,
         0.772851; 0.482742; 0.411847;,
         0.816218; 0.542772;-0.197821;,
        -0.007965;-0.398022;-0.917325;,
        -0.131657;-0.093966;-0.986816;,
        -0.445479;-0.647175; 0.618580;,
        -0.018403;-0.917142; 0.398114;,
        -0.131657;-0.093966;-0.986816;,
         0.728477; 0.276315;-0.626850;,
         0.693075;-0.272866;-0.667196;,
        -0.383099;-0.364360;-0.848781;,
         0.609149;-0.425001; 0.669546;,
        -0.172124;-0.549303; 0.817682;,
        -0.445479;-0.647175; 0.618580;,
         0.684164;-0.174322; 0.708152;,
        -0.805536;-0.433515; 0.403882;,
        -0.629505; 0.354534;-0.691366;,
        -0.523759;-0.360912;-0.771599;,
        -0.516282;-0.792291; 0.325114;,
         0.013550; 0.531480;-0.846950;,
         0.189520; 0.536729;-0.822169;,
        -0.131657;-0.093966;-0.986816;,
        -0.007965;-0.398022;-0.917325;,
         0.189520; 0.536729;-0.822169;,
         0.856899; 0.316630;-0.406720;,
         0.728477; 0.276315;-0.626850;,
        -0.131657;-0.093966;-0.986816;,
        -0.451491;-0.867672; 0.207984;,
        -0.383099;-0.364360;-0.848781;,
         0.693075;-0.272866;-0.667196;,
         0.658010;-0.642537; 0.392560;,
         0.684164;-0.174322; 0.708152;,
        -0.445479;-0.647175; 0.618580;,
        -0.451491;-0.867672; 0.207984;,
         0.658010;-0.642537; 0.392560;,
         0.728477; 0.276315;-0.626850;,
         0.684164;-0.174322; 0.708152;,
         0.658010;-0.642537; 0.392560;,
         0.693075;-0.272866;-0.667196;,
        -0.445479;-0.647175; 0.618580;,
        -0.131657;-0.093966;-0.986816;,
        -0.383099;-0.364360;-0.848781;,
        -0.451491;-0.867672; 0.207984;,
         0.189520; 0.536729;-0.822169;,
         0.245430; 0.880917;-0.404614;,
         0.816218; 0.542772;-0.197821;,
         0.856899; 0.316630;-0.406720;,
        -0.164586;-0.886196; 0.433058;,
        -0.195837;-0.917539; 0.346049;,
         0.622456;-0.699820; 0.350322;,
         0.572375;-0.780084; 0.252602;,
         0.772851; 0.482742; 0.411847;,
         0.572375;-0.780084; 0.252602;,
         0.622456;-0.699820; 0.350322;,
         0.816218; 0.542772;-0.197821;,
         0.011444; 0.854579; 0.519120;,
         0.243355; 0.847163; 0.472274;,
         0.245430; 0.880917;-0.404614;,
        -0.427717; 0.888852;-0.164129;,
        -0.515976; 0.751274;-0.411451;,
        -0.723289;-0.629933; 0.282785;,
        -0.606067; 0.673574; 0.422987;,
        -0.648885; 0.669149;-0.362163;,
        -0.782098;-0.606006; 0.145054;,
        -0.024781;-0.535905; 0.843867;,
        -0.172124;-0.549303; 0.817682;,
        -0.195837;-0.917539; 0.346049;,
        -0.513077;-0.610920; 0.602893;,
        -0.805536;-0.433515; 0.403882;,
         0.002655;-0.535813; 0.844325;,
         0.501358;-0.601337; 0.622059;,
        -0.782098;-0.606006; 0.145054;,
        -0.606067; 0.673574; 0.422987;,
         0.024873; 0.854305; 0.519120;,
         0.542985; 0.752586;-0.372509;,
         0.480392; 0.865810;-0.139836;,
        -0.648885; 0.669149;-0.362163;,
        -0.629505; 0.354534;-0.691366;,
         0.005829; 0.531541;-0.846980;,
        -0.007965;-0.398022;-0.917325;,
        -0.523759;-0.360912;-0.771599;,
        -0.523759;-0.360912;-0.771599;,
        -0.007965;-0.398022;-0.917325;,
        -0.018403;-0.917142; 0.398114;,
        -0.516282;-0.792291; 0.325114;,
        -0.010529;-0.528550; 0.848811;,
         0.002655;-0.535813; 0.844325;,
        -0.018403;-0.917142; 0.398114;,
        -0.018403;-0.917142; 0.398114;,
        -0.723289;-0.629933; 0.282785;,
         0.288217;-0.856746; 0.427625;,
         0.024873; 0.854305; 0.519120;,
        -0.606067; 0.673574; 0.422987;,
        -0.648885; 0.669149;-0.362163;,
         0.480392; 0.865810;-0.139836;,
         0.005829; 0.531541;-0.846980;,
        -0.629505; 0.354534;-0.691366;,
        -0.782098;-0.606006; 0.145054;,
         0.501358;-0.601337; 0.622059;,
         0.288217;-0.856746; 0.427625;,
        -0.723289;-0.629933; 0.282785;,
        -0.172124;-0.549303; 0.817682;,
        -0.024781;-0.535905; 0.843867;,
        -0.018403;-0.917142; 0.398114;,
        -0.445479;-0.647175; 0.618580;,
        -0.010529;-0.528550; 0.848811;,
        -0.024781;-0.535905; 0.843867;,
        -0.513077;-0.610920; 0.602893;,
         0.008271;-0.374523; 0.927152;,
         0.017273; 0.855831; 0.516953;,
         0.011444; 0.854579; 0.519120;,
        -0.515976; 0.751274;-0.411451;,
         0.009674; 0.422590;-0.906247;,
         0.010590; 0.531449;-0.846980;,
         0.013550; 0.531480;-0.846950;,
        -0.007965;-0.398022;-0.917325;,
        -0.007965;-0.398022;-0.917325;,
        -0.007965;-0.398022;-0.917325;,
        -0.007965;-0.398022;-0.917325;,
        -0.018403;-0.917142; 0.398114;,
        -0.018403;-0.917142; 0.398114;,
        -0.013215;-0.857692; 0.513962;,
        -0.330882;-0.838832; 0.432234;,
         0.011444; 0.854579; 0.519120;,
         0.017273; 0.855831; 0.516953;,
         0.035890; 0.998779; 0.033784;,
        -0.427717; 0.888852;-0.164129;,
         0.013550; 0.531480;-0.846950;,
         0.010590; 0.531449;-0.846980;,
         0.035890; 0.998779; 0.033784;,
         0.008271;-0.374523; 0.927152;,
        -0.513077;-0.610920; 0.602893;,
        -0.427717; 0.888852;-0.164129;,
        -0.013215;-0.857692; 0.513962;,
         0.009674; 0.422590;-0.906247;,
        -0.515976; 0.751274;-0.411451;,
        -0.330882;-0.838832; 0.432234;,
         0.542985; 0.752586;-0.372509;,
         0.288217;-0.856746; 0.427625;,
         0.501358;-0.601337; 0.622059;,
         0.480392; 0.865810;-0.139836;,
        -0.515976; 0.751274;-0.411451;,
        -0.427717; 0.888852;-0.164129;,
        -0.513077;-0.610920; 0.602893;,
        -0.330882;-0.838832; 0.432234;,
         0.480392; 0.865810;-0.139836;,
         0.501358;-0.601337; 0.622059;,
         0.008271;-0.374523; 0.927152;,
         0.035890; 0.998779; 0.033784;,
         0.480392; 0.865810;-0.139836;,
         0.035890; 0.998779; 0.033784;,
         0.010590; 0.531449;-0.846980;,
         0.005829; 0.531541;-0.846980;,
        -0.007965;-0.398022;-0.917325;,
        -0.007965;-0.398022;-0.917325;,
        -0.018403;-0.917142; 0.398114;,
        -0.018403;-0.917142; 0.398114;,
         0.005829; 0.531541;-0.846980;,
         0.010590; 0.531449;-0.846980;,
        -0.007965;-0.398022;-0.917325;,
        -0.007965;-0.398022;-0.917325;,
         0.002655;-0.535813; 0.844325;,
        -0.010529;-0.528550; 0.848811;,
         0.008271;-0.374523; 0.927152;,
         0.501358;-0.601337; 0.622059;,
        -0.024781;-0.535905; 0.843867;,
        -0.010529;-0.528550; 0.848811;,
        -0.018403;-0.917142; 0.398114;,
        -0.018403;-0.917142; 0.398114;,
         0.288217;-0.856746; 0.427625;,
         0.542985; 0.752586;-0.372509;,
         0.009674; 0.422590;-0.906247;,
        -0.013215;-0.857692; 0.513962;,
         0.288217;-0.856746; 0.427625;,
        -0.013215;-0.857692; 0.513962;,
         0.017273; 0.855831; 0.516953;,
         0.024873; 0.854305; 0.519120;,
         0.024873; 0.854305; 0.519120;,
         0.017273; 0.855831; 0.516953;,
         0.009674; 0.422590;-0.906247;,
         0.542985; 0.752586;-0.372509;,
         0.855739; 0.259102; 0.447798;,
         0.726707; 0.189673; 0.660176;,
         0.686117;-0.077975;-0.723289;,
         0.611011;-0.331523;-0.718802;,
        -0.511338;-0.524522;-0.680715;,
        -0.330882;-0.838832; 0.432234;,
        -0.164586;-0.886196; 0.433058;,
        -0.194739;-0.862819;-0.466414;,
        -0.781579;-0.580950;-0.227088;,
        -0.804376;-0.375347;-0.460494;,
        -0.631428; 0.258766; 0.730949;,
        -0.649983; 0.614673; 0.446822;,
        -0.428327; 0.858913; 0.280648;,
         0.011170; 0.413160; 0.910581;,
         0.187201; 0.421644; 0.887204;,
         0.244179; 0.818690; 0.519669;,
         0.815607; 0.511216; 0.270974;,
         0.855739; 0.259102; 0.447798;,
         0.611011;-0.331523;-0.718802;,
         0.623524;-0.646657;-0.439283;,
         0.005005;-0.417798;-0.908505;,
        -0.017182;-0.855495;-0.517502;,
        -0.515275;-0.741447;-0.429762;,
        -0.804376;-0.375347;-0.460494;,
        -0.194739;-0.862819;-0.466414;,
         0.623524;-0.646657;-0.439283;,
         0.611011;-0.331523;-0.718802;,
        -0.169805;-0.434706;-0.884396;,
         0.244179; 0.818690; 0.519669;,
         0.815607; 0.511216; 0.270974;,
         0.772851; 0.482742; 0.411847;,
         0.243355; 0.847163; 0.472274;,
        -0.010376;-0.517380; 0.855678;,
        -0.017182;-0.855495;-0.517502;,
        -0.443709;-0.558367;-0.700949;,
        -0.134312;-0.225379; 0.964965;,
        -0.134312;-0.225379; 0.964965;,
        -0.385296;-0.474776; 0.791253;,
         0.691336;-0.359966; 0.626453;,
         0.726707; 0.189673; 0.660176;,
         0.611011;-0.331523;-0.718802;,
         0.686117;-0.077975;-0.723289;,
        -0.443709;-0.558367;-0.700949;,
        -0.169805;-0.434706;-0.884396;,
        -0.804376;-0.375347;-0.460494;,
        -0.515275;-0.741447;-0.429762;,
        -0.525773;-0.460952; 0.714866;,
        -0.631428; 0.258766; 0.730949;,
         0.011170; 0.413160; 0.910581;,
        -0.010376;-0.517380; 0.855678;,
        -0.134312;-0.225379; 0.964965;,
         0.187201; 0.421644; 0.887204;,
         0.187201; 0.421644; 0.887204;,
        -0.134312;-0.225379; 0.964965;,
         0.726707; 0.189673; 0.660176;,
         0.855739; 0.259102; 0.447798;,
        -0.450789;-0.831874;-0.323618;,
         0.659200;-0.584246;-0.473373;,
         0.691336;-0.359966; 0.626453;,
        -0.385296;-0.474776; 0.791253;,
         0.686117;-0.077975;-0.723289;,
         0.659200;-0.584246;-0.473373;,
        -0.450789;-0.831874;-0.323618;,
        -0.443709;-0.558367;-0.700949;,
         0.726707; 0.189673; 0.660176;,
         0.691336;-0.359966; 0.626453;,
         0.659200;-0.584246;-0.473373;,
         0.686117;-0.077975;-0.723289;,
        -0.443709;-0.558367;-0.700949;,
        -0.450789;-0.831874;-0.323618;,
        -0.385296;-0.474776; 0.791253;,
        -0.134312;-0.225379; 0.964965;,
         0.187201; 0.421644; 0.887204;,
         0.855739; 0.259102; 0.447798;,
         0.815607; 0.511216; 0.270974;,
         0.244179; 0.818690; 0.519669;,
        -0.164586;-0.886196; 0.433058;,
         0.572375;-0.780084; 0.252602;,
         0.623524;-0.646657;-0.439283;,
        -0.194739;-0.862819;-0.466414;,
         0.772851; 0.482742; 0.411847;,
         0.815607; 0.511216; 0.270974;,
         0.623524;-0.646657;-0.439283;,
         0.572375;-0.780084; 0.252602;,
         0.011444; 0.854579; 0.519120;,
        -0.517228; 0.689444; 0.507035;,
        -0.428327; 0.858913; 0.280648;,
         0.244179; 0.818690; 0.519669;,
         0.243355; 0.847163; 0.472274;,
        -0.723289;-0.629933; 0.282785;,
        -0.781579;-0.580950;-0.227088;,
        -0.649983; 0.614673; 0.446822;,
        -0.606067; 0.673574; 0.422987;,
        -0.022431;-0.417982;-0.908170;,
        -0.511338;-0.524522;-0.680715;,
        -0.194739;-0.862819;-0.466414;,
        -0.169805;-0.434706;-0.884396;,
        -0.804376;-0.375347;-0.460494;,
        -0.781579;-0.580950;-0.227088;,
         0.503159;-0.512619;-0.695700;,
         0.005005;-0.417798;-0.908505;,
        -0.606067; 0.673574; 0.422987;,
        -0.649983; 0.614673; 0.446822;,
         0.479873; 0.839167; 0.255928;,
         0.541826; 0.695761; 0.471450;,
         0.024873; 0.854305; 0.519120;,
        -0.631428; 0.258766; 0.730949;,
        -0.525773;-0.460952; 0.714866;,
        -0.010376;-0.517380; 0.855678;,
         0.003449; 0.413221; 0.910611;,
        -0.525773;-0.460952; 0.714866;,
        -0.515275;-0.741447;-0.429762;,
        -0.017182;-0.855495;-0.517502;,
        -0.010376;-0.517380; 0.855678;,
        -0.008148;-0.410016;-0.912015;,
        -0.017182;-0.855495;-0.517502;,
        -0.017182;-0.855495;-0.517502;,
         0.005005;-0.417798;-0.908505;,
        -0.649983; 0.614673; 0.446822;,
        -0.631428; 0.258766; 0.730949;,
         0.003449; 0.413221; 0.910611;,
         0.479873; 0.839167; 0.255928;,
        -0.781579;-0.580950;-0.227088;,
        -0.723289;-0.629933; 0.282785;,
         0.288217;-0.856746; 0.427625;,
         0.503159;-0.512619;-0.695700;,
        -0.169805;-0.434706;-0.884396;,
        -0.443709;-0.558367;-0.700949;,
        -0.017182;-0.855495;-0.517502;,
        -0.022431;-0.417982;-0.908170;,
        -0.008148;-0.410016;-0.912015;,
         0.010834;-0.246895;-0.968963;,
        -0.511338;-0.524522;-0.680715;,
        -0.022431;-0.417982;-0.908170;,
         0.017273; 0.855831; 0.516953;,
         0.007141; 0.297311; 0.954741;,
        -0.517228; 0.689444; 0.507035;,
         0.011444; 0.854579; 0.519120;,
         0.008209; 0.413129; 0.910611;,
        -0.010376;-0.517380; 0.855678;,
        -0.010376;-0.517380; 0.855678;,
         0.011170; 0.413160; 0.910581;,
        -0.010376;-0.517380; 0.855678;,
        -0.017182;-0.855495;-0.517502;,
        -0.017182;-0.855495;-0.517502;,
        -0.010376;-0.517380; 0.855678;,
         0.035798; 0.994293; 0.100467;,
         0.008209; 0.413129; 0.910611;,
         0.011170; 0.413160; 0.910581;,
        -0.428327; 0.858913; 0.280648;,
         0.035798; 0.994293; 0.100467;,
        -0.428327; 0.858913; 0.280648;,
        -0.511338;-0.524522;-0.680715;,
         0.010834;-0.246895;-0.968963;,
        -0.013215;-0.857692; 0.513962;,
        -0.330882;-0.838832; 0.432234;,
        -0.517228; 0.689444; 0.507035;,
         0.007141; 0.297311; 0.954741;,
         0.541826; 0.695761; 0.471450;,
         0.479873; 0.839167; 0.255928;,
         0.503159;-0.512619;-0.695700;,
         0.288217;-0.856746; 0.427625;,
        -0.517228; 0.689444; 0.507035;,
        -0.330882;-0.838832; 0.432234;,
        -0.511338;-0.524522;-0.680715;,
        -0.428327; 0.858913; 0.280648;,
         0.479873; 0.839167; 0.255928;,
         0.035798; 0.994293; 0.100467;,
         0.010834;-0.246895;-0.968963;,
         0.503159;-0.512619;-0.695700;,
         0.479873; 0.839167; 0.255928;,
         0.003449; 0.413221; 0.910611;,
         0.008209; 0.413129; 0.910611;,
         0.035798; 0.994293; 0.100467;,
        -0.010376;-0.517380; 0.855678;,
        -0.017182;-0.855495;-0.517502;,
        -0.017182;-0.855495;-0.517502;,
        -0.010376;-0.517380; 0.855678;,
         0.003449; 0.413221; 0.910611;,
        -0.010376;-0.517380; 0.855678;,
        -0.010376;-0.517380; 0.855678;,
         0.008209; 0.413129; 0.910611;,
         0.005005;-0.417798;-0.908505;,
         0.503159;-0.512619;-0.695700;,
         0.010834;-0.246895;-0.968963;,
        -0.008148;-0.410016;-0.912015;,
        -0.022431;-0.417982;-0.908170;,
        -0.017182;-0.855495;-0.517502;,
        -0.017182;-0.855495;-0.517502;,
        -0.008148;-0.410016;-0.912015;,
         0.288217;-0.856746; 0.427625;,
        -0.013215;-0.857692; 0.513962;,
         0.007141; 0.297311; 0.954741;,
         0.541826; 0.695761; 0.471450;,
         0.024873; 0.854305; 0.519120;,
         0.541826; 0.695761; 0.471450;,
         0.007141; 0.297311; 0.954741;,
         0.017273; 0.855831; 0.516953;,
         0.998413;-0.056001;-0.002380;,
         0.973876; 0.225593; 0.025544;,
         0.768120; 0.224158; 0.599750;,
         0.817377;-0.101566; 0.567064;,
         0.810205;-0.023225;-0.585620;,
         0.785607; 0.252754;-0.564714;,
         0.973876; 0.225593; 0.025544;,
         0.998413;-0.056001;-0.002380;,
         0.817377;-0.101566; 0.567064;,
         0.768120; 0.224158; 0.599750;,
         0.386853; 0.086154; 0.918088;,
         0.342998;-0.110050; 0.932859;,
         0.810205;-0.023225;-0.585620;,
         0.826472;-0.318430;-0.464217;,
         0.318003;-0.231483;-0.919370;,
         0.305582; 0.031739;-0.951628;,
         0.973876; 0.225593; 0.025544;,
         0.785607; 0.252754;-0.564714;,
         0.726798; 0.447401;-0.521104;,
         0.895657; 0.444594; 0.011017;,
         0.386853; 0.086154; 0.918088;,
         0.768120; 0.224158; 0.599750;,
         0.762871; 0.468001; 0.446028;,
         0.434431; 0.400250; 0.806848;,
         0.768120; 0.224158; 0.599750;,
         0.973876; 0.225593; 0.025544;,
         0.895657; 0.444594; 0.011017;,
         0.762871; 0.468001; 0.446028;,
         0.785607; 0.252754;-0.564714;,
         0.353191; 0.196295;-0.914701;,
         0.394757; 0.384014;-0.834651;,
         0.726798; 0.447401;-0.521104;,
         0.785607; 0.252754;-0.564714;,
         0.810205;-0.023225;-0.585620;,
         0.305582; 0.031739;-0.951628;,
         0.353191; 0.196295;-0.914701;,
         0.840907;-0.363323; 0.401013;,
         0.817377;-0.101566; 0.567064;,
         0.342998;-0.110050; 0.932859;,
         0.363445;-0.337138; 0.868465;,
         0.826472;-0.318430;-0.464217;,
         0.810205;-0.023225;-0.585620;,
         0.998413;-0.056001;-0.002380;,
         0.926511;-0.375347;-0.025239;,
         0.926511;-0.375347;-0.025239;,
         0.998413;-0.056001;-0.002380;,
         0.817377;-0.101566; 0.567064;,
         0.840907;-0.363323; 0.401013;,
         0.840907;-0.363323; 0.401013;,
         0.363445;-0.337138; 0.868465;,
         0.344829;-0.677847; 0.649281;,
         0.591021;-0.741447; 0.317667;,
         0.318003;-0.231483;-0.919370;,
         0.826472;-0.318430;-0.464217;,
         0.565508;-0.692862;-0.447279;,
         0.306803;-0.525834;-0.793298;,
         0.926511;-0.375347;-0.025239;,
         0.840907;-0.363323; 0.401013;,
         0.591021;-0.741447; 0.317667;,
         0.620380;-0.782769;-0.048830;,
         0.826472;-0.318430;-0.464217;,
         0.926511;-0.375347;-0.025239;,
         0.620380;-0.782769;-0.048830;,
         0.565508;-0.692862;-0.447279;,
         0.353191; 0.196295;-0.914701;,
         0.305582; 0.031739;-0.951628;,
         0.102298; 0.037111;-0.994049;,
         0.045595; 0.152959;-0.987152;,
         0.344829;-0.677847; 0.649281;,
         0.363445;-0.337138; 0.868465;,
         0.130406;-0.247658; 0.960021;,
         0.058138;-0.607379; 0.792230;,
         0.305582; 0.031739;-0.951628;,
         0.318003;-0.231483;-0.919370;,
         0.061434;-0.125217;-0.990204;,
         0.102298; 0.037111;-0.994049;,
         0.363445;-0.337138; 0.868465;,
         0.342998;-0.110050; 0.932859;,
         0.134709;-0.097903; 0.986023;,
         0.130406;-0.247658; 0.960021;,
         0.318003;-0.231483;-0.919370;,
         0.306803;-0.525834;-0.793298;,
         0.021516;-0.458907;-0.888180;,
         0.061434;-0.125217;-0.990204;,
         0.342998;-0.110050; 0.932859;,
         0.386853; 0.086154; 0.918088;,
         0.083071; 0.002686; 0.996521;,
         0.134709;-0.097903; 0.986023;,
         0.119999;-0.732566;-0.670003;,
         0.247261;-0.912534;-0.325755;,
         0.114963;-0.948851;-0.294015;,
         0.063082;-0.846919;-0.527940;,
         0.284555;-0.956389;-0.065615;,
         0.249153;-0.964141; 0.091098;,
         0.121433;-0.991882; 0.036897;,
         0.141087;-0.987701;-0.067141;,
         0.045259;-0.667135;-0.743553;,
         0.119999;-0.732566;-0.670003;,
         0.063082;-0.846919;-0.527940;,
         0.038423;-0.809839;-0.585376;,
         0.139653;-0.932127; 0.334086;,
         0.058687;-0.900052; 0.431776;,
         0.016572;-0.967162; 0.253578;,
         0.064791;-0.981231; 0.181433;,
         0.249153;-0.964141; 0.091098;,
         0.139653;-0.932127; 0.334086;,
         0.064791;-0.981231; 0.181433;,
         0.121433;-0.991882; 0.036897;,
         0.247261;-0.912534;-0.325755;,
         0.284555;-0.956389;-0.065615;,
         0.141087;-0.987701;-0.067141;,
         0.114963;-0.948851;-0.294015;,
         0.102298; 0.037111;-0.994049;,
         0.061434;-0.125217;-0.990204;,
         0.173742; 0.026673;-0.984405;,
         0.173742; 0.026673;-0.984405;,
         0.130406;-0.247658; 0.960021;,
         0.134709;-0.097903; 0.986023;,
         0.272988;-0.137059; 0.952178;,
         0.272988;-0.137059; 0.952178;,
         0.565508;-0.692862;-0.447279;,
         0.620380;-0.782769;-0.048830;,
         0.284555;-0.956389;-0.065615;,
         0.247261;-0.912534;-0.325755;,
         0.591021;-0.741447; 0.317667;,
         0.344829;-0.677847; 0.649281;,
         0.139653;-0.932127; 0.334086;,
         0.249153;-0.964141; 0.091098;,
         0.344829;-0.677847; 0.649281;,
         0.058138;-0.607379; 0.792230;,
         0.058687;-0.900052; 0.431776;,
         0.139653;-0.932127; 0.334086;,
         0.021516;-0.458907;-0.888180;,
         0.306803;-0.525834;-0.793298;,
         0.119999;-0.732566;-0.670003;,
         0.045259;-0.667135;-0.743553;,
         0.620380;-0.782769;-0.048830;,
         0.591021;-0.741447; 0.317667;,
         0.249153;-0.964141; 0.091098;,
         0.284555;-0.956389;-0.065615;,
         0.306803;-0.525834;-0.793298;,
         0.565508;-0.692862;-0.447279;,
         0.247261;-0.912534;-0.325755;,
         0.119999;-0.732566;-0.670003;,
        -0.735374;-0.565111;-0.373943;,
         0.412366;-0.557054;-0.720817;,
         0.694235;-0.597491; 0.401257;,
        -0.363506;-0.591876; 0.719382;,
        -0.363506;-0.591876; 0.719382;,
         0.694235;-0.597491; 0.401257;,
         0.716483; 0.510086; 0.475845;,
        -0.341502; 0.504166; 0.793176;,
        -0.341502; 0.504166; 0.793176;,
         0.716483; 0.510086; 0.475845;,
         0.436232; 0.631703;-0.640767;,
        -0.711173; 0.639088;-0.292856;,
        -0.711173; 0.639088;-0.292856;,
         0.436232; 0.631703;-0.640767;,
         0.412366;-0.557054;-0.720817;,
        -0.735374;-0.565111;-0.373943;,
        -0.363506;-0.591876; 0.719382;,
        -0.341502; 0.504166; 0.793176;,
        -0.711173; 0.639088;-0.292856;,
        -0.735374;-0.565111;-0.373943;,
         0.716483; 0.510086; 0.475845;,
         0.694235;-0.597491; 0.401257;,
         0.412366;-0.557054;-0.720817;,
         0.436232; 0.631703;-0.640767;;
        151;
        4;3,2,1,0;,
        4;7,6,5,4;,
        4;11,10,9,8;,
        4;15,14,13,12;,
        4;19,18,17,16;,
        4;23,22,21,20;,
        4;27,26,25,24;,
        4;31,30,29,28;,
        4;35,34,33,32;,
        4;39,38,37,36;,
        4;43,42,41,40;,
        4;47,46,45,44;,
        4;51,50,49,48;,
        4;55,54,53,52;,
        4;59,58,57,56;,
        4;63,62,61,60;,
        4;67,66,65,64;,
        4;71,70,69,68;,
        4;75,74,73,72;,
        4;79,78,77,76;,
        4;83,82,81,80;,
        4;87,86,85,84;,
        4;91,90,89,88;,
        4;95,94,93,92;,
        4;99,98,97,96;,
        4;103,102,101,100;,
        4;107,106,105,104;,
        4;111,110,109,108;,
        4;115,114,113,112;,
        5;120,119,118,117,116;,
        4;124,123,122,121;,
        4;128,127,126,125;,
        4;132,131,130,129;,
        5;137,136,135,134,133;,
        4;141,140,139,138;,
        4;145,144,143,142;,
        4;149,148,147,146;,
        4;153,152,151,150;,
        4;157,156,155,154;,
        4;161,160,159,158;,
        4;165,164,163,162;,
        4;169,168,167,166;,
        4;173,172,171,170;,
        4;177,176,175,174;,
        4;181,180,179,178;,
        4;185,184,183,182;,
        4;189,188,187,186;,
        4;193,192,191,190;,
        4;197,196,195,194;,
        4;201,200,199,198;,
        4;205,204,203,202;,
        4;209,208,207,206;,
        4;213,212,211,210;,
        4;217,216,215,214;,
        4;221,220,219,218;,
        4;225,224,223,222;,
        4;229,228,227,226;,
        4;233,232,231,230;,
        4;237,236,235,234;,
        4;241,240,239,238;,
        4;245,244,243,242;,
        4;249,248,247,246;,
        4;253,252,251,250;,
        4;257,256,255,254;,
        4;261,260,259,258;,
        4;265,264,263,262;,
        4;269,268,267,266;,
        4;273,272,271,270;,
        4;277,276,275,274;,
        4;281,280,279,278;,
        4;285,284,283,282;,
        4;289,288,287,286;,
        4;293,292,291,290;,
        4;297,296,295,294;,
        4;301,300,299,298;,
        4;305,304,303,302;,
        4;309,308,307,306;,
        4;313,312,311,310;,
        4;317,316,315,314;,
        4;321,320,319,318;,
        4;325,324,323,322;,
        5;330,329,328,327,326;,
        4;334,333,332,331;,
        4;338,337,336,335;,
        4;342,341,340,339;,
        5;347,346,345,344,343;,
        4;351,350,349,348;,
        4;355,354,353,352;,
        4;359,358,357,356;,
        4;363,362,361,360;,
        4;367,366,365,364;,
        4;371,370,369,368;,
        4;375,374,373,372;,
        4;379,378,377,376;,
        4;383,382,381,380;,
        4;387,386,385,384;,
        4;391,390,389,388;,
        4;395,394,393,392;,
        4;399,398,397,396;,
        4;403,402,401,400;,
        4;407,406,405,404;,
        4;411,410,409,408;,
        4;415,414,413,412;,
        4;419,418,417,416;,
        4;423,422,421,420;,
        4;427,426,425,424;,
        4;431,430,429,428;,
        4;435,434,433,432;,
        4;439,438,437,436;,
        4;443,442,441,440;,
        4;447,446,445,444;,
        4;451,450,449,448;,
        4;455,454,453,452;,
        4;459,458,457,456;,
        4;463,462,461,460;,
        4;467,466,465,464;,
        4;471,470,469,468;,
        4;475,474,473,472;,
        4;479,478,477,476;,
        4;483,482,481,480;,
        4;487,486,485,484;,
        4;491,490,489,488;,
        4;495,494,493,492;,
        4;499,498,497,496;,
        4;503,502,501,500;,
        4;507,506,505,504;,
        4;511,510,509,508;,
        4;515,514,513,512;,
        4;519,518,517,516;,
        4;523,522,521,520;,
        4;527,526,525,524;,
        4;531,530,529,528;,
        4;535,534,533,532;,
        4;539,538,537,536;,
        4;543,542,541,540;,
        4;547,546,545,544;,
        4;551,550,549,548;,
        4;555,554,553,552;,
        4;559,558,557,556;,
        4;563,562,561,560;,
        4;567,566,565,564;,
        4;571,570,569,568;,
        4;575,574,573,572;,
        4;579,578,577,576;,
        4;583,582,581,580;,
        4;587,586,585,584;,
        4;591,590,589,588;,
        4;595,594,593,592;,
        4;599,598,597,596;,
        4;603,602,601,600;,
        4;607,606,605,604;;
      } // End of Cube_002 normals
      MeshTextureCoords { // Cube_002 UV coordinates
        608;
         0.508903; 0.705140;,
         0.528988; 0.704694;,
         0.528988; 0.672074;,
         0.513933; 0.672408;,
         0.696400; 0.340026;,
         0.681882; 0.339804;,
         0.681882; 0.354050;,
         0.696400; 0.354273;,
         0.568130; 0.714068;,
         0.582998; 0.714068;,
         0.583858; 0.682878;,
         0.564023; 0.682878;,
         0.681882; 0.335047;,
         0.663702; 0.335239;,
         0.663702; 0.354273;,
         0.681882; 0.354081;,
         0.547297; 0.672074;,
         0.532294; 0.672074;,
         0.528988; 0.704157;,
         0.549004; 0.704157;,
         0.587755; 0.714068;,
         0.602738; 0.714068;,
         0.603847; 0.683980;,
         0.583858; 0.683980;,
         0.185989; 0.363198;,
         0.211762; 0.362289;,
         0.222513; 0.325060;,
         0.211095; 0.325463;,
         0.556813; 0.753296;,
         0.559178; 0.761588;,
         0.566978; 0.752513;,
         0.564613; 0.744221;,
         0.703379; 0.457199;,
         0.702866; 0.401163;,
         0.620526; 0.399542;,
         0.620772; 0.456372;,
         0.306570; 0.297213;,
         0.294341; 0.301886;,
         0.332190; 0.341375;,
         0.337266; 0.332040;,
         0.185110; 0.427584;,
         0.185989; 0.372230;,
         0.146173; 0.378393;,
         0.146173; 0.428886;,
         0.212606; 0.419317;,
         0.211762; 0.362289;,
         0.185989; 0.363198;,
         0.188095; 0.416668;,
         0.527404; 0.782680;,
         0.535536; 0.786829;,
         0.559178; 0.761588;,
         0.556813; 0.753296;,
         0.760430; 0.505043;,
         0.802314; 0.658865;,
         0.864967; 0.629224;,
         0.825307; 0.483569;,
         0.703379; 0.413395;,
         0.733434; 0.405898;,
         0.727434; 0.358703;,
         0.705714; 0.369480;,
         0.267385; 0.397137;,
         0.346997; 0.399294;,
         0.354541; 0.361432;,
         0.282785; 0.354557;,
         0.233105; 0.437337;,
         0.233105; 0.388952;,
         0.222513; 0.389144;,
         0.222513; 0.437530;,
         0.077450; 0.379287;,
         0.129226; 0.329869;,
         0.002704; 0.305537;,
         0.000000; 0.354409;,
         0.727434; 0.358703;,
         0.733434; 0.405898;,
         0.799745; 0.389688;,
         0.735235; 0.356789;,
         0.337266; 0.332040;,
         0.332190; 0.341375;,
         0.401600; 0.350489;,
         0.406676; 0.341153;,
         0.146173; 0.428886;,
         0.146173; 0.378393;,
         0.077450; 0.379287;,
         0.077450; 0.427099;,
         0.146173; 0.378393;,
         0.137615; 0.328414;,
         0.129226; 0.329869;,
         0.077450; 0.379287;,
         0.222513; 0.387617;,
         0.228761; 0.388952;,
         0.228761; 0.339853;,
         0.223452; 0.338647;,
         0.735235; 0.356789;,
         0.799745; 0.389688;,
         0.864967; 0.345059;,
         0.848693; 0.300004;,
         0.564613; 0.744221;,
         0.566978; 0.752513;,
         0.693215; 0.722111;,
         0.691785; 0.717098;,
         0.231108; 0.386404;,
         0.241911; 0.388751;,
         0.241911; 0.311512;,
         0.235380; 0.310093;,
         0.146173; 0.378393;,
         0.185989; 0.372230;,
         0.168441; 0.328958;,
         0.137615; 0.328414;,
         0.620526; 0.399542;,
         0.702866; 0.401163;,
         0.690438; 0.359935;,
         0.618390; 0.363490;,
         0.508903; 0.858671;,
         0.520287; 0.858676;,
         0.535536; 0.786829;,
         0.527404; 0.782680;,
         0.346997; 0.452749;,
         0.346997; 0.399294;,
         0.267385; 0.397137;,
         0.267988; 0.453241;,
         0.324054; 0.455541;,
         0.293049; 0.215776;,
         0.267385; 0.215788;,
         0.294341; 0.301886;,
         0.306570; 0.297213;,
         0.746932; 0.455470;,
         0.733434; 0.405898;,
         0.703379; 0.413395;,
         0.717329; 0.468014;,
         0.802314; 0.658865;,
         0.760430; 0.505043;,
         0.728405; 0.508693;,
         0.773814; 0.672074;,
         0.346997; 0.672074;,
         0.346997; 0.506204;,
         0.323765; 0.501756;,
         0.267988; 0.495211;,
         0.267385; 0.664024;,
         0.146173; 0.636056;,
         0.146173; 0.479378;,
         0.077450; 0.474910;,
         0.077450; 0.623269;,
         0.233105; 0.635863;,
         0.233105; 0.485723;,
         0.222513; 0.485916;,
         0.222513; 0.636056;,
         0.753681; 0.480257;,
         0.760430; 0.505043;,
         0.825307; 0.483569;,
         0.818917; 0.460099;,
         0.222513; 0.635147;,
         0.214435; 0.465731;,
         0.190202; 0.470138;,
         0.196740; 0.636056;,
         0.185989; 0.635711;,
         0.185110; 0.469018;,
         0.146173; 0.479378;,
         0.146173; 0.636056;,
         0.702866; 0.667807;,
         0.703379; 0.499131;,
         0.620772; 0.502731;,
         0.620527; 0.672074;,
         0.733434; 0.405898;,
         0.746932; 0.455470;,
         0.812526; 0.436629;,
         0.799745; 0.389688;,
         0.753681; 0.480257;,
         0.746932; 0.455470;,
         0.717329; 0.468014;,
         0.728101; 0.488412;,
         0.346997; 0.479477;,
         0.346997; 0.452749;,
         0.324054; 0.455541;,
         0.333332; 0.478808;,
         0.146173; 0.454132;,
         0.146173; 0.428886;,
         0.077450; 0.427099;,
         0.077450; 0.451004;,
         0.233105; 0.461530;,
         0.233105; 0.437337;,
         0.222513; 0.437530;,
         0.222513; 0.461723;,
         0.214922; 0.442494;,
         0.212606; 0.419317;,
         0.188095; 0.416668;,
         0.189149; 0.443403;,
         0.177349; 0.451067;,
         0.185110; 0.427584;,
         0.146173; 0.428886;,
         0.146173; 0.454132;,
         0.720334; 0.490289;,
         0.728101; 0.488412;,
         0.717329; 0.468014;,
         0.707266; 0.470455;,
         0.623991; 0.331192;,
         0.643072; 0.329947;,
         0.652909; 0.307115;,
         0.624392; 0.307915;,
         0.245185; 0.614478;,
         0.267385; 0.636056;,
         0.267385; 0.553224;,
         0.256400; 0.550861;,
         0.245257; 0.401914;,
         0.256424; 0.465720;,
         0.267384; 0.463306;,
         0.267384; 0.380560;,
         0.718342; 0.511134;,
         0.728405; 0.508693;,
         0.728101; 0.488412;,
         0.720334; 0.490289;,
         0.185110; 0.469018;,
         0.177349; 0.451067;,
         0.146173; 0.454132;,
         0.146173; 0.479378;,
         0.233105; 0.485723;,
         0.233105; 0.461530;,
         0.222513; 0.461723;,
         0.222513; 0.485916;,
         0.146173; 0.479378;,
         0.146173; 0.454132;,
         0.077450; 0.451004;,
         0.077450; 0.474910;,
         0.760430; 0.505043;,
         0.753681; 0.480257;,
         0.728101; 0.488412;,
         0.728405; 0.508693;,
         0.746932; 0.455470;,
         0.753681; 0.480257;,
         0.818917; 0.460099;,
         0.812526; 0.436629;,
         0.624082; 0.354273;,
         0.652909; 0.353306;,
         0.643072; 0.329947;,
         0.623991; 0.331192;,
         0.214435; 0.465731;,
         0.214922; 0.442494;,
         0.189149; 0.443403;,
         0.190202; 0.470138;,
         0.346997; 0.506204;,
         0.346997; 0.479477;,
         0.333332; 0.478808;,
         0.323765; 0.501756;,
         0.556813; 0.963978;,
         0.564613; 0.973061;,
         0.566978; 0.964771;,
         0.559178; 0.955689;,
         0.533458; 0.455438;,
         0.620772; 0.456372;,
         0.620526; 0.399542;,
         0.533656; 0.399409;,
         0.306570; 0.134383;,
         0.337266; 0.099585;,
         0.332190; 0.090254;,
         0.294341; 0.129722;,
         0.441534; 0.455406;,
         0.492195; 0.449443;,
         0.492195; 0.398298;,
         0.441625; 0.399312;,
         0.527404; 0.934624;,
         0.556813; 0.963978;,
         0.559178; 0.955689;,
         0.535536; 0.930482;,
         0.605005; 0.200101;,
         0.539903; 0.181351;,
         0.512011; 0.327337;,
         0.575548; 0.354273;,
         0.533656; 0.399409;,
         0.541157; 0.358388;,
         0.510879; 0.354273;,
         0.492195; 0.400770;,
         0.441625; 0.399312;,
         0.436562; 0.356476;,
         0.354541; 0.361432;,
         0.346997; 0.399294;,
         0.241911; 0.587670;,
         0.233105; 0.587276;,
         0.233105; 0.635662;,
         0.241911; 0.636056;,
         0.933371; 0.584180;,
         0.864967; 0.625800;,
         0.876762; 0.672074;,
         0.992538; 0.620859;,
         0.623991; 0.056567;,
         0.617145; 0.053829;,
         0.557881; 0.087257;,
         0.623991; 0.100731;,
         0.337266; 0.099585;,
         0.406676; 0.090541;,
         0.401600; 0.081210;,
         0.332190; 0.090254;,
         0.989033; 0.521043;,
         0.922986; 0.536712;,
         0.933371; 0.584180;,
         1.000000; 0.571173;,
         1.000000; 0.571173;,
         0.933371; 0.584180;,
         0.992538; 0.620859;,
         1.000000; 0.619466;,
         0.698164; 0.305261;,
         0.698546; 0.354273;,
         0.703379; 0.353220;,
         0.703379; 0.304219;,
         0.617145; 0.053829;,
         0.503455; 0.000000;,
         0.492195; 0.043728;,
         0.557881; 0.087257;,
         0.564613; 0.973061;,
         0.691785; 1.000000;,
         0.693215; 0.994988;,
         0.566978; 0.964771;,
         0.652909; 0.278021;,
         0.657177; 0.354273;,
         0.663702; 0.352838;,
         0.663702; 0.275647;,
         0.492195; 0.398298;,
         0.474525; 0.350489;,
         0.436562; 0.356476;,
         0.441625; 0.399312;,
         0.620526; 0.399542;,
         0.618390; 0.363490;,
         0.541157; 0.358388;,
         0.533656; 0.399409;,
         0.508903; 0.858671;,
         0.527404; 0.934624;,
         0.535536; 0.930482;,
         0.520287; 0.858676;,
         0.346997; 0.452749;,
         0.373286; 0.456155;,
         0.441534; 0.455406;,
         0.441625; 0.399312;,
         0.346997; 0.399294;,
         0.293049; 0.215776;,
         0.306570; 0.134383;,
         0.294341; 0.129722;,
         0.267385; 0.215788;,
         0.492195; 0.451869;,
         0.533458; 0.455438;,
         0.533656; 0.399409;,
         0.492195; 0.400770;,
         0.492195; 0.661527;,
         0.533656; 0.666054;,
         0.533458; 0.497370;,
         0.492195; 0.502968;,
         0.346997; 0.672074;,
         0.441625; 0.666199;,
         0.441534; 0.497376;,
         0.373630; 0.502378;,
         0.346997; 0.506204;,
         0.944036; 0.315361;,
         0.880379; 0.341950;,
         0.912602; 0.489244;,
         0.978066; 0.470913;,
         0.241911; 0.389144;,
         0.233105; 0.388751;,
         0.233105; 0.538891;,
         0.241911; 0.539284;,
         0.609751; 0.175258;,
         0.544398; 0.157827;,
         0.539903; 0.181351;,
         0.605005; 0.200101;,
         0.441625; 0.666199;,
         0.492195; 0.659291;,
         0.492195; 0.500588;,
         0.441534; 0.497376;,
         0.533656; 0.666054;,
         0.620527; 0.672074;,
         0.620772; 0.502731;,
         0.533458; 0.497370;,
         0.623991; 0.100731;,
         0.557881; 0.087257;,
         0.548892; 0.134304;,
         0.614498; 0.150416;,
         0.492195; 0.477418;,
         0.523747; 0.477919;,
         0.533458; 0.455438;,
         0.492195; 0.451869;,
         0.346997; 0.479477;,
         0.363239; 0.479181;,
         0.373286; 0.456155;,
         0.346997; 0.452749;,
         0.983550; 0.495978;,
         0.917794; 0.512978;,
         0.922986; 0.536712;,
         0.989033; 0.521043;,
         0.241911; 0.563477;,
         0.233105; 0.563084;,
         0.233105; 0.587276;,
         0.241911; 0.587670;,
         0.452903; 0.477546;,
         0.492195; 0.475016;,
         0.492195; 0.449443;,
         0.441534; 0.455406;,
         0.557416; 0.692518;,
         0.564023; 0.672074;,
         0.553301; 0.672634;,
         0.549004; 0.693212;,
         0.214922; 0.442494;,
         0.212606; 0.419317;,
         0.193514; 0.419924;,
         0.193308; 0.443020;,
         0.245185; 0.487276;,
         0.256400; 0.550861;,
         0.267384; 0.548509;,
         0.267384; 0.465720;,
         0.245257; 0.359225;,
         0.267381; 0.380560;,
         0.267381; 0.297810;,
         0.256423; 0.295405;,
         0.564023; 0.713508;,
         0.557416; 0.692518;,
         0.549004; 0.693212;,
         0.553301; 0.714068;,
         0.441534; 0.497376;,
         0.492195; 0.500588;,
         0.492195; 0.475016;,
         0.452903; 0.477546;,
         0.241911; 0.539284;,
         0.233105; 0.538891;,
         0.233105; 0.563084;,
         0.241911; 0.563477;,
         0.978066; 0.470913;,
         0.912602; 0.489244;,
         0.917794; 0.512978;,
         0.983550; 0.495978;,
         0.492195; 0.502968;,
         0.533458; 0.497370;,
         0.523747; 0.477919;,
         0.492195; 0.477418;,
         0.614498; 0.150416;,
         0.548892; 0.134304;,
         0.544398; 0.157827;,
         0.609751; 0.175258;,
         0.214435; 0.465731;,
         0.214922; 0.442494;,
         0.193308; 0.443020;,
         0.195424; 0.466158;,
         0.346997; 0.506204;,
         0.373630; 0.502378;,
         0.363239; 0.479181;,
         0.346997; 0.479477;,
         0.785573; 0.870969;,
         0.785545; 0.767106;,
         0.693215; 0.765513;,
         0.693215; 0.868936;,
         0.877669; 0.868855;,
         0.877669; 0.765431;,
         0.785545; 0.767106;,
         0.785573; 0.870969;,
         0.350748; 0.916930;,
         0.432779; 0.985732;,
         0.458681; 0.918931;,
         0.389695; 0.861056;,
         0.110835; 0.687595;,
         0.025108; 0.724598;,
         0.062299; 0.792224;,
         0.146739; 0.756365;,
         0.785545; 0.767106;,
         0.877669; 0.765431;,
         0.870357; 0.723169;,
         0.795265; 0.718070;,
         0.458681; 0.918931;,
         0.432779; 0.985732;,
         0.476292; 1.000000;,
         0.494506; 0.943028;,
         0.693215; 0.765513;,
         0.785545; 0.767106;,
         0.795265; 0.718070;,
         0.720074; 0.723236;,
         0.208531; 0.640955;,
         0.228804; 0.715980;,
         0.267385; 0.698879;,
         0.254891; 0.636056;,
         0.208531; 0.640955;,
         0.110835; 0.687595;,
         0.146739; 0.756365;,
         0.228804; 0.715980;,
         0.278843; 0.856269;,
         0.350748; 0.916930;,
         0.389695; 0.861056;,
         0.318708; 0.804843;,
         0.853036; 0.959172;,
         0.877669; 0.868855;,
         0.785573; 0.870969;,
         0.785524; 0.960267;,
         0.785524; 0.960267;,
         0.785573; 0.870969;,
         0.693215; 0.868936;,
         0.717878; 0.959232;,
         0.278843; 0.856269;,
         0.318708; 0.804843;,
         0.293846; 0.784190;,
         0.267385; 0.803951;,
         0.062299; 0.792224;,
         0.025108; 0.724598;,
         0.000000; 0.772701;,
         0.030900; 0.802878;,
         0.785524; 0.960267;,
         0.717878; 0.959232;,
         0.708937; 0.999256;,
         0.783342; 1.000000;,
         0.853036; 0.959172;,
         0.785524; 0.960267;,
         0.783342; 1.000000;,
         0.857649; 0.999190;,
         0.228804; 0.715980;,
         0.146739; 0.756365;,
         0.243406; 0.886367;,
         0.244703; 0.799215;,
         0.293846; 0.784190;,
         0.318708; 0.804843;,
         0.418205; 0.710077;,
         0.363116; 0.694753;,
         0.146739; 0.756365;,
         0.062299; 0.792224;,
         0.133250; 0.905335;,
         0.243406; 0.886367;,
         0.318708; 0.804843;,
         0.389695; 0.861056;,
         0.508903; 0.784988;,
         0.418205; 0.710077;,
         0.062299; 0.792224;,
         0.030900; 0.802878;,
         0.074019; 0.903906;,
         0.133250; 0.905335;,
         0.389695; 0.861056;,
         0.458681; 0.918931;,
         0.508903; 0.844383;,
         0.508903; 0.784988;,
         0.081803; 0.107668;,
         0.058251; 0.137286;,
         0.137045; 0.152954;,
         0.146263; 0.130622;,
         0.047321; 0.191911;,
         0.051086; 0.247243;,
         0.131739; 0.234392;,
         0.128950; 0.193411;,
         0.142855; 0.103308;,
         0.081803; 0.107668;,
         0.146263; 0.130622;,
         0.151725; 0.112517;,
         0.068648; 0.275332;,
         0.128334; 0.291943;,
         0.139250; 0.278637;,
         0.136520; 0.254800;,
         0.051086; 0.247243;,
         0.068648; 0.275332;,
         0.136520; 0.254800;,
         0.131739; 0.234392;,
         0.058251; 0.137286;,
         0.047321; 0.191911;,
         0.128950; 0.193411;,
         0.137045; 0.152954;,
         0.243406; 0.886367;,
         0.133250; 0.905335;,
         0.251495; 1.000000;,
         0.267385; 0.992938;,
         0.418205; 0.710077;,
         0.508903; 0.784988;,
         0.507866; 0.682745;,
         0.494877; 0.672074;,
         0.013765; 0.121906;,
         0.000000; 0.190699;,
         0.047321; 0.191911;,
         0.058251; 0.137286;,
         0.004742; 0.260382;,
         0.035085; 0.296153;,
         0.068648; 0.275332;,
         0.051086; 0.247243;,
         0.035085; 0.296153;,
         0.151725; 0.305537;,
         0.128334; 0.291943;,
         0.068648; 0.275332;,
         0.074019; 0.903906;,
         0.030900; 0.802878;,
         0.022235; 0.835280;,
         0.050184; 0.886906;,
         0.000000; 0.190699;,
         0.004742; 0.260382;,
         0.051086; 0.247243;,
         0.047321; 0.191911;,
         0.051651; 0.085002;,
         0.013765; 0.121906;,
         0.058251; 0.137286;,
         0.081803; 0.107668;,
         0.643934; 0.709911;,
         0.663898; 0.709911;,
         0.660382; 0.684292;,
         0.645418; 0.684292;,
         0.683886; 0.689295;,
         0.698194; 0.689400;,
         0.698194; 0.675133;,
         0.683886; 0.675028;,
         0.624863; 0.710147;,
         0.639908; 0.710147;,
         0.643934; 0.684292;,
         0.623862; 0.684292;,
         0.701631; 0.689400;,
         0.683886; 0.689923;,
         0.683886; 0.708929;,
         0.701631; 0.708406;,
         0.682366; 0.684292;,
         0.667382; 0.684292;,
         0.663898; 0.708929;,
         0.683886; 0.708929;,
         0.606782; 0.710147;,
         0.621785; 0.710147;,
         0.623862; 0.683980;,
         0.603847; 0.683980;;
      } // End of Cube_002 UV coordinates
      MeshMaterialList { // Cube_002 material list
        1;
        151;
        0,
        0,
        0,
        0,
        0,
        0,
        0,
        0,
        0,
        0,
        0,
        0,
        0,
        0,
        0,
        0,
        0,
        0,
        0,
        0,
        0,
        0,
        0,
        0,
        0,
        0,
        0,
        0,
        0,
        0,
        0,
        0,
        0,
        0,
        0,
        0,
        0,
        0,
        0,
        0,
        0,
        0,
        0,
        0,
        0,
        0,
        0,
        0,
        0,
        0,
        0,
        0,
        0,
        0,
        0,
        0,
        0,
        0,
        0,
        0,
        0,
        0,
        0,
        0,
        0,
        0,
        0,
        0,
        0,
        0,
        0,
        0,
        0,
        0,
        0,
        0,
        0,
        0,
        0,
        0,
        0,
        0,
        0,
        0,
        0,
        0,
        0,
        0,
        0,
        0,
        0,
        0,
        0,
        0,
        0,
        0,
        0,
        0,
        0,
        0,
        0,
        0,
        0,
        0,
        0,
        0,
        0,
        0,
        0,
        0,
        0,
        0,
        0,
        0,
        0,
        0,
        0,
        0,
        0,
        0,
        0,
        0,
        0,
        0,
        0,
        0,
        0,
        0,
        0,
        0,
        0,
        0,
        0,
        0,
        0,
        0,
        0,
        0,
        0,
        0,
        0,
        0,
        0,
        0,
        0,
        0,
        0,
        0,
        0,
        0,
        0;
        Material Material_002 {
           0.640000; 0.640000; 0.640000; 1.000000;;
           96.078431;
           0.500000; 0.500000; 0.500000;;
           0.000000; 0.000000; 0.000000;;
        }
      } // End of Cube_002 material list
    } // End of Cube_002 mesh
  } // End of Cube_002
} // End of Root
