xof 0303txt 0032

Frame Root {
  FrameTransformMatrix {
     1.000000, 0.000000, 0.000000, 0.000000,
     0.000000,-0.000000, 1.000000, 0.000000,
     0.000000, 1.000000, 0.000000, 0.000000,
     0.000000, 0.000000, 0.000000, 1.000000;;
  }
  Frame Cube_001 {
    FrameTransformMatrix {
       1.000000, 0.000000, 0.000000, 0.000000,
       0.000000, 1.000000, 0.000000, 0.000000,
       0.000000, 0.000000, 1.000000, 0.000000,
       0.000000, 0.000000, 0.000000, 1.000000;;
    }
    Mesh { // Cube_001 mesh
      104;
       0.078891;-0.041322;-0.040887;,
       0.072021; 0.046631;-0.037041;,
       0.071796; 0.046415;-0.032514;,
       0.078666;-0.041538;-0.036361;,
       0.072021; 0.046631;-0.037041;,
      -0.015906; 0.039967;-0.041734;,
      -0.016132; 0.039752;-0.037207;,
       0.071796; 0.046415;-0.032514;,
      -0.015906; 0.039967;-0.041734;,
      -0.009036;-0.047985;-0.045580;,
      -0.009261;-0.048201;-0.041053;,
      -0.016132; 0.039752;-0.037207;,
      -0.009036;-0.047985;-0.045580;,
       0.078891;-0.041322;-0.040887;,
       0.078666;-0.041538;-0.036361;,
      -0.009261;-0.048201;-0.041053;,
       0.072021; 0.046631;-0.037041;,
       0.078891;-0.041322;-0.040887;,
      -0.009036;-0.047985;-0.045580;,
      -0.015906; 0.039967;-0.041734;,
      -0.016132; 0.039752;-0.037207;,
      -0.009261;-0.048201;-0.041053;,
       0.078666;-0.041538;-0.036361;,
       0.071796; 0.046415;-0.032514;,
       0.090787; 0.000907;-0.043266;,
       0.091165; 0.001331;-0.050750;,
       0.090567;-0.043732;-0.041439;,
       0.090189;-0.044156;-0.033956;,
       0.090189;-0.044156;-0.033956;,
       0.090567;-0.043732;-0.041439;,
       0.179327;-0.043985;-0.036964;,
       0.178948;-0.044409;-0.029480;,
       0.179547; 0.000654;-0.038791;,
       0.179925; 0.001078;-0.046274;,
       0.179327; 0.041904;-0.032102;,
       0.178948; 0.041480;-0.024618;,
       0.178948; 0.041480;-0.024618;,
       0.179327; 0.041904;-0.032102;,
       0.090567; 0.042157;-0.036577;,
       0.090189; 0.041734;-0.029094;,
       0.090787; 0.000907;-0.043266;,
       0.179547; 0.000654;-0.038791;,
       0.178948; 0.041480;-0.024618;,
       0.090189; 0.041734;-0.029094;,
       0.179925; 0.001078;-0.046274;,
       0.091165; 0.001331;-0.050750;,
       0.090567; 0.042157;-0.036577;,
       0.179327; 0.041904;-0.032102;,
       0.179327;-0.043985;-0.036964;,
       0.090567;-0.043732;-0.041439;,
       0.091165; 0.001331;-0.050750;,
       0.179925; 0.001078;-0.046274;,
       0.090189;-0.044156;-0.033956;,
       0.178948;-0.044409;-0.029480;,
       0.179547; 0.000654;-0.038791;,
       0.090787; 0.000907;-0.043266;,
       0.178948;-0.044409;-0.029480;,
       0.179327;-0.043985;-0.036964;,
       0.179925; 0.001078;-0.046274;,
       0.179547; 0.000654;-0.038791;,
       0.090189; 0.041734;-0.029094;,
       0.090567; 0.042157;-0.036577;,
       0.091165; 0.001331;-0.050750;,
       0.090787; 0.000907;-0.043266;,
       0.033728;-0.037956;-0.040381;,
       0.043649;-0.037946;-0.040557;,
       0.044762;-0.049842; 0.030667;,
       0.035245;-0.052306; 0.029312;,
       0.136009;-0.046960; 0.038097;,
       0.125778;-0.047600; 0.038638;,
       0.120985;-0.043464;-0.035224;,
       0.131217;-0.042824;-0.035766;,
       0.035245;-0.052306; 0.029312;,
       0.044762;-0.049842; 0.030667;,
       0.043310;-0.039533; 0.045162;,
       0.033389;-0.039543; 0.045337;,
       0.033389;-0.039543; 0.045337;,
       0.043310;-0.039533; 0.045162;,
       0.043310; 0.019468; 0.048502;,
       0.033389; 0.019458; 0.048677;,
       0.033389; 0.019458; 0.048677;,
       0.043310; 0.019468; 0.048502;,
       0.046115; 0.037130; 0.045810;,
       0.036194; 0.037120; 0.045985;,
       0.036194; 0.037120; 0.045985;,
       0.046115; 0.037130; 0.045810;,
       0.047782; 0.045798; 0.009678;,
       0.037861; 0.045788; 0.009852;,
       0.037861; 0.045788; 0.009852;,
       0.047782; 0.045798; 0.009678;,
       0.044185; 0.046759;-0.015046;,
       0.034264; 0.046749;-0.014870;,
       0.034264; 0.046749;-0.014870;,
       0.044185; 0.046759;-0.015046;,
       0.041193; 0.043888;-0.035825;,
       0.031271; 0.043878;-0.035650;,
       0.125778;-0.047600; 0.038638;,
       0.136009;-0.046960; 0.038097;,
       0.136009; 0.034199; 0.042691;,
       0.125778; 0.033559; 0.043233;,
       0.125778; 0.033559; 0.043233;,
       0.136009; 0.034199; 0.042691;,
       0.134177; 0.041064;-0.030424;,
       0.123945; 0.040425;-0.029882;;
      26;
      4;3,2,1,0;,
      4;7,6,5,4;,
      4;11,10,9,8;,
      4;15,14,13,12;,
      4;19,18,17,16;,
      4;23,22,21,20;,
      4;27,26,25,24;,
      4;31,30,29,28;,
      4;35,34,33,32;,
      4;39,38,37,36;,
      4;43,42,41,40;,
      4;47,46,45,44;,
      4;51,50,49,48;,
      4;55,54,53,52;,
      4;59,58,57,56;,
      4;63,62,61,60;,
      4;67,66,65,64;,
      4;71,70,69,68;,
      4;75,74,73,72;,
      4;79,78,77,76;,
      4;83,82,81,80;,
      4;87,86,85,84;,
      4;91,90,89,88;,
      4;95,94,93,92;,
      4;99,98,97,96;,
      4;103,102,101,100;;
      MeshNormals { // Cube_001 normals
        104;
         0.648457;-0.504044;-0.570452;,
         0.558611; 0.646016;-0.520127;,
         0.501297; 0.591174; 0.631794;,
         0.591144;-0.558885; 0.581500;,
         0.558611; 0.646016;-0.520127;,
        -0.591144; 0.558885;-0.581500;,
        -0.648457; 0.504044; 0.570452;,
         0.501297; 0.591174; 0.631794;,
        -0.591144; 0.558885;-0.581500;,
        -0.501297;-0.591174;-0.631794;,
        -0.558611;-0.646016; 0.520127;,
        -0.648457; 0.504044; 0.570452;,
        -0.501297;-0.591174;-0.631794;,
         0.648457;-0.504044;-0.570452;,
         0.591144;-0.558885; 0.581500;,
        -0.558611;-0.646016; 0.520127;,
         0.558611; 0.646016;-0.520127;,
         0.648457;-0.504044;-0.570452;,
        -0.501297;-0.591174;-0.631794;,
        -0.591144; 0.558885;-0.581500;,
        -0.648457; 0.504044; 0.570452;,
        -0.558611;-0.646016; 0.520127;,
         0.591144;-0.558885; 0.581500;,
         0.501297; 0.591174; 0.631794;,
        -0.803217;-0.039125; 0.594348;,
        -0.612751; 0.051210;-0.788598;,
        -0.566790;-0.608478;-0.555376;,
        -0.597156;-0.537248; 0.595599;,
        -0.597156;-0.537248; 0.595599;,
        -0.566790;-0.608478;-0.555376;,
         0.616291;-0.611866;-0.495712;,
         0.531114;-0.540452; 0.652486;,
         0.739128;-0.043550; 0.672140;,
         0.689261; 0.047487;-0.722922;,
         0.617084; 0.667135;-0.417249;,
         0.530137; 0.457747; 0.713706;,
         0.530137; 0.457747; 0.713706;,
         0.617084; 0.667135;-0.417249;,
        -0.568163; 0.670522;-0.477004;,
        -0.596637; 0.460952; 0.656880;,
        -0.803217;-0.039125; 0.594348;,
         0.739128;-0.043550; 0.672140;,
         0.530137; 0.457747; 0.713706;,
        -0.596637; 0.460952; 0.656880;,
         0.689261; 0.047487;-0.722922;,
        -0.612751; 0.051210;-0.788598;,
        -0.568163; 0.670522;-0.477004;,
         0.617084; 0.667135;-0.417249;,
         0.616291;-0.611866;-0.495712;,
        -0.566790;-0.608478;-0.555376;,
        -0.612751; 0.051210;-0.788598;,
         0.689261; 0.047487;-0.722922;,
        -0.597156;-0.537248; 0.595599;,
         0.531114;-0.540452; 0.652486;,
         0.739128;-0.043550; 0.672140;,
        -0.803217;-0.039125; 0.594348;,
         0.531114;-0.540452; 0.652486;,
         0.616291;-0.611866;-0.495712;,
         0.689261; 0.047487;-0.722922;,
         0.739128;-0.043550; 0.672140;,
        -0.596637; 0.460952; 0.656880;,
        -0.568163; 0.670522;-0.477004;,
        -0.612751; 0.051210;-0.788598;,
        -0.803217;-0.039125; 0.594348;,
         0.135014;-0.973632;-0.183843;,
         0.135014;-0.973632;-0.183843;,
         0.135014;-0.973632;-0.183843;,
         0.135014;-0.973632;-0.183843;,
         0.059114;-0.996460;-0.059633;,
         0.059114;-0.996460;-0.059633;,
         0.059114;-0.996460;-0.059633;,
         0.059114;-0.996460;-0.059633;,
         0.064089;-0.792688; 0.606189;,
         0.064089;-0.792688; 0.606189;,
         0.064089;-0.792688; 0.606189;,
         0.064089;-0.792688; 0.606189;,
         0.017731;-0.056490; 0.998230;,
         0.017731;-0.056490; 0.998230;,
         0.017731;-0.056490; 0.998230;,
         0.017731;-0.056490; 0.998230;,
         0.017304; 0.147923; 0.988830;,
         0.017304; 0.147923; 0.988830;,
         0.017304; 0.147923; 0.988830;,
         0.017304; 0.147923; 0.988830;,
         0.003113; 0.972350; 0.233406;,
         0.003113; 0.972350; 0.233406;,
         0.003113; 0.972350; 0.233406;,
         0.003113; 0.972350; 0.233406;,
        -0.000305; 0.999237; 0.038850;,
        -0.000305; 0.999237; 0.038850;,
        -0.000305; 0.999237; 0.038850;,
        -0.000305; 0.999237; 0.038850;,
        -0.003388; 0.990631;-0.136387;,
        -0.003388; 0.990631;-0.136387;,
        -0.003388; 0.990631;-0.136387;,
        -0.003388; 0.990631;-0.136387;,
         0.056307;-0.056398; 0.996796;,
         0.056307;-0.056398; 0.996796;,
         0.056307;-0.056398; 0.996796;,
         0.056307;-0.056398; 0.996796;,
        -0.057100; 0.993835; 0.094729;,
        -0.057100; 0.993835; 0.094729;,
        -0.057100; 0.993835; 0.094729;,
        -0.057100; 0.993835; 0.094729;;
        26;
        4;3,2,1,0;,
        4;7,6,5,4;,
        4;11,10,9,8;,
        4;15,14,13,12;,
        4;19,18,17,16;,
        4;23,22,21,20;,
        4;27,26,25,24;,
        4;31,30,29,28;,
        4;35,34,33,32;,
        4;39,38,37,36;,
        4;43,42,41,40;,
        4;47,46,45,44;,
        4;51,50,49,48;,
        4;55,54,53,52;,
        4;59,58,57,56;,
        4;63,62,61,60;,
        4;67,66,65,64;,
        4;71,70,69,68;,
        4;75,74,73,72;,
        4;79,78,77,76;,
        4;83,82,81,80;,
        4;87,86,85,84;,
        4;91,90,89,88;,
        4;95,94,93,92;,
        4;99,98,97,96;,
        4;103,102,101,100;;
      } // End of Cube_001 normals
      MeshTextureCoords { // Cube_001 UV coordinates
        104;
         0.963257; 1.000000;,
         0.963257; 0.601282;,
         0.943842; 0.601282;,
         0.943842; 0.999999;,
         0.980586; 0.201817;,
         0.980586; 0.600462;,
         1.000000; 0.600472;,
         1.000000; 0.201827;,
         0.963257; 0.601282;,
         0.963257; 1.000000;,
         0.982672; 0.999999;,
         0.982672; 0.601282;,
         0.943842; 0.999990;,
         0.943842; 0.600754;,
         0.924444; 0.600764;,
         0.924444; 1.000000;,
         0.000000; 0.999993;,
         0.377813; 1.000000;,
         0.377813; 0.600737;,
         0.000000; 0.600731;,
         0.755318; 1.000000;,
         0.755319; 0.600825;,
         0.377814; 0.600472;,
         0.377813; 0.999648;,
         0.778018; 0.399496;,
         0.745906; 0.399496;,
         0.796641; 0.600472;,
         0.828753; 0.600472;,
         0.948492; 0.600397;,
         0.980586; 0.600472;,
         0.980586; 0.199530;,
         0.948492; 0.199455;,
         0.787430; 0.812142;,
         0.755319; 0.812142;,
         0.806053; 1.000000;,
         0.838165; 1.000000;,
         0.916380; 0.600472;,
         0.948492; 0.600472;,
         0.948492; 0.198742;,
         0.916380; 0.198742;,
         0.191837; 0.199234;,
         0.191837; 0.600731;,
         0.367892; 0.598277;,
         0.367892; 0.196780;,
         0.567936; 0.198623;,
         0.567936; 0.600457;,
         0.745906; 0.600472;,
         0.745906; 0.198638;,
         0.377813; 0.198638;,
         0.377813; 0.600472;,
         0.567936; 0.600457;,
         0.567936; 0.198623;,
         0.000000; 0.197310;,
         0.000000; 0.598806;,
         0.191837; 0.600731;,
         0.191837; 0.199234;,
         0.838165; 0.611166;,
         0.806053; 0.611166;,
         0.755319; 0.812142;,
         0.787430; 0.812142;,
         0.828753; 0.211638;,
         0.796641; 0.211638;,
         0.745906; 0.399496;,
         0.778018; 0.399496;,
         0.882089; 0.999653;,
         0.924444; 1.000000;,
         0.924444; 0.674509;,
         0.883118; 0.680086;,
         0.882089; 0.664522;,
         0.838169; 0.664924;,
         0.838165; 1.000000;,
         0.882089; 0.999598;,
         0.504048; 0.131299;,
         0.462454; 0.133815;,
         0.461819; 0.195153;,
         0.504048; 0.198623;,
         0.914946; 0.000000;,
         0.872505; 0.000040;,
         0.872505; 0.267088;,
         0.914946; 0.267048;,
         0.419900; 0.198623;,
         0.461819; 0.191608;,
         0.461819; 0.111071;,
         0.419900; 0.118086;,
         0.871103; 0.061764;,
         0.828753; 0.064782;,
         0.828753; 0.230282;,
         0.871103; 0.227265;,
         0.745907; 0.205953;,
         0.788011; 0.211638;,
         0.788011; 0.098603;,
         0.745906; 0.092922;,
         0.377817; 0.192769;,
         0.419900; 0.198623;,
         0.419900; 0.104497;,
         0.377813; 0.098638;,
         0.872505; 0.230282;,
         0.828753; 0.233130;,
         0.828753; 0.600472;,
         0.872505; 0.597624;,
         0.916380; 0.267088;,
         0.872509; 0.268578;,
         0.872505; 0.600472;,
         0.916380; 0.598983;;
      } // End of Cube_001 UV coordinates
      MeshMaterialList { // Cube_001 material list
        1;
        26;
        0,
        0,
        0,
        0,
        0,
        0,
        0,
        0,
        0,
        0,
        0,
        0,
        0,
        0,
        0,
        0,
        0,
        0,
        0,
        0,
        0,
        0,
        0,
        0,
        0,
        0;
        Material Material_002 {
           0.640000; 0.640000; 0.640000; 1.000000;;
           96.078431;
           0.500000; 0.500000; 0.500000;;
           0.000000; 0.000000; 0.000000;;
        }
      } // End of Cube_001 material list
    } // End of Cube_001 mesh
  } // End of Cube_001
} // End of Root
