xof 0303txt 0032

Frame Root {
  FrameTransformMatrix {
     1.000000, 0.000000, 0.000000, 0.000000,
     0.000000,-0.000000, 1.000000, 0.000000,
     0.000000, 1.000000, 0.000000, 0.000000,
     0.000000, 0.000000, 0.000000, 1.000000;;
  }
  Frame Cube {
    FrameTransformMatrix {
       1.000000, 0.000000, 0.000000, 0.000000,
       0.000000, 1.000000, 0.000000, 0.000000,
       0.000000, 0.000000, 1.000000, 0.000000,
       0.000000, 0.000000, 0.000000, 1.000000;;
    }
    Mesh { // Cube mesh
      192;
       0.040247;-0.004926;-0.055897;,
       0.043127;-0.048059;-0.049789;,
       0.017375;-0.050092;-0.050147;,
       0.004471;-0.007196;-0.056297;,
       0.011337;-0.027424; 0.059329;,
       0.017375; 0.029892; 0.049583;,
       0.008782; 0.028266; 0.044821;,
       0.001558;-0.024335; 0.054781;,
       0.011337;-0.027424; 0.059329;,
       0.017375;-0.065552; 0.037530;,
       0.043040;-0.062911; 0.034522;,
       0.041692;-0.025267; 0.059710;,
       0.048757; 0.045872; 0.010289;,
       0.002332; 0.044774; 0.010096;,
       0.017375; 0.029892; 0.049583;,
       0.043040; 0.031938; 0.049944;,
      -0.001235;-0.068484;-0.007522;,
       0.046174;-0.067363;-0.007324;,
       0.043040;-0.062911; 0.034522;,
       0.017375;-0.065552; 0.037530;,
      -0.011925;-0.051266;-0.004486;,
       0.008782;-0.059351; 0.039141;,
       0.004556;-0.055620; 0.036529;,
      -0.017823;-0.046839;-0.003705;,
       0.002332; 0.044774; 0.010096;,
       0.017298; 0.044613;-0.036803;,
       0.008782; 0.041139;-0.028182;,
      -0.010410; 0.035054; 0.008382;,
      -0.001235;-0.068484;-0.007522;,
       0.017375;-0.065552; 0.037530;,
       0.008782;-0.059351; 0.039141;,
      -0.011925;-0.051266;-0.004486;,
       0.004471;-0.007196;-0.056297;,
       0.017375;-0.050092;-0.050147;,
       0.008782;-0.045210;-0.041055;,
      -0.006658;-0.008425;-0.034568;,
       0.079713; 0.042514; 0.009697;,
       0.073988; 0.028672; 0.046835;,
       0.091538; 0.028880; 0.045576;,
       0.115047; 0.040796; 0.009394;,
       0.046174;-0.067363;-0.007324;,
       0.043127;-0.048059;-0.049789;,
       0.073988;-0.047266;-0.047116;,
       0.077786;-0.063935;-0.006720;,
       0.048757; 0.045872; 0.010289;,
       0.043040; 0.031938; 0.049944;,
       0.073988; 0.028672; 0.046835;,
       0.079713; 0.042514; 0.009697;,
       0.103059;-0.005774;-0.051088;,
       0.091548; 0.042278;-0.033386;,
       0.116375; 0.037790;-0.031322;,
       0.125671;-0.006571;-0.047530;,
       0.077786;-0.063935;-0.006720;,
       0.073988;-0.047266;-0.047116;,
       0.091625;-0.045000;-0.045421;,
       0.113869;-0.062181;-0.006410;,
       0.116452;-0.041532;-0.034367;,
       0.125273;-0.042730;-0.002981;,
       0.123970;-0.056354;-0.005383;,
       0.116452;-0.043949;-0.042380;,
       0.096888;-0.024522; 0.055484;,
       0.091538;-0.058184; 0.029427;,
       0.116452;-0.056170; 0.026926;,
       0.124096;-0.025210; 0.052113;,
       0.113869;-0.062181;-0.006410;,
       0.091625;-0.045000;-0.045421;,
       0.116452;-0.043949;-0.042380;,
       0.123970;-0.056354;-0.005383;,
       0.115047; 0.040796; 0.009394;,
       0.091538; 0.028880; 0.045576;,
       0.116452; 0.025355; 0.042099;,
       0.126536; 0.038691; 0.009023;,
       0.125539; 0.027162; 0.006990;,
       0.116452; 0.033103;-0.023560;,
       0.116375; 0.037790;-0.031322;,
       0.126536; 0.038691; 0.009023;,
       0.124096;-0.022861; 0.038791;,
       0.116452; 0.022296; 0.037730;,
       0.116452; 0.025355; 0.042099;,
       0.124096;-0.025210; 0.052113;,
       0.125273;-0.042730;-0.002981;,
       0.116452;-0.052339; 0.026923;,
       0.116452;-0.056170; 0.026926;,
       0.123970;-0.056354;-0.005383;,
       0.125671;-0.010181;-0.027056;,
       0.116452;-0.041532;-0.034367;,
       0.116452;-0.043949;-0.042380;,
       0.125671;-0.006571;-0.047530;,
      -0.006658;-0.008425;-0.034568;,
       0.008782;-0.045210;-0.041055;,
       0.004556;-0.042598;-0.037324;,
      -0.012131;-0.009150;-0.030460;,
       0.001558;-0.024335; 0.054781;,
       0.008782; 0.028266; 0.044821;,
       0.004556; 0.012308; 0.041090;,
      -0.003252;-0.022095; 0.042078;,
      -0.010410; 0.035054; 0.008382;,
       0.008782; 0.041139;-0.028182;,
       0.004556; 0.024062;-0.025570;,
      -0.016186; 0.017373; 0.007617;,
       0.091538;-0.058184; 0.029427;,
       0.113869;-0.062181;-0.006410;,
       0.123970;-0.056354;-0.005383;,
       0.116452;-0.056170; 0.026926;,
       0.073988;-0.061580; 0.034066;,
       0.077786;-0.063935;-0.006720;,
       0.113869;-0.062181;-0.006410;,
       0.091538;-0.058184; 0.029427;,
       0.043040;-0.062911; 0.034522;,
       0.046174;-0.067363;-0.007324;,
       0.077786;-0.063935;-0.006720;,
       0.073988;-0.061580; 0.034066;,
       0.017375;-0.050092;-0.050147;,
      -0.001235;-0.068484;-0.007522;,
      -0.011925;-0.051266;-0.004486;,
       0.008782;-0.045210;-0.041055;,
       0.008782;-0.045210;-0.041055;,
      -0.011925;-0.051266;-0.004486;,
      -0.017823;-0.046839;-0.003705;,
       0.004556;-0.042598;-0.037324;,
       0.017375;-0.050092;-0.050147;,
       0.043127;-0.048059;-0.049789;,
       0.046174;-0.067363;-0.007324;,
      -0.001235;-0.068484;-0.007522;,
       0.008782; 0.028266; 0.044821;,
      -0.010410; 0.035054; 0.008382;,
      -0.016186; 0.017373; 0.007617;,
       0.004556; 0.012308; 0.041090;,
       0.116452; 0.022296; 0.037730;,
       0.125539; 0.027162; 0.006990;,
       0.126536; 0.038691; 0.009023;,
       0.116452; 0.025355; 0.042099;,
       0.091548; 0.042278;-0.033386;,
       0.115047; 0.040796; 0.009394;,
       0.126536; 0.038691; 0.009023;,
       0.116375; 0.037790;-0.031322;,
       0.043050; 0.046646;-0.036444;,
       0.048757; 0.045872; 0.010289;,
       0.079713; 0.042514; 0.009697;,
       0.073911; 0.042526;-0.034638;,
       0.073911; 0.042526;-0.034638;,
       0.079713; 0.042514; 0.009697;,
       0.115047; 0.040796; 0.009394;,
       0.091548; 0.042278;-0.033386;,
       0.017375; 0.029892; 0.049583;,
       0.002332; 0.044774; 0.010096;,
      -0.010410; 0.035054; 0.008382;,
       0.008782; 0.028266; 0.044821;,
       0.043050; 0.046646;-0.036444;,
       0.017298; 0.044613;-0.036803;,
       0.002332; 0.044774; 0.010096;,
       0.048757; 0.045872; 0.010289;,
       0.008782; 0.041139;-0.028182;,
      -0.006658;-0.008425;-0.034568;,
      -0.012131;-0.009150;-0.030460;,
       0.004556; 0.024062;-0.025570;,
       0.116452; 0.033103;-0.023560;,
       0.125671;-0.010181;-0.027056;,
       0.125671;-0.006571;-0.047530;,
       0.116375; 0.037790;-0.031322;,
       0.091625;-0.045000;-0.045421;,
       0.103059;-0.005774;-0.051088;,
       0.125671;-0.006571;-0.047530;,
       0.116452;-0.043949;-0.042380;,
       0.017298; 0.044613;-0.036803;,
       0.004471;-0.007196;-0.056297;,
      -0.006658;-0.008425;-0.034568;,
       0.008782; 0.041139;-0.028182;,
       0.043050; 0.046646;-0.036444;,
       0.040247;-0.004926;-0.055897;,
       0.004471;-0.007196;-0.056297;,
       0.017298; 0.044613;-0.036803;,
       0.008782;-0.059351; 0.039141;,
       0.001558;-0.024335; 0.054781;,
      -0.003252;-0.022095; 0.042078;,
       0.004556;-0.055620; 0.036529;,
       0.116452;-0.052339; 0.026923;,
       0.124096;-0.022861; 0.038791;,
       0.124096;-0.025210; 0.052113;,
       0.116452;-0.056170; 0.026926;,
       0.091538; 0.028880; 0.045576;,
       0.096888;-0.024522; 0.055484;,
       0.124096;-0.025210; 0.052113;,
       0.116452; 0.025355; 0.042099;,
       0.017375; 0.029892; 0.049583;,
       0.011337;-0.027424; 0.059329;,
       0.041692;-0.025267; 0.059710;,
       0.043040; 0.031938; 0.049944;,
       0.017375;-0.065552; 0.037530;,
       0.011337;-0.027424; 0.059329;,
       0.001558;-0.024335; 0.054781;,
       0.008782;-0.059351; 0.039141;;
      48;
      4;3,2,1,0;,
      4;7,6,5,4;,
      4;11,10,9,8;,
      4;15,14,13,12;,
      4;19,18,17,16;,
      4;23,22,21,20;,
      4;27,26,25,24;,
      4;31,30,29,28;,
      4;35,34,33,32;,
      4;39,38,37,36;,
      4;43,42,41,40;,
      4;47,46,45,44;,
      4;51,50,49,48;,
      4;55,54,53,52;,
      4;59,58,57,56;,
      4;63,62,61,60;,
      4;67,66,65,64;,
      4;71,70,69,68;,
      4;75,74,73,72;,
      4;79,78,77,76;,
      4;83,82,81,80;,
      4;87,86,85,84;,
      4;91,90,89,88;,
      4;95,94,93,92;,
      4;99,98,97,96;,
      4;103,102,101,100;,
      4;107,106,105,104;,
      4;111,110,109,108;,
      4;115,114,113,112;,
      4;119,118,117,116;,
      4;123,122,121,120;,
      4;127,126,125,124;,
      4;131,130,129,128;,
      4;135,134,133,132;,
      4;139,138,137,136;,
      4;143,142,141,140;,
      4;147,146,145,144;,
      4;151,150,149,148;,
      4;155,154,153,152;,
      4;159,158,157,156;,
      4;163,162,161,160;,
      4;167,166,165,164;,
      4;171,170,169,168;,
      4;175,174,173,172;,
      4;179,178,177,176;,
      4;183,182,181,180;,
      4;187,186,185,184;,
      4;191,190,189,188;;
      MeshNormals { // Cube normals
        192;
         0.003784; 0.120548;-0.992676;,
         0.054048;-0.732353;-0.678732;,
        -0.306894;-0.579516;-0.754936;,
        -0.517350; 0.068026;-0.853023;,
        -0.204901;-0.200537; 0.958007;,
        -0.229133; 0.583605; 0.779015;,
        -0.643239; 0.446028; 0.622303;,
        -0.708579;-0.083590; 0.700613;,
        -0.204901;-0.200537; 0.958007;,
        -0.220679;-0.817438; 0.532029;,
         0.077883;-0.927335; 0.366008;,
         0.028993;-0.172338; 0.984588;,
         0.045686; 0.983093; 0.177282;,
        -0.356975; 0.919553; 0.164129;,
        -0.229133; 0.583605; 0.779015;,
         0.013184; 0.778161; 0.627888;,
        -0.490432;-0.856197;-0.162297;,
         0.066195;-0.984161;-0.164434;,
         0.077883;-0.927335; 0.366008;,
        -0.220679;-0.817438; 0.532029;,
        -0.733360;-0.663686;-0.147191;,
        -0.634358;-0.566881; 0.525529;,
        -0.775780;-0.560656; 0.289438;,
        -0.674917;-0.722465;-0.149937;,
        -0.356975; 0.919553; 0.164129;,
        -0.340617; 0.761162;-0.551866;,
        -0.750633; 0.565539;-0.341563;,
        -0.853450; 0.517106; 0.064547;,
        -0.490432;-0.856197;-0.162297;,
        -0.220679;-0.817438; 0.532029;,
        -0.634358;-0.566881; 0.525529;,
        -0.733360;-0.663686;-0.147191;,
        -0.517350; 0.068026;-0.853023;,
        -0.306894;-0.579516;-0.754936;,
        -0.768731;-0.353923;-0.532640;,
        -0.839442; 0.092196;-0.535539;,
         0.076662; 0.981201; 0.176946;,
         0.084262; 0.933012; 0.349803;,
         0.110691; 0.785241; 0.609180;,
         0.136448; 0.974273; 0.179235;,
         0.066195;-0.984161;-0.164434;,
         0.054048;-0.732353;-0.678732;,
         0.082949;-0.909330;-0.407697;,
         0.089816;-0.983337;-0.157842;,
         0.045686; 0.983093; 0.177282;,
         0.013184; 0.778161; 0.627888;,
         0.084262; 0.933012; 0.349803;,
         0.076662; 0.981201; 0.176946;,
         0.148869; 0.099796;-0.983795;,
         0.116672; 0.943724;-0.309397;,
         0.605060; 0.647542;-0.463179;,
         0.756951; 0.055452;-0.651082;,
         0.089816;-0.983337;-0.157842;,
         0.082949;-0.909330;-0.407697;,
         0.143925;-0.755242;-0.639424;,
         0.183813;-0.971770;-0.147862;,
         0.988250;-0.077242;-0.131840;,
         0.999725;-0.021180; 0.009186;,
         0.775658;-0.625050;-0.087222;,
         0.598041;-0.512162;-0.616413;,
         0.136876;-0.226508; 0.964324;,
         0.135075;-0.928648; 0.345470;,
         0.596606;-0.686361; 0.415815;,
         0.719748;-0.183172; 0.669607;,
         0.183813;-0.971770;-0.147862;,
         0.143925;-0.755242;-0.639424;,
         0.598041;-0.512162;-0.616413;,
         0.775658;-0.625050;-0.087222;,
         0.136448; 0.974273; 0.179235;,
         0.110691; 0.785241; 0.609180;,
         0.615955; 0.471694; 0.630909;,
         0.820338; 0.560839; 0.111667;,
         0.986175;-0.164922;-0.015625;,
         0.990966;-0.001740;-0.134007;,
         0.605060; 0.647542;-0.463179;,
         0.820338; 0.560839; 0.111667;,
         0.998627;-0.018372;-0.048647;,
         0.992187;-0.013520; 0.123844;,
         0.615955; 0.471694; 0.630909;,
         0.719748;-0.183172; 0.669607;,
         0.999725;-0.021180; 0.009186;,
         0.986267;-0.158757; 0.045351;,
         0.596606;-0.686361; 0.415815;,
         0.775658;-0.625050;-0.087222;,
         0.999084;-0.036012; 0.021973;,
         0.988250;-0.077242;-0.131840;,
         0.598041;-0.512162;-0.616413;,
         0.756951; 0.055452;-0.651082;,
        -0.839442; 0.092196;-0.535539;,
        -0.768731;-0.353923;-0.532640;,
        -0.660939;-0.395856;-0.637501;,
        -0.823023; 0.124332;-0.554216;,
        -0.708579;-0.083590; 0.700613;,
        -0.643239; 0.446028; 0.622303;,
        -0.893338; 0.194678; 0.405011;,
        -0.926176;-0.040223; 0.374889;,
        -0.853450; 0.517106; 0.064547;,
        -0.750633; 0.565539;-0.341563;,
        -0.881863; 0.317362;-0.348674;,
        -0.970336; 0.229530; 0.075808;,
         0.135075;-0.928648; 0.345470;,
         0.183813;-0.971770;-0.147862;,
         0.775658;-0.625050;-0.087222;,
         0.596606;-0.686361; 0.415815;,
         0.087649;-0.991028; 0.100589;,
         0.089816;-0.983337;-0.157842;,
         0.183813;-0.971770;-0.147862;,
         0.135075;-0.928648; 0.345470;,
         0.077883;-0.927335; 0.366008;,
         0.066195;-0.984161;-0.164434;,
         0.089816;-0.983337;-0.157842;,
         0.087649;-0.991028; 0.100589;,
        -0.306894;-0.579516;-0.754936;,
        -0.490432;-0.856197;-0.162297;,
        -0.733360;-0.663686;-0.147191;,
        -0.768731;-0.353923;-0.532640;,
        -0.768731;-0.353923;-0.532640;,
        -0.733360;-0.663686;-0.147191;,
        -0.674917;-0.722465;-0.149937;,
        -0.660939;-0.395856;-0.637501;,
        -0.306894;-0.579516;-0.754936;,
         0.054048;-0.732353;-0.678732;,
         0.066195;-0.984161;-0.164434;,
        -0.490432;-0.856197;-0.162297;,
        -0.643239; 0.446028; 0.622303;,
        -0.853450; 0.517106; 0.064547;,
        -0.970336; 0.229530; 0.075808;,
        -0.893338; 0.194678; 0.405011;,
         0.992187;-0.013520; 0.123844;,
         0.986175;-0.164922;-0.015625;,
         0.820338; 0.560839; 0.111667;,
         0.615955; 0.471694; 0.630909;,
         0.116672; 0.943724;-0.309397;,
         0.136448; 0.974273; 0.179235;,
         0.820338; 0.560839; 0.111667;,
         0.605060; 0.647542;-0.463179;,
         0.019288; 0.935667;-0.352306;,
         0.045686; 0.983093; 0.177282;,
         0.076662; 0.981201; 0.176946;,
         0.083834; 0.996460;-0.001648;,
         0.083834; 0.996460;-0.001648;,
         0.076662; 0.981201; 0.176946;,
         0.136448; 0.974273; 0.179235;,
         0.116672; 0.943724;-0.309397;,
        -0.229133; 0.583605; 0.779015;,
        -0.356975; 0.919553; 0.164129;,
        -0.853450; 0.517106; 0.064547;,
        -0.643239; 0.446028; 0.622303;,
         0.019288; 0.935667;-0.352306;,
        -0.340617; 0.761162;-0.551866;,
        -0.356975; 0.919553; 0.164129;,
         0.045686; 0.983093; 0.177282;,
        -0.750633; 0.565539;-0.341563;,
        -0.839442; 0.092196;-0.535539;,
        -0.823023; 0.124332;-0.554216;,
        -0.881863; 0.317362;-0.348674;,
         0.990966;-0.001740;-0.134007;,
         0.999084;-0.036012; 0.021973;,
         0.756951; 0.055452;-0.651082;,
         0.605060; 0.647542;-0.463179;,
         0.143925;-0.755242;-0.639424;,
         0.148869; 0.099796;-0.983795;,
         0.756951; 0.055452;-0.651082;,
         0.598041;-0.512162;-0.616413;,
        -0.340617; 0.761162;-0.551866;,
        -0.517350; 0.068026;-0.853023;,
        -0.839442; 0.092196;-0.535539;,
        -0.750633; 0.565539;-0.341563;,
         0.019288; 0.935667;-0.352306;,
         0.003784; 0.120548;-0.992676;,
        -0.517350; 0.068026;-0.853023;,
        -0.340617; 0.761162;-0.551866;,
        -0.634358;-0.566881; 0.525529;,
        -0.708579;-0.083590; 0.700613;,
        -0.926176;-0.040223; 0.374889;,
        -0.775780;-0.560656; 0.289438;,
         0.986267;-0.158757; 0.045351;,
         0.998627;-0.018372;-0.048647;,
         0.719748;-0.183172; 0.669607;,
         0.596606;-0.686361; 0.415815;,
         0.110691; 0.785241; 0.609180;,
         0.136876;-0.226508; 0.964324;,
         0.719748;-0.183172; 0.669607;,
         0.615955; 0.471694; 0.630909;,
        -0.229133; 0.583605; 0.779015;,
        -0.204901;-0.200537; 0.958007;,
         0.028993;-0.172338; 0.984588;,
         0.013184; 0.778161; 0.627888;,
        -0.220679;-0.817438; 0.532029;,
        -0.204901;-0.200537; 0.958007;,
        -0.708579;-0.083590; 0.700613;,
        -0.634358;-0.566881; 0.525529;;
        48;
        4;3,2,1,0;,
        4;7,6,5,4;,
        4;11,10,9,8;,
        4;15,14,13,12;,
        4;19,18,17,16;,
        4;23,22,21,20;,
        4;27,26,25,24;,
        4;31,30,29,28;,
        4;35,34,33,32;,
        4;39,38,37,36;,
        4;43,42,41,40;,
        4;47,46,45,44;,
        4;51,50,49,48;,
        4;55,54,53,52;,
        4;59,58,57,56;,
        4;63,62,61,60;,
        4;67,66,65,64;,
        4;71,70,69,68;,
        4;75,74,73,72;,
        4;79,78,77,76;,
        4;83,82,81,80;,
        4;87,86,85,84;,
        4;91,90,89,88;,
        4;95,94,93,92;,
        4;99,98,97,96;,
        4;103,102,101,100;,
        4;107,106,105,104;,
        4;111,110,109,108;,
        4;115,114,113,112;,
        4;119,118,117,116;,
        4;123,122,121,120;,
        4;127,126,125,124;,
        4;131,130,129,128;,
        4;135,134,133,132;,
        4;139,138,137,136;,
        4;143,142,141,140;,
        4;147,146,145,144;,
        4;151,150,149,148;,
        4;155,154,153,152;,
        4;159,158,157,156;,
        4;163,162,161,160;,
        4;167,166,165,164;,
        4;171,170,169,168;,
        4;175,174,173,172;,
        4;179,178,177,176;,
        4;183,182,181,180;,
        4;187,186,185,184;,
        4;191,190,189,188;;
      } // End of Cube normals
      MeshTextureCoords { // Cube UV coordinates
        192;
         0.418080; 0.266342;,
         0.434042; 0.086635;,
         0.329377; 0.075879;,
         0.272678; 0.253601;,
         0.103837; 0.319217;,
         0.225607; 0.410283;,
         0.251202; 0.391099;,
         0.143639; 0.313672;,
         0.103837; 0.319217;,
         0.042707; 0.147027;,
         0.000000; 0.145100;,
         0.041839; 0.326421;,
         0.247112; 0.678244;,
         0.247544; 0.486369;,
         0.077072; 0.548193;,
         0.077075; 0.654218;,
         0.617207; 1.000000;,
         0.631804; 0.805064;,
         0.468262; 0.800296;,
         0.446238; 0.905303;,
         0.239805; 0.056747;,
         0.073786; 0.169044;,
         0.098608; 0.171252;,
         0.262320; 0.071328;,
         0.948076; 0.043994;,
         0.767600; 0.106463;,
         0.818646; 0.112624;,
         0.983813; 0.093079;,
         0.179133; 0.000000;,
         0.042707; 0.147027;,
         0.073786; 0.169044;,
         0.239805; 0.056747;,
         0.770257; 0.291102;,
         0.783918; 0.431853;,
         0.830781; 0.406061;,
         0.866014; 0.270334;,
         0.246136; 0.806321;,
         0.086205; 0.782310;,
         0.091169; 0.854878;,
         0.245377; 0.952440;,
         0.631804; 0.805064;,
         0.816187; 0.827491;,
         0.815628; 0.699592;,
         0.641945; 0.674002;,
         0.247112; 0.678244;,
         0.077075; 0.654218;,
         0.086205; 0.782310;,
         0.246136; 0.806321;,
         0.909312; 0.835041;,
         0.951898; 0.705836;,
         0.850088; 0.722914;,
         0.816187; 0.838230;,
         0.641945; 0.674002;,
         0.815628; 0.699592;,
         0.816187; 0.625828;,
         0.653191; 0.525275;,
         0.709017; 0.091026;,
         0.711823; 0.221001;,
         0.767600; 0.211291;,
         0.719003; 0.057946;,
         0.434042; 0.558480;,
         0.507311; 0.601725;,
         0.526553; 0.499813;,
         0.455140; 0.448395;,
         0.653191; 0.525275;,
         0.816187; 0.625828;,
         0.812547; 0.522457;,
         0.657149; 0.481494;,
         0.245377; 0.952440;,
         0.091169; 0.854878;,
         0.101622; 0.958039;,
         0.244871; 1.000000;,
         0.481223; 0.261181;,
         0.459124; 0.134570;,
         0.440176; 0.102397;,
         0.434042; 0.269395;,
         0.630360; 0.393285;,
         0.502100; 0.388130;,
         0.489560; 0.406136;,
         0.639701; 0.448395;,
         0.711823; 0.221001;,
         0.751993; 0.344586;,
         0.767600; 0.344672;,
         0.767600; 0.211291;,
         0.579558; 0.120886;,
         0.709017; 0.091026;,
         0.719003; 0.057946;,
         0.565202; 0.036185;,
         0.866014; 0.270334;,
         0.830781; 0.406061;,
         0.851460; 0.393746;,
         0.893479; 0.270896;,
         0.143639; 0.313672;,
         0.251202; 0.391099;,
         0.262320; 0.372389;,
         0.189007; 0.280661;,
         0.983813; 0.093079;,
         0.818646; 0.112624;,
         0.840380; 0.125807;,
         1.000000; 0.115042;,
         0.507311; 0.601725;,
         0.653191; 0.525275;,
         0.657149; 0.481494;,
         0.526553; 0.499813;,
         0.480628; 0.673068;,
         0.641945; 0.674002;,
         0.653191; 0.525275;,
         0.507311; 0.601725;,
         0.468262; 0.800296;,
         0.631804; 0.805064;,
         0.641945; 0.674002;,
         0.480628; 0.673068;,
         0.783918; 0.431853;,
         0.974235; 0.448395;,
         1.000000; 0.387586;,
         0.830781; 0.406061;,
         0.828727; 0.519584;,
         0.816187; 0.694044;,
         0.835026; 0.705836;,
         0.835026; 0.539161;,
         0.808042; 0.933950;,
         0.816187; 0.827491;,
         0.631804; 0.805064;,
         0.617207; 1.000000;,
         0.094741; 0.512816;,
         0.246078; 0.434017;,
         0.245425; 0.410283;,
         0.107386; 0.495500;,
         0.502100; 0.388130;,
         0.481223; 0.261181;,
         0.434042; 0.269395;,
         0.489560; 0.406136;,
         0.417411; 0.856122;,
         0.245377; 0.952440;,
         0.244871; 1.000000;,
         0.404949; 0.958840;,
         0.434042; 0.655573;,
         0.247112; 0.678244;,
         0.246136; 0.806321;,
         0.422849; 0.783232;,
         0.422849; 0.783232;,
         0.246136; 0.806321;,
         0.245377; 0.952440;,
         0.417411; 0.856122;,
         0.077072; 0.548193;,
         0.247544; 0.486369;,
         0.246078; 0.434017;,
         0.094741; 0.512816;,
         0.434042; 0.655573;,
         0.434042; 0.549189;,
         0.247544; 0.486369;,
         0.247112; 0.678244;,
         0.818646; 0.112624;,
         0.866014; 0.270334;,
         0.893479; 0.270896;,
         0.840380; 0.125807;,
         0.459124; 0.134570;,
         0.579558; 0.120886;,
         0.565202; 0.036185;,
         0.440176; 0.102397;,
         0.951898; 1.000000;,
         0.909312; 0.835041;,
         0.816187; 0.838230;,
         0.850040; 0.995086;,
         0.767600; 0.106463;,
         0.770257; 0.291102;,
         0.866014; 0.270334;,
         0.818646; 0.112624;,
         0.434042; 0.410283;,
         0.418080; 0.266342;,
         0.272678; 0.253601;,
         0.329377; 0.399528;,
         0.073786; 0.169044;,
         0.143639; 0.313672;,
         0.189007; 0.280661;,
         0.098608; 0.171252;,
         0.751993; 0.344586;,
         0.630360; 0.393285;,
         0.639701; 0.448395;,
         0.767600; 0.344672;,
         0.091169; 0.854878;,
         0.016751; 0.877968;,
         0.029222; 0.990527;,
         0.101622; 0.958039;,
         0.077072; 0.548193;,
         0.000040; 0.524327;,
         0.000000; 0.649737;,
         0.077075; 0.654218;,
         0.042707; 0.147027;,
         0.103837; 0.319217;,
         0.143639; 0.313672;,
         0.073786; 0.169044;;
      } // End of Cube UV coordinates
      MeshMaterialList { // Cube material list
        1;
        48;
        0,
        0,
        0,
        0,
        0,
        0,
        0,
        0,
        0,
        0,
        0,
        0,
        0,
        0,
        0,
        0,
        0,
        0,
        0,
        0,
        0,
        0,
        0,
        0,
        0,
        0,
        0,
        0,
        0,
        0,
        0,
        0,
        0,
        0,
        0,
        0,
        0,
        0,
        0,
        0,
        0,
        0,
        0,
        0,
        0,
        0,
        0,
        0;
        Material Material {
           0.640000; 0.640000; 0.640000; 1.000000;;
           96.078431;
           0.500000; 0.500000; 0.500000;;
           0.000000; 0.000000; 0.000000;;
        }
      } // End of Cube material list
    } // End of Cube mesh
  } // End of Cube
} // End of Root
