xof 0303txt 0032

Frame Root {
  FrameTransformMatrix {
     1.000000, 0.000000, 0.000000, 0.000000,
     0.000000,-0.000000, 1.000000, 0.000000,
     0.000000, 1.000000, 0.000000, 0.000000,
     0.000000, 0.000000, 0.000000, 1.000000;;
  }
  Frame Cube {
    FrameTransformMatrix {
       1.000000, 0.000000, 0.000000, 0.000000,
       0.000000, 1.000000, 0.000000, 0.000000,
       0.000000, 0.000000, 1.000000, 0.000000,
       0.000000, 0.000000, 0.000000, 1.000000;;
    }
    Mesh { // Cube mesh
      232;
      -0.016239; 0.017547;-0.049296;,
      -0.021705;-0.009797;-0.047196;,
      -0.021306;-0.006998;-0.043206;,
      -0.016451; 0.017415;-0.044413;,
      -0.016451; 0.017415;-0.044413;,
      -0.021306;-0.006998;-0.043206;,
       0.089812;-0.027010;-0.040291;,
       0.094696;-0.002183;-0.040119;,
       0.094908;-0.002051;-0.045002;,
       0.099083; 0.019559;-0.042866;,
       0.112692; 0.016131;-0.041218;,
       0.105932;-0.004257;-0.043618;,
       0.094908;-0.002051;-0.045002;,
       0.089413;-0.029809;-0.044280;,
      -0.021705;-0.009797;-0.047196;,
      -0.016239; 0.017547;-0.049296;,
       0.186587;-0.006027;-0.035218;,
       0.112692; 0.016131;-0.041218;,
       0.115617; 0.031500;-0.030774;,
       0.189566; 0.008780;-0.029104;,
       0.089812;-0.027010;-0.040291;,
      -0.021306;-0.006998;-0.043206;,
      -0.024417;-0.020735;-0.037034;,
       0.086544;-0.041695;-0.034892;,
      -0.021705;-0.009797;-0.047196;,
       0.089413;-0.029809;-0.044280;,
       0.085743;-0.046126;-0.036798;,
      -0.025217;-0.025166;-0.038940;,
       0.098465; 0.017244;-0.038604;,
       0.111438; 0.013963;-0.037018;,
       0.114073; 0.027502;-0.028420;,
       0.101170; 0.031238;-0.029479;,
       0.172899;-0.046221;-0.032586;,
       0.172654;-0.043321;-0.028657;,
       0.170294;-0.053638;-0.024530;,
       0.170142;-0.058156;-0.026395;,
       0.094696;-0.002183;-0.040119;,
       0.089812;-0.027010;-0.040291;,
       0.097572;-0.028143;-0.039605;,
       0.105081;-0.004261;-0.038803;,
       0.179301;-0.024176;-0.029734;,
       0.172654;-0.043321;-0.028657;,
       0.172899;-0.046221;-0.032586;,
       0.180152;-0.024172;-0.034549;,
       0.105081;-0.004261;-0.038803;,
       0.097572;-0.028143;-0.039605;,
       0.172654;-0.043321;-0.028657;,
       0.179301;-0.024176;-0.029734;,
       0.105932;-0.004257;-0.043618;,
       0.112692; 0.016131;-0.041218;,
       0.186587;-0.006027;-0.035218;,
       0.180152;-0.024172;-0.034549;,
      -0.011971; 0.039430;-0.048183;,
      -0.012589; 0.037115;-0.043921;,
      -0.009687; 0.051946;-0.035655;,
      -0.008776; 0.056107;-0.038056;,
       0.097817;-0.031043;-0.043534;,
       0.105932;-0.004257;-0.043618;,
       0.180152;-0.024172;-0.034549;,
       0.172899;-0.046221;-0.032586;,
       0.111438; 0.013963;-0.037018;,
       0.105081;-0.004261;-0.038803;,
       0.179301;-0.024176;-0.029734;,
       0.185333;-0.008195;-0.031018;,
       0.185333;-0.008195;-0.031018;,
       0.179301;-0.024176;-0.029734;,
       0.180152;-0.024172;-0.034549;,
       0.186587;-0.006027;-0.035218;,
       0.098465; 0.017244;-0.038604;,
       0.094696;-0.002183;-0.040119;,
       0.105081;-0.004261;-0.038803;,
       0.111438; 0.013963;-0.037018;,
       0.099083; 0.019559;-0.042866;,
       0.094908;-0.002051;-0.045002;,
      -0.016239; 0.017547;-0.049296;,
      -0.011971; 0.039430;-0.048183;,
       0.089413;-0.029809;-0.044280;,
       0.094908;-0.002051;-0.045002;,
       0.105932;-0.004257;-0.043618;,
       0.097817;-0.031043;-0.043534;,
      -0.012589; 0.037115;-0.043921;,
      -0.016451; 0.017415;-0.044413;,
       0.094696;-0.002183;-0.040119;,
       0.098465; 0.017244;-0.038604;,
      -0.011971; 0.039430;-0.048183;,
      -0.016239; 0.017547;-0.049296;,
      -0.016451; 0.017415;-0.044413;,
      -0.012589; 0.037115;-0.043921;,
       0.086544;-0.041695;-0.034892;,
      -0.024417;-0.020735;-0.037034;,
      -0.025217;-0.025166;-0.038940;,
       0.085743;-0.046126;-0.036798;,
       0.094342;-0.042684;-0.034469;,
       0.094190;-0.047201;-0.036333;,
       0.170142;-0.058156;-0.026395;,
       0.170294;-0.053638;-0.024530;,
       0.086544;-0.041695;-0.034892;,
       0.085743;-0.046126;-0.036798;,
       0.094190;-0.047201;-0.036333;,
       0.094342;-0.042684;-0.034469;,
       0.172654;-0.043321;-0.028657;,
       0.097572;-0.028143;-0.039605;,
       0.094342;-0.042684;-0.034469;,
       0.170294;-0.053638;-0.024530;,
       0.097572;-0.028143;-0.039605;,
       0.089812;-0.027010;-0.040291;,
       0.086544;-0.041695;-0.034892;,
       0.094342;-0.042684;-0.034469;,
       0.089413;-0.029809;-0.044280;,
       0.097817;-0.031043;-0.043534;,
       0.094190;-0.047201;-0.036333;,
       0.085743;-0.046126;-0.036798;,
       0.097817;-0.031043;-0.043534;,
       0.172899;-0.046221;-0.032586;,
       0.170142;-0.058156;-0.026395;,
       0.094190;-0.047201;-0.036333;,
      -0.021306;-0.006998;-0.043206;,
      -0.021705;-0.009797;-0.047196;,
      -0.025217;-0.025166;-0.038940;,
      -0.024417;-0.020735;-0.037034;,
       0.189566; 0.008780;-0.029104;,
       0.115617; 0.031500;-0.030774;,
       0.116181; 0.035787;-0.018477;,
       0.190950; 0.016196;-0.022132;,
      -0.008776; 0.056107;-0.038056;,
      -0.009687; 0.051946;-0.035655;,
      -0.008759; 0.057519;-0.026268;,
      -0.007899; 0.062143;-0.024932;,
       0.101170; 0.031238;-0.029479;,
       0.114073; 0.027502;-0.028420;,
       0.114688; 0.031331;-0.019826;,
       0.101758; 0.035123;-0.019887;,
       0.112692; 0.016131;-0.041218;,
       0.099083; 0.019559;-0.042866;,
       0.102081; 0.035400;-0.031879;,
       0.115617; 0.031500;-0.030774;,
       0.185333;-0.008195;-0.031018;,
       0.186587;-0.006027;-0.035218;,
       0.189566; 0.008780;-0.029104;,
       0.188023; 0.004782;-0.026749;,
       0.099083; 0.019559;-0.042866;,
      -0.011971; 0.039430;-0.048183;,
      -0.008776; 0.056107;-0.038056;,
       0.102081; 0.035400;-0.031879;,
       0.111438; 0.013963;-0.037018;,
       0.185333;-0.008195;-0.031018;,
       0.188023; 0.004782;-0.026749;,
       0.114073; 0.027502;-0.028420;,
      -0.012589; 0.037115;-0.043921;,
       0.098465; 0.017244;-0.038604;,
       0.101170; 0.031238;-0.029479;,
      -0.009687; 0.051946;-0.035655;,
      -0.008759; 0.057519;-0.026268;,
       0.101758; 0.035123;-0.019887;,
       0.102618; 0.039747;-0.018550;,
      -0.007899; 0.062143;-0.024932;,
       0.102618; 0.039747;-0.018550;,
       0.101758; 0.035123;-0.019887;,
       0.114688; 0.031331;-0.019826;,
       0.116181; 0.035787;-0.018477;,
       0.116181; 0.035787;-0.018477;,
       0.114688; 0.031331;-0.019826;,
       0.189457; 0.011740;-0.023481;,
       0.190950; 0.016196;-0.022132;,
       0.188023; 0.004782;-0.026749;,
       0.189566; 0.008780;-0.029104;,
       0.190950; 0.016196;-0.022132;,
       0.189457; 0.011740;-0.023481;,
       0.115617; 0.031500;-0.030774;,
       0.102081; 0.035400;-0.031879;,
       0.102618; 0.039747;-0.018550;,
       0.116181; 0.035787;-0.018477;,
       0.102081; 0.035400;-0.031879;,
      -0.008776; 0.056107;-0.038056;,
      -0.007899; 0.062143;-0.024932;,
       0.102618; 0.039747;-0.018550;,
      -0.009687; 0.051946;-0.035655;,
       0.101170; 0.031238;-0.029479;,
       0.101758; 0.035123;-0.019887;,
      -0.008759; 0.057519;-0.026268;,
       0.114073; 0.027502;-0.028420;,
       0.188023; 0.004782;-0.026749;,
       0.189457; 0.011740;-0.023481;,
       0.114688; 0.031331;-0.019826;,
       0.045556; 0.019562; 0.038183;,
       0.040327;-0.005722; 0.044714;,
       0.057919;-0.009172; 0.045233;,
       0.063148; 0.016111; 0.038701;,
       0.135787; 0.014408; 0.037232;,
       0.128739;-0.020281; 0.042887;,
       0.147711;-0.023437; 0.043155;,
       0.154759; 0.011253; 0.037500;,
       0.035924;-0.041318; 0.019318;,
       0.039638;-0.027240;-0.040640;,
       0.057230;-0.030691;-0.040123;,
       0.053523;-0.042650; 0.021221;,
       0.140807;-0.051693;-0.030457;,
       0.141902;-0.057358; 0.020248;,
       0.122929;-0.054202; 0.019980;,
       0.121847;-0.048455;-0.033168;,
       0.035867;-0.030528; 0.033516;,
       0.035924;-0.041318; 0.019318;,
       0.053523;-0.042650; 0.021221;,
       0.053459;-0.033979; 0.034034;,
       0.040327;-0.005722; 0.044714;,
       0.035867;-0.030528; 0.033516;,
       0.053459;-0.033979; 0.034034;,
       0.057919;-0.009172; 0.045233;,
       0.050979; 0.034173; 0.036474;,
       0.045556; 0.019562; 0.038183;,
       0.063148; 0.016111; 0.038701;,
       0.068571; 0.030722; 0.036992;,
       0.055195; 0.042105; 0.005505;,
       0.050979; 0.034173; 0.036474;,
       0.068571; 0.030722; 0.036992;,
       0.072787; 0.038654; 0.006024;,
       0.053226; 0.044100;-0.015987;,
       0.055195; 0.042105; 0.005505;,
       0.072787; 0.038654; 0.006024;,
       0.070818; 0.040649;-0.015470;,
       0.050984; 0.042644;-0.034162;,
       0.053226; 0.044100;-0.015987;,
       0.070818; 0.040649;-0.015470;,
       0.068577; 0.039193;-0.033643;,
       0.128739;-0.020281; 0.042887;,
       0.122908;-0.054199; 0.020003;,
       0.141880;-0.057354; 0.020272;,
       0.147711;-0.023437; 0.043155;,
       0.138116; 0.022255;-0.025924;,
       0.135787; 0.014408; 0.037232;,
       0.154759; 0.011253; 0.037500;,
       0.157090; 0.019099;-0.025656;;
      58;
      4;3,2,1,0;,
      4;7,6,5,4;,
      4;11,10,9,8;,
      4;15,14,13,12;,
      4;19,18,17,16;,
      4;23,22,21,20;,
      4;27,26,25,24;,
      4;31,30,29,28;,
      4;35,34,33,32;,
      4;39,38,37,36;,
      4;43,42,41,40;,
      4;47,46,45,44;,
      4;51,50,49,48;,
      4;55,54,53,52;,
      4;59,58,57,56;,
      4;63,62,61,60;,
      4;67,66,65,64;,
      4;71,70,69,68;,
      4;75,74,73,72;,
      4;79,78,77,76;,
      4;83,82,81,80;,
      4;87,86,85,84;,
      4;91,90,89,88;,
      4;95,94,93,92;,
      4;99,98,97,96;,
      4;103,102,101,100;,
      4;107,106,105,104;,
      4;111,110,109,108;,
      4;115,114,113,112;,
      4;119,118,117,116;,
      4;123,122,121,120;,
      4;127,126,125,124;,
      4;131,130,129,128;,
      4;135,134,133,132;,
      4;139,138,137,136;,
      4;143,142,141,140;,
      4;147,146,145,144;,
      4;151,150,149,148;,
      4;155,154,153,152;,
      4;159,158,157,156;,
      4;163,162,161,160;,
      4;167,166,165,164;,
      4;171,170,169,168;,
      4;175,174,173,172;,
      4;179,178,177,176;,
      4;183,182,181,180;,
      4;187,186,185,184;,
      4;191,190,189,188;,
      4;195,194,193,192;,
      4;199,198,197,196;,
      4;203,202,201,200;,
      4;207,206,205,204;,
      4;211,210,209,208;,
      4;215,214,213,212;,
      4;219,218,217,216;,
      4;223,222,221,220;,
      4;227,226,225,224;,
      4;231,230,229,228;;
      MeshNormals { // Cube normals
        232;
        -0.651997; 0.136296;-0.745842;,
        -0.659993;-0.057833;-0.749016;,
        -0.730522; 0.282479; 0.621693;,
        -0.728813; 0.133274; 0.671590;,
        -0.728813; 0.133274; 0.671590;,
        -0.730522; 0.282479; 0.621693;,
        -0.027497; 0.190466; 0.981292;,
        -0.080386;-0.014649; 0.996643;,
         0.079379; 0.010132;-0.996765;,
         0.143376; 0.306894;-0.940855;,
         0.166875; 0.273049;-0.947386;,
         0.115513;-0.007782;-0.993255;,
         0.079379; 0.010132;-0.996765;,
         0.018464;-0.241585;-0.970183;,
        -0.659993;-0.057833;-0.749016;,
        -0.651997; 0.136296;-0.745842;,
         0.776696;-0.021302;-0.629475;,
         0.166875; 0.273049;-0.947386;,
         0.239021; 0.710868;-0.661397;,
         0.841456; 0.298105;-0.450606;,
        -0.027497; 0.190466; 0.981292;,
        -0.730522; 0.282479; 0.621693;,
        -0.641041; 0.119327; 0.758141;,
        -0.044008;-0.019501; 0.998810;,
        -0.659993;-0.057833;-0.749016;,
         0.018464;-0.241585;-0.970183;,
        -0.147588;-0.988983; 0.009186;,
        -0.709616;-0.704489; 0.009827;,
        -0.139256;-0.281961; 0.949248;,
        -0.159459;-0.242012; 0.957060;,
        -0.222907;-0.650014; 0.726463;,
        -0.215217;-0.718802; 0.661031;,
         0.710898;-0.336467;-0.617542;,
         0.603259;-0.030519; 0.796930;,
         0.485427;-0.087466; 0.869869;,
         0.434858;-0.896542; 0.083926;,
        -0.080386;-0.014649; 0.996643;,
        -0.027497; 0.190466; 0.981292;,
        -0.080782; 0.188421; 0.978729;,
        -0.116062; 0.004669; 0.993225;,
         0.558031;-0.190802; 0.807550;,
         0.603259;-0.030519; 0.796930;,
         0.710898;-0.336467;-0.617542;,
         0.752617;-0.252602;-0.608051;,
        -0.116062; 0.004669; 0.993225;,
        -0.080782; 0.188421; 0.978729;,
         0.603259;-0.030519; 0.796930;,
         0.558031;-0.190802; 0.807550;,
         0.115513;-0.007782;-0.993255;,
         0.166875; 0.273049;-0.947386;,
         0.776696;-0.021302;-0.629475;,
         0.752617;-0.252602;-0.608051;,
        -0.573229; 0.356792;-0.737602;,
        -0.808405;-0.022126; 0.588183;,
        -0.861660;-0.291665; 0.415265;,
        -0.502945; 0.700949;-0.505631;,
         0.070223;-0.242744;-0.967528;,
         0.115513;-0.007782;-0.993255;,
         0.752617;-0.252602;-0.608051;,
         0.710898;-0.336467;-0.617542;,
        -0.159459;-0.242012; 0.957060;,
        -0.116062; 0.004669; 0.993225;,
         0.558031;-0.190802; 0.807550;,
         0.614368;-0.346202; 0.708975;,
         0.614368;-0.346202; 0.708975;,
         0.558031;-0.190802; 0.807550;,
         0.752617;-0.252602;-0.608051;,
         0.776696;-0.021302;-0.629475;,
        -0.139256;-0.281961; 0.949248;,
        -0.080386;-0.014649; 0.996643;,
        -0.116062; 0.004669; 0.993225;,
        -0.159459;-0.242012; 0.957060;,
         0.143376; 0.306894;-0.940855;,
         0.079379; 0.010132;-0.996765;,
        -0.651997; 0.136296;-0.745842;,
        -0.573229; 0.356792;-0.737602;,
         0.018464;-0.241585;-0.970183;,
         0.079379; 0.010132;-0.996765;,
         0.115513;-0.007782;-0.993255;,
         0.070223;-0.242744;-0.967528;,
        -0.808405;-0.022126; 0.588183;,
        -0.728813; 0.133274; 0.671590;,
        -0.080386;-0.014649; 0.996643;,
        -0.139256;-0.281961; 0.949248;,
        -0.573229; 0.356792;-0.737602;,
        -0.651997; 0.136296;-0.745842;,
        -0.728813; 0.133274; 0.671590;,
        -0.808405;-0.022126; 0.588183;,
        -0.044008;-0.019501; 0.998810;,
        -0.641041; 0.119327; 0.758141;,
        -0.709616;-0.704489; 0.009827;,
        -0.147588;-0.988983; 0.009186;,
        -0.094729;-0.010285; 0.995422;,
        -0.133061;-0.991058;-0.005585;,
         0.434858;-0.896542; 0.083926;,
         0.485427;-0.087466; 0.869869;,
        -0.044008;-0.019501; 0.998810;,
        -0.147588;-0.988983; 0.009186;,
        -0.133061;-0.991058;-0.005585;,
        -0.094729;-0.010285; 0.995422;,
         0.603259;-0.030519; 0.796930;,
        -0.080782; 0.188421; 0.978729;,
        -0.094729;-0.010285; 0.995422;,
         0.485427;-0.087466; 0.869869;,
        -0.080782; 0.188421; 0.978729;,
        -0.027497; 0.190466; 0.981292;,
        -0.044008;-0.019501; 0.998810;,
        -0.094729;-0.010285; 0.995422;,
         0.018464;-0.241585;-0.970183;,
         0.070223;-0.242744;-0.967528;,
        -0.133061;-0.991058;-0.005585;,
        -0.147588;-0.988983; 0.009186;,
         0.070223;-0.242744;-0.967528;,
         0.710898;-0.336467;-0.617542;,
         0.434858;-0.896542; 0.083926;,
        -0.133061;-0.991058;-0.005585;,
        -0.730522; 0.282479; 0.621693;,
        -0.659993;-0.057833;-0.749016;,
        -0.709616;-0.704489; 0.009827;,
        -0.641041; 0.119327; 0.758141;,
         0.841456; 0.298105;-0.450606;,
         0.239021; 0.710868;-0.661397;,
         0.237007; 0.703604; 0.669881;,
         0.602619; 0.602039; 0.523759;,
        -0.502945; 0.700949;-0.505631;,
        -0.861660;-0.291665; 0.415265;,
        -0.741905;-0.350383; 0.571642;,
        -0.417371; 0.729728; 0.541520;,
        -0.215217;-0.718802; 0.661031;,
        -0.222907;-0.650014; 0.726463;,
        -0.155736;-0.575304; 0.802942;,
        -0.178381;-0.615070; 0.767998;,
         0.166875; 0.273049;-0.947386;,
         0.143376; 0.306894;-0.940855;,
         0.220740; 0.755760;-0.616504;,
         0.239021; 0.710868;-0.661397;,
         0.614368;-0.346202; 0.708975;,
         0.776696;-0.021302;-0.629475;,
         0.841456; 0.298105;-0.450606;,
         0.530625;-0.550890; 0.644154;,
         0.143376; 0.306894;-0.940855;,
        -0.573229; 0.356792;-0.737602;,
        -0.502945; 0.700949;-0.505631;,
         0.220740; 0.755760;-0.616504;,
        -0.159459;-0.242012; 0.957060;,
         0.614368;-0.346202; 0.708975;,
         0.530625;-0.550890; 0.644154;,
        -0.222907;-0.650014; 0.726463;,
        -0.808405;-0.022126; 0.588183;,
        -0.139256;-0.281961; 0.949248;,
        -0.215217;-0.718802; 0.661031;,
        -0.861660;-0.291665; 0.415265;,
        -0.741905;-0.350383; 0.571642;,
        -0.178381;-0.615070; 0.767998;,
         0.157811; 0.718619; 0.677236;,
        -0.417371; 0.729728; 0.541520;,
         0.157811; 0.718619; 0.677236;,
        -0.178381;-0.615070; 0.767998;,
        -0.155736;-0.575304; 0.802942;,
         0.237007; 0.703604; 0.669881;,
         0.237007; 0.703604; 0.669881;,
        -0.155736;-0.575304; 0.802942;,
         0.504654;-0.536332; 0.676504;,
         0.602619; 0.602039; 0.523759;,
         0.530625;-0.550890; 0.644154;,
         0.841456; 0.298105;-0.450606;,
         0.602619; 0.602039; 0.523759;,
         0.504654;-0.536332; 0.676504;,
         0.239021; 0.710868;-0.661397;,
         0.220740; 0.755760;-0.616504;,
         0.157811; 0.718619; 0.677236;,
         0.237007; 0.703604; 0.669881;,
         0.220740; 0.755760;-0.616504;,
        -0.502945; 0.700949;-0.505631;,
        -0.417371; 0.729728; 0.541520;,
         0.157811; 0.718619; 0.677236;,
        -0.861660;-0.291665; 0.415265;,
        -0.215217;-0.718802; 0.661031;,
        -0.178381;-0.615070; 0.767998;,
        -0.741905;-0.350383; 0.571642;,
        -0.222907;-0.650014; 0.726463;,
         0.530625;-0.550890; 0.644154;,
         0.504654;-0.536332; 0.676504;,
        -0.155736;-0.575304; 0.802942;,
         0.019745; 0.246223; 0.968993;,
        -0.044618;-0.077944; 0.995941;,
        -0.044618;-0.077944; 0.995941;,
         0.019745; 0.246223; 0.968993;,
         0.012391; 0.158422; 0.987274;,
        -0.049135;-0.212561; 0.975890;,
        -0.047365;-0.201697; 0.978271;,
         0.012391; 0.158422; 0.987274;,
        -0.116947;-0.969512;-0.215247;,
        -0.116947;-0.969512;-0.215247;,
        -0.116947;-0.969512;-0.215247;,
        -0.116947;-0.969512;-0.215247;,
        -0.157292;-0.981994;-0.104587;,
        -0.157292;-0.981994;-0.104587;,
        -0.157292;-0.981994;-0.104587;,
        -0.157292;-0.981994;-0.104587;,
        -0.148839;-0.802606; 0.577593;,
        -0.148839;-0.802606; 0.577593;,
        -0.148839;-0.802606; 0.577593;,
        -0.148839;-0.802606; 0.577593;,
        -0.044618;-0.077944; 0.995941;,
        -0.104099;-0.393597; 0.913358;,
        -0.104099;-0.393597; 0.913358;,
        -0.044618;-0.077944; 0.995941;,
        -0.006012; 0.118351; 0.992950;,
        -0.006012; 0.118351; 0.992950;,
        -0.006012; 0.118351; 0.992950;,
        -0.006012; 0.118351; 0.992950;,
         0.177923; 0.947172; 0.266823;,
         0.177923; 0.947172; 0.266823;,
         0.177923; 0.947172; 0.266823;,
         0.177923; 0.947172; 0.266823;,
         0.189886; 0.979034; 0.073458;,
         0.189886; 0.979034; 0.073458;,
         0.189886; 0.979034; 0.073458;,
         0.189886; 0.979034; 0.073458;,
         0.194372; 0.975585;-0.102115;,
         0.194372; 0.975585;-0.102115;,
         0.194372; 0.975585;-0.102115;,
         0.194372; 0.975585;-0.102115;,
        -0.049135;-0.212561; 0.975890;,
        -0.102268;-0.544206; 0.832667;,
        -0.102268;-0.544206; 0.832667;,
        -0.047365;-0.201697; 0.978271;,
         0.160985; 0.978668; 0.127537;,
         0.160985; 0.978668; 0.127537;,
         0.160985; 0.978668; 0.127537;,
         0.160985; 0.978668; 0.127537;;
        58;
        4;3,2,1,0;,
        4;7,6,5,4;,
        4;11,10,9,8;,
        4;15,14,13,12;,
        4;19,18,17,16;,
        4;23,22,21,20;,
        4;27,26,25,24;,
        4;31,30,29,28;,
        4;35,34,33,32;,
        4;39,38,37,36;,
        4;43,42,41,40;,
        4;47,46,45,44;,
        4;51,50,49,48;,
        4;55,54,53,52;,
        4;59,58,57,56;,
        4;63,62,61,60;,
        4;67,66,65,64;,
        4;71,70,69,68;,
        4;75,74,73,72;,
        4;79,78,77,76;,
        4;83,82,81,80;,
        4;87,86,85,84;,
        4;91,90,89,88;,
        4;95,94,93,92;,
        4;99,98,97,96;,
        4;103,102,101,100;,
        4;107,106,105,104;,
        4;111,110,109,108;,
        4;115,114,113,112;,
        4;119,118,117,116;,
        4;123,122,121,120;,
        4;127,126,125,124;,
        4;131,130,129,128;,
        4;135,134,133,132;,
        4;139,138,137,136;,
        4;143,142,141,140;,
        4;147,146,145,144;,
        4;151,150,149,148;,
        4;155,154,153,152;,
        4;159,158,157,156;,
        4;163,162,161,160;,
        4;167,166,165,164;,
        4;171,170,169,168;,
        4;175,174,173,172;,
        4;179,178,177,176;,
        4;183,182,181,180;,
        4;187,186,185,184;,
        4;191,190,189,188;,
        4;195,194,193,192;,
        4;199,198,197,196;,
        4;203,202,201,200;,
        4;207,206,205,204;,
        4;211,210,209,208;,
        4;215,214,213,212;,
        4;219,218,217,216;,
        4;223,222,221,220;,
        4;227,226,225,224;,
        4;231,230,229,228;;
      } // End of Cube normals
      MeshTextureCoords { // Cube UV coordinates
        232;
         0.808677; 0.826729;,
         0.834206; 0.940096;,
         0.849245; 0.926145;,
         0.829261; 0.824555;,
         0.504138; 0.999111;,
         0.608594; 0.999404;,
         0.604239; 0.530806;,
         0.497500; 0.530376;,
         0.192979; 0.530751;,
         0.285228; 0.529151;,
         0.281272; 0.470631;,
         0.192128; 0.483755;,
         0.192979; 0.530751;,
         0.073278; 0.532053;,
         0.069148; 1.000000;,
         0.187547; 0.999019;,
         0.246021; 0.151306;,
         0.281272; 0.470631;,
         0.343999; 0.466352;,
         0.307845; 0.147996;,
         0.604239; 0.530806;,
         0.608594; 0.999404;,
         0.665499; 0.999747;,
         0.665499; 0.531237;,
         0.069148; 1.000000;,
         0.073278; 0.532053;,
         0.000319; 0.531979;,
         0.000000; 0.999708;,
         0.413480; 0.529910;,
         0.416394; 0.474150;,
         0.354863; 0.471912;,
         0.349798; 0.527615;,
         0.936825; 0.262720;,
         0.953612; 0.274532;,
         0.971743; 0.231168;,
         0.963723; 0.212702;,
         0.497500; 0.530376;,
         0.604239; 0.530806;,
         0.602648; 0.498170;,
         0.497543; 0.486159;,
         0.945639; 0.358331;,
         0.953612; 0.274532;,
         0.936825; 0.262720;,
         0.924941; 0.358694;,
         0.497543; 0.486159;,
         0.602648; 0.498170;,
         0.603030; 0.178007;,
         0.518964; 0.166252;,
         0.192128; 0.483755;,
         0.281272; 0.470631;,
         0.246021; 0.151306;,
         0.165462; 0.163644;,
         0.799977; 0.734442;,
         0.819288; 0.741761;,
         0.844852; 0.674792;,
         0.832231; 0.658700;,
         0.074582; 0.496675;,
         0.192128; 0.483755;,
         0.165462; 0.163644;,
         0.067648; 0.175907;,
         0.416394; 0.474150;,
         0.497543; 0.486159;,
         0.518964; 0.166252;,
         0.448573; 0.154569;,
         0.937009; 0.428765;,
         0.945639; 0.358331;,
         0.924941; 0.358694;,
         0.918745; 0.438305;,
         0.413480; 0.529910;,
         0.497500; 0.530376;,
         0.497543; 0.486159;,
         0.416394; 0.474150;,
         0.285228; 0.529151;,
         0.192979; 0.530751;,
         0.187547; 0.999019;,
         0.281330; 0.997627;,
         0.073278; 0.532053;,
         0.192979; 0.530751;,
         0.192128; 0.483755;,
         0.074582; 0.496675;,
         0.419315; 0.998737;,
         0.504138; 0.999111;,
         0.497500; 0.530376;,
         0.413480; 0.529910;,
         0.799977; 0.734442;,
         0.808677; 0.826729;,
         0.829261; 0.824555;,
         0.819288; 0.741761;,
         0.665499; 0.531237;,
         0.665499; 0.999747;,
         0.685232; 1.000000;,
         0.685232; 0.531490;,
         0.663384; 0.498623;,
         0.682957; 0.496162;,
         0.665561; 0.176023;,
         0.645988; 0.178485;,
         0.665499; 0.531237;,
         0.685232; 0.531490;,
         0.682957; 0.496162;,
         0.663384; 0.498623;,
         0.603030; 0.178007;,
         0.602648; 0.498170;,
         0.663384; 0.498623;,
         0.645988; 0.178485;,
         0.602648; 0.498170;,
         0.604239; 0.530806;,
         0.665499; 0.531237;,
         0.663384; 0.498623;,
         0.073278; 0.532053;,
         0.074582; 0.496675;,
         0.002405; 0.496654;,
         0.000319; 0.531979;,
         0.074582; 0.496675;,
         0.067648; 0.175907;,
         0.013997; 0.175884;,
         0.002405; 0.496654;,
         0.849245; 0.926145;,
         0.834206; 0.940096;,
         0.878305; 1.000000;,
         0.883599; 0.980375;,
         0.749079; 0.999419;,
         0.740702; 0.679625;,
         0.687701; 0.680456;,
         0.717854; 1.000000;,
         0.832231; 0.658700;,
         0.844852; 0.674792;,
         0.880813; 0.646058;,
         0.883599; 0.625943;,
         0.791581; 0.531172;,
         0.789976; 0.475494;,
         0.751691; 0.474673;,
         0.749080; 0.530347;,
         0.281272; 0.470631;,
         0.285228; 0.529151;,
         0.349798; 0.524729;,
         0.343999; 0.466352;,
         0.937009; 0.428765;,
         0.918745; 0.438305;,
         0.943155; 0.501581;,
         0.953806; 0.484174;,
         0.285228; 0.529151;,
         0.281330; 0.997627;,
         0.349798; 0.993348;,
         0.349798; 0.524729;,
         0.416394; 0.474150;,
         0.448573; 0.154569;,
         0.391028; 0.152747;,
         0.354863; 0.471912;,
         0.419315; 0.998737;,
         0.413480; 0.529910;,
         0.349798; 0.527615;,
         0.352354; 0.996508;,
         0.918745; 0.999392;,
         0.903946; 0.530710;,
         0.883599; 0.531318;,
         0.898398; 1.000000;,
         0.883599; 0.531318;,
         0.903946; 0.530710;,
         0.907302; 0.474922;,
         0.887043; 0.472813;,
         0.887043; 0.472813;,
         0.907302; 0.474922;,
         0.918745; 0.155487;,
         0.898485; 0.153378;,
         0.953806; 0.484174;,
         0.943155; 0.501581;,
         0.971744; 0.533633;,
         0.966897; 0.513990;,
         0.740702; 0.679625;,
         0.742609; 0.621166;,
         0.685232; 0.622016;,
         0.687701; 0.680456;,
         0.742609; 0.621166;,
         0.749080; 0.152391;,
         0.692165; 0.153162;,
         0.685232; 0.622016;,
         0.799977; 1.000000;,
         0.791581; 0.531172;,
         0.749080; 0.530347;,
         0.757336; 0.999163;,
         0.789976; 0.475494;,
         0.799977; 0.156065;,
         0.782176; 0.155237;,
         0.751691; 0.474673;,
         0.995481; 0.212702;,
         0.994647; 0.108520;,
         0.918745; 0.108515;,
         0.919578; 0.212697;,
         0.882658; 0.623470;,
         0.881287; 0.479352;,
         0.799977; 0.481825;,
         0.801349; 0.625943;,
         0.920326; 0.761633;,
         0.918745; 1.000000;,
         0.994681; 0.999445;,
         0.994681; 0.754162;,
         0.919157; 0.548454;,
         0.918745; 0.754162;,
         1.000000; 0.749332;,
         1.000000; 0.533633;,
         0.682775; 0.152391;,
         0.749080; 0.151374;,
         0.749080; 0.078085;,
         0.689949; 0.078264;,
         0.994647; 0.108520;,
         0.995481; 0.000005;,
         0.919578; 0.000000;,
         0.918745; 0.108515;,
         0.640241; 0.078322;,
         0.576102; 0.068528;,
         0.576102; 0.142952;,
         0.640241; 0.152747;,
         0.425629; 0.148874;,
         0.425629; 0.022030;,
         0.349799; 0.025906;,
         0.349798; 0.152747;,
         0.425629; 0.053192;,
         0.425630; 0.142463;,
         0.500835; 0.152747;,
         0.500835; 0.063469;,
         0.500835; 0.066703;,
         0.500838; 0.142881;,
         0.576102; 0.152747;,
         0.576102; 0.076573;,
         0.881287; 0.479352;,
         0.882658; 0.328249;,
         0.801349; 0.330722;,
         0.799977; 0.481825;,
         0.799977; 0.067832;,
         0.799981; 0.327803;,
         0.881352; 0.328249;,
         0.881352; 0.068278;;
      } // End of Cube UV coordinates
      MeshMaterialList { // Cube material list
        1;
        58;
        0,
        0,
        0,
        0,
        0,
        0,
        0,
        0,
        0,
        0,
        0,
        0,
        0,
        0,
        0,
        0,
        0,
        0,
        0,
        0,
        0,
        0,
        0,
        0,
        0,
        0,
        0,
        0,
        0,
        0,
        0,
        0,
        0,
        0,
        0,
        0,
        0,
        0,
        0,
        0,
        0,
        0,
        0,
        0,
        0,
        0,
        0,
        0,
        0,
        0,
        0,
        0,
        0,
        0,
        0,
        0,
        0,
        0;
        Material Material_001 {
           0.640000; 0.640000; 0.640000; 1.000000;;
           96.078431;
           0.500000; 0.500000; 0.500000;;
           0.000000; 0.000000; 0.000000;;
        }
      } // End of Cube material list
    } // End of Cube mesh
  } // End of Cube
} // End of Root
