xof 0303txt 0032

Frame Root {
  FrameTransformMatrix {
     1.000000, 0.000000, 0.000000, 0.000000,
     0.000000,-0.000000, 1.000000, 0.000000,
     0.000000, 1.000000, 0.000000, 0.000000,
     0.000000, 0.000000, 0.000000, 1.000000;;
  }
  Frame Cube_001 {
    FrameTransformMatrix {
       1.000000, 0.000000, 0.000000, 0.000000,
       0.000000, 1.000000, 0.000000, 0.000000,
       0.000000, 0.000000, 1.000000, 0.000000,
       0.000000, 0.000000, 0.000000, 1.000000;;
    }
    Mesh { // Cube_001 mesh
      232;
       0.117340; 0.052872;-0.000847;,
       0.150804; 0.045259;-0.003350;,
       0.135525; 0.035441;-0.042766;,
       0.111441; 0.040920;-0.040576;,
       0.119386;-0.063141;-0.003143;,
       0.129625;-0.060533;-0.001061;,
       0.126696;-0.043501; 0.034444;,
       0.117734;-0.045801; 0.036844;,
       0.119386;-0.063141;-0.003143;,
       0.090994;-0.056682;-0.000794;,
       0.093294;-0.039222;-0.040564;,
       0.116569;-0.047885;-0.042766;,
       0.097265;-0.000321; 0.045654;,
       0.093731;-0.040341; 0.039047;,
       0.117734;-0.045801; 0.036844;,
       0.140705;-0.010203; 0.044208;,
       0.143239;-0.010779;-0.053198;,
       0.116569;-0.047885;-0.042766;,
       0.093294;-0.039222;-0.040564;,
       0.098878;-0.000688;-0.051721;,
       0.153383;-0.013087;-0.036504;,
       0.158938;-0.014351;-0.032237;,
       0.129219;-0.048094;-0.033650;,
       0.124553;-0.050203;-0.036707;,
       0.140705;-0.010203; 0.044208;,
       0.152552;-0.012898; 0.034630;,
       0.142479; 0.025879; 0.034444;,
       0.136460; 0.036199; 0.036360;,
       0.143239;-0.010779;-0.053198;,
       0.153383;-0.013087;-0.036504;,
       0.124553;-0.050203;-0.036707;,
       0.116569;-0.047885;-0.042766;,
       0.150804; 0.045259;-0.003350;,
       0.156638; 0.022657;-0.000981;,
       0.141892; 0.026012;-0.036707;,
       0.135525; 0.035441;-0.042766;,
       0.068266; 0.006276; 0.042634;,
       0.035183; 0.013802; 0.041247;,
       0.049115;-0.026479; 0.035822;,
       0.065268;-0.031410; 0.035692;,
       0.098878;-0.000688;-0.051721;,
       0.069320; 0.006037;-0.048122;,
       0.082036; 0.045154;-0.039130;,
       0.111441; 0.040920;-0.040576;,
       0.097265;-0.000321; 0.045654;,
       0.068266; 0.006276; 0.042634;,
       0.065268;-0.031410; 0.035692;,
       0.093731;-0.040341; 0.039047;,
       0.057514; 0.061675;-0.000337;,
       0.035575; 0.063080;-0.000313;,
       0.042287; 0.051143; 0.031629;,
       0.066153; 0.048482; 0.035326;,
       0.069320; 0.006037;-0.048122;,
       0.035565; 0.013716;-0.046119;,
       0.065278; 0.047710;-0.036562;,
       0.082036; 0.045154;-0.039130;,
       0.039896; 0.043362;-0.031241;,
       0.041456; 0.050361;-0.034861;,
       0.026158; 0.015856;-0.040358;,
       0.025048; 0.016108;-0.027069;,
       0.040250;-0.040914;-0.000346;,
       0.015458;-0.032123;-0.001336;,
       0.026472;-0.015505;-0.034861;,
       0.049178;-0.023439;-0.036550;,
       0.035565; 0.013716;-0.046119;,
       0.026158; 0.015856;-0.040358;,
       0.041456; 0.050361;-0.034861;,
       0.065278; 0.047710;-0.036562;,
       0.035183; 0.013802; 0.041247;,
       0.024414; 0.016252; 0.039289;,
       0.026365;-0.018535; 0.032114;,
       0.049115;-0.026479; 0.035822;,
       0.025254; 0.016061; 0.028044;,
       0.024414; 0.016252; 0.039289;,
       0.042287; 0.051143; 0.031629;,
       0.040389; 0.043249; 0.028493;,
       0.018338;-0.019464;-0.001336;,
       0.015458;-0.032123;-0.001336;,
       0.026365;-0.018535; 0.032114;,
       0.027138;-0.014998; 0.028493;,
       0.025048; 0.016108;-0.027069;,
       0.026158; 0.015856;-0.040358;,
       0.026472;-0.015505;-0.034861;,
       0.026645;-0.014886;-0.031241;,
       0.031148; 0.043623;-0.000313;,
       0.035575; 0.063080;-0.000313;,
       0.041456; 0.050361;-0.034861;,
       0.039896; 0.043362;-0.031241;,
       0.156638; 0.022657;-0.000981;,
       0.160871; 0.017588;-0.001025;,
       0.145186; 0.022093;-0.033650;,
       0.141892; 0.026012;-0.036707;,
       0.129625;-0.060533;-0.001061;,
       0.136872;-0.049484;-0.001100;,
       0.131311;-0.041381; 0.031318;,
       0.126696;-0.043501; 0.034444;,
       0.152552;-0.012898; 0.034630;,
       0.157923;-0.014120; 0.030358;,
       0.145723; 0.021971; 0.031318;,
       0.142479; 0.025879; 0.034444;,
       0.049178;-0.023439;-0.036550;,
       0.026472;-0.015505;-0.034861;,
       0.026158; 0.015856;-0.040358;,
       0.035565; 0.013716;-0.046119;,
       0.064485;-0.031999;-0.039130;,
       0.049178;-0.023439;-0.036550;,
       0.035565; 0.013716;-0.046119;,
       0.069320; 0.006037;-0.048122;,
       0.093294;-0.039222;-0.040564;,
       0.064485;-0.031999;-0.039130;,
       0.069320; 0.006037;-0.048122;,
       0.098878;-0.000688;-0.051721;,
       0.135525; 0.035441;-0.042766;,
       0.141892; 0.026012;-0.036707;,
       0.153383;-0.013087;-0.036504;,
       0.143239;-0.010779;-0.053198;,
       0.141892; 0.026012;-0.036707;,
       0.145186; 0.022093;-0.033650;,
       0.158938;-0.014351;-0.032237;,
       0.153383;-0.013087;-0.036504;,
       0.135525; 0.035441;-0.042766;,
       0.143239;-0.010779;-0.053198;,
       0.098878;-0.000688;-0.051721;,
       0.111441; 0.040920;-0.040576;,
       0.126696;-0.043501; 0.034444;,
       0.131311;-0.041381; 0.031318;,
       0.157923;-0.014120; 0.030358;,
       0.152552;-0.012898; 0.034630;,
       0.027138;-0.014998; 0.028493;,
       0.026365;-0.018535; 0.032114;,
       0.024414; 0.016252; 0.039289;,
       0.025254; 0.016061; 0.028044;,
       0.066153; 0.048482; 0.035326;,
       0.042287; 0.051143; 0.031629;,
       0.024414; 0.016252; 0.039289;,
       0.035183; 0.013802; 0.041247;,
       0.112376; 0.041678; 0.038551;,
       0.082932; 0.045921; 0.035208;,
       0.068266; 0.006276; 0.042634;,
       0.097265;-0.000321; 0.045654;,
       0.082932; 0.045921; 0.035208;,
       0.066153; 0.048482; 0.035326;,
       0.035183; 0.013802; 0.041247;,
       0.068266; 0.006276; 0.042634;,
       0.117734;-0.045801; 0.036844;,
       0.126696;-0.043501; 0.034444;,
       0.152552;-0.012898; 0.034630;,
       0.140705;-0.010203; 0.044208;,
       0.112376; 0.041678; 0.038551;,
       0.097265;-0.000321; 0.045654;,
       0.140705;-0.010203; 0.044208;,
       0.136460; 0.036199; 0.036360;,
       0.142479; 0.025879; 0.034444;,
       0.145723; 0.021971; 0.031318;,
       0.160871; 0.017588;-0.001025;,
       0.156638; 0.022657;-0.000981;,
       0.040389; 0.043249; 0.028493;,
       0.042287; 0.051143; 0.031629;,
       0.035575; 0.063080;-0.000313;,
       0.031148; 0.043623;-0.000313;,
       0.065278; 0.047710;-0.036562;,
       0.041456; 0.050361;-0.034861;,
       0.035575; 0.063080;-0.000313;,
       0.057514; 0.061675;-0.000337;,
       0.136460; 0.036199; 0.036360;,
       0.142479; 0.025879; 0.034444;,
       0.156638; 0.022657;-0.000981;,
       0.150804; 0.045259;-0.003350;,
       0.112376; 0.041678; 0.038551;,
       0.136460; 0.036199; 0.036360;,
       0.150804; 0.045259;-0.003350;,
       0.117340; 0.052872;-0.000847;,
       0.124553;-0.050203;-0.036707;,
       0.129219;-0.048094;-0.033650;,
       0.136872;-0.049484;-0.001100;,
       0.129625;-0.060533;-0.001061;,
       0.026645;-0.014886;-0.031241;,
       0.026472;-0.015505;-0.034861;,
       0.015458;-0.032123;-0.001336;,
       0.018338;-0.019464;-0.001336;,
       0.049115;-0.026479; 0.035822;,
       0.026365;-0.018535; 0.032114;,
       0.015458;-0.032123;-0.001336;,
       0.040250;-0.040914;-0.000346;,
       0.117734;-0.045801; 0.036844;,
       0.093731;-0.040341; 0.039047;,
       0.090994;-0.056682;-0.000794;,
       0.119386;-0.063141;-0.003143;,
       0.116569;-0.047885;-0.042766;,
       0.124553;-0.050203;-0.036707;,
       0.129625;-0.060533;-0.001061;,
       0.119386;-0.063141;-0.003143;,
       0.016547; 0.048023; 0.030304;,
       0.003526;-0.016255; 0.031689;,
       0.001672;-0.015354; 0.055299;,
       0.014694; 0.048924; 0.053914;,
       0.003526;-0.016255; 0.031689;,
       0.150590;-0.045613; 0.037036;,
       0.148737;-0.044712; 0.060646;,
       0.001672;-0.015354; 0.055299;,
       0.150590;-0.045613; 0.037036;,
       0.163612; 0.018666; 0.035651;,
       0.161759; 0.019567; 0.059261;,
       0.148737;-0.044712; 0.060646;,
       0.163612; 0.018666; 0.035651;,
       0.016547; 0.048023; 0.030304;,
       0.014694; 0.048924; 0.053914;,
       0.161759; 0.019567; 0.059261;,
       0.003526;-0.016255; 0.031689;,
       0.016547; 0.048023; 0.030304;,
       0.163612; 0.018666; 0.035651;,
       0.150590;-0.045613; 0.037036;,
       0.014694; 0.048924; 0.053914;,
       0.021150; 0.044456; 0.060904;,
       0.153598; 0.018017; 0.065719;,
       0.161759; 0.019567; 0.059261;,
       0.141871;-0.039873; 0.066967;,
       0.153598; 0.018017; 0.065719;,
       0.021150; 0.044456; 0.060904;,
       0.009422;-0.013434; 0.062151;,
       0.148737;-0.044712; 0.060646;,
       0.141871;-0.039873; 0.066967;,
       0.009422;-0.013434; 0.062151;,
       0.001672;-0.015354; 0.055299;,
       0.161759; 0.019567; 0.059261;,
       0.153598; 0.018017; 0.065719;,
       0.141871;-0.039873; 0.066967;,
       0.148737;-0.044712; 0.060646;,
       0.001672;-0.015354; 0.055299;,
       0.009422;-0.013434; 0.062151;,
       0.021150; 0.044456; 0.060904;,
       0.014694; 0.048924; 0.053914;;
      58;
      4;3,2,1,0;,
      4;7,6,5,4;,
      4;11,10,9,8;,
      4;15,14,13,12;,
      4;19,18,17,16;,
      4;23,22,21,20;,
      4;27,26,25,24;,
      4;31,30,29,28;,
      4;35,34,33,32;,
      4;39,38,37,36;,
      4;43,42,41,40;,
      4;47,46,45,44;,
      4;51,50,49,48;,
      4;55,54,53,52;,
      4;59,58,57,56;,
      4;63,62,61,60;,
      4;67,66,65,64;,
      4;71,70,69,68;,
      4;75,74,73,72;,
      4;79,78,77,76;,
      4;83,82,81,80;,
      4;87,86,85,84;,
      4;91,90,89,88;,
      4;95,94,93,92;,
      4;99,98,97,96;,
      4;103,102,101,100;,
      4;107,106,105,104;,
      4;111,110,109,108;,
      4;115,114,113,112;,
      4;119,118,117,116;,
      4;123,122,121,120;,
      4;127,126,125,124;,
      4;131,130,129,128;,
      4;135,134,133,132;,
      4;139,138,137,136;,
      4;143,142,141,140;,
      4;147,146,145,144;,
      4;151,150,149,148;,
      4;155,154,153,152;,
      4;159,158,157,156;,
      4;163,162,161,160;,
      4;167,166,165,164;,
      4;171,170,169,168;,
      4;175,174,173,172;,
      4;179,178,177,176;,
      4;183,182,181,180;,
      4;187,186,185,184;,
      4;191,190,189,188;,
      4;195,194,193,192;,
      4;199,198,197,196;,
      4;203,202,201,200;,
      4;207,206,205,204;,
      4;211,210,209,208;,
      4;215,214,213,212;,
      4;219,218,217,216;,
      4;223,222,221,220;,
      4;227,226,225,224;,
      4;231,230,229,228;;
      MeshNormals { // Cube_001 normals
        202;
         0.222205; 0.974975; 0.005280;,
         0.696493; 0.716788;-0.032899;,
         0.436018; 0.560045;-0.704398;,
         0.060396; 0.541337;-0.838618;,
        -0.015534;-0.999847;-0.007538;,
         0.507920;-0.858821; 0.066469;,
         0.480483;-0.628895; 0.611194;,
         0.080325;-0.680532; 0.728294;,
        -0.015534;-0.999847;-0.007538;,
        -0.247902;-0.968352; 0.028596;,
        -0.198645;-0.489608;-0.848994;,
         0.061586;-0.696921;-0.714469;,
        -0.037141; 0.004456; 0.999298;,
        -0.108493;-0.457503; 0.882534;,
         0.080325;-0.680532; 0.728294;,
         0.355358;-0.082827; 0.931028;,
         0.473464;-0.096225;-0.875515;,
         0.061586;-0.696921;-0.714469;,
        -0.198645;-0.489608;-0.848994;,
        -0.074770; 0.007813;-0.997162;,
         0.716025;-0.132420;-0.685354;,
         0.656911;-0.126652;-0.743217;,
         0.667440;-0.544023;-0.508438;,
         0.478042;-0.740471;-0.472365;,
         0.355358;-0.082827; 0.931028;,
         0.629139;-0.143223; 0.763970;,
         0.757897; 0.279946; 0.589221;,
         0.462355; 0.550493; 0.695059;,
         0.473464;-0.096225;-0.875515;,
         0.716025;-0.132420;-0.685354;,
         0.478042;-0.740471;-0.472365;,
         0.061586;-0.696921;-0.714469;,
         0.696493; 0.716788;-0.032899;,
         0.882260; 0.470717; 0.005341;,
         0.848659; 0.281869;-0.447554;,
         0.436018; 0.560045;-0.704398;,
        -0.067385; 0.011322; 0.997650;,
        -0.126499; 0.021210; 0.991729;,
        -0.198492;-0.411145; 0.889676;,
        -0.114536;-0.161077; 0.980255;,
        -0.074770; 0.007813;-0.997162;,
        -0.099216; 0.006867;-0.995025;,
        -0.034822; 0.257729;-0.965575;,
         0.060396; 0.541337;-0.838618;,
        -0.037141; 0.004456; 0.999298;,
        -0.067385; 0.011322; 0.997650;,
        -0.114536;-0.161077; 0.980255;,
        -0.108493;-0.457503; 0.882534;,
         0.067293; 0.997711; 0.000458;,
        -0.591357; 0.806330; 0.008209;,
        -0.457625; 0.640431; 0.616749;,
        -0.007508; 0.447768; 0.894101;,
        -0.099216; 0.006867;-0.995025;,
        -0.192450; 0.020081;-0.981079;,
        -0.036805; 0.519669;-0.853542;,
        -0.034822; 0.257729;-0.965575;,
        -0.938566; 0.332926;-0.090579;,
        -0.473220; 0.639027;-0.606342;,
        -0.766533; 0.151158;-0.624104;,
        -0.977752; 0.209357;-0.010804;,
        -0.357402;-0.933805;-0.015839;,
        -0.858333;-0.512528;-0.023743;,
        -0.704001;-0.382031;-0.598651;,
        -0.250008;-0.457411;-0.853359;,
        -0.192450; 0.020081;-0.981079;,
        -0.766533; 0.151158;-0.624104;,
        -0.473220; 0.639027;-0.606342;,
        -0.036805; 0.519669;-0.853542;,
        -0.126499; 0.021210; 0.991729;,
        -0.797937; 0.168584; 0.578631;,
        -0.704794;-0.367168; 0.606952;,
        -0.198492;-0.411145; 0.889676;,
        -0.965850; 0.206122;-0.156774;,
        -0.797937; 0.168584; 0.578631;,
        -0.457625; 0.640431; 0.616749;,
        -0.937651; 0.347209; 0.014008;,
        -0.962371; 0.271493; 0.011017;,
        -0.858333;-0.512528;-0.023743;,
        -0.704794;-0.367168; 0.606952;,
        -0.993652; 0.103366; 0.043733;,
        -0.977752; 0.209357;-0.010804;,
        -0.766533; 0.151158;-0.624104;,
        -0.704001;-0.382031;-0.598651;,
        -0.978912; 0.148564;-0.140080;,
        -0.981597; 0.189978; 0.018342;,
        -0.591357; 0.806330; 0.008209;,
        -0.473220; 0.639027;-0.606342;,
        -0.938566; 0.332926;-0.090579;,
         0.882260; 0.470717; 0.005341;,
         0.814570; 0.580035;-0.003876;,
         0.764336; 0.399487;-0.506119;,
         0.848659; 0.281869;-0.447554;,
         0.507920;-0.858821; 0.066469;,
         0.774499;-0.630329; 0.052644;,
         0.652242;-0.548906; 0.522691;,
         0.480483;-0.628895; 0.611194;,
         0.629139;-0.143223; 0.763970;,
         0.669454;-0.152287; 0.727042;,
         0.772912; 0.391980; 0.498917;,
         0.757897; 0.279946; 0.589221;,
        -0.250008;-0.457411;-0.853359;,
        -0.704001;-0.382031;-0.598651;,
        -0.766533; 0.151158;-0.624104;,
        -0.192450; 0.020081;-0.981079;,
        -0.153539;-0.243141;-0.957732;,
        -0.250008;-0.457411;-0.853359;,
        -0.192450; 0.020081;-0.981079;,
        -0.099216; 0.006867;-0.995025;,
        -0.198645;-0.489608;-0.848994;,
        -0.153539;-0.243141;-0.957732;,
        -0.099216; 0.006867;-0.995025;,
        -0.074770; 0.007813;-0.997162;,
         0.436018; 0.560045;-0.704398;,
         0.848659; 0.281869;-0.447554;,
         0.716025;-0.132420;-0.685354;,
         0.473464;-0.096225;-0.875515;,
         0.848659; 0.281869;-0.447554;,
         0.764336; 0.399487;-0.506119;,
         0.656911;-0.126652;-0.743217;,
         0.716025;-0.132420;-0.685354;,
         0.436018; 0.560045;-0.704398;,
         0.473464;-0.096225;-0.875515;,
        -0.074770; 0.007813;-0.997162;,
         0.060396; 0.541337;-0.838618;,
         0.480483;-0.628895; 0.611194;,
         0.652242;-0.548906; 0.522691;,
         0.669454;-0.152287; 0.727042;,
         0.629139;-0.143223; 0.763970;,
        -0.993652; 0.103366; 0.043733;,
        -0.704794;-0.367168; 0.606952;,
        -0.797937; 0.168584; 0.578631;,
        -0.965850; 0.206122;-0.156774;,
        -0.007508; 0.447768; 0.894101;,
        -0.457625; 0.640431; 0.616749;,
        -0.797937; 0.168584; 0.578631;,
        -0.126499; 0.021210; 0.991729;,
         0.098666; 0.472701; 0.875668;,
        -0.034883; 0.187078; 0.981719;,
        -0.067385; 0.011322; 0.997650;,
        -0.037141; 0.004456; 0.999298;,
        -0.034883; 0.187078; 0.981719;,
        -0.007508; 0.447768; 0.894101;,
        -0.126499; 0.021210; 0.991729;,
        -0.067385; 0.011322; 0.997650;,
         0.080325;-0.680532; 0.728294;,
         0.480483;-0.628895; 0.611194;,
         0.629139;-0.143223; 0.763970;,
         0.355358;-0.082827; 0.931028;,
         0.098666; 0.472701; 0.875668;,
        -0.037141; 0.004456; 0.999298;,
         0.355358;-0.082827; 0.931028;,
         0.462355; 0.550493; 0.695059;,
         0.757897; 0.279946; 0.589221;,
         0.772912; 0.391980; 0.498917;,
         0.814570; 0.580035;-0.003876;,
         0.882260; 0.470717; 0.005341;,
        -0.937651; 0.347209; 0.014008;,
        -0.457625; 0.640431; 0.616749;,
        -0.591357; 0.806330; 0.008209;,
        -0.981597; 0.189978; 0.018342;,
        -0.036805; 0.519669;-0.853542;,
        -0.473220; 0.639027;-0.606342;,
        -0.591357; 0.806330; 0.008209;,
         0.067293; 0.997711; 0.000458;,
         0.462355; 0.550493; 0.695059;,
         0.757897; 0.279946; 0.589221;,
         0.882260; 0.470717; 0.005341;,
         0.696493; 0.716788;-0.032899;,
         0.098666; 0.472701; 0.875668;,
         0.462355; 0.550493; 0.695059;,
         0.696493; 0.716788;-0.032899;,
         0.222205; 0.974975; 0.005280;,
         0.478042;-0.740471;-0.472365;,
         0.667440;-0.544023;-0.508438;,
         0.774499;-0.630329; 0.052644;,
         0.507920;-0.858821; 0.066469;,
        -0.978912; 0.148564;-0.140080;,
        -0.704001;-0.382031;-0.598651;,
        -0.858333;-0.512528;-0.023743;,
        -0.962371; 0.271493; 0.011017;,
        -0.198492;-0.411145; 0.889676;,
        -0.704794;-0.367168; 0.606952;,
        -0.858333;-0.512528;-0.023743;,
        -0.357402;-0.933805;-0.015839;,
         0.080325;-0.680532; 0.728294;,
        -0.108493;-0.457503; 0.882534;,
        -0.247902;-0.968352; 0.028596;,
        -0.015534;-0.999847;-0.007538;,
         0.061586;-0.696921;-0.714469;,
         0.478042;-0.740471;-0.472365;,
         0.507920;-0.858821; 0.066469;,
        -0.015534;-0.999847;-0.007538;,
        -0.976964; 0.196106;-0.084171;,
        -0.196482;-0.980261; 0.021987;,
         0.976964;-0.196106; 0.084171;,
         0.196482; 0.980261;-0.021986;,
         0.030785;-0.027771;-0.999140;,
         0.162927; 0.892704; 0.420160;,
        -0.030785; 0.027771; 0.999140;,
        -0.189991;-0.868287; 0.458237;,
         0.629637;-0.110984; 0.768921;,
        -0.675555; 0.152406; 0.721386;;
        58;
        4;3,2,1,0;,
        4;7,6,5,4;,
        4;11,10,9,8;,
        4;15,14,13,12;,
        4;19,18,17,16;,
        4;23,22,21,20;,
        4;27,26,25,24;,
        4;31,30,29,28;,
        4;35,34,33,32;,
        4;39,38,37,36;,
        4;43,42,41,40;,
        4;47,46,45,44;,
        4;51,50,49,48;,
        4;55,54,53,52;,
        4;59,58,57,56;,
        4;63,62,61,60;,
        4;67,66,65,64;,
        4;71,70,69,68;,
        4;75,74,73,72;,
        4;79,78,77,76;,
        4;83,82,81,80;,
        4;87,86,85,84;,
        4;91,90,89,88;,
        4;95,94,93,92;,
        4;99,98,97,96;,
        4;103,102,101,100;,
        4;107,106,105,104;,
        4;111,110,109,108;,
        4;115,114,113,112;,
        4;119,118,117,116;,
        4;123,122,121,120;,
        4;127,126,125,124;,
        4;131,130,129,128;,
        4;135,134,133,132;,
        4;139,138,137,136;,
        4;143,142,141,140;,
        4;147,146,145,144;,
        4;151,150,149,148;,
        4;155,154,153,152;,
        4;159,158,157,156;,
        4;163,162,161,160;,
        4;167,166,165,164;,
        4;171,170,169,168;,
        4;175,174,173,172;,
        4;179,178,177,176;,
        4;183,182,181,180;,
        4;187,186,185,184;,
        4;191,190,189,188;,
        4;192,192,192,192;,
        4;193,193,193,193;,
        4;194,194,194,194;,
        4;195,195,195,195;,
        4;196,196,196,196;,
        4;197,197,197,197;,
        4;198,198,198,198;,
        4;199,199,199,199;,
        4;200,200,200,200;,
        4;201,201,201,201;;
      } // End of Cube_001 normals
      MeshTextureCoords { // Cube_001 UV coordinates
        232;
         0.102499; 0.178878;,
         0.000000; 0.185035;,
         0.039241; 0.303785;,
         0.113022; 0.298161;,
         0.730865; 0.870206;,
         0.702584; 0.877104;,
         0.722605; 0.986905;,
         0.747453; 0.993840;,
         0.730865; 0.870206;,
         0.817992; 0.876705;,
         0.821117; 0.755474;,
         0.747596; 0.749130;,
         0.119088; 0.828291;,
         0.000000; 0.843695;,
         0.000000; 0.918748;,
         0.119104; 0.964617;,
         0.376346; 1.000000;,
         0.506403; 0.951913;,
         0.501971; 0.875449;,
         0.386068; 0.860872;,
         0.930800; 0.869282;,
         0.915200; 0.869528;,
         0.978677; 0.990679;,
         0.989854; 1.000000;,
         0.119104; 0.964617;,
         0.119050; 1.000000;,
         0.225437; 0.943434;,
         0.251546; 0.918783;,
         0.552472; 0.257407;,
         0.578967; 0.292327;,
         0.677572; 0.194629;,
         0.670895; 0.182918;,
         0.554171; 0.488299;,
         0.589944; 0.446484;,
         0.527116; 0.371987;,
         0.506403; 0.376822;,
         0.119052; 0.736506;,
         0.119024; 0.632198;,
         0.010777; 0.700228;,
         0.007122; 0.751857;,
         0.386068; 0.860872;,
         0.392734; 0.767334;,
         0.270427; 0.766643;,
         0.256925; 0.856817;,
         0.119088; 0.828291;,
         0.119052; 0.736506;,
         0.007122; 0.751857;,
         0.000000; 0.843695;,
         0.178467; 0.191720;,
         0.113022; 0.191535;,
         0.137535; 0.291936;,
         0.209151; 0.303785;,
         0.392734; 0.767334;,
         0.400195; 0.661186;,
         0.277839; 0.714565;,
         0.270427; 0.766643;,
         0.193862; 0.558635;,
         0.200921; 0.582225;,
         0.234838; 0.472815;,
         0.195554; 0.465949;,
         0.899079; 0.889955;,
         0.821117; 0.893437;,
         0.843811; 0.995216;,
         0.915200; 1.000000;,
         0.400195; 0.661186;,
         0.402649; 0.629945;,
         0.291045; 0.642039;,
         0.277839; 0.714565;,
         0.119024; 0.632198;,
         0.119006; 0.597949;,
         0.018813; 0.626074;,
         0.010777; 0.700228;,
         0.033229; 0.437513;,
         0.000000; 0.431705;,
         0.004658; 0.550788;,
         0.017960; 0.527817;,
         0.138077; 0.343111;,
         0.144596; 0.303785;,
         0.039111; 0.334044;,
         0.047954; 0.346877;,
         0.195554; 0.465949;,
         0.234838; 0.472815;,
         0.234838; 0.377619;,
         0.223856; 0.377695;,
         0.102566; 0.537507;,
         0.092547; 0.597949;,
         0.200921; 0.582225;,
         0.193862; 0.558635;,
         0.773858; 0.108031;,
         0.758943; 0.107144;,
         0.806573; 0.207980;,
         0.818090; 0.218141;,
         0.728317; 0.489493;,
         0.756083; 0.461214;,
         0.693610; 0.379423;,
         0.677572; 0.380160;,
         0.761148; 0.298103;,
         0.774974; 0.306716;,
         0.818090; 0.231482;,
         0.813897; 0.218141;,
         0.495379; 0.731135;,
         0.492501; 0.657150;,
         0.402649; 0.629945;,
         0.400195; 0.661186;,
         0.506403; 0.784343;,
         0.495379; 0.731135;,
         0.400195; 0.661186;,
         0.392734; 0.767334;,
         0.501971; 0.875449;,
         0.506403; 0.784343;,
         0.392734; 0.767334;,
         0.386068; 0.860872;,
         0.506403; 0.376822;,
         0.527116; 0.371987;,
         0.578967; 0.292327;,
         0.552472; 0.257407;,
         0.989854; 0.759867;,
         0.978677; 0.769540;,
         0.915200; 0.869528;,
         0.930800; 0.869282;,
         0.251546; 0.932796;,
         0.376346; 1.000000;,
         0.386068; 0.860872;,
         0.256925; 0.856817;,
         0.677572; 0.380160;,
         0.693610; 0.379423;,
         0.774974; 0.306716;,
         0.761148; 0.298103;,
         0.047954; 0.346877;,
         0.039111; 0.334044;,
         0.000000; 0.431705;,
         0.033229; 0.437513;,
         0.240676; 0.700012;,
         0.232567; 0.626121;,
         0.119006; 0.597949;,
         0.119024; 0.632198;,
         0.251546; 0.843472;,
         0.244349; 0.751897;,
         0.119052; 0.736506;,
         0.119088; 0.828291;,
         0.244349; 0.751897;,
         0.240676; 0.700012;,
         0.119024; 0.632198;,
         0.119052; 0.736506;,
         0.000000; 0.918748;,
         0.012641; 0.943504;,
         0.119050; 1.000000;,
         0.119104; 0.964617;,
         0.251546; 0.843472;,
         0.119088; 0.828291;,
         0.119104; 0.964617;,
         0.251546; 0.918783;,
         0.818090; 0.000000;,
         0.806573; 0.008793;,
         0.758943; 0.107144;,
         0.773858; 0.108031;,
         0.017960; 0.527817;,
         0.004658; 0.550788;,
         0.092547; 0.597949;,
         0.102566; 0.537507;,
         0.209151; 0.083571;,
         0.137505; 0.088273;,
         0.113022; 0.191535;,
         0.178467; 0.191720;,
         0.671840; 0.542907;,
         0.677572; 0.519398;,
         0.589944; 0.446484;,
         0.554171; 0.488299;,
         0.113022; 0.055756;,
         0.039241; 0.061381;,
         0.000000; 0.185035;,
         0.102499; 0.178878;,
         0.815175; 0.542907;,
         0.818089; 0.529416;,
         0.756083; 0.461214;,
         0.728317; 0.489493;,
         0.223856; 0.377695;,
         0.234838; 0.377619;,
         0.144596; 0.303785;,
         0.138077; 0.343111;,
         0.915200; 0.777821;,
         0.843801; 0.789623;,
         0.821117; 0.893437;,
         0.899079; 0.889955;,
         0.747453; 0.993840;,
         0.821117; 1.000000;,
         0.817992; 0.876705;,
         0.730865; 0.870206;,
         0.747596; 0.749130;,
         0.722950; 0.767922;,
         0.702584; 0.877104;,
         0.730865; 0.870206;,
         0.867174; 0.749130;,
         0.867174; 0.547610;,
         0.796364; 0.547595;,
         0.796364; 0.749114;,
         0.909310; 0.081854;,
         0.909310; 0.542907;,
         0.980106; 0.539367;,
         0.980106; 0.078314;,
         0.796364; 0.749130;,
         0.796364; 0.552878;,
         0.726020; 0.550792;,
         0.726020; 0.747044;,
         0.909310; 0.542907;,
         0.909310; 0.082091;,
         0.838804; 0.078780;,
         0.838804; 0.539596;,
         0.506403; 1.000000;,
         0.702584; 0.999374;,
         0.702584; 0.542907;,
         0.506403; 0.543533;,
         0.838804; 0.078780;,
         0.818090; 0.101381;,
         0.818090; 0.516398;,
         0.838804; 0.539596;,
         0.436875; 0.191374;,
         0.260228; 0.191374;,
         0.260829; 0.606468;,
         0.437475; 0.606468;,
         0.980106; 0.539367;,
         1.000000; 0.516363;,
         1.000000; 0.101132;,
         0.980106; 0.078314;,
         0.726020; 0.550792;,
         0.702584; 0.564942;,
         0.702584; 0.741689;,
         0.726020; 0.747044;,
         0.447687; 0.629945;,
         0.437475; 0.606468;,
         0.260829; 0.606468;,
         0.251546; 0.629945;;
      } // End of Cube_001 UV coordinates
      MeshMaterialList { // Cube_001 material list
        1;
        58;
        0,
        0,
        0,
        0,
        0,
        0,
        0,
        0,
        0,
        0,
        0,
        0,
        0,
        0,
        0,
        0,
        0,
        0,
        0,
        0,
        0,
        0,
        0,
        0,
        0,
        0,
        0,
        0,
        0,
        0,
        0,
        0,
        0,
        0,
        0,
        0,
        0,
        0,
        0,
        0,
        0,
        0,
        0,
        0,
        0,
        0,
        0,
        0,
        0,
        0,
        0,
        0,
        0,
        0,
        0,
        0,
        0,
        0;
        Material Material_003 {
           0.640000; 0.640000; 0.640000; 1.000000;;
           96.078431;
           0.500000; 0.500000; 0.500000;;
           0.000000; 0.000000; 0.000000;;
        }
      } // End of Cube_001 material list
    } // End of Cube_001 mesh
  } // End of Cube_001
} // End of Root
