xof 0303txt 0032

Frame Root {
  FrameTransformMatrix {
     1.000000, 0.000000, 0.000000, 0.000000,
     0.000000,-0.000000, 1.000000, 0.000000,
     0.000000, 1.000000, 0.000000, 0.000000,
     0.000000, 0.000000, 0.000000, 1.000000;;
  }
  Frame Cube {
    FrameTransformMatrix {
       1.000000, 0.000000, 0.000000, 0.000000,
       0.000000, 1.000000, 0.000000, 0.000000,
       0.000000, 0.000000, 1.000000, 0.000000,
       0.000000, 0.000000, 0.000000, 1.000000;;
    }
    Mesh { // Cube mesh
      764;
       0.144470; 0.062889; 0.049823;,
       0.140736; 0.062000; 0.049823;,
       0.134269; 0.063590; 0.049823;,
       0.136411; 0.066775; 0.049823;,
       0.140736; 0.062000; 0.049823;,
       0.144470; 0.062889; 0.049823;,
       0.167797;-0.024358; 0.049823;,
       0.164063;-0.025247; 0.049823;,
       0.167797;-0.024358; 0.049823;,
       0.152109;-0.028094; 0.107213;,
       0.153164;-0.035155; 0.107213;,
       0.162595;-0.032909; 0.049823;,
       0.116798; 0.067530; 0.107213;,
       0.124838; 0.061344; 0.107213;,
       0.111584; 0.058219; 0.146283;,
       0.103544; 0.064405; 0.146283;,
       0.140736; 0.062000; 0.049823;,
       0.164063;-0.025247; 0.049823;,
       0.148375;-0.028983; 0.107213;,
       0.125048; 0.058264; 0.107213;,
       0.167797;-0.024358; 0.049823;,
       0.144470; 0.062889; 0.049823;,
       0.128782; 0.059154; 0.107213;,
       0.152109;-0.028094; 0.107213;,
       0.126979; 0.064529; 0.107213;,
       0.136411; 0.066775; 0.049823;,
       0.125261; 0.073491; 0.049823;,
       0.115830; 0.071244; 0.107213;,
       0.152109;-0.028094; 0.107213;,
       0.128782; 0.059154; 0.107213;,
       0.115528; 0.056029; 0.146283;,
       0.138855;-0.031219; 0.146283;,
       0.128782; 0.059154; 0.107213;,
       0.144470; 0.062889; 0.049823;,
       0.136411; 0.066775; 0.049823;,
       0.126979; 0.064529; 0.107213;,
       0.140736; 0.062000; 0.049823;,
       0.125048; 0.058264; 0.107213;,
       0.124838; 0.061344; 0.107213;,
       0.134269; 0.063590; 0.049823;,
       0.125261; 0.073491; 0.049823;,
       0.126230; 0.069776; 0.049823;,
       0.114726; 0.066777; 0.049823;,
       0.113757; 0.070491; 0.049823;,
       0.134269; 0.063590; 0.049823;,
       0.124838; 0.061344; 0.107213;,
       0.116798; 0.067530; 0.107213;,
       0.126230; 0.069776; 0.049823;,
       0.136411; 0.066775; 0.049823;,
       0.134269; 0.063590; 0.049823;,
       0.126230; 0.069776; 0.049823;,
       0.125261; 0.073491; 0.049823;,
       0.128782; 0.059154; 0.107213;,
       0.126979; 0.064529; 0.107213;,
       0.113725; 0.061405; 0.146283;,
       0.115528; 0.056029; 0.146283;,
       0.095237; 0.062136; 0.082064;,
       0.094269; 0.065850; 0.082064;,
       0.113757; 0.070491; 0.049823;,
       0.114726; 0.066777; 0.049823;,
       0.119904;-0.047471; 0.081895;,
       0.121293;-0.051049; 0.081947;,
       0.118096;-0.051778; 0.146167;,
       0.116707;-0.048200; 0.146114;,
       0.115830; 0.071244; 0.107213;,
       0.125261; 0.073491; 0.049823;,
       0.113757; 0.070491; 0.049823;,
       0.094269; 0.065850; 0.082064;,
       0.126230; 0.069776; 0.049823;,
       0.116798; 0.067530; 0.107213;,
       0.095237; 0.062136; 0.082064;,
       0.114726; 0.066777; 0.049823;,
       0.159398;-0.030785; 0.049823;,
       0.162595;-0.032909; 0.049823;,
       0.155605;-0.041160; 0.049823;,
       0.154213;-0.037582; 0.049823;,
       0.164063;-0.025247; 0.049823;,
       0.167797;-0.024358; 0.049823;,
       0.162595;-0.032909; 0.049823;,
       0.159398;-0.030785; 0.049823;,
       0.153164;-0.035155; 0.107213;,
       0.152109;-0.028094; 0.107213;,
       0.138855;-0.031219; 0.146283;,
       0.139909;-0.038280; 0.146283;,
       0.148375;-0.028983; 0.107213;,
       0.164063;-0.025247; 0.049823;,
       0.159398;-0.030785; 0.049823;,
       0.149966;-0.033031; 0.107213;,
       0.126979; 0.064529; 0.107213;,
       0.115830; 0.071244; 0.107213;,
       0.102576; 0.068120; 0.146283;,
       0.113725; 0.061405; 0.146283;,
       0.125048; 0.058264; 0.107213;,
       0.148375;-0.028983; 0.107213;,
       0.135121;-0.032108; 0.146283;,
       0.111794; 0.055140; 0.146283;,
       0.149966;-0.033031; 0.107213;,
       0.159398;-0.030785; 0.049823;,
       0.154213;-0.037582; 0.049823;,
       0.144782;-0.039829; 0.107213;,
       0.162595;-0.032909; 0.049823;,
       0.153164;-0.035155; 0.107213;,
       0.146174;-0.043406; 0.107213;,
       0.155605;-0.041160; 0.049823;,
       0.144951;-0.041506; 0.049939;,
       0.146341;-0.045084; 0.049991;,
       0.121293;-0.051049; 0.081947;,
       0.119904;-0.047471; 0.081895;,
       0.144782;-0.039829; 0.107213;,
       0.154213;-0.037582; 0.049823;,
       0.144951;-0.041506; 0.049939;,
       0.119904;-0.047471; 0.081895;,
       0.155605;-0.041160; 0.049823;,
       0.146174;-0.043406; 0.107213;,
       0.121293;-0.051049; 0.081947;,
       0.146341;-0.045084; 0.049991;,
       0.154213;-0.037582; 0.049823;,
       0.155605;-0.041160; 0.049823;,
       0.146341;-0.045084; 0.049991;,
       0.144951;-0.041506; 0.049939;,
       0.138855;-0.031219; 0.146283;,
       0.115528; 0.056029; 0.146283;,
       0.111256; 0.037601; 0.155895;,
       0.125846;-0.016971; 0.155895;,
       0.091072; 0.065121; 0.146283;,
       0.092040; 0.061406; 0.146283;,
       0.096564; 0.040964; 0.155895;,
       0.095959; 0.043287; 0.155895;,
       0.136712;-0.036156; 0.146283;,
       0.131528;-0.042953; 0.146283;,
       0.121263;-0.024311; 0.155895;,
       0.124506;-0.020059; 0.155895;,
       0.111794; 0.055140; 0.146283;,
       0.135121;-0.032108; 0.146283;,
       0.123511;-0.017527; 0.155895;,
       0.108920; 0.037045; 0.155895;,
       0.103544; 0.064405; 0.146283;,
       0.111584; 0.058219; 0.146283;,
       0.108788; 0.038971; 0.155895;,
       0.103760; 0.042840; 0.155895;,
       0.113725; 0.061405; 0.146283;,
       0.102576; 0.068120; 0.146283;,
       0.103154; 0.045163; 0.155895;,
       0.110128; 0.040963; 0.155895;,
       0.135121;-0.032108; 0.146283;,
       0.136712;-0.036156; 0.146283;,
       0.124506;-0.020059; 0.155895;,
       0.123511;-0.017527; 0.155895;,
       0.144782;-0.039829; 0.107213;,
       0.119904;-0.047471; 0.081895;,
       0.116707;-0.048200; 0.146114;,
       0.131528;-0.042953; 0.146283;,
       0.124838; 0.061344; 0.107213;,
       0.125048; 0.058264; 0.107213;,
       0.111794; 0.055140; 0.146283;,
       0.111584; 0.058219; 0.146283;,
       0.115830; 0.071244; 0.107213;,
       0.094269; 0.065850; 0.082064;,
       0.091072; 0.065121; 0.146283;,
       0.102576; 0.068120; 0.146283;,
       0.121293;-0.051049; 0.081947;,
       0.146174;-0.043406; 0.107213;,
       0.132919;-0.046531; 0.146283;,
       0.118096;-0.051778; 0.146167;,
       0.095237; 0.062136; 0.082064;,
       0.116798; 0.067530; 0.107213;,
       0.103544; 0.064405; 0.146283;,
       0.092040; 0.061406; 0.146283;,
       0.149966;-0.033031; 0.107213;,
       0.144782;-0.039829; 0.107213;,
       0.131528;-0.042953; 0.146283;,
       0.136712;-0.036156; 0.146283;,
       0.148375;-0.028983; 0.107213;,
       0.149966;-0.033031; 0.107213;,
       0.136712;-0.036156; 0.146283;,
       0.135121;-0.032108; 0.146283;,
       0.146174;-0.043406; 0.107213;,
       0.153164;-0.035155; 0.107213;,
       0.139909;-0.038280; 0.146283;,
       0.132919;-0.046531; 0.146283;,
       0.094269; 0.065850; 0.082064;,
       0.095237; 0.062136; 0.082064;,
       0.092040; 0.061406; 0.146283;,
       0.091072; 0.065121; 0.146283;,
       0.123511;-0.017527; 0.155895;,
       0.125846;-0.016971; 0.155895;,
       0.111256; 0.037601; 0.155895;,
       0.108920; 0.037045; 0.155895;,
       0.108920; 0.037045; 0.155895;,
       0.111256; 0.037601; 0.155895;,
       0.110128; 0.040963; 0.155895;,
       0.108788; 0.038971; 0.155895;,
       0.108788; 0.038971; 0.155895;,
       0.110128; 0.040963; 0.155895;,
       0.103154; 0.045163; 0.155895;,
       0.103760; 0.042840; 0.155895;,
       0.103760; 0.042840; 0.155895;,
       0.103154; 0.045163; 0.155895;,
       0.095959; 0.043287; 0.155895;,
       0.096564; 0.040964; 0.155895;,
       0.125846;-0.016971; 0.155895;,
       0.123511;-0.017527; 0.155895;,
       0.124506;-0.020059; 0.155895;,
       0.126506;-0.021388; 0.155895;,
       0.122134;-0.026548; 0.155895;,
       0.121263;-0.024311; 0.155895;,
       0.111993;-0.027593; 0.155790;,
       0.112862;-0.029831; 0.155822;,
       0.126506;-0.021388; 0.155895;,
       0.124506;-0.020059; 0.155895;,
       0.121263;-0.024311; 0.155895;,
       0.122134;-0.026548; 0.155895;,
       0.132919;-0.046531; 0.146283;,
       0.139909;-0.038280; 0.146283;,
       0.126506;-0.021388; 0.155895;,
       0.122134;-0.026548; 0.155895;,
       0.102576; 0.068120; 0.146283;,
       0.091072; 0.065121; 0.146283;,
       0.095959; 0.043287; 0.155895;,
       0.103154; 0.045163; 0.155895;,
       0.116707;-0.048200; 0.146114;,
       0.118096;-0.051778; 0.146167;,
       0.112862;-0.029831; 0.155822;,
       0.111993;-0.027593; 0.155790;,
       0.092040; 0.061406; 0.146283;,
       0.103544; 0.064405; 0.146283;,
       0.103760; 0.042840; 0.155895;,
       0.096564; 0.040964; 0.155895;,
       0.115528; 0.056029; 0.146283;,
       0.113725; 0.061405; 0.146283;,
       0.110128; 0.040963; 0.155895;,
       0.111256; 0.037601; 0.155895;,
       0.131528;-0.042953; 0.146283;,
       0.116707;-0.048200; 0.146114;,
       0.111993;-0.027593; 0.155790;,
       0.121263;-0.024311; 0.155895;,
       0.111584; 0.058219; 0.146283;,
       0.111794; 0.055140; 0.146283;,
       0.108920; 0.037045; 0.155895;,
       0.108788; 0.038971; 0.155895;,
       0.118096;-0.051778; 0.146167;,
       0.132919;-0.046531; 0.146283;,
       0.122134;-0.026548; 0.155895;,
       0.112862;-0.029831; 0.155822;,
       0.139909;-0.038280; 0.146283;,
       0.138855;-0.031219; 0.146283;,
       0.125846;-0.016971; 0.155895;,
       0.126506;-0.021388; 0.155895;,
       0.146027;-0.030385;-0.056368;,
       0.142330;-0.031265;-0.056907;,
       0.137318;-0.035587;-0.057644;,
       0.140626;-0.037473;-0.057166;,
       0.142330;-0.031265;-0.056907;,
       0.146027;-0.030385;-0.056368;,
       0.127900; 0.058055;-0.058841;,
       0.124203; 0.057175;-0.059380;,
       0.127900; 0.058055;-0.058841;,
       0.120628; 0.054461;-0.117899;,
       0.118424; 0.061244;-0.118207;,
       0.119503; 0.063364;-0.060052;,
       0.131877;-0.046842;-0.116450;,
       0.136239;-0.037706;-0.115799;,
       0.128753;-0.040788;-0.156374;,
       0.124391;-0.049924;-0.157025;,
       0.142330;-0.031265;-0.056907;,
       0.124203; 0.057175;-0.059380;,
       0.116931; 0.053580;-0.118439;,
       0.135057;-0.034859;-0.115966;,
       0.127900; 0.058055;-0.058841;,
       0.146027;-0.030385;-0.056368;,
       0.138754;-0.033979;-0.115427;,
       0.120628; 0.054461;-0.117899;,
       0.139548;-0.039592;-0.115322;,
       0.140626;-0.037473;-0.057166;,
       0.133750;-0.048477;-0.058187;,
       0.132671;-0.050596;-0.116342;,
       0.120628; 0.054461;-0.117899;,
       0.138754;-0.033979;-0.115427;,
       0.131268;-0.037061;-0.156002;,
       0.113141; 0.051379;-0.158474;,
       0.138754;-0.033979;-0.115427;,
       0.146027;-0.030385;-0.056368;,
       0.140626;-0.037473;-0.057166;,
       0.139548;-0.039592;-0.115322;,
       0.142330;-0.031265;-0.056907;,
       0.135057;-0.034859;-0.115966;,
       0.136239;-0.037706;-0.115799;,
       0.137318;-0.035587;-0.057644;,
       0.133750;-0.048477;-0.058187;,
       0.132956;-0.044723;-0.058295;,
       0.121451;-0.047203;-0.059973;,
       0.122245;-0.050957;-0.059864;,
       0.137318;-0.035587;-0.057644;,
       0.136239;-0.037706;-0.115799;,
       0.131877;-0.046842;-0.116450;,
       0.132956;-0.044723;-0.058295;,
       0.140626;-0.037473;-0.057166;,
       0.137318;-0.035587;-0.057644;,
       0.132956;-0.044723;-0.058295;,
       0.133750;-0.048477;-0.058187;,
       0.138754;-0.033979;-0.115427;,
       0.139548;-0.039592;-0.115322;,
       0.132061;-0.042675;-0.155897;,
       0.131268;-0.037061;-0.156002;,
       0.120372;-0.049322;-0.118128;,
       0.121166;-0.053076;-0.118020;,
       0.122245;-0.050957;-0.059864;,
       0.121451;-0.047203;-0.059973;,
       0.093475; 0.059701;-0.121668;,
       0.093122; 0.063522;-0.121765;,
       0.085635; 0.060440;-0.162340;,
       0.085989; 0.056619;-0.162243;,
       0.132671;-0.050596;-0.116342;,
       0.133750;-0.048477;-0.058187;,
       0.122245;-0.050957;-0.059864;,
       0.121166;-0.053076;-0.118020;,
       0.132956;-0.044723;-0.058295;,
       0.131877;-0.046842;-0.116450;,
       0.120372;-0.049322;-0.118128;,
       0.121451;-0.047203;-0.059973;,
       0.117618; 0.060031;-0.060332;,
       0.119503; 0.063364;-0.060052;,
       0.109656; 0.067601;-0.061476;,
       0.110015; 0.063780;-0.061431;,
       0.124203; 0.057175;-0.059380;,
       0.127900; 0.058055;-0.058841;,
       0.119503; 0.063364;-0.060052;,
       0.117618; 0.060031;-0.060332;,
       0.118424; 0.061244;-0.118207;,
       0.120628; 0.054461;-0.117899;,
       0.113141; 0.051379;-0.158474;,
       0.110937; 0.058162;-0.158782;,
       0.116931; 0.053580;-0.118439;,
       0.124203; 0.057175;-0.059380;,
       0.117618; 0.060031;-0.060332;,
       0.116540; 0.057912;-0.118488;,
       0.139548;-0.039592;-0.115322;,
       0.132671;-0.050596;-0.116342;,
       0.125185;-0.053678;-0.156917;,
       0.132061;-0.042675;-0.155897;,
       0.135057;-0.034859;-0.115966;,
       0.116931; 0.053580;-0.118439;,
       0.109444; 0.050498;-0.159014;,
       0.127571;-0.037942;-0.156541;,
       0.116540; 0.057912;-0.118488;,
       0.117618; 0.060031;-0.060332;,
       0.110015; 0.063780;-0.061431;,
       0.108936; 0.061661;-0.119586;,
       0.119503; 0.063364;-0.060052;,
       0.118424; 0.061244;-0.118207;,
       0.108577; 0.065482;-0.119631;,
       0.109656; 0.067601;-0.061476;,
       0.100098; 0.063132;-0.062992;,
       0.099745; 0.066952;-0.063089;,
       0.093122; 0.063522;-0.121765;,
       0.093475; 0.059701;-0.121668;,
       0.108936; 0.061661;-0.119586;,
       0.110015; 0.063780;-0.061431;,
       0.100098; 0.063132;-0.062992;,
       0.093475; 0.059701;-0.121668;,
       0.109656; 0.067601;-0.061476;,
       0.108577; 0.065482;-0.119631;,
       0.093122; 0.063522;-0.121765;,
       0.099745; 0.066952;-0.063089;,
       0.110015; 0.063780;-0.061431;,
       0.109656; 0.067601;-0.061476;,
       0.099745; 0.066952;-0.063089;,
       0.100098; 0.063132;-0.062992;,
       0.113141; 0.051379;-0.158474;,
       0.131268;-0.037061;-0.156002;,
       0.120687;-0.022491;-0.167227;,
       0.109349; 0.032827;-0.168773;,
       0.113679;-0.056158;-0.158595;,
       0.112886;-0.052404;-0.158703;,
       0.109190;-0.032088;-0.168916;,
       0.109686;-0.034436;-0.168848;,
       0.109053; 0.054830;-0.159062;,
       0.101450; 0.058579;-0.160161;,
       0.102036; 0.037330;-0.169828;,
       0.106792; 0.034985;-0.169141;,
       0.127571;-0.037942;-0.156541;,
       0.109444; 0.050498;-0.159014;,
       0.107037; 0.032276;-0.169111;,
       0.118375;-0.023042;-0.167564;,
       0.124391;-0.049924;-0.157025;,
       0.128753;-0.040788;-0.156374;,
       0.119114;-0.024822;-0.167460;,
       0.116386;-0.030536;-0.167867;,
       0.132061;-0.042675;-0.155897;,
       0.125185;-0.053678;-0.156917;,
       0.116882;-0.032884;-0.167799;,
       0.121184;-0.026002;-0.167161;,
       0.109444; 0.050498;-0.159014;,
       0.109053; 0.054830;-0.159062;,
       0.106792; 0.034985;-0.169141;,
       0.107037; 0.032276;-0.169111;,
       0.108936; 0.061661;-0.119586;,
       0.093475; 0.059701;-0.121668;,
       0.085989; 0.056619;-0.162243;,
       0.101450; 0.058579;-0.160161;,
       0.136239;-0.037706;-0.115799;,
       0.135057;-0.034859;-0.115966;,
       0.127571;-0.037942;-0.156541;,
       0.128753;-0.040788;-0.156374;,
       0.132671;-0.050596;-0.116342;,
       0.121166;-0.053076;-0.118020;,
       0.113679;-0.056158;-0.158595;,
       0.125185;-0.053678;-0.156917;,
       0.093122; 0.063522;-0.121765;,
       0.108577; 0.065482;-0.119631;,
       0.101091; 0.062400;-0.160206;,
       0.085635; 0.060440;-0.162340;,
       0.120372;-0.049322;-0.118128;,
       0.131877;-0.046842;-0.116450;,
       0.124391;-0.049924;-0.157025;,
       0.112886;-0.052404;-0.158703;,
       0.116540; 0.057912;-0.118488;,
       0.108936; 0.061661;-0.119586;,
       0.101450; 0.058579;-0.160161;,
       0.109053; 0.054830;-0.159062;,
       0.116931; 0.053580;-0.118439;,
       0.116540; 0.057912;-0.118488;,
       0.109053; 0.054830;-0.159062;,
       0.109444; 0.050498;-0.159014;,
       0.108577; 0.065482;-0.119631;,
       0.118424; 0.061244;-0.118207;,
       0.110937; 0.058162;-0.158782;,
       0.101091; 0.062400;-0.160206;,
       0.121166;-0.053076;-0.118020;,
       0.120372;-0.049322;-0.118128;,
       0.112886;-0.052404;-0.158703;,
       0.113679;-0.056158;-0.158595;,
       0.107037; 0.032276;-0.169111;,
       0.109349; 0.032827;-0.168773;,
       0.120687;-0.022491;-0.167227;,
       0.118375;-0.023042;-0.167564;,
       0.118375;-0.023042;-0.167564;,
       0.120687;-0.022491;-0.167227;,
       0.121184;-0.026002;-0.167161;,
       0.119114;-0.024822;-0.167460;,
       0.119114;-0.024822;-0.167460;,
       0.121184;-0.026002;-0.167161;,
       0.116882;-0.032884;-0.167799;,
       0.116386;-0.030536;-0.167867;,
       0.116386;-0.030536;-0.167867;,
       0.116882;-0.032884;-0.167799;,
       0.109686;-0.034436;-0.168848;,
       0.109190;-0.032088;-0.168916;,
       0.109349; 0.032827;-0.168773;,
       0.107037; 0.032276;-0.169111;,
       0.106792; 0.034985;-0.169141;,
       0.107971; 0.037070;-0.168966;,
       0.101812; 0.039721;-0.169857;,
       0.102036; 0.037330;-0.169828;,
       0.092366; 0.036105;-0.171130;,
       0.092145; 0.038495;-0.171191;,
       0.107971; 0.037070;-0.168966;,
       0.106792; 0.034985;-0.169141;,
       0.102036; 0.037330;-0.169828;,
       0.101812; 0.039721;-0.169857;,
       0.101091; 0.062400;-0.160206;,
       0.110937; 0.058162;-0.158782;,
       0.107971; 0.037070;-0.168966;,
       0.101812; 0.039721;-0.169857;,
       0.125185;-0.053678;-0.156917;,
       0.113679;-0.056158;-0.158595;,
       0.109686;-0.034436;-0.168848;,
       0.116882;-0.032884;-0.167799;,
       0.085989; 0.056619;-0.162243;,
       0.085635; 0.060440;-0.162340;,
       0.092145; 0.038495;-0.171191;,
       0.092366; 0.036105;-0.171130;,
       0.112886;-0.052404;-0.158703;,
       0.124391;-0.049924;-0.157025;,
       0.116386;-0.030536;-0.167867;,
       0.109190;-0.032088;-0.168916;,
       0.131268;-0.037061;-0.156002;,
       0.132061;-0.042675;-0.155897;,
       0.121184;-0.026002;-0.167161;,
       0.120687;-0.022491;-0.167227;,
       0.101450; 0.058579;-0.160161;,
       0.085989; 0.056619;-0.162243;,
       0.092366; 0.036105;-0.171130;,
       0.102036; 0.037330;-0.169828;,
       0.128753;-0.040788;-0.156374;,
       0.127571;-0.037942;-0.156541;,
       0.118375;-0.023042;-0.167564;,
       0.119114;-0.024822;-0.167460;,
       0.085635; 0.060440;-0.162340;,
       0.101091; 0.062400;-0.160206;,
       0.101812; 0.039721;-0.169857;,
       0.092145; 0.038495;-0.171191;,
       0.110937; 0.058162;-0.158782;,
       0.113141; 0.051379;-0.158474;,
       0.109349; 0.032827;-0.168773;,
       0.107971; 0.037070;-0.168966;,
       0.109174; 0.067673;-0.131235;,
       0.143506; 0.075849;-0.038375;,
       0.128968; 0.086073;-0.033038;,
       0.104158; 0.080164;-0.104306;,
       0.109174; 0.067673;-0.131235;,
       0.114570; 0.068958;-0.133749;,
       0.121944; 0.045857;-0.158321;,
       0.116549; 0.044572;-0.157903;,
       0.165729; 0.056284;-0.046120;,
       0.160334; 0.054999;-0.043606;,
       0.177839;-0.018508;-0.043606;,
       0.183235;-0.017223;-0.046120;,
       0.160334; 0.054999;-0.043606;,
       0.165729; 0.056284;-0.046120;,
       0.148902; 0.077134;-0.040889;,
       0.143506; 0.075849;-0.038375;,
       0.109174; 0.067673;-0.131235;,
       0.116549; 0.044572;-0.157903;,
       0.160334; 0.054999;-0.043606;,
       0.143506; 0.075849;-0.038375;,
       0.121944; 0.045857;-0.158321;,
       0.114570; 0.068958;-0.133749;,
       0.148902; 0.077134;-0.040889;,
       0.165729; 0.056284;-0.046120;,
       0.139450;-0.027650;-0.158321;,
       0.183235;-0.017223;-0.046120;,
       0.176504;-0.047977;-0.039923;,
       0.142172;-0.056153;-0.117682;,
       0.160334; 0.054999;-0.043606;,
       0.116549; 0.044572;-0.157903;,
       0.134054;-0.028935;-0.157903;,
       0.177839;-0.018508;-0.043606;,
       0.121944; 0.045857;-0.158321;,
       0.165729; 0.056284;-0.046120;,
       0.183235;-0.017223;-0.046120;,
       0.139450;-0.027650;-0.158321;,
       0.116549; 0.044572;-0.157903;,
       0.121944; 0.045857;-0.158321;,
       0.139450;-0.027650;-0.158321;,
       0.134054;-0.028935;-0.157903;,
       0.128968; 0.086073;-0.033038;,
       0.134364; 0.087358;-0.035552;,
       0.109553; 0.081449;-0.106820;,
       0.104158; 0.080164;-0.104306;,
       0.114570; 0.068958;-0.133749;,
       0.109174; 0.067673;-0.131235;,
       0.104158; 0.080164;-0.104306;,
       0.109553; 0.081449;-0.106820;,
       0.143506; 0.075849;-0.038375;,
       0.148902; 0.077134;-0.040889;,
       0.134364; 0.087358;-0.035552;,
       0.128968; 0.086073;-0.033038;,
       0.148902; 0.077134;-0.040889;,
       0.114570; 0.068958;-0.133749;,
       0.109553; 0.081449;-0.106820;,
       0.134364; 0.087358;-0.035552;,
       0.176504;-0.047977;-0.039923;,
       0.171108;-0.049262;-0.037408;,
       0.155727;-0.067871;-0.028671;,
       0.164965;-0.065671;-0.035209;,
       0.134054;-0.028935;-0.157903;,
       0.139450;-0.027650;-0.158321;,
       0.142172;-0.056153;-0.117682;,
       0.136777;-0.057438;-0.115263;,
       0.183235;-0.017223;-0.046120;,
       0.177839;-0.018508;-0.043606;,
       0.171108;-0.049262;-0.037408;,
       0.176504;-0.047977;-0.039923;,
       0.177839;-0.018508;-0.043606;,
       0.134054;-0.028935;-0.157903;,
       0.136777;-0.057438;-0.115263;,
       0.171108;-0.049262;-0.037408;,
       0.130917;-0.073780;-0.084934;,
       0.139178;-0.071812;-0.086870;,
       0.164965;-0.065671;-0.035209;,
       0.155727;-0.067871;-0.028671;,
       0.171108;-0.049262;-0.037408;,
       0.136777;-0.057438;-0.115263;,
       0.130917;-0.073780;-0.084934;,
       0.155727;-0.067871;-0.028671;,
       0.142172;-0.056153;-0.117682;,
       0.176504;-0.047977;-0.039923;,
       0.164965;-0.065671;-0.035209;,
       0.139178;-0.071812;-0.086870;,
       0.136777;-0.057438;-0.115263;,
       0.142172;-0.056153;-0.117682;,
       0.139178;-0.071812;-0.086870;,
       0.130917;-0.073780;-0.084934;,
       0.094620; 0.065784;-0.092982;,
       0.094620; 0.065784;-0.113367;,
       0.115325; 0.078858;-0.111831;,
       0.115325; 0.078858;-0.094519;,
       0.088418; 0.064307;-0.113367;,
       0.094620; 0.065784;-0.113367;,
       0.125834;-0.071985;-0.113367;,
       0.121141;-0.073102;-0.113367;,
       0.121141;-0.073102;-0.113367;,
       0.125834;-0.071985;-0.113367;,
       0.125834;-0.071985;-0.092982;,
       0.121141;-0.073102;-0.092982;,
       0.121141;-0.073102;-0.092982;,
       0.125834;-0.071985;-0.092982;,
       0.094620; 0.065784;-0.092982;,
       0.088418; 0.064307;-0.092982;,
       0.088418; 0.064307;-0.113367;,
       0.121141;-0.073102;-0.113367;,
       0.121141;-0.073102;-0.092982;,
       0.088418; 0.064307;-0.092982;,
       0.125834;-0.071985;-0.113367;,
       0.094620; 0.065784;-0.113367;,
       0.094620; 0.065784;-0.092982;,
       0.125834;-0.071985;-0.092982;,
       0.087540; 0.067994;-0.092982;,
       0.091422; 0.079215;-0.092982;,
       0.091422; 0.079215;-0.113367;,
       0.087540; 0.067994;-0.113367;,
       0.088418; 0.064307;-0.113367;,
       0.088418; 0.064307;-0.092982;,
       0.087540; 0.067994;-0.092982;,
       0.087540; 0.067994;-0.113367;,
       0.094620; 0.065784;-0.113367;,
       0.088418; 0.064307;-0.113367;,
       0.087540; 0.067994;-0.113367;,
       0.091422; 0.079215;-0.113367;,
       0.088418; 0.064307;-0.092982;,
       0.094620; 0.065784;-0.092982;,
       0.091422; 0.079215;-0.092982;,
       0.087540; 0.067994;-0.092982;,
       0.115325; 0.078858;-0.111831;,
       0.114579; 0.081990;-0.111831;,
       0.120536; 0.080216;-0.110325;,
       0.119911; 0.077631;-0.110325;,
       0.094620; 0.065784;-0.113367;,
       0.091422; 0.079215;-0.113367;,
       0.114579; 0.081990;-0.111831;,
       0.115325; 0.078858;-0.111831;,
       0.091422; 0.079215;-0.113367;,
       0.091422; 0.079215;-0.092982;,
       0.114466; 0.082464;-0.094519;,
       0.114579; 0.081990;-0.111831;,
       0.091422; 0.079215;-0.092982;,
       0.094620; 0.065784;-0.092982;,
       0.115325; 0.078858;-0.094519;,
       0.114466; 0.082464;-0.094519;,
       0.120536; 0.080216;-0.096024;,
       0.119911; 0.077631;-0.096024;,
       0.129718; 0.070459;-0.098515;,
       0.132592; 0.072730;-0.099490;,
       0.115325; 0.078858;-0.094519;,
       0.115325; 0.078858;-0.111831;,
       0.119911; 0.077631;-0.110325;,
       0.119911; 0.077631;-0.096024;,
       0.114466; 0.082464;-0.094519;,
       0.115325; 0.078858;-0.094519;,
       0.119911; 0.077631;-0.096024;,
       0.120536; 0.080216;-0.096024;,
       0.114579; 0.081990;-0.111831;,
       0.114466; 0.082464;-0.094519;,
       0.120536; 0.080216;-0.096024;,
       0.120536; 0.080216;-0.110325;,
       0.132592; 0.072730;-0.099490;,
       0.129718; 0.070459;-0.098515;,
       0.145590; 0.049045;-0.101590;,
       0.148464; 0.051315;-0.102565;,
       0.120536; 0.080216;-0.110325;,
       0.120536; 0.080216;-0.096024;,
       0.132592; 0.072730;-0.099490;,
       0.127008; 0.071400;-0.107579;,
       0.119911; 0.077631;-0.110325;,
       0.120536; 0.080216;-0.110325;,
       0.127008; 0.071400;-0.107579;,
       0.124134; 0.069129;-0.106604;,
       0.119911; 0.077631;-0.096024;,
       0.119911; 0.077631;-0.110325;,
       0.124134; 0.069129;-0.106604;,
       0.129718; 0.070459;-0.098515;,
       0.142880; 0.049986;-0.110654;,
       0.148464; 0.051315;-0.102565;,
       0.158700; 0.014778;-0.106264;,
       0.151251; 0.013004;-0.113685;,
       0.127008; 0.071400;-0.107579;,
       0.132592; 0.072730;-0.099490;,
       0.148464; 0.051315;-0.102565;,
       0.142880; 0.049986;-0.110654;,
       0.124134; 0.069129;-0.106604;,
       0.127008; 0.071400;-0.107579;,
       0.142880; 0.049986;-0.110654;,
       0.140006; 0.047715;-0.109679;,
       0.129718; 0.070459;-0.098515;,
       0.124134; 0.069129;-0.106604;,
       0.140006; 0.047715;-0.109679;,
       0.145590; 0.049045;-0.101590;,
       0.158700; 0.014778;-0.106264;,
       0.155936; 0.012534;-0.104963;,
       0.161247;-0.025795;-0.107695;,
       0.164081;-0.028244;-0.108274;,
       0.140006; 0.047715;-0.109679;,
       0.142880; 0.049986;-0.110654;,
       0.151251; 0.013004;-0.113685;,
       0.148487; 0.010760;-0.112385;,
       0.145590; 0.049045;-0.101590;,
       0.140006; 0.047715;-0.109679;,
       0.148487; 0.010760;-0.112385;,
       0.155936; 0.012534;-0.104963;,
       0.148464; 0.051315;-0.102565;,
       0.145590; 0.049045;-0.101590;,
       0.155936; 0.012534;-0.104963;,
       0.158700; 0.014778;-0.106264;,
       0.155116;-0.028334;-0.115498;,
       0.157950;-0.030784;-0.116077;,
       0.150520;-0.058747;-0.112366;,
       0.147685;-0.056297;-0.111787;,
       0.151251; 0.013004;-0.113685;,
       0.158700; 0.014778;-0.106264;,
       0.164081;-0.028244;-0.108274;,
       0.157950;-0.030784;-0.116077;,
       0.148487; 0.010760;-0.112385;,
       0.151251; 0.013004;-0.113685;,
       0.157950;-0.030784;-0.116077;,
       0.155116;-0.028334;-0.115498;,
       0.155936; 0.012534;-0.104963;,
       0.148487; 0.010760;-0.112385;,
       0.155116;-0.028334;-0.115498;,
       0.161247;-0.025795;-0.107695;,
       0.153816;-0.053758;-0.103983;,
       0.147685;-0.056297;-0.111787;,
       0.133990;-0.070022;-0.113394;,
       0.135558;-0.068699;-0.095592;,
       0.161247;-0.025795;-0.107695;,
       0.155116;-0.028334;-0.115498;,
       0.147685;-0.056297;-0.111787;,
       0.153816;-0.053758;-0.103983;,
       0.164081;-0.028244;-0.108274;,
       0.161247;-0.025795;-0.107695;,
       0.153816;-0.053758;-0.103983;,
       0.156650;-0.056208;-0.104562;,
       0.157950;-0.030784;-0.116077;,
       0.164081;-0.028244;-0.108274;,
       0.156650;-0.056208;-0.104562;,
       0.150520;-0.058747;-0.112366;,
       0.138113;-0.070838;-0.095658;,
       0.135558;-0.068699;-0.095592;,
       0.124255;-0.067827;-0.092935;,
       0.125564;-0.071384;-0.093010;,
       0.156650;-0.056208;-0.104562;,
       0.153816;-0.053758;-0.103983;,
       0.135558;-0.068699;-0.095592;,
       0.138113;-0.070838;-0.095658;,
       0.150520;-0.058747;-0.112366;,
       0.156650;-0.056208;-0.104562;,
       0.138113;-0.070838;-0.095658;,
       0.136545;-0.072160;-0.113460;,
       0.147685;-0.056297;-0.111787;,
       0.150520;-0.058747;-0.112366;,
       0.136545;-0.072160;-0.113460;,
       0.133990;-0.070022;-0.113394;,
       0.136545;-0.072160;-0.113460;,
       0.138113;-0.070838;-0.095658;,
       0.125564;-0.071384;-0.093010;,
       0.124957;-0.071397;-0.113113;,
       0.133990;-0.070022;-0.113394;,
       0.136545;-0.072160;-0.113460;,
       0.124957;-0.071397;-0.113113;,
       0.123648;-0.067841;-0.113038;,
       0.135558;-0.068699;-0.095592;,
       0.133990;-0.070022;-0.113394;,
       0.123648;-0.067841;-0.113038;,
       0.124255;-0.067827;-0.092935;;
      191;
      4;3,2,1,0;,
      4;7,6,5,4;,
      4;11,10,9,8;,
      4;15,14,13,12;,
      4;19,18,17,16;,
      4;23,22,21,20;,
      4;27,26,25,24;,
      4;31,30,29,28;,
      4;35,34,33,32;,
      4;39,38,37,36;,
      4;43,42,41,40;,
      4;47,46,45,44;,
      4;51,50,49,48;,
      4;55,54,53,52;,
      4;59,58,57,56;,
      4;63,62,61,60;,
      4;67,66,65,64;,
      4;71,70,69,68;,
      4;75,74,73,72;,
      4;79,78,77,76;,
      4;83,82,81,80;,
      4;87,86,85,84;,
      4;91,90,89,88;,
      4;95,94,93,92;,
      4;99,98,97,96;,
      4;103,102,101,100;,
      4;107,106,105,104;,
      4;111,110,109,108;,
      4;115,114,113,112;,
      4;119,118,117,116;,
      4;123,122,121,120;,
      4;127,126,125,124;,
      4;131,130,129,128;,
      4;135,134,133,132;,
      4;139,138,137,136;,
      4;143,142,141,140;,
      4;147,146,145,144;,
      4;151,150,149,148;,
      4;155,154,153,152;,
      4;159,158,157,156;,
      4;163,162,161,160;,
      4;167,166,165,164;,
      4;171,170,169,168;,
      4;175,174,173,172;,
      4;179,178,177,176;,
      4;183,182,181,180;,
      4;187,186,185,184;,
      4;191,190,189,188;,
      4;195,194,193,192;,
      4;199,198,197,196;,
      4;203,202,201,200;,
      4;207,206,205,204;,
      4;211,210,209,208;,
      4;215,214,213,212;,
      4;219,218,217,216;,
      4;223,222,221,220;,
      4;227,226,225,224;,
      4;231,230,229,228;,
      4;235,234,233,232;,
      4;239,238,237,236;,
      4;243,242,241,240;,
      4;247,246,245,244;,
      4;251,250,249,248;,
      4;255,254,253,252;,
      4;259,258,257,256;,
      4;263,262,261,260;,
      4;267,266,265,264;,
      4;271,270,269,268;,
      4;275,274,273,272;,
      4;279,278,277,276;,
      4;283,282,281,280;,
      4;287,286,285,284;,
      4;291,290,289,288;,
      4;295,294,293,292;,
      4;299,298,297,296;,
      4;303,302,301,300;,
      4;307,306,305,304;,
      4;311,310,309,308;,
      4;315,314,313,312;,
      4;319,318,317,316;,
      4;323,322,321,320;,
      4;327,326,325,324;,
      4;331,330,329,328;,
      4;335,334,333,332;,
      4;339,338,337,336;,
      4;343,342,341,340;,
      4;347,346,345,344;,
      4;351,350,349,348;,
      4;355,354,353,352;,
      4;359,358,357,356;,
      4;363,362,361,360;,
      4;367,366,365,364;,
      4;371,370,369,368;,
      4;375,374,373,372;,
      4;379,378,377,376;,
      4;383,382,381,380;,
      4;387,386,385,384;,
      4;391,390,389,388;,
      4;395,394,393,392;,
      4;399,398,397,396;,
      4;403,402,401,400;,
      4;407,406,405,404;,
      4;411,410,409,408;,
      4;415,414,413,412;,
      4;419,418,417,416;,
      4;423,422,421,420;,
      4;427,426,425,424;,
      4;431,430,429,428;,
      4;435,434,433,432;,
      4;439,438,437,436;,
      4;443,442,441,440;,
      4;447,446,445,444;,
      4;451,450,449,448;,
      4;455,454,453,452;,
      4;459,458,457,456;,
      4;463,462,461,460;,
      4;467,466,465,464;,
      4;471,470,469,468;,
      4;475,474,473,472;,
      4;479,478,477,476;,
      4;483,482,481,480;,
      4;487,486,485,484;,
      4;491,490,489,488;,
      4;495,494,493,492;,
      4;499,498,497,496;,
      4;503,502,501,500;,
      4;507,506,505,504;,
      4;511,510,509,508;,
      4;515,514,513,512;,
      4;519,518,517,516;,
      4;523,522,521,520;,
      4;527,526,525,524;,
      4;531,530,529,528;,
      4;535,534,533,532;,
      4;539,538,537,536;,
      4;543,542,541,540;,
      4;547,546,545,544;,
      4;551,550,549,548;,
      4;555,554,553,552;,
      4;559,558,557,556;,
      4;563,562,561,560;,
      4;567,566,565,564;,
      4;571,570,569,568;,
      4;575,574,573,572;,
      4;579,578,577,576;,
      4;583,582,581,580;,
      4;587,586,585,584;,
      4;591,590,589,588;,
      4;595,594,593,592;,
      4;599,598,597,596;,
      4;603,602,601,600;,
      4;607,606,605,604;,
      4;611,610,609,608;,
      4;615,614,613,612;,
      4;619,618,617,616;,
      4;623,622,621,620;,
      4;627,626,625,624;,
      4;631,630,629,628;,
      4;635,634,633,632;,
      4;639,638,637,636;,
      4;643,642,641,640;,
      4;647,646,645,644;,
      4;651,650,649,648;,
      4;655,654,653,652;,
      4;659,658,657,656;,
      4;663,662,661,660;,
      4;667,666,665,664;,
      4;671,670,669,668;,
      4;675,674,673,672;,
      4;679,678,677,676;,
      4;683,682,681,680;,
      4;687,686,685,684;,
      4;691,690,689,688;,
      4;695,694,693,692;,
      4;699,698,697,696;,
      4;703,702,701,700;,
      4;707,706,705,704;,
      4;711,710,709,708;,
      4;715,714,713,712;,
      4;719,718,717,716;,
      4;723,722,721,720;,
      4;727,726,725,724;,
      4;731,730,729,728;,
      4;735,734,733,732;,
      4;739,738,737,736;,
      4;743,742,741,740;,
      4;747,746,745,744;,
      4;751,750,749,748;,
      4;755,754,753,752;,
      4;759,758,757,756;,
      4;763,762,761,760;;
      MeshNormals { // Cube normals
        764;
         0.749107; 0.429609;-0.504227;,
        -0.400616;-0.264657;-0.877163;,
        -0.413709;-0.565874;-0.713126;,
         0.455916; 0.592425;-0.664144;,
        -0.400616;-0.264657;-0.877163;,
         0.749107; 0.429609;-0.504227;,
         0.859340; 0.012879;-0.511216;,
        -0.494186; 0.002991;-0.869320;,
         0.859340; 0.012879;-0.511216;,
         0.953276; 0.095737; 0.286477;,
         0.906339;-0.361797; 0.218207;,
         0.686117;-0.343944;-0.641011;,
        -0.217109;-0.969207;-0.116001;,
        -0.721885;-0.652028;-0.231666;,
        -0.698874;-0.438337;-0.565111;,
        -0.107059;-0.839564;-0.532579;,
        -0.400616;-0.264657;-0.877163;,
        -0.494186; 0.002991;-0.869320;,
        -0.946348;-0.143712;-0.289346;,
        -0.888882;-0.354900;-0.289621;,
         0.859340; 0.012879;-0.511216;,
         0.749107; 0.429609;-0.504227;,
         0.875698; 0.389599; 0.285226;,
         0.953276; 0.095737; 0.286477;,
         0.678243; 0.699820; 0.224006;,
         0.455916; 0.592425;-0.664144;,
         0.146947; 0.784234;-0.602802;,
         0.161443; 0.981475; 0.102847;,
         0.953276; 0.095737; 0.286477;,
         0.875698; 0.389599; 0.285226;,
         0.809595; 0.250374; 0.530869;,
         0.824274; 0.160253; 0.542985;,
         0.875698; 0.389599; 0.285226;,
         0.749107; 0.429609;-0.504227;,
         0.455916; 0.592425;-0.664144;,
         0.678243; 0.699820; 0.224006;,
        -0.400616;-0.264657;-0.877163;,
        -0.888882;-0.354900;-0.289621;,
        -0.721885;-0.652028;-0.231666;,
        -0.413709;-0.565874;-0.713126;,
         0.146947; 0.784234;-0.602802;,
        -0.132237;-0.527116;-0.839412;,
        -0.220527;-0.691336;-0.688009;,
        -0.522446; 0.495468;-0.693899;,
        -0.413709;-0.565874;-0.713126;,
        -0.721885;-0.652028;-0.231666;,
        -0.217109;-0.969207;-0.116001;,
        -0.132237;-0.527116;-0.839412;,
         0.455916; 0.592425;-0.664144;,
        -0.413709;-0.565874;-0.713126;,
        -0.132237;-0.527116;-0.839412;,
         0.146947; 0.784234;-0.602802;,
         0.875698; 0.389599; 0.285226;,
         0.678243; 0.699820; 0.224006;,
         0.599719; 0.539872; 0.590625;,
         0.809595; 0.250374; 0.530869;,
        -0.537278;-0.813196;-0.223640;,
        -0.860103; 0.456313;-0.227943;,
        -0.522446; 0.495468;-0.693899;,
        -0.220527;-0.691336;-0.688009;,
        -0.882565; 0.373119;-0.286050;,
        -0.467208;-0.845973;-0.256874;,
        -0.364635;-0.825648; 0.430494;,
        -0.982879; 0.120396;-0.139409;,
         0.161443; 0.981475; 0.102847;,
         0.146947; 0.784234;-0.602802;,
        -0.522446; 0.495468;-0.693899;,
        -0.860103; 0.456313;-0.227943;,
        -0.132237;-0.527116;-0.839412;,
        -0.217109;-0.969207;-0.116001;,
        -0.537278;-0.813196;-0.223640;,
        -0.220527;-0.691336;-0.688009;,
        -0.581347; 0.293527;-0.758812;,
         0.686117;-0.343944;-0.641011;,
         0.439589;-0.631825;-0.638386;,
        -0.365886; 0.479995;-0.797327;,
        -0.494186; 0.002991;-0.869320;,
         0.859340; 0.012879;-0.511216;,
         0.686117;-0.343944;-0.641011;,
        -0.581347; 0.293527;-0.758812;,
         0.906339;-0.361797; 0.218207;,
         0.953276; 0.095737; 0.286477;,
         0.824274; 0.160253; 0.542985;,
         0.759362;-0.270058; 0.591937;,
        -0.946348;-0.143712;-0.289346;,
        -0.494186; 0.002991;-0.869320;,
        -0.581347; 0.293527;-0.758812;,
        -0.923276; 0.311716;-0.224403;,
         0.678243; 0.699820; 0.224006;,
         0.161443; 0.981475; 0.102847;,
         0.066775; 0.838466; 0.540819;,
         0.599719; 0.539872; 0.590625;,
        -0.888882;-0.354900;-0.289621;,
        -0.946348;-0.143712;-0.289346;,
        -0.853877;-0.297189;-0.427259;,
        -0.914426;-0.122959;-0.385601;,
        -0.923276; 0.311716;-0.224403;,
        -0.581347; 0.293527;-0.758812;,
        -0.365886; 0.479995;-0.797327;,
        -0.582324; 0.806604;-0.101260;,
         0.686117;-0.343944;-0.641011;,
         0.906339;-0.361797; 0.218207;,
         0.561327;-0.822108; 0.095004;,
         0.439589;-0.631825;-0.638386;,
        -0.513810; 0.447676;-0.731803;,
        -0.118229;-0.728751;-0.674459;,
        -0.467208;-0.845973;-0.256874;,
        -0.882565; 0.373119;-0.286050;,
        -0.582324; 0.806604;-0.101260;,
        -0.365886; 0.479995;-0.797327;,
        -0.513810; 0.447676;-0.731803;,
        -0.882565; 0.373119;-0.286050;,
         0.439589;-0.631825;-0.638386;,
         0.561327;-0.822108; 0.095004;,
        -0.467208;-0.845973;-0.256874;,
        -0.118229;-0.728751;-0.674459;,
        -0.365886; 0.479995;-0.797327;,
         0.439589;-0.631825;-0.638386;,
        -0.118229;-0.728751;-0.674459;,
        -0.513810; 0.447676;-0.731803;,
         0.824274; 0.160253; 0.542985;,
         0.809595; 0.250374; 0.530869;,
         0.386608; 0.108890; 0.915769;,
         0.390973; 0.094607; 0.915494;,
        -0.759728; 0.494613; 0.422040;,
        -0.701651;-0.624836;-0.342357;,
        -0.324381;-0.929136; 0.177374;,
        -0.710318;-0.025300; 0.703391;,
        -0.799463; 0.173376;-0.575121;,
        -0.448256; 0.707999;-0.545671;,
        -0.586749; 0.765679; 0.263405;,
        -0.829157;-0.153020; 0.537614;,
        -0.914426;-0.122959;-0.385601;,
        -0.853877;-0.297189;-0.427259;,
        -0.862819;-0.251198; 0.438643;,
        -0.876705;-0.199133; 0.437849;,
        -0.107059;-0.839564;-0.532579;,
        -0.698874;-0.438337;-0.565111;,
        -0.799615;-0.174535; 0.574541;,
        -0.268807;-0.912046; 0.309610;,
         0.599719; 0.539872; 0.590625;,
         0.066775; 0.838466; 0.540819;,
         0.049898; 0.244331; 0.968383;,
         0.334727; 0.177526; 0.925413;,
        -0.853877;-0.297189;-0.427259;,
        -0.799463; 0.173376;-0.575121;,
        -0.829157;-0.153020; 0.537614;,
        -0.862819;-0.251198; 0.438643;,
        -0.582324; 0.806604;-0.101260;,
        -0.882565; 0.373119;-0.286050;,
        -0.982879; 0.120396;-0.139409;,
        -0.448256; 0.707999;-0.545671;,
        -0.721885;-0.652028;-0.231666;,
        -0.888882;-0.354900;-0.289621;,
        -0.914426;-0.122959;-0.385601;,
        -0.698874;-0.438337;-0.565111;,
         0.161443; 0.981475; 0.102847;,
        -0.860103; 0.456313;-0.227943;,
        -0.759728; 0.494613; 0.422040;,
         0.066775; 0.838466; 0.540819;,
        -0.467208;-0.845973;-0.256874;,
         0.561327;-0.822108; 0.095004;,
         0.430342;-0.712394; 0.554338;,
        -0.364635;-0.825648; 0.430494;,
        -0.537278;-0.813196;-0.223640;,
        -0.217109;-0.969207;-0.116001;,
        -0.107059;-0.839564;-0.532579;,
        -0.701651;-0.624836;-0.342357;,
        -0.923276; 0.311716;-0.224403;,
        -0.582324; 0.806604;-0.101260;,
        -0.448256; 0.707999;-0.545671;,
        -0.799463; 0.173376;-0.575121;,
        -0.946348;-0.143712;-0.289346;,
        -0.923276; 0.311716;-0.224403;,
        -0.799463; 0.173376;-0.575121;,
        -0.853877;-0.297189;-0.427259;,
         0.561327;-0.822108; 0.095004;,
         0.906339;-0.361797; 0.218207;,
         0.759362;-0.270058; 0.591937;,
         0.430342;-0.712394; 0.554338;,
        -0.860103; 0.456313;-0.227943;,
        -0.537278;-0.813196;-0.223640;,
        -0.701651;-0.624836;-0.342357;,
        -0.759728; 0.494613; 0.422040;,
        -0.862819;-0.251198; 0.438643;,
         0.390973; 0.094607; 0.915494;,
         0.386608; 0.108890; 0.915769;,
        -0.876705;-0.199133; 0.437849;,
        -0.876705;-0.199133; 0.437849;,
         0.386608; 0.108890; 0.915769;,
         0.334727; 0.177526; 0.925413;,
        -0.799615;-0.174535; 0.574541;,
        -0.799615;-0.174535; 0.574541;,
         0.334727; 0.177526; 0.925413;,
         0.049898; 0.244331; 0.968383;,
        -0.268807;-0.912046; 0.309610;,
        -0.268807;-0.912046; 0.309610;,
         0.049898; 0.244331; 0.968383;,
        -0.710318;-0.025300; 0.703391;,
        -0.324381;-0.929136; 0.177374;,
         0.390973; 0.094607; 0.915494;,
        -0.862819;-0.251198; 0.438643;,
        -0.829157;-0.153020; 0.537614;,
         0.358165;-0.022004; 0.933378;,
         0.131657;-0.188360; 0.973205;,
        -0.586749; 0.765679; 0.263405;,
        -0.772546; 0.609210; 0.178899;,
        -0.465224;-0.323862; 0.823786;,
         0.358165;-0.022004; 0.933378;,
        -0.829157;-0.153020; 0.537614;,
        -0.586749; 0.765679; 0.263405;,
         0.131657;-0.188360; 0.973205;,
         0.430342;-0.712394; 0.554338;,
         0.759362;-0.270058; 0.591937;,
         0.358165;-0.022004; 0.933378;,
         0.131657;-0.188360; 0.973205;,
         0.066775; 0.838466; 0.540819;,
        -0.759728; 0.494613; 0.422040;,
        -0.710318;-0.025300; 0.703391;,
         0.049898; 0.244331; 0.968383;,
        -0.982879; 0.120396;-0.139409;,
        -0.364635;-0.825648; 0.430494;,
        -0.465224;-0.323862; 0.823786;,
        -0.772546; 0.609210; 0.178899;,
        -0.701651;-0.624836;-0.342357;,
        -0.107059;-0.839564;-0.532579;,
        -0.268807;-0.912046; 0.309610;,
        -0.324381;-0.929136; 0.177374;,
         0.809595; 0.250374; 0.530869;,
         0.599719; 0.539872; 0.590625;,
         0.334727; 0.177526; 0.925413;,
         0.386608; 0.108890; 0.915769;,
        -0.448256; 0.707999;-0.545671;,
        -0.982879; 0.120396;-0.139409;,
        -0.772546; 0.609210; 0.178899;,
        -0.586749; 0.765679; 0.263405;,
        -0.698874;-0.438337;-0.565111;,
        -0.914426;-0.122959;-0.385601;,
        -0.876705;-0.199133; 0.437849;,
        -0.799615;-0.174535; 0.574541;,
        -0.364635;-0.825648; 0.430494;,
         0.430342;-0.712394; 0.554338;,
         0.131657;-0.188360; 0.973205;,
        -0.465224;-0.323862; 0.823786;,
         0.759362;-0.270058; 0.591937;,
         0.824274; 0.160253; 0.542985;,
         0.390973; 0.094607; 0.915494;,
         0.358165;-0.022004; 0.933378;,
         0.780694;-0.048799; 0.622974;,
        -0.598071; 0.055208; 0.799524;,
        -0.719840; 0.318827; 0.616535;,
         0.570757;-0.326151; 0.753533;,
        -0.598071; 0.055208; 0.799524;,
         0.780694;-0.048799; 0.622974;,
         0.692038; 0.373058; 0.617939;,
        -0.560778;-0.225959; 0.796503;,
         0.692038; 0.373058; 0.617939;,
         0.926756; 0.342601;-0.154088;,
         0.672170; 0.730338;-0.121433;,
         0.361705; 0.614032; 0.701498;,
        -0.635945; 0.771294; 0.025117;,
        -0.961333; 0.258461; 0.094790;,
        -0.894070; 0.077181; 0.441176;,
        -0.541734; 0.703696; 0.459639;,
        -0.598071; 0.055208; 0.799524;,
        -0.560778;-0.225959; 0.796503;,
        -0.942351;-0.296640; 0.154790;,
        -0.985382;-0.082095; 0.149236;,
         0.692038; 0.373058; 0.617939;,
         0.780694;-0.048799; 0.622974;,
         0.988464; 0.045167;-0.144383;,
         0.926756; 0.342601;-0.154088;,
         0.942869;-0.320750;-0.089846;,
         0.570757;-0.326151; 0.753533;,
         0.388531;-0.637654; 0.665120;,
         0.590136;-0.807062;-0.018525;,
         0.926756; 0.342601;-0.154088;,
         0.988464; 0.045167;-0.144383;,
         0.903531; 0.140385;-0.404797;,
         0.878262; 0.227515;-0.420545;,
         0.988464; 0.045167;-0.144383;,
         0.780694;-0.048799; 0.622974;,
         0.570757;-0.326151; 0.753533;,
         0.942869;-0.320750;-0.089846;,
        -0.598071; 0.055208; 0.799524;,
        -0.985382;-0.082095; 0.149236;,
        -0.961333; 0.258461; 0.094790;,
        -0.719840; 0.318827; 0.616535;,
         0.388531;-0.637654; 0.665120;,
        -0.469680; 0.411023; 0.781304;,
        -0.716178; 0.464736; 0.520615;,
        -0.474136;-0.682791; 0.555803;,
        -0.719840; 0.318827; 0.616535;,
        -0.961333; 0.258461; 0.094790;,
        -0.635945; 0.771294; 0.025117;,
        -0.469680; 0.411023; 0.781304;,
         0.570757;-0.326151; 0.753533;,
        -0.719840; 0.318827; 0.616535;,
        -0.469680; 0.411023; 0.781304;,
         0.388531;-0.637654; 0.665120;,
         0.988464; 0.045167;-0.144383;,
         0.942869;-0.320750;-0.089846;,
         0.855129;-0.212348;-0.472884;,
         0.903531; 0.140385;-0.404797;,
        -0.818506; 0.572253; 0.049898;,
        -0.519333;-0.848628; 0.100345;,
        -0.474136;-0.682791; 0.555803;,
        -0.716178; 0.464736; 0.520615;,
        -0.615345;-0.775262; 0.142338;,
        -0.760094; 0.645924; 0.070559;,
        -0.691275; 0.564928;-0.450484;,
        -0.860286;-0.495712; 0.118992;,
         0.590136;-0.807062;-0.018525;,
         0.388531;-0.637654; 0.665120;,
        -0.474136;-0.682791; 0.555803;,
        -0.519333;-0.848628; 0.100345;,
        -0.469680; 0.411023; 0.781304;,
        -0.635945; 0.771294; 0.025117;,
        -0.818506; 0.572253; 0.049898;,
        -0.716178; 0.464736; 0.520615;,
        -0.492904;-0.524522; 0.694174;,
         0.361705; 0.614032; 0.701498;,
         0.036225; 0.759911; 0.648976;,
        -0.240394;-0.594836; 0.767022;,
        -0.560778;-0.225959; 0.796503;,
         0.692038; 0.373058; 0.617939;,
         0.361705; 0.614032; 0.701498;,
        -0.492904;-0.524522; 0.694174;,
         0.672170; 0.730338;-0.121433;,
         0.926756; 0.342601;-0.154088;,
         0.878262; 0.227515;-0.420545;,
         0.636708; 0.583117;-0.504501;,
        -0.942351;-0.296640; 0.154790;,
        -0.560778;-0.225959; 0.796503;,
        -0.492904;-0.524522; 0.694174;,
        -0.710288;-0.693197; 0.122196;,
         0.942869;-0.320750;-0.089846;,
         0.590136;-0.807062;-0.018525;,
         0.506729;-0.720695;-0.473037;,
         0.855129;-0.212348;-0.472884;,
        -0.985382;-0.082095; 0.149236;,
        -0.942351;-0.296640; 0.154790;,
        -0.948576;-0.118229; 0.293588;,
        -0.918729;-0.301004; 0.255501;,
        -0.710288;-0.693197; 0.122196;,
        -0.492904;-0.524522; 0.694174;,
        -0.240394;-0.594836; 0.767022;,
        -0.194037;-0.977813; 0.078799;,
         0.361705; 0.614032; 0.701498;,
         0.672170; 0.730338;-0.121433;,
         0.167821; 0.982849;-0.076327;,
         0.036225; 0.759911; 0.648976;,
        -0.522538;-0.622272; 0.582842;,
        -0.638142; 0.557237; 0.531236;,
        -0.760094; 0.645924; 0.070559;,
        -0.615345;-0.775262; 0.142338;,
        -0.194037;-0.977813; 0.078799;,
        -0.240394;-0.594836; 0.767022;,
        -0.522538;-0.622272; 0.582842;,
        -0.615345;-0.775262; 0.142338;,
         0.036225; 0.759911; 0.648976;,
         0.167821; 0.982849;-0.076327;,
        -0.760094; 0.645924; 0.070559;,
        -0.638142; 0.557237; 0.531236;,
        -0.240394;-0.594836; 0.767022;,
         0.036225; 0.759911; 0.648976;,
        -0.638142; 0.557237; 0.531236;,
        -0.522538;-0.622272; 0.582842;,
         0.878262; 0.227515;-0.420545;,
         0.903531; 0.140385;-0.404797;,
         0.522019; 0.077792;-0.849361;,
         0.519517; 0.092502;-0.849422;,
        -0.464522;-0.790735;-0.398633;,
        -0.934812; 0.193213; 0.297861;,
        -0.674032; 0.685171;-0.276009;,
        -0.538163;-0.294717;-0.789605;,
        -0.712699;-0.514664; 0.476577;,
        -0.173193;-0.829981; 0.530168;,
        -0.140843;-0.947081;-0.288430;,
        -0.723838;-0.234230;-0.648976;,
        -0.918729;-0.301004; 0.255501;,
        -0.948576;-0.118229; 0.293588;,
        -0.811426;-0.161779;-0.561571;,
        -0.800714;-0.214515;-0.559282;,
        -0.541734; 0.703696; 0.459639;,
        -0.894070; 0.077181; 0.441176;,
        -0.701956;-0.201666;-0.683035;,
        -0.598285; 0.695059;-0.398602;,
         0.855129;-0.212348;-0.472884;,
         0.506729;-0.720695;-0.473037;,
         0.292001;-0.194189;-0.936460;,
         0.508042;-0.006806;-0.861293;,
        -0.948576;-0.118229; 0.293588;,
        -0.712699;-0.514664; 0.476577;,
        -0.723838;-0.234230;-0.648976;,
        -0.811426;-0.161779;-0.561571;,
        -0.194037;-0.977813; 0.078799;,
        -0.615345;-0.775262; 0.142338;,
        -0.860286;-0.495712; 0.118992;,
        -0.173193;-0.829981; 0.530168;,
        -0.961333; 0.258461; 0.094790;,
        -0.985382;-0.082095; 0.149236;,
        -0.918729;-0.301004; 0.255501;,
        -0.894070; 0.077181; 0.441176;,
         0.590136;-0.807062;-0.018525;,
        -0.519333;-0.848628; 0.100345;,
        -0.464522;-0.790735;-0.398633;,
         0.506729;-0.720695;-0.473037;,
        -0.760094; 0.645924; 0.070559;,
         0.167821; 0.982849;-0.076327;,
         0.156835; 0.826014;-0.541337;,
        -0.691275; 0.564928;-0.450484;,
        -0.818506; 0.572253; 0.049898;,
        -0.635945; 0.771294; 0.025117;,
        -0.541734; 0.703696; 0.459639;,
        -0.934812; 0.193213; 0.297861;,
        -0.710288;-0.693197; 0.122196;,
        -0.194037;-0.977813; 0.078799;,
        -0.173193;-0.829981; 0.530168;,
        -0.712699;-0.514664; 0.476577;,
        -0.942351;-0.296640; 0.154790;,
        -0.710288;-0.693197; 0.122196;,
        -0.712699;-0.514664; 0.476577;,
        -0.948576;-0.118229; 0.293588;,
         0.167821; 0.982849;-0.076327;,
         0.672170; 0.730338;-0.121433;,
         0.636708; 0.583117;-0.504501;,
         0.156835; 0.826014;-0.541337;,
        -0.519333;-0.848628; 0.100345;,
        -0.818506; 0.572253; 0.049898;,
        -0.934812; 0.193213; 0.297861;,
        -0.464522;-0.790735;-0.398633;,
        -0.811426;-0.161779;-0.561571;,
         0.519517; 0.092502;-0.849422;,
         0.522019; 0.077792;-0.849361;,
        -0.800714;-0.214515;-0.559282;,
        -0.800714;-0.214515;-0.559282;,
         0.522019; 0.077792;-0.849361;,
         0.508042;-0.006806;-0.861293;,
        -0.701956;-0.201666;-0.683035;,
        -0.701956;-0.201666;-0.683035;,
         0.508042;-0.006806;-0.861293;,
         0.292001;-0.194189;-0.936460;,
        -0.598285; 0.695059;-0.398602;,
        -0.598285; 0.695059;-0.398602;,
         0.292001;-0.194189;-0.936460;,
        -0.538163;-0.294717;-0.789605;,
        -0.674032; 0.685171;-0.276009;,
         0.519517; 0.092502;-0.849422;,
        -0.811426;-0.161779;-0.561571;,
        -0.723838;-0.234230;-0.648976;,
         0.441267; 0.182073;-0.878689;,
         0.172796; 0.229163;-0.957915;,
        -0.140843;-0.947081;-0.288430;,
        -0.386822;-0.890713;-0.238655;,
        -0.436720; 0.082247;-0.895810;,
         0.441267; 0.182073;-0.878689;,
        -0.723838;-0.234230;-0.648976;,
        -0.140843;-0.947081;-0.288430;,
         0.172796; 0.229163;-0.957915;,
         0.156835; 0.826014;-0.541337;,
         0.636708; 0.583117;-0.504501;,
         0.441267; 0.182073;-0.878689;,
         0.172796; 0.229163;-0.957915;,
         0.506729;-0.720695;-0.473037;,
        -0.464522;-0.790735;-0.398633;,
        -0.538163;-0.294717;-0.789605;,
         0.292001;-0.194189;-0.936460;,
        -0.860286;-0.495712; 0.118992;,
        -0.691275; 0.564928;-0.450484;,
        -0.436720; 0.082247;-0.895810;,
        -0.386822;-0.890713;-0.238655;,
        -0.934812; 0.193213; 0.297861;,
        -0.541734; 0.703696; 0.459639;,
        -0.598285; 0.695059;-0.398602;,
        -0.674032; 0.685171;-0.276009;,
         0.903531; 0.140385;-0.404797;,
         0.855129;-0.212348;-0.472884;,
         0.508042;-0.006806;-0.861293;,
         0.522019; 0.077792;-0.849361;,
        -0.173193;-0.829981; 0.530168;,
        -0.860286;-0.495712; 0.118992;,
        -0.386822;-0.890713;-0.238655;,
        -0.140843;-0.947081;-0.288430;,
        -0.894070; 0.077181; 0.441176;,
        -0.918729;-0.301004; 0.255501;,
        -0.800714;-0.214515;-0.559282;,
        -0.701956;-0.201666;-0.683035;,
        -0.691275; 0.564928;-0.450484;,
         0.156835; 0.826014;-0.541337;,
         0.172796; 0.229163;-0.957915;,
        -0.436720; 0.082247;-0.895810;,
         0.636708; 0.583117;-0.504501;,
         0.878262; 0.227515;-0.420545;,
         0.519517; 0.092502;-0.849422;,
         0.441267; 0.182073;-0.878689;,
        -0.959624; 0.135136;-0.246590;,
        -0.123264;-0.431623; 0.893582;,
        -0.574602; 0.207160; 0.791742;,
        -0.976562; 0.204199; 0.067812;,
        -0.959624; 0.135136;-0.246590;,
         0.171392; 0.818323;-0.548601;,
         0.346263; 0.434950;-0.831172;,
        -0.821528; 0.059877;-0.566973;,
         0.870388; 0.377819; 0.315592;,
        -0.236793;-0.213507; 0.947783;,
        -0.296243; 0.115146; 0.948119;,
         0.948088; 0.018921; 0.317331;,
        -0.236793;-0.213507; 0.947783;,
         0.870388; 0.377819; 0.315592;,
         0.712607; 0.585315; 0.386761;,
        -0.123264;-0.431623; 0.893582;,
        -0.959624; 0.135136;-0.246590;,
        -0.821528; 0.059877;-0.566973;,
        -0.236793;-0.213507; 0.947783;,
        -0.123264;-0.431623; 0.893582;,
         0.346263; 0.434950;-0.831172;,
         0.171392; 0.818323;-0.548601;,
         0.712607; 0.585315; 0.386761;,
         0.870388; 0.377819; 0.315592;,
         0.514420;-0.279946;-0.810511;,
         0.948088; 0.018921; 0.317331;,
         0.877468;-0.303903; 0.371014;,
         0.524796;-0.701926;-0.481491;,
        -0.236793;-0.213507; 0.947783;,
        -0.821528; 0.059877;-0.566973;,
        -0.674398;-0.491134;-0.551286;,
        -0.296243; 0.115146; 0.948119;,
         0.346263; 0.434950;-0.831172;,
         0.870388; 0.377819; 0.315592;,
         0.948088; 0.018921; 0.317331;,
         0.514420;-0.279946;-0.810511;,
        -0.821528; 0.059877;-0.566973;,
         0.346263; 0.434950;-0.831172;,
         0.514420;-0.279946;-0.810511;,
        -0.674398;-0.491134;-0.551286;,
        -0.574602; 0.207160; 0.791742;,
         0.356639; 0.812037; 0.461898;,
         0.031800; 0.956633;-0.289438;,
        -0.976562; 0.204199; 0.067812;,
         0.171392; 0.818323;-0.548601;,
        -0.959624; 0.135136;-0.246590;,
        -0.976562; 0.204199; 0.067812;,
         0.031800; 0.956633;-0.289438;,
        -0.123264;-0.431623; 0.893582;,
         0.712607; 0.585315; 0.386761;,
         0.356639; 0.812037; 0.461898;,
        -0.574602; 0.207160; 0.791742;,
         0.712607; 0.585315; 0.386761;,
         0.171392; 0.818323;-0.548601;,
         0.031800; 0.956633;-0.289438;,
         0.356639; 0.812037; 0.461898;,
         0.877468;-0.303903; 0.371014;,
        -0.156255; 0.340190; 0.927244;,
        -0.410108;-0.325236; 0.852046;,
         0.665395;-0.663137; 0.342723;,
        -0.674398;-0.491134;-0.551286;,
         0.514420;-0.279946;-0.810511;,
         0.524796;-0.701926;-0.481491;,
        -0.823328;-0.519669;-0.228156;,
         0.948088; 0.018921; 0.317331;,
        -0.296243; 0.115146; 0.948119;,
        -0.156255; 0.340190; 0.927244;,
         0.877468;-0.303903; 0.371014;,
        -0.296243; 0.115146; 0.948119;,
        -0.674398;-0.491134;-0.551286;,
        -0.823328;-0.519669;-0.228156;,
        -0.156255; 0.340190; 0.927244;,
        -0.858425;-0.511979; 0.030305;,
         0.403424;-0.873836;-0.271340;,
         0.665395;-0.663137; 0.342723;,
        -0.410108;-0.325236; 0.852046;,
        -0.156255; 0.340190; 0.927244;,
        -0.823328;-0.519669;-0.228156;,
        -0.858425;-0.511979; 0.030305;,
        -0.410108;-0.325236; 0.852046;,
         0.524796;-0.701926;-0.481491;,
         0.877468;-0.303903; 0.371014;,
         0.665395;-0.663137; 0.342723;,
         0.403424;-0.873836;-0.271340;,
        -0.823328;-0.519669;-0.228156;,
         0.524796;-0.701926;-0.481491;,
         0.403424;-0.873836;-0.271340;,
        -0.858425;-0.511979; 0.030305;,
         0.476180;-0.179083; 0.860897;,
         0.476180;-0.179083;-0.860897;,
         0.256996;-0.534562;-0.805078;,
         0.256783;-0.533189; 0.806055;,
        -0.687857;-0.163793;-0.707083;,
         0.476180;-0.179083;-0.860897;,
         0.692679;-0.431471;-0.577929;,
        -0.427869;-0.695395;-0.577349;,
        -0.427869;-0.695395;-0.577349;,
         0.692679;-0.431471;-0.577929;,
         0.692679;-0.431471; 0.577929;,
        -0.427869;-0.695395; 0.577349;,
        -0.427869;-0.695395; 0.577349;,
         0.692679;-0.431471; 0.577929;,
         0.476180;-0.179083; 0.860897;,
        -0.687857;-0.163793; 0.707083;,
        -0.687857;-0.163793;-0.707083;,
        -0.427869;-0.695395;-0.577349;,
        -0.427869;-0.695395; 0.577349;,
        -0.687857;-0.163793; 0.707083;,
         0.692679;-0.431471;-0.577929;,
         0.476180;-0.179083;-0.860897;,
         0.476180;-0.179083; 0.860897;,
         0.692679;-0.431471; 0.577929;,
        -0.759636; 0.037751; 0.649220;,
        -0.483993; 0.619800; 0.617725;,
        -0.482681; 0.617542;-0.620991;,
        -0.759636; 0.037751;-0.649220;,
        -0.687857;-0.163793;-0.707083;,
        -0.687857;-0.163793; 0.707083;,
        -0.759636; 0.037751; 0.649220;,
        -0.759636; 0.037751;-0.649220;,
         0.476180;-0.179083;-0.860897;,
        -0.687857;-0.163793;-0.707083;,
        -0.759636; 0.037751;-0.649220;,
        -0.482681; 0.617542;-0.620991;,
        -0.687857;-0.163793; 0.707083;,
         0.476180;-0.179083; 0.860897;,
        -0.483993; 0.619800; 0.617725;,
        -0.759636; 0.037751; 0.649220;,
         0.256996;-0.534562;-0.805078;,
         0.152257; 0.721488;-0.675466;,
         0.477004; 0.590320;-0.651112;,
        -0.135197;-0.675008;-0.725272;,
         0.476180;-0.179083;-0.860897;,
        -0.482681; 0.617542;-0.620991;,
         0.152257; 0.721488;-0.675466;,
         0.256996;-0.534562;-0.805078;,
        -0.482681; 0.617542;-0.620991;,
        -0.483993; 0.619800; 0.617725;,
         0.149815; 0.740471; 0.655171;,
         0.152257; 0.721488;-0.675466;,
        -0.483993; 0.619800; 0.617725;,
         0.476180;-0.179083; 0.860897;,
         0.256783;-0.533189; 0.806055;,
         0.149815; 0.740471; 0.655171;,
         0.513321; 0.626057; 0.586932;,
        -0.119724;-0.583117; 0.803491;,
        -0.234504;-0.342662; 0.909696;,
         0.732566; 0.555132; 0.393841;,
         0.256783;-0.533189; 0.806055;,
         0.256996;-0.534562;-0.805078;,
        -0.135197;-0.675008;-0.725272;,
        -0.119724;-0.583117; 0.803491;,
         0.149815; 0.740471; 0.655171;,
         0.256783;-0.533189; 0.806055;,
        -0.119724;-0.583117; 0.803491;,
         0.513321; 0.626057; 0.586932;,
         0.152257; 0.721488;-0.675466;,
         0.149815; 0.740471; 0.655171;,
         0.513321; 0.626057; 0.586932;,
         0.477004; 0.590320;-0.651112;,
         0.732566; 0.555132; 0.393841;,
        -0.234504;-0.342662; 0.909696;,
        -0.168920;-0.196539; 0.965819;,
         0.880306; 0.389691; 0.270486;,
         0.477004; 0.590320;-0.651112;,
         0.513321; 0.626057; 0.586932;,
         0.732566; 0.555132; 0.393841;,
         0.395825; 0.340251;-0.852931;,
        -0.135197;-0.675008;-0.725272;,
         0.477004; 0.590320;-0.651112;,
         0.395825; 0.340251;-0.852931;,
        -0.669179;-0.637257;-0.382183;,
        -0.119724;-0.583117; 0.803491;,
        -0.135197;-0.675008;-0.725272;,
        -0.669179;-0.637257;-0.382183;,
        -0.234504;-0.342662; 0.909696;,
         0.286630; 0.247291;-0.925565;,
         0.880306; 0.389691; 0.270486;,
         0.958922; 0.175878; 0.222449;,
         0.234809; 0.112094;-0.965545;,
         0.395825; 0.340251;-0.852931;,
         0.732566; 0.555132; 0.393841;,
         0.880306; 0.389691; 0.270486;,
         0.286630; 0.247291;-0.925565;,
        -0.669179;-0.637257;-0.382183;,
         0.395825; 0.340251;-0.852931;,
         0.286630; 0.247291;-0.925565;,
        -0.863430;-0.366924;-0.346171;,
        -0.234504;-0.342662; 0.909696;,
        -0.669179;-0.637257;-0.382183;,
        -0.863430;-0.366924;-0.346171;,
        -0.168920;-0.196539; 0.965819;,
         0.958922; 0.175878; 0.222449;,
        -0.206793;-0.119205; 0.971068;,
        -0.226386; 0.020020; 0.973815;,
         0.971892;-0.002319; 0.235328;,
        -0.863430;-0.366924;-0.346171;,
         0.286630; 0.247291;-0.925565;,
         0.234809; 0.112094;-0.965545;,
        -0.952422;-0.176183;-0.248573;,
        -0.168920;-0.196539; 0.965819;,
        -0.863430;-0.366924;-0.346171;,
        -0.952422;-0.176183;-0.248573;,
        -0.206793;-0.119205; 0.971068;,
         0.880306; 0.389691; 0.270486;,
        -0.168920;-0.196539; 0.965819;,
        -0.206793;-0.119205; 0.971068;,
         0.958922; 0.175878; 0.222449;,
        -0.917600; 0.069063;-0.391369;,
         0.359386;-0.093722;-0.928434;,
         0.476302;-0.440321;-0.761071;,
        -0.664296; 0.468490;-0.582415;,
         0.234809; 0.112094;-0.965545;,
         0.958922; 0.175878; 0.222449;,
         0.971892;-0.002319; 0.235328;,
         0.359386;-0.093722;-0.928434;,
        -0.952422;-0.176183;-0.248573;,
         0.234809; 0.112094;-0.965545;,
         0.359386;-0.093722;-0.928434;,
        -0.917600; 0.069063;-0.391369;,
        -0.206793;-0.119205; 0.971068;,
        -0.952422;-0.176183;-0.248573;,
        -0.917600; 0.069063;-0.391369;,
        -0.226386; 0.020020; 0.973815;,
        -0.247291; 0.368419; 0.896146;,
        -0.664296; 0.468490;-0.582415;,
        -0.158879; 0.559679;-0.813318;,
         0.056063; 0.658193; 0.750725;,
        -0.226386; 0.020020; 0.973815;,
        -0.917600; 0.069063;-0.391369;,
        -0.664296; 0.468490;-0.582415;,
        -0.247291; 0.368419; 0.896146;,
         0.971892;-0.002319; 0.235328;,
        -0.226386; 0.020020; 0.973815;,
        -0.247291; 0.368419; 0.896146;,
         0.865047;-0.335643; 0.372814;,
         0.359386;-0.093722;-0.928434;,
         0.971892;-0.002319; 0.235328;,
         0.865047;-0.335643; 0.372814;,
         0.476302;-0.440321;-0.761071;,
         0.419050;-0.627949; 0.655751;,
         0.056063; 0.658193; 0.750725;,
         0.229774; 0.796106; 0.559801;,
         0.179449;-0.519456; 0.835414;,
         0.865047;-0.335643; 0.372814;,
        -0.247291; 0.368419; 0.896146;,
         0.056063; 0.658193; 0.750725;,
         0.419050;-0.627949; 0.655751;,
         0.476302;-0.440321;-0.761071;,
         0.865047;-0.335643; 0.372814;,
         0.419050;-0.627949; 0.655751;,
         0.237739;-0.706992;-0.666036;,
        -0.664296; 0.468490;-0.582415;,
         0.476302;-0.440321;-0.761071;,
         0.237739;-0.706992;-0.666036;,
        -0.158879; 0.559679;-0.813318;,
         0.237739;-0.706992;-0.666036;,
         0.419050;-0.627949; 0.655751;,
         0.179449;-0.519456; 0.835414;,
        -0.028108;-0.628468;-0.777306;,
        -0.158879; 0.559679;-0.813318;,
         0.237739;-0.706992;-0.666036;,
        -0.028108;-0.628468;-0.777306;,
         0.093753; 0.819910;-0.564745;,
         0.056063; 0.658193; 0.750725;,
        -0.158879; 0.559679;-0.813318;,
         0.093753; 0.819910;-0.564745;,
         0.229774; 0.796106; 0.559801;;
        191;
        4;3,2,1,0;,
        4;7,6,5,4;,
        4;11,10,9,8;,
        4;15,14,13,12;,
        4;19,18,17,16;,
        4;23,22,21,20;,
        4;27,26,25,24;,
        4;31,30,29,28;,
        4;35,34,33,32;,
        4;39,38,37,36;,
        4;43,42,41,40;,
        4;47,46,45,44;,
        4;51,50,49,48;,
        4;55,54,53,52;,
        4;59,58,57,56;,
        4;63,62,61,60;,
        4;67,66,65,64;,
        4;71,70,69,68;,
        4;75,74,73,72;,
        4;79,78,77,76;,
        4;83,82,81,80;,
        4;87,86,85,84;,
        4;91,90,89,88;,
        4;95,94,93,92;,
        4;99,98,97,96;,
        4;103,102,101,100;,
        4;107,106,105,104;,
        4;111,110,109,108;,
        4;115,114,113,112;,
        4;119,118,117,116;,
        4;123,122,121,120;,
        4;127,126,125,124;,
        4;131,130,129,128;,
        4;135,134,133,132;,
        4;139,138,137,136;,
        4;143,142,141,140;,
        4;147,146,145,144;,
        4;151,150,149,148;,
        4;155,154,153,152;,
        4;159,158,157,156;,
        4;163,162,161,160;,
        4;167,166,165,164;,
        4;171,170,169,168;,
        4;175,174,173,172;,
        4;179,178,177,176;,
        4;183,182,181,180;,
        4;187,186,185,184;,
        4;191,190,189,188;,
        4;195,194,193,192;,
        4;199,198,197,196;,
        4;203,202,201,200;,
        4;207,206,205,204;,
        4;211,210,209,208;,
        4;215,214,213,212;,
        4;219,218,217,216;,
        4;223,222,221,220;,
        4;227,226,225,224;,
        4;231,230,229,228;,
        4;235,234,233,232;,
        4;239,238,237,236;,
        4;243,242,241,240;,
        4;247,246,245,244;,
        4;251,250,249,248;,
        4;255,254,253,252;,
        4;259,258,257,256;,
        4;263,262,261,260;,
        4;267,266,265,264;,
        4;271,270,269,268;,
        4;275,274,273,272;,
        4;279,278,277,276;,
        4;283,282,281,280;,
        4;287,286,285,284;,
        4;291,290,289,288;,
        4;295,294,293,292;,
        4;299,298,297,296;,
        4;303,302,301,300;,
        4;307,306,305,304;,
        4;311,310,309,308;,
        4;315,314,313,312;,
        4;319,318,317,316;,
        4;323,322,321,320;,
        4;327,326,325,324;,
        4;331,330,329,328;,
        4;335,334,333,332;,
        4;339,338,337,336;,
        4;343,342,341,340;,
        4;347,346,345,344;,
        4;351,350,349,348;,
        4;355,354,353,352;,
        4;359,358,357,356;,
        4;363,362,361,360;,
        4;367,366,365,364;,
        4;371,370,369,368;,
        4;375,374,373,372;,
        4;379,378,377,376;,
        4;383,382,381,380;,
        4;387,386,385,384;,
        4;391,390,389,388;,
        4;395,394,393,392;,
        4;399,398,397,396;,
        4;403,402,401,400;,
        4;407,406,405,404;,
        4;411,410,409,408;,
        4;415,414,413,412;,
        4;419,418,417,416;,
        4;423,422,421,420;,
        4;427,426,425,424;,
        4;431,430,429,428;,
        4;435,434,433,432;,
        4;439,438,437,436;,
        4;443,442,441,440;,
        4;447,446,445,444;,
        4;451,450,449,448;,
        4;455,454,453,452;,
        4;459,458,457,456;,
        4;463,462,461,460;,
        4;467,466,465,464;,
        4;471,470,469,468;,
        4;475,474,473,472;,
        4;479,478,477,476;,
        4;483,482,481,480;,
        4;487,486,485,484;,
        4;491,490,489,488;,
        4;495,494,493,492;,
        4;499,498,497,496;,
        4;503,502,501,500;,
        4;507,506,505,504;,
        4;511,510,509,508;,
        4;515,514,513,512;,
        4;519,518,517,516;,
        4;523,522,521,520;,
        4;527,526,525,524;,
        4;531,530,529,528;,
        4;535,534,533,532;,
        4;539,538,537,536;,
        4;543,542,541,540;,
        4;547,546,545,544;,
        4;551,550,549,548;,
        4;555,554,553,552;,
        4;559,558,557,556;,
        4;563,562,561,560;,
        4;567,566,565,564;,
        4;571,570,569,568;,
        4;575,574,573,572;,
        4;579,578,577,576;,
        4;583,582,581,580;,
        4;587,586,585,584;,
        4;591,590,589,588;,
        4;595,594,593,592;,
        4;599,598,597,596;,
        4;603,602,601,600;,
        4;607,606,605,604;,
        4;611,610,609,608;,
        4;615,614,613,612;,
        4;619,618,617,616;,
        4;623,622,621,620;,
        4;627,626,625,624;,
        4;631,630,629,628;,
        4;635,634,633,632;,
        4;639,638,637,636;,
        4;643,642,641,640;,
        4;647,646,645,644;,
        4;651,650,649,648;,
        4;655,654,653,652;,
        4;659,658,657,656;,
        4;663,662,661,660;,
        4;667,666,665,664;,
        4;671,670,669,668;,
        4;675,674,673,672;,
        4;679,678,677,676;,
        4;683,682,681,680;,
        4;687,686,685,684;,
        4;691,690,689,688;,
        4;695,694,693,692;,
        4;699,698,697,696;,
        4;703,702,701,700;,
        4;707,706,705,704;,
        4;711,710,709,708;,
        4;715,714,713,712;,
        4;719,718,717,716;,
        4;723,722,721,720;,
        4;727,726,725,724;,
        4;731,730,729,728;,
        4;735,734,733,732;,
        4;739,738,737,736;,
        4;743,742,741,740;,
        4;747,746,745,744;,
        4;751,750,749,748;,
        4;755,754,753,752;,
        4;759,758,757,756;,
        4;763,762,761,760;;
      } // End of Cube normals
      MeshTextureCoords { // Cube UV coordinates
        764;
         0.323085; 0.188781;,
         0.331309; 0.190573;,
         0.345357; 0.186746;,
         0.340473; 0.179795;,
         0.331309; 0.190573;,
         0.323085; 0.188781;,
         0.277494; 0.383061;,
         0.285718; 0.384853;,
         0.558421; 0.787149;,
         0.673683; 0.787019;,
         0.673511; 0.771193;,
         0.555158; 0.771069;,
         0.750702; 0.217641;,
         0.733870; 0.226931;,
         0.758978; 0.295692;,
         0.775810; 0.286402;,
         0.527821; 0.475084;,
         0.527872; 0.675710;,
         0.641397; 0.675953;,
         0.641347; 0.475327;,
         0.558421; 0.787149;,
         0.555686; 0.987605;,
         0.670949; 0.987475;,
         0.673683; 0.787019;,
         0.157370; 0.333870;,
         0.157370; 0.204726;,
         0.136739; 0.209193;,
         0.136739; 0.338337;,
         0.673683; 0.787019;,
         0.670949; 0.987475;,
         0.748146; 0.987350;,
         0.750880; 0.786895;,
         0.670949; 0.987475;,
         0.555686; 0.987605;,
         0.552254; 0.999876;,
         0.670608; 1.000000;,
         0.527821; 0.475084;,
         0.641347; 0.475327;,
         0.641665; 0.468572;,
         0.524673; 0.468201;,
         0.364445; 0.164398;,
         0.362558; 0.172667;,
         0.387912; 0.178762;,
         0.389798; 0.170492;,
         0.524673; 0.468201;,
         0.641665; 0.468572;,
         0.638334; 0.450937;,
         0.521342; 0.450566;,
         0.340473; 0.179795;,
         0.345357; 0.186746;,
         0.362558; 0.172667;,
         0.364445; 0.164398;,
         0.670949; 0.987475;,
         0.670608; 1.000000;,
         0.747805; 0.999876;,
         0.748146; 0.987350;,
         0.943165; 0.278296;,
         0.934926; 0.280105;,
         0.947350; 0.337263;,
         0.955589; 0.335454;,
         0.126083; 0.040271;,
         0.117964; 0.038215;,
         0.079430; 0.169070;,
         0.087549; 0.171126;,
         0.136739; 0.338337;,
         0.136739; 0.209193;,
         0.111016; 0.213522;,
         0.079430; 0.291421;,
         0.736101; 0.120114;,
         0.750702; 0.217641;,
         0.801385; 0.184375;,
         0.761676; 0.124569;,
         0.296268; 0.396892;,
         0.289406; 0.401746;,
         0.305212; 0.419682;,
         0.308033; 0.411696;,
         0.285718; 0.384853;,
         0.277494; 0.383061;,
         0.289406; 0.401746;,
         0.296268; 0.396892;,
         0.673511; 0.771193;,
         0.673683; 0.787019;,
         0.750880; 0.786895;,
         0.750708; 0.771069;,
         0.641397; 0.675953;,
         0.527872; 0.675710;,
         0.524673; 0.685162;,
         0.641665; 0.685533;,
         0.157370; 0.333870;,
         0.136739; 0.338337;,
         0.121542; 0.428830;,
         0.142173; 0.424363;,
         0.641347; 0.475327;,
         0.641397; 0.675953;,
         0.717259; 0.675997;,
         0.717209; 0.475371;,
         0.079430; 0.335701;,
         0.079430; 0.206557;,
         0.065405; 0.208353;,
         0.065405; 0.337498;,
         0.555158; 0.771069;,
         0.673511; 0.771193;,
         0.669433; 0.756616;,
         0.551079; 0.756492;,
         0.328562; 0.419922;,
         0.325756; 0.427900;,
         0.386993; 0.434168;,
         0.389799; 0.426189;,
         0.065405; 0.337498;,
         0.065405; 0.208353;,
         0.044063; 0.212051;,
         0.000000; 0.291421;,
         0.923871; 0.685577;,
         0.923871; 0.586938;,
         0.861823; 0.607879;,
         0.904244; 0.676377;,
         0.308033; 0.411696;,
         0.305212; 0.419682;,
         0.325756; 0.427900;,
         0.328562; 0.419922;,
         0.261462; 0.401002;,
         0.261462; 0.200344;,
         0.238980; 0.237571;,
         0.238980; 0.363079;,
         0.906605; 0.146607;,
         0.914844; 0.144798;,
         0.955589; 0.115102;,
         0.950436; 0.116234;,
         0.595809; 0.749554;,
         0.613290; 0.756492;,
         0.611997; 0.707129;,
         0.601063; 0.702790;,
         0.712800; 0.250889;,
         0.712800; 0.450566;,
         0.730513; 0.410790;,
         0.730513; 0.285895;,
         0.750526; 0.702237;,
         0.732531; 0.715261;,
         0.739270; 0.756492;,
         0.750526; 0.748346;,
         0.260695; 0.187770;,
         0.241070; 0.166938;,
         0.226225; 0.216675;,
         0.238500; 0.229706;,
         0.717259; 0.675997;,
         0.717527; 0.685577;,
         0.733870; 0.644437;,
         0.733702; 0.638445;,
         0.065405; 0.337498;,
         0.000000; 0.291421;,
         0.016389; 0.433159;,
         0.050208; 0.427991;,
         0.641665; 0.468572;,
         0.641347; 0.475327;,
         0.717209; 0.475371;,
         0.717527; 0.468617;,
         0.136739; 0.338337;,
         0.079430; 0.291421;,
         0.095819; 0.433159;,
         0.121542; 0.428830;,
         0.861823; 0.607879;,
         0.923871; 0.586938;,
         0.909223; 0.515150;,
         0.877585; 0.502596;,
         0.801385; 0.184375;,
         0.750702; 0.217641;,
         0.775810; 0.286402;,
         0.801385; 0.290857;,
         0.079430; 0.335701;,
         0.065405; 0.337498;,
         0.050208; 0.427991;,
         0.064233; 0.426194;,
         0.641397; 0.675953;,
         0.641665; 0.685533;,
         0.717527; 0.685577;,
         0.717259; 0.675997;,
         0.669433; 0.756616;,
         0.673511; 0.771193;,
         0.750708; 0.771069;,
         0.746630; 0.756492;,
         0.934926; 0.280105;,
         0.943165; 0.278296;,
         0.914844; 0.144798;,
         0.906605; 0.146607;,
         0.233768; 0.362927;,
         0.238980; 0.363079;,
         0.238980; 0.237571;,
         0.233768; 0.237419;,
         0.233768; 0.237419;,
         0.238980; 0.237571;,
         0.238500; 0.229706;,
         0.234572; 0.233209;,
         0.234572; 0.233209;,
         0.238500; 0.229706;,
         0.226225; 0.216675;,
         0.226193; 0.222010;,
         0.226193; 0.222010;,
         0.226225; 0.216675;,
         0.210077; 0.216556;,
         0.210045; 0.221890;,
         0.238980; 0.363079;,
         0.233768; 0.362927;,
         0.234436; 0.368933;,
         0.237887; 0.372936;,
         0.225819; 0.381491;,
         0.225248; 0.376189;,
         0.203994; 0.377889;,
         0.204550; 0.383192;,
         0.237887; 0.372936;,
         0.234436; 0.368933;,
         0.225248; 0.376189;,
         0.225819; 0.381491;,
         0.240421; 0.430439;,
         0.259714; 0.416761;,
         0.237887; 0.372936;,
         0.225819; 0.381491;,
         0.241070; 0.166938;,
         0.215253; 0.166746;,
         0.210077; 0.216556;,
         0.226225; 0.216675;,
         0.087549; 0.171126;,
         0.079430; 0.169070;,
         0.121005; 0.203440;,
         0.126083; 0.204726;,
         0.801385; 0.290857;,
         0.775810; 0.286402;,
         0.776986; 0.334476;,
         0.792983; 0.337263;,
         0.261462; 0.200344;,
         0.260695; 0.187770;,
         0.238500; 0.229706;,
         0.238980; 0.237571;,
         0.613290; 0.756492;,
         0.647061; 0.749554;,
         0.633120; 0.702790;,
         0.611997; 0.707129;,
         0.717527; 0.468617;,
         0.717209; 0.475371;,
         0.733671; 0.512956;,
         0.733870; 0.508732;,
         0.206417; 0.433159;,
         0.240421; 0.430439;,
         0.225819; 0.381491;,
         0.204550; 0.383192;,
         0.259714; 0.416761;,
         0.261462; 0.401002;,
         0.238980; 0.363079;,
         0.237887; 0.372936;,
         0.750880; 0.767984;,
         0.758948; 0.767634;,
         0.771148; 0.760335;,
         0.765006; 0.754814;,
         0.758948; 0.767634;,
         0.750880; 0.767984;,
         0.753020; 0.968622;,
         0.761088; 0.968271;,
         0.231116; 0.433159;,
         0.231040; 0.565099;,
         0.246659; 0.565595;,
         0.246659; 0.438716;,
         0.521342; 0.573189;,
         0.504298; 0.567782;,
         0.504298; 0.659582;,
         0.521342; 0.664989;,
         0.497529; 0.436613;,
         0.299350; 0.434168;,
         0.299411; 0.565753;,
         0.497590; 0.568198;,
         0.231116; 0.433159;,
         0.032770; 0.434900;,
         0.032695; 0.566840;,
         0.231040; 0.565099;,
         0.020283; 0.567227;,
         0.020283; 0.440348;,
         0.000150; 0.447637;,
         0.000150; 0.574516;,
         0.231040; 0.565099;,
         0.032695; 0.566840;,
         0.032544; 0.658736;,
         0.230890; 0.656995;,
         0.032695; 0.566840;,
         0.032770; 0.434900;,
         0.020283; 0.440348;,
         0.020283; 0.567227;,
         0.497529; 0.436613;,
         0.497590; 0.568198;,
         0.504298; 0.567782;,
         0.503972; 0.441609;,
         0.783791; 0.733731;,
         0.783932; 0.742258;,
         0.808935; 0.741734;,
         0.808794; 0.733208;,
         0.503972; 0.441609;,
         0.504298; 0.567782;,
         0.521342; 0.573189;,
         0.521017; 0.447016;,
         0.765006; 0.754814;,
         0.771148; 0.760335;,
         0.783932; 0.742258;,
         0.783791; 0.733731;,
         0.032695; 0.566840;,
         0.020283; 0.567227;,
         0.020133; 0.659123;,
         0.032544; 0.658736;,
         0.882574; 0.211915;,
         0.874286; 0.213452;,
         0.898317; 0.337263;,
         0.906605; 0.335725;,
         0.878104; 0.881431;,
         0.869995; 0.879478;,
         0.852629; 0.969582;,
         0.860738; 0.971535;,
         0.930213; 0.592947;,
         0.934476; 0.685577;,
         0.960035; 0.682726;,
         0.955772; 0.590095;,
         0.964499; 0.110582;,
         0.955590; 0.239574;,
         0.980974; 0.245780;,
         0.989884; 0.116788;,
         0.773674; 0.977301;,
         0.768399; 0.983770;,
         0.787231; 0.997198;,
         0.788024; 0.988710;,
         0.761088; 0.968271;,
         0.753020; 0.968622;,
         0.768399; 0.983770;,
         0.773674; 0.977301;,
         0.246659; 0.565595;,
         0.231040; 0.565099;,
         0.230890; 0.656995;,
         0.246509; 0.657492;,
         0.299411; 0.565753;,
         0.299350; 0.434168;,
         0.289652; 0.439049;,
         0.289977; 0.565222;,
         0.020283; 0.567227;,
         0.000150; 0.574516;,
         0.000000; 0.666413;,
         0.020133; 0.659123;,
         0.497590; 0.568198;,
         0.299411; 0.565753;,
         0.299411; 0.657553;,
         0.497590; 0.659998;,
         0.289977; 0.565222;,
         0.289652; 0.439049;,
         0.277494; 0.444597;,
         0.277819; 0.570770;,
         0.817414; 0.101940;,
         0.801385; 0.230226;,
         0.820142; 0.235661;,
         0.836171; 0.107375;,
         0.902687; 0.753428;,
         0.894578; 0.751475;,
         0.869995; 0.879478;,
         0.878104; 0.881431;,
         0.224711; 0.075445;,
         0.240747; 0.166746;,
         0.261462; 0.159156;,
         0.257622; 0.065512;,
         0.836171; 0.107375;,
         0.820142; 0.235661;,
         0.853198; 0.245420;,
         0.857035; 0.114067;,
         0.788024; 0.988710;,
         0.787231; 0.997198;,
         0.808113; 1.000000;,
         0.808935; 0.991512;,
         0.230890; 0.656995;,
         0.032544; 0.658736;,
         0.069671; 0.685379;,
         0.193732; 0.684289;,
         0.857035; 0.123326;,
         0.865322; 0.121789;,
         0.906605; 0.093370;,
         0.901421; 0.094331;,
         0.696340; 0.713452;,
         0.679828; 0.705581;,
         0.686012; 0.751569;,
         0.696340; 0.756492;,
         0.497590; 0.659998;,
         0.299411; 0.657553;,
         0.336266; 0.684048;,
         0.460224; 0.685577;,
         0.707650; 0.699103;,
         0.696340; 0.718158;,
         0.709894; 0.756492;,
         0.716968; 0.744573;,
         0.923871; 0.516283;,
         0.942372; 0.528483;,
         0.951944; 0.477513;,
         0.940372; 0.469882;,
         0.299411; 0.657553;,
         0.289977; 0.657022;,
         0.330366; 0.683716;,
         0.336266; 0.684048;,
         0.224711; 0.075445;,
         0.257622; 0.065512;,
         0.261462; 0.000000;,
         0.228551; 0.009933;,
         0.504298; 0.567782;,
         0.497590; 0.568198;,
         0.497590; 0.659998;,
         0.504298; 0.659582;,
         0.930213; 0.592947;,
         0.955772; 0.590095;,
         0.967931; 0.525631;,
         0.942372; 0.528483;,
         0.853198; 0.245420;,
         0.820142; 0.235661;,
         0.823979; 0.327504;,
         0.857035; 0.337263;,
         0.980974; 0.245780;,
         0.955590; 0.239574;,
         0.964499; 0.331057;,
         0.989884; 0.337263;,
         0.289977; 0.565222;,
         0.277819; 0.570770;,
         0.277819; 0.662570;,
         0.289977; 0.657022;,
         0.299411; 0.565753;,
         0.289977; 0.565222;,
         0.289977; 0.657022;,
         0.299411; 0.657553;,
         0.820142; 0.235661;,
         0.801385; 0.230226;,
         0.805222; 0.322069;,
         0.823979; 0.327504;,
         0.874286; 0.213452;,
         0.882574; 0.211915;,
         0.865322; 0.121789;,
         0.857035; 0.123326;,
         0.923646; 0.855246;,
         0.918486; 0.855237;,
         0.924962; 0.979636;,
         0.930122; 0.979645;,
         0.930122; 0.979645;,
         0.924962; 0.979636;,
         0.925842; 0.987419;,
         0.929545; 0.983839;,
         0.929545; 0.983839;,
         0.925842; 0.987419;,
         0.938650; 1.000000;,
         0.938406; 0.994712;,
         0.938406; 0.994712;,
         0.938650; 1.000000;,
         0.954620; 0.999679;,
         0.954377; 0.994391;,
         0.918486; 0.855237;,
         0.923646; 0.855246;,
         0.922676; 0.849310;,
         0.919058; 0.845437;,
         0.930547; 0.836629;,
         0.931385; 0.841869;,
         0.952391; 0.839572;,
         0.951542; 0.834341;,
         0.919058; 0.845437;,
         0.922676; 0.849310;,
         0.931385; 0.841869;,
         0.930547; 0.836629;,
         0.921054; 0.785499;,
         0.902687; 0.799581;,
         0.919058; 0.845437;,
         0.930547; 0.836629;,
         0.942372; 0.528483;,
         0.967931; 0.525631;,
         0.967931; 0.475730;,
         0.951944; 0.477513;,
         0.860738; 0.971535;,
         0.852629; 0.969582;,
         0.897615; 0.998779;,
         0.902687; 1.000000;,
         0.732531; 0.696553;,
         0.707650; 0.699103;,
         0.716968; 0.744573;,
         0.732531; 0.742978;,
         0.032544; 0.658736;,
         0.020133; 0.659123;,
         0.061907; 0.685621;,
         0.069671; 0.685379;,
         0.679828; 0.705581;,
         0.647061; 0.710847;,
         0.665517; 0.754863;,
         0.686012; 0.751569;,
         0.504298; 0.659582;,
         0.497590; 0.659998;,
         0.460224; 0.685577;,
         0.464419; 0.685317;,
         0.954620; 0.781841;,
         0.921054; 0.785499;,
         0.930547; 0.836629;,
         0.951542; 0.834341;,
         0.246509; 0.657492;,
         0.230890; 0.656995;,
         0.193732; 0.684289;,
         0.203502; 0.684600;,
         0.221758; 0.970093;,
         0.004978; 0.970199;,
         0.000000; 1.000000;,
         0.165521; 0.999894;,
         0.277494; 0.458741;,
         0.264985; 0.459652;,
         0.259390; 0.518630;,
         0.271601; 0.518181;,
         0.640591; 0.371174;,
         0.653438; 0.370285;,
         0.642628; 0.202761;,
         0.629781; 0.203650;,
         0.653438; 0.370285;,
         0.640591; 0.371174;,
         0.670778; 0.422936;,
         0.683625; 0.422048;,
         0.221758; 0.970093;,
         0.277494; 0.916149;,
         0.009825; 0.916256;,
         0.004978; 0.970199;,
         0.551079; 0.768665;,
         0.499287; 0.715206;,
         0.283270; 0.714690;,
         0.288932; 0.767956;,
         0.551079; 0.936533;,
         0.288932; 0.935824;,
         0.282224; 0.999362;,
         0.465874; 1.000000;,
         0.009825; 0.916256;,
         0.277494; 0.916149;,
         0.277267; 0.748264;,
         0.009598; 0.748370;,
         0.551079; 0.768665;,
         0.288932; 0.767956;,
         0.288932; 0.935824;,
         0.551079; 0.936533;,
         0.271601; 0.518181;,
         0.259390; 0.518630;,
         0.265283; 0.685621;,
         0.277494; 0.685171;,
         0.986892; 0.685577;,
         1.000000; 0.682962;,
         0.981040; 0.515969;,
         0.967931; 0.518585;,
         1.000000; 0.457642;,
         0.986892; 0.460257;,
         0.967931; 0.518585;,
         0.981040; 0.515969;,
         0.683625; 0.422048;,
         0.670778; 0.422936;,
         0.699953; 0.450566;,
         0.712800; 0.449677;,
         0.283270; 0.714690;,
         0.499287; 0.715206;,
         0.442521; 0.685917;,
         0.277494; 0.685577;,
         0.657391; 0.138589;,
         0.670238; 0.137700;,
         0.712800; 0.102379;,
         0.690073; 0.104002;,
         0.464361; 0.434168;,
         0.476372; 0.431964;,
         0.441489; 0.328182;,
         0.428445; 0.327264;,
         0.629781; 0.203650;,
         0.642628; 0.202761;,
         0.670238; 0.137700;,
         0.657391; 0.138589;,
         0.009598; 0.748370;,
         0.277267; 0.748264;,
         0.188510; 0.685621;,
         0.003685; 0.685621;,
         0.389799; 0.263086;,
         0.408857; 0.261732;,
         0.438540; 0.167497;,
         0.414971; 0.162188;,
         0.079430; 0.206557;,
         0.079430; 0.016710;,
         0.034617; 0.068352;,
         0.034617; 0.205548;,
         0.441489; 0.328182;,
         0.476372; 0.188711;,
         0.438540; 0.167497;,
         0.408857; 0.261732;,
         0.428445; 0.327264;,
         0.441489; 0.328182;,
         0.408857; 0.261732;,
         0.389799; 0.263086;,
         0.002701; 0.206557;,
         0.034617; 0.197474;,
         0.034617; 0.146835;,
         0.007512; 0.154548;,
         0.629781; 0.132546;,
         0.615807; 0.132453;,
         0.619209; 0.444835;,
         0.629781; 0.444906;,
         0.248884; 0.684681;,
         0.259390; 0.685621;,
         0.259390; 0.652087;,
         0.248884; 0.651147;,
         0.861823; 0.341101;,
         0.851347; 0.341084;,
         0.847976; 0.654903;,
         0.861823; 0.654926;,
         0.157454; 0.119340;,
         0.160586; 0.433159;,
         0.203994; 0.432631;,
         0.200861; 0.118812;,
         0.808935; 0.686142;,
         0.808935; 1.000000;,
         0.852629; 0.999943;,
         0.852629; 0.686085;,
         0.200777; 0.110391;,
         0.203994; 0.088208;,
         0.160586; 0.088736;,
         0.157370; 0.110918;,
         0.157454; 0.119340;,
         0.200861; 0.118812;,
         0.200777; 0.110391;,
         0.157370; 0.110918;,
         0.615807; 0.132453;,
         0.629781; 0.132546;,
         0.629781; 0.124164;,
         0.615807; 0.101921;,
         0.861823; 0.654926;,
         0.847976; 0.654903;,
         0.847976; 0.685577;,
         0.861823; 0.663348;,
         0.565255; 0.114262;,
         0.565255; 0.107143;,
         0.553681; 0.113607;,
         0.556325; 0.118866;,
         0.615807; 0.132453;,
         0.615807; 0.101921;,
         0.565255; 0.107143;,
         0.565255; 0.114262;,
         0.595809; 0.692648;,
         0.551079; 0.692648;,
         0.554595; 0.744264;,
         0.592633; 0.744301;,
         0.847976; 0.685577;,
         0.847976; 0.654903;,
         0.797148; 0.672456;,
         0.797148; 0.680691;,
         0.784958; 0.672725;,
         0.787578; 0.667464;,
         0.769646; 0.646947;,
         0.762108; 0.650386;,
         0.007512; 0.154548;,
         0.034617; 0.146835;,
         0.027215; 0.138703;,
         0.004824; 0.145074;,
         0.797148; 0.680691;,
         0.797148; 0.672456;,
         0.787578; 0.667464;,
         0.784958; 0.672725;,
         0.592633; 0.744301;,
         0.554595; 0.744264;,
         0.558253; 0.756492;,
         0.589634; 0.756492;,
         0.762108; 0.650386;,
         0.769646; 0.646947;,
         0.745871; 0.592531;,
         0.738333; 0.595970;,
         0.507017; 0.118285;,
         0.476372; 0.117529;,
         0.478381; 0.139594;,
         0.498469; 0.140305;,
         0.556325; 0.118866;,
         0.553681; 0.113607;,
         0.544769; 0.135235;,
         0.552197; 0.138485;,
         0.954620; 1.000000;,
         0.985066; 0.999212;,
         0.975510; 0.978866;,
         0.955193; 0.979292;,
         0.498518; 0.194377;,
         0.478430; 0.193665;,
         0.483300; 0.277984;,
         0.502877; 0.278755;,
         0.498469; 0.140305;,
         0.478381; 0.139594;,
         0.478430; 0.193665;,
         0.498518; 0.194377;,
         0.552197; 0.138485;,
         0.544769; 0.135235;,
         0.521342; 0.189941;,
         0.528770; 0.193192;,
         0.955193; 0.979292;,
         0.975510; 0.978866;,
         0.975131; 0.924222;,
         0.954814; 0.924648;,
         0.733870; 0.511817;,
         0.741269; 0.508369;,
         0.748430; 0.422876;,
         0.743482; 0.416129;,
         0.528770; 0.193192;,
         0.521342; 0.189941;,
         0.521818; 0.274443;,
         0.529046; 0.277622;,
         0.954814; 0.924648;,
         0.975131; 0.924222;,
         0.979088; 0.839858;,
         0.959158; 0.840241;,
         0.738333; 0.595970;,
         0.745871; 0.592531;,
         0.741269; 0.508369;,
         0.733870; 0.511817;,
         0.534297; 0.365826;,
         0.529410; 0.372640;,
         0.560006; 0.428390;,
         0.564892; 0.421576;,
         0.502877; 0.278755;,
         0.483300; 0.277984;,
         0.487216; 0.374033;,
         0.507017; 0.377101;,
         0.529046; 0.277622;,
         0.521818; 0.274443;,
         0.529410; 0.372640;,
         0.534297; 0.365826;,
         0.959158; 0.840241;,
         0.979088; 0.839858;,
         0.985066; 0.751812;,
         0.964973; 0.754551;,
         0.365097; 0.164398;,
         0.383141; 0.150946;,
         0.389799; 0.115397;,
         0.350473; 0.117131;,
         0.964973; 0.754551;,
         0.985066; 0.751812;,
         0.983232; 0.695465;,
         0.963139; 0.698205;,
         0.743482; 0.416129;,
         0.748430; 0.422876;,
         0.779424; 0.366224;,
         0.774477; 0.359477;,
         0.507017; 0.377101;,
         0.487216; 0.374033;,
         0.484266; 0.431100;,
         0.504067; 0.434168;,
         0.823943; 0.337263;,
         0.828287; 0.343205;,
         0.852607; 0.350883;,
         0.851606; 0.342522;,
         0.774477; 0.359477;,
         0.779424; 0.366224;,
         0.828287; 0.343205;,
         0.823943; 0.337263;,
         0.897100; 0.435556;,
         0.884331; 0.424025;,
         0.861823; 0.474717;,
         0.889215; 0.472222;,
         0.564892; 0.421576;,
         0.560006; 0.428390;,
         0.596447; 0.450566;,
         0.600819; 0.444672;,
         0.889215; 0.472222;,
         0.861823; 0.474717;,
         0.864865; 0.502596;,
         0.897100; 0.496489;,
         0.600819; 0.444672;,
         0.596447; 0.450566;,
         0.620818; 0.443078;,
         0.621814; 0.434747;,
         0.350473; 0.117131;,
         0.389799; 0.115397;,
         0.389799; 0.093802;,
         0.345695; 0.092585;;
      } // End of Cube UV coordinates
      MeshMaterialList { // Cube material list
        1;
        191;
        0,
        0,
        0,
        0,
        0,
        0,
        0,
        0,
        0,
        0,
        0,
        0,
        0,
        0,
        0,
        0,
        0,
        0,
        0,
        0,
        0,
        0,
        0,
        0,
        0,
        0,
        0,
        0,
        0,
        0,
        0,
        0,
        0,
        0,
        0,
        0,
        0,
        0,
        0,
        0,
        0,
        0,
        0,
        0,
        0,
        0,
        0,
        0,
        0,
        0,
        0,
        0,
        0,
        0,
        0,
        0,
        0,
        0,
        0,
        0,
        0,
        0,
        0,
        0,
        0,
        0,
        0,
        0,
        0,
        0,
        0,
        0,
        0,
        0,
        0,
        0,
        0,
        0,
        0,
        0,
        0,
        0,
        0,
        0,
        0,
        0,
        0,
        0,
        0,
        0,
        0,
        0,
        0,
        0,
        0,
        0,
        0,
        0,
        0,
        0,
        0,
        0,
        0,
        0,
        0,
        0,
        0,
        0,
        0,
        0,
        0,
        0,
        0,
        0,
        0,
        0,
        0,
        0,
        0,
        0,
        0,
        0,
        0,
        0,
        0,
        0,
        0,
        0,
        0,
        0,
        0,
        0,
        0,
        0,
        0,
        0,
        0,
        0,
        0,
        0,
        0,
        0,
        0,
        0,
        0,
        0,
        0,
        0,
        0,
        0,
        0,
        0,
        0,
        0,
        0,
        0,
        0,
        0,
        0,
        0,
        0,
        0,
        0,
        0,
        0,
        0,
        0,
        0,
        0,
        0,
        0,
        0,
        0,
        0,
        0,
        0,
        0,
        0,
        0,
        0,
        0,
        0,
        0,
        0,
        0,
        0,
        0,
        0,
        0,
        0,
        0;
        Material Material_001 {
           0.640000; 0.640000; 0.640000; 1.000000;;
           96.078431;
           0.500000; 0.500000; 0.500000;;
           0.000000; 0.000000; 0.000000;;
        }
      } // End of Cube material list
    } // End of Cube mesh
  } // End of Cube
} // End of Root
