xof 0303txt 0032

Frame Root {
  FrameTransformMatrix {
     1.000000, 0.000000, 0.000000, 0.000000,
     0.000000,-0.000000, 1.000000, 0.000000,
     0.000000, 1.000000, 0.000000, 0.000000,
     0.000000, 0.000000, 0.000000, 1.000000;;
  }
  Frame Plane_008 {
    FrameTransformMatrix {
       1.000000, 0.000000, 0.000000, 0.000000,
       0.000000, 1.000000, 0.000000, 0.000000,
       0.000000, 0.000000, 1.000000, 0.000000,
       0.000000, 0.000000, 0.000000, 1.000000;;
    }
    Mesh { // Plane_008 mesh
      672;
      -0.014246; 0.013067;-0.099052;,
      -0.014367; 0.002589;-0.099062;,
      -0.008109; 0.002517;-0.099141;,
      -0.007988; 0.012995;-0.099132;,
       0.032842;-0.026675; 0.104612;,
       0.032911;-0.026184; 0.109573;,
      -0.008249;-0.025938; 0.110119;,
      -0.008318;-0.026428; 0.105158;,
      -0.008318;-0.026428; 0.105158;,
      -0.008249;-0.025938; 0.110119;,
      -0.020869; 0.010598; 0.106683;,
      -0.020938; 0.010108; 0.101722;,
      -0.020938; 0.010108; 0.101722;,
      -0.020869; 0.010598; 0.106683;,
       0.037640; 0.010347; 0.105897;,
       0.037572; 0.009857; 0.100936;,
       0.037572; 0.009857; 0.100936;,
       0.037640; 0.010347; 0.105897;,
       0.032911;-0.026184; 0.109573;,
       0.032842;-0.026675; 0.104612;,
      -0.008318;-0.026428; 0.105158;,
      -0.020938; 0.010108; 0.101722;,
       0.037572; 0.009857; 0.100936;,
       0.032842;-0.026675; 0.104612;,
      -0.020869; 0.010598; 0.106683;,
      -0.008249;-0.025938; 0.110119;,
       0.032911;-0.026184; 0.109573;,
       0.037640; 0.010347; 0.105897;,
      -0.024846; 0.078057; 0.008475;,
      -0.024845; 0.081165; 0.008475;,
      -0.025709; 0.081158;-0.053957;,
      -0.025710; 0.078050;-0.053957;,
      -0.025710; 0.078050;-0.053957;,
      -0.025709; 0.081158;-0.053957;,
       0.010999; 0.081148;-0.054465;,
       0.010998; 0.078040;-0.054465;,
       0.010998; 0.078040;-0.054465;,
       0.010999; 0.081148;-0.054465;,
       0.011862; 0.081155; 0.007967;,
       0.011861; 0.078047; 0.007967;,
       0.011861; 0.078047; 0.007967;,
       0.011862; 0.081155; 0.007967;,
      -0.024845; 0.081165; 0.008475;,
      -0.024846; 0.078057; 0.008475;,
      -0.025710; 0.078050;-0.053957;,
       0.010998; 0.078040;-0.054465;,
       0.011861; 0.078047; 0.007967;,
      -0.024846; 0.078057; 0.008475;,
       0.010999; 0.081148;-0.054465;,
      -0.025709; 0.081158;-0.053957;,
      -0.024845; 0.081165; 0.008475;,
       0.011862; 0.081155; 0.007967;,
       0.046454; 0.053435; 0.084961;,
       0.046493; 0.057599; 0.087702;,
      -0.025900; 0.057749; 0.088506;,
      -0.025939; 0.053585; 0.085765;,
      -0.025939; 0.053585; 0.085765;,
      -0.025900; 0.057749; 0.088506;,
      -0.026180; 0.077934; 0.057843;,
      -0.026219; 0.073770; 0.055102;,
      -0.026219; 0.073770; 0.055102;,
      -0.026180; 0.077934; 0.057843;,
       0.040388; 0.077785; 0.057120;,
       0.040349; 0.073621; 0.054379;,
       0.040349; 0.073621; 0.054379;,
       0.040388; 0.077785; 0.057120;,
       0.046493; 0.057599; 0.087702;,
       0.046454; 0.053435; 0.084961;,
      -0.025939; 0.053585; 0.085765;,
      -0.026219; 0.073770; 0.055102;,
       0.040349; 0.073621; 0.054379;,
       0.046454; 0.053435; 0.084961;,
      -0.026180; 0.077934; 0.057843;,
      -0.025900; 0.057749; 0.088506;,
       0.046493; 0.057599; 0.087702;,
       0.040388; 0.077785; 0.057120;,
       0.038053; 0.076126; 0.049950;,
       0.038054; 0.081111; 0.049950;,
      -0.024381; 0.081128; 0.050577;,
      -0.024382; 0.076143; 0.050577;,
      -0.024382; 0.076143; 0.050577;,
      -0.024381; 0.081128; 0.050577;,
      -0.024750; 0.081124; 0.013868;,
      -0.024751; 0.076138; 0.013868;,
      -0.024751; 0.076138; 0.013868;,
      -0.024750; 0.081124; 0.013868;,
       0.028798; 0.081109; 0.013364;,
       0.028797; 0.076124; 0.013364;,
       0.028797; 0.076124; 0.013364;,
       0.028798; 0.081109; 0.013364;,
       0.038054; 0.081111; 0.049950;,
       0.038053; 0.076126; 0.049950;,
      -0.024382; 0.076143; 0.050577;,
      -0.024751; 0.076138; 0.013868;,
       0.028797; 0.076124; 0.013364;,
       0.038053; 0.076126; 0.049950;,
      -0.024750; 0.081124; 0.013868;,
      -0.024381; 0.081128; 0.050577;,
       0.038054; 0.081111; 0.049950;,
       0.028798; 0.081109; 0.013364;,
       0.034543; 0.070847;-0.056367;,
       0.034504; 0.074864;-0.059320;,
      -0.027931; 0.074742;-0.058647;,
      -0.027891; 0.070725;-0.055694;,
      -0.027891; 0.070725;-0.055694;,
      -0.027931; 0.074742;-0.058647;,
      -0.028207; 0.052999;-0.088225;,
      -0.028167; 0.048982;-0.085272;,
      -0.028167; 0.048982;-0.085272;,
      -0.028207; 0.052999;-0.088225;,
       0.049243; 0.053118;-0.089106;,
       0.049283; 0.049101;-0.086153;,
       0.049283; 0.049101;-0.086153;,
       0.049243; 0.053118;-0.089106;,
       0.034504; 0.074864;-0.059320;,
       0.034543; 0.070847;-0.056367;,
      -0.027891; 0.070725;-0.055694;,
      -0.028167; 0.048982;-0.085272;,
       0.049283; 0.049101;-0.086153;,
       0.034543; 0.070847;-0.056367;,
      -0.028207; 0.052999;-0.088225;,
      -0.027931; 0.074742;-0.058647;,
       0.034504; 0.074864;-0.059320;,
       0.049243; 0.053118;-0.089106;,
       0.046852; 0.045379;-0.087349;,
       0.046786; 0.046691;-0.092159;,
      -0.029543; 0.046484;-0.091165;,
      -0.029477; 0.045172;-0.086356;,
      -0.029477; 0.045172;-0.086356;,
      -0.029543; 0.046484;-0.091165;,
      -0.029547; 0.011067;-0.100826;,
      -0.029481; 0.009755;-0.096017;,
      -0.029481; 0.009755;-0.096017;,
      -0.029547; 0.011067;-0.100826;,
       0.032885; 0.011278;-0.101627;,
       0.032952; 0.009966;-0.096818;,
       0.032952; 0.009966;-0.096818;,
       0.032885; 0.011278;-0.101627;,
       0.046786; 0.046691;-0.092159;,
       0.046852; 0.045379;-0.087349;,
      -0.029477; 0.045172;-0.086356;,
      -0.029481; 0.009755;-0.096017;,
       0.032952; 0.009966;-0.096818;,
       0.046852; 0.045379;-0.087349;,
      -0.029547; 0.011067;-0.100826;,
      -0.029543; 0.046484;-0.091165;,
       0.046786; 0.046691;-0.092159;,
       0.032885; 0.011278;-0.101627;,
       0.032802; 0.007060;-0.097518;,
       0.032733; 0.007276;-0.102498;,
      -0.029699; 0.007057;-0.101645;,
      -0.029630; 0.006841;-0.096665;,
      -0.029630; 0.006841;-0.096665;,
      -0.029699; 0.007057;-0.101645;,
      -0.010036;-0.029624;-0.103509;,
      -0.009967;-0.029840;-0.098529;,
      -0.009967;-0.029840;-0.098529;,
      -0.010036;-0.029624;-0.103509;,
       0.026436;-0.029398;-0.104003;,
       0.026505;-0.029614;-0.099023;,
       0.026505;-0.029614;-0.099023;,
       0.026436;-0.029398;-0.104003;,
       0.032733; 0.007276;-0.102498;,
       0.032802; 0.007060;-0.097518;,
      -0.029630; 0.006841;-0.096665;,
      -0.009967;-0.029840;-0.098529;,
       0.026505;-0.029614;-0.099023;,
       0.032802; 0.007060;-0.097518;,
      -0.010036;-0.029624;-0.103509;,
      -0.029699; 0.007057;-0.101645;,
       0.032733; 0.007276;-0.102498;,
       0.026436;-0.029398;-0.104003;,
       0.036685; 0.013532; 0.099637;,
       0.036751; 0.015039; 0.104389;,
      -0.020774; 0.015280; 0.105113;,
      -0.020841; 0.013773; 0.100361;,
      -0.020841; 0.013773; 0.100361;,
      -0.020774; 0.015280; 0.105113;,
      -0.025686; 0.050275; 0.094082;,
      -0.025752; 0.048768; 0.089330;,
      -0.025752; 0.048768; 0.089330;,
      -0.025686; 0.050275; 0.094082;,
       0.047340; 0.050029; 0.093144;,
       0.047274; 0.048522; 0.088392;,
       0.047274; 0.048522; 0.088392;,
       0.047340; 0.050029; 0.093144;,
       0.036751; 0.015039; 0.104389;,
       0.036685; 0.013532; 0.099637;,
      -0.020841; 0.013773; 0.100361;,
      -0.025752; 0.048768; 0.089330;,
       0.047274; 0.048522; 0.088392;,
       0.036685; 0.013532; 0.099637;,
      -0.025686; 0.050275; 0.094082;,
      -0.020774; 0.015280; 0.105113;,
       0.036751; 0.015039; 0.104389;,
       0.047340; 0.050029; 0.093144;,
       0.085880; 0.063732; 0.070780;,
       0.083923; 0.063715;-0.070666;,
       0.038620; 0.078298;-0.070041;,
       0.040576; 0.078314; 0.071405;,
       0.081144; 0.059577;-0.070627;,
       0.083923; 0.063715;-0.070666;,
       0.114394; 0.043245;-0.071085;,
       0.111615; 0.039107;-0.071046;,
       0.111615; 0.039107;-0.071046;,
       0.114394; 0.043245;-0.071085;,
       0.116351; 0.043262; 0.070361;,
       0.113571; 0.039123; 0.070400;,
       0.113571; 0.039123; 0.070400;,
       0.116351; 0.043262; 0.070361;,
       0.085880; 0.063732; 0.070780;,
       0.083100; 0.059593; 0.070819;,
       0.081144; 0.059577;-0.070627;,
       0.111615; 0.039107;-0.071046;,
       0.113571; 0.039123; 0.070400;,
       0.083100; 0.059593; 0.070819;,
       0.114394; 0.043245;-0.071085;,
       0.083923; 0.063715;-0.070666;,
       0.085880; 0.063732; 0.070780;,
       0.116351; 0.043262; 0.070361;,
       0.041257; 0.073375; 0.071396;,
       0.040576; 0.078314; 0.071405;,
       0.038620; 0.078298;-0.070041;,
       0.039301; 0.073359;-0.070050;,
       0.081144; 0.059577;-0.070627;,
       0.083100; 0.059593; 0.070819;,
       0.041257; 0.073375; 0.071396;,
       0.039301; 0.073359;-0.070050;,
       0.083923; 0.063715;-0.070666;,
       0.081144; 0.059577;-0.070627;,
       0.039301; 0.073359;-0.070050;,
       0.038620; 0.078298;-0.070041;,
       0.083100; 0.059593; 0.070819;,
       0.085880; 0.063732; 0.070780;,
       0.040576; 0.078314; 0.071405;,
       0.041257; 0.073375; 0.071396;,
      -0.065402; 0.073063; 0.042151;,
      -0.065402; 0.075593; 0.042151;,
      -0.066596; 0.075583;-0.044164;,
      -0.066596; 0.073053;-0.044164;,
      -0.066596; 0.073053;-0.044164;,
      -0.066596; 0.075583;-0.044164;,
      -0.030016; 0.075842;-0.053897;,
      -0.030016; 0.072771;-0.053897;,
      -0.030016; 0.072771;-0.053897;,
      -0.030016; 0.075842;-0.053897;,
      -0.028567; 0.075854; 0.050869;,
      -0.028568; 0.072783; 0.050869;,
      -0.028568; 0.072783; 0.050869;,
      -0.028567; 0.075854; 0.050869;,
      -0.065402; 0.075593; 0.042151;,
      -0.065402; 0.073063; 0.042151;,
      -0.066596; 0.073053;-0.044164;,
      -0.030016; 0.072771;-0.053897;,
      -0.028568; 0.072783; 0.050869;,
      -0.065402; 0.073063; 0.042151;,
      -0.030016; 0.075842;-0.053897;,
      -0.066596; 0.075583;-0.044164;,
      -0.065402; 0.075593; 0.042151;,
      -0.028567; 0.075854; 0.050869;,
       0.009991; 0.080586;-0.035986;,
       0.041116; 0.077334;-0.036416;,
       0.040858; 0.077332;-0.055107;,
       0.009732; 0.080583;-0.054677;,
       0.010515; 0.080590; 0.001949;,
       0.041641; 0.077338; 0.001519;,
       0.041382; 0.077336;-0.017172;,
       0.010257; 0.080588;-0.016742;,
       0.031250; 0.080588; 0.032834;,
       0.041671; 0.079499; 0.032690;,
       0.041585; 0.079499; 0.026432;,
       0.031163; 0.080587; 0.026576;,
      -0.012693; 0.080598; 0.014440;,
      -0.002272; 0.079509; 0.014296;,
      -0.002358; 0.079508; 0.008038;,
      -0.012780; 0.080597; 0.008182;,
      -0.032210; 0.074402; 0.044017;,
      -0.023151; 0.079668; 0.043891;,
      -0.023237; 0.079667; 0.037633;,
      -0.032296; 0.074401; 0.037759;,
      -0.033412; 0.074392;-0.042957;,
      -0.024353; 0.079658;-0.043083;,
      -0.024440; 0.079657;-0.049341;,
      -0.033499; 0.074391;-0.049215;,
      -0.013586; 0.079807;-0.052664;,
      -0.013793; 0.071442;-0.058973;,
      -0.007536; 0.071380;-0.059096;,
      -0.007329; 0.079745;-0.052787;,
      -0.014031; 0.052020;-0.084284;,
      -0.014238; 0.043655;-0.090592;,
      -0.007981; 0.043593;-0.090715;,
      -0.007774; 0.051957;-0.084407;,
      -0.004482; 0.017233; 0.101967;,
      -0.004564; 0.007143; 0.104794;,
       0.001694; 0.007076; 0.104733;,
       0.001775; 0.017166; 0.101906;,
      -0.010371; 0.055747; 0.087549;,
      -0.010452; 0.045656; 0.090376;,
      -0.004194; 0.045589; 0.090315;,
      -0.004113; 0.055679; 0.087488;,
      -0.018157; 0.078893; 0.048651;,
      -0.018147; 0.074141; 0.057990;,
      -0.011888; 0.074114; 0.057970;,
      -0.011899; 0.078866; 0.048630;,
       0.109546; 0.057447; 0.049858;,
       0.127928; 0.047626; 0.065559;,
       0.127394; 0.047626; 0.042754;,
       0.109167; 0.057447; 0.033678;,
       0.109167; 0.057447; 0.033678;,
       0.127394; 0.047626; 0.042754;,
       0.125566; 0.045423; 0.042797;,
       0.107339; 0.055244; 0.033720;,
       0.107339; 0.055244; 0.033720;,
       0.125566; 0.045423; 0.042797;,
       0.126100; 0.045423; 0.065602;,
       0.107718; 0.055244; 0.049901;,
       0.107718; 0.055244; 0.049901;,
       0.126100; 0.045423; 0.065602;,
       0.127928; 0.047626; 0.065559;,
       0.109546; 0.057447; 0.049858;,
       0.107718; 0.055244; 0.049901;,
       0.109546; 0.057447; 0.049858;,
       0.099974; 0.060846; 0.045660;,
       0.098510; 0.059081; 0.045694;,
       0.126100; 0.045423; 0.065602;,
       0.125566; 0.045423; 0.042797;,
       0.147345; 0.012832; 0.047037;,
       0.148009; 0.012832; 0.075367;,
       0.147345; 0.012832; 0.047037;,
       0.150181; 0.013216; 0.046971;,
       0.153598;-0.038028; 0.046891;,
       0.150744;-0.037811; 0.046958;,
       0.127394; 0.047626; 0.042754;,
       0.127928; 0.047626; 0.065559;,
       0.150845; 0.013216; 0.075300;,
       0.150181; 0.013216; 0.046971;,
       0.127928; 0.047626; 0.065559;,
       0.126100; 0.045423; 0.065602;,
       0.148009; 0.012832; 0.075367;,
       0.150845; 0.013216; 0.075300;,
       0.125566; 0.045423; 0.042797;,
       0.127394; 0.047626; 0.042754;,
       0.150181; 0.013216; 0.046971;,
       0.147345; 0.012832; 0.047037;,
       0.151253;-0.037811; 0.068662;,
       0.150744;-0.037811; 0.046958;,
       0.133638;-0.072928; 0.035745;,
       0.134147;-0.072928; 0.057449;,
       0.148009; 0.012832; 0.075367;,
       0.147345; 0.012832; 0.047037;,
       0.150744;-0.037811; 0.046958;,
       0.151253;-0.037811; 0.068662;,
       0.150181; 0.013216; 0.046971;,
       0.150845; 0.013216; 0.075300;,
       0.154107;-0.038029; 0.068595;,
       0.153598;-0.038028; 0.046891;,
       0.150845; 0.013216; 0.075300;,
       0.148009; 0.012832; 0.075367;,
       0.151253;-0.037811; 0.068662;,
       0.154107;-0.038029; 0.068595;,
       0.137000;-0.073146; 0.057383;,
       0.134147;-0.072928; 0.057449;,
       0.097545;-0.081254; 0.019017;,
       0.097733;-0.084111; 0.019012;,
       0.153598;-0.038028; 0.046891;,
       0.154107;-0.038029; 0.068595;,
       0.137000;-0.073146; 0.057383;,
       0.136492;-0.073146; 0.035678;,
       0.154107;-0.038029; 0.068595;,
       0.151253;-0.037811; 0.068662;,
       0.134147;-0.072928; 0.057449;,
       0.137000;-0.073146; 0.057383;,
       0.150744;-0.037811; 0.046958;,
       0.153598;-0.038028; 0.046891;,
       0.136492;-0.073146; 0.035678;,
       0.133638;-0.072928; 0.035745;,
       0.097545;-0.081254; 0.019017;,
       0.097036;-0.081254;-0.002688;,
       0.071600;-0.083139;-0.002476;,
       0.087668;-0.081681; 0.012051;,
       0.133638;-0.072928; 0.035745;,
       0.136492;-0.073146; 0.035678;,
       0.097224;-0.084111;-0.002692;,
       0.097036;-0.081254;-0.002688;,
       0.134147;-0.072928; 0.057449;,
       0.133638;-0.072928; 0.035745;,
       0.097036;-0.081254;-0.002688;,
       0.097545;-0.081254; 0.019017;,
       0.136492;-0.073146; 0.035678;,
       0.137000;-0.073146; 0.057383;,
       0.097733;-0.084111; 0.019012;,
       0.097224;-0.084111;-0.002692;,
       0.087668;-0.081681; 0.012051;,
       0.071600;-0.083139;-0.002476;,
       0.046100;-0.087064; 0.038751;,
       0.066696;-0.080782; 0.041520;,
       0.097224;-0.084111;-0.002692;,
       0.097733;-0.084111; 0.019012;,
       0.087881;-0.084535; 0.012102;,
       0.071813;-0.085994;-0.002425;,
       0.097733;-0.084111; 0.019012;,
       0.097545;-0.081254; 0.019017;,
       0.087668;-0.081681; 0.012051;,
       0.087881;-0.084535; 0.012102;,
       0.097036;-0.081254;-0.002688;,
       0.097224;-0.084111;-0.002692;,
       0.071813;-0.085994;-0.002425;,
       0.071600;-0.083139;-0.002476;,
       0.066880;-0.082419; 0.043861;,
       0.066696;-0.080782; 0.041520;,
       0.058176;-0.073045; 0.058963;,
       0.058304;-0.073978; 0.061666;,
       0.071813;-0.085994;-0.002425;,
       0.087881;-0.084535; 0.012102;,
       0.066880;-0.082419; 0.043861;,
       0.046284;-0.088701; 0.041092;,
       0.087881;-0.084535; 0.012102;,
       0.087668;-0.081681; 0.012051;,
       0.066696;-0.080782; 0.041520;,
       0.066880;-0.082419; 0.043861;,
       0.071600;-0.083139;-0.002476;,
       0.071813;-0.085994;-0.002425;,
       0.046284;-0.088701; 0.041092;,
       0.046100;-0.087064; 0.038751;,
       0.036285;-0.080257;-0.057455;,
       0.056693;-0.073253;-0.059862;,
       0.024869;-0.031761;-0.100048;,
       0.003368;-0.033537;-0.097616;,
       0.046100;-0.087064; 0.038751;,
       0.046284;-0.088701; 0.041092;,
       0.037805;-0.080982; 0.060218;,
       0.037677;-0.080049; 0.057515;,
       0.066696;-0.080782; 0.041520;,
       0.046100;-0.087064; 0.038751;,
       0.037677;-0.080049; 0.057515;,
       0.058176;-0.073045; 0.058963;,
       0.046284;-0.088701; 0.041092;,
       0.066880;-0.082419; 0.043861;,
       0.058304;-0.073978; 0.061666;,
       0.037805;-0.080982; 0.060218;,
       0.036286;-0.081190;-0.060162;,
       0.036285;-0.080257;-0.057455;,
       0.003368;-0.033537;-0.097616;,
       0.003139;-0.034458;-0.100317;,
       0.024639;-0.032681;-0.102749;,
       0.003139;-0.034458;-0.100317;,
       0.005494;-0.028310;-0.101383;,
       0.021131;-0.027768;-0.103148;,
       0.032243;-0.029474; 0.106481;,
       0.010586;-0.030026; 0.105059;,
       0.012598;-0.025019; 0.106208;,
       0.029675;-0.024583; 0.107329;,
       0.037805;-0.080982; 0.060218;,
       0.058304;-0.073978; 0.061666;,
       0.032088;-0.030383; 0.109191;,
       0.010431;-0.030936; 0.107770;,
       0.010431;-0.030936; 0.107770;,
       0.032088;-0.030383; 0.109191;,
       0.029553;-0.025300; 0.109466;,
       0.012476;-0.025736; 0.108345;,
       0.032088;-0.030383; 0.109191;,
       0.032243;-0.029474; 0.106481;,
       0.029675;-0.024583; 0.107329;,
       0.029553;-0.025300; 0.109466;,
       0.010586;-0.030026; 0.105059;,
       0.010431;-0.030936; 0.107770;,
       0.012476;-0.025736; 0.108345;,
       0.012598;-0.025019; 0.106208;,
       0.029553;-0.025300; 0.109466;,
       0.029675;-0.024583; 0.107329;,
       0.012598;-0.025019; 0.106208;,
       0.012476;-0.025736; 0.108345;,
       0.058176;-0.073045; 0.058963;,
       0.037677;-0.080049; 0.057515;,
       0.010586;-0.030026; 0.105059;,
       0.032243;-0.029474; 0.106481;,
       0.056693;-0.073253;-0.059862;,
       0.056694;-0.074186;-0.062569;,
       0.024639;-0.032681;-0.102749;,
       0.024869;-0.031761;-0.100048;,
       0.037677;-0.080049; 0.057515;,
       0.037805;-0.080982; 0.060218;,
       0.010431;-0.030936; 0.107770;,
       0.010586;-0.030026; 0.105059;,
       0.058304;-0.073978; 0.061666;,
       0.058176;-0.073045; 0.058963;,
       0.032243;-0.029474; 0.106481;,
       0.032088;-0.030383; 0.109191;,
       0.099671; 0.060846; 0.032698;,
       0.098206; 0.059081; 0.032732;,
       0.098510; 0.059081; 0.045694;,
       0.099974; 0.060846; 0.045660;,
       0.109167; 0.057447; 0.033678;,
       0.107339; 0.055244; 0.033720;,
       0.098206; 0.059081; 0.032732;,
       0.099671; 0.060846; 0.032698;,
       0.109546; 0.057447; 0.049858;,
       0.109167; 0.057447; 0.033678;,
       0.099671; 0.060846; 0.032698;,
       0.099974; 0.060846; 0.045660;,
       0.107339; 0.055244; 0.033720;,
       0.107718; 0.055244; 0.049901;,
       0.098510; 0.059081; 0.045694;,
       0.098206; 0.059081; 0.032732;,
       0.107063; 0.057447;-0.056118;,
       0.107442; 0.057447;-0.039937;,
       0.125225; 0.047626;-0.049857;,
       0.124690; 0.047626;-0.072663;,
       0.107442; 0.057447;-0.039937;,
       0.105614; 0.055244;-0.039894;,
       0.123397; 0.045423;-0.049814;,
       0.125225; 0.047626;-0.049857;,
       0.105614; 0.055244;-0.039894;,
       0.105235; 0.055244;-0.056075;,
       0.122862; 0.045423;-0.072620;,
       0.123397; 0.045423;-0.049814;,
       0.105235; 0.055244;-0.056075;,
       0.107063; 0.057447;-0.056118;,
       0.124690; 0.047626;-0.072663;,
       0.122862; 0.045423;-0.072620;,
       0.105235; 0.055244;-0.056075;,
       0.096235; 0.059081;-0.051442;,
       0.097699; 0.060846;-0.051476;,
       0.107063; 0.057447;-0.056118;,
       0.122862; 0.045423;-0.072620;,
       0.144289; 0.012832;-0.083400;,
       0.144953; 0.012832;-0.055070;,
       0.123397; 0.045423;-0.049814;,
       0.144953; 0.012832;-0.055070;,
       0.148353;-0.037811;-0.055150;,
       0.151206;-0.038029;-0.055216;,
       0.147789; 0.013216;-0.055136;,
       0.125225; 0.047626;-0.049857;,
       0.147789; 0.013216;-0.055136;,
       0.147126; 0.013216;-0.083466;,
       0.124690; 0.047626;-0.072663;,
       0.124690; 0.047626;-0.072663;,
       0.147126; 0.013216;-0.083466;,
       0.144289; 0.012832;-0.083400;,
       0.122862; 0.045423;-0.072620;,
       0.123397; 0.045423;-0.049814;,
       0.144953; 0.012832;-0.055070;,
       0.147789; 0.013216;-0.055136;,
       0.125225; 0.047626;-0.049857;,
       0.147844;-0.037811;-0.076854;,
       0.131282;-0.072928;-0.064853;,
       0.131790;-0.072928;-0.043149;,
       0.148353;-0.037811;-0.055150;,
       0.144289; 0.012832;-0.083400;,
       0.147844;-0.037811;-0.076854;,
       0.148353;-0.037811;-0.055150;,
       0.144953; 0.012832;-0.055070;,
       0.147789; 0.013216;-0.055136;,
       0.151206;-0.038029;-0.055216;,
       0.150698;-0.038029;-0.076921;,
       0.147126; 0.013216;-0.083466;,
       0.147126; 0.013216;-0.083466;,
       0.150698;-0.038029;-0.076921;,
       0.147844;-0.037811;-0.076854;,
       0.144289; 0.012832;-0.083400;,
       0.134135;-0.073146;-0.064920;,
       0.096708;-0.084111;-0.024753;,
       0.096520;-0.081254;-0.024748;,
       0.131282;-0.072928;-0.064853;,
       0.151206;-0.038029;-0.055216;,
       0.134644;-0.073146;-0.043215;,
       0.134135;-0.073146;-0.064920;,
       0.150698;-0.038029;-0.076921;,
       0.150698;-0.038029;-0.076921;,
       0.134135;-0.073146;-0.064920;,
       0.131282;-0.072928;-0.064853;,
       0.147844;-0.037811;-0.076854;,
       0.148353;-0.037811;-0.055150;,
       0.131790;-0.072928;-0.043149;,
       0.134644;-0.073146;-0.043215;,
       0.151206;-0.038029;-0.055216;,
       0.096520;-0.081254;-0.024748;,
       0.086979;-0.081681;-0.017328;,
       0.071610;-0.083139;-0.002064;,
       0.097028;-0.081254;-0.003044;,
       0.131790;-0.072928;-0.043149;,
       0.097028;-0.081254;-0.003044;,
       0.097216;-0.084111;-0.003048;,
       0.134644;-0.073146;-0.043215;,
       0.131282;-0.072928;-0.064853;,
       0.096520;-0.081254;-0.024748;,
       0.097028;-0.081254;-0.003044;,
       0.131790;-0.072928;-0.043149;,
       0.134644;-0.073146;-0.043215;,
       0.097216;-0.084111;-0.003048;,
       0.096708;-0.084111;-0.024753;,
       0.134135;-0.073146;-0.064920;,
       0.086979;-0.081681;-0.017328;,
       0.064584;-0.079278;-0.042696;,
       0.044139;-0.085560;-0.038966;,
       0.071610;-0.083139;-0.002064;,
       0.097216;-0.084111;-0.003048;,
       0.071820;-0.085994;-0.002125;,
       0.087190;-0.084535;-0.017388;,
       0.096708;-0.084111;-0.024753;,
       0.096708;-0.084111;-0.024753;,
       0.087190;-0.084535;-0.017388;,
       0.086979;-0.081681;-0.017328;,
       0.096520;-0.081254;-0.024748;,
       0.097028;-0.081254;-0.003044;,
       0.071610;-0.083139;-0.002064;,
       0.071820;-0.085994;-0.002125;,
       0.097216;-0.084111;-0.003048;,
       0.064658;-0.080915;-0.045043;,
       0.056694;-0.074186;-0.062569;,
       0.056693;-0.073253;-0.059862;,
       0.064584;-0.079278;-0.042696;,
       0.071820;-0.085994;-0.002125;,
       0.044214;-0.087197;-0.041313;,
       0.064658;-0.080915;-0.045043;,
       0.087190;-0.084535;-0.017388;,
       0.087190;-0.084535;-0.017388;,
       0.064658;-0.080915;-0.045043;,
       0.064584;-0.079278;-0.042696;,
       0.086979;-0.081681;-0.017328;,
       0.071610;-0.083139;-0.002064;,
       0.044139;-0.085560;-0.038966;,
       0.044214;-0.087197;-0.041313;,
       0.071820;-0.085994;-0.002125;,
       0.044139;-0.085560;-0.038966;,
       0.036285;-0.080257;-0.057455;,
       0.036286;-0.081190;-0.060162;,
       0.044214;-0.087197;-0.041313;,
       0.064584;-0.079278;-0.042696;,
       0.056693;-0.073253;-0.059862;,
       0.036285;-0.080257;-0.057455;,
       0.044139;-0.085560;-0.038966;,
       0.044214;-0.087197;-0.041313;,
       0.036286;-0.081190;-0.060162;,
       0.056694;-0.074186;-0.062569;,
       0.064658;-0.080915;-0.045043;,
       0.024869;-0.031761;-0.100048;,
       0.024639;-0.032681;-0.102749;,
       0.021131;-0.027768;-0.103148;,
       0.021329;-0.027107;-0.101190;,
       0.003368;-0.033537;-0.097616;,
       0.024869;-0.031761;-0.100048;,
       0.021329;-0.027107;-0.101190;,
       0.005692;-0.027649;-0.099425;,
       0.003139;-0.034458;-0.100317;,
       0.003368;-0.033537;-0.097616;,
       0.005692;-0.027649;-0.099425;,
       0.005494;-0.028310;-0.101383;,
       0.021131;-0.027768;-0.103148;,
       0.005494;-0.028310;-0.101383;,
       0.005692;-0.027649;-0.099425;,
       0.021329;-0.027107;-0.101190;,
       0.056694;-0.074186;-0.062569;,
       0.036286;-0.081190;-0.060162;,
       0.003139;-0.034458;-0.100317;,
       0.024639;-0.032681;-0.102749;,
       0.098002; 0.060846;-0.038514;,
       0.097699; 0.060846;-0.051476;,
       0.096235; 0.059081;-0.051442;,
       0.096538; 0.059081;-0.038480;,
       0.107442; 0.057447;-0.039937;,
       0.098002; 0.060846;-0.038514;,
       0.096538; 0.059081;-0.038480;,
       0.105614; 0.055244;-0.039894;,
       0.107063; 0.057447;-0.056118;,
       0.097699; 0.060846;-0.051476;,
       0.098002; 0.060846;-0.038514;,
       0.107442; 0.057447;-0.039937;,
       0.105614; 0.055244;-0.039894;,
       0.096538; 0.059081;-0.038480;,
       0.096235; 0.059081;-0.051442;,
       0.105235; 0.055244;-0.056075;;
      168;
      4;3,2,1,0;,
      4;7,6,5,4;,
      4;11,10,9,8;,
      4;15,14,13,12;,
      4;19,18,17,16;,
      4;23,22,21,20;,
      4;27,26,25,24;,
      4;31,30,29,28;,
      4;35,34,33,32;,
      4;39,38,37,36;,
      4;43,42,41,40;,
      4;47,46,45,44;,
      4;51,50,49,48;,
      4;55,54,53,52;,
      4;59,58,57,56;,
      4;63,62,61,60;,
      4;67,66,65,64;,
      4;71,70,69,68;,
      4;75,74,73,72;,
      4;79,78,77,76;,
      4;83,82,81,80;,
      4;87,86,85,84;,
      4;91,90,89,88;,
      4;95,94,93,92;,
      4;99,98,97,96;,
      4;103,102,101,100;,
      4;107,106,105,104;,
      4;111,110,109,108;,
      4;115,114,113,112;,
      4;119,118,117,116;,
      4;123,122,121,120;,
      4;127,126,125,124;,
      4;131,130,129,128;,
      4;135,134,133,132;,
      4;139,138,137,136;,
      4;143,142,141,140;,
      4;147,146,145,144;,
      4;151,150,149,148;,
      4;155,154,153,152;,
      4;159,158,157,156;,
      4;163,162,161,160;,
      4;167,166,165,164;,
      4;171,170,169,168;,
      4;175,174,173,172;,
      4;179,178,177,176;,
      4;183,182,181,180;,
      4;187,186,185,184;,
      4;191,190,189,188;,
      4;195,194,193,192;,
      4;199,198,197,196;,
      4;203,202,201,200;,
      4;207,206,205,204;,
      4;211,210,209,208;,
      4;215,214,213,212;,
      4;219,218,217,216;,
      4;223,222,221,220;,
      4;227,226,225,224;,
      4;231,230,229,228;,
      4;235,234,233,232;,
      4;239,238,237,236;,
      4;243,242,241,240;,
      4;247,246,245,244;,
      4;251,250,249,248;,
      4;255,254,253,252;,
      4;259,258,257,256;,
      4;263,262,261,260;,
      4;267,266,265,264;,
      4;271,270,269,268;,
      4;275,274,273,272;,
      4;279,278,277,276;,
      4;283,282,281,280;,
      4;287,286,285,284;,
      4;291,290,289,288;,
      4;295,294,293,292;,
      4;299,298,297,296;,
      4;303,302,301,300;,
      4;307,306,305,304;,
      4;311,310,309,308;,
      4;315,314,313,312;,
      4;319,318,317,316;,
      4;323,322,321,320;,
      4;327,326,325,324;,
      4;331,330,329,328;,
      4;335,334,333,332;,
      4;339,338,337,336;,
      4;343,342,341,340;,
      4;347,346,345,344;,
      4;351,350,349,348;,
      4;355,354,353,352;,
      4;359,358,357,356;,
      4;363,362,361,360;,
      4;367,366,365,364;,
      4;371,370,369,368;,
      4;375,374,373,372;,
      4;379,378,377,376;,
      4;383,382,381,380;,
      4;387,386,385,384;,
      4;391,390,389,388;,
      4;395,394,393,392;,
      4;399,398,397,396;,
      4;403,402,401,400;,
      4;407,406,405,404;,
      4;411,410,409,408;,
      4;415,414,413,412;,
      4;419,418,417,416;,
      4;423,422,421,420;,
      4;427,426,425,424;,
      4;431,430,429,428;,
      4;435,434,433,432;,
      4;439,438,437,436;,
      4;443,442,441,440;,
      4;447,446,445,444;,
      4;451,450,449,448;,
      4;455,454,453,452;,
      4;459,458,457,456;,
      4;463,462,461,460;,
      4;467,466,465,464;,
      4;471,470,469,468;,
      4;475,474,473,472;,
      4;479,478,477,476;,
      4;483,482,481,480;,
      4;487,486,485,484;,
      4;491,490,489,488;,
      4;495,494,493,492;,
      4;499,498,497,496;,
      4;503,502,501,500;,
      4;507,506,505,504;,
      4;511,510,509,508;,
      4;515,514,513,512;,
      4;519,518,517,516;,
      4;523,522,521,520;,
      4;527,526,525,524;,
      4;531,530,529,528;,
      4;535,534,533,532;,
      4;539,538,537,536;,
      4;543,542,541,540;,
      4;547,546,545,544;,
      4;551,550,549,548;,
      4;555,554,553,552;,
      4;559,558,557,556;,
      4;563,562,561,560;,
      4;567,566,565,564;,
      4;571,570,569,568;,
      4;575,574,573,572;,
      4;579,578,577,576;,
      4;583,582,581,580;,
      4;587,586,585,584;,
      4;591,590,589,588;,
      4;595,594,593,592;,
      4;599,598,597,596;,
      4;603,602,601,600;,
      4;607,606,605,604;,
      4;611,610,609,608;,
      4;615,614,613,612;,
      4;619,618,617,616;,
      4;623,622,621,620;,
      4;627,626,625,624;,
      4;631,630,629,628;,
      4;635,634,633,632;,
      4;639,638,637,636;,
      4;643,642,641,640;,
      4;647,646,645,644;,
      4;651,650,649,648;,
      4;655,654,653,652;,
      4;659,658,657,656;,
      4;663,662,661,660;,
      4;667,666,665,664;,
      4;671,670,669,668;;
      MeshNormals { // Plane_008 normals
        672;
         0.012635;-0.001038; 0.999908;,
         0.012635;-0.001038; 0.999908;,
         0.012635;-0.001038; 0.999908;,
         0.012635;-0.001038; 0.999908;,
         0.526475;-0.665944;-0.528489;,
         0.542589;-0.551042; 0.633961;,
        -0.459151;-0.589343; 0.664663;,
        -0.475631;-0.706809;-0.523606;,
        -0.475631;-0.706809;-0.523606;,
        -0.459151;-0.589343; 0.664663;,
        -0.664876; 0.535325; 0.520859;,
        -0.680380; 0.424848;-0.597125;,
        -0.680380; 0.424848;-0.597125;,
        -0.664876; 0.535325; 0.520859;,
         0.625050; 0.593890; 0.506516;,
         0.609302; 0.481582;-0.629902;,
         0.609302; 0.481582;-0.629902;,
         0.625050; 0.593890; 0.506516;,
         0.542589;-0.551042; 0.633961;,
         0.526475;-0.665944;-0.528489;,
        -0.475631;-0.706809;-0.523606;,
        -0.680380; 0.424848;-0.597125;,
         0.609302; 0.481582;-0.629902;,
         0.526475;-0.665944;-0.528489;,
        -0.664876; 0.535325; 0.520859;,
        -0.459151;-0.589343; 0.664663;,
         0.542589;-0.551042; 0.633961;,
         0.625050; 0.593890; 0.506516;,
        -0.569445;-0.577105; 0.585345;,
        -0.569140; 0.577563; 0.585192;,
        -0.585101; 0.577441;-0.569353;,
        -0.585437;-0.577258;-0.569231;,
        -0.585437;-0.577258;-0.569231;,
        -0.585101; 0.577441;-0.569353;,
         0.569445; 0.577105;-0.585345;,
         0.569140;-0.577563;-0.585192;,
         0.569140;-0.577563;-0.585192;,
         0.569445; 0.577105;-0.585345;,
         0.585437; 0.577258; 0.569231;,
         0.585101;-0.577441; 0.569353;,
         0.585101;-0.577441; 0.569353;,
         0.585437; 0.577258; 0.569231;,
        -0.569140; 0.577563; 0.585192;,
        -0.569445;-0.577105; 0.585345;,
        -0.585437;-0.577258;-0.569231;,
         0.569140;-0.577563;-0.585192;,
         0.585101;-0.577441; 0.569353;,
        -0.569445;-0.577105; 0.585345;,
         0.569445; 0.577105;-0.585345;,
        -0.585101; 0.577441;-0.569353;,
        -0.569140; 0.577563; 0.585192;,
         0.585437; 0.577258; 0.569231;,
         0.624805;-0.770531; 0.125828;,
         0.633747; 0.180883; 0.752068;,
        -0.568255; 0.166021; 0.805902;,
        -0.577288;-0.798395; 0.171117;,
        -0.577288;-0.798395; 0.171117;,
        -0.568255; 0.166021; 0.805902;,
        -0.577227; 0.801019;-0.158574;,
        -0.586291;-0.163488;-0.793420;,
        -0.586291;-0.163488;-0.793420;,
        -0.577227; 0.801019;-0.158574;,
         0.525864; 0.827143;-0.198126;,
         0.516709;-0.151891;-0.842555;,
         0.516709;-0.151891;-0.842555;,
         0.525864; 0.827143;-0.198126;,
         0.633747; 0.180883; 0.752068;,
         0.624805;-0.770531; 0.125828;,
        -0.577288;-0.798395; 0.171117;,
        -0.586291;-0.163488;-0.793420;,
         0.516709;-0.151891;-0.842555;,
         0.624805;-0.770531; 0.125828;,
        -0.577227; 0.801019;-0.158574;,
        -0.568255; 0.166021; 0.805902;,
         0.633747; 0.180883; 0.752068;,
         0.525864; 0.827143;-0.198126;,
         0.652943;-0.565966; 0.503281;,
         0.653249; 0.565722; 0.503128;,
        -0.571337; 0.577563; 0.583026;,
        -0.571673;-0.577105; 0.583178;,
        -0.571673;-0.577105; 0.583178;,
        -0.571337; 0.577563; 0.583026;,
        -0.582781; 0.577380;-0.571764;,
        -0.583087;-0.577197;-0.571642;,
        -0.583087;-0.577197;-0.571642;,
        -0.582781; 0.577380;-0.571764;,
         0.492721; 0.590716;-0.638936;,
         0.492386;-0.591144;-0.638813;,
         0.492386;-0.591144;-0.638813;,
         0.492721; 0.590716;-0.638936;,
         0.653249; 0.565722; 0.503128;,
         0.652943;-0.565966; 0.503281;,
        -0.571673;-0.577105; 0.583178;,
        -0.583087;-0.577197;-0.571642;,
         0.492386;-0.591144;-0.638813;,
         0.652943;-0.565966; 0.503281;,
        -0.582781; 0.577380;-0.571764;,
        -0.571337; 0.577563; 0.583026;,
         0.653249; 0.565722; 0.503128;,
         0.492721; 0.590716;-0.638936;,
         0.455611;-0.089877; 0.885617;,
         0.446059; 0.877834; 0.174322;,
        -0.577563; 0.805994; 0.129460;,
        -0.568346;-0.124363; 0.813288;,
        -0.568346;-0.124363; 0.813288;,
        -0.577563; 0.805994; 0.129460;,
        -0.586444; 0.122257;-0.800684;,
        -0.577227;-0.808161;-0.116825;,
        -0.577227;-0.808161;-0.116825;,
        -0.586444; 0.122257;-0.800684;,
         0.679769; 0.178411;-0.711356;,
         0.688681;-0.723411;-0.048524;,
         0.688681;-0.723411;-0.048524;,
         0.679769; 0.178411;-0.711356;,
         0.446059; 0.877834; 0.174322;,
         0.455611;-0.089877; 0.885617;,
        -0.568346;-0.124363; 0.813288;,
        -0.577227;-0.808161;-0.116825;,
         0.688681;-0.723411;-0.048524;,
         0.455611;-0.089877; 0.885617;,
        -0.586444; 0.122257;-0.800684;,
        -0.577563; 0.805994; 0.129460;,
         0.446059; 0.877834; 0.174322;,
         0.679769; 0.178411;-0.711356;,
         0.689016; 0.308359; 0.655843;,
         0.674123; 0.603442;-0.425855;,
        -0.584704; 0.707144;-0.397504;,
        -0.569384; 0.403333; 0.716300;,
        -0.569384; 0.403333; 0.716300;,
        -0.584704; 0.707144;-0.397504;,
        -0.585009;-0.406995;-0.701468;,
        -0.569689;-0.710868; 0.412397;,
        -0.569689;-0.710868; 0.412397;,
        -0.585009;-0.406995;-0.701468;,
         0.446913;-0.476730;-0.756951;,
         0.462813;-0.791864; 0.398389;,
         0.462813;-0.791864; 0.398389;,
         0.446913;-0.476730;-0.756951;,
         0.674123; 0.603442;-0.425855;,
         0.689016; 0.308359; 0.655843;,
        -0.569384; 0.403333; 0.716300;,
        -0.569689;-0.710868; 0.412397;,
         0.462813;-0.791864; 0.398389;,
         0.689016; 0.308359; 0.655843;,
        -0.585009;-0.406995;-0.701468;,
        -0.584704; 0.707144;-0.397504;,
         0.674123; 0.603442;-0.425855;,
         0.446913;-0.476730;-0.756951;,
         0.635823; 0.506241; 0.582568;,
         0.620136; 0.555559;-0.553819;,
        -0.721335; 0.449324;-0.526994;,
        -0.705985; 0.401105; 0.583636;,
        -0.705985; 0.401105; 0.583636;,
        -0.721335; 0.449324;-0.526994;,
        -0.414624;-0.655965;-0.630665;,
        -0.397870;-0.708640; 0.582659;,
        -0.397870;-0.708640; 0.582659;,
        -0.414624;-0.655965;-0.630665;,
         0.515305;-0.591052;-0.620502;,
         0.531510;-0.641987; 0.552538;,
         0.531510;-0.641987; 0.552538;,
         0.515305;-0.591052;-0.620502;,
         0.620136; 0.555559;-0.553819;,
         0.635823; 0.506241; 0.582568;,
        -0.705985; 0.401105; 0.583636;,
        -0.397870;-0.708640; 0.582659;,
         0.531510;-0.641987; 0.552538;,
         0.635823; 0.506241; 0.582568;,
        -0.414624;-0.655965;-0.630665;,
        -0.721335; 0.449324;-0.526994;,
         0.620136; 0.555559;-0.553819;,
         0.515305;-0.591052;-0.620502;,
         0.475936;-0.794366;-0.377392;,
         0.491684;-0.435499; 0.754021;,
        -0.526475;-0.402997; 0.748589;,
        -0.541978;-0.756493;-0.365947;,
        -0.541978;-0.756493;-0.365947;,
        -0.526475;-0.402997; 0.748589;,
        -0.610523; 0.690237; 0.388348;,
        -0.625660; 0.345195;-0.699545;,
        -0.625660; 0.345195;-0.699545;,
        -0.610523; 0.690237; 0.388348;,
         0.667074; 0.641346; 0.379009;,
         0.652089; 0.300363;-0.696066;,
         0.652089; 0.300363;-0.696066;,
         0.667074; 0.641346; 0.379009;,
         0.491684;-0.435499; 0.754021;,
         0.475936;-0.794366;-0.377392;,
        -0.541978;-0.756493;-0.365947;,
        -0.625660; 0.345195;-0.699545;,
         0.652089; 0.300363;-0.696066;,
         0.475936;-0.794366;-0.377392;,
        -0.610523; 0.690237; 0.388348;,
        -0.526475;-0.402997; 0.748589;,
         0.491684;-0.435499; 0.754021;,
         0.667074; 0.641346; 0.379009;,
         0.330393; 0.662313; 0.672384;,
         0.311686; 0.662160;-0.681417;,
        -0.541368; 0.635914;-0.550005;,
        -0.525956; 0.636036; 0.564592;,
        -0.306101;-0.605182;-0.734855;,
         0.311686; 0.662160;-0.681417;,
         0.793115; 0.157262;-0.588366;,
         0.149327;-0.801233;-0.579363;,
         0.149327;-0.801233;-0.579363;,
         0.793115; 0.157262;-0.588366;,
         0.809076; 0.157384; 0.566179;,
         0.165288;-0.801111; 0.575213;,
         0.165288;-0.801111; 0.575213;,
         0.809076; 0.157384; 0.566179;,
         0.330393; 0.662313; 0.672384;,
        -0.285653;-0.605029; 0.743187;,
        -0.306101;-0.605182;-0.734855;,
         0.149327;-0.801233;-0.579363;,
         0.165288;-0.801111; 0.575213;,
        -0.285653;-0.605029; 0.743187;,
         0.793115; 0.157262;-0.588366;,
         0.311686; 0.662160;-0.681417;,
         0.330393; 0.662313; 0.672384;,
         0.809076; 0.157384; 0.566179;,
        -0.603137;-0.509629; 0.613575;,
        -0.525956; 0.636036; 0.564592;,
        -0.541368; 0.635914;-0.550005;,
        -0.619861;-0.509751;-0.596545;,
        -0.306101;-0.605182;-0.734855;,
        -0.285653;-0.605029; 0.743187;,
        -0.603137;-0.509629; 0.613575;,
        -0.619861;-0.509751;-0.596545;,
         0.311686; 0.662160;-0.681417;,
        -0.306101;-0.605182;-0.734855;,
        -0.619861;-0.509751;-0.596545;,
        -0.541368; 0.635914;-0.550005;,
        -0.285653;-0.605029; 0.743187;,
         0.330393; 0.662313; 0.672384;,
        -0.525956; 0.636036; 0.564592;,
        -0.603137;-0.509629; 0.613575;,
        -0.631336;-0.588641; 0.504837;,
        -0.631001; 0.589129; 0.504685;,
        -0.644734; 0.589007;-0.487197;,
        -0.645039;-0.588763;-0.487045;,
        -0.645039;-0.588763;-0.487045;,
        -0.644734; 0.589007;-0.487197;,
         0.496689; 0.567339;-0.656789;,
         0.496384;-0.567766;-0.656667;,
         0.496384;-0.567766;-0.656667;,
         0.496689; 0.567339;-0.656789;,
         0.514664; 0.567492; 0.642659;,
         0.514359;-0.567614; 0.642811;,
         0.514359;-0.567614; 0.642811;,
         0.514664; 0.567492; 0.642659;,
        -0.631001; 0.589129; 0.504685;,
        -0.631336;-0.588641; 0.504837;,
        -0.645039;-0.588763;-0.487045;,
         0.496384;-0.567766;-0.656667;,
         0.514359;-0.567614; 0.642811;,
        -0.631336;-0.588641; 0.504837;,
         0.496689; 0.567339;-0.656789;,
        -0.644734; 0.589007;-0.487197;,
        -0.631001; 0.589129; 0.504685;,
         0.514664; 0.567492; 0.642659;,
         0.103885; 0.994568;-0.001526;,
         0.103885; 0.994568;-0.001526;,
         0.103885; 0.994568;-0.001526;,
         0.103885; 0.994568;-0.001526;,
         0.103885; 0.994568;-0.001526;,
         0.103885; 0.994568;-0.001526;,
         0.103885; 0.994568;-0.001526;,
         0.103885; 0.994568;-0.001526;,
         0.103885; 0.994568;-0.001526;,
         0.103885; 0.994568;-0.001526;,
         0.103885; 0.994568;-0.001526;,
         0.103885; 0.994568;-0.001526;,
         0.103885; 0.994568;-0.001526;,
         0.103885; 0.994568;-0.001526;,
         0.103885; 0.994568;-0.001526;,
         0.103885; 0.994568;-0.001526;,
        -0.502457; 0.864559; 0.006836;,
        -0.502457; 0.864559; 0.006836;,
        -0.502457; 0.864559; 0.006836;,
        -0.502457; 0.864559; 0.006836;,
        -0.502457; 0.864559; 0.006836;,
        -0.502457; 0.864559; 0.006836;,
        -0.502457; 0.864559; 0.006836;,
        -0.502457; 0.864559; 0.006836;,
         0.009674;-0.602222; 0.798242;,
         0.009674;-0.602222; 0.798242;,
         0.009674;-0.602222; 0.798242;,
         0.009674;-0.602222; 0.798242;,
         0.009674;-0.602222; 0.798242;,
         0.009674;-0.602222; 0.798242;,
         0.009674;-0.602222; 0.798242;,
         0.009674;-0.602222; 0.798242;,
         0.012207; 0.269662; 0.962859;,
         0.012207; 0.269662; 0.962859;,
         0.012207; 0.269662; 0.962859;,
         0.012207; 0.269662; 0.962859;,
         0.012207; 0.269662; 0.962859;,
         0.012207; 0.269662; 0.962859;,
         0.012207; 0.269662; 0.962859;,
         0.012207; 0.269662; 0.962859;,
         0.005341; 0.891232; 0.453475;,
         0.005341; 0.891232; 0.453475;,
         0.005341; 0.891232; 0.453475;,
         0.005341; 0.891232; 0.453475;,
         0.059145; 0.853572; 0.517563;,
         0.314585; 0.712180; 0.627491;,
         0.625019; 0.483963;-0.612415;,
         0.447676; 0.517685;-0.729057;,
         0.447676; 0.517685;-0.729057;,
         0.625019; 0.483963;-0.612415;,
        -0.317362;-0.654134;-0.686544;,
        -0.143742;-0.698843;-0.700644;,
        -0.143742;-0.698843;-0.700644;,
        -0.317362;-0.654134;-0.686544;,
        -0.665731;-0.162481; 0.728263;,
        -0.621143;-0.445387; 0.644795;,
        -0.621143;-0.445387; 0.644795;,
        -0.665731;-0.162481; 0.728263;,
         0.314585; 0.712180; 0.627491;,
         0.059145; 0.853572; 0.517563;,
        -0.621143;-0.445387; 0.644795;,
         0.059145; 0.853572; 0.517563;,
        -0.280953; 0.853664; 0.438520;,
        -0.873348;-0.176092; 0.454085;,
        -0.665731;-0.162481; 0.728263;,
        -0.317362;-0.654134;-0.686544;,
        -0.613758;-0.260475;-0.745232;,
        -0.589007;-0.131474; 0.797327;,
        -0.613758;-0.260475;-0.745232;,
         0.723167; 0.222571;-0.653798;,
         0.767479;-0.078951;-0.636158;,
        -0.663411; 0.259529;-0.701773;,
         0.625019; 0.483963;-0.612415;,
         0.314585; 0.712180; 0.627491;,
         0.678091; 0.240944; 0.694327;,
         0.723167; 0.222571;-0.653798;,
         0.314585; 0.712180; 0.627491;,
        -0.665731;-0.162481; 0.728263;,
        -0.589007;-0.131474; 0.797327;,
         0.678091; 0.240944; 0.694327;,
        -0.317362;-0.654134;-0.686544;,
         0.625019; 0.483963;-0.612415;,
         0.723167; 0.222571;-0.653798;,
        -0.613758;-0.260475;-0.745232;,
        -0.612934;-0.079806; 0.786065;,
        -0.663411; 0.259529;-0.701773;,
        -0.094546; 0.859523;-0.502213;,
        -0.749077;-0.014649; 0.662282;,
        -0.589007;-0.131474; 0.797327;,
        -0.613758;-0.260475;-0.745232;,
        -0.663411; 0.259529;-0.701773;,
        -0.612934;-0.079806; 0.786065;,
         0.723167; 0.222571;-0.653798;,
         0.678091; 0.240944; 0.694327;,
         0.730583;-0.251564; 0.634754;,
         0.767479;-0.078951;-0.636158;,
         0.678091; 0.240944; 0.694327;,
        -0.589007;-0.131474; 0.797327;,
        -0.612934;-0.079806; 0.786065;,
         0.730583;-0.251564; 0.634754;,
         0.382641;-0.686911; 0.617817;,
        -0.749077;-0.014649; 0.662282;,
        -0.585009; 0.560564; 0.586108;,
        -0.200812;-0.858852; 0.471175;,
         0.767479;-0.078951;-0.636158;,
         0.730583;-0.251564; 0.634754;,
         0.382641;-0.686911; 0.617817;,
         0.598102;-0.473067;-0.646840;,
         0.730583;-0.251564; 0.634754;,
        -0.612934;-0.079806; 0.786065;,
        -0.749077;-0.014649; 0.662282;,
         0.382641;-0.686911; 0.617817;,
        -0.663411; 0.259529;-0.701773;,
         0.767479;-0.078951;-0.636158;,
         0.598102;-0.473067;-0.646840;,
        -0.094546; 0.859523;-0.502213;,
        -0.585009; 0.560564; 0.586108;,
         0.143101; 0.759056;-0.635060;,
        -0.459151; 0.483291;-0.745384;,
        -0.017090; 0.936094; 0.351238;,
        -0.094546; 0.859523;-0.502213;,
         0.598102;-0.473067;-0.646840;,
         0.335124;-0.506485;-0.794427;,
         0.143101; 0.759056;-0.635060;,
        -0.749077;-0.014649; 0.662282;,
        -0.094546; 0.859523;-0.502213;,
         0.143101; 0.759056;-0.635060;,
        -0.585009; 0.560564; 0.586108;,
         0.598102;-0.473067;-0.646840;,
         0.382641;-0.686911; 0.617817;,
        -0.200812;-0.858852; 0.471175;,
         0.335124;-0.506485;-0.794427;,
        -0.017090; 0.936094; 0.351238;,
        -0.459151; 0.483291;-0.745384;,
        -0.789209; 0.307077;-0.531785;,
         0.407056; 0.905667; 0.118381;,
         0.335124;-0.506485;-0.794427;,
        -0.200812;-0.858852; 0.471175;,
         0.146672;-0.871090; 0.468673;,
        -0.280801;-0.731986;-0.620746;,
        -0.200812;-0.858852; 0.471175;,
        -0.585009; 0.560564; 0.586108;,
        -0.017090; 0.936094; 0.351238;,
         0.146672;-0.871090; 0.468673;,
         0.143101; 0.759056;-0.635060;,
         0.335124;-0.506485;-0.794427;,
        -0.280801;-0.731986;-0.620746;,
        -0.459151; 0.483291;-0.745384;,
         0.771783;-0.467299; 0.431227;,
         0.407056; 0.905667; 0.118381;,
         0.497513; 0.827967;-0.258614;,
         0.755364;-0.316965; 0.573504;,
        -0.280801;-0.731986;-0.620746;,
         0.146672;-0.871090; 0.468673;,
         0.771783;-0.467299; 0.431227;,
        -0.423048;-0.905576; 0.030335;,
         0.146672;-0.871090; 0.468673;,
        -0.017090; 0.936094; 0.351238;,
         0.407056; 0.905667; 0.118381;,
         0.771783;-0.467299; 0.431227;,
        -0.459151; 0.483291;-0.745384;,
        -0.280801;-0.731986;-0.620746;,
        -0.423048;-0.905576; 0.030335;,
        -0.789209; 0.307077;-0.531785;,
        -0.796014; 0.154271; 0.585253;,
         0.520920; 0.831294; 0.193823;,
         0.622852; 0.701743; 0.345775;,
        -0.795007; 0.200018; 0.572649;,
        -0.789209; 0.307077;-0.531785;,
        -0.423048;-0.905576; 0.030335;,
        -0.482711;-0.808191; 0.337291;,
        -0.811945; 0.170080;-0.558336;,
         0.407056; 0.905667; 0.118381;,
        -0.789209; 0.307077;-0.531785;,
        -0.811945; 0.170080;-0.558336;,
         0.497513; 0.827967;-0.258614;,
        -0.423048;-0.905576; 0.030335;,
         0.771783;-0.467299; 0.431227;,
         0.755364;-0.316965; 0.573504;,
        -0.482711;-0.808191; 0.337291;,
        -0.440901;-0.838679;-0.319620;,
        -0.796014; 0.154271; 0.585253;,
        -0.795007; 0.200018; 0.572649;,
        -0.755425;-0.312326;-0.575945;,
         0.562731;-0.026521;-0.826197;,
        -0.755425;-0.312326;-0.575945;,
        -0.530992; 0.499680;-0.684317;,
         0.269601; 0.550493;-0.790063;,
         0.675741; 0.630360;-0.382092;,
        -0.819758; 0.229347;-0.524735;,
        -0.429395; 0.788598;-0.440138;,
         0.432691; 0.815546;-0.384167;,
        -0.482711;-0.808191; 0.337291;,
         0.755364;-0.316965; 0.573504;,
         0.608325;-0.106143; 0.786523;,
        -0.720939;-0.286233; 0.631092;,
        -0.720939;-0.286233; 0.631092;,
         0.608325;-0.106143; 0.786523;,
         0.364818; 0.551714; 0.749992;,
        -0.497879; 0.524979; 0.690237;,
         0.608325;-0.106143; 0.786523;,
         0.675741; 0.630360;-0.382092;,
         0.432691; 0.815546;-0.384167;,
         0.364818; 0.551714; 0.749992;,
        -0.819758; 0.229347;-0.524735;,
        -0.720939;-0.286233; 0.631092;,
        -0.497879; 0.524979; 0.690237;,
        -0.429395; 0.788598;-0.440138;,
         0.364818; 0.551714; 0.749992;,
         0.432691; 0.815546;-0.384167;,
        -0.429395; 0.788598;-0.440138;,
        -0.497879; 0.524979; 0.690237;,
         0.497513; 0.827967;-0.258614;,
        -0.811945; 0.170080;-0.558336;,
        -0.819758; 0.229347;-0.524735;,
         0.675741; 0.630360;-0.382092;,
         0.520920; 0.831294; 0.193823;,
         0.735984;-0.302316;-0.605701;,
         0.562731;-0.026521;-0.826197;,
         0.622852; 0.701743; 0.345775;,
        -0.811945; 0.170080;-0.558336;,
        -0.482711;-0.808191; 0.337291;,
        -0.720939;-0.286233; 0.631092;,
        -0.819758; 0.229347;-0.524735;,
         0.755364;-0.316965; 0.573504;,
         0.497513; 0.827967;-0.258614;,
         0.675741; 0.630360;-0.382092;,
         0.608325;-0.106143; 0.786523;,
        -0.194342; 0.746574;-0.636250;,
        -0.789209;-0.205084;-0.578845;,
        -0.873348;-0.176092; 0.454085;,
        -0.280953; 0.853664; 0.438520;,
         0.447676; 0.517685;-0.729057;,
        -0.143742;-0.698843;-0.700644;,
        -0.789209;-0.205084;-0.578845;,
        -0.194342; 0.746574;-0.636250;,
         0.059145; 0.853572; 0.517563;,
         0.447676; 0.517685;-0.729057;,
        -0.194342; 0.746574;-0.636250;,
        -0.280953; 0.853664; 0.438520;,
        -0.143742;-0.698843;-0.700644;,
        -0.621143;-0.445387; 0.644795;,
        -0.873348;-0.176092; 0.454085;,
        -0.789209;-0.205084;-0.578845;,
         0.034852; 0.853572;-0.519761;,
         0.481338; 0.517685; 0.707297;,
         0.653035; 0.483963; 0.582476;,
         0.284860; 0.712180;-0.641530;,
         0.481338; 0.517685; 0.707297;,
        -0.110782;-0.698843; 0.706626;,
        -0.284860;-0.654134; 0.700644;,
         0.653035; 0.483963; 0.582476;,
        -0.110782;-0.698843; 0.706626;,
        -0.650655;-0.445387;-0.614978;,
        -0.699088;-0.162481;-0.696280;,
        -0.284860;-0.654134; 0.700644;,
        -0.650655;-0.445387;-0.614978;,
         0.034852; 0.853572;-0.519761;,
         0.284860; 0.712180;-0.641530;,
        -0.699088;-0.162481;-0.696280;,
        -0.650655;-0.445387;-0.614978;,
        -0.893674;-0.176092;-0.412702;,
        -0.301187; 0.853664;-0.424879;,
         0.034852; 0.853572;-0.519761;,
        -0.699088;-0.162481;-0.696280;,
        -0.625721;-0.131474;-0.768853;,
        -0.578204;-0.260475; 0.773156;,
        -0.284860;-0.654134; 0.700644;,
        -0.578204;-0.260475; 0.773156;,
        -0.629841; 0.259529; 0.732047;,
         0.796411;-0.078951; 0.599536;,
         0.752983; 0.222571; 0.619221;,
         0.653035; 0.483963; 0.582476;,
         0.752983; 0.222571; 0.619221;,
         0.644826; 0.240944;-0.725333;,
         0.284860; 0.712180;-0.641530;,
         0.284860; 0.712180;-0.641530;,
         0.644826; 0.240944;-0.725333;,
        -0.625721;-0.131474;-0.768853;,
        -0.699088;-0.162481;-0.696280;,
        -0.284860;-0.654134; 0.700644;,
        -0.578204;-0.260475; 0.773156;,
         0.752983; 0.222571; 0.619221;,
         0.653035; 0.483963; 0.582476;,
        -0.649068;-0.079806;-0.756493;,
        -0.779260;-0.014649;-0.626484;,
        -0.070925; 0.859523; 0.506088;,
        -0.629841; 0.259529; 0.732047;,
        -0.625721;-0.131474;-0.768853;,
        -0.649068;-0.079806;-0.756493;,
        -0.629841; 0.259529; 0.732047;,
        -0.578204;-0.260475; 0.773156;,
         0.752983; 0.222571; 0.619221;,
         0.796411;-0.078951; 0.599536;,
         0.700064;-0.251564;-0.668264;,
         0.644826; 0.240944;-0.725333;,
         0.644826; 0.240944;-0.725333;,
         0.700064;-0.251564;-0.668264;,
        -0.649068;-0.079806;-0.756493;,
        -0.625721;-0.131474;-0.768853;,
         0.353313;-0.686911;-0.635060;,
        -0.222663;-0.858852;-0.461257;,
        -0.611805; 0.560564;-0.558061;,
        -0.779260;-0.014649;-0.626484;,
         0.796411;-0.078951; 0.599536;,
         0.627735;-0.473098; 0.618122;,
         0.353313;-0.686911;-0.635060;,
         0.700064;-0.251564;-0.668264;,
         0.700064;-0.251564;-0.668264;,
         0.353313;-0.686911;-0.635060;,
        -0.779260;-0.014649;-0.626484;,
        -0.649068;-0.079806;-0.756493;,
        -0.629841; 0.259529; 0.732047;,
        -0.070925; 0.859523; 0.506088;,
         0.627735;-0.473098; 0.618122;,
         0.796411;-0.078951; 0.599536;,
        -0.611805; 0.560564;-0.558061;,
        -0.026307; 0.935331;-0.352763;,
        -0.405988; 0.475631; 0.780328;,
         0.172674; 0.759056; 0.627674;,
        -0.070925; 0.859523; 0.506088;,
         0.172674; 0.759056; 0.627674;,
         0.371960;-0.506485; 0.777856;,
         0.627735;-0.473098; 0.618122;,
        -0.779260;-0.014649;-0.626484;,
        -0.611805; 0.560564;-0.558061;,
         0.172674; 0.759056; 0.627674;,
        -0.070925; 0.859523; 0.506088;,
         0.627735;-0.473098; 0.618122;,
         0.371960;-0.506485; 0.777856;,
        -0.222663;-0.858852;-0.461257;,
         0.353313;-0.686911;-0.635060;,
        -0.026307; 0.935331;-0.352763;,
         0.367138; 0.919919;-0.137516;,
        -0.759362; 0.332743; 0.559130;,
        -0.405988; 0.475631; 0.780328;,
         0.371960;-0.506485; 0.777856;,
        -0.244057;-0.743492; 0.622578;,
         0.101474;-0.864956;-0.491409;,
        -0.222663;-0.858852;-0.461257;,
        -0.222663;-0.858852;-0.461257;,
         0.101474;-0.864956;-0.491409;,
        -0.026307; 0.935331;-0.352763;,
        -0.611805; 0.560564;-0.558061;,
         0.172674; 0.759056; 0.627674;,
        -0.405988; 0.475631; 0.780328;,
        -0.244057;-0.743492; 0.622578;,
         0.371960;-0.506485; 0.777856;,
         0.754967;-0.467055;-0.460250;,
         0.735984;-0.302316;-0.605701;,
         0.520920; 0.831294; 0.193823;,
         0.367138; 0.919919;-0.137516;,
        -0.244057;-0.743492; 0.622578;,
        -0.444380;-0.895505; 0.022950;,
         0.754967;-0.467055;-0.460250;,
         0.101474;-0.864956;-0.491409;,
         0.101474;-0.864956;-0.491409;,
         0.754967;-0.467055;-0.460250;,
         0.367138; 0.919919;-0.137516;,
        -0.026307; 0.935331;-0.352763;,
        -0.405988; 0.475631; 0.780328;,
        -0.759362; 0.332743; 0.559130;,
        -0.444380;-0.895505; 0.022950;,
        -0.244057;-0.743492; 0.622578;,
        -0.759362; 0.332743; 0.559130;,
        -0.796014; 0.154271; 0.585253;,
        -0.440901;-0.838679;-0.319620;,
        -0.444380;-0.895505; 0.022950;,
         0.367138; 0.919919;-0.137516;,
         0.520920; 0.831294; 0.193823;,
        -0.796014; 0.154271; 0.585253;,
        -0.759362; 0.332743; 0.559130;,
        -0.444380;-0.895505; 0.022950;,
        -0.440901;-0.838679;-0.319620;,
         0.735984;-0.302316;-0.605701;,
         0.754967;-0.467055;-0.460250;,
         0.622852; 0.701743; 0.345775;,
         0.562731;-0.026521;-0.826197;,
         0.269601; 0.550493;-0.790063;,
         0.388623; 0.857356; 0.337382;,
        -0.795007; 0.200018; 0.572649;,
         0.622852; 0.701743; 0.345775;,
         0.388623; 0.857356; 0.337382;,
        -0.416791; 0.803522; 0.424970;,
        -0.755425;-0.312326;-0.575945;,
        -0.795007; 0.200018; 0.572649;,
        -0.416791; 0.803522; 0.424970;,
        -0.530992; 0.499680;-0.684317;,
         0.269601; 0.550493;-0.790063;,
        -0.530992; 0.499680;-0.684317;,
        -0.416791; 0.803522; 0.424970;,
         0.388623; 0.857356; 0.337382;,
         0.735984;-0.302316;-0.605701;,
        -0.440901;-0.838679;-0.319620;,
        -0.755425;-0.312326;-0.575945;,
         0.562731;-0.026521;-0.826197;,
        -0.164342; 0.746574; 0.644642;,
        -0.301187; 0.853664;-0.424879;,
        -0.893674;-0.176092;-0.412702;,
        -0.761223;-0.205084; 0.615162;,
         0.481338; 0.517685; 0.707297;,
        -0.164342; 0.746574; 0.644642;,
        -0.761223;-0.205084; 0.615162;,
        -0.110782;-0.698843; 0.706626;,
         0.034852; 0.853572;-0.519761;,
        -0.301187; 0.853664;-0.424879;,
        -0.164342; 0.746574; 0.644642;,
         0.481338; 0.517685; 0.707297;,
        -0.110782;-0.698843; 0.706626;,
        -0.761223;-0.205084; 0.615162;,
        -0.893674;-0.176092;-0.412702;,
        -0.650655;-0.445387;-0.614978;;
        168;
        4;3,2,1,0;,
        4;7,6,5,4;,
        4;11,10,9,8;,
        4;15,14,13,12;,
        4;19,18,17,16;,
        4;23,22,21,20;,
        4;27,26,25,24;,
        4;31,30,29,28;,
        4;35,34,33,32;,
        4;39,38,37,36;,
        4;43,42,41,40;,
        4;47,46,45,44;,
        4;51,50,49,48;,
        4;55,54,53,52;,
        4;59,58,57,56;,
        4;63,62,61,60;,
        4;67,66,65,64;,
        4;71,70,69,68;,
        4;75,74,73,72;,
        4;79,78,77,76;,
        4;83,82,81,80;,
        4;87,86,85,84;,
        4;91,90,89,88;,
        4;95,94,93,92;,
        4;99,98,97,96;,
        4;103,102,101,100;,
        4;107,106,105,104;,
        4;111,110,109,108;,
        4;115,114,113,112;,
        4;119,118,117,116;,
        4;123,122,121,120;,
        4;127,126,125,124;,
        4;131,130,129,128;,
        4;135,134,133,132;,
        4;139,138,137,136;,
        4;143,142,141,140;,
        4;147,146,145,144;,
        4;151,150,149,148;,
        4;155,154,153,152;,
        4;159,158,157,156;,
        4;163,162,161,160;,
        4;167,166,165,164;,
        4;171,170,169,168;,
        4;175,174,173,172;,
        4;179,178,177,176;,
        4;183,182,181,180;,
        4;187,186,185,184;,
        4;191,190,189,188;,
        4;195,194,193,192;,
        4;199,198,197,196;,
        4;203,202,201,200;,
        4;207,206,205,204;,
        4;211,210,209,208;,
        4;215,214,213,212;,
        4;219,218,217,216;,
        4;223,222,221,220;,
        4;227,226,225,224;,
        4;231,230,229,228;,
        4;235,234,233,232;,
        4;239,238,237,236;,
        4;243,242,241,240;,
        4;247,246,245,244;,
        4;251,250,249,248;,
        4;255,254,253,252;,
        4;259,258,257,256;,
        4;263,262,261,260;,
        4;267,266,265,264;,
        4;271,270,269,268;,
        4;275,274,273,272;,
        4;279,278,277,276;,
        4;283,282,281,280;,
        4;287,286,285,284;,
        4;291,290,289,288;,
        4;295,294,293,292;,
        4;299,298,297,296;,
        4;303,302,301,300;,
        4;307,306,305,304;,
        4;311,310,309,308;,
        4;315,314,313,312;,
        4;319,318,317,316;,
        4;323,322,321,320;,
        4;327,326,325,324;,
        4;331,330,329,328;,
        4;335,334,333,332;,
        4;339,338,337,336;,
        4;343,342,341,340;,
        4;347,346,345,344;,
        4;351,350,349,348;,
        4;355,354,353,352;,
        4;359,358,357,356;,
        4;363,362,361,360;,
        4;367,366,365,364;,
        4;371,370,369,368;,
        4;375,374,373,372;,
        4;379,378,377,376;,
        4;383,382,381,380;,
        4;387,386,385,384;,
        4;391,390,389,388;,
        4;395,394,393,392;,
        4;399,398,397,396;,
        4;403,402,401,400;,
        4;407,406,405,404;,
        4;411,410,409,408;,
        4;415,414,413,412;,
        4;419,418,417,416;,
        4;423,422,421,420;,
        4;427,426,425,424;,
        4;431,430,429,428;,
        4;435,434,433,432;,
        4;439,438,437,436;,
        4;443,442,441,440;,
        4;447,446,445,444;,
        4;451,450,449,448;,
        4;455,454,453,452;,
        4;459,458,457,456;,
        4;463,462,461,460;,
        4;467,466,465,464;,
        4;471,470,469,468;,
        4;475,474,473,472;,
        4;479,478,477,476;,
        4;483,482,481,480;,
        4;487,486,485,484;,
        4;491,490,489,488;,
        4;495,494,493,492;,
        4;499,498,497,496;,
        4;503,502,501,500;,
        4;507,506,505,504;,
        4;511,510,509,508;,
        4;515,514,513,512;,
        4;519,518,517,516;,
        4;523,522,521,520;,
        4;527,526,525,524;,
        4;531,530,529,528;,
        4;535,534,533,532;,
        4;539,538,537,536;,
        4;543,542,541,540;,
        4;547,546,545,544;,
        4;551,550,549,548;,
        4;555,554,553,552;,
        4;559,558,557,556;,
        4;563,562,561,560;,
        4;567,566,565,564;,
        4;571,570,569,568;,
        4;575,574,573,572;,
        4;579,578,577,576;,
        4;583,582,581,580;,
        4;587,586,585,584;,
        4;591,590,589,588;,
        4;595,594,593,592;,
        4;599,598,597,596;,
        4;603,602,601,600;,
        4;607,606,605,604;,
        4;611,610,609,608;,
        4;615,614,613,612;,
        4;619,618,617,616;,
        4;623,622,621,620;,
        4;627,626,625,624;,
        4;631,630,629,628;,
        4;635,634,633,632;,
        4;639,638,637,636;,
        4;643,642,641,640;,
        4;647,646,645,644;,
        4;651,650,649,648;,
        4;655,654,653,652;,
        4;659,658,657,656;,
        4;663,662,661,660;,
        4;667,666,665,664;,
        4;671,670,669,668;;
      } // End of Plane_008 normals
      MeshTextureCoords { // Plane_008 UV coordinates
        672;
         0.673369; 0.730159;,
         0.673369; 0.707630;,
         0.659931; 0.707632;,
         0.659931; 0.730160;,
         0.327321; 0.276312;,
         0.316661; 0.276338;,
         0.316661; 0.364847;,
         0.327321; 0.364821;,
         0.828417; 0.511289;,
         0.839122; 0.511287;,
         0.839122; 0.430555;,
         0.828417; 0.430557;,
         0.987302; 0.916073;,
         0.997936; 0.916160;,
         0.997936; 0.790617;,
         0.987302; 0.790530;,
         0.410229; 0.029899;,
         0.399526; 0.029919;,
         0.399525; 0.108220;,
         0.410229; 0.108201;,
         0.867863; 0.389796;,
         0.946246; 0.417068;,
         0.946246; 0.291219;,
         0.867713; 0.301265;,
         0.945861; 0.129985;,
         0.867329; 0.157388;,
         0.867179; 0.245928;,
         0.945861; 0.255846;,
         0.169980; 0.106966;,
         0.163325; 0.106963;,
         0.163325; 0.241260;,
         0.169980; 0.241263;,
         0.577697; 0.124136;,
         0.571024; 0.124135;,
         0.571024; 0.203089;,
         0.577697; 0.203090;,
         0.163325; 0.379695;,
         0.169988; 0.379697;,
         0.169988; 0.245399;,
         0.163325; 0.245397;,
         0.577694; 0.041039;,
         0.571024; 0.041038;,
         0.571024; 0.120000;,
         0.577694; 0.120001;,
         0.331448; 0.246668;,
         0.410229; 0.246650;,
         0.410229; 0.112354;,
         0.331448; 0.112373;,
         0.942258; 0.545264;,
         0.863658; 0.545357;,
         0.863658; 0.679640;,
         0.942258; 0.679546;,
         0.687585; 0.182318;,
         0.696341; 0.182329;,
         0.696341; 0.026607;,
         0.687585; 0.026596;,
         0.331448; 0.108190;,
         0.342135; 0.108220;,
         0.342135; 0.029354;,
         0.331448; 0.029323;,
         0.986566; 0.311947;,
         0.977666; 0.311844;,
         0.977666; 0.455014;,
         0.986566; 0.455117;,
         0.932866; 0.461874;,
         0.922174; 0.461809;,
         0.922174; 0.541064;,
         0.932866; 0.541129;,
         0.479879; 0.091020;,
         0.414357; 0.089711;,
         0.414391; 0.232835;,
         0.479879; 0.246668;,
         0.257125; 0.247646;,
         0.323627; 0.244577;,
         0.323627; 0.089275;,
         0.257160; 0.104839;,
         0.983174; 0.781861;,
         0.972475; 0.781861;,
         0.972475; 0.916160;,
         0.983174; 0.916160;,
         0.217565; 0.109219;,
         0.228241; 0.109227;,
         0.228241; 0.030269;,
         0.217565; 0.030261;,
         0.918046; 0.425968;,
         0.907342; 0.425966;,
         0.907342; 0.541128;,
         0.918046; 0.541129;,
         0.925458; 0.125710;,
         0.936146; 0.125851;,
         0.936146; 0.046967;,
         0.925458; 0.046826;,
         0.924997; 0.689733;,
         0.846176; 0.689714;,
         0.846248; 0.804835;,
         0.924997; 0.823961;,
         0.704756; 0.187483;,
         0.783570; 0.187575;,
         0.783570; 0.053656;,
         0.704828; 0.072627;,
         0.683249; 0.019014;,
         0.674433; 0.019022;,
         0.674433; 0.153321;,
         0.683249; 0.153313;,
         0.252998; 0.030288;,
         0.242315; 0.030311;,
         0.242315; 0.109227;,
         0.252998; 0.109204;,
         0.964871; 0.455117;,
         0.973539; 0.455011;,
         0.973539; 0.288435;,
         0.964871; 0.288541;,
         0.853943; 0.431043;,
         0.843249; 0.431206;,
         0.843249; 0.511289;,
         0.853943; 0.511126;,
         0.095136; 0.379697;,
         0.158985; 0.378048;,
         0.158985; 0.211546;,
         0.095057; 0.245479;,
         0.909035; 0.831827;,
         0.846254; 0.828095;,
         0.846176; 0.961991;,
         0.909035; 0.997933;,
         0.960743; 0.291219;,
         0.950373; 0.291427;,
         0.950373; 0.455117;,
         0.960743; 0.454909;,
         0.346262; 0.108220;,
         0.356963; 0.108202;,
         0.356963; 0.029407;,
         0.346262; 0.029424;,
         0.986716; 0.121635;,
         0.976409; 0.121530;,
         0.976409; 0.255741;,
         0.986716; 0.255846;,
         0.968123; 0.920662;,
         0.957420; 0.920615;,
         0.957420; 0.997886;,
         0.968123; 0.997933;,
         0.859531; 0.515450;,
         0.784159; 0.515423;,
         0.784248; 0.649722;,
         0.859531; 0.679640;,
         0.487516; 0.363772;,
         0.563418; 0.364149;,
         0.563418; 0.199977;,
         0.487605; 0.229489;,
         0.972812; 0.679640;,
         0.983512; 0.679616;,
         0.983512; 0.545736;,
         0.972812; 0.545759;,
         0.483389; 0.280385;,
         0.472685; 0.280339;,
         0.472685; 0.362168;,
         0.483389; 0.362214;,
         0.371781; 0.029822;,
         0.361090; 0.029801;,
         0.361090; 0.108199;,
         0.371781; 0.108220;,
         0.395398; 0.030100;,
         0.384694; 0.030105;,
         0.384694; 0.108220;,
         0.395398; 0.108215;,
         0.566281; 0.061544;,
         0.487516; 0.103586;,
         0.487727; 0.182043;,
         0.566281; 0.195842;,
         0.174116; 0.205527;,
         0.252998; 0.247646;,
         0.252998; 0.113361;,
         0.174326; 0.127078;,
         0.921331; 0.002067;,
         0.911105; 0.002158;,
         0.911105; 0.125851;,
         0.921331; 0.125760;,
         0.913162; 0.907598;,
         0.923865; 0.907588;,
         0.923865; 0.828095;,
         0.913162; 0.828105;,
         0.577697; 0.207469;,
         0.567545; 0.207224;,
         0.567545; 0.363904;,
         0.577697; 0.364149;,
         0.787683; 0.094642;,
         0.798385; 0.094565;,
         0.798385; 0.016861;,
         0.787683; 0.016937;,
         0.787786; 0.245692;,
         0.863052; 0.255846;,
         0.863052; 0.098776;,
         0.787683; 0.121963;,
         0.863586; 0.259981;,
         0.787787; 0.270569;,
         0.787683; 0.394311;,
         0.863586; 0.417068;,
         0.101429; 0.997319;,
         0.101429; 0.693088;,
         0.002064; 0.692711;,
         0.002064; 0.996942;,
         0.956971; 0.599965;,
         0.946386; 0.601557;,
         0.958100; 0.679640;,
         0.968685; 0.678047;,
         0.474837; 0.670615;,
         0.483389; 0.670644;,
         0.483389; 0.366377;,
         0.474837; 0.366349;,
         0.972282; 0.077885;,
         0.961700; 0.076286;,
         0.949989; 0.154355;,
         0.960571; 0.155953;,
         0.103148; 0.688281;,
         0.169988; 0.688577;,
         0.169988; 0.384315;,
         0.103148; 0.384020;,
         0.169988; 0.693702;,
         0.101429; 0.693088;,
         0.101429; 0.997319;,
         0.169988; 0.997933;,
         0.327321; 0.368982;,
         0.316638; 0.368986;,
         0.316638; 0.673249;,
         0.327321; 0.673245;,
         0.103148; 0.688281;,
         0.103148; 0.384020;,
         0.012373; 0.383831;,
         0.012373; 0.688093;,
         0.946386; 0.601557;,
         0.956971; 0.599965;,
         0.968685; 0.505935;,
         0.959727; 0.500064;,
         0.960571; 0.155953;,
         0.949989; 0.154355;,
         0.963327; 0.255846;,
         0.972282; 0.249981;,
         0.008245; 0.502906;,
         0.002828; 0.502903;,
         0.002827; 0.688574;,
         0.008245; 0.688577;,
         0.163779; 0.102829;,
         0.169211; 0.102829;,
         0.169918; 0.023591;,
         0.163325; 0.023591;,
         0.687585; 0.411825;,
         0.694169; 0.411827;,
         0.694169; 0.186465;,
         0.687585; 0.186463;,
         0.972475; 0.768764;,
         0.979065; 0.768763;,
         0.979065; 0.689714;,
         0.973636; 0.689715;,
         0.704756; 0.397238;,
         0.783556; 0.417068;,
         0.783556; 0.191709;,
         0.704756; 0.211568;,
         0.090929; 0.154361;,
         0.012373; 0.174305;,
         0.012373; 0.359957;,
         0.090929; 0.379697;,
         0.953292; 0.997915;,
         0.953292; 0.930623;,
         0.913162; 0.930641;,
         0.913162; 0.997933;,
         0.824290; 0.511271;,
         0.824290; 0.443978;,
         0.784159; 0.443997;,
         0.784159; 0.511289;,
         0.624804; 0.707630;,
         0.624804; 0.730160;,
         0.638240; 0.730154;,
         0.638240; 0.707624;,
         0.642367; 0.707630;,
         0.642367; 0.730160;,
         0.655804; 0.730154;,
         0.655804; 0.707624;,
         0.642367; 0.684765;,
         0.642367; 0.703344;,
         0.655803; 0.703489;,
         0.655803; 0.684911;,
         0.624804; 0.684765;,
         0.624804; 0.703344;,
         0.638239; 0.703489;,
         0.638239; 0.684911;,
         0.659929; 0.684879;,
         0.659929; 0.702448;,
         0.673366; 0.702335;,
         0.673366; 0.684765;,
         0.690930; 0.702334;,
         0.690930; 0.684765;,
         0.677493; 0.684879;,
         0.677493; 0.702448;,
         0.708499; 0.730160;,
         0.708499; 0.708279;,
         0.695061; 0.708277;,
         0.695061; 0.730158;,
         0.677496; 0.708277;,
         0.677496; 0.730158;,
         0.690934; 0.730160;,
         0.690934; 0.708279;,
         0.726022; 0.730160;,
         0.726022; 0.709910;,
         0.712626; 0.709441;,
         0.712626; 0.729692;,
         0.898678; 0.502177;,
         0.903215; 0.449069;,
         0.863658; 0.477994;,
         0.870613; 0.522699;,
         0.303600; 0.680984;,
         0.261873; 0.695054;,
         0.264896; 0.700414;,
         0.306624; 0.686345;,
         0.181304; 0.036230;,
         0.174116; 0.079973;,
         0.213437; 0.109227;,
         0.209203; 0.056985;,
         0.601592; 0.668589;,
         0.560891; 0.649436;,
         0.557332; 0.654456;,
         0.598034; 0.673609;,
         0.601592; 0.668589;,
         0.598034; 0.673609;,
         0.619011; 0.679640;,
         0.621862; 0.675618;,
         0.730896; 0.997933;,
         0.779794; 0.995101;,
         0.765518; 0.922502;,
         0.704775; 0.926020;,
         0.206714; 0.761206;,
         0.200867; 0.759308;,
         0.174116; 0.866474;,
         0.180230; 0.867103;,
         0.700629; 0.418751;,
         0.651733; 0.415961;,
         0.625989; 0.491145;,
         0.686729; 0.494612;,
         0.557332; 0.654456;,
         0.560891; 0.649436;,
         0.508878; 0.582435;,
         0.502867; 0.583721;,
         0.264896; 0.700414;,
         0.261873; 0.695054;,
         0.200867; 0.759308;,
         0.206714; 0.761206;,
         0.712689; 0.816208;,
         0.759225; 0.813513;,
         0.779794; 0.739497;,
         0.733257; 0.742192;,
         0.704775; 0.926020;,
         0.765518; 0.922502;,
         0.759225; 0.813513;,
         0.712689; 0.816208;,
         0.686729; 0.494612;,
         0.625989; 0.491145;,
         0.633942; 0.602238;,
         0.680477; 0.604894;,
         0.502867; 0.583721;,
         0.508878; 0.582435;,
         0.493662; 0.474842;,
         0.487516; 0.474838;,
         0.518307; 0.397554;,
         0.524453; 0.397557;,
         0.600889; 0.376408;,
         0.600026; 0.370314;,
         0.680477; 0.604894;,
         0.633942; 0.602238;,
         0.654094; 0.676984;,
         0.700629; 0.679640;,
         0.487516; 0.474838;,
         0.493662; 0.474842;,
         0.524453; 0.397557;,
         0.518307; 0.397554;,
         0.180230; 0.867103;,
         0.174116; 0.866474;,
         0.196228; 0.947046;,
         0.202343; 0.947675;,
         0.378626; 0.326197;,
         0.332018; 0.326302;,
         0.331448; 0.380551;,
         0.363267; 0.346992;,
         0.202343; 0.947675;,
         0.196228; 0.947046;,
         0.272813; 0.984253;,
         0.274298; 0.978278;,
         0.462398; 0.250803;,
         0.415789; 0.250908;,
         0.332018; 0.326302;,
         0.378626; 0.326197;,
         0.263508; 0.673249;,
         0.310100; 0.671816;,
         0.223121; 0.592768;,
         0.176529; 0.594201;,
         0.363267; 0.346992;,
         0.331448; 0.380551;,
         0.418983; 0.436468;,
         0.425591; 0.393445;,
         0.176529; 0.594201;,
         0.223121; 0.592768;,
         0.207152; 0.572454;,
         0.174116; 0.539756;,
         0.600026; 0.370314;,
         0.600889; 0.376408;,
         0.621862; 0.374372;,
         0.620946; 0.368284;,
         0.274298; 0.978278;,
         0.272813; 0.984253;,
         0.325786; 0.997933;,
         0.327321; 0.991971;,
         0.586181; 0.303091;,
         0.591858; 0.305449;,
         0.586715; 0.264478;,
         0.581903; 0.260648;,
         0.174116; 0.539756;,
         0.207152; 0.572454;,
         0.272820; 0.523531;,
         0.264404; 0.480088;,
         0.616614; 0.364149;,
         0.621862; 0.360944;,
         0.591858; 0.305449;,
         0.586181; 0.303091;,
         0.842049; 0.727421;,
         0.836675; 0.724431;,
         0.788866; 0.803547;,
         0.794444; 0.800961;,
         0.114660; 0.193607;,
         0.158985; 0.207412;,
         0.158985; 0.093322;,
         0.119421; 0.069075;,
         0.794444; 0.800961;,
         0.788866; 0.803547;,
         0.783921; 0.847806;,
         0.788577; 0.843784;,
         0.425591; 0.393445;,
         0.418983; 0.436468;,
         0.458654; 0.456515;,
         0.462398; 0.413759;,
         0.264404; 0.480088;,
         0.272820; 0.523531;,
         0.310100; 0.502448;,
         0.304517; 0.459113;,
         0.625989; 0.295711;,
         0.630722; 0.299641;,
         0.674962; 0.169946;,
         0.670284; 0.165985;,
         0.670089; 0.121297;,
         0.630540; 0.145705;,
         0.642500; 0.153321;,
         0.670306; 0.134270;,
         0.017089; 0.040366;,
         0.057939; 0.018300;,
         0.048922; 0.011079;,
         0.016711; 0.028478;,
         0.107647; 0.022347;,
         0.062066; 0.013419;,
         0.066789; 0.120540;,
         0.107647; 0.142740;,
         0.107647; 0.142740;,
         0.066789; 0.120540;,
         0.066103; 0.132721;,
         0.098320; 0.150226;,
         0.608962; 0.122953;,
         0.613709; 0.126834;,
         0.621862; 0.119545;,
         0.618119; 0.116485;,
         0.834327; 0.987271;,
         0.829753; 0.991342;,
         0.838442; 0.997933;,
         0.842049; 0.994723;,
         0.003635; 0.498769;,
         0.008245; 0.498616;,
         0.008245; 0.461986;,
         0.003635; 0.462139;,
         0.012373; 0.150226;,
         0.057939; 0.141444;,
         0.057939; 0.018300;,
         0.017089; 0.040366;,
         0.934065; 0.781223;,
         0.929124; 0.784886;,
         0.956322; 0.909194;,
         0.961214; 0.905505;,
         0.788577; 0.843784;,
         0.783921; 0.847806;,
         0.829753; 0.991342;,
         0.834327; 0.987271;,
         0.581903; 0.260648;,
         0.586715; 0.264478;,
         0.613709; 0.126834;,
         0.608962; 0.122953;,
         0.466108; 0.632677;,
         0.469659; 0.632666;,
         0.469659; 0.604779;,
         0.466108; 0.604789;,
         0.303600; 0.680984;,
         0.306624; 0.686345;,
         0.327321; 0.681678;,
         0.324899; 0.677383;,
         0.898678; 0.502177;,
         0.870613; 0.522699;,
         0.880733; 0.541129;,
         0.903215; 0.524690;,
         0.181304; 0.036230;,
         0.209203; 0.056985;,
         0.213437; 0.035411;,
         0.191089; 0.018785;,
         0.902477; 0.073129;,
         0.874241; 0.052844;,
         0.867179; 0.097260;,
         0.906977; 0.125851;,
         0.459711; 0.994354;,
         0.462754; 0.989005;,
         0.421408; 0.975526;,
         0.418364; 0.980875;,
         0.589809; 0.094882;,
         0.617622; 0.074014;,
         0.621862; 0.021592;,
         0.582659; 0.051006;,
         0.600539; 0.694538;,
         0.596965; 0.689528;,
         0.556728; 0.707550;,
         0.560302; 0.712559;,
         0.600539; 0.694538;,
         0.620677; 0.687788;,
         0.617814; 0.683774;,
         0.596965; 0.689528;,
         0.731134; 0.421202;,
         0.704756; 0.493100;,
         0.765498; 0.496619;,
         0.780032; 0.424036;,
         0.363633; 0.914925;,
         0.337564; 0.808978;,
         0.331448; 0.809585;,
         0.357779; 0.916802;,
         0.700648; 0.995173;,
         0.685546; 0.919375;,
         0.624804; 0.922803;,
         0.651750; 0.997933;,
         0.556728; 0.707550;,
         0.502724; 0.777684;,
         0.508740; 0.778950;,
         0.560302; 0.712559;,
         0.421408; 0.975526;,
         0.363633; 0.914925;,
         0.357779; 0.916802;,
         0.418364; 0.980875;,
         0.712671; 0.602912;,
         0.733495; 0.676943;,
         0.780032; 0.679640;,
         0.759208; 0.605608;,
         0.704756; 0.493100;,
         0.712671; 0.602912;,
         0.759208; 0.605608;,
         0.765498; 0.496619;,
         0.685546; 0.919375;,
         0.679325; 0.809091;,
         0.632788; 0.811717;,
         0.624804; 0.922803;,
         0.502724; 0.777684;,
         0.487516; 0.887189;,
         0.493663; 0.887165;,
         0.508740; 0.778950;,
         0.518236; 0.965320;,
         0.599035; 0.995407;,
         0.599881; 0.989308;,
         0.524382; 0.965296;,
         0.679325; 0.809091;,
         0.700648; 0.734295;,
         0.654112; 0.736921;,
         0.632788; 0.811717;,
         0.487516; 0.887189;,
         0.518236; 0.965320;,
         0.524382; 0.965296;,
         0.493663; 0.887165;,
         0.337564; 0.808978;,
         0.359595; 0.727624;,
         0.353479; 0.728232;,
         0.331448; 0.809585;,
         0.220677; 0.376047;,
         0.206134; 0.354613;,
         0.175585; 0.319719;,
         0.174116; 0.373955;,
         0.359595; 0.727624;,
         0.430336; 0.694279;,
         0.428874; 0.688301;,
         0.353479; 0.728232;,
         0.301941; 0.454979;,
         0.220677; 0.376047;,
         0.174116; 0.373955;,
         0.255379; 0.452887;,
         0.415368; 0.460958;,
         0.331753; 0.543199;,
         0.378366; 0.542890;,
         0.461981; 0.460649;,
         0.206134; 0.354613;,
         0.263786; 0.310019;,
         0.258465; 0.266729;,
         0.175585; 0.319719;,
         0.331753; 0.543199;,
         0.331448; 0.597695;,
         0.363186; 0.563786;,
         0.378366; 0.542890;,
         0.599035; 0.995407;,
         0.619780; 0.997933;,
         0.620677; 0.991843;,
         0.599881; 0.989308;,
         0.430336; 0.694279;,
         0.483389; 0.680739;,
         0.481879; 0.674778;,
         0.428874; 0.688301;,
         0.937873; 0.744987;,
         0.929124; 0.784886;,
         0.934065; 0.781223;,
         0.943627; 0.742822;,
         0.331448; 0.597695;,
         0.417360; 0.654398;,
         0.423948; 0.610673;,
         0.363186; 0.563786;,
         0.963211; 0.689714;,
         0.937873; 0.744987;,
         0.943627; 0.742822;,
         0.968348; 0.693093;,
         0.683458; 0.408732;,
         0.640819; 0.340426;,
         0.635191; 0.337950;,
         0.678143; 0.411827;,
         0.640819; 0.340426;,
         0.630722; 0.299641;,
         0.625989; 0.295711;,
         0.635191; 0.337950;,
         0.263786; 0.310019;,
         0.301941; 0.294684;,
         0.299419; 0.251781;,
         0.258465; 0.266729;,
         0.417360; 0.654398;,
         0.458242; 0.670644;,
         0.461981; 0.627132;,
         0.423948; 0.610673;,
         0.961214; 0.905505;,
         0.956322; 0.909194;,
         0.964815; 0.916160;,
         0.968348; 0.913476;,
         0.119421; 0.069075;,
         0.158985; 0.093322;,
         0.158848; 0.080704;,
         0.131030; 0.061769;,
         0.670284; 0.165985;,
         0.674962; 0.169946;,
         0.683458; 0.160338;,
         0.680081; 0.157456;,
         0.470300; 0.670644;,
         0.470300; 0.636975;,
         0.466108; 0.636811;,
         0.466108; 0.670480;,
         0.670306; 0.009499;,
         0.625989; 0.023462;,
         0.630540; 0.145705;,
         0.670089; 0.121297;,
         0.469659; 0.600634;,
         0.469659; 0.572747;,
         0.466108; 0.572757;,
         0.466108; 0.600644;,
         0.459711; 0.994354;,
         0.480951; 0.997933;,
         0.483389; 0.993648;,
         0.462754; 0.989005;,
         0.902477; 0.073129;,
         0.906977; 0.050688;,
         0.884358; 0.034439;,
         0.874241; 0.052844;,
         0.589809; 0.094882;,
         0.599581; 0.112350;,
         0.621862; 0.095633;,
         0.617622; 0.074014;;
      } // End of Plane_008 UV coordinates
      MeshMaterialList { // Plane_008 material list
        1;
        168;
        0,
        0,
        0,
        0,
        0,
        0,
        0,
        0,
        0,
        0,
        0,
        0,
        0,
        0,
        0,
        0,
        0,
        0,
        0,
        0,
        0,
        0,
        0,
        0,
        0,
        0,
        0,
        0,
        0,
        0,
        0,
        0,
        0,
        0,
        0,
        0,
        0,
        0,
        0,
        0,
        0,
        0,
        0,
        0,
        0,
        0,
        0,
        0,
        0,
        0,
        0,
        0,
        0,
        0,
        0,
        0,
        0,
        0,
        0,
        0,
        0,
        0,
        0,
        0,
        0,
        0,
        0,
        0,
        0,
        0,
        0,
        0,
        0,
        0,
        0,
        0,
        0,
        0,
        0,
        0,
        0,
        0,
        0,
        0,
        0,
        0,
        0,
        0,
        0,
        0,
        0,
        0,
        0,
        0,
        0,
        0,
        0,
        0,
        0,
        0,
        0,
        0,
        0,
        0,
        0,
        0,
        0,
        0,
        0,
        0,
        0,
        0,
        0,
        0,
        0,
        0,
        0,
        0,
        0,
        0,
        0,
        0,
        0,
        0,
        0,
        0,
        0,
        0,
        0,
        0,
        0,
        0,
        0,
        0,
        0,
        0,
        0,
        0,
        0,
        0,
        0,
        0,
        0,
        0,
        0,
        0,
        0,
        0,
        0,
        0,
        0,
        0,
        0,
        0,
        0,
        0,
        0,
        0,
        0,
        0,
        0,
        0,
        0,
        0,
        0,
        0,
        0,
        0;
        Material Material_001 {
           0.640000; 0.640000; 0.640000; 1.000000;;
           249.019608;
           0.400000; 0.400000; 0.400000;;
           0.000000; 0.000000; 0.000000;;
        }
      } // End of Plane_008 material list
    } // End of Plane_008 mesh
  } // End of Plane_008
} // End of Root
