xof 0303txt 0032

Frame Root {
  FrameTransformMatrix {
     1.000000, 0.000000, 0.000000, 0.000000,
     0.000000,-0.000000, 1.000000, 0.000000,
     0.000000, 1.000000, 0.000000, 0.000000,
     0.000000, 0.000000, 0.000000, 1.000000;;
  }
  Frame Cube {
    FrameTransformMatrix {
       1.000000, 0.000000, 0.000000, 0.000000,
       0.000000, 1.000000, 0.000000, 0.000000,
       0.000000, 0.000000, 1.000000, 0.000000,
       0.000000, 0.000000, 0.000000, 1.000000;;
    }
    Mesh { // Cube mesh
      552;
       0.121964; 0.052061; 0.026095;,
       0.080325; 0.049835; 0.026095;,
       0.079827; 0.059159; 0.003946;,
       0.121466; 0.061385; 0.003946;,
       0.121466; 0.061385; 0.003946;,
       0.079827; 0.059159; 0.003946;,
       0.079503; 0.065214; 0.003946;,
       0.121142; 0.067440; 0.003946;,
       0.121142; 0.067440; 0.003946;,
       0.079503; 0.065214; 0.003946;,
       0.080016; 0.055614; 0.027903;,
       0.121655; 0.057840; 0.027903;,
       0.081270; 0.032174; 0.046676;,
       0.082340; 0.012149; 0.051426;,
       0.063821; 0.011159; 0.056140;,
       0.062751; 0.031184; 0.046676;,
       0.121466; 0.061385; 0.003946;,
       0.121142; 0.067440; 0.003946;,
       0.121655; 0.057840; 0.027903;,
       0.121964; 0.052061; 0.026095;,
       0.079827; 0.059159; 0.003946;,
       0.080325; 0.049835; 0.026095;,
       0.061806; 0.048844; 0.026095;,
       0.061308; 0.058169; 0.003946;,
       0.122777; 0.036861; 0.052216;,
       0.081138; 0.034635; 0.052216;,
       0.082392; 0.011173; 0.057410;,
       0.124031; 0.013400; 0.057410;,
       0.121655; 0.057840; 0.027903;,
       0.080016; 0.055614; 0.027903;,
       0.081138; 0.034635; 0.052216;,
       0.122777; 0.036861; 0.052216;,
       0.080325; 0.049835; 0.026095;,
       0.121964; 0.052061; 0.026095;,
       0.122908; 0.034400; 0.046676;,
       0.081270; 0.032174; 0.046676;,
       0.121964; 0.052061; 0.026095;,
       0.121655; 0.057840; 0.027903;,
       0.122777; 0.036861; 0.052216;,
       0.122908; 0.034400; 0.046676;,
       0.084228; 0.011947; 0.053277;,
       0.122123; 0.013973; 0.053277;,
       0.125653;-0.052058; 0.045026;,
       0.087759;-0.054084; 0.045026;,
       0.122908; 0.034400; 0.046676;,
       0.122777; 0.036861; 0.052216;,
       0.124031; 0.013400; 0.057410;,
       0.123979; 0.014375; 0.051426;,
       0.081270; 0.032174; 0.046676;,
       0.122908; 0.034400; 0.046676;,
       0.123979; 0.014375; 0.051426;,
       0.082340; 0.012149; 0.051426;,
       0.082392; 0.011173; 0.057410;,
       0.081138; 0.034635; 0.052216;,
       0.062619; 0.033645; 0.052216;,
       0.063873; 0.010183; 0.062124;,
       0.062619; 0.033645; 0.052216;,
       0.061497; 0.054624; 0.027903;,
       0.025051; 0.052675; 0.027903;,
       0.026173; 0.031696; 0.052216;,
       0.063873; 0.010183; 0.062124;,
       0.062619; 0.033645; 0.052216;,
       0.026173; 0.031696; 0.052216;,
       0.027427; 0.008235; 0.062123;,
       0.060984; 0.064224; 0.003946;,
       0.061308; 0.058169; 0.003946;,
       0.024862; 0.056221; 0.003946;,
       0.024538; 0.062275; 0.003946;,
       0.079503; 0.065214; 0.003946;,
       0.079827; 0.059159; 0.003946;,
       0.061308; 0.058169; 0.003946;,
       0.060984; 0.064224; 0.003946;,
       0.080325; 0.049835; 0.026095;,
       0.081270; 0.032174; 0.046676;,
       0.062751; 0.031184; 0.046676;,
       0.061806; 0.048844; 0.026095;,
       0.082340; 0.012149; 0.051426;,
       0.082392; 0.011173; 0.057410;,
       0.063873; 0.010183; 0.062124;,
       0.063821; 0.011159; 0.056140;,
       0.080016; 0.055614; 0.027903;,
       0.079503; 0.065214; 0.003946;,
       0.060984; 0.064224; 0.003946;,
       0.061497; 0.054624; 0.027903;,
       0.081138; 0.034635; 0.052216;,
       0.080016; 0.055614; 0.027903;,
       0.061497; 0.054624; 0.027903;,
       0.062619; 0.033645; 0.052216;,
       0.025051; 0.052675; 0.027903;,
       0.025360; 0.046896; 0.026095;,
       0.026305; 0.029235; 0.046676;,
       0.026173; 0.031696; 0.052216;,
       0.024538; 0.062275; 0.003946;,
       0.024862; 0.056221; 0.003946;,
       0.025360; 0.046896; 0.026095;,
       0.025051; 0.052675; 0.027903;,
       0.026173; 0.031696; 0.052216;,
       0.026305; 0.029235; 0.046676;,
       0.027375; 0.009210; 0.056140;,
       0.027427; 0.008235; 0.062123;,
       0.061497; 0.054624; 0.027903;,
       0.060984; 0.064224; 0.003946;,
       0.024538; 0.062275; 0.003946;,
       0.025051; 0.052675; 0.027903;,
       0.061308; 0.058169; 0.003946;,
       0.061806; 0.048844; 0.026095;,
       0.025360; 0.046896; 0.026095;,
       0.024862; 0.056221; 0.003946;,
       0.062751; 0.031184; 0.046676;,
       0.063821; 0.011159; 0.056140;,
       0.027375; 0.009210; 0.056140;,
       0.026305; 0.029235; 0.046676;,
       0.029147; 0.008607; 0.060409;,
       0.029125; 0.009024; 0.057854;,
       0.031399;-0.033510; 0.058653;,
       0.031421;-0.033927; 0.061208;,
       0.061806; 0.048844; 0.026095;,
       0.062751; 0.031184; 0.046676;,
       0.026305; 0.029235; 0.046676;,
       0.025360; 0.046896; 0.026095;,
       0.062124; 0.010370; 0.060409;,
       0.062101; 0.010787; 0.057854;,
       0.063821; 0.011159; 0.056140;,
       0.063873; 0.010183; 0.062124;,
       0.029125; 0.009024; 0.057854;,
       0.029147; 0.008607; 0.060409;,
       0.027427; 0.008235; 0.062123;,
       0.027375; 0.009210; 0.056140;,
       0.029147; 0.008607; 0.060409;,
       0.062124; 0.010370; 0.060409;,
       0.063873; 0.010183; 0.062124;,
       0.027427; 0.008235; 0.062123;,
       0.062101; 0.010787; 0.057854;,
       0.029125; 0.009024; 0.057854;,
       0.027375; 0.009210; 0.056140;,
       0.063821; 0.011159; 0.056140;,
       0.031399;-0.033510; 0.058653;,
       0.064375;-0.031747; 0.058653;,
       0.066492;-0.071333; 0.040361;,
       0.033515;-0.073096; 0.040361;,
       0.062124; 0.010370; 0.060409;,
       0.029147; 0.008607; 0.060409;,
       0.031421;-0.033927; 0.061208;,
       0.064398;-0.032164; 0.061208;,
       0.062101; 0.010787; 0.057854;,
       0.062124; 0.010370; 0.060409;,
       0.064398;-0.032164; 0.061208;,
       0.064375;-0.031747; 0.058653;,
       0.029125; 0.009024; 0.057854;,
       0.062101; 0.010787; 0.057854;,
       0.064375;-0.031747; 0.058653;,
       0.031399;-0.033510; 0.058653;,
       0.066626;-0.073841; 0.040990;,
       0.033649;-0.075604; 0.040990;,
       0.033701;-0.076574; 0.003923;,
       0.066678;-0.074811; 0.003923;,
       0.031421;-0.033927; 0.061208;,
       0.031399;-0.033510; 0.058653;,
       0.033515;-0.073096; 0.040361;,
       0.033649;-0.075604; 0.040990;,
       0.064398;-0.032164; 0.061208;,
       0.031421;-0.033927; 0.061208;,
       0.033649;-0.075604; 0.040990;,
       0.066626;-0.073841; 0.040990;,
       0.064375;-0.031747; 0.058653;,
       0.064398;-0.032164; 0.061208;,
       0.066626;-0.073841; 0.040990;,
       0.066492;-0.071333; 0.040361;,
       0.066544;-0.072303; 0.003294;,
       0.066678;-0.074811; 0.003923;,
       0.033701;-0.076574; 0.003923;,
       0.033567;-0.074066; 0.003294;,
       0.066492;-0.071333; 0.040361;,
       0.066626;-0.073841; 0.040990;,
       0.066678;-0.074811; 0.003923;,
       0.066544;-0.072303; 0.003294;,
       0.033515;-0.073096; 0.040361;,
       0.066492;-0.071333; 0.040361;,
       0.066544;-0.072303; 0.003294;,
       0.033567;-0.074066; 0.003294;,
       0.033649;-0.075604; 0.040990;,
       0.033515;-0.073096; 0.040361;,
       0.033567;-0.074066; 0.003294;,
       0.033701;-0.076574; 0.003923;,
       0.122123; 0.013973; 0.053277;,
       0.084228; 0.011947; 0.053277;,
       0.082340; 0.012149; 0.051426;,
       0.123979; 0.014375; 0.051426;,
       0.084248; 0.011575; 0.055560;,
       0.122143; 0.013601; 0.055560;,
       0.124031; 0.013400; 0.057410;,
       0.082392; 0.011173; 0.057410;,
       0.122143; 0.013601; 0.055560;,
       0.122123; 0.013973; 0.053277;,
       0.123979; 0.014375; 0.051426;,
       0.124031; 0.013400; 0.057410;,
       0.084228; 0.011947; 0.053277;,
       0.084248; 0.011575; 0.055560;,
       0.082392; 0.011173; 0.057410;,
       0.082340; 0.012149; 0.051426;,
       0.087573;-0.050619; 0.049331;,
       0.087759;-0.054084; 0.045026;,
       0.088941;-0.076199; 0.025856;,
       0.089059;-0.078405; 0.026543;,
       0.084248; 0.011575; 0.055560;,
       0.084228; 0.011947; 0.053277;,
       0.087759;-0.054084; 0.045026;,
       0.087573;-0.050619; 0.049331;,
       0.122143; 0.013601; 0.055560;,
       0.084248; 0.011575; 0.055560;,
       0.087573;-0.050619; 0.049331;,
       0.125468;-0.048593; 0.049331;,
       0.122123; 0.013973; 0.053277;,
       0.122143; 0.013601; 0.055560;,
       0.125468;-0.048593; 0.049331;,
       0.125653;-0.052058; 0.045026;,
       0.126835;-0.074173; 0.025856;,
       0.126953;-0.076379; 0.026543;,
       0.126987;-0.077015; 0.003560;,
       0.126869;-0.074809; 0.002873;,
       0.125468;-0.048593; 0.049331;,
       0.087573;-0.050619; 0.049331;,
       0.089059;-0.078405; 0.026543;,
       0.126953;-0.076379; 0.026543;,
       0.125653;-0.052058; 0.045026;,
       0.125468;-0.048593; 0.049331;,
       0.126953;-0.076379; 0.026543;,
       0.126835;-0.074173; 0.025856;,
       0.087759;-0.054084; 0.045026;,
       0.125653;-0.052058; 0.045026;,
       0.126835;-0.074173; 0.025856;,
       0.088941;-0.076199; 0.025856;,
       0.126987;-0.077015; 0.003560;,
       0.089093;-0.079041; 0.003560;,
       0.088975;-0.076835; 0.002873;,
       0.126869;-0.074809; 0.002873;,
       0.088941;-0.076199; 0.025856;,
       0.126835;-0.074173; 0.025856;,
       0.126869;-0.074809; 0.002873;,
       0.088975;-0.076835; 0.002873;,
       0.089059;-0.078405; 0.026543;,
       0.088941;-0.076199; 0.025856;,
       0.088975;-0.076835; 0.002873;,
       0.089093;-0.079041; 0.003560;,
       0.126953;-0.076379; 0.026543;,
       0.089059;-0.078405; 0.026543;,
       0.089093;-0.079041; 0.003560;,
       0.126987;-0.077015; 0.003560;,
       0.121964; 0.052061;-0.018036;,
       0.121466; 0.061385; 0.004112;,
       0.079827; 0.059159; 0.004112;,
       0.080325; 0.049835;-0.018036;,
       0.121466; 0.061385; 0.004112;,
       0.121142; 0.067440; 0.004112;,
       0.079503; 0.065214; 0.004112;,
       0.079827; 0.059159; 0.004112;,
       0.121142; 0.067440; 0.004112;,
       0.121655; 0.057840;-0.019844;,
       0.080016; 0.055614;-0.019844;,
       0.079503; 0.065214; 0.004112;,
       0.081270; 0.032174;-0.038618;,
       0.062751; 0.031184;-0.038618;,
       0.063821; 0.011159;-0.048081;,
       0.082340; 0.012149;-0.043368;,
       0.121466; 0.061385; 0.004112;,
       0.121964; 0.052061;-0.018036;,
       0.121655; 0.057840;-0.019844;,
       0.121142; 0.067440; 0.004112;,
       0.079827; 0.059159; 0.004112;,
       0.061308; 0.058169; 0.004112;,
       0.061806; 0.048844;-0.018036;,
       0.080325; 0.049835;-0.018036;,
       0.122777; 0.036861;-0.044158;,
       0.124031; 0.013400;-0.049352;,
       0.082392; 0.011173;-0.049352;,
       0.081138; 0.034635;-0.044158;,
       0.121655; 0.057840;-0.019844;,
       0.122777; 0.036861;-0.044158;,
       0.081138; 0.034635;-0.044158;,
       0.080016; 0.055614;-0.019844;,
       0.080325; 0.049835;-0.018036;,
       0.081270; 0.032174;-0.038618;,
       0.122908; 0.034400;-0.038618;,
       0.121964; 0.052061;-0.018036;,
       0.121964; 0.052061;-0.018036;,
       0.122908; 0.034400;-0.038618;,
       0.122777; 0.036861;-0.044158;,
       0.121655; 0.057840;-0.019844;,
       0.084228; 0.011947;-0.045218;,
       0.087759;-0.054084;-0.037076;,
       0.125653;-0.052058;-0.037076;,
       0.122123; 0.013973;-0.045218;,
       0.122908; 0.034400;-0.038618;,
       0.123979; 0.014375;-0.043368;,
       0.124031; 0.013400;-0.049352;,
       0.122777; 0.036861;-0.044158;,
       0.081270; 0.032174;-0.038618;,
       0.082340; 0.012149;-0.043368;,
       0.123979; 0.014375;-0.043368;,
       0.122908; 0.034400;-0.038618;,
       0.082392; 0.011173;-0.049352;,
       0.063873; 0.010183;-0.054065;,
       0.062619; 0.033645;-0.044158;,
       0.081138; 0.034635;-0.044158;,
       0.062619; 0.033645;-0.044158;,
       0.026173; 0.031696;-0.044158;,
       0.025051; 0.052675;-0.019844;,
       0.061497; 0.054624;-0.019844;,
       0.063873; 0.010183;-0.054065;,
       0.027427; 0.008235;-0.054065;,
       0.026173; 0.031696;-0.044158;,
       0.062619; 0.033645;-0.044158;,
       0.060984; 0.064224; 0.004112;,
       0.024538; 0.062275; 0.004112;,
       0.024862; 0.056221; 0.004112;,
       0.061308; 0.058169; 0.004112;,
       0.079503; 0.065214; 0.004112;,
       0.060984; 0.064224; 0.004112;,
       0.061308; 0.058169; 0.004112;,
       0.079827; 0.059159; 0.004112;,
       0.080325; 0.049835;-0.018036;,
       0.061806; 0.048844;-0.018036;,
       0.062751; 0.031184;-0.038618;,
       0.081270; 0.032174;-0.038618;,
       0.082340; 0.012149;-0.043368;,
       0.063821; 0.011159;-0.048081;,
       0.063873; 0.010183;-0.054065;,
       0.082392; 0.011173;-0.049352;,
       0.080016; 0.055614;-0.019844;,
       0.061497; 0.054624;-0.019844;,
       0.060984; 0.064224; 0.004112;,
       0.079503; 0.065214; 0.004112;,
       0.081138; 0.034635;-0.044158;,
       0.062619; 0.033645;-0.044158;,
       0.061497; 0.054624;-0.019844;,
       0.080016; 0.055614;-0.019844;,
       0.025051; 0.052675;-0.019844;,
       0.026173; 0.031696;-0.044158;,
       0.026305; 0.029235;-0.038618;,
       0.025360; 0.046896;-0.018036;,
       0.024538; 0.062275; 0.004112;,
       0.025051; 0.052675;-0.019844;,
       0.025360; 0.046896;-0.018036;,
       0.024862; 0.056221; 0.004112;,
       0.026173; 0.031696;-0.044158;,
       0.027427; 0.008235;-0.054065;,
       0.027375; 0.009210;-0.048081;,
       0.026305; 0.029235;-0.038618;,
       0.061497; 0.054624;-0.019844;,
       0.025051; 0.052675;-0.019844;,
       0.024538; 0.062275; 0.004112;,
       0.060984; 0.064224; 0.004112;,
       0.061308; 0.058169; 0.004112;,
       0.024862; 0.056221; 0.004112;,
       0.025360; 0.046896;-0.018036;,
       0.061806; 0.048844;-0.018036;,
       0.062751; 0.031184;-0.038618;,
       0.026305; 0.029235;-0.038618;,
       0.027375; 0.009210;-0.048081;,
       0.063821; 0.011159;-0.048081;,
       0.029147; 0.008607;-0.052350;,
       0.031421;-0.033927;-0.053150;,
       0.031399;-0.033510;-0.050595;,
       0.029125; 0.009024;-0.049796;,
       0.061806; 0.048844;-0.018036;,
       0.025360; 0.046896;-0.018036;,
       0.026305; 0.029235;-0.038618;,
       0.062751; 0.031184;-0.038618;,
       0.062124; 0.010370;-0.052350;,
       0.063873; 0.010183;-0.054065;,
       0.063821; 0.011159;-0.048081;,
       0.062101; 0.010787;-0.049796;,
       0.029125; 0.009024;-0.049796;,
       0.027375; 0.009210;-0.048081;,
       0.027427; 0.008235;-0.054065;,
       0.029147; 0.008607;-0.052350;,
       0.029147; 0.008607;-0.052350;,
       0.027427; 0.008235;-0.054065;,
       0.063873; 0.010183;-0.054065;,
       0.062124; 0.010370;-0.052350;,
       0.062101; 0.010787;-0.049796;,
       0.063821; 0.011159;-0.048081;,
       0.027375; 0.009210;-0.048081;,
       0.029125; 0.009024;-0.049796;,
       0.031399;-0.033510;-0.050595;,
       0.033515;-0.073096;-0.032302;,
       0.066492;-0.071333;-0.032302;,
       0.064375;-0.031747;-0.050595;,
       0.062124; 0.010370;-0.052350;,
       0.064398;-0.032164;-0.053150;,
       0.031421;-0.033927;-0.053150;,
       0.029147; 0.008607;-0.052350;,
       0.062101; 0.010787;-0.049796;,
       0.064375;-0.031747;-0.050595;,
       0.064398;-0.032164;-0.053150;,
       0.062124; 0.010370;-0.052350;,
       0.029125; 0.009024;-0.049796;,
       0.031399;-0.033510;-0.050595;,
       0.064375;-0.031747;-0.050595;,
       0.062101; 0.010787;-0.049796;,
       0.066626;-0.073841;-0.032931;,
       0.066678;-0.074811; 0.004136;,
       0.033701;-0.076574; 0.004136;,
       0.033649;-0.075604;-0.032931;,
       0.031421;-0.033927;-0.053150;,
       0.033649;-0.075604;-0.032931;,
       0.033515;-0.073096;-0.032302;,
       0.031399;-0.033510;-0.050595;,
       0.064398;-0.032164;-0.053150;,
       0.066626;-0.073841;-0.032931;,
       0.033649;-0.075604;-0.032931;,
       0.031421;-0.033927;-0.053150;,
       0.064375;-0.031747;-0.050595;,
       0.066492;-0.071333;-0.032302;,
       0.066626;-0.073841;-0.032931;,
       0.064398;-0.032164;-0.053150;,
       0.066544;-0.072303; 0.004765;,
       0.033567;-0.074066; 0.004765;,
       0.033701;-0.076574; 0.004136;,
       0.066678;-0.074811; 0.004136;,
       0.066492;-0.071333;-0.032302;,
       0.066544;-0.072303; 0.004765;,
       0.066678;-0.074811; 0.004136;,
       0.066626;-0.073841;-0.032931;,
       0.033515;-0.073096;-0.032302;,
       0.033567;-0.074066; 0.004765;,
       0.066544;-0.072303; 0.004765;,
       0.066492;-0.071333;-0.032302;,
       0.033649;-0.075604;-0.032931;,
       0.033701;-0.076574; 0.004136;,
       0.033567;-0.074066; 0.004765;,
       0.033515;-0.073096;-0.032302;,
       0.122123; 0.013973;-0.045218;,
       0.123979; 0.014375;-0.043368;,
       0.082340; 0.012149;-0.043368;,
       0.084228; 0.011947;-0.045218;,
       0.084248; 0.011575;-0.047501;,
       0.082392; 0.011173;-0.049352;,
       0.124031; 0.013400;-0.049352;,
       0.122143; 0.013601;-0.047501;,
       0.122143; 0.013601;-0.047501;,
       0.124031; 0.013400;-0.049352;,
       0.123979; 0.014375;-0.043368;,
       0.122123; 0.013973;-0.045218;,
       0.084228; 0.011947;-0.045218;,
       0.082340; 0.012149;-0.043368;,
       0.082392; 0.011173;-0.049352;,
       0.084248; 0.011575;-0.047501;,
       0.087573;-0.050619;-0.041272;,
       0.089059;-0.078405;-0.018484;,
       0.088941;-0.076199;-0.017797;,
       0.087759;-0.054084;-0.037076;,
       0.084248; 0.011575;-0.047501;,
       0.087573;-0.050619;-0.041272;,
       0.087759;-0.054084;-0.037076;,
       0.084228; 0.011947;-0.045218;,
       0.122143; 0.013601;-0.047501;,
       0.125468;-0.048593;-0.041272;,
       0.087573;-0.050619;-0.041272;,
       0.084248; 0.011575;-0.047501;,
       0.122123; 0.013973;-0.045218;,
       0.125653;-0.052058;-0.037076;,
       0.125468;-0.048593;-0.041272;,
       0.122143; 0.013601;-0.047501;,
       0.126835;-0.074173;-0.017797;,
       0.126869;-0.074809; 0.005186;,
       0.126987;-0.077015; 0.004499;,
       0.126953;-0.076379;-0.018484;,
       0.125468;-0.048593;-0.041272;,
       0.126953;-0.076379;-0.018484;,
       0.089059;-0.078405;-0.018484;,
       0.087573;-0.050619;-0.041272;,
       0.125653;-0.052058;-0.037076;,
       0.126835;-0.074173;-0.017797;,
       0.126953;-0.076379;-0.018484;,
       0.125468;-0.048593;-0.041272;,
       0.087759;-0.054084;-0.037076;,
       0.088941;-0.076199;-0.017797;,
       0.126835;-0.074173;-0.017797;,
       0.125653;-0.052058;-0.037076;,
       0.126987;-0.077015; 0.004499;,
       0.126869;-0.074809; 0.005186;,
       0.088975;-0.076835; 0.005186;,
       0.089093;-0.079041; 0.004499;,
       0.088941;-0.076199;-0.017797;,
       0.088975;-0.076835; 0.005186;,
       0.126869;-0.074809; 0.005186;,
       0.126835;-0.074173;-0.017797;,
       0.089059;-0.078405;-0.018484;,
       0.089093;-0.079041; 0.004499;,
       0.088975;-0.076835; 0.005186;,
       0.088941;-0.076199;-0.017797;,
       0.126953;-0.076379;-0.018484;,
       0.126987;-0.077015; 0.004499;,
       0.089093;-0.079041; 0.004499;,
       0.089059;-0.078405;-0.018484;,
       0.027397; 0.032801;-0.048647;,
       0.027397; 0.032801;-0.069245;,
       0.016268; 0.022684;-0.066940;,
       0.016268; 0.022684;-0.050952;,
       0.027397; 0.032801;-0.069245;,
       0.027397; 0.032801;-0.048647;,
       0.133973; 0.032801;-0.048647;,
       0.133973; 0.032801;-0.069245;,
       0.133973; 0.032801;-0.048647;,
       0.133973;-0.057594;-0.048647;,
       0.137843;-0.049375;-0.050520;,
       0.137843; 0.024582;-0.050520;,
       0.133973;-0.057594;-0.069245;,
       0.133973;-0.057594;-0.048647;,
       0.027397;-0.057594;-0.048647;,
       0.027397;-0.057594;-0.069245;,
       0.027397; 0.032801;-0.069245;,
       0.133973; 0.032801;-0.069245;,
       0.133973;-0.057594;-0.069245;,
       0.027397;-0.057594;-0.069245;,
       0.133973; 0.032801;-0.048647;,
       0.027397; 0.032801;-0.048647;,
       0.027397;-0.057594;-0.048647;,
       0.133973;-0.057594;-0.048647;,
       0.016268;-0.047477;-0.066940;,
       0.016268;-0.047477;-0.050952;,
       0.016268; 0.022684;-0.050952;,
       0.016268; 0.022684;-0.066940;,
       0.027397;-0.057594;-0.069245;,
       0.027397;-0.057594;-0.048647;,
       0.016268;-0.047477;-0.050952;,
       0.016268;-0.047477;-0.066940;,
       0.027397;-0.057594;-0.048647;,
       0.027397; 0.032801;-0.048647;,
       0.016268; 0.022684;-0.050952;,
       0.016268;-0.047477;-0.050952;,
       0.027397; 0.032801;-0.069245;,
       0.027397;-0.057594;-0.069245;,
       0.016268;-0.047477;-0.066940;,
       0.016268; 0.022684;-0.066940;,
       0.137843; 0.024582;-0.067372;,
       0.137843; 0.024582;-0.050520;,
       0.137843;-0.049375;-0.050520;,
       0.137843;-0.049375;-0.067372;,
       0.133973; 0.032801;-0.069245;,
       0.133973; 0.032801;-0.048647;,
       0.137843; 0.024582;-0.050520;,
       0.137843; 0.024582;-0.067372;,
       0.133973;-0.057594;-0.048647;,
       0.133973;-0.057594;-0.069245;,
       0.137843;-0.049375;-0.067372;,
       0.137843;-0.049375;-0.050520;,
       0.133973;-0.057594;-0.069245;,
       0.133973; 0.032801;-0.069245;,
       0.137843; 0.024582;-0.067372;,
       0.137843;-0.049375;-0.067372;;
      138;
      4;3,2,1,0;,
      4;7,6,5,4;,
      4;11,10,9,8;,
      4;15,14,13,12;,
      4;19,18,17,16;,
      4;23,22,21,20;,
      4;27,26,25,24;,
      4;31,30,29,28;,
      4;35,34,33,32;,
      4;39,38,37,36;,
      4;43,42,41,40;,
      4;47,46,45,44;,
      4;51,50,49,48;,
      4;55,54,53,52;,
      4;59,58,57,56;,
      4;63,62,61,60;,
      4;67,66,65,64;,
      4;71,70,69,68;,
      4;75,74,73,72;,
      4;79,78,77,76;,
      4;83,82,81,80;,
      4;87,86,85,84;,
      4;91,90,89,88;,
      4;95,94,93,92;,
      4;99,98,97,96;,
      4;103,102,101,100;,
      4;107,106,105,104;,
      4;111,110,109,108;,
      4;115,114,113,112;,
      4;119,118,117,116;,
      4;123,122,121,120;,
      4;127,126,125,124;,
      4;131,130,129,128;,
      4;135,134,133,132;,
      4;139,138,137,136;,
      4;143,142,141,140;,
      4;147,146,145,144;,
      4;151,150,149,148;,
      4;155,154,153,152;,
      4;159,158,157,156;,
      4;163,162,161,160;,
      4;167,166,165,164;,
      4;171,170,169,168;,
      4;175,174,173,172;,
      4;179,178,177,176;,
      4;183,182,181,180;,
      4;187,186,185,184;,
      4;191,190,189,188;,
      4;195,194,193,192;,
      4;199,198,197,196;,
      4;203,202,201,200;,
      4;207,206,205,204;,
      4;211,210,209,208;,
      4;215,214,213,212;,
      4;219,218,217,216;,
      4;223,222,221,220;,
      4;227,226,225,224;,
      4;231,230,229,228;,
      4;235,234,233,232;,
      4;239,238,237,236;,
      4;243,242,241,240;,
      4;247,246,245,244;,
      4;251,250,249,248;,
      4;255,254,253,252;,
      4;259,258,257,256;,
      4;263,262,261,260;,
      4;267,266,265,264;,
      4;271,270,269,268;,
      4;275,274,273,272;,
      4;279,278,277,276;,
      4;283,282,281,280;,
      4;287,286,285,284;,
      4;291,290,289,288;,
      4;295,294,293,292;,
      4;299,298,297,296;,
      4;303,302,301,300;,
      4;307,306,305,304;,
      4;311,310,309,308;,
      4;315,314,313,312;,
      4;319,318,317,316;,
      4;323,322,321,320;,
      4;327,326,325,324;,
      4;331,330,329,328;,
      4;335,334,333,332;,
      4;339,338,337,336;,
      4;343,342,341,340;,
      4;347,346,345,344;,
      4;351,350,349,348;,
      4;355,354,353,352;,
      4;359,358,357,356;,
      4;363,362,361,360;,
      4;367,366,365,364;,
      4;371,370,369,368;,
      4;375,374,373,372;,
      4;379,378,377,376;,
      4;383,382,381,380;,
      4;387,386,385,384;,
      4;391,390,389,388;,
      4;395,394,393,392;,
      4;399,398,397,396;,
      4;403,402,401,400;,
      4;407,406,405,404;,
      4;411,410,409,408;,
      4;415,414,413,412;,
      4;419,418,417,416;,
      4;423,422,421,420;,
      4;427,426,425,424;,
      4;431,430,429,428;,
      4;435,434,433,432;,
      4;439,438,437,436;,
      4;443,442,441,440;,
      4;447,446,445,444;,
      4;451,450,449,448;,
      4;455,454,453,452;,
      4;459,458,457,456;,
      4;463,462,461,460;,
      4;467,466,465,464;,
      4;471,470,469,468;,
      4;475,474,473,472;,
      4;479,478,477,476;,
      4;483,482,481,480;,
      4;487,486,485,484;,
      4;491,490,489,488;,
      4;495,494,493,492;,
      4;499,498,497,496;,
      4;503,502,501,500;,
      4;507,506,505,504;,
      4;511,510,509,508;,
      4;515,514,513,512;,
      4;519,518,517,516;,
      4;523,522,521,520;,
      4;527,526,525,524;,
      4;531,530,529,528;,
      4;535,534,533,532;,
      4;539,538,537,536;,
      4;543,542,541,540;,
      4;547,546,545,544;,
      4;551,550,549,548;;
      MeshNormals { // Cube normals
        510;
         0.772942;-0.527879;-0.351939;,
         0.045381;-0.848964;-0.526444;,
         0.029511;-0.552141;-0.833186;,
         0.624012;-0.409070;-0.665761;,
         0.624012;-0.409070;-0.665761;,
         0.029511;-0.552141;-0.833186;,
        -0.044221; 0.827174;-0.560137;,
         0.522446; 0.715262;-0.464125;,
         0.522446; 0.715262;-0.464125;,
        -0.044221; 0.827174;-0.560137;,
        -0.045564; 0.852779; 0.520218;,
         0.637104; 0.667531; 0.385327;,
        -0.002014;-0.543931;-0.839106;,
        -0.009064;-0.730766;-0.682546;,
        -0.001434;-0.803461;-0.595294;,
         0.000671;-0.586810;-0.809687;,
         0.624012;-0.409070;-0.665761;,
         0.522446; 0.715262;-0.464125;,
         0.637104; 0.667531; 0.385327;,
         0.772942;-0.527879;-0.351939;,
         0.029511;-0.552141;-0.833186;,
         0.045381;-0.848964;-0.526444;,
         0.045381;-0.848964;-0.526444;,
         0.029511;-0.552141;-0.833186;,
         0.620746; 0.426252; 0.657979;,
         0.002960; 0.533403; 0.845820;,
         0.071474;-0.701895; 0.708670;,
         0.589557;-0.538560; 0.601917;,
         0.637104; 0.667531; 0.385327;,
        -0.045564; 0.852779; 0.520218;,
         0.002960; 0.533403; 0.845820;,
         0.620746; 0.426252; 0.657979;,
         0.045381;-0.848964;-0.526444;,
         0.772942;-0.527879;-0.351939;,
         0.799829;-0.280618;-0.530564;,
        -0.002014;-0.543931;-0.839106;,
         0.772942;-0.527879;-0.351939;,
         0.637104; 0.667531; 0.385327;,
         0.620746; 0.426252; 0.657979;,
         0.799829;-0.280618;-0.530564;,
        -0.246193;-0.862880;-0.441359;,
         0.336772;-0.831721;-0.441359;,
         0.763939; 0.296335;-0.573168;,
        -0.791192; 0.213202;-0.573168;,
         0.799829;-0.280618;-0.530564;,
         0.620746; 0.426252; 0.657979;,
         0.589557;-0.538560; 0.601917;,
         0.631336;-0.551866;-0.544816;,
        -0.002014;-0.543931;-0.839106;,
         0.799829;-0.280618;-0.530564;,
         0.631336;-0.551866;-0.544816;,
        -0.009064;-0.730766;-0.682546;,
         0.071474;-0.701895; 0.708670;,
         0.002960; 0.533403; 0.845820;,
         0.000549; 0.571184; 0.820795;,
         0.073366;-0.600177; 0.796472;,
         0.000549; 0.571184; 0.820795;,
        -0.045564; 0.852779; 0.520218;,
        -0.704642; 0.595782; 0.385327;,
        -0.681936; 0.406293; 0.608142;,
         0.073366;-0.600177; 0.796472;,
         0.000549; 0.571184; 0.820795;,
        -0.681936; 0.406293; 0.608142;,
        -0.525132;-0.543901; 0.654469;,
        -0.044221; 0.827174;-0.560137;,
         0.029511;-0.552141;-0.833186;,
        -0.576830;-0.473281;-0.665761;,
        -0.595721; 0.655477;-0.464125;,
        -0.044221; 0.827174;-0.560137;,
         0.029511;-0.552141;-0.833186;,
         0.029511;-0.552141;-0.833186;,
        -0.044221; 0.827174;-0.560137;,
         0.045381;-0.848964;-0.526444;,
        -0.002014;-0.543931;-0.839106;,
         0.000671;-0.586810;-0.809687;,
         0.045381;-0.848964;-0.526444;,
        -0.009064;-0.730766;-0.682546;,
         0.071474;-0.701895; 0.708670;,
         0.073366;-0.600177; 0.796472;,
        -0.001434;-0.803461;-0.595294;,
        -0.045564; 0.852779; 0.520218;,
        -0.044221; 0.827174;-0.560137;,
        -0.044221; 0.827174;-0.560137;,
        -0.045564; 0.852779; 0.520218;,
         0.002960; 0.533403; 0.845820;,
        -0.045564; 0.852779; 0.520218;,
        -0.045564; 0.852779; 0.520218;,
         0.000549; 0.571184; 0.820795;,
        -0.704642; 0.595782; 0.385327;,
        -0.712241;-0.607288;-0.351939;,
        -0.734947;-0.435621;-0.519639;,
        -0.681936; 0.406293; 0.608142;,
        -0.595721; 0.655477;-0.464125;,
        -0.576830;-0.473281;-0.665761;,
        -0.712241;-0.607288;-0.351939;,
        -0.704642; 0.595782; 0.385327;,
        -0.681936; 0.406293; 0.608142;,
        -0.734947;-0.435621;-0.519639;,
        -0.581347;-0.661153;-0.474197;,
        -0.525132;-0.543901; 0.654469;,
        -0.045564; 0.852779; 0.520218;,
        -0.044221; 0.827174;-0.560137;,
        -0.595721; 0.655477;-0.464125;,
        -0.704642; 0.595782; 0.385327;,
         0.029511;-0.552141;-0.833186;,
         0.045381;-0.848964;-0.526444;,
        -0.712241;-0.607288;-0.351939;,
        -0.576830;-0.473281;-0.665761;,
         0.000671;-0.586810;-0.809687;,
        -0.001434;-0.803461;-0.595294;,
        -0.581347;-0.661153;-0.474197;,
        -0.734947;-0.435621;-0.519639;,
        -0.299936;-0.940092; 0.161962;,
        -0.210425;-0.877621;-0.430647;,
        -0.767083; 0.092349;-0.634816;,
        -0.648701;-0.196356; 0.735252;,
         0.045381;-0.848964;-0.526444;,
         0.000671;-0.586810;-0.809687;,
        -0.734947;-0.435621;-0.519639;,
        -0.712241;-0.607288;-0.351939;,
         0.398450;-0.902737; 0.161962;,
         0.302774;-0.850185;-0.430647;,
        -0.001434;-0.803461;-0.595294;,
         0.073366;-0.600177; 0.796472;,
        -0.210425;-0.877621;-0.430647;,
        -0.299936;-0.940092; 0.161962;,
        -0.525132;-0.543901; 0.654469;,
        -0.581347;-0.661153;-0.474197;,
        -0.299936;-0.940092; 0.161962;,
         0.398450;-0.902737; 0.161962;,
         0.073366;-0.600177; 0.796472;,
        -0.525132;-0.543901; 0.654469;,
         0.302774;-0.850185;-0.430647;,
        -0.210425;-0.877621;-0.430647;,
        -0.581347;-0.661153;-0.474197;,
        -0.001434;-0.803461;-0.595294;,
        -0.767083; 0.092349;-0.634816;,
         0.752861; 0.173589;-0.634846;,
         0.822230; 0.488357;-0.292215;,
        -0.869625; 0.397900;-0.292215;,
         0.398450;-0.902737; 0.161962;,
        -0.299936;-0.940092; 0.161962;,
        -0.648701;-0.196356; 0.735252;,
         0.665944;-0.126072; 0.735252;,
         0.302774;-0.850185;-0.430647;,
         0.398450;-0.902737; 0.161962;,
         0.665944;-0.126072; 0.735252;,
         0.752861; 0.173589;-0.634846;,
        -0.210425;-0.877621;-0.430647;,
         0.302774;-0.850185;-0.430647;,
         0.752861; 0.173589;-0.634846;,
        -0.767083; 0.092349;-0.634816;,
         0.641469;-0.634632; 0.430921;,
        -0.570147;-0.699423; 0.430921;,
        -0.554552;-0.673635;-0.488510;,
         0.623218;-0.610645;-0.488510;,
        -0.648701;-0.196356; 0.735252;,
        -0.767083; 0.092349;-0.634816;,
        -0.869625; 0.397900;-0.292215;,
        -0.570147;-0.699423; 0.430921;,
         0.665944;-0.126072; 0.735252;,
        -0.648701;-0.196356; 0.735252;,
        -0.570147;-0.699423; 0.430921;,
         0.641469;-0.634632; 0.430921;,
         0.752861; 0.173589;-0.634846;,
         0.665944;-0.126072; 0.735252;,
         0.641469;-0.634632; 0.430921;,
         0.822230; 0.488357;-0.292215;,
         0.539262; 0.527940;-0.656056;,
         0.623218;-0.610645;-0.488510;,
        -0.554552;-0.673635;-0.488510;,
        -0.592486; 0.467422;-0.656056;,
         0.822230; 0.488357;-0.292215;,
         0.641469;-0.634632; 0.430921;,
         0.623218;-0.610645;-0.488510;,
         0.539262; 0.527940;-0.656056;,
        -0.869625; 0.397900;-0.292215;,
         0.822230; 0.488357;-0.292215;,
         0.539262; 0.527940;-0.656056;,
        -0.592486; 0.467422;-0.656056;,
        -0.570147;-0.699423; 0.430921;,
        -0.869625; 0.397900;-0.292215;,
        -0.592486; 0.467422;-0.656056;,
        -0.554552;-0.673635;-0.488510;,
         0.336772;-0.831721;-0.441359;,
        -0.246193;-0.862880;-0.441359;,
        -0.009064;-0.730766;-0.682546;,
         0.631336;-0.551866;-0.544816;,
        -0.267281;-0.950835; 0.156346;,
         0.367138;-0.916898; 0.156346;,
         0.589557;-0.538560; 0.601917;,
         0.071474;-0.701895; 0.708670;,
         0.367138;-0.916898; 0.156346;,
         0.336772;-0.831721;-0.441359;,
         0.631336;-0.551866;-0.544816;,
         0.589557;-0.538560; 0.601917;,
        -0.246193;-0.862880;-0.441359;,
        -0.267281;-0.950835; 0.156346;,
         0.071474;-0.701895; 0.708670;,
        -0.009064;-0.730766;-0.682546;,
        -0.630940;-0.325938; 0.704001;,
        -0.791192; 0.213202;-0.573168;,
        -0.837123; 0.485946;-0.251106;,
        -0.586108;-0.733512; 0.344035;,
        -0.267281;-0.950835; 0.156346;,
        -0.246193;-0.862880;-0.441359;,
        -0.791192; 0.213202;-0.573168;,
        -0.630940;-0.325938; 0.704001;,
         0.367138;-0.916898; 0.156346;,
        -0.267281;-0.950835; 0.156346;,
        -0.630940;-0.325938; 0.704001;,
         0.662099;-0.256813; 0.704001;,
         0.336772;-0.831721;-0.441359;,
         0.367138;-0.916898; 0.156346;,
         0.662099;-0.256813; 0.704001;,
         0.763939; 0.296335;-0.573168;,
         0.780541; 0.572436;-0.251106;,
         0.661000;-0.666829; 0.344035;,
         0.627247;-0.622303;-0.468245;,
         0.537828; 0.509598;-0.671560;,
         0.662099;-0.256813; 0.704001;,
        -0.630940;-0.325938; 0.704001;,
        -0.586108;-0.733512; 0.344035;,
         0.661000;-0.666829; 0.344035;,
         0.763939; 0.296335;-0.573168;,
         0.662099;-0.256813; 0.704001;,
         0.661000;-0.666829; 0.344035;,
         0.780541; 0.572436;-0.251106;,
        -0.791192; 0.213202;-0.573168;,
         0.763939; 0.296335;-0.573168;,
         0.780541; 0.572436;-0.251106;,
        -0.837123; 0.485946;-0.251106;,
         0.627247;-0.622303;-0.468245;,
        -0.557329;-0.685629;-0.468245;,
        -0.589099; 0.449355;-0.671560;,
         0.537828; 0.509598;-0.671560;,
        -0.837123; 0.485946;-0.251106;,
         0.780541; 0.572436;-0.251106;,
         0.537828; 0.509598;-0.671560;,
        -0.589099; 0.449355;-0.671560;,
        -0.586108;-0.733512; 0.344035;,
        -0.837123; 0.485946;-0.251106;,
        -0.589099; 0.449355;-0.671560;,
        -0.557329;-0.685629;-0.468245;,
         0.661000;-0.666829; 0.344035;,
        -0.586108;-0.733512; 0.344035;,
        -0.557329;-0.685629;-0.468245;,
         0.627247;-0.622303;-0.468245;,
         0.772942;-0.527879; 0.351939;,
         0.624012;-0.409070; 0.665761;,
         0.029511;-0.552141; 0.833186;,
         0.045381;-0.848964; 0.526444;,
         0.624012;-0.409070; 0.665761;,
         0.522446; 0.715262; 0.464125;,
        -0.044221; 0.827174; 0.560137;,
         0.029511;-0.552141; 0.833186;,
         0.522446; 0.715262; 0.464125;,
         0.637104; 0.667531;-0.385327;,
        -0.045564; 0.852779;-0.520218;,
        -0.044221; 0.827174; 0.560137;,
        -0.002014;-0.543931; 0.839106;,
         0.000671;-0.586810; 0.809687;,
        -0.001434;-0.803461; 0.595294;,
        -0.009064;-0.730766; 0.682546;,
         0.624012;-0.409070; 0.665761;,
         0.772942;-0.527879; 0.351939;,
         0.637104; 0.667531;-0.385327;,
         0.522446; 0.715262; 0.464125;,
         0.029511;-0.552141; 0.833186;,
         0.029511;-0.552141; 0.833186;,
         0.045381;-0.848964; 0.526444;,
         0.045381;-0.848964; 0.526444;,
         0.620746; 0.426252;-0.657979;,
         0.589557;-0.538560;-0.601917;,
         0.071474;-0.701895;-0.708670;,
         0.002960; 0.533403;-0.845820;,
         0.637104; 0.667531;-0.385327;,
         0.620746; 0.426252;-0.657979;,
         0.002960; 0.533403;-0.845820;,
        -0.045564; 0.852779;-0.520218;,
         0.045381;-0.848964; 0.526444;,
        -0.002014;-0.543931; 0.839106;,
         0.799829;-0.280618; 0.530564;,
         0.772942;-0.527879; 0.351939;,
         0.772942;-0.527879; 0.351939;,
         0.799829;-0.280618; 0.530564;,
         0.620746; 0.426252;-0.657979;,
         0.637104; 0.667531;-0.385327;,
        -0.245766;-0.863033; 0.441267;,
        -0.791742; 0.213233; 0.572375;,
         0.764489; 0.296426; 0.572375;,
         0.336375;-0.831904; 0.441267;,
         0.799829;-0.280618; 0.530564;,
         0.631336;-0.551866; 0.544816;,
         0.589557;-0.538560;-0.601917;,
         0.620746; 0.426252;-0.657979;,
        -0.002014;-0.543931; 0.839106;,
        -0.009064;-0.730766; 0.682546;,
         0.631336;-0.551866; 0.544816;,
         0.799829;-0.280618; 0.530564;,
         0.071474;-0.701895;-0.708670;,
         0.073366;-0.600177;-0.796472;,
         0.000549; 0.571184;-0.820795;,
         0.002960; 0.533403;-0.845820;,
         0.000549; 0.571184;-0.820795;,
        -0.681936; 0.406293;-0.608142;,
        -0.704642; 0.595782;-0.385327;,
        -0.045564; 0.852779;-0.520218;,
         0.073366;-0.600177;-0.796472;,
        -0.525132;-0.543901;-0.654469;,
        -0.681936; 0.406293;-0.608142;,
         0.000549; 0.571184;-0.820795;,
        -0.044221; 0.827174; 0.560137;,
        -0.595721; 0.655477; 0.464125;,
        -0.576830;-0.473281; 0.665761;,
         0.029511;-0.552141; 0.833186;,
        -0.044221; 0.827174; 0.560137;,
        -0.044221; 0.827174; 0.560137;,
         0.029511;-0.552141; 0.833186;,
         0.029511;-0.552141; 0.833186;,
         0.045381;-0.848964; 0.526444;,
         0.045381;-0.848964; 0.526444;,
         0.000671;-0.586810; 0.809687;,
        -0.002014;-0.543931; 0.839106;,
        -0.009064;-0.730766; 0.682546;,
        -0.001434;-0.803461; 0.595294;,
         0.073366;-0.600177;-0.796472;,
         0.071474;-0.701895;-0.708670;,
        -0.045564; 0.852779;-0.520218;,
        -0.045564; 0.852779;-0.520218;,
        -0.044221; 0.827174; 0.560137;,
        -0.044221; 0.827174; 0.560137;,
         0.002960; 0.533403;-0.845820;,
         0.000549; 0.571184;-0.820795;,
        -0.045564; 0.852779;-0.520218;,
        -0.045564; 0.852779;-0.520218;,
        -0.704642; 0.595782;-0.385327;,
        -0.681936; 0.406293;-0.608142;,
        -0.734947;-0.435621; 0.519639;,
        -0.712241;-0.607288; 0.351939;,
        -0.595721; 0.655477; 0.464125;,
        -0.704642; 0.595782;-0.385327;,
        -0.712241;-0.607288; 0.351939;,
        -0.576830;-0.473281; 0.665761;,
        -0.681936; 0.406293;-0.608142;,
        -0.525132;-0.543901;-0.654469;,
        -0.581347;-0.661153; 0.474197;,
        -0.734947;-0.435621; 0.519639;,
        -0.045564; 0.852779;-0.520218;,
        -0.704642; 0.595782;-0.385327;,
        -0.595721; 0.655477; 0.464125;,
        -0.044221; 0.827174; 0.560137;,
         0.029511;-0.552141; 0.833186;,
        -0.576830;-0.473281; 0.665761;,
        -0.712241;-0.607288; 0.351939;,
         0.045381;-0.848964; 0.526444;,
         0.000671;-0.586810; 0.809687;,
        -0.734947;-0.435621; 0.519639;,
        -0.581347;-0.661153; 0.474197;,
        -0.001434;-0.803461; 0.595294;,
        -0.299936;-0.940092;-0.161962;,
        -0.648701;-0.196356;-0.735252;,
        -0.767083; 0.092349; 0.634816;,
        -0.210425;-0.877621; 0.430647;,
         0.045381;-0.848964; 0.526444;,
        -0.712241;-0.607288; 0.351939;,
        -0.734947;-0.435621; 0.519639;,
         0.000671;-0.586810; 0.809687;,
         0.398450;-0.902737;-0.161962;,
         0.073366;-0.600177;-0.796472;,
        -0.001434;-0.803461; 0.595294;,
         0.302774;-0.850185; 0.430647;,
        -0.210425;-0.877621; 0.430647;,
        -0.581347;-0.661153; 0.474197;,
        -0.525132;-0.543901;-0.654469;,
        -0.299936;-0.940092;-0.161962;,
        -0.299936;-0.940092;-0.161962;,
        -0.525132;-0.543901;-0.654469;,
         0.073366;-0.600177;-0.796472;,
         0.398450;-0.902737;-0.161962;,
         0.302774;-0.850185; 0.430647;,
        -0.001434;-0.803461; 0.595294;,
        -0.581347;-0.661153; 0.474197;,
        -0.210425;-0.877621; 0.430647;,
        -0.767083; 0.092349; 0.634816;,
        -0.869625; 0.397900; 0.292215;,
         0.822230; 0.488357; 0.292215;,
         0.752861; 0.173589; 0.634816;,
         0.398450;-0.902737;-0.161962;,
         0.665944;-0.126072;-0.735252;,
        -0.648701;-0.196356;-0.735252;,
        -0.299936;-0.940092;-0.161962;,
         0.302774;-0.850185; 0.430647;,
         0.752861; 0.173589; 0.634816;,
         0.665944;-0.126072;-0.735252;,
         0.398450;-0.902737;-0.161962;,
        -0.210425;-0.877621; 0.430647;,
        -0.767083; 0.092349; 0.634816;,
         0.752861; 0.173589; 0.634816;,
         0.302774;-0.850185; 0.430647;,
         0.641469;-0.634632;-0.430921;,
         0.623218;-0.610645; 0.488510;,
        -0.554552;-0.673635; 0.488510;,
        -0.570147;-0.699423;-0.430921;,
        -0.648701;-0.196356;-0.735252;,
        -0.570147;-0.699423;-0.430921;,
        -0.869625; 0.397900; 0.292215;,
        -0.767083; 0.092349; 0.634816;,
         0.665944;-0.126072;-0.735252;,
         0.641469;-0.634632;-0.430921;,
        -0.570147;-0.699423;-0.430921;,
        -0.648701;-0.196356;-0.735252;,
         0.752861; 0.173589; 0.634816;,
         0.822230; 0.488357; 0.292215;,
         0.641469;-0.634632;-0.430921;,
         0.665944;-0.126072;-0.735252;,
         0.539262; 0.527940; 0.656056;,
        -0.592486; 0.467422; 0.656056;,
        -0.554552;-0.673635; 0.488510;,
         0.623218;-0.610645; 0.488510;,
         0.822230; 0.488357; 0.292215;,
         0.539262; 0.527940; 0.656056;,
         0.623218;-0.610645; 0.488510;,
         0.641469;-0.634632;-0.430921;,
        -0.869625; 0.397900; 0.292215;,
        -0.592486; 0.467422; 0.656056;,
         0.539262; 0.527940; 0.656056;,
         0.822230; 0.488357; 0.292215;,
        -0.570147;-0.699423;-0.430921;,
        -0.554552;-0.673635; 0.488510;,
        -0.592486; 0.467422; 0.656056;,
        -0.869625; 0.397900; 0.292215;,
         0.336375;-0.831904; 0.441267;,
         0.631336;-0.551866; 0.544816;,
        -0.009064;-0.730766; 0.682546;,
        -0.245766;-0.863033; 0.441267;,
        -0.267281;-0.950835;-0.156346;,
         0.071474;-0.701895;-0.708670;,
         0.589557;-0.538560;-0.601917;,
         0.367138;-0.916898;-0.156346;,
         0.367138;-0.916898;-0.156346;,
         0.589557;-0.538560;-0.601917;,
         0.631336;-0.551866; 0.544816;,
         0.336375;-0.831904; 0.441267;,
        -0.245766;-0.863033; 0.441267;,
        -0.009064;-0.730766; 0.682546;,
         0.071474;-0.701895;-0.708670;,
        -0.267281;-0.950835;-0.156346;,
        -0.630940;-0.325938;-0.704001;,
        -0.586108;-0.733512;-0.344035;,
        -0.836787; 0.486770; 0.250587;,
        -0.791742; 0.213233; 0.572375;,
        -0.267281;-0.950835;-0.156346;,
        -0.630940;-0.325938;-0.704001;,
        -0.791742; 0.213233; 0.572375;,
        -0.245766;-0.863033; 0.441267;,
         0.367138;-0.916898;-0.156346;,
         0.662099;-0.256813;-0.704001;,
        -0.630940;-0.325938;-0.704001;,
        -0.267281;-0.950835;-0.156346;,
         0.336375;-0.831904; 0.441267;,
         0.764489; 0.296426; 0.572375;,
         0.662099;-0.256813;-0.704001;,
         0.367138;-0.916898;-0.156346;,
         0.780114; 0.573229; 0.250587;,
         0.537828; 0.509598; 0.671560;,
         0.627247;-0.622303; 0.468245;,
         0.661000;-0.666829;-0.344035;,
         0.662099;-0.256813;-0.704001;,
         0.661000;-0.666829;-0.344035;,
        -0.586108;-0.733512;-0.344035;,
        -0.630940;-0.325938;-0.704001;,
         0.764489; 0.296426; 0.572375;,
         0.780114; 0.573229; 0.250587;,
         0.661000;-0.666829;-0.344035;,
         0.662099;-0.256813;-0.704001;,
        -0.791742; 0.213233; 0.572375;,
        -0.836787; 0.486770; 0.250587;,
         0.780114; 0.573229; 0.250587;,
         0.764489; 0.296426; 0.572375;,
         0.627247;-0.622303; 0.468245;,
         0.537828; 0.509598; 0.671560;,
        -0.589099; 0.449355; 0.671560;,
        -0.557329;-0.685629; 0.468245;,
        -0.836787; 0.486770; 0.250587;,
        -0.589099; 0.449355; 0.671560;,
         0.537828; 0.509598; 0.671560;,
         0.780114; 0.573229; 0.250587;,
        -0.586108;-0.733512;-0.344035;,
        -0.557329;-0.685629; 0.468245;,
        -0.589099; 0.449355; 0.671560;,
        -0.836787; 0.486770; 0.250587;,
         0.661000;-0.666829;-0.344035;,
         0.627247;-0.622303; 0.468245;,
        -0.557329;-0.685629; 0.468245;,
        -0.586108;-0.733512;-0.344035;,
        -0.672657; 0.739954; 0.000000;,
         0.000000; 1.000000; 0.000000;,
         0.435603; 0.000000; 0.900139;,
         0.000000;-1.000000; 0.000000;,
         0.000000; 0.000000;-1.000000;,
         0.000000;-0.000000; 1.000000;,
        -1.000000;-0.000000; 0.000000;,
        -0.672657;-0.739954; 0.000000;,
        -0.202835; 0.000000; 0.979213;,
        -0.202835; 0.000000;-0.979213;,
         1.000000;-0.000000; 0.000000;,
         0.904722; 0.426003; 0.000000;,
         0.904722;-0.426003; 0.000000;,
         0.435605; 0.000000;-0.900138;;
        138;
        4;3,2,1,0;,
        4;7,6,5,4;,
        4;11,10,9,8;,
        4;15,14,13,12;,
        4;19,18,17,16;,
        4;23,22,21,20;,
        4;27,26,25,24;,
        4;31,30,29,28;,
        4;35,34,33,32;,
        4;39,38,37,36;,
        4;43,42,41,40;,
        4;47,46,45,44;,
        4;51,50,49,48;,
        4;55,54,53,52;,
        4;59,58,57,56;,
        4;63,62,61,60;,
        4;67,66,65,64;,
        4;71,70,69,68;,
        4;75,74,73,72;,
        4;79,78,77,76;,
        4;83,82,81,80;,
        4;87,86,85,84;,
        4;91,90,89,88;,
        4;95,94,93,92;,
        4;99,98,97,96;,
        4;103,102,101,100;,
        4;107,106,105,104;,
        4;111,110,109,108;,
        4;115,114,113,112;,
        4;119,118,117,116;,
        4;123,122,121,120;,
        4;127,126,125,124;,
        4;131,130,129,128;,
        4;135,134,133,132;,
        4;139,138,137,136;,
        4;143,142,141,140;,
        4;147,146,145,144;,
        4;151,150,149,148;,
        4;155,154,153,152;,
        4;159,158,157,156;,
        4;163,162,161,160;,
        4;167,166,165,164;,
        4;171,170,169,168;,
        4;175,174,173,172;,
        4;179,178,177,176;,
        4;183,182,181,180;,
        4;187,186,185,184;,
        4;191,190,189,188;,
        4;195,194,193,192;,
        4;199,198,197,196;,
        4;203,202,201,200;,
        4;207,206,205,204;,
        4;211,210,209,208;,
        4;215,214,213,212;,
        4;219,218,217,216;,
        4;223,222,221,220;,
        4;227,226,225,224;,
        4;231,230,229,228;,
        4;235,234,233,232;,
        4;239,238,237,236;,
        4;243,242,241,240;,
        4;247,246,245,244;,
        4;251,250,249,248;,
        4;255,254,253,252;,
        4;259,258,257,256;,
        4;263,262,261,260;,
        4;267,266,265,264;,
        4;271,270,269,268;,
        4;275,274,273,272;,
        4;279,278,277,276;,
        4;283,282,281,280;,
        4;287,286,285,284;,
        4;291,290,289,288;,
        4;295,294,293,292;,
        4;299,298,297,296;,
        4;303,302,301,300;,
        4;307,306,305,304;,
        4;311,310,309,308;,
        4;315,314,313,312;,
        4;319,318,317,316;,
        4;323,322,321,320;,
        4;327,326,325,324;,
        4;331,330,329,328;,
        4;335,334,333,332;,
        4;339,338,337,336;,
        4;343,342,341,340;,
        4;347,346,345,344;,
        4;351,350,349,348;,
        4;355,354,353,352;,
        4;359,358,357,356;,
        4;363,362,361,360;,
        4;367,366,365,364;,
        4;371,370,369,368;,
        4;375,374,373,372;,
        4;379,378,377,376;,
        4;383,382,381,380;,
        4;387,386,385,384;,
        4;391,390,389,388;,
        4;395,394,393,392;,
        4;399,398,397,396;,
        4;403,402,401,400;,
        4;407,406,405,404;,
        4;411,410,409,408;,
        4;415,414,413,412;,
        4;419,418,417,416;,
        4;423,422,421,420;,
        4;427,426,425,424;,
        4;431,430,429,428;,
        4;435,434,433,432;,
        4;439,438,437,436;,
        4;443,442,441,440;,
        4;447,446,445,444;,
        4;451,450,449,448;,
        4;455,454,453,452;,
        4;459,458,457,456;,
        4;463,462,461,460;,
        4;467,466,465,464;,
        4;471,470,469,468;,
        4;475,474,473,472;,
        4;479,478,477,476;,
        4;483,482,481,480;,
        4;487,486,485,484;,
        4;491,490,489,488;,
        4;495,494,493,492;,
        4;496,496,496,496;,
        4;497,497,497,497;,
        4;498,498,498,498;,
        4;499,499,499,499;,
        4;500,500,500,500;,
        4;501,501,501,501;,
        4;502,502,502,502;,
        4;503,503,503,503;,
        4;504,504,504,504;,
        4;505,505,505,505;,
        4;506,506,506,506;,
        4;507,507,507,507;,
        4;508,508,508,508;,
        4;509,509,509,509;;
      } // End of Cube normals
      MeshTextureCoords { // Cube UV coordinates
        552;
         0.584577; 0.750294;,
         0.585178; 0.669602;,
         0.645085; 0.651784;,
         0.644484; 0.732476;,
         0.393210; 0.131509;,
         0.393210; 0.246288;,
         0.376857; 0.246282;,
         0.376857; 0.131503;,
         0.919604; 0.076344;,
         0.919604; 0.165283;,
         0.854954; 0.182014;,
         0.854954; 0.093075;,
         0.647007; 0.418480;,
         0.592500; 0.418617;,
         0.592087; 0.367726;,
         0.647007; 0.367432;,
         0.735269; 0.737365;,
         0.723650; 0.749114;,
         0.696556; 0.683651;,
         0.711080; 0.675970;,
         0.645085; 0.651784;,
         0.585178; 0.669602;,
         0.585446; 0.633713;,
         0.645353; 0.615895;,
         0.330295; 0.664451;,
         0.330295; 0.549672;,
         0.393210; 0.549473;,
         0.393211; 0.664252;,
         0.275765; 0.665285;,
         0.275765; 0.550506;,
         0.330295; 0.549672;,
         0.330295; 0.664451;,
         0.696514; 0.417813;,
         0.696514; 0.532592;,
         0.647007; 0.533260;,
         0.647007; 0.418480;,
         0.711080; 0.675970;,
         0.696556; 0.683651;,
         0.690618; 0.595407;,
         0.705866; 0.601462;,
         0.363936; 0.397363;,
         0.261533; 0.397802;,
         0.261127; 0.216605;,
         0.363530; 0.216166;,
         0.705866; 0.601462;,
         0.690618; 0.595407;,
         0.725772; 0.539724;,
         0.735269; 0.553316;,
         0.647007; 0.418480;,
         0.647007; 0.533260;,
         0.592501; 0.533396;,
         0.592500; 0.418617;,
         0.393210; 0.549473;,
         0.330295; 0.549672;,
         0.330295; 0.498623;,
         0.392796; 0.498267;,
         0.330295; 0.498623;,
         0.275765; 0.499457;,
         0.275765; 0.398992;,
         0.330295; 0.398158;,
         0.392796; 0.498267;,
         0.330295; 0.498623;,
         0.330295; 0.398158;,
         0.392796; 0.397802;,
         0.376857; 0.297330;,
         0.393210; 0.297337;,
         0.393210; 0.397802;,
         0.376857; 0.397795;,
         0.376857; 0.246282;,
         0.393210; 0.246288;,
         0.393210; 0.297337;,
         0.376857; 0.297330;,
         0.696514; 0.417813;,
         0.647007; 0.418480;,
         0.647007; 0.367432;,
         0.696514; 0.366764;,
         0.516269; 0.742956;,
         0.500106; 0.744743;,
         0.487654; 0.708757;,
         0.503816; 0.706969;,
         0.854954; 0.182014;,
         0.919604; 0.165283;,
         0.919604; 0.204839;,
         0.854954; 0.221570;,
         0.330295; 0.549672;,
         0.275765; 0.550506;,
         0.275765; 0.499457;,
         0.330295; 0.498623;,
         0.581179; 0.551716;,
         0.585972; 0.563085;,
         0.530173; 0.597278;,
         0.515259; 0.592338;,
         0.645967; 0.533396;,
         0.645879; 0.545267;,
         0.585972; 0.563085;,
         0.581179; 0.551716;,
         0.515259; 0.592338;,
         0.530173; 0.597278;,
         0.504343; 0.636340;,
         0.488180; 0.638128;,
         0.854954; 0.221570;,
         0.919604; 0.204839;,
         0.919604; 0.282686;,
         0.854954; 0.299417;,
         0.645353; 0.615895;,
         0.585446; 0.633713;,
         0.585972; 0.563085;,
         0.645879; 0.545267;,
         0.647007; 0.367432;,
         0.592087; 0.367726;,
         0.592087; 0.267261;,
         0.647007; 0.266967;,
         0.492786; 0.640977;,
         0.499687; 0.640214;,
         0.496909; 0.723588;,
         0.490008; 0.724351;,
         0.696514; 0.366764;,
         0.647007; 0.367432;,
         0.647007; 0.266967;,
         0.696514; 0.266299;,
         0.492310; 0.704883;,
         0.499211; 0.704120;,
         0.503816; 0.706969;,
         0.487654; 0.708757;,
         0.499687; 0.640214;,
         0.492786; 0.640977;,
         0.488180; 0.638128;,
         0.504343; 0.636340;,
         0.492786; 0.640977;,
         0.492310; 0.704883;,
         0.487654; 0.708757;,
         0.488180; 0.638128;,
         0.499211; 0.704120;,
         0.499687; 0.640214;,
         0.504343; 0.636340;,
         0.503816; 0.706969;,
         0.681201; 0.148762;,
         0.592087; 0.149035;,
         0.592412; 0.041598;,
         0.681526; 0.041326;,
         0.785973; 0.282300;,
         0.696859; 0.282516;,
         0.696514; 0.165395;,
         0.785628; 0.165178;,
         0.480557; 0.662388;,
         0.474174; 0.665285;,
         0.409342; 0.568452;,
         0.415725; 0.565555;,
         0.681526; 0.266027;,
         0.592412; 0.266299;,
         0.592087; 0.149035;,
         0.681201; 0.148762;,
         0.543485; 0.870389;,
         0.543961; 0.806483;,
         0.643977; 0.809161;,
         0.643500; 0.873066;,
         0.490008; 0.724351;,
         0.496909; 0.723588;,
         0.545694; 0.801580;,
         0.543961; 0.806483;,
         0.785628; 0.165178;,
         0.696514; 0.165395;,
         0.696859; 0.048749;,
         0.785973; 0.048533;,
         0.415725; 0.565555;,
         0.409342; 0.568452;,
         0.393210; 0.441867;,
         0.398345; 0.446698;,
         0.370765; 0.397784;,
         0.363936; 0.397802;,
         0.363936; 0.306901;,
         0.370765; 0.306882;,
         0.398345; 0.446698;,
         0.393210; 0.441867;,
         0.475423; 0.383674;,
         0.480557; 0.388505;,
         0.873353; 0.641777;,
         0.804311; 0.642944;,
         0.804311; 0.540891;,
         0.873353; 0.539724;,
         0.543961; 0.806483;,
         0.545694; 0.801580;,
         0.645710; 0.804258;,
         0.643977; 0.809161;,
         0.510697; 0.820573;,
         0.511244; 0.747137;,
         0.516269; 0.742956;,
         0.515667; 0.823648;,
         0.505077; 0.747819;,
         0.504530; 0.821255;,
         0.499505; 0.825436;,
         0.500106; 0.744743;,
         0.504530; 0.821255;,
         0.510697; 0.820573;,
         0.515667; 0.823648;,
         0.499505; 0.825436;,
         0.511244; 0.747137;,
         0.505077; 0.747819;,
         0.500106; 0.744743;,
         0.516269; 0.742956;,
         0.520977; 0.869884;,
         0.532544; 0.876766;,
         0.583954; 0.920526;,
         0.582067; 0.924836;,
         0.505077; 0.747819;,
         0.511244; 0.747137;,
         0.532544; 0.876766;,
         0.520977; 0.869884;,
         0.748819; 0.999637;,
         0.646415; 1.000000;,
         0.645967; 0.828079;,
         0.748371; 0.827717;,
         0.910291; 0.997792;,
         0.904435; 1.000000;,
         0.836166; 0.842415;,
         0.841654; 0.828262;,
         0.857184; 0.749206;,
         0.852630; 0.744850;,
         0.905737; 0.712119;,
         0.910291; 0.716475;,
         0.748371; 0.827717;,
         0.645967; 0.828079;,
         0.646415; 0.749477;,
         0.748819; 0.749114;,
         0.841654; 0.828262;,
         0.836166; 0.842415;,
         0.852630; 0.744850;,
         0.857184; 0.749206;,
         0.363530; 0.216166;,
         0.261127; 0.216605;,
         0.261533; 0.157383;,
         0.363936; 0.156944;,
         0.480557; 0.560807;,
         0.480557; 0.456349;,
         0.486576; 0.456328;,
         0.486576; 0.560786;,
         0.124048; 0.117740;,
         0.124048; 0.198681;,
         0.062024; 0.197573;,
         0.062024; 0.116632;,
         0.582067; 0.924836;,
         0.583954; 0.920526;,
         0.645967; 0.922254;,
         0.644080; 0.926564;,
         0.581520; 0.998272;,
         0.582067; 0.924836;,
         0.644080; 0.926564;,
         0.643533; 1.000000;,
         0.096923; 0.448388;,
         0.156830; 0.466206;,
         0.157431; 0.546898;,
         0.097524; 0.529080;,
         0.502649; 0.266293;,
         0.486295; 0.266299;,
         0.486295; 0.151520;,
         0.502649; 0.151514;,
         0.974941; 1.000000;,
         0.910291; 0.983269;,
         0.910291; 0.894330;,
         0.974941; 0.911061;,
         0.542576; 0.381216;,
         0.542576; 0.432264;,
         0.487654; 0.431970;,
         0.488068; 0.381079;,
         0.690618; 0.551474;,
         0.666430; 0.612868;,
         0.651905; 0.605187;,
         0.679000; 0.539724;,
         0.157431; 0.546898;,
         0.157699; 0.582786;,
         0.097792; 0.564968;,
         0.097524; 0.529080;,
         0.212849; 0.398636;,
         0.275765; 0.398835;,
         0.275765; 0.513614;,
         0.212849; 0.513415;,
         0.158313; 0.397802;,
         0.212849; 0.398636;,
         0.212849; 0.513415;,
         0.158313; 0.512581;,
         0.592087; 0.381883;,
         0.542576; 0.381216;,
         0.542576; 0.266436;,
         0.592087; 0.267104;,
         0.666430; 0.612868;,
         0.661215; 0.687376;,
         0.645967; 0.693431;,
         0.651905; 0.605187;,
         0.261127; 0.157390;,
         0.260716; 0.338594;,
         0.158313; 0.338155;,
         0.158723; 0.156950;,
         0.661215; 0.687376;,
         0.690618; 0.735523;,
         0.681121; 0.749114;,
         0.645967; 0.693431;,
         0.542576; 0.381216;,
         0.488068; 0.381079;,
         0.488068; 0.266299;,
         0.542576; 0.266436;,
         0.275765; 0.513614;,
         0.275352; 0.564820;,
         0.212849; 0.564464;,
         0.212849; 0.513415;,
         0.212849; 0.564464;,
         0.212849; 0.664929;,
         0.158313; 0.664095;,
         0.158313; 0.563630;,
         0.275352; 0.564820;,
         0.275352; 0.665285;,
         0.212849; 0.664929;,
         0.212849; 0.564464;,
         0.486295; 0.100472;,
         0.486295; 0.000006;,
         0.502649; 0.000000;,
         0.502649; 0.100465;,
         0.486295; 0.151520;,
         0.486295; 0.100472;,
         0.502649; 0.100465;,
         0.502649; 0.151514;,
         0.592087; 0.381883;,
         0.592087; 0.432931;,
         0.542576; 0.432264;,
         0.542576; 0.381216;,
         0.028615; 0.455725;,
         0.016162; 0.491712;,
         0.000000; 0.489925;,
         0.012452; 0.453938;,
         0.910291; 0.894330;,
         0.910291; 0.854774;,
         0.974941; 0.871505;,
         0.974941; 0.911061;,
         0.212849; 0.513415;,
         0.212849; 0.564464;,
         0.158313; 0.563630;,
         0.158313; 0.512581;,
         0.093525; 0.646965;,
         0.027605; 0.606343;,
         0.042519; 0.601403;,
         0.098318; 0.635597;,
         0.158313; 0.665285;,
         0.093525; 0.646965;,
         0.098318; 0.635597;,
         0.158225; 0.653415;,
         0.027605; 0.606343;,
         0.000526; 0.560554;,
         0.016689; 0.562341;,
         0.042519; 0.601403;,
         0.910291; 0.854774;,
         0.910291; 0.776927;,
         0.974941; 0.793658;,
         0.974941; 0.871505;,
         0.157699; 0.582786;,
         0.158225; 0.653415;,
         0.098318; 0.635597;,
         0.097792; 0.564968;,
         0.542576; 0.432264;,
         0.542576; 0.532729;,
         0.487654; 0.532435;,
         0.487654; 0.431970;,
         0.005132; 0.557704;,
         0.002354; 0.474331;,
         0.009255; 0.475094;,
         0.012033; 0.558467;,
         0.592087; 0.432931;,
         0.592087; 0.533396;,
         0.542576; 0.532729;,
         0.542576; 0.432264;,
         0.004656; 0.493798;,
         0.000000; 0.489925;,
         0.016162; 0.491712;,
         0.011557; 0.494562;,
         0.012033; 0.558467;,
         0.016689; 0.562341;,
         0.000526; 0.560554;,
         0.005132; 0.557704;,
         0.005132; 0.557704;,
         0.000526; 0.560554;,
         0.000000; 0.489925;,
         0.004656; 0.493798;,
         0.011557; 0.494562;,
         0.016162; 0.491712;,
         0.016689; 0.562341;,
         0.012033; 0.558467;,
         0.591762; 0.158868;,
         0.592087; 0.266299;,
         0.502974; 0.266027;,
         0.502649; 0.158596;,
         0.944412; 0.299633;,
         0.944067; 0.416755;,
         0.854954; 0.416539;,
         0.855298; 0.299417;,
         0.836166; 0.721286;,
         0.771333; 0.818119;,
         0.764950; 0.815222;,
         0.829783; 0.718389;,
         0.592087; 0.041603;,
         0.591762; 0.158868;,
         0.502649; 0.158596;,
         0.502974; 0.041331;,
         0.055831; 0.328292;,
         0.155846; 0.325615;,
         0.156323; 0.389521;,
         0.056307; 0.392198;,
         0.002354; 0.474331;,
         0.056307; 0.392198;,
         0.058040; 0.397101;,
         0.009255; 0.475094;,
         0.944067; 0.416755;,
         0.944412; 0.533396;,
         0.855298; 0.533180;,
         0.854954; 0.416539;,
         0.771333; 0.818119;,
         0.753953; 0.936976;,
         0.748819; 0.941807;,
         0.764950; 0.815222;,
         0.480558; 0.456310;,
         0.480558; 0.365408;,
         0.487386; 0.365427;,
         0.487386; 0.456328;,
         0.753953; 0.936976;,
         0.836166; 0.995169;,
         0.831031; 1.000000;,
         0.748819; 0.941807;,
         0.804311; 0.540891;,
         0.804311; 0.642944;,
         0.735269; 0.641777;,
         0.735269; 0.539724;,
         0.056307; 0.392198;,
         0.156323; 0.389521;,
         0.158056; 0.394424;,
         0.058040; 0.397101;,
         0.023043; 0.378109;,
         0.028013; 0.375033;,
         0.028615; 0.455725;,
         0.023590; 0.451545;,
         0.017423; 0.450863;,
         0.012452; 0.453938;,
         0.011851; 0.373246;,
         0.016876; 0.377427;,
         0.016876; 0.377427;,
         0.011851; 0.373246;,
         0.028013; 0.375033;,
         0.023043; 0.378109;,
         0.023590; 0.451545;,
         0.028615; 0.455725;,
         0.012452; 0.453938;,
         0.017423; 0.450863;,
         0.033323; 0.328797;,
         0.094413; 0.273845;,
         0.096300; 0.278156;,
         0.044597; 0.321917;,
         0.017423; 0.450863;,
         0.033323; 0.328797;,
         0.044597; 0.321917;,
         0.023590; 0.451545;,
         0.799366; 0.282879;,
         0.798918; 0.454799;,
         0.696514; 0.454436;,
         0.696962; 0.282516;,
         0.480557; 0.098001;,
         0.411666; 0.267383;,
         0.406432; 0.253378;,
         0.474701; 0.095793;,
         0.427450; 0.346587;,
         0.480557; 0.379318;,
         0.476004; 0.383674;,
         0.422897; 0.350943;,
         0.798918; 0.454799;,
         0.799366; 0.533396;,
         0.696962; 0.533034;,
         0.696514; 0.454436;,
         0.411666; 0.267383;,
         0.427450; 0.346587;,
         0.422897; 0.350943;,
         0.406432; 0.253378;,
         0.260716; 0.338594;,
         0.261127; 0.397802;,
         0.158724; 0.397363;,
         0.158313; 0.338155;,
         0.480557; 0.560807;,
         0.486576; 0.560827;,
         0.486576; 0.665285;,
         0.480557; 0.665264;,
         0.062024; 0.197573;,
         0.000000; 0.198681;,
         0.000000; 0.117740;,
         0.062024; 0.116632;,
         0.094413; 0.273845;,
         0.156426; 0.272117;,
         0.158313; 0.276428;,
         0.096300; 0.278156;,
         0.093866; 0.200409;,
         0.155879; 0.198681;,
         0.156426; 0.272117;,
         0.094413; 0.273845;,
         0.975192; 0.082326;,
         0.919604; 0.082326;,
         0.925826; 0.040921;,
         0.968970; 0.040921;,
         0.919604; 0.082326;,
         0.975192; 0.082326;,
         0.975192; 0.299417;,
         0.919604; 0.299417;,
         0.487654; 0.675999;,
         0.243827; 0.676109;,
         0.265836; 0.665375;,
         0.465323; 0.665285;,
         0.854954; 0.533396;,
         0.799366; 0.533396;,
         0.799366; 0.316305;,
         0.854954; 0.316305;,
         0.243827; 0.695929;,
         0.243827; 0.989286;,
         0.000000; 0.989176;,
         0.000000; 0.695820;,
         0.487654; 0.675999;,
         0.487654; 0.969355;,
         0.243827; 0.969465;,
         0.243827; 0.676109;,
         0.848732; 0.274900;,
         0.805587; 0.274900;,
         0.805587; 0.144983;,
         0.848732; 0.144983;,
         0.854954; 0.316305;,
         0.799366; 0.316305;,
         0.805587; 0.274900;,
         0.848732; 0.274900;,
         0.243827; 0.969465;,
         0.487654; 0.969355;,
         0.460166; 0.999915;,
         0.270919; 1.000000;,
         0.243827; 0.695929;,
         0.000000; 0.695820;,
         0.027092; 0.665285;,
         0.216340; 0.665370;,
         0.949466; 0.322730;,
         0.994946; 0.322730;,
         0.994946; 0.525827;,
         0.949466; 0.525827;,
         0.944412; 0.299417;,
         1.000000; 0.299417;,
         0.994946; 0.322730;,
         0.949466; 0.322730;,
         1.000000; 0.547657;,
         0.944412; 0.547657;,
         0.949466; 0.525827;,
         0.994946; 0.525827;,
         0.000000; 0.989176;,
         0.243827; 0.989286;,
         0.221497; 1.000000;,
         0.022009; 0.999911;;
      } // End of Cube UV coordinates
      MeshMaterialList { // Cube material list
        1;
        138;
        0,
        0,
        0,
        0,
        0,
        0,
        0,
        0,
        0,
        0,
        0,
        0,
        0,
        0,
        0,
        0,
        0,
        0,
        0,
        0,
        0,
        0,
        0,
        0,
        0,
        0,
        0,
        0,
        0,
        0,
        0,
        0,
        0,
        0,
        0,
        0,
        0,
        0,
        0,
        0,
        0,
        0,
        0,
        0,
        0,
        0,
        0,
        0,
        0,
        0,
        0,
        0,
        0,
        0,
        0,
        0,
        0,
        0,
        0,
        0,
        0,
        0,
        0,
        0,
        0,
        0,
        0,
        0,
        0,
        0,
        0,
        0,
        0,
        0,
        0,
        0,
        0,
        0,
        0,
        0,
        0,
        0,
        0,
        0,
        0,
        0,
        0,
        0,
        0,
        0,
        0,
        0,
        0,
        0,
        0,
        0,
        0,
        0,
        0,
        0,
        0,
        0,
        0,
        0,
        0,
        0,
        0,
        0,
        0,
        0,
        0,
        0,
        0,
        0,
        0,
        0,
        0,
        0,
        0,
        0,
        0,
        0,
        0,
        0,
        0,
        0,
        0,
        0,
        0,
        0,
        0,
        0,
        0,
        0,
        0,
        0,
        0,
        0;
        Material Material {
           0.640000; 0.640000; 0.640000; 1.000000;;
           96.078431;
           0.500000; 0.500000; 0.500000;;
           0.000000; 0.000000; 0.000000;;
        }
      } // End of Cube material list
    } // End of Cube mesh
  } // End of Cube
} // End of Root
