xof 0303txt 0032

Frame Root {
  FrameTransformMatrix {
     1.000000, 0.000000, 0.000000, 0.000000,
     0.000000,-0.000000, 1.000000, 0.000000,
     0.000000, 1.000000, 0.000000, 0.000000,
     0.000000, 0.000000, 0.000000, 1.000000;;
  }
  Frame Cube_001 {
    FrameTransformMatrix {
       1.000000, 0.000000, 0.000000, 0.000000,
       0.000000, 1.000000, 0.000000, 0.000000,
       0.000000, 0.000000, 1.000000, 0.000000,
       0.000000, 0.000000, 0.000000, 1.000000;;
    }
    Mesh { // Cube_001 mesh
      64;
       0.047943;-0.013460;-0.027498;,
       0.048343;-0.018653;-0.027448;,
      -0.044487;-0.025896;-0.037611;,
      -0.044886;-0.020703;-0.037661;,
      -0.047882;-0.030040;-0.003641;,
      -0.047483;-0.035233;-0.003591;,
      -0.051922;-0.025809; 0.030247;,
      -0.052322;-0.020616; 0.030197;,
      -0.052322;-0.020616; 0.030197;,
      -0.051922;-0.025809; 0.030247;,
       0.040907;-0.018566; 0.040410;,
       0.040507;-0.013373; 0.040360;,
       0.044947;-0.022797; 0.006522;,
       0.045347;-0.027990; 0.006572;,
       0.048343;-0.018653;-0.027448;,
       0.047943;-0.013460;-0.027498;,
      -0.047882;-0.030040;-0.003641;,
      -0.052322;-0.020616; 0.030197;,
       0.040507;-0.013373; 0.040360;,
       0.044947;-0.022797; 0.006522;,
      -0.047483;-0.035233;-0.003591;,
      -0.044487;-0.025896;-0.037611;,
       0.048343;-0.018653;-0.027448;,
       0.045347;-0.027990; 0.006572;,
      -0.051922;-0.025809; 0.030247;,
      -0.047483;-0.035233;-0.003591;,
       0.045347;-0.027990; 0.006572;,
       0.040907;-0.018566; 0.040410;,
      -0.044886;-0.020703;-0.037661;,
      -0.047882;-0.030040;-0.003641;,
       0.044947;-0.022797; 0.006522;,
       0.047943;-0.013460;-0.027498;,
       0.040507;-0.013373; 0.040360;,
       0.040907;-0.018566; 0.040410;,
       0.045347;-0.027990; 0.006572;,
       0.044947;-0.022797; 0.006522;,
      -0.044886;-0.020703;-0.037661;,
      -0.044487;-0.025896;-0.037611;,
      -0.047483;-0.035233;-0.003591;,
      -0.047882;-0.030040;-0.003641;,
      -0.023529; 0.025195; 0.012041;,
      -0.003501; 0.026758; 0.014233;,
      -0.000705; 0.028064;-0.009317;,
      -0.020733; 0.026501;-0.011510;,
      -0.021377; 0.003369; 0.029287;,
      -0.001348; 0.004931; 0.031479;,
      -0.003501; 0.026758; 0.014233;,
      -0.023529; 0.025195; 0.012041;,
       0.007451;-0.021565;-0.030007;,
      -0.012578;-0.023127;-0.032199;,
      -0.016015; 0.003290;-0.032456;,
       0.004014; 0.004852;-0.030263;,
       0.000685;-0.021486; 0.031736;,
      -0.001348; 0.004931; 0.031479;,
      -0.021377; 0.003369; 0.029287;,
      -0.019344;-0.023048; 0.029543;,
       0.004014; 0.004852;-0.030263;,
      -0.016015; 0.003290;-0.032456;,
      -0.018453; 0.022733;-0.019880;,
       0.001576; 0.024296;-0.017688;,
       0.001576; 0.024296;-0.017688;,
      -0.018453; 0.022733;-0.019880;,
      -0.020808; 0.026710;-0.011426;,
      -0.000779; 0.028272;-0.009233;;
      16;
      4;3,2,1,0;,
      4;7,6,5,4;,
      4;11,10,9,8;,
      4;15,14,13,12;,
      4;19,18,17,16;,
      4;23,22,21,20;,
      4;27,26,25,24;,
      4;31,30,29,28;,
      4;35,34,33,32;,
      4;39,38,37,36;,
      4;43,42,41,40;,
      4;47,46,45,44;,
      4;51,50,49,48;,
      4;55,54,53,52;,
      4;59,58,57,56;,
      4;63,62,61,60;;
      MeshNormals { // Cube_001 normals
        64;
         0.563555; 0.697684;-0.442244;,
         0.694754;-0.441450;-0.567797;,
        -0.480300;-0.533128;-0.696432;,
        -0.555376; 0.610370;-0.564745;,
        -0.813959; 0.573901;-0.089908;,
        -0.587878;-0.806421;-0.063387;,
        -0.619861;-0.531510; 0.577227;,
        -0.664327; 0.611652; 0.429548;,
        -0.664327; 0.611652; 0.429548;,
        -0.619861;-0.531510; 0.577227;,
         0.555193;-0.439833; 0.705893;,
         0.454604; 0.698965; 0.552049;,
         0.716422; 0.693289; 0.077609;,
         0.704245;-0.705618; 0.078066;,
         0.694754;-0.441450;-0.567797;,
         0.563555; 0.697684;-0.442244;,
        -0.813959; 0.573901;-0.089908;,
        -0.664327; 0.611652; 0.429548;,
         0.454604; 0.698965; 0.552049;,
         0.716422; 0.693289; 0.077609;,
        -0.587878;-0.806421;-0.063387;,
        -0.480300;-0.533128;-0.696432;,
         0.694754;-0.441450;-0.567797;,
         0.704245;-0.705618; 0.078066;,
        -0.619861;-0.531510; 0.577227;,
        -0.587878;-0.806421;-0.063387;,
         0.704245;-0.705618; 0.078066;,
         0.555193;-0.439833; 0.705893;,
        -0.555376; 0.610370;-0.564745;,
        -0.813959; 0.573901;-0.089908;,
         0.716422; 0.693289; 0.077609;,
         0.563555; 0.697684;-0.442244;,
         0.454604; 0.698965; 0.552049;,
         0.555193;-0.439833; 0.705893;,
         0.704245;-0.705618; 0.078066;,
         0.716422; 0.693289; 0.077609;,
        -0.555376; 0.610370;-0.564745;,
        -0.480300;-0.533128;-0.696432;,
        -0.587878;-0.806421;-0.063387;,
        -0.813959; 0.573901;-0.089908;,
        -0.118107; 0.886593; 0.447157;,
        -0.119358; 0.877071; 0.465255;,
        -0.082644; 0.995544; 0.045381;,
        -0.082644; 0.995544; 0.045381;,
        -0.128086; 0.328929; 0.935606;,
        -0.127415; 0.311991; 0.941465;,
        -0.119358; 0.877071; 0.465255;,
        -0.118107; 0.886593; 0.447157;,
         0.108463; 0.004456;-0.994079;,
         0.108463; 0.004456;-0.994079;,
         0.081698; 0.290445;-0.953368;,
         0.082339; 0.284524;-0.955107;,
        -0.108921; 0.001251; 0.994018;,
        -0.127415; 0.311991; 0.941465;,
        -0.128086; 0.328929; 0.935606;,
        -0.108921; 0.001251; 0.994018;,
         0.082339; 0.284524;-0.955107;,
         0.081698; 0.290445;-0.953368;,
         0.012207; 0.758171;-0.651906;,
         0.014496; 0.746879;-0.664785;,
         0.014496; 0.746879;-0.664785;,
         0.012207; 0.758171;-0.651906;,
        -0.023225; 0.902158;-0.430738;,
        -0.023225; 0.902158;-0.430738;;
        16;
        4;3,2,1,0;,
        4;7,6,5,4;,
        4;11,10,9,8;,
        4;15,14,13,12;,
        4;19,18,17,16;,
        4;23,22,21,20;,
        4;27,26,25,24;,
        4;31,30,29,28;,
        4;35,34,33,32;,
        4;39,38,37,36;,
        4;43,42,41,40;,
        4;47,46,45,44;,
        4;51,50,49,48;,
        4;55,54,53,52;,
        4;59,58,57,56;,
        4;63,62,61,60;;
      } // End of Cube_001 normals
      MeshTextureCoords { // Cube_001 UV coordinates
        64;
         1.000000; 0.346247;,
         0.967701; 0.346247;,
         0.967701; 1.000000;,
         1.000000; 1.000000;,
         0.877053; 0.761767;,
         0.844754; 0.761767;,
         0.903103; 1.000000;,
         0.935402; 1.000000;,
         0.935402; 1.000000;,
         0.967701; 1.000000;,
         0.967701; 0.346247;,
         0.935402; 0.346247;,
         0.877053; 0.285302;,
         0.844754; 0.285302;,
         0.903103; 0.523535;,
         0.935402; 0.523535;,
         0.639648; 0.346247;,
         0.423353; 0.346247;,
         0.423352; 1.000000;,
         0.639648; 1.000000;,
         0.211676; 0.346247;,
         0.000000; 0.346247;,
         0.000000; 1.000000;,
         0.211676; 1.000000;,
         0.423352; 0.346247;,
         0.211676; 0.346247;,
         0.211676; 1.000000;,
         0.423352; 1.000000;,
         0.844754; 0.346247;,
         0.639648; 0.346247;,
         0.639648; 1.000000;,
         0.844754; 1.000000;,
         0.935402; 0.047069;,
         0.903103; 0.047069;,
         0.844754; 0.285302;,
         0.877053; 0.285302;,
         0.935402; 0.523535;,
         0.903103; 0.523535;,
         0.844754; 0.761767;,
         0.877053; 0.761767;,
         0.125316; 0.180463;,
         0.000000; 0.182365;,
         0.000000; 0.346247;,
         0.125316; 0.344346;,
         0.548538; 0.191444;,
         0.423352; 0.184727;,
         0.431178; 0.339530;,
         0.556364; 0.346247;,
         0.423352; 0.021596;,
         0.298051; 0.024471;,
         0.292785; 0.210321;,
         0.418086; 0.207446;,
         0.431178; 0.000000;,
         0.423352; 0.184727;,
         0.548538; 0.191444;,
         0.556364; 0.006718;,
         0.418086; 0.207446;,
         0.292785; 0.210321;,
         0.298051; 0.346247;,
         0.423352; 0.343372;,
         0.125316; 0.197455;,
         0.125316; 0.338506;,
         0.181227; 0.346247;,
         0.181227; 0.205196;;
      } // End of Cube_001 UV coordinates
      MeshMaterialList { // Cube_001 material list
        1;
        16;
        0,
        0,
        0,
        0,
        0,
        0,
        0,
        0,
        0,
        0,
        0,
        0,
        0,
        0,
        0,
        0;
        Material Material_001 {
           0.640000; 0.640000; 0.640000; 1.000000;;
           96.078431;
           0.500000; 0.500000; 0.500000;;
           0.000000; 0.000000; 0.000000;;
        }
      } // End of Cube_001 material list
    } // End of Cube_001 mesh
  } // End of Cube_001
} // End of Root
