xof 0303txt 0032

Frame Root {
  FrameTransformMatrix {
     1.000000, 0.000000, 0.000000, 0.000000,
     0.000000,-0.000000, 1.000000, 0.000000,
     0.000000, 1.000000, 0.000000, 0.000000,
     0.000000, 0.000000, 0.000000, 1.000000;;
  }
  Frame Cube {
    FrameTransformMatrix {
       1.000000, 0.000000, 0.000000, 0.000000,
       0.000000, 1.000000, 0.000000, 0.000000,
       0.000000, 0.000000, 1.000000, 0.000000,
       0.000000, 0.000000, 0.000000, 1.000000;;
    }
    Mesh { // Cube mesh
      336;
      -0.041751; 0.050381;-0.065596;,
       0.049687; 0.051911;-0.066352;,
       0.074740; 0.086530;-0.028361;,
      -0.047583; 0.084484;-0.027349;,
      -0.047706; 0.090897;-0.029189;,
      -0.047583; 0.084484;-0.027349;,
      -0.047488; 0.092398; 0.000238;,
      -0.047610; 0.098811;-0.001601;,
      -0.047706; 0.090897;-0.029189;,
       0.074617; 0.092943;-0.030201;,
       0.049517; 0.060811;-0.068905;,
      -0.041921; 0.059281;-0.068149;,
      -0.041921; 0.059281;-0.068149;,
       0.049517; 0.060811;-0.068905;,
       0.049687; 0.051911;-0.066352;,
      -0.041751; 0.050381;-0.065596;,
      -0.047583; 0.084484;-0.027349;,
      -0.047706; 0.090897;-0.029189;,
      -0.041921; 0.059281;-0.068149;,
      -0.041751; 0.050381;-0.065596;,
       0.074617; 0.092943;-0.030201;,
       0.074740; 0.086530;-0.028361;,
       0.049687; 0.051911;-0.066352;,
       0.049517; 0.060811;-0.068905;,
       0.074713; 0.100858;-0.002613;,
      -0.047610; 0.098811;-0.001601;,
      -0.045250; 0.078757; 0.051433;,
       0.056931; 0.080467; 0.050588;,
       0.074617; 0.092943;-0.030201;,
       0.074713; 0.100858;-0.002613;,
       0.126325; 0.098249;-0.006216;,
       0.126256; 0.092546;-0.026093;,
      -0.047583; 0.084484;-0.027349;,
       0.074740; 0.086530;-0.028361;,
       0.074835; 0.094445;-0.000773;,
      -0.047488; 0.092398; 0.000238;,
       0.074617; 0.092943;-0.030201;,
      -0.047706; 0.090897;-0.029189;,
      -0.047610; 0.098811;-0.001601;,
       0.074713; 0.100858;-0.002613;,
       0.056940; 0.077911; 0.046490;,
       0.056931; 0.080467; 0.050588;,
       0.074011; 0.035927; 0.079771;,
       0.065653; 0.045197; 0.068016;,
      -0.047610; 0.098811;-0.001601;,
      -0.047488; 0.092398; 0.000238;,
      -0.045241; 0.076201; 0.047335;,
      -0.045250; 0.078757; 0.051433;,
       0.074835; 0.094445;-0.000773;,
       0.074713; 0.100858;-0.002613;,
       0.056931; 0.080467; 0.050588;,
       0.056940; 0.077911; 0.046490;,
      -0.047488; 0.092398; 0.000238;,
       0.074835; 0.094445;-0.000773;,
       0.056940; 0.077911; 0.046490;,
      -0.045241; 0.076201; 0.047335;,
       0.126356; 0.087311;-0.024592;,
       0.126256; 0.092546;-0.026093;,
       0.126325; 0.098249;-0.006216;,
       0.126425; 0.093013;-0.004715;,
       0.074740; 0.086530;-0.028361;,
       0.074617; 0.092943;-0.030201;,
       0.126256; 0.092546;-0.026093;,
       0.126356; 0.087311;-0.024592;,
       0.074713; 0.100858;-0.002613;,
       0.074835; 0.094445;-0.000773;,
       0.126425; 0.093013;-0.004715;,
       0.126325; 0.098249;-0.006216;,
       0.074835; 0.094445;-0.000773;,
       0.074740; 0.086530;-0.028361;,
       0.126356; 0.087311;-0.024592;,
       0.126425; 0.093013;-0.004715;,
      -0.035527; 0.043504; 0.068853;,
       0.065653; 0.045197; 0.068016;,
       0.074011; 0.035927; 0.079771;,
      -0.043374; 0.033963; 0.080742;,
      -0.045241; 0.076201; 0.047335;,
       0.056940; 0.077911; 0.046490;,
       0.065653; 0.045197; 0.068016;,
      -0.035527; 0.043504; 0.068853;,
       0.056931; 0.080467; 0.050588;,
      -0.045250; 0.078757; 0.051433;,
      -0.043374; 0.033963; 0.080742;,
       0.074011; 0.035927; 0.079771;,
      -0.045250; 0.078757; 0.051433;,
      -0.045241; 0.076201; 0.047335;,
      -0.035527; 0.043504; 0.068853;,
      -0.043374; 0.033963; 0.080742;,
       0.047617; 0.027461; 0.093188;,
       0.020684; 0.027011; 0.093411;,
       0.021434;-0.011005; 0.107136;,
       0.048366;-0.010554; 0.106913;,
       0.020684; 0.027011; 0.093411;,
       0.047617; 0.027461; 0.093188;,
       0.047120; 0.049501; 0.077709;,
       0.020187; 0.049050; 0.077932;,
       0.020187; 0.049050; 0.077932;,
       0.047120; 0.049501; 0.077709;,
       0.047137; 0.046065; 0.072817;,
       0.020204; 0.045615; 0.073040;,
       0.020204; 0.045615; 0.073040;,
       0.047137; 0.046065; 0.072817;,
       0.047634; 0.024026; 0.088296;,
       0.020701; 0.023575; 0.088519;,
       0.020684; 0.027011; 0.093411;,
       0.020187; 0.049050; 0.077932;,
       0.020204; 0.045615; 0.073040;,
       0.020701; 0.023575; 0.088519;,
       0.047120; 0.049501; 0.077709;,
       0.047617; 0.027461; 0.093188;,
       0.047634; 0.024026; 0.088296;,
       0.047137; 0.046065; 0.072817;,
       0.048383;-0.013990; 0.102021;,
       0.048366;-0.010554; 0.106913;,
       0.048794;-0.036635; 0.105908;,
       0.048700;-0.033504; 0.100817;,
       0.020701; 0.023575; 0.088519;,
       0.047634; 0.024026; 0.088296;,
       0.048383;-0.013990; 0.102021;,
       0.021451;-0.014440; 0.102244;,
       0.047634; 0.024026; 0.088296;,
       0.047617; 0.027461; 0.093188;,
       0.048366;-0.010554; 0.106913;,
       0.048383;-0.013990; 0.102021;,
       0.020684; 0.027011; 0.093411;,
       0.020701; 0.023575; 0.088519;,
       0.021451;-0.014440; 0.102244;,
       0.021434;-0.011005; 0.107136;,
       0.021862;-0.037086; 0.106130;,
       0.021767;-0.033954; 0.101039;,
       0.028311;-0.064908; 0.081878;,
       0.028405;-0.068040; 0.086969;,
       0.021434;-0.011005; 0.107136;,
       0.021451;-0.014440; 0.102244;,
       0.021767;-0.033954; 0.101039;,
       0.021862;-0.037086; 0.106130;,
       0.048366;-0.010554; 0.106913;,
       0.021434;-0.011005; 0.107136;,
       0.021862;-0.037086; 0.106130;,
       0.048794;-0.036635; 0.105908;,
       0.021451;-0.014440; 0.102244;,
       0.048383;-0.013990; 0.102021;,
       0.048700;-0.033504; 0.100817;,
       0.021767;-0.033954; 0.101039;,
       0.055338;-0.067589; 0.086746;,
       0.028405;-0.068040; 0.086969;,
       0.028498;-0.090191; 0.053408;,
       0.055431;-0.089741; 0.053185;,
       0.048794;-0.036635; 0.105908;,
       0.021862;-0.037086; 0.106130;,
       0.028405;-0.068040; 0.086969;,
       0.055338;-0.067589; 0.086746;,
       0.021767;-0.033954; 0.101039;,
       0.048700;-0.033504; 0.100817;,
       0.055243;-0.064458; 0.081655;,
       0.028311;-0.064908; 0.081878;,
       0.048700;-0.033504; 0.100817;,
       0.048794;-0.036635; 0.105908;,
       0.055338;-0.067589; 0.086746;,
       0.055243;-0.064458; 0.081655;,
       0.055336;-0.086609; 0.048094;,
       0.055431;-0.089741; 0.053185;,
       0.055172;-0.092927; 0.015459;,
       0.055065;-0.087021; 0.014542;,
       0.028311;-0.064908; 0.081878;,
       0.055243;-0.064458; 0.081655;,
       0.055336;-0.086609; 0.048094;,
       0.028404;-0.087060; 0.048317;,
       0.055243;-0.064458; 0.081655;,
       0.055338;-0.067589; 0.086746;,
       0.055431;-0.089741; 0.053185;,
       0.055336;-0.086609; 0.048094;,
       0.028405;-0.068040; 0.086969;,
       0.028311;-0.064908; 0.081878;,
       0.028404;-0.087060; 0.048317;,
       0.028498;-0.090191; 0.053408;,
       0.055065;-0.087021; 0.014542;,
       0.055172;-0.092927; 0.015459;,
       0.054650;-0.091694;-0.045164;,
       0.054543;-0.085788;-0.046082;,
       0.028498;-0.090191; 0.053408;,
       0.028404;-0.087060; 0.048317;,
       0.028133;-0.087472; 0.014764;,
       0.028239;-0.093378; 0.015682;,
       0.055431;-0.089741; 0.053185;,
       0.028498;-0.090191; 0.053408;,
       0.028239;-0.093378; 0.015682;,
       0.055172;-0.092927; 0.015459;,
       0.028404;-0.087060; 0.048317;,
       0.055336;-0.086609; 0.048094;,
       0.055065;-0.087021; 0.014542;,
       0.028133;-0.087472; 0.014764;,
       0.054650;-0.091694;-0.045164;,
       0.027717;-0.092145;-0.044941;,
       0.026868;-0.063559;-0.089848;,
       0.053800;-0.063108;-0.090071;,
       0.028239;-0.093378; 0.015682;,
       0.028133;-0.087472; 0.014764;,
       0.027611;-0.086239;-0.045859;,
       0.027717;-0.092145;-0.044941;,
       0.055172;-0.092927; 0.015459;,
       0.028239;-0.093378; 0.015682;,
       0.027717;-0.092145;-0.044941;,
       0.054650;-0.091694;-0.045164;,
       0.028133;-0.087472; 0.014764;,
       0.055065;-0.087021; 0.014542;,
       0.054543;-0.085788;-0.046082;,
       0.027611;-0.086239;-0.045859;,
       0.053777;-0.059395;-0.085387;,
       0.053800;-0.063108;-0.090071;,
       0.053001;-0.022119;-0.103778;,
       0.053069;-0.023274;-0.097913;,
       0.027611;-0.086239;-0.045859;,
       0.054543;-0.085788;-0.046082;,
       0.053777;-0.059395;-0.085387;,
       0.026844;-0.059846;-0.085164;,
       0.054543;-0.085788;-0.046082;,
       0.054650;-0.091694;-0.045164;,
       0.053800;-0.063108;-0.090071;,
       0.053777;-0.059395;-0.085387;,
       0.027717;-0.092145;-0.044941;,
       0.027611;-0.086239;-0.045859;,
       0.026844;-0.059846;-0.085164;,
       0.026868;-0.063559;-0.089848;,
       0.026068;-0.022569;-0.103555;,
       0.026136;-0.023724;-0.097691;,
       0.025509; 0.019430;-0.086174;,
       0.025442; 0.020585;-0.092039;,
       0.026868;-0.063559;-0.089848;,
       0.026844;-0.059846;-0.085164;,
       0.026136;-0.023724;-0.097691;,
       0.026068;-0.022569;-0.103555;,
       0.053800;-0.063108;-0.090071;,
       0.026868;-0.063559;-0.089848;,
       0.026068;-0.022569;-0.103555;,
       0.053001;-0.022119;-0.103778;,
       0.026844;-0.059846;-0.085164;,
       0.053777;-0.059395;-0.085387;,
       0.053069;-0.023274;-0.097913;,
       0.026136;-0.023724;-0.097691;,
       0.052374; 0.021035;-0.092262;,
       0.025442; 0.020585;-0.092039;,
       0.018569; 0.062430;-0.071508;,
       0.045502; 0.062881;-0.071731;,
       0.053001;-0.022119;-0.103778;,
       0.026068;-0.022569;-0.103555;,
       0.025442; 0.020585;-0.092039;,
       0.052374; 0.021035;-0.092262;,
       0.026136;-0.023724;-0.097691;,
       0.053069;-0.023274;-0.097913;,
       0.052442; 0.019881;-0.086397;,
       0.025509; 0.019430;-0.086174;,
       0.053069;-0.023274;-0.097913;,
       0.053001;-0.022119;-0.103778;,
       0.052374; 0.021035;-0.092262;,
       0.052442; 0.019881;-0.086397;,
       0.045569; 0.061726;-0.065866;,
       0.045502; 0.062881;-0.071731;,
       0.045264; 0.097077;-0.031239;,
       0.045374; 0.091288;-0.029753;,
       0.025509; 0.019430;-0.086174;,
       0.052442; 0.019881;-0.086397;,
       0.045569; 0.061726;-0.065866;,
       0.018637; 0.061275;-0.065643;,
       0.052442; 0.019881;-0.086397;,
       0.052374; 0.021035;-0.092262;,
       0.045502; 0.062881;-0.071731;,
       0.045569; 0.061726;-0.065866;,
       0.025442; 0.020585;-0.092039;,
       0.025509; 0.019430;-0.086174;,
       0.018637; 0.061275;-0.065643;,
       0.018569; 0.062430;-0.071508;,
       0.045264; 0.097077;-0.031239;,
       0.018332; 0.096626;-0.031017;,
       0.018543; 0.101636; 0.004639;,
       0.045475; 0.102087; 0.004416;,
       0.018569; 0.062430;-0.071508;,
       0.018637; 0.061275;-0.065643;,
       0.018441; 0.090837;-0.029530;,
       0.018332; 0.096626;-0.031017;,
       0.045502; 0.062881;-0.071731;,
       0.018569; 0.062430;-0.071508;,
       0.018332; 0.096626;-0.031017;,
       0.045264; 0.097077;-0.031239;,
       0.018637; 0.061275;-0.065643;,
       0.045569; 0.061726;-0.065866;,
       0.045374; 0.091288;-0.029753;,
       0.018441; 0.090837;-0.029530;,
       0.018618; 0.096073; 0.002454;,
       0.045550; 0.096523; 0.002231;,
       0.046258; 0.078393; 0.051068;,
       0.019325; 0.077943; 0.051291;,
       0.018441; 0.090837;-0.029530;,
       0.045374; 0.091288;-0.029753;,
       0.045550; 0.096523; 0.002231;,
       0.018618; 0.096073; 0.002454;,
       0.045374; 0.091288;-0.029753;,
       0.045264; 0.097077;-0.031239;,
       0.045475; 0.102087; 0.004416;,
       0.045550; 0.096523; 0.002231;,
       0.018332; 0.096626;-0.031017;,
       0.018441; 0.090837;-0.029530;,
       0.018618; 0.096073; 0.002454;,
       0.018543; 0.101636; 0.004639;,
       0.046258; 0.078393; 0.051068;,
       0.046249; 0.081468; 0.056195;,
       0.046981; 0.047702; 0.076442;,
       0.046990; 0.044628; 0.071316;,
       0.045550; 0.096523; 0.002231;,
       0.045475; 0.102087; 0.004416;,
       0.046249; 0.081468; 0.056195;,
       0.046258; 0.078393; 0.051068;,
       0.018543; 0.101636; 0.004639;,
       0.018618; 0.096073; 0.002454;,
       0.019325; 0.077943; 0.051291;,
       0.019316; 0.081017; 0.056417;,
       0.045475; 0.102087; 0.004416;,
       0.018543; 0.101636; 0.004639;,
       0.019316; 0.081017; 0.056417;,
       0.046249; 0.081468; 0.056195;,
       0.020058; 0.044177; 0.071538;,
       0.046990; 0.044628; 0.071316;,
       0.046981; 0.047702; 0.076442;,
       0.020049; 0.047251; 0.076665;,
       0.019316; 0.081017; 0.056417;,
       0.019325; 0.077943; 0.051291;,
       0.020058; 0.044177; 0.071538;,
       0.020049; 0.047251; 0.076665;,
       0.046249; 0.081468; 0.056195;,
       0.019316; 0.081017; 0.056417;,
       0.020049; 0.047251; 0.076665;,
       0.046981; 0.047702; 0.076442;,
       0.019325; 0.077943; 0.051291;,
       0.046258; 0.078393; 0.051068;,
       0.046990; 0.044628; 0.071316;,
       0.020058; 0.044177; 0.071538;;
      84;
      4;3,2,1,0;,
      4;7,6,5,4;,
      4;11,10,9,8;,
      4;15,14,13,12;,
      4;19,18,17,16;,
      4;23,22,21,20;,
      4;27,26,25,24;,
      4;31,30,29,28;,
      4;35,34,33,32;,
      4;39,38,37,36;,
      4;43,42,41,40;,
      4;47,46,45,44;,
      4;51,50,49,48;,
      4;55,54,53,52;,
      4;59,58,57,56;,
      4;63,62,61,60;,
      4;67,66,65,64;,
      4;71,70,69,68;,
      4;75,74,73,72;,
      4;79,78,77,76;,
      4;83,82,81,80;,
      4;87,86,85,84;,
      4;91,90,89,88;,
      4;95,94,93,92;,
      4;99,98,97,96;,
      4;103,102,101,100;,
      4;107,106,105,104;,
      4;111,110,109,108;,
      4;115,114,113,112;,
      4;119,118,117,116;,
      4;123,122,121,120;,
      4;127,126,125,124;,
      4;131,130,129,128;,
      4;135,134,133,132;,
      4;139,138,137,136;,
      4;143,142,141,140;,
      4;147,146,145,144;,
      4;151,150,149,148;,
      4;155,154,153,152;,
      4;159,158,157,156;,
      4;163,162,161,160;,
      4;167,166,165,164;,
      4;171,170,169,168;,
      4;175,174,173,172;,
      4;179,178,177,176;,
      4;183,182,181,180;,
      4;187,186,185,184;,
      4;191,190,189,188;,
      4;195,194,193,192;,
      4;199,198,197,196;,
      4;203,202,201,200;,
      4;207,206,205,204;,
      4;211,210,209,208;,
      4;215,214,213,212;,
      4;219,218,217,216;,
      4;223,222,221,220;,
      4;227,226,225,224;,
      4;231,230,229,228;,
      4;235,234,233,232;,
      4;239,238,237,236;,
      4;243,242,241,240;,
      4;247,246,245,244;,
      4;251,250,249,248;,
      4;255,254,253,252;,
      4;259,258,257,256;,
      4;263,262,261,260;,
      4;267,266,265,264;,
      4;271,270,269,268;,
      4;275,274,273,272;,
      4;279,278,277,276;,
      4;283,282,281,280;,
      4;287,286,285,284;,
      4;291,290,289,288;,
      4;295,294,293,292;,
      4;299,298,297,296;,
      4;303,302,301,300;,
      4;307,306,305,304;,
      4;311,310,309,308;,
      4;315,314,313,312;,
      4;319,318,317,316;,
      4;323,322,321,320;,
      4;327,326,325,324;,
      4;331,330,329,328;,
      4;335,334,333,332;;
      MeshNormals { // Cube normals
        336;
        -0.515244;-0.822382;-0.241188;,
         0.432356;-0.854030;-0.289254;,
         0.384320;-0.906034;-0.177160;,
        -0.763207;-0.590960; 0.261269;,
        -0.686911; 0.630268;-0.361736;,
        -0.763207;-0.590960; 0.261269;,
        -0.772362;-0.635121; 0.005402;,
        -0.658956; 0.750999; 0.041627;,
        -0.686911; 0.630268;-0.361736;,
         0.235420; 0.653005;-0.719810;,
         0.396161; 0.221046;-0.891140;,
        -0.568224; 0.219916;-0.792901;,
        -0.568224; 0.219916;-0.792901;,
         0.396161; 0.221046;-0.891140;,
         0.432356;-0.854030;-0.289254;,
        -0.515244;-0.822382;-0.241188;,
        -0.763207;-0.590960; 0.261269;,
        -0.686911; 0.630268;-0.361736;,
        -0.568224; 0.219916;-0.792901;,
        -0.515244;-0.822382;-0.241188;,
         0.235420; 0.653005;-0.719810;,
         0.384320;-0.906034;-0.177160;,
         0.432356;-0.854030;-0.289254;,
         0.396161; 0.221046;-0.891140;,
         0.216529; 0.934049; 0.283914;,
        -0.658956; 0.750999; 0.041627;,
        -0.735527; 0.567919; 0.369335;,
         0.576922; 0.682211; 0.449141;,
         0.235420; 0.653005;-0.719810;,
         0.216529; 0.934049; 0.283914;,
         0.601398; 0.707022; 0.372021;,
         0.597674; 0.401135;-0.694113;,
        -0.763207;-0.590960; 0.261269;,
         0.384320;-0.906034;-0.177160;,
         0.428419;-0.741020; 0.517014;,
        -0.772362;-0.635121; 0.005402;,
         0.235420; 0.653005;-0.719810;,
        -0.686911; 0.630268;-0.361736;,
        -0.658956; 0.750999; 0.041627;,
         0.216529; 0.934049; 0.283914;,
         0.689444;-0.586230;-0.425367;,
         0.576922; 0.682211; 0.449141;,
         0.758232;-0.352916; 0.548143;,
         0.480422;-0.477004;-0.735954;,
        -0.658956; 0.750999; 0.041627;,
        -0.772362;-0.635121; 0.005402;,
        -0.650105;-0.594440;-0.473190;,
        -0.735527; 0.567919; 0.369335;,
         0.428419;-0.741020; 0.517014;,
         0.216529; 0.934049; 0.283914;,
         0.576922; 0.682211; 0.449141;,
         0.689444;-0.586230;-0.425367;,
        -0.772362;-0.635121; 0.005402;,
         0.428419;-0.741020; 0.517014;,
         0.689444;-0.586230;-0.425367;,
        -0.650105;-0.594440;-0.473190;,
         0.599292;-0.708518;-0.372539;,
         0.597674; 0.401135;-0.694113;,
         0.601398; 0.707022; 0.372021;,
         0.602985;-0.404370; 0.687643;,
         0.384320;-0.906034;-0.177160;,
         0.235420; 0.653005;-0.719810;,
         0.597674; 0.401135;-0.694113;,
         0.599292;-0.708518;-0.372539;,
         0.216529; 0.934049; 0.283914;,
         0.428419;-0.741020; 0.517014;,
         0.602985;-0.404370; 0.687643;,
         0.601398; 0.707022; 0.372021;,
         0.428419;-0.741020; 0.517014;,
         0.384320;-0.906034;-0.177160;,
         0.599292;-0.708518;-0.372539;,
         0.602985;-0.404370; 0.687643;,
        -0.284280;-0.643880;-0.710318;,
         0.480422;-0.477004;-0.735954;,
         0.758232;-0.352916; 0.548143;,
        -0.702109;-0.427076; 0.569720;,
        -0.650105;-0.594440;-0.473190;,
         0.689444;-0.586230;-0.425367;,
         0.480422;-0.477004;-0.735954;,
        -0.284280;-0.643880;-0.710318;,
         0.576922; 0.682211; 0.449141;,
        -0.735527; 0.567919; 0.369335;,
        -0.702109;-0.427076; 0.569720;,
         0.758232;-0.352916; 0.548143;,
        -0.735527; 0.567919; 0.369335;,
        -0.650105;-0.594440;-0.473190;,
        -0.284280;-0.643880;-0.710318;,
        -0.702109;-0.427076; 0.569720;,
         0.678060; 0.350169; 0.646199;,
        -0.678610; 0.327464; 0.657430;,
        -0.662160; 0.103244; 0.742180;,
         0.670522; 0.125523; 0.731162;,
        -0.678610; 0.327464; 0.657430;,
         0.678060; 0.350169; 0.646199;,
         0.564928; 0.813837; 0.135899;,
        -0.589526; 0.794519; 0.145451;,
        -0.589526; 0.794519; 0.145451;,
         0.564928; 0.813837; 0.135899;,
         0.568224; 0.150212;-0.809015;,
        -0.586230; 0.130894;-0.799463;,
        -0.586230; 0.130894;-0.799463;,
         0.568224; 0.150212;-0.809015;,
         0.738304;-0.298776;-0.604663;,
        -0.737785;-0.323466;-0.592425;,
        -0.678610; 0.327464; 0.657430;,
        -0.589526; 0.794519; 0.145451;,
        -0.586230; 0.130894;-0.799463;,
        -0.737785;-0.323466;-0.592425;,
         0.564928; 0.813837; 0.135899;,
         0.678060; 0.350169; 0.646199;,
         0.738304;-0.298776;-0.604663;,
         0.568224; 0.150212;-0.809015;,
         0.751732;-0.080355;-0.654530;,
         0.670522; 0.125523; 0.731162;,
         0.631916;-0.168157; 0.756554;,
         0.742851; 0.269143;-0.612934;,
        -0.737785;-0.323466;-0.592425;,
         0.738304;-0.298776;-0.604663;,
         0.751732;-0.080355;-0.654530;,
        -0.759331;-0.105655;-0.642018;,
         0.738304;-0.298776;-0.604663;,
         0.678060; 0.350169; 0.646199;,
         0.670522; 0.125523; 0.731162;,
         0.751732;-0.080355;-0.654530;,
        -0.678610; 0.327464; 0.657430;,
        -0.737785;-0.323466;-0.592425;,
        -0.759331;-0.105655;-0.642018;,
        -0.662160; 0.103244; 0.742180;,
        -0.668813;-0.276772; 0.689962;,
        -0.780053; 0.117222;-0.614582;,
        -0.755699; 0.405927;-0.513932;,
        -0.617420;-0.585894; 0.524857;,
        -0.662160; 0.103244; 0.742180;,
        -0.759331;-0.105655;-0.642018;,
        -0.780053; 0.117222;-0.614582;,
        -0.668813;-0.276772; 0.689962;,
         0.670522; 0.125523; 0.731162;,
        -0.662160; 0.103244; 0.742180;,
        -0.668813;-0.276772; 0.689962;,
         0.631916;-0.168157; 0.756554;,
        -0.759331;-0.105655;-0.642018;,
         0.751732;-0.080355;-0.654530;,
         0.742851; 0.269143;-0.612934;,
        -0.780053; 0.117222;-0.614582;,
         0.697195;-0.453536; 0.555162;,
        -0.617420;-0.585894; 0.524857;,
        -0.641377;-0.724326; 0.252785;,
         0.669362;-0.702414; 0.241951;,
         0.631916;-0.168157; 0.756554;,
        -0.668813;-0.276772; 0.689962;,
        -0.617420;-0.585894; 0.524857;,
         0.697195;-0.453536; 0.555162;,
        -0.780053; 0.117222;-0.614582;,
         0.742851; 0.269143;-0.612934;,
         0.755211; 0.502335;-0.421033;,
        -0.755699; 0.405927;-0.513932;,
         0.742851; 0.269143;-0.612934;,
         0.631916;-0.168157; 0.756554;,
         0.697195;-0.453536; 0.555162;,
         0.755211; 0.502335;-0.421033;,
         0.764580; 0.615436;-0.191321;,
         0.669362;-0.702414; 0.241951;,
         0.707602;-0.706381; 0.017090;,
         0.698904; 0.715171;-0.002930;,
        -0.755699; 0.405927;-0.513932;,
         0.755211; 0.502335;-0.421033;,
         0.764580; 0.615436;-0.191321;,
        -0.787805; 0.589465;-0.178472;,
         0.755211; 0.502335;-0.421033;,
         0.697195;-0.453536; 0.555162;,
         0.669362;-0.702414; 0.241951;,
         0.764580; 0.615436;-0.191321;,
        -0.617420;-0.585894; 0.524857;,
        -0.755699; 0.405927;-0.513932;,
        -0.787805; 0.589465;-0.178472;,
        -0.641377;-0.724326; 0.252785;,
         0.698904; 0.715171;-0.002930;,
         0.707602;-0.706381; 0.017090;,
         0.661306;-0.715506;-0.225105;,
         0.767693; 0.613971; 0.183416;,
        -0.641377;-0.724326; 0.252785;,
        -0.787805; 0.589465;-0.178472;,
        -0.722404; 0.691397; 0.008789;,
        -0.683187;-0.729667; 0.028596;,
         0.669362;-0.702414; 0.241951;,
        -0.641377;-0.724326; 0.252785;,
        -0.683187;-0.729667; 0.028596;,
         0.707602;-0.706381; 0.017090;,
        -0.787805; 0.589465;-0.178472;,
         0.764580; 0.615436;-0.191321;,
         0.698904; 0.715171;-0.002930;,
        -0.722404; 0.691397; 0.008789;,
         0.661306;-0.715506;-0.225105;,
        -0.640645;-0.737297;-0.214331;,
        -0.636036;-0.484207;-0.600757;,
         0.641865;-0.462844;-0.611347;,
        -0.683187;-0.729667; 0.028596;,
        -0.722404; 0.691397; 0.008789;,
        -0.784661; 0.588000; 0.196265;,
        -0.640645;-0.737297;-0.214331;,
         0.707602;-0.706381; 0.017090;,
        -0.683187;-0.729667; 0.028596;,
        -0.640645;-0.737297;-0.214331;,
         0.661306;-0.715506;-0.225105;,
        -0.722404; 0.691397; 0.008789;,
         0.698904; 0.715171;-0.002930;,
         0.767693; 0.613971; 0.183416;,
        -0.784661; 0.588000; 0.196265;,
         0.783532; 0.390545; 0.483230;,
         0.641865;-0.462844;-0.611347;,
         0.641713;-0.012818;-0.766808;,
         0.783990; 0.035981; 0.619678;,
        -0.784661; 0.588000; 0.196265;,
         0.767693; 0.613971; 0.183416;,
         0.783532; 0.390545; 0.483230;,
        -0.788049; 0.364238; 0.496231;,
         0.767693; 0.613971; 0.183416;,
         0.661306;-0.715506;-0.225105;,
         0.641865;-0.462844;-0.611347;,
         0.783532; 0.390545; 0.483230;,
        -0.640645;-0.737297;-0.214331;,
        -0.784661; 0.588000; 0.196265;,
        -0.788049; 0.364238; 0.496231;,
        -0.636036;-0.484207;-0.600757;,
        -0.653523;-0.034486;-0.756096;,
        -0.774407; 0.009888; 0.632588;,
        -0.696829;-0.311014; 0.646229;,
        -0.681631; 0.211432;-0.700461;,
        -0.636036;-0.484207;-0.600757;,
        -0.788049; 0.364238; 0.496231;,
        -0.774407; 0.009888; 0.632588;,
        -0.653523;-0.034486;-0.756096;,
         0.641865;-0.462844;-0.611347;,
        -0.636036;-0.484207;-0.600757;,
        -0.653523;-0.034486;-0.756096;,
         0.641713;-0.012818;-0.766808;,
        -0.788049; 0.364238; 0.496231;,
         0.783532; 0.390545; 0.483230;,
         0.783990; 0.035981; 0.619678;,
        -0.774407; 0.009888; 0.632588;,
         0.686087; 0.299356;-0.663015;,
        -0.681631; 0.211432;-0.700461;,
        -0.702109; 0.391583;-0.594684;,
         0.617512; 0.522935;-0.587512;,
         0.641713;-0.012818;-0.766808;,
        -0.653523;-0.034486;-0.756096;,
        -0.681631; 0.211432;-0.700461;,
         0.686087; 0.299356;-0.663015;,
        -0.774407; 0.009888; 0.632588;,
         0.783990; 0.035981; 0.619678;,
         0.753655;-0.164006; 0.636433;,
        -0.696829;-0.311014; 0.646229;,
         0.783990; 0.035981; 0.619678;,
         0.641713;-0.012818;-0.766808;,
         0.686087; 0.299356;-0.663015;,
         0.753655;-0.164006; 0.636433;,
         0.762535;-0.363964; 0.534806;,
         0.617512; 0.522935;-0.587512;,
         0.635395; 0.704703;-0.315592;,
         0.782037;-0.568194; 0.255989;,
        -0.696829;-0.311014; 0.646229;,
         0.753655;-0.164006; 0.636433;,
         0.762535;-0.363964; 0.534806;,
        -0.750664;-0.445753; 0.487594;,
         0.753655;-0.164006; 0.636433;,
         0.686087; 0.299356;-0.663015;,
         0.617512; 0.522935;-0.587512;,
         0.762535;-0.363964; 0.534806;,
        -0.681631; 0.211432;-0.700461;,
        -0.696829;-0.311014; 0.646229;,
        -0.750664;-0.445753; 0.487594;,
        -0.702109; 0.391583;-0.594684;,
         0.635395; 0.704703;-0.315592;,
        -0.663747; 0.682974;-0.304849;,
        -0.665395; 0.740287; 0.095859;,
         0.641743; 0.762169; 0.085025;,
        -0.702109; 0.391583;-0.594684;,
        -0.750664;-0.445753; 0.487594;,
        -0.758232;-0.593982; 0.268715;,
        -0.663747; 0.682974;-0.304849;,
         0.617512; 0.522935;-0.587512;,
        -0.702109; 0.391583;-0.594684;,
        -0.663747; 0.682974;-0.304849;,
         0.635395; 0.704703;-0.315592;,
        -0.750664;-0.445753; 0.487594;,
         0.762535;-0.363964; 0.534806;,
         0.782037;-0.568194; 0.255989;,
        -0.758232;-0.593982; 0.268715;,
        -0.759239;-0.648427;-0.055300;,
         0.779504;-0.622669;-0.068026;,
         0.794275;-0.458602;-0.398450;,
        -0.784967;-0.485031;-0.385388;,
        -0.758232;-0.593982; 0.268715;,
         0.782037;-0.568194; 0.255989;,
         0.779504;-0.622669;-0.068026;,
        -0.759239;-0.648427;-0.055300;,
         0.782037;-0.568194; 0.255989;,
         0.635395; 0.704703;-0.315592;,
         0.641743; 0.762169; 0.085025;,
         0.779504;-0.622669;-0.068026;,
        -0.663747; 0.682974;-0.304849;,
        -0.758232;-0.593982; 0.268715;,
        -0.759239;-0.648427;-0.055300;,
        -0.665395; 0.740287; 0.095859;,
         0.794275;-0.458602;-0.398450;,
         0.635884; 0.594897; 0.491653;,
         0.587115;-0.188482; 0.787225;,
         0.588855;-0.782281;-0.203040;,
         0.779504;-0.622669;-0.068026;,
         0.641743; 0.762169; 0.085025;,
         0.635884; 0.594897; 0.491653;,
         0.794275;-0.458602;-0.398450;,
        -0.665395; 0.740287; 0.095859;,
        -0.759239;-0.648427;-0.055300;,
        -0.784967;-0.485031;-0.385388;,
        -0.647206; 0.573412; 0.502274;,
         0.641743; 0.762169; 0.085025;,
        -0.665395; 0.740287; 0.095859;,
        -0.647206; 0.573412; 0.502274;,
         0.635884; 0.594897; 0.491653;,
        -0.565630;-0.801599;-0.193487;,
         0.588855;-0.782281;-0.203040;,
         0.587115;-0.188482; 0.787225;,
        -0.567370;-0.207801; 0.796777;,
        -0.647206; 0.573412; 0.502274;,
        -0.784967;-0.485031;-0.385388;,
        -0.565630;-0.801599;-0.193487;,
        -0.567370;-0.207801; 0.796777;,
         0.635884; 0.594897; 0.491653;,
        -0.647206; 0.573412; 0.502274;,
        -0.567370;-0.207801; 0.796777;,
         0.587115;-0.188482; 0.787225;,
        -0.784967;-0.485031;-0.385388;,
         0.794275;-0.458602;-0.398450;,
         0.588855;-0.782281;-0.203040;,
        -0.565630;-0.801599;-0.193487;;
        84;
        4;3,2,1,0;,
        4;7,6,5,4;,
        4;11,10,9,8;,
        4;15,14,13,12;,
        4;19,18,17,16;,
        4;23,22,21,20;,
        4;27,26,25,24;,
        4;31,30,29,28;,
        4;35,34,33,32;,
        4;39,38,37,36;,
        4;43,42,41,40;,
        4;47,46,45,44;,
        4;51,50,49,48;,
        4;55,54,53,52;,
        4;59,58,57,56;,
        4;63,62,61,60;,
        4;67,66,65,64;,
        4;71,70,69,68;,
        4;75,74,73,72;,
        4;79,78,77,76;,
        4;83,82,81,80;,
        4;87,86,85,84;,
        4;91,90,89,88;,
        4;95,94,93,92;,
        4;99,98,97,96;,
        4;103,102,101,100;,
        4;107,106,105,104;,
        4;111,110,109,108;,
        4;115,114,113,112;,
        4;119,118,117,116;,
        4;123,122,121,120;,
        4;127,126,125,124;,
        4;131,130,129,128;,
        4;135,134,133,132;,
        4;139,138,137,136;,
        4;143,142,141,140;,
        4;147,146,145,144;,
        4;151,150,149,148;,
        4;155,154,153,152;,
        4;159,158,157,156;,
        4;163,162,161,160;,
        4;167,166,165,164;,
        4;171,170,169,168;,
        4;175,174,173,172;,
        4;179,178,177,176;,
        4;183,182,181,180;,
        4;187,186,185,184;,
        4;191,190,189,188;,
        4;195,194,193,192;,
        4;199,198,197,196;,
        4;203,202,201,200;,
        4;207,206,205,204;,
        4;211,210,209,208;,
        4;215,214,213,212;,
        4;219,218,217,216;,
        4;223,222,221,220;,
        4;227,226,225,224;,
        4;231,230,229,228;,
        4;235,234,233,232;,
        4;239,238,237,236;,
        4;243,242,241,240;,
        4;247,246,245,244;,
        4;251,250,249,248;,
        4;255,254,253,252;,
        4;259,258,257,256;,
        4;263,262,261,260;,
        4;267,266,265,264;,
        4;271,270,269,268;,
        4;275,274,273,272;,
        4;279,278,277,276;,
        4;283,282,281,280;,
        4;287,286,285,284;,
        4;291,290,289,288;,
        4;295,294,293,292;,
        4;299,298,297,296;,
        4;303,302,301,300;,
        4;307,306,305,304;,
        4;311,310,309,308;,
        4;315,314,313,312;,
        4;319,318,317,316;,
        4;323,322,321,320;,
        4;327,326,325,324;,
        4;331,330,329,328;,
        4;335,334,333,332;;
      } // End of Cube normals
      MeshTextureCoords { // Cube UV coordinates
        336;
         0.393135; 0.530280;,
         0.393135; 0.325145;,
         0.298957; 0.269472;,
         0.298957; 0.543894;,
         0.024885; 0.464926;,
         0.038942; 0.459227;,
         0.014058; 0.399694;,
         0.000000; 0.405393;,
         0.126255; 0.269461;,
         0.126255; 0.543894;,
         0.209319; 0.486058;,
         0.209319; 0.280916;,
         0.209319; 0.280916;,
         0.209319; 0.486058;,
         0.228684; 0.486171;,
         0.228684; 0.281029;,
         0.038942; 0.459227;,
         0.024885; 0.464926;,
         0.106746; 0.543894;,
         0.126255; 0.535985;,
         0.372190; 0.269472;,
         0.385933; 0.263071;,
         0.385933; 0.147032;,
         0.366860; 0.155914;,
         0.583833; 0.428384;,
         0.583833; 0.153925;,
         0.456277; 0.157482;,
         0.456277; 0.386748;,
         0.641866; 0.428384;,
         0.583833; 0.428384;,
         0.589357; 0.544117;,
         0.631170; 0.544117;,
         0.811637; 0.544117;,
         0.811637; 0.269658;,
         0.754957; 0.269658;,
         0.754957; 0.544117;,
         0.641866; 0.428384;,
         0.641866; 0.153925;,
         0.583833; 0.153925;,
         0.583833; 0.428384;,
         0.963558; 0.162997;,
         0.953358; 0.167058;,
         0.996170; 0.280168;,
         0.994925; 0.245907;,
         0.000000; 0.405393;,
         0.014058; 0.399694;,
         0.038974; 0.290653;,
         0.032152; 0.282154;,
         0.996170; 0.057068;,
         0.986813; 0.045269;,
         0.953358; 0.167058;,
         0.963558; 0.162997;,
         0.754957; 0.544117;,
         0.754957; 0.269658;,
         0.641866; 0.311294;,
         0.641866; 0.540561;,
         0.502596; 0.153925;,
         0.515007; 0.153923;,
         0.515007; 0.107546;,
         0.502596; 0.107549;,
         0.195738; 0.269461;,
         0.209692; 0.269461;,
         0.207478; 0.153607;,
         0.196087; 0.153607;,
         0.209692; 0.269461;,
         0.223115; 0.268815;,
         0.223115; 0.152798;,
         0.212157; 0.153326;,
         0.754957; 0.269658;,
         0.811637; 0.269658;,
         0.802310; 0.153925;,
         0.761472; 0.153925;,
         1.000000; 0.525936;,
         1.000000; 0.298916;,
         0.968697; 0.280736;,
         0.968697; 0.544117;,
         0.366860; 0.269472;,
         0.366860; 0.040226;,
         0.298957; 0.021527;,
         0.298957; 0.248526;,
         0.882530; 0.314880;,
         0.882530; 0.544117;,
         0.968697; 0.543515;,
         0.968697; 0.280168;,
         0.032152; 0.282154;,
         0.038974; 0.290653;,
         0.108291; 0.234510;,
         0.126255; 0.205644;,
         0.953358; 0.003809;,
         0.892111; 0.000000;,
         0.886388; 0.076921;,
         0.947636; 0.080729;,
         0.228684; 0.106680;,
         0.228684; 0.167109;,
         0.273225; 0.167109;,
         0.273225; 0.106680;,
         0.273225; 0.106680;,
         0.273225; 0.167109;,
         0.282596; 0.167109;,
         0.282596; 0.106680;,
         0.456277; 0.093496;,
         0.456277; 0.153925;,
         0.502596; 0.153925;,
         0.502596; 0.093496;,
         0.382681; 0.911237;,
         0.412328; 0.858327;,
         0.400405; 0.851849;,
         0.370759; 0.904759;,
         0.500513; 0.858900;,
         0.530370; 0.911687;,
         0.542270; 0.905168;,
         0.512413; 0.852381;,
         0.606639; 0.970025;,
         0.594740; 0.976544;,
         0.649238; 1.000000;,
         0.647864; 0.986662;,
         0.134518; 0.269461;,
         0.195738; 0.265215;,
         0.190558; 0.184753;,
         0.129338; 0.188999;,
         0.542270; 0.905168;,
         0.530370; 0.911687;,
         0.594740; 0.976544;,
         0.606639; 0.970025;,
         0.382681; 0.911237;,
         0.370759; 0.904759;,
         0.306652; 0.969864;,
         0.318575; 0.976342;,
         0.264178; 1.000000;,
         0.265499; 0.986653;,
         0.182523; 0.978684;,
         0.181201; 0.992031;,
         0.318575; 0.976342;,
         0.306652; 0.969864;,
         0.265499; 0.986653;,
         0.264178; 1.000000;,
         0.947636; 0.080729;,
         0.886388; 0.076921;,
         0.882530; 0.134521;,
         0.943778; 0.138330;,
         0.129338; 0.188999;,
         0.190558; 0.184753;,
         0.187475; 0.141093;,
         0.126255; 0.145339;,
         0.953358; 0.216093;,
         0.892111; 0.212285;,
         0.889048; 0.276360;,
         0.950295; 0.280168;,
         0.943778; 0.138330;,
         0.882530; 0.134521;,
         0.892111; 0.212285;,
         0.953358; 0.216093;,
         0.126255; 0.145339;,
         0.187475; 0.141093;,
         0.195738; 0.065718;,
         0.134518; 0.069964;,
         0.647864; 0.986662;,
         0.649238; 1.000000;,
         0.731767; 0.992108;,
         0.730393; 0.978770;,
         0.809124; 0.932661;,
         0.810498; 0.945999;,
         0.854455; 0.872951;,
         0.843250; 0.865327;,
         0.393135; 0.543894;,
         0.454513; 0.543894;,
         0.454513; 0.479963;,
         0.393135; 0.479963;,
         0.730393; 0.978770;,
         0.731767; 0.992108;,
         0.810498; 0.945999;,
         0.809124; 0.932661;,
         0.181201; 0.992031;,
         0.182523; 0.978684;,
         0.103627; 0.932843;,
         0.102305; 0.946190;,
         0.843250; 0.865327;,
         0.854455; 0.872951;,
         0.912058; 0.749358;,
         0.900853; 0.741734;,
         0.102305; 0.946190;,
         0.103627; 0.932843;,
         0.069246; 0.865612;,
         0.058072; 0.873278;,
         0.912058; 1.000000;,
         0.973435; 1.000000;,
         0.973435; 0.919567;,
         0.912058; 0.919567;,
         0.393135; 0.479963;,
         0.454513; 0.479963;,
         0.454513; 0.406371;,
         0.393135; 0.406371;,
         0.912058; 0.786888;,
         0.973435; 0.786888;,
         0.973435; 0.673670;,
         0.912058; 0.673670;,
         0.058072; 0.873278;,
         0.069246; 0.865612;,
         0.011174; 0.742188;,
         0.000000; 0.749854;,
         0.912058; 0.919567;,
         0.973435; 0.919567;,
         0.973435; 0.786888;,
         0.912058; 0.786888;,
         0.393135; 0.406371;,
         0.454513; 0.406371;,
         0.454513; 0.272522;,
         0.393135; 0.272522;,
         0.885698; 0.636593;,
         0.897962; 0.630764;,
         0.827473; 0.563037;,
         0.824025; 0.576005;,
         0.393135; 0.272522;,
         0.454513; 0.272522;,
         0.454513; 0.174343;,
         0.393135; 0.174343;,
         0.900853; 0.741734;,
         0.912058; 0.749358;,
         0.897962; 0.630764;,
         0.885698; 0.636593;,
         0.000000; 0.749854;,
         0.011174; 0.742188;,
         0.025917; 0.636962;,
         0.013633; 0.631176;,
         0.083846; 0.563177;,
         0.087344; 0.576137;,
         0.187201; 0.556854;,
         0.183703; 0.543894;,
         0.013633; 0.631176;,
         0.025917; 0.636962;,
         0.087344; 0.576137;,
         0.083846; 0.563177;,
         0.237661; 0.543894;,
         0.298957; 0.540903;,
         0.295157; 0.453737;,
         0.233861; 0.456728;,
         0.882530; 0.187079;,
         0.821241; 0.184007;,
         0.816717; 0.257394;,
         0.878006; 0.260466;,
         0.228684; 0.357518;,
         0.289981; 0.354527;,
         0.298957; 0.254717;,
         0.237661; 0.257708;,
         0.233861; 0.456728;,
         0.295157; 0.453737;,
         0.289981; 0.354527;,
         0.228684; 0.357518;,
         0.878006; 0.260466;,
         0.816717; 0.257394;,
         0.811637; 0.357334;,
         0.872927; 0.360406;,
         0.824025; 0.576005;,
         0.827473; 0.563037;,
         0.727525; 0.544117;,
         0.724077; 0.557085;,
         0.617847; 0.557085;,
         0.621295; 0.544117;,
         0.510983; 0.592446;,
         0.521384; 0.601104;,
         0.872927; 0.360406;,
         0.811637; 0.357334;,
         0.821241; 0.459511;,
         0.882530; 0.462583;,
         0.724077; 0.557085;,
         0.727525; 0.544117;,
         0.621295; 0.544117;,
         0.617847; 0.557085;,
         0.183703; 0.543894;,
         0.187201; 0.556854;,
         0.293855; 0.556854;,
         0.290357; 0.543894;,
         0.000000; 0.205644;,
         0.061377; 0.205644;,
         0.061377; 0.129474;,
         0.000000; 0.129474;,
         0.290357; 0.543894;,
         0.293855; 0.556854;,
         0.390472; 0.600541;,
         0.400837; 0.591843;,
         0.237661; 0.257708;,
         0.298957; 0.254717;,
         0.293435; 0.167109;,
         0.232138; 0.170100;,
         0.882530; 0.462583;,
         0.821241; 0.459511;,
         0.818107; 0.541045;,
         0.879397; 0.544117;,
         0.061377; 0.138820;,
         0.122755; 0.138820;,
         0.122755; 0.022688;,
         0.061377; 0.022688;,
         0.061377; 0.205644;,
         0.122755; 0.205644;,
         0.122755; 0.138820;,
         0.061377; 0.138820;,
         0.521384; 0.601104;,
         0.510983; 0.592446;,
         0.465339; 0.659534;,
         0.478919; 0.660559;,
         0.400837; 0.591843;,
         0.390472; 0.600541;,
         0.433160; 0.659861;,
         0.446734; 0.658787;,
         0.467669; 0.776868;,
         0.456277; 0.784215;,
         0.505459; 0.858087;,
         0.516850; 0.850741;,
         0.478919; 0.660559;,
         0.465339; 0.659534;,
         0.456277; 0.784215;,
         0.467669; 0.776868;,
         0.446734; 0.658787;,
         0.433160; 0.659861;,
         0.444860; 0.776164;,
         0.456277; 0.783472;,
         0.000000; 0.129474;,
         0.061377; 0.129474;,
         0.061377; 0.006440;,
         0.000000; 0.006440;,
         0.292250; 0.167109;,
         0.292250; 0.106680;,
         0.282596; 0.106680;,
         0.282596; 0.167109;,
         0.456277; 0.783472;,
         0.444860; 0.776164;,
         0.395974; 0.850234;,
         0.407392; 0.857541;,
         0.393135; 0.174343;,
         0.454497; 0.173434;,
         0.454497; 0.108648;,
         0.393135; 0.109556;,
         0.873005; 0.114067;,
         0.811637; 0.114719;,
         0.811637; 0.184007;,
         0.873005; 0.183355;;
      } // End of Cube UV coordinates
      MeshMaterialList { // Cube material list
        1;
        84;
        0,
        0,
        0,
        0,
        0,
        0,
        0,
        0,
        0,
        0,
        0,
        0,
        0,
        0,
        0,
        0,
        0,
        0,
        0,
        0,
        0,
        0,
        0,
        0,
        0,
        0,
        0,
        0,
        0,
        0,
        0,
        0,
        0,
        0,
        0,
        0,
        0,
        0,
        0,
        0,
        0,
        0,
        0,
        0,
        0,
        0,
        0,
        0,
        0,
        0,
        0,
        0,
        0,
        0,
        0,
        0,
        0,
        0,
        0,
        0,
        0,
        0,
        0,
        0,
        0,
        0,
        0,
        0,
        0,
        0,
        0,
        0,
        0,
        0,
        0,
        0,
        0,
        0,
        0,
        0,
        0,
        0,
        0,
        0;
        Material Material_001 {
           0.640000; 0.640000; 0.640000; 1.000000;;
           96.078431;
           0.500000; 0.500000; 0.500000;;
           0.000000; 0.000000; 0.000000;;
        }
      } // End of Cube material list
    } // End of Cube mesh
  } // End of Cube
} // End of Root
