xof 0303txt 0032

Frame Root {
  FrameTransformMatrix {
     1.000000, 0.000000, 0.000000, 0.000000,
     0.000000,-0.000000, 1.000000, 0.000000,
     0.000000, 1.000000, 0.000000, 0.000000,
     0.000000, 0.000000, 0.000000, 1.000000;;
  }
  Frame Cube {
    FrameTransformMatrix {
       1.000000, 0.000000, 0.000000, 0.000000,
       0.000000, 1.000000, 0.000000, 0.000000,
       0.000000, 0.000000, 1.000000, 0.000000,
       0.000000, 0.000000, 0.000000, 1.000000;;
    }
    Mesh { // Cube mesh
      232;
       0.082760; 0.059724; 0.045590;,
       0.068720; 0.058544; 0.045590;,
       0.071830; 0.025430; 0.064310;,
       0.085871; 0.026610; 0.064310;,
       0.068720; 0.058544; 0.045590;,
       0.068677; 0.059048; 0.043160;,
       0.071788;-0.025349; 0.061880;,
       0.071830; 0.025430; 0.064310;,
       0.156469;-0.008467;-0.058646;,
       0.156429;-0.055920;-0.038208;,
       0.156596;-0.066052;-0.033508;,
       0.156635;-0.061731;-0.042955;,
       0.143543;-0.009553;-0.058646;,
       0.156469;-0.008467;-0.058646;,
       0.156635;-0.061731;-0.042955;,
       0.143709;-0.062818;-0.042955;,
       0.066439; 0.058843;-0.042359;,
       0.066478; 0.058372;-0.044204;,
       0.073919;-0.015407;-0.058646;,
       0.073879;-0.055828;-0.041155;,
       0.081264; 0.060090;-0.042359;,
       0.066439; 0.058843;-0.042359;,
       0.073879;-0.055828;-0.041155;,
       0.088347;-0.054612;-0.041155;,
       0.148788; 0.065783; 0.043160;,
       0.148830; 0.065279; 0.045590;,
       0.155041;-0.008603; 0.056274;,
       0.154999;-0.059382; 0.044363;,
       0.137823; 0.064370;-0.040629;,
       0.151069; 0.065483;-0.040629;,
       0.156469;-0.008467;-0.058646;,
       0.143543;-0.009553;-0.058646;,
       0.151069; 0.065483;-0.040629;,
       0.151029; 0.065955;-0.038784;,
       0.156429;-0.055920;-0.038208;,
       0.156469;-0.008467;-0.058646;,
       0.136244; 0.064728; 0.043160;,
       0.148788; 0.065783; 0.043160;,
       0.154999;-0.059382; 0.044363;,
       0.142455;-0.060437; 0.044363;,
       0.088514;-0.066983;-0.033508;,
       0.074046;-0.068200;-0.033508;,
       0.074085;-0.068671;-0.042955;,
       0.088553;-0.067455;-0.042955;,
       0.086037;-0.026655; 0.064355;,
       0.071997;-0.027835; 0.064355;,
       0.071954;-0.027331; 0.061926;,
       0.085995;-0.026150; 0.061926;,
       0.142455;-0.060437; 0.044363;,
       0.154999;-0.059382; 0.044363;,
       0.158598;-0.075293; 0.005276;,
       0.145339;-0.076407; 0.005276;,
       0.071830; 0.025430; 0.064310;,
       0.071788;-0.025349; 0.061880;,
       0.071954;-0.027331; 0.061926;,
       0.071997;-0.027835; 0.064355;,
       0.085871; 0.026610; 0.064310;,
       0.071830; 0.025430; 0.064310;,
       0.071997;-0.027835; 0.064355;,
       0.086037;-0.026655; 0.064355;,
       0.073879;-0.055828;-0.041155;,
       0.073919;-0.015407;-0.058646;,
       0.074085;-0.068671;-0.042955;,
       0.074046;-0.068200;-0.033508;,
       0.156596;-0.066052;-0.033508;,
       0.156429;-0.055920;-0.038208;,
       0.158578;-0.075119; 0.005120;,
       0.158745;-0.077101; 0.005165;,
       0.154999;-0.059382; 0.044363;,
       0.155041;-0.008603; 0.056274;,
       0.155208;-0.061868; 0.046839;,
       0.155166;-0.061364; 0.044409;,
       0.090295;-0.067031; 0.040358;,
       0.075469;-0.068278; 0.040358;,
       0.075635;-0.070259; 0.040404;,
       0.090461;-0.069013; 0.040404;,
       0.073879;-0.055828;-0.041155;,
       0.074046;-0.068200;-0.033508;,
       0.075635;-0.070259; 0.040404;,
       0.075469;-0.068278; 0.040358;,
       0.088347;-0.054612;-0.041155;,
       0.073879;-0.055828;-0.041155;,
       0.075469;-0.068278; 0.040358;,
       0.090295;-0.067031; 0.040358;,
       0.143670;-0.067138;-0.033508;,
       0.156596;-0.066052;-0.033508;,
       0.158745;-0.077101; 0.005165;,
       0.145499;-0.078214; 0.005165;,
       0.145339;-0.076407; 0.005276;,
       0.158598;-0.075293; 0.005276;,
       0.158765;-0.077274; 0.005322;,
       0.145506;-0.078389; 0.005322;,
       0.085995;-0.026150; 0.061926;,
       0.071954;-0.027331; 0.061926;,
       0.075572;-0.070440; 0.040560;,
       0.090412;-0.069192; 0.040560;,
       0.154999;-0.059382; 0.044363;,
       0.155166;-0.061364; 0.044409;,
       0.158765;-0.077274; 0.005322;,
       0.158598;-0.075293; 0.005276;,
       0.071954;-0.027331; 0.061926;,
       0.071788;-0.025349; 0.061880;,
       0.075405;-0.068458; 0.040515;,
       0.075572;-0.070440; 0.040560;,
       0.155166;-0.061364; 0.044409;,
       0.142621;-0.062418; 0.044409;,
       0.145506;-0.078389; 0.005322;,
       0.158765;-0.077274; 0.005322;,
       0.088387;-0.014190;-0.058646;,
       0.081304; 0.059618;-0.044204;,
       0.081264; 0.060090;-0.042359;,
       0.088347;-0.054612;-0.041155;,
       0.156429;-0.055920;-0.038208;,
       0.143503;-0.057007;-0.038208;,
       0.145332;-0.076233; 0.005120;,
       0.158578;-0.075119; 0.005120;,
       0.158578;-0.075119; 0.005120;,
       0.145332;-0.076233; 0.005120;,
       0.145499;-0.078214; 0.005165;,
       0.158745;-0.077101; 0.005165;,
       0.155041;-0.008603; 0.056274;,
       0.142497;-0.009658; 0.056274;,
       0.142664;-0.062922; 0.046839;,
       0.155208;-0.061868; 0.046839;,
       0.155208;-0.061868; 0.046839;,
       0.142664;-0.062922; 0.046839;,
       0.142621;-0.062418; 0.044409;,
       0.155166;-0.061364; 0.044409;,
       0.156596;-0.066052;-0.033508;,
       0.143670;-0.067138;-0.033508;,
       0.143709;-0.062818;-0.042955;,
       0.156635;-0.061731;-0.042955;,
       0.151029; 0.065955;-0.038784;,
       0.137784; 0.064841;-0.038784;,
       0.143503;-0.057007;-0.038208;,
       0.156429;-0.055920;-0.038208;,
       0.148830; 0.065279; 0.045590;,
       0.136286; 0.064224; 0.045590;,
       0.142497;-0.009658; 0.056274;,
       0.155041;-0.008603; 0.056274;,
       0.073919;-0.015407;-0.058646;,
       0.088387;-0.014190;-0.058646;,
       0.088553;-0.067455;-0.042955;,
       0.074085;-0.068671;-0.042955;,
       0.066478; 0.058372;-0.044204;,
       0.081304; 0.059618;-0.044204;,
       0.088387;-0.014190;-0.058646;,
       0.073919;-0.015407;-0.058646;,
       0.068677; 0.059048; 0.043160;,
       0.082718; 0.060228; 0.043160;,
       0.085828;-0.024169; 0.061880;,
       0.071788;-0.025349; 0.061880;,
       0.071788;-0.025349; 0.061880;,
       0.085828;-0.024169; 0.061880;,
       0.090246;-0.067211; 0.040515;,
       0.075405;-0.068458; 0.040515;,
       0.074046;-0.068200;-0.033508;,
       0.088514;-0.066983;-0.033508;,
       0.090461;-0.069013; 0.040404;,
       0.075635;-0.070259; 0.040404;,
       0.075405;-0.068458; 0.040515;,
       0.090246;-0.067211; 0.040515;,
       0.090412;-0.069192; 0.040560;,
       0.075572;-0.070440; 0.040560;,
       0.049720; 0.060476; 0.052351;,
       0.050031; 0.056777; 0.052351;,
       0.159732; 0.069486; 0.045532;,
       0.159421; 0.073185; 0.045532;,
       0.085995;-0.026150; 0.061926;,
       0.090412;-0.069192; 0.040560;,
       0.090246;-0.067211; 0.040515;,
       0.085828;-0.024169; 0.061880;,
       0.088514;-0.066983;-0.033508;,
       0.088347;-0.054612;-0.041155;,
       0.090295;-0.067031; 0.040358;,
       0.090461;-0.069013; 0.040404;,
       0.088514;-0.066983;-0.033508;,
       0.088553;-0.067455;-0.042955;,
       0.088387;-0.014190;-0.058646;,
       0.088347;-0.054612;-0.041155;,
       0.159732; 0.069486; 0.045532;,
       0.162396; 0.067540;-0.040134;,
       0.162085; 0.071239;-0.040134;,
       0.159421; 0.073185; 0.045532;,
       0.049720; 0.060476; 0.052351;,
       0.049720; 0.060476;-0.044462;,
       0.050031; 0.056777;-0.044462;,
       0.050031; 0.056777; 0.052351;,
       0.050031; 0.056777;-0.044462;,
       0.049720; 0.060476;-0.044462;,
       0.162085; 0.071239;-0.040134;,
       0.162396; 0.067540;-0.040134;,
       0.050031; 0.056777; 0.052351;,
       0.050031; 0.056777;-0.044462;,
       0.162396; 0.067540;-0.040134;,
       0.159732; 0.069486; 0.045532;,
       0.085995;-0.026150; 0.061926;,
       0.085828;-0.024169; 0.061880;,
       0.085871; 0.026610; 0.064310;,
       0.086037;-0.026655; 0.064355;,
       0.085828;-0.024169; 0.061880;,
       0.082718; 0.060228; 0.043160;,
       0.082760; 0.059724; 0.045590;,
       0.085871; 0.026610; 0.064310;,
       0.049720; 0.060476;-0.044462;,
       0.049720; 0.060476; 0.052351;,
       0.159421; 0.073185; 0.045532;,
       0.162085; 0.071239;-0.040134;,
       0.143543;-0.009553;-0.058646;,
       0.143503;-0.057007;-0.038208;,
       0.137784; 0.064841;-0.038784;,
       0.137823; 0.064370;-0.040629;,
       0.143670;-0.067138;-0.033508;,
       0.143503;-0.057007;-0.038208;,
       0.143543;-0.009553;-0.058646;,
       0.143709;-0.062818;-0.042955;,
       0.145499;-0.078214; 0.005165;,
       0.145332;-0.076233; 0.005120;,
       0.143503;-0.057007;-0.038208;,
       0.143670;-0.067138;-0.033508;,
       0.145506;-0.078389; 0.005322;,
       0.142621;-0.062418; 0.044409;,
       0.142455;-0.060437; 0.044363;,
       0.145339;-0.076407; 0.005276;,
       0.142455;-0.060437; 0.044363;,
       0.142497;-0.009658; 0.056274;,
       0.136286; 0.064224; 0.045590;,
       0.136244; 0.064728; 0.043160;,
       0.142497;-0.009658; 0.056274;,
       0.142455;-0.060437; 0.044363;,
       0.142621;-0.062418; 0.044409;,
       0.142664;-0.062922; 0.046839;;
      58;
      4;3,2,1,0;,
      4;7,6,5,4;,
      4;11,10,9,8;,
      4;15,14,13,12;,
      4;19,18,17,16;,
      4;23,22,21,20;,
      4;27,26,25,24;,
      4;31,30,29,28;,
      4;35,34,33,32;,
      4;39,38,37,36;,
      4;43,42,41,40;,
      4;47,46,45,44;,
      4;51,50,49,48;,
      4;55,54,53,52;,
      4;59,58,57,56;,
      4;63,62,61,60;,
      4;67,66,65,64;,
      4;71,70,69,68;,
      4;75,74,73,72;,
      4;79,78,77,76;,
      4;83,82,81,80;,
      4;87,86,85,84;,
      4;91,90,89,88;,
      4;95,94,93,92;,
      4;99,98,97,96;,
      4;103,102,101,100;,
      4;107,106,105,104;,
      4;111,110,109,108;,
      4;115,114,113,112;,
      4;119,118,117,116;,
      4;123,122,121,120;,
      4;127,126,125,124;,
      4;131,130,129,128;,
      4;135,134,133,132;,
      4;139,138,137,136;,
      4;143,142,141,140;,
      4;147,146,145,144;,
      4;151,150,149,148;,
      4;155,154,153,152;,
      4;159,158,157,156;,
      4;163,162,161,160;,
      4;167,166,165,164;,
      4;171,170,169,168;,
      4;175,174,173,172;,
      4;179,178,177,176;,
      4;183,182,181,180;,
      4;187,186,185,184;,
      4;191,190,189,188;,
      4;195,194,193,192;,
      4;199,198,197,196;,
      4;203,202,201,200;,
      4;207,206,205,204;,
      4;211,210,209,208;,
      4;215,214,213,212;,
      4;219,218,217,216;,
      4;223,222,221,220;,
      4;227,226,225,224;,
      4;231,230,229,228;;
      MeshNormals { // Cube normals
        232;
         0.854396; 0.308908; 0.417798;,
        -0.788995; 0.249763; 0.561296;,
        -0.611499; 0.170904; 0.772546;,
         0.693533; 0.216926; 0.686941;,
        -0.788995; 0.249763; 0.561296;,
        -0.601093;-0.196051;-0.774743;,
        -0.820917; 0.065432;-0.567248;,
        -0.611499; 0.170904; 0.772546;,
         0.691671; 0.017640;-0.721976;,
         0.827265; 0.305094; 0.471694;,
         0.711417;-0.650899;-0.264840;,
         0.654103;-0.488601;-0.577410;,
        -0.608325;-0.051759;-0.791986;,
         0.691671; 0.017640;-0.721976;,
         0.654103;-0.488601;-0.577410;,
        -0.593402;-0.533647;-0.602527;,
        -0.684561;-0.038331; 0.727928;,
        -0.741234; 0.058718;-0.668661;,
        -0.595111;-0.076754;-0.799951;,
        -0.890683; 0.300241; 0.341288;,
         0.603687; 0.046907; 0.795801;,
        -0.684561;-0.038331; 0.727928;,
        -0.890683; 0.300241; 0.341288;,
         0.851436; 0.340129; 0.399152;,
         0.598346; 0.024049;-0.800836;,
         0.831507; 0.142582; 0.536851;,
         0.739586; 0.027558; 0.672475;,
         0.821253; 0.323099;-0.470229;,
        -0.760826; 0.099246;-0.641285;,
         0.823664; 0.188513;-0.534776;,
         0.691671; 0.017640;-0.721976;,
        -0.608325;-0.051759;-0.791986;,
         0.823664; 0.188513;-0.534776;,
         0.619983; 0.032014; 0.783929;,
         0.827265; 0.305094; 0.471694;,
         0.691671; 0.017640;-0.721976;,
        -0.699179;-0.043977;-0.713553;,
         0.598346; 0.024049;-0.800836;,
         0.821253; 0.323099;-0.470229;,
        -0.887753; 0.247749;-0.387921;,
         0.745293;-0.666707; 0.000671;,
        -0.684317;-0.729057; 0.011658;,
        -0.557085;-0.682302;-0.473373;,
         0.623127;-0.631977;-0.460738;,
         0.606281;-0.619739; 0.498306;,
        -0.524644;-0.655232; 0.543504;,
        -0.840022;-0.485214; 0.242683;,
         0.898648;-0.387707; 0.205145;,
        -0.887753; 0.247749;-0.387921;,
         0.821253; 0.323099;-0.470229;,
         0.580157; 0.488021;-0.652058;,
        -0.620045; 0.386670;-0.682638;,
        -0.611499; 0.170904; 0.772546;,
        -0.820917; 0.065432;-0.567248;,
        -0.840022;-0.485214; 0.242683;,
        -0.524644;-0.655232; 0.543504;,
         0.693533; 0.216926; 0.686941;,
        -0.611499; 0.170904; 0.772546;,
        -0.524644;-0.655232; 0.543504;,
         0.606281;-0.619739; 0.498306;,
        -0.890683; 0.300241; 0.341288;,
        -0.595111;-0.076754;-0.799951;,
        -0.557085;-0.682302;-0.473373;,
        -0.684317;-0.729057; 0.011658;,
         0.711417;-0.650899;-0.264840;,
         0.827265; 0.305094; 0.471694;,
         0.592151; 0.461562; 0.660482;,
         0.612018;-0.630909; 0.476821;,
         0.821253; 0.323099;-0.470229;,
         0.739586; 0.027558; 0.672475;,
         0.616596;-0.653981; 0.438215;,
         0.813227;-0.578875; 0.059389;,
         0.561785; 0.553636; 0.614673;,
        -0.613422; 0.511399; 0.601794;,
        -0.532456;-0.601337; 0.595691;,
         0.615528;-0.557482; 0.557024;,
        -0.890683; 0.300241; 0.341288;,
        -0.684317;-0.729057; 0.011658;,
        -0.532456;-0.601337; 0.595691;,
        -0.613422; 0.511399; 0.601794;,
         0.851436; 0.340129; 0.399152;,
        -0.890683; 0.300241; 0.341288;,
        -0.613422; 0.511399; 0.601794;,
         0.561785; 0.553636; 0.614673;,
        -0.666585;-0.705466;-0.240669;,
         0.711417;-0.650899;-0.264840;,
         0.612018;-0.630909; 0.476821;,
        -0.512375;-0.675893; 0.529710;,
        -0.620045; 0.386670;-0.682638;,
         0.580157; 0.488021;-0.652058;,
         0.630787;-0.637867;-0.441816;,
        -0.489792;-0.740898;-0.459517;,
         0.898648;-0.387707; 0.205145;,
        -0.840022;-0.485214; 0.242683;,
        -0.470046;-0.863674;-0.181829;,
         0.611499;-0.770348;-0.180578;,
         0.821253; 0.323099;-0.470229;,
         0.813227;-0.578875; 0.059389;,
         0.630787;-0.637867;-0.441816;,
         0.580157; 0.488021;-0.652058;,
        -0.840022;-0.485214; 0.242683;,
        -0.820917; 0.065432;-0.567248;,
        -0.668599; 0.107334;-0.735801;,
        -0.470046;-0.863674;-0.181829;,
         0.813227;-0.578875; 0.059389;,
        -0.740532;-0.668722; 0.066134;,
        -0.489792;-0.740898;-0.459517;,
         0.630787;-0.637867;-0.441816;,
         0.710410; 0.010926;-0.703665;,
         0.824824; 0.181127;-0.535539;,
         0.603687; 0.046907; 0.795801;,
         0.851436; 0.340129; 0.399152;,
         0.827265; 0.305094; 0.471694;,
        -0.868496; 0.271950; 0.414380;,
        -0.618702; 0.419080; 0.664479;,
         0.592151; 0.461562; 0.660482;,
         0.592151; 0.461562; 0.660482;,
        -0.618702; 0.419080; 0.664479;,
        -0.512375;-0.675893; 0.529710;,
         0.612018;-0.630909; 0.476821;,
         0.739586; 0.027558; 0.672475;,
        -0.598498;-0.044343; 0.799860;,
        -0.531968;-0.697684; 0.479781;,
         0.616596;-0.653981; 0.438215;,
         0.616596;-0.653981; 0.438215;,
        -0.531968;-0.697684; 0.479781;,
        -0.740532;-0.668722; 0.066134;,
         0.813227;-0.578875; 0.059389;,
         0.711417;-0.650899;-0.264840;,
        -0.666585;-0.705466;-0.240669;,
        -0.593402;-0.533647;-0.602527;,
         0.654103;-0.488601;-0.577410;,
         0.619983; 0.032014; 0.783929;,
        -0.667440;-0.028779; 0.744072;,
        -0.868496; 0.271950; 0.414380;,
         0.827265; 0.305094; 0.471694;,
         0.831507; 0.142582; 0.536851;,
        -0.706015; 0.046937; 0.706626;,
        -0.598498;-0.044343; 0.799860;,
         0.739586; 0.027558; 0.672475;,
        -0.595111;-0.076754;-0.799951;,
         0.710410; 0.010926;-0.703665;,
         0.623127;-0.631977;-0.460738;,
        -0.557085;-0.682302;-0.473373;,
        -0.741234; 0.058718;-0.668661;,
         0.824824; 0.181127;-0.535539;,
         0.710410; 0.010926;-0.703665;,
        -0.595111;-0.076754;-0.799951;,
        -0.601093;-0.196051;-0.774743;,
         0.572588;-0.155553;-0.804926;,
         0.751427; 0.082980;-0.654561;,
        -0.820917; 0.065432;-0.567248;,
        -0.820917; 0.065432;-0.567248;,
         0.751427; 0.082980;-0.654561;,
         0.654073; 0.220588;-0.723533;,
        -0.668599; 0.107334;-0.735801;,
        -0.684317;-0.729057; 0.011658;,
         0.745293;-0.666707; 0.000671;,
         0.615528;-0.557482; 0.557024;,
        -0.532456;-0.601337; 0.595691;,
        -0.668599; 0.107334;-0.735801;,
         0.654073; 0.220588;-0.723533;,
         0.611499;-0.770348;-0.180578;,
        -0.470046;-0.863674;-0.181829;,
        -0.612720; 0.519120; 0.595843;,
        -0.503922;-0.623951; 0.597247;,
         0.638081;-0.517014; 0.570544;,
         0.523637; 0.641835; 0.560198;,
         0.898648;-0.387707; 0.205145;,
         0.611499;-0.770348;-0.180578;,
         0.654073; 0.220588;-0.723533;,
         0.751427; 0.082980;-0.654561;,
         0.745293;-0.666707; 0.000671;,
         0.851436; 0.340129; 0.399152;,
         0.561785; 0.553636; 0.614673;,
         0.615528;-0.557482; 0.557024;,
         0.745293;-0.666707; 0.000671;,
         0.623127;-0.631977;-0.460738;,
         0.710410; 0.010926;-0.703665;,
         0.851436; 0.340129; 0.399152;,
         0.638081;-0.517014; 0.570544;,
         0.645527;-0.525163;-0.554491;,
         0.542680; 0.625813;-0.560198;,
         0.523637; 0.641835; 0.560198;,
        -0.612720; 0.519120; 0.595843;,
        -0.617145; 0.517594;-0.592608;,
        -0.511765;-0.628224;-0.585986;,
        -0.503922;-0.623951; 0.597247;,
        -0.511765;-0.628224;-0.585986;,
        -0.617145; 0.517594;-0.592608;,
         0.542680; 0.625813;-0.560198;,
         0.645527;-0.525163;-0.554491;,
        -0.503922;-0.623951; 0.597247;,
        -0.511765;-0.628224;-0.585986;,
         0.645527;-0.525163;-0.554491;,
         0.638081;-0.517014; 0.570544;,
         0.898648;-0.387707; 0.205145;,
         0.751427; 0.082980;-0.654561;,
         0.693533; 0.216926; 0.686941;,
         0.606281;-0.619739; 0.498306;,
         0.751427; 0.082980;-0.654561;,
         0.572588;-0.155553;-0.804926;,
         0.854396; 0.308908; 0.417798;,
         0.693533; 0.216926; 0.686941;,
        -0.617145; 0.517594;-0.592608;,
        -0.612720; 0.519120; 0.595843;,
         0.523637; 0.641835; 0.560198;,
         0.542680; 0.625813;-0.560198;,
        -0.608325;-0.051759;-0.791986;,
        -0.868496; 0.271950; 0.414380;,
        -0.667440;-0.028779; 0.744072;,
        -0.760826; 0.099246;-0.641285;,
        -0.666585;-0.705466;-0.240669;,
        -0.868496; 0.271950; 0.414380;,
        -0.608325;-0.051759;-0.791986;,
        -0.593402;-0.533647;-0.602527;,
        -0.512375;-0.675893; 0.529710;,
        -0.618702; 0.419080; 0.664479;,
        -0.868496; 0.271950; 0.414380;,
        -0.666585;-0.705466;-0.240669;,
        -0.489792;-0.740898;-0.459517;,
        -0.740532;-0.668722; 0.066134;,
        -0.887753; 0.247749;-0.387921;,
        -0.620045; 0.386670;-0.682638;,
        -0.887753; 0.247749;-0.387921;,
        -0.598498;-0.044343; 0.799860;,
        -0.706015; 0.046937; 0.706626;,
        -0.699179;-0.043977;-0.713553;,
        -0.598498;-0.044343; 0.799860;,
        -0.887753; 0.247749;-0.387921;,
        -0.740532;-0.668722; 0.066134;,
        -0.531968;-0.697684; 0.479781;;
        58;
        4;3,2,1,0;,
        4;7,6,5,4;,
        4;11,10,9,8;,
        4;15,14,13,12;,
        4;19,18,17,16;,
        4;23,22,21,20;,
        4;27,26,25,24;,
        4;31,30,29,28;,
        4;35,34,33,32;,
        4;39,38,37,36;,
        4;43,42,41,40;,
        4;47,46,45,44;,
        4;51,50,49,48;,
        4;55,54,53,52;,
        4;59,58,57,56;,
        4;63,62,61,60;,
        4;67,66,65,64;,
        4;71,70,69,68;,
        4;75,74,73,72;,
        4;79,78,77,76;,
        4;83,82,81,80;,
        4;87,86,85,84;,
        4;91,90,89,88;,
        4;95,94,93,92;,
        4;99,98,97,96;,
        4;103,102,101,100;,
        4;107,106,105,104;,
        4;111,110,109,108;,
        4;115,114,113,112;,
        4;119,118,117,116;,
        4;123,122,121,120;,
        4;127,126,125,124;,
        4;131,130,129,128;,
        4;135,134,133,132;,
        4;139,138,137,136;,
        4;143,142,141,140;,
        4;147,146,145,144;,
        4;151,150,149,148;,
        4;155,154,153,152;,
        4;159,158,157,156;,
        4;163,162,161,160;,
        4;167,166,165,164;,
        4;171,170,169,168;,
        4;175,174,173,172;,
        4;179,178,177,176;,
        4;183,182,181,180;,
        4;187,186,185,184;,
        4;191,190,189,188;,
        4;195,194,193,192;,
        4;199,198,197,196;,
        4;203,202,201,200;,
        4;207,206,205,204;,
        4;211,210,209,208;,
        4;215,214,213,212;,
        4;219,218,217,216;,
        4;223,222,221,220;,
        4;227,226,225,224;,
        4;231,230,229,228;;
      } // End of Cube normals
      MeshTextureCoords { // Cube UV coordinates
        232;
         0.936487; 0.563790;,
         0.978080; 0.561838;,
         0.972803; 0.463613;,
         0.931209; 0.465566;,
         0.631576; 0.545358;,
         0.638786; 0.546697;,
         0.578362; 0.299614;,
         0.574183; 0.448883;,
         0.333026; 0.429363;,
         0.345664; 0.278089;,
         0.349297; 0.245459;,
         0.326893; 0.266331;,
         0.924426; 0.407293;,
         0.886118; 0.405858;,
         0.892900; 0.562356;,
         0.931209; 0.563790;,
         0.777929; 0.548486;,
         0.772597; 0.546697;,
         0.617785; 0.706107;,
         0.596039; 0.833643;,
         0.930632; 1.000000;,
         0.974593; 0.999166;,
         0.974593; 0.661347;,
         0.931693; 0.662161;,
         0.886232; 0.564205;,
         0.878911; 0.563790;,
         0.791761; 0.765962;,
         0.786900; 0.919092;,
         0.931209; 0.189500;,
         0.891954; 0.188030;,
         0.886118; 0.405858;,
         0.924426; 0.407293;,
         0.443272; 0.622316;,
         0.448886; 0.621906;,
         0.345664; 0.278089;,
         0.333026; 0.429363;,
         0.775032; 0.178301;,
         0.737851; 0.177033;,
         0.737851; 0.545428;,
         0.775032; 0.546697;,
         0.932269; 0.090063;,
         0.975170; 0.089242;,
         0.974645; 0.061703;,
         0.931744; 0.062524;,
         0.000000; 0.580899;,
         0.000000; 0.622319;,
         0.007283; 0.622317;,
         0.007283; 0.580897;,
         0.370313; 0.063825;,
         0.333138; 0.065237;,
         0.331020; 0.178257;,
         0.370313; 0.176764;,
         0.574183; 0.448883;,
         0.578362; 0.299614;,
         0.578104; 0.293778;,
         0.570894; 0.292440;,
         0.931209; 0.465566;,
         0.972803; 0.463613;,
         0.978080; 0.307131;,
         0.936487; 0.309083;,
         0.596039; 0.833643;,
         0.617785; 0.706107;,
         0.570894; 0.862408;,
         0.595063; 0.876372;,
         0.349297; 0.245459;,
         0.345664; 0.278089;,
         0.448886; 0.183835;,
         0.447142; 0.178257;,
         0.786900; 0.919092;,
         0.791761; 0.765962;,
         0.777929; 0.924283;,
         0.785251; 0.924698;,
         0.005878; 0.580897;,
         0.005878; 0.537162;,
         0.000000; 0.537161;,
         0.000000; 0.580897;,
         0.596039; 0.833643;,
         0.595063; 0.876372;,
         0.774846; 1.000000;,
         0.777929; 0.995028;,
         0.011898; 0.240942;,
         0.054806; 0.241205;,
         0.054806; 0.000269;,
         0.010838; 0.000000;,
         0.286891; 0.233427;,
         0.325222; 0.232814;,
         0.326893; 0.116655;,
         0.287615; 0.117283;,
         0.005877; 0.537161;,
         0.005877; 0.498048;,
         0.000000; 0.498048;,
         0.000000; 0.537161;,
         0.888490; 0.187903;,
         0.930130; 0.188030;,
         0.930130; 0.061553;,
         0.886118; 0.061419;,
         0.786900; 0.919092;,
         0.785251; 0.924698;,
         0.884583; 1.000000;,
         0.886232; 0.994394;,
         0.578104; 0.293778;,
         0.578362; 0.299614;,
         0.638786; 0.171308;,
         0.638528; 0.165473;,
         0.372430; 0.169542;,
         0.409603; 0.171018;,
         0.409603; 0.060600;,
         0.370313; 0.059040;,
         0.125564; 0.462952;,
         0.280536; 0.622319;,
         0.285870; 0.620530;,
         0.103932; 0.335359;,
         0.410551; 0.178133;,
         0.448886; 0.178257;,
         0.448886; 0.048667;,
         0.409603; 0.048540;,
         0.000000; 0.458973;,
         0.000000; 0.498047;,
         0.005878; 0.498048;,
         0.005878; 0.458974;,
         0.886232; 0.781837;,
         0.923413; 0.780588;,
         0.930632; 0.624500;,
         0.893451; 0.625749;,
         0.372141; 0.176781;,
         0.409314; 0.178257;,
         0.409603; 0.171018;,
         0.372430; 0.169542;,
         0.325222; 0.232814;,
         0.286891; 0.233427;,
         0.288562; 0.262170;,
         0.326893; 0.261557;,
         0.287638; 0.622316;,
         0.326893; 0.620867;,
         0.326893; 0.262170;,
         0.288584; 0.263584;,
         0.893451; 1.000000;,
         0.930632; 0.998752;,
         0.923413; 0.780588;,
         0.886232; 0.781837;,
         0.681683; 0.390305;,
         0.638786; 0.389278;,
         0.647702; 0.545670;,
         0.690598; 0.546697;,
         0.690598; 0.172563;,
         0.646641; 0.171511;,
         0.638786; 0.389278;,
         0.681683; 0.390305;,
         0.696223; 0.545682;,
         0.737851; 0.546697;,
         0.732226; 0.298419;,
         0.690598; 0.297405;,
         0.690598; 0.297405;,
         0.732226; 0.298419;,
         0.737707; 0.171431;,
         0.693708; 0.170359;,
         0.975170; 0.089242;,
         0.932269; 0.090063;,
         0.931209; 0.307131;,
         0.975170; 0.306290;,
         0.693708; 0.170359;,
         0.737707; 0.171431;,
         0.737851; 0.165586;,
         0.693852; 0.164515;,
         0.978080; 0.563440;,
         0.989045; 0.563790;,
         0.989045; 0.239025;,
         0.978080; 0.238676;,
         0.018047; 0.494107;,
         0.078552; 0.622319;,
         0.078808; 0.616483;,
         0.018303; 0.488271;,
         0.102985; 0.292619;,
         0.103932; 0.335359;,
         0.285870; 0.174100;,
         0.282785; 0.169129;,
         0.102985; 0.292619;,
         0.078808; 0.306576;,
         0.125564; 0.462952;,
         0.103932; 0.335359;,
         1.000000; 0.563468;,
         1.000000; 0.298591;,
         0.989045; 0.298913;,
         0.989045; 0.563790;,
         0.985564; 0.715432;,
         0.985564; 1.000000;,
         0.996524; 0.999994;,
         0.996524; 0.715426;,
         0.974593; 1.000000;,
         0.985564; 1.000000;,
         0.985564; 0.622315;,
         0.974593; 0.622315;,
         0.570894; 0.622316;,
         0.285870; 0.622316;,
         0.285934; 1.000000;,
         0.549981; 0.946813;,
         0.018047; 0.494107;,
         0.018303; 0.488271;,
         0.014267; 0.338998;,
         0.010838; 0.495443;,
         0.018303; 0.488271;,
         0.078808; 0.241205;,
         0.071598; 0.242541;,
         0.014267; 0.338998;,
         0.285870; 0.622319;,
         0.000000; 0.622319;,
         0.020502; 0.946834;,
         0.285808; 1.000000;,
         0.455146; 0.371165;,
         0.467659; 0.522403;,
         0.570894; 0.178631;,
         0.565282; 0.178220;,
         0.471273; 0.555030;,
         0.467659; 0.522403;,
         0.455146; 0.371165;,
         0.448886; 0.534158;,
         0.569153; 0.622316;,
         0.570894; 0.616737;,
         0.467659; 0.522403;,
         0.471273; 0.555030;,
         0.884467; 0.127534;,
         0.785252; 0.202849;,
         0.786903; 0.208455;,
         0.886118; 0.133139;,
         0.786903; 0.208455;,
         0.791586; 0.361608;,
         0.878795; 0.563790;,
         0.886118; 0.563379;,
         0.791586; 0.361608;,
         0.786903; 0.208455;,
         0.785252; 0.202849;,
         0.777929; 0.203260;;
      } // End of Cube UV coordinates
      MeshMaterialList { // Cube material list
        1;
        58;
        0,
        0,
        0,
        0,
        0,
        0,
        0,
        0,
        0,
        0,
        0,
        0,
        0,
        0,
        0,
        0,
        0,
        0,
        0,
        0,
        0,
        0,
        0,
        0,
        0,
        0,
        0,
        0,
        0,
        0,
        0,
        0,
        0,
        0,
        0,
        0,
        0,
        0,
        0,
        0,
        0,
        0,
        0,
        0,
        0,
        0,
        0,
        0,
        0,
        0,
        0,
        0,
        0,
        0,
        0,
        0,
        0,
        0;
        Material Material_001 {
           0.640000; 0.640000; 0.640000; 1.000000;;
           96.078431;
           0.500000; 0.500000; 0.500000;;
           0.000000; 0.000000; 0.000000;;
        }
      } // End of Cube material list
    } // End of Cube mesh
  } // End of Cube
} // End of Root
