xof 0303txt 0032

Frame Root {
  FrameTransformMatrix {
     1.000000, 0.000000, 0.000000, 0.000000,
     0.000000,-0.000000, 1.000000, 0.000000,
     0.000000, 1.000000, 0.000000, 0.000000,
     0.000000, 0.000000, 0.000000, 1.000000;;
  }
  Frame Cube_000 {
    FrameTransformMatrix {
       1.000000, 0.000000, 0.000000, 0.000000,
       0.000000, 1.000000, 0.000000, 0.000000,
       0.000000, 0.000000, 1.000000, 0.000000,
       0.000000, 0.000000, 0.000000, 1.000000;;
    }
    Mesh { // Cube_000 mesh
      432;
       0.139731;-0.076164; 0.042395;,
       0.160744;-0.004304; 0.078735;,
       0.151902;-0.008648; 0.078258;,
       0.131338;-0.065421; 0.040083;,
       0.149613;-0.006216; 0.057539;,
       0.120108; 0.037585; 0.059848;,
       0.121002; 0.056166; 0.062116;,
       0.158300;-0.004560; 0.058682;,
       0.158300;-0.004560; 0.058682;,
       0.150787;-0.059645; 0.027588;,
       0.145373;-0.054781; 0.025276;,
       0.149613;-0.006216; 0.057539;,
       0.139731;-0.076164; 0.042395;,
       0.118089;-0.086435; 0.021581;,
       0.133587;-0.069491; 0.005787;,
       0.150787;-0.059645; 0.027588;,
       0.160744;-0.004304; 0.078735;,
       0.139731;-0.076164; 0.042395;,
       0.150787;-0.059645; 0.027588;,
       0.158300;-0.004560; 0.058682;,
       0.149613;-0.006216; 0.057539;,
       0.145373;-0.054781; 0.025276;,
       0.131338;-0.065421; 0.040083;,
       0.151902;-0.008648; 0.078258;,
       0.120108; 0.037585; 0.059848;,
       0.062008; 0.062317; 0.046693;,
       0.056761; 0.074844; 0.051984;,
       0.121002; 0.056166; 0.062116;,
       0.158300;-0.004560; 0.058682;,
       0.121002; 0.056166; 0.062116;,
       0.118253; 0.045688; 0.080497;,
       0.160744;-0.004304; 0.078735;,
       0.151902;-0.008648; 0.078258;,
       0.110048; 0.034885; 0.079587;,
       0.120108; 0.037585; 0.059848;,
       0.149613;-0.006216; 0.057539;,
       0.160744;-0.004304; 0.078735;,
       0.118253; 0.045688; 0.080497;,
       0.110048; 0.034885; 0.079587;,
       0.151902;-0.008648; 0.078258;,
       0.056761; 0.074844; 0.051984;,
       0.002309; 0.084963; 0.015899;,
      -0.012675; 0.072395; 0.018348;,
       0.043133; 0.071583; 0.073729;,
       0.121002; 0.056166; 0.062116;,
       0.056761; 0.074844; 0.051984;,
       0.043133; 0.071583; 0.073729;,
       0.118253; 0.045688; 0.080497;,
       0.110048; 0.034885; 0.079587;,
       0.048839; 0.054250; 0.064902;,
       0.062008; 0.062317; 0.046693;,
       0.120108; 0.037585; 0.059848;,
       0.118253; 0.045688; 0.080497;,
       0.043133; 0.071583; 0.073729;,
       0.048839; 0.054250; 0.064902;,
       0.110048; 0.034885; 0.079587;,
      -0.003314; 0.066416; 0.013379;,
      -0.018181; 0.072337;-0.020043;,
      -0.004781; 0.074330;-0.018267;,
       0.012480; 0.070517; 0.010929;,
       0.048839; 0.054250; 0.064902;,
      -0.003314; 0.066416; 0.013379;,
       0.012480; 0.070517; 0.010929;,
       0.062008; 0.062317; 0.046693;,
       0.043133; 0.071583; 0.073729;,
      -0.012675; 0.072395; 0.018348;,
      -0.003314; 0.066416; 0.013379;,
       0.048839; 0.054250; 0.064902;,
       0.062008; 0.062317; 0.046693;,
       0.012480; 0.070517; 0.010929;,
       0.002309; 0.084963; 0.015899;,
       0.056761; 0.074844; 0.051984;,
      -0.004781; 0.074330;-0.018267;,
      -0.010492; 0.061446;-0.070344;,
      -0.029042; 0.063379;-0.074066;,
      -0.022367; 0.082445;-0.022651;,
      -0.012675; 0.072395; 0.018348;,
      -0.034943; 0.071830;-0.024427;,
      -0.018181; 0.072337;-0.020043;,
      -0.003314; 0.066416; 0.013379;,
       0.012480; 0.070517; 0.010929;,
      -0.004781; 0.074330;-0.018267;,
      -0.022367; 0.082445;-0.022651;,
       0.002309; 0.084963; 0.015899;,
       0.002309; 0.084963; 0.015899;,
      -0.022367; 0.082445;-0.022651;,
      -0.034943; 0.071830;-0.024427;,
      -0.012675; 0.072395; 0.018348;,
      -0.013840; 0.061317;-0.065310;,
      -0.016229; 0.050939;-0.086560;,
      -0.012118; 0.058843;-0.096316;,
      -0.010492; 0.061446;-0.070344;,
      -0.022367; 0.082445;-0.022651;,
      -0.029042; 0.063379;-0.074066;,
      -0.033272; 0.055958;-0.070734;,
      -0.034943; 0.071830;-0.024427;,
      -0.018181; 0.072337;-0.020043;,
      -0.013840; 0.061317;-0.065310;,
      -0.010492; 0.061446;-0.070344;,
      -0.004781; 0.074330;-0.018267;,
      -0.034943; 0.071830;-0.024427;,
      -0.033272; 0.055958;-0.070734;,
      -0.013840; 0.061317;-0.065310;,
      -0.018181; 0.072337;-0.020043;,
       0.118089;-0.086435; 0.021581;,
       0.094380;-0.104127;-0.023263;,
       0.101122;-0.087011;-0.030340;,
       0.133587;-0.069491; 0.005787;,
       0.145373;-0.054781; 0.025276;,
       0.101894;-0.070664;-0.011702;,
       0.088749;-0.067662; 0.018425;,
       0.131338;-0.065421; 0.040083;,
       0.150787;-0.059645; 0.027588;,
       0.133587;-0.069491; 0.005787;,
       0.101894;-0.070664;-0.011702;,
       0.145373;-0.054781; 0.025276;,
       0.131338;-0.065421; 0.040083;,
       0.088749;-0.067662; 0.018425;,
       0.118089;-0.086435; 0.021581;,
       0.139731;-0.076164; 0.042395;,
       0.085432;-0.094798;-0.024597;,
       0.062627;-0.044729;-0.042696;,
       0.024083;-0.085344;-0.026828;,
       0.076513;-0.089119;-0.017520;,
       0.088749;-0.067662; 0.018425;,
       0.076513;-0.089119;-0.017520;,
       0.094380;-0.104127;-0.023263;,
       0.118089;-0.086435; 0.021581;,
       0.101894;-0.070664;-0.011702;,
       0.085432;-0.094798;-0.024597;,
       0.076513;-0.089119;-0.017520;,
       0.088749;-0.067662; 0.018425;,
       0.133587;-0.069491; 0.005787;,
       0.101122;-0.087011;-0.030340;,
       0.085432;-0.094798;-0.024597;,
       0.101894;-0.070664;-0.011702;,
       0.029194;-0.117661;-0.074189;,
      -0.018121;-0.101333;-0.095321;,
       0.030284;-0.062337;-0.121822;,
       0.063225;-0.088503;-0.085320;,
       0.101122;-0.087011;-0.030340;,
       0.063225;-0.088503;-0.085320;,
       0.062627;-0.044729;-0.042696;,
       0.085432;-0.094798;-0.024597;,
       0.094380;-0.104127;-0.023263;,
       0.029194;-0.117661;-0.074189;,
       0.063225;-0.088503;-0.085320;,
       0.101122;-0.087011;-0.030340;,
       0.076513;-0.089119;-0.017520;,
       0.024083;-0.085344;-0.026828;,
       0.029194;-0.117661;-0.074189;,
       0.094380;-0.104127;-0.023263;,
      -0.018666;-0.061053;-0.024631;,
      -0.082639; 0.001507;-0.061525;,
      -0.076212;-0.026659;-0.117655;,
      -0.018121;-0.101333;-0.095321;,
       0.024083;-0.085344;-0.026828;,
      -0.018666;-0.061053;-0.024631;,
      -0.018121;-0.101333;-0.095321;,
       0.029194;-0.117661;-0.074189;,
       0.062627;-0.044729;-0.042696;,
       0.056798;-0.007718;-0.056182;,
      -0.018666;-0.061053;-0.024631;,
       0.024083;-0.085344;-0.026828;,
       0.063225;-0.088503;-0.085320;,
       0.030284;-0.062337;-0.121822;,
       0.056798;-0.007718;-0.056182;,
       0.062627;-0.044729;-0.042696;,
      -0.010538; 0.064907;-0.094935;,
      -0.030500; 0.068231;-0.105541;,
      -0.062767; 0.051393;-0.090528;,
      -0.082639; 0.001507;-0.061525;,
       0.056798;-0.007718;-0.056182;,
      -0.010538; 0.064907;-0.094935;,
      -0.082639; 0.001507;-0.061525;,
      -0.018666;-0.061053;-0.024631;,
       0.030284;-0.062337;-0.121822;,
      -0.031171; 0.022403;-0.146017;,
      -0.010538; 0.064907;-0.094935;,
       0.056798;-0.007718;-0.056182;,
      -0.018121;-0.101333;-0.095321;,
      -0.076212;-0.026659;-0.117655;,
      -0.031171; 0.022403;-0.146017;,
       0.030284;-0.062337;-0.121822;,
      -0.049378; 0.037296;-0.142964;,
      -0.081645; 0.020458;-0.127952;,
      -0.062767; 0.051393;-0.090528;,
      -0.030500; 0.068231;-0.105541;,
      -0.031171; 0.022403;-0.146017;,
      -0.049378; 0.037296;-0.142964;,
      -0.030500; 0.068231;-0.105541;,
      -0.010538; 0.064907;-0.094935;,
      -0.076212;-0.026659;-0.117655;,
      -0.081645; 0.020458;-0.127952;,
      -0.049378; 0.037296;-0.142964;,
      -0.031171; 0.022403;-0.146017;,
      -0.082639; 0.001507;-0.061525;,
      -0.062767; 0.051393;-0.090528;,
      -0.081645; 0.020458;-0.127952;,
      -0.076212;-0.026659;-0.117655;,
      -0.029254; 0.051540;-0.091652;,
      -0.025144; 0.059444;-0.101408;,
      -0.012118; 0.058843;-0.096316;,
      -0.016229; 0.050939;-0.086560;,
      -0.033272; 0.055958;-0.070734;,
      -0.029254; 0.051540;-0.091652;,
      -0.016229; 0.050939;-0.086560;,
      -0.013840; 0.061317;-0.065310;,
      -0.010492; 0.061446;-0.070344;,
      -0.012118; 0.058843;-0.096316;,
      -0.025144; 0.059444;-0.101408;,
      -0.029042; 0.063379;-0.074066;,
      -0.029042; 0.063379;-0.074066;,
      -0.025144; 0.059444;-0.101408;,
      -0.029254; 0.051540;-0.091652;,
      -0.033272; 0.055958;-0.070734;,
      -0.028014;-0.008428; 0.095406;,
      -0.033082; 0.044637; 0.081170;,
      -0.101532; 0.037707; 0.071958;,
      -0.097346;-0.006120; 0.093529;,
      -0.034868; 0.066834; 0.052563;,
      -0.035271; 0.082596; 0.000000;,
      -0.103776; 0.072198; 0.000000;,
      -0.103433; 0.061108; 0.048370;,
      -0.020215;-0.096322; 0.052563;,
      -0.022155;-0.069760; 0.097901;,
      -0.091594;-0.066343; 0.090427;,
      -0.089943;-0.110288; 0.048370;,
       0.049512;-0.096511; 0.056756;,
       0.139165;-0.069826; 0.045094;,
       0.138693;-0.064885; 0.090189;,
       0.047283;-0.073176; 0.105375;,
       0.033698; 0.069062; 0.056756;,
       0.123520; 0.050207; 0.045094;,
       0.123520; 0.057753;-0.000000;,
       0.033234; 0.089497; 0.000000;,
      -0.097346;-0.006120; 0.093529;,
      -0.108596;-0.004027; 0.094712;,
      -0.102972;-0.062912; 0.091093;,
      -0.091594;-0.066343; 0.090427;,
      -0.089943;-0.110288; 0.048370;,
      -0.101199;-0.108126; 0.045801;,
      -0.101085;-0.109316; 0.000000;,
      -0.089829;-0.111478; 0.000000;,
      -0.103433; 0.061108; 0.048370;,
      -0.114058; 0.053157; 0.045801;,
      -0.112748; 0.039444; 0.073584;,
      -0.101532; 0.037707; 0.071958;,
      -0.091594;-0.066343; 0.090427;,
      -0.102972;-0.062912; 0.091093;,
      -0.101199;-0.108126; 0.045801;,
      -0.089943;-0.110288; 0.048370;,
       0.035369; 0.051567; 0.090382;,
       0.125191; 0.032711; 0.077880;,
       0.123520; 0.050207; 0.045094;,
       0.033698; 0.069062; 0.056756;,
       0.153047;-0.007441; 0.109529;,
       0.138693;-0.064885; 0.090189;,
       0.139165;-0.069826; 0.045094;,
       0.153047;-0.007441; 0.064435;,
       0.049512;-0.096511; 0.000000;,
       0.138693;-0.064885;-0.000000;,
       0.139165;-0.069826; 0.045094;,
       0.049512;-0.096511; 0.056756;,
      -0.020158;-0.096917; 0.000000;,
      -0.020215;-0.096322; 0.052563;,
      -0.089943;-0.110288; 0.048370;,
      -0.089829;-0.111478; 0.000000;,
      -0.033082; 0.044637; 0.081170;,
      -0.034868; 0.066834; 0.052563;,
      -0.103433; 0.061108; 0.048370;,
      -0.101532; 0.037707; 0.071958;,
       0.125191; 0.032711; 0.077880;,
       0.153047;-0.007441; 0.109529;,
       0.153047;-0.007441; 0.064435;,
       0.123520; 0.050207; 0.045094;,
      -0.101532; 0.037707; 0.071958;,
      -0.112748; 0.039444; 0.073584;,
      -0.108596;-0.004027; 0.094712;,
      -0.097346;-0.006120; 0.093529;,
      -0.022155;-0.069760; 0.097901;,
      -0.028014;-0.008428; 0.095406;,
      -0.097346;-0.006120; 0.093529;,
      -0.091594;-0.066343; 0.090427;,
      -0.028014;-0.008428;-0.093396;,
      -0.097346;-0.006120;-0.093529;,
      -0.101532; 0.037707;-0.071958;,
      -0.033082; 0.044637;-0.081170;,
      -0.034868; 0.066834;-0.052563;,
      -0.103433; 0.061108;-0.048370;,
      -0.103776; 0.072198; 0.000000;,
      -0.035271; 0.082596; 0.000000;,
      -0.020215;-0.096322;-0.052563;,
      -0.089943;-0.110288;-0.048370;,
      -0.091594;-0.066343;-0.090427;,
      -0.022155;-0.069760;-0.097901;,
       0.049512;-0.096511;-0.056756;,
       0.047283;-0.073176;-0.105375;,
       0.138693;-0.064885;-0.090189;,
       0.139165;-0.069826;-0.045094;,
       0.033697; 0.069062;-0.056756;,
       0.033234; 0.089497; 0.000000;,
       0.123520; 0.057753;-0.000000;,
       0.123520; 0.050207;-0.045094;,
      -0.097346;-0.006120;-0.093529;,
      -0.091594;-0.066343;-0.090427;,
      -0.102972;-0.062912;-0.091093;,
      -0.108596;-0.004027;-0.094712;,
      -0.089943;-0.110288;-0.048370;,
      -0.089829;-0.111478; 0.000000;,
      -0.101085;-0.109316; 0.000000;,
      -0.101199;-0.108126;-0.045801;,
      -0.103433; 0.061108;-0.048370;,
      -0.101532; 0.037707;-0.071958;,
      -0.112748; 0.039444;-0.073584;,
      -0.114058; 0.053157;-0.045801;,
      -0.091594;-0.066343;-0.090427;,
      -0.089943;-0.110288;-0.048370;,
      -0.101199;-0.108126;-0.045801;,
      -0.102972;-0.062912;-0.091093;,
       0.035369; 0.051567;-0.090382;,
       0.033697; 0.069062;-0.056756;,
       0.123520; 0.050207;-0.045094;,
       0.125191; 0.032711;-0.077880;,
       0.153047;-0.007441;-0.109529;,
       0.153047;-0.007441;-0.064435;,
       0.139165;-0.069826;-0.045094;,
       0.138693;-0.064885;-0.090189;,
       0.049512;-0.096511; 0.000000;,
       0.049512;-0.096511;-0.056756;,
       0.139165;-0.069826;-0.045094;,
       0.138693;-0.064885;-0.000000;,
      -0.020158;-0.096917; 0.000000;,
      -0.089829;-0.111478; 0.000000;,
      -0.089943;-0.110288;-0.048370;,
      -0.020215;-0.096322;-0.052563;,
      -0.033082; 0.044637;-0.081170;,
      -0.101532; 0.037707;-0.071958;,
      -0.103433; 0.061108;-0.048370;,
      -0.034868; 0.066834;-0.052563;,
       0.125191; 0.032711;-0.077880;,
       0.123520; 0.050207;-0.045094;,
       0.153047;-0.007441;-0.064435;,
       0.153047;-0.007441;-0.109529;,
      -0.101532; 0.037707;-0.071958;,
      -0.097346;-0.006120;-0.093529;,
      -0.108596;-0.004027;-0.094712;,
      -0.112748; 0.039444;-0.073584;,
      -0.022155;-0.069760;-0.097901;,
      -0.091594;-0.066343;-0.090427;,
      -0.097346;-0.006120;-0.093529;,
      -0.028014;-0.008428;-0.093396;,
       0.047283;-0.073176;-0.105375;,
      -0.022155;-0.069760;-0.097901;,
      -0.028014;-0.008428;-0.093396;,
       0.041319;-0.010735;-0.093262;,
       0.035369; 0.051567;-0.090382;,
      -0.033082; 0.044637;-0.081170;,
      -0.034868; 0.066834;-0.052563;,
       0.033697; 0.069062;-0.056756;,
       0.049512;-0.096511; 0.000000;,
      -0.020158;-0.096917; 0.000000;,
      -0.020215;-0.096322;-0.052563;,
       0.049512;-0.096511;-0.056756;,
       0.049512;-0.096511;-0.056756;,
      -0.020215;-0.096322;-0.052563;,
      -0.022155;-0.069760;-0.097901;,
       0.047283;-0.073176;-0.105375;,
       0.033697; 0.069062;-0.056756;,
      -0.034868; 0.066834;-0.052563;,
      -0.035271; 0.082596; 0.000000;,
       0.033234; 0.089497; 0.000000;,
       0.041319;-0.010735;-0.093262;,
      -0.028014;-0.008428;-0.093396;,
      -0.033082; 0.044637;-0.081170;,
       0.035369; 0.051567;-0.090382;,
       0.047283;-0.073176; 0.105375;,
       0.036377;-0.010735; 0.097283;,
      -0.028014;-0.008428; 0.095406;,
      -0.022155;-0.069760; 0.097901;,
       0.035369; 0.051567; 0.090382;,
       0.033698; 0.069062; 0.056756;,
      -0.034868; 0.066834; 0.052563;,
      -0.033082; 0.044637; 0.081170;,
       0.049512;-0.096511; 0.000000;,
       0.049512;-0.096511; 0.056756;,
      -0.020215;-0.096322; 0.052563;,
      -0.020158;-0.096917; 0.000000;,
       0.049512;-0.096511; 0.056756;,
       0.047283;-0.073176; 0.105375;,
      -0.022155;-0.069760; 0.097901;,
      -0.020215;-0.096322; 0.052563;,
       0.033698; 0.069062; 0.056756;,
       0.033234; 0.089497; 0.000000;,
      -0.035271; 0.082596; 0.000000;,
      -0.034868; 0.066834; 0.052563;,
       0.036377;-0.010735; 0.097283;,
       0.035369; 0.051567; 0.090382;,
      -0.033082; 0.044637; 0.081170;,
      -0.028014;-0.008428; 0.095406;,
       0.125191; 0.032711; 0.077880;,
       0.035369; 0.051567; 0.090382;,
       0.033877; 0.042642; 0.087400;,
       0.107857; 0.030953; 0.082855;,
       0.047283;-0.073176; 0.105375;,
       0.138693;-0.064885; 0.090189;,
       0.117926;-0.059030; 0.091444;,
       0.048913;-0.065290; 0.102909;,
       0.153047;-0.007441; 0.109529;,
       0.125191; 0.032711; 0.077880;,
       0.107857; 0.030953; 0.082855;,
       0.141765;-0.008785; 0.108924;,
       0.138693;-0.064885; 0.090189;,
       0.153047;-0.007441; 0.109529;,
       0.141765;-0.008785; 0.108924;,
       0.117926;-0.059030; 0.091444;,
       0.138693;-0.064885;-0.090189;,
       0.047283;-0.073176;-0.105375;,
       0.048120;-0.061396;-0.103863;,
       0.125614;-0.054366;-0.090989;,
       0.125191; 0.032711;-0.077880;,
       0.153047;-0.007441;-0.109529;,
       0.140378;-0.007456;-0.109174;,
       0.114230; 0.026574;-0.078854;,
       0.153047;-0.007441;-0.109529;,
       0.138693;-0.064885;-0.090189;,
       0.125614;-0.054366;-0.090989;,
       0.140378;-0.007456;-0.109174;,
       0.035369; 0.051567;-0.090382;,
       0.125191; 0.032711;-0.077880;,
       0.114230; 0.026574;-0.078854;,
       0.030365; 0.043991;-0.085518;;
      108;
      4;3,2,1,0;,
      4;7,6,5,4;,
      4;11,10,9,8;,
      4;15,14,13,12;,
      4;19,18,17,16;,
      4;23,22,21,20;,
      4;27,26,25,24;,
      4;31,30,29,28;,
      4;35,34,33,32;,
      4;39,38,37,36;,
      4;43,42,41,40;,
      4;47,46,45,44;,
      4;51,50,49,48;,
      4;55,54,53,52;,
      4;59,58,57,56;,
      4;63,62,61,60;,
      4;67,66,65,64;,
      4;71,70,69,68;,
      4;75,74,73,72;,
      4;79,78,77,76;,
      4;83,82,81,80;,
      4;87,86,85,84;,
      4;91,90,89,88;,
      4;95,94,93,92;,
      4;99,98,97,96;,
      4;103,102,101,100;,
      4;107,106,105,104;,
      4;111,110,109,108;,
      4;115,114,113,112;,
      4;119,118,117,116;,
      4;123,122,121,120;,
      4;127,126,125,124;,
      4;131,130,129,128;,
      4;135,134,133,132;,
      4;139,138,137,136;,
      4;143,142,141,140;,
      4;147,146,145,144;,
      4;151,150,149,148;,
      4;155,154,153,152;,
      4;159,158,157,156;,
      4;163,162,161,160;,
      4;167,166,165,164;,
      4;171,170,169,168;,
      4;175,174,173,172;,
      4;179,178,177,176;,
      4;183,182,181,180;,
      4;187,186,185,184;,
      4;191,190,189,188;,
      4;195,194,193,192;,
      4;199,198,197,196;,
      4;203,202,201,200;,
      4;207,206,205,204;,
      4;211,210,209,208;,
      4;215,214,213,212;,
      4;219,218,217,216;,
      4;223,222,221,220;,
      4;227,226,225,224;,
      4;231,230,229,228;,
      4;235,234,233,232;,
      4;239,238,237,236;,
      4;243,242,241,240;,
      4;247,246,245,244;,
      4;251,250,249,248;,
      4;255,254,253,252;,
      4;259,258,257,256;,
      4;263,262,261,260;,
      4;267,266,265,264;,
      4;271,270,269,268;,
      4;275,274,273,272;,
      4;279,278,277,276;,
      4;283,282,281,280;,
      4;287,286,285,284;,
      4;291,290,289,288;,
      4;295,294,293,292;,
      4;299,298,297,296;,
      4;303,302,301,300;,
      4;307,306,305,304;,
      4;311,310,309,308;,
      4;315,314,313,312;,
      4;319,318,317,316;,
      4;323,322,321,320;,
      4;327,326,325,324;,
      4;331,330,329,328;,
      4;335,334,333,332;,
      4;339,338,337,336;,
      4;343,342,341,340;,
      4;347,346,345,344;,
      4;351,350,349,348;,
      4;355,354,353,352;,
      4;359,358,357,356;,
      4;363,362,361,360;,
      4;367,366,365,364;,
      4;371,370,369,368;,
      4;375,374,373,372;,
      4;379,378,377,376;,
      4;383,382,381,380;,
      4;387,386,385,384;,
      4;391,390,389,388;,
      4;395,394,393,392;,
      4;399,398,397,396;,
      4;403,402,401,400;,
      4;407,406,405,404;,
      4;411,410,409,408;,
      4;415,414,413,412;,
      4;419,418,417,416;,
      4;423,422,421,420;,
      4;427,426,425,424;,
      4;431,430,429,428;;
      MeshNormals { // Cube_000 normals
        432;
         0.384136;-0.767052; 0.513840;,
         0.623554; 0.044557; 0.780480;,
        -0.608661;-0.334269; 0.719535;,
        -0.701651; 0.122044; 0.701956;,
        -0.485519; 0.157445;-0.859920;,
        -0.215522;-0.337596;-0.916257;,
         0.534196; 0.759026;-0.372082;,
         0.881161; 0.244270;-0.404767;,
         0.881161; 0.244270;-0.404767;,
         0.877194;-0.094699;-0.470656;,
        -0.063692; 0.772851;-0.631367;,
        -0.485519; 0.157445;-0.859920;,
         0.384136;-0.767052; 0.513840;,
         0.120731;-0.908811; 0.399274;,
         0.748955;-0.058412;-0.659993;,
         0.877194;-0.094699;-0.470656;,
         0.623554; 0.044557; 0.780480;,
         0.384136;-0.767052; 0.513840;,
         0.877194;-0.094699;-0.470656;,
         0.881161; 0.244270;-0.404767;,
        -0.485519; 0.157445;-0.859920;,
        -0.063692; 0.772851;-0.631367;,
        -0.701651; 0.122044; 0.701956;,
        -0.608661;-0.334269; 0.719535;,
        -0.215522;-0.337596;-0.916257;,
         0.238502;-0.371624;-0.897214;,
         0.290567; 0.943236;-0.160680;,
         0.534196; 0.759026;-0.372082;,
         0.881161; 0.244270;-0.404767;,
         0.534196; 0.759026;-0.372082;,
         0.357097; 0.457137; 0.814539;,
         0.623554; 0.044557; 0.780480;,
        -0.608661;-0.334269; 0.719535;,
        -0.441267;-0.692892; 0.570208;,
        -0.215522;-0.337596;-0.916257;,
        -0.485519; 0.157445;-0.859920;,
         0.623554; 0.044557; 0.780480;,
         0.357097; 0.457137; 0.814539;,
        -0.441267;-0.692892; 0.570208;,
        -0.608661;-0.334269; 0.719535;,
         0.290567; 0.943236;-0.160680;,
         0.084231; 0.995849;-0.034089;,
        -0.819086;-0.015473; 0.573412;,
        -0.360576; 0.328990; 0.872768;,
         0.534196; 0.759026;-0.372082;,
         0.290567; 0.943236;-0.160680;,
        -0.360576; 0.328990; 0.872768;,
         0.357097; 0.457137; 0.814539;,
        -0.441267;-0.692892; 0.570208;,
        -0.325541;-0.880917; 0.343394;,
         0.238502;-0.371624;-0.897214;,
        -0.215522;-0.337596;-0.916257;,
         0.357097; 0.457137; 0.814539;,
        -0.360576; 0.328990; 0.872768;,
        -0.325541;-0.880917; 0.343394;,
        -0.441267;-0.692892; 0.570208;,
        -0.169500;-0.984954; 0.033418;,
         0.021455;-0.995117; 0.096316;,
         0.845637;-0.148717;-0.512558;,
         0.615894;-0.288736;-0.732994;,
        -0.325541;-0.880917; 0.343394;,
        -0.169500;-0.984954; 0.033418;,
         0.615894;-0.288736;-0.732994;,
         0.238502;-0.371624;-0.897214;,
        -0.360576; 0.328990; 0.872768;,
        -0.819086;-0.015473; 0.573412;,
        -0.169500;-0.984954; 0.033418;,
        -0.325541;-0.880917; 0.343394;,
         0.238502;-0.371624;-0.897214;,
         0.615894;-0.288736;-0.732994;,
         0.084231; 0.995849;-0.034089;,
         0.290567; 0.943236;-0.160680;,
         0.845637;-0.148717;-0.512558;,
         0.956969; 0.267739;-0.111637;,
        -0.444807; 0.858974;-0.253487;,
        -0.226356; 0.970336;-0.084902;,
        -0.819086;-0.015473; 0.573412;,
        -0.942991;-0.230140; 0.240333;,
         0.021455;-0.995117; 0.096316;,
        -0.169500;-0.984954; 0.033418;,
         0.615894;-0.288736;-0.732994;,
         0.845637;-0.148717;-0.512558;,
        -0.226356; 0.970336;-0.084902;,
         0.084231; 0.995849;-0.034089;,
         0.084231; 0.995849;-0.034089;,
        -0.226356; 0.970336;-0.084902;,
        -0.942991;-0.230140; 0.240333;,
        -0.819086;-0.015473; 0.573412;,
         0.209143;-0.943419; 0.257241;,
         0.412122;-0.911008;-0.012116;,
         0.747703; 0.131352;-0.650868;,
         0.956969; 0.267739;-0.111637;,
        -0.226356; 0.970336;-0.084902;,
        -0.444807; 0.858974;-0.253487;,
        -0.860439;-0.494034; 0.124668;,
        -0.942991;-0.230140; 0.240333;,
         0.021455;-0.995117; 0.096316;,
         0.209143;-0.943419; 0.257241;,
         0.956969; 0.267739;-0.111637;,
         0.845637;-0.148717;-0.512558;,
        -0.942991;-0.230140; 0.240333;,
        -0.860439;-0.494034; 0.124668;,
         0.209143;-0.943419; 0.257241;,
         0.021455;-0.995117; 0.096316;,
         0.120731;-0.908811; 0.399274;,
         0.250221;-0.963652; 0.093417;,
         0.763939; 0.017487;-0.645009;,
         0.748955;-0.058412;-0.659993;,
        -0.063692; 0.772851;-0.631367;,
        -0.175726; 0.860958;-0.477309;,
        -0.795587; 0.351726; 0.493210;,
        -0.701651; 0.122044; 0.701956;,
         0.877194;-0.094699;-0.470656;,
         0.748955;-0.058412;-0.659993;,
        -0.175726; 0.860958;-0.477309;,
        -0.063692; 0.772851;-0.631367;,
        -0.701651; 0.122044; 0.701956;,
        -0.795587; 0.351726; 0.493210;,
         0.120731;-0.908811; 0.399274;,
         0.384136;-0.767052; 0.513840;,
         0.163244; 0.969787;-0.181158;,
         0.695364; 0.546312; 0.466842;,
        -0.193732;-0.358501; 0.913175;,
        -0.551012;-0.104007; 0.827967;,
        -0.795587; 0.351726; 0.493210;,
        -0.551012;-0.104007; 0.827967;,
         0.250221;-0.963652; 0.093417;,
         0.120731;-0.908811; 0.399274;,
        -0.175726; 0.860958;-0.477309;,
         0.163244; 0.969787;-0.181158;,
        -0.551012;-0.104007; 0.827967;,
        -0.795587; 0.351726; 0.493210;,
         0.748955;-0.058412;-0.659993;,
         0.763939; 0.017487;-0.645009;,
         0.163244; 0.969787;-0.181158;,
        -0.175726; 0.860958;-0.477309;,
        -0.005249;-0.990509;-0.137272;,
        -0.435163;-0.838588;-0.327586;,
         0.458052;-0.183538;-0.869747;,
         0.744560;-0.272408;-0.609394;,
         0.763939; 0.017487;-0.645009;,
         0.744560;-0.272408;-0.609394;,
         0.695364; 0.546312; 0.466842;,
         0.163244; 0.969787;-0.181158;,
         0.250221;-0.963652; 0.093417;,
        -0.005249;-0.990509;-0.137272;,
         0.744560;-0.272408;-0.609394;,
         0.763939; 0.017487;-0.645009;,
        -0.551012;-0.104007; 0.827967;,
        -0.193732;-0.358501; 0.913175;,
        -0.005249;-0.990509;-0.137272;,
         0.250221;-0.963652; 0.093417;,
        -0.411573;-0.196265; 0.889950;,
        -0.763573; 0.116153; 0.635151;,
        -0.785394;-0.413587;-0.460494;,
        -0.435163;-0.838588;-0.327586;,
        -0.193732;-0.358501; 0.913175;,
        -0.411573;-0.196265; 0.889950;,
        -0.435163;-0.838588;-0.327586;,
        -0.005249;-0.990509;-0.137272;,
         0.695364; 0.546312; 0.466842;,
         0.751640; 0.593310; 0.288003;,
        -0.411573;-0.196265; 0.889950;,
        -0.193732;-0.358501; 0.913175;,
         0.744560;-0.272408;-0.609394;,
         0.458052;-0.183538;-0.869747;,
         0.751640; 0.593310; 0.288003;,
         0.695364; 0.546312; 0.466842;,
         0.487594; 0.852443; 0.188574;,
         0.004669; 0.996918;-0.078249;,
        -0.598224; 0.730491; 0.329386;,
        -0.763573; 0.116153; 0.635151;,
         0.751640; 0.593310; 0.288003;,
         0.487594; 0.852443; 0.188574;,
        -0.763573; 0.116153; 0.635151;,
        -0.411573;-0.196265; 0.889950;,
         0.458052;-0.183538;-0.869747;,
         0.241249; 0.120945;-0.962889;,
         0.487594; 0.852443; 0.188574;,
         0.751640; 0.593310; 0.288003;,
        -0.435163;-0.838588;-0.327586;,
        -0.785394;-0.413587;-0.460494;,
         0.241249; 0.120945;-0.962889;,
         0.458052;-0.183538;-0.869747;,
        -0.216559; 0.465835;-0.857936;,
        -0.812250; 0.205603;-0.545824;,
        -0.598224; 0.730491; 0.329386;,
         0.004669; 0.996918;-0.078249;,
         0.241249; 0.120945;-0.962889;,
        -0.216559; 0.465835;-0.857936;,
         0.004669; 0.996918;-0.078249;,
         0.487594; 0.852443; 0.188574;,
        -0.785394;-0.413587;-0.460494;,
        -0.812250; 0.205603;-0.545824;,
        -0.216559; 0.465835;-0.857936;,
         0.241249; 0.120945;-0.962889;,
        -0.763573; 0.116153; 0.635151;,
        -0.598224; 0.730491; 0.329386;,
        -0.812250; 0.205603;-0.545824;,
        -0.785394;-0.413587;-0.460494;,
        -0.651143;-0.681234;-0.334513;,
        -0.240608; 0.263344;-0.934202;,
         0.747703; 0.131352;-0.650868;,
         0.412122;-0.911008;-0.012116;,
        -0.860439;-0.494034; 0.124668;,
        -0.651143;-0.681234;-0.334513;,
         0.412122;-0.911008;-0.012116;,
         0.209143;-0.943419; 0.257241;,
         0.956969; 0.267739;-0.111637;,
         0.747703; 0.131352;-0.650868;,
        -0.240608; 0.263344;-0.934202;,
        -0.444807; 0.858974;-0.253487;,
        -0.444807; 0.858974;-0.253487;,
        -0.240608; 0.263344;-0.934202;,
        -0.651143;-0.681234;-0.334513;,
        -0.860439;-0.494034; 0.124668;,
        -0.077883; 0.140477; 0.986999;,
        -0.109928; 0.556444; 0.823573;,
        -0.065523; 0.600116; 0.797204;,
         0.022217; 0.174291; 0.984436;,
        -0.110416; 0.886105; 0.450087;,
        -0.100467; 0.994934; 0.000000;,
        -0.124821; 0.992157; 0.000000;,
        -0.165929; 0.850032; 0.499863;,
         0.035951;-0.953459; 0.299326;,
        -0.054903;-0.457625; 0.887417;,
        -0.076876;-0.445967; 0.891720;,
        -0.050905;-0.927946; 0.369182;,
         0.118809;-0.974181; 0.191809;,
         0.517685;-0.850368; 0.093936;,
         0.565996;-0.597400; 0.568102;,
         0.069735;-0.522996; 0.849452;,
         0.082888; 0.912809; 0.399823;,
         0.394360; 0.864498; 0.311594;,
         0.286142; 0.958159; 0.000000;,
         0.102542; 0.994720; 0.000000;,
         0.022217; 0.174291; 0.984436;,
         0.141423; 0.245949; 0.958892;,
        -0.052797;-0.326792; 0.943602;,
        -0.076876;-0.445967; 0.891720;,
        -0.050905;-0.927946; 0.369182;,
        -0.223640;-0.905087; 0.361614;,
        -0.191290;-0.981506; 0.000000;,
         0.004700;-0.999969; 0.000000;,
        -0.165929; 0.850032; 0.499863;,
        -0.246345; 0.778222; 0.577624;,
        -0.042665; 0.652058; 0.756920;,
        -0.065523; 0.600116; 0.797204;,
        -0.076876;-0.445967; 0.891720;,
        -0.052797;-0.326792; 0.943602;,
        -0.223640;-0.905087; 0.361614;,
        -0.050905;-0.927946; 0.369182;,
         0.046754; 0.539903; 0.840419;,
         0.487777; 0.712210; 0.504776;,
         0.394360; 0.864498; 0.311594;,
         0.082888; 0.912809; 0.399823;,
         0.680563; 0.183050; 0.709433;,
         0.565996;-0.597400; 0.568102;,
         0.517685;-0.850368; 0.093936;,
         0.983612; 0.167577; 0.066469;,
         0.156072;-0.987732; 0.000000;,
         0.307169;-0.951628; 0.000000;,
         0.517685;-0.850368; 0.093936;,
         0.118809;-0.974181; 0.191809;,
         0.101169;-0.994842; 0.000000;,
         0.035951;-0.953459; 0.299326;,
        -0.050905;-0.927946; 0.369182;,
         0.004700;-0.999969; 0.000000;,
        -0.109928; 0.556444; 0.823573;,
        -0.110416; 0.886105; 0.450087;,
        -0.165929; 0.850032; 0.499863;,
        -0.065523; 0.600116; 0.797204;,
         0.487777; 0.712210; 0.504776;,
         0.680563; 0.183050; 0.709433;,
         0.983612; 0.167577; 0.066469;,
         0.394360; 0.864498; 0.311594;,
        -0.065523; 0.600116; 0.797204;,
        -0.042665; 0.652058; 0.756920;,
         0.141423; 0.245949; 0.958892;,
         0.022217; 0.174291; 0.984436;,
        -0.054903;-0.457625; 0.887417;,
        -0.077883; 0.140477; 0.986999;,
         0.022217; 0.174291; 0.984436;,
        -0.076876;-0.445967; 0.891720;,
        -0.060915; 0.139531;-0.988311;,
         0.029695; 0.173467;-0.984375;,
        -0.062197; 0.596942;-0.799829;,
        -0.102115; 0.542375;-0.833888;,
        -0.110416; 0.886105;-0.450087;,
        -0.165929; 0.850032;-0.499863;,
        -0.124821; 0.992157; 0.000000;,
        -0.100467; 0.994934; 0.000000;,
         0.035951;-0.953459;-0.299326;,
        -0.050905;-0.927946;-0.369182;,
        -0.072604;-0.441725;-0.894192;,
        -0.045412;-0.441237;-0.896207;,
         0.118809;-0.974181;-0.191809;,
         0.080660;-0.513871;-0.854030;,
         0.569262;-0.578143;-0.584490;,
         0.517685;-0.850368;-0.093936;,
         0.082888; 0.912809;-0.399823;,
         0.102542; 0.994720; 0.000000;,
         0.286142; 0.958159; 0.000000;,
         0.394360; 0.864498;-0.311594;,
         0.029695; 0.173467;-0.984375;,
        -0.072604;-0.441725;-0.894192;,
        -0.052797;-0.326792;-0.943602;,
         0.141423; 0.245949;-0.958892;,
        -0.050905;-0.927946;-0.369182;,
         0.004700;-0.999969; 0.000000;,
        -0.191290;-0.981506; 0.000000;,
        -0.223640;-0.905087;-0.361614;,
        -0.165929; 0.850032;-0.499863;,
        -0.062197; 0.596942;-0.799829;,
        -0.042665; 0.652058;-0.756920;,
        -0.246345; 0.778222;-0.577624;,
        -0.072604;-0.441725;-0.894192;,
        -0.050905;-0.927946;-0.369182;,
        -0.223640;-0.905087;-0.361614;,
        -0.052797;-0.326792;-0.943602;,
         0.035463; 0.418500;-0.907498;,
         0.082888; 0.912809;-0.399823;,
         0.394360; 0.864498;-0.311594;,
         0.456282; 0.676565;-0.577960;,
         0.613361; 0.154942;-0.774438;,
         0.983612; 0.167577;-0.066469;,
         0.517685;-0.850368;-0.093936;,
         0.569262;-0.578143;-0.584490;,
         0.156072;-0.987732; 0.000000;,
         0.118809;-0.974181;-0.191809;,
         0.517685;-0.850368;-0.093936;,
         0.307169;-0.951628; 0.000000;,
         0.101169;-0.994842; 0.000000;,
         0.004700;-0.999969; 0.000000;,
        -0.050905;-0.927946;-0.369182;,
         0.035951;-0.953459;-0.299326;,
        -0.102115; 0.542375;-0.833888;,
        -0.062197; 0.596942;-0.799829;,
        -0.165929; 0.850032;-0.499863;,
        -0.110416; 0.886105;-0.450087;,
         0.456282; 0.676565;-0.577960;,
         0.394360; 0.864498;-0.311594;,
         0.983612; 0.167577;-0.066469;,
         0.613361; 0.154942;-0.774438;,
        -0.062197; 0.596942;-0.799829;,
         0.029695; 0.173467;-0.984375;,
         0.141423; 0.245949;-0.958892;,
        -0.042665; 0.652058;-0.756920;,
        -0.045412;-0.441237;-0.896207;,
        -0.072604;-0.441725;-0.894192;,
         0.029695; 0.173467;-0.984375;,
        -0.060915; 0.139531;-0.988311;,
         0.080660;-0.513871;-0.854030;,
        -0.045412;-0.441237;-0.896207;,
        -0.060915; 0.139531;-0.988311;,
        -0.057314; 0.125980;-0.990356;,
         0.035463; 0.418500;-0.907498;,
        -0.102115; 0.542375;-0.833888;,
        -0.110416; 0.886105;-0.450087;,
         0.082888; 0.912809;-0.399823;,
         0.156072;-0.987732; 0.000000;,
         0.101169;-0.994842; 0.000000;,
         0.035951;-0.953459;-0.299326;,
         0.118809;-0.974181;-0.191809;,
         0.118809;-0.974181;-0.191809;,
         0.035951;-0.953459;-0.299326;,
        -0.045412;-0.441237;-0.896207;,
         0.080660;-0.513871;-0.854030;,
         0.082888; 0.912809;-0.399823;,
        -0.110416; 0.886105;-0.450087;,
        -0.100467; 0.994934; 0.000000;,
         0.102542; 0.994720; 0.000000;,
        -0.057314; 0.125980;-0.990356;,
        -0.060915; 0.139531;-0.988311;,
        -0.102115; 0.542375;-0.833888;,
         0.035463; 0.418500;-0.907498;,
         0.069735;-0.522996; 0.849452;,
        -0.076327; 0.121738; 0.989593;,
        -0.077883; 0.140477; 0.986999;,
        -0.054903;-0.457625; 0.887417;,
         0.046754; 0.539903; 0.840419;,
         0.082888; 0.912809; 0.399823;,
        -0.110416; 0.886105; 0.450087;,
        -0.109928; 0.556444; 0.823573;,
         0.156072;-0.987732; 0.000000;,
         0.118809;-0.974181; 0.191809;,
         0.035951;-0.953459; 0.299326;,
         0.101169;-0.994842; 0.000000;,
         0.118809;-0.974181; 0.191809;,
         0.069735;-0.522996; 0.849452;,
        -0.054903;-0.457625; 0.887417;,
         0.035951;-0.953459; 0.299326;,
         0.082888; 0.912809; 0.399823;,
         0.102542; 0.994720; 0.000000;,
        -0.100467; 0.994934; 0.000000;,
        -0.110416; 0.886105; 0.450087;,
        -0.076327; 0.121738; 0.989593;,
         0.046754; 0.539903; 0.840419;,
        -0.109928; 0.556444; 0.823573;,
        -0.077883; 0.140477; 0.986999;,
         0.487777; 0.712210; 0.504776;,
         0.046754; 0.539903; 0.840419;,
         0.103946; 0.002380; 0.994568;,
         0.093204; 0.192969; 0.976745;,
         0.069735;-0.522996; 0.849452;,
         0.565996;-0.597400; 0.568102;,
         0.083193; 0.073946; 0.993774;,
         0.133854; 0.270425; 0.953368;,
         0.680563; 0.183050; 0.709433;,
         0.487777; 0.712210; 0.504776;,
         0.093204; 0.192969; 0.976745;,
         0.016358; 0.167547; 0.985717;,
         0.565996;-0.597400; 0.568102;,
         0.680563; 0.183050; 0.709433;,
         0.016358; 0.167547; 0.985717;,
         0.083193; 0.073946; 0.993774;,
         0.569262;-0.578143;-0.584490;,
         0.080660;-0.513871;-0.854030;,
         0.152623; 0.115085;-0.981536;,
         0.035768;-0.078066;-0.996277;,
         0.456282; 0.676565;-0.577960;,
         0.613361; 0.154942;-0.774438;,
        -0.134556; 0.180883;-0.974242;,
        -0.028291; 0.029206;-0.999146;,
         0.613361; 0.154942;-0.774438;,
         0.569262;-0.578143;-0.584490;,
         0.035768;-0.078066;-0.996277;,
        -0.134556; 0.180883;-0.974242;,
         0.035463; 0.418500;-0.907498;,
         0.456282; 0.676565;-0.577960;,
        -0.028291; 0.029206;-0.999146;,
         0.038972;-0.314463;-0.948454;;
        108;
        4;3,2,1,0;,
        4;7,6,5,4;,
        4;11,10,9,8;,
        4;15,14,13,12;,
        4;19,18,17,16;,
        4;23,22,21,20;,
        4;27,26,25,24;,
        4;31,30,29,28;,
        4;35,34,33,32;,
        4;39,38,37,36;,
        4;43,42,41,40;,
        4;47,46,45,44;,
        4;51,50,49,48;,
        4;55,54,53,52;,
        4;59,58,57,56;,
        4;63,62,61,60;,
        4;67,66,65,64;,
        4;71,70,69,68;,
        4;75,74,73,72;,
        4;79,78,77,76;,
        4;83,82,81,80;,
        4;87,86,85,84;,
        4;91,90,89,88;,
        4;95,94,93,92;,
        4;99,98,97,96;,
        4;103,102,101,100;,
        4;107,106,105,104;,
        4;111,110,109,108;,
        4;115,114,113,112;,
        4;119,118,117,116;,
        4;123,122,121,120;,
        4;127,126,125,124;,
        4;131,130,129,128;,
        4;135,134,133,132;,
        4;139,138,137,136;,
        4;143,142,141,140;,
        4;147,146,145,144;,
        4;151,150,149,148;,
        4;155,154,153,152;,
        4;159,158,157,156;,
        4;163,162,161,160;,
        4;167,166,165,164;,
        4;171,170,169,168;,
        4;175,174,173,172;,
        4;179,178,177,176;,
        4;183,182,181,180;,
        4;187,186,185,184;,
        4;191,190,189,188;,
        4;195,194,193,192;,
        4;199,198,197,196;,
        4;203,202,201,200;,
        4;207,206,205,204;,
        4;211,210,209,208;,
        4;215,214,213,212;,
        4;219,218,217,216;,
        4;223,222,221,220;,
        4;227,226,225,224;,
        4;231,230,229,228;,
        4;235,234,233,232;,
        4;239,238,237,236;,
        4;243,242,241,240;,
        4;247,246,245,244;,
        4;251,250,249,248;,
        4;255,254,253,252;,
        4;259,258,257,256;,
        4;263,262,261,260;,
        4;267,266,265,264;,
        4;271,270,269,268;,
        4;275,274,273,272;,
        4;279,278,277,276;,
        4;283,282,281,280;,
        4;287,286,285,284;,
        4;291,290,289,288;,
        4;295,294,293,292;,
        4;299,298,297,296;,
        4;303,302,301,300;,
        4;307,306,305,304;,
        4;311,310,309,308;,
        4;315,314,313,312;,
        4;319,318,317,316;,
        4;323,322,321,320;,
        4;327,326,325,324;,
        4;331,330,329,328;,
        4;335,334,333,332;,
        4;339,338,337,336;,
        4;343,342,341,340;,
        4;347,346,345,344;,
        4;351,350,349,348;,
        4;355,354,353,352;,
        4;359,358,357,356;,
        4;363,362,361,360;,
        4;367,366,365,364;,
        4;371,370,369,368;,
        4;375,374,373,372;,
        4;379,378,377,376;,
        4;383,382,381,380;,
        4;387,386,385,384;,
        4;391,390,389,388;,
        4;395,394,393,392;,
        4;399,398,397,396;,
        4;403,402,401,400;,
        4;407,406,405,404;,
        4;411,410,409,408;,
        4;415,414,413,412;,
        4;419,418,417,416;,
        4;423,422,421,420;,
        4;427,426,425,424;,
        4;431,430,429,428;;
      } // End of Cube_000 normals
      MeshTextureCoords { // Cube_000 UV coordinates
        432;
         0.364813; 0.002945;,
         0.303501; 0.090178;,
         0.317546; 0.088107;,
         0.371667; 0.021720;,
         0.012750; 0.186876;,
         0.044483; 0.116919;,
         0.038861; 0.090313;,
         0.000000; 0.186468;,
         0.000000; 0.186468;,
         0.024022; 0.265761;,
         0.030632; 0.257655;,
         0.012750; 0.186876;,
         0.881700; 0.303533;,
         0.866341; 0.262775;,
         0.836558; 0.274455;,
         0.855724; 0.309824;,
         0.484721; 0.537721;,
         0.516783; 0.627822;,
         0.539307; 0.621339;,
         0.512825; 0.545218;,
         0.513721; 0.376878;,
         0.531871; 0.294128;,
         0.505861; 0.287618;,
         0.484721; 0.384318;,
         0.044483; 0.116919;,
         0.121559; 0.068602;,
         0.126014; 0.049048;,
         0.038861; 0.090313;,
         0.512825; 0.545218;,
         0.539307; 0.444937;,
         0.511451; 0.447905;,
         0.484721; 0.537721;,
         0.484721; 0.384318;,
         0.503501; 0.444937;,
         0.531871; 0.438153;,
         0.513721; 0.376878;,
         0.303501; 0.090178;,
         0.339782; 0.178033;,
         0.355798; 0.166773;,
         0.317546; 0.088107;,
         0.918869; 0.213126;,
         0.923552; 0.118423;,
         0.905807; 0.101528;,
         0.881700; 0.213379;,
         0.950199; 0.299138;,
         0.918869; 0.213126;,
         0.881700; 0.213379;,
         0.923274; 0.309824;,
         0.970568; 0.671447;,
         0.917013; 0.745533;,
         0.948460; 0.753466;,
         1.000000; 0.683950;,
         0.339782; 0.178033;,
         0.431609; 0.247635;,
         0.431623; 0.221840;,
         0.355798; 0.166773;,
         0.907658; 0.851970;,
         0.922429; 0.903156;,
         0.935514; 0.888600;,
         0.927314; 0.839879;,
         0.917013; 0.745533;,
         0.907658; 0.851970;,
         0.927314; 0.839879;,
         0.948460; 0.753466;,
         0.902593; 0.741266;,
         0.892766; 0.855312;,
         0.907658; 0.851970;,
         0.917013; 0.745533;,
         0.291297; 0.529496;,
         0.282533; 0.457836;,
         0.257416; 0.450103;,
         0.270734; 0.525621;,
         0.284293; 0.393162;,
         0.282615; 0.320050;,
         0.257416; 0.310588;,
         0.261846; 0.381768;,
         0.892766; 0.855312;,
         0.908078; 0.923789;,
         0.922429; 0.903156;,
         0.907658; 0.851970;,
         0.282533; 0.457836;,
         0.291297; 0.411715;,
         0.276148; 0.393162;,
         0.257416; 0.450103;,
         0.923552; 0.118423;,
         0.950199; 0.057821;,
         0.939861; 0.040630;,
         0.905807; 0.101528;,
         0.969272; 0.949270;,
         0.986376; 0.975027;,
         1.000000; 0.982084;,
         0.977636; 0.951716;,
         0.549192; 0.444937;,
         0.543530; 0.365645;,
         0.531871; 0.367462;,
         0.535073; 0.438702;,
         0.922429; 0.903156;,
         0.969272; 0.949270;,
         0.977636; 0.951716;,
         0.935514; 0.888600;,
         0.908078; 0.923789;,
         0.952936; 0.973520;,
         0.969272; 0.949270;,
         0.922429; 0.903156;,
         0.866341; 0.262775;,
         0.820337; 0.205650;,
         0.807031; 0.210544;,
         0.836558; 0.274455;,
         0.301704; 0.647433;,
         0.301704; 0.564252;,
         0.257416; 0.575666;,
         0.270080; 0.644122;,
         0.024022; 0.265761;,
         0.051150; 0.277246;,
         0.096785; 0.272598;,
         0.030632; 0.257655;,
         0.371667; 0.021720;,
         0.431623; 0.039220;,
         0.399545; 0.000000;,
         0.364813; 0.002945;,
         0.823174; 0.309824;,
         0.794631; 0.386053;,
         0.875484; 0.383182;,
         0.826476; 0.324247;,
         0.878493; 0.221510;,
         0.837873; 0.184848;,
         0.820337; 0.205650;,
         0.866341; 0.262775;,
         0.301704; 0.564252;,
         0.295401; 0.533504;,
         0.281402; 0.529496;,
         0.257416; 0.575666;,
         0.051150; 0.277246;,
         0.102014; 0.297073;,
         0.126014; 0.304195;,
         0.096785; 0.272598;,
         0.631090; 0.062952;,
         0.579206; 0.113128;,
         0.665428; 0.132051;,
         0.693065; 0.078957;,
         0.227017; 0.015247;,
         0.157938; 0.067011;,
         0.236179; 0.098122;,
         0.233623; 0.014279;,
         0.820337; 0.205650;,
         0.789540; 0.089437;,
         0.755431; 0.128522;,
         0.807031; 0.210544;,
         0.837873; 0.184848;,
         0.854958; 0.109247;,
         0.789540; 0.089437;,
         0.820337; 0.205650;,
         0.548760; 0.246313;,
         0.548760; 0.142100;,
         0.458166; 0.138151;,
         0.431623; 0.247635;,
         0.854958; 0.109247;,
         0.881700; 0.053007;,
         0.787975; 0.013885;,
         0.789540; 0.089437;,
         0.794631; 0.386053;,
         0.762378; 0.430992;,
         0.893838; 0.452036;,
         0.875484; 0.383182;,
         0.157938; 0.067011;,
         0.126014; 0.138827;,
         0.236179; 0.152410;,
         0.236179; 0.098122;,
         0.755431; 0.578105;,
         0.772052; 0.603072;,
         0.822165; 0.618025;,
         0.893838; 0.585239;,
         0.762378; 0.430992;,
         0.755431; 0.578105;,
         0.893838; 0.585239;,
         0.893838; 0.452036;,
         0.126014; 0.138827;,
         0.142663; 0.293625;,
         0.228393; 0.304195;,
         0.236179; 0.152410;,
         0.579206; 0.113128;,
         0.549811; 0.246479;,
         0.637903; 0.280612;,
         0.665428; 0.132051;,
         0.747202; 0.284485;,
         0.693065; 0.276318;,
         0.693065; 0.334310;,
         0.747202; 0.342477;,
         0.637903; 0.280612;,
         0.623722; 0.311823;,
         0.668884; 0.342477;,
         0.693065; 0.326071;,
         0.549811; 0.246479;,
         0.571883; 0.311054;,
         0.623722; 0.311823;,
         0.637903; 0.280612;,
         0.548760; 0.142100;,
         0.546306; 0.057651;,
         0.478379; 0.071027;,
         0.458166; 0.138151;,
         0.976797; 0.992944;,
         0.990421; 1.000000;,
         1.000000; 0.982084;,
         0.986376; 0.975027;,
         0.952936; 0.973520;,
         0.976797; 0.992944;,
         0.986376; 0.975027;,
         0.969272; 0.949270;,
         0.282615; 0.320050;,
         0.284293; 0.283105;,
         0.266875; 0.273064;,
         0.257416; 0.310588;,
         0.543530; 0.365645;,
         0.549192; 0.325670;,
         0.534271; 0.336255;,
         0.531871; 0.367462;,
         0.651016; 0.736918;,
         0.729312; 0.734538;,
         0.727515; 0.634029;,
         0.662620; 0.636134;,
         0.058257; 0.421060;,
         0.134019; 0.421251;,
         0.134514; 0.321137;,
         0.064860; 0.320975;,
         0.227619; 0.768023;,
         0.292706; 0.765123;,
         0.281910; 0.664011;,
         0.221517; 0.666479;,
         0.233720; 0.869567;,
         0.216655; 1.000000;,
         0.281545; 0.999295;,
         0.303501; 0.866236;,
         0.051654; 0.521145;,
         0.061822; 0.647433;,
         0.126039; 0.647433;,
         0.133525; 0.521364;,
         0.662620; 0.636134;,
         0.666761; 0.620101;,
         0.581965; 0.621468;,
         0.575853; 0.637559;,
         0.221517; 0.666479;,
         0.217796; 0.650082;,
         0.151850; 0.650252;,
         0.151871; 0.666649;,
         0.064860; 0.320975;,
         0.067857; 0.304814;,
         0.025337; 0.304195;,
         0.026981; 0.320077;,
         0.281910; 0.664011;,
         0.282834; 0.647433;,
         0.217796; 0.650082;,
         0.221517; 0.666479;,
         0.000000; 0.520355;,
         0.011363; 0.646643;,
         0.061822; 0.647433;,
         0.051654; 0.521145;,
         0.799564; 0.681794;,
         0.737642; 0.713911;,
         0.731109; 0.779614;,
         0.799564; 0.747299;,
         0.151986; 0.869567;,
         0.151665; 0.999295;,
         0.216655; 1.000000;,
         0.233720; 0.869567;,
         0.151928; 0.768108;,
         0.227619; 0.768023;,
         0.221517; 0.666479;,
         0.151871; 0.666649;,
         0.013490; 0.420216;,
         0.058257; 0.421060;,
         0.064860; 0.320975;,
         0.026981; 0.320077;,
         0.869634; 0.728217;,
         0.799564; 0.681794;,
         0.799564; 0.747299;,
         0.892766; 0.775138;,
         0.727515; 0.634029;,
         0.731109; 0.618025;,
         0.666761; 0.620101;,
         0.662620; 0.636134;,
         0.562832; 0.738258;,
         0.651016; 0.736918;,
         0.662620; 0.636134;,
         0.575853; 0.637559;,
         0.404790; 0.510508;,
         0.416378; 0.610772;,
         0.481101; 0.611712;,
         0.482911; 0.511695;,
         0.207962; 0.421060;,
         0.202622; 0.320975;,
         0.134514; 0.321137;,
         0.134019; 0.421251;,
         0.076226; 0.768023;,
         0.082202; 0.666479;,
         0.021461; 0.664011;,
         0.010730; 0.765123;,
         0.070251; 0.869567;,
         0.000000; 0.866236;,
         0.021784; 0.999295;,
         0.086774; 1.000000;,
         0.213302; 0.521145;,
         0.133525; 0.521364;,
         0.126039; 0.647433;,
         0.190256; 0.647433;,
         0.416378; 0.610772;,
         0.329557; 0.609055;,
         0.335688; 0.625200;,
         0.420543; 0.626886;,
         0.082202; 0.666479;,
         0.151871; 0.666649;,
         0.151850; 0.650252;,
         0.085880; 0.650082;,
         0.202622; 0.320975;,
         0.231924; 0.320077;,
         0.234913; 0.304195;,
         0.198303; 0.304814;,
         0.021461; 0.664011;,
         0.082202; 0.666479;,
         0.085880; 0.650082;,
         0.020468; 0.647433;,
         0.257416; 0.520355;,
         0.213302; 0.521145;,
         0.190256; 0.647433;,
         0.233175; 0.646643;,
         0.799564; 1.000000;,
         0.799564; 0.934496;,
         0.731109; 0.910623;,
         0.737642; 0.975928;,
         0.151986; 0.869567;,
         0.070251; 0.869567;,
         0.086774; 1.000000;,
         0.151665; 0.999295;,
         0.151928; 0.768108;,
         0.151871; 0.666649;,
         0.082202; 0.666479;,
         0.076226; 0.768023;,
         0.244670; 0.420216;,
         0.231924; 0.320077;,
         0.202622; 0.320975;,
         0.207962; 0.421060;,
         0.869634; 0.954477;,
         0.892766; 0.906146;,
         0.799564; 0.934496;,
         0.799564; 1.000000;,
         0.481101; 0.611712;,
         0.416378; 0.610772;,
         0.420543; 0.626886;,
         0.484721; 0.627822;,
         0.316529; 0.508728;,
         0.329557; 0.609055;,
         0.416378; 0.610772;,
         0.404790; 0.510508;,
         0.303501; 0.408400;,
         0.316529; 0.508728;,
         0.404790; 0.510508;,
         0.393202; 0.410244;,
         0.257416; 0.520355;,
         0.244670; 0.420216;,
         0.207962; 0.421060;,
         0.213302; 0.521145;,
         0.151986; 0.869567;,
         0.151928; 0.768108;,
         0.076226; 0.768023;,
         0.070251; 0.869567;,
         0.070251; 0.869567;,
         0.076226; 0.768023;,
         0.010730; 0.765123;,
         0.000000; 0.866236;,
         0.213302; 0.521145;,
         0.207962; 0.421060;,
         0.134019; 0.421251;,
         0.133525; 0.521364;,
         0.393202; 0.410244;,
         0.404790; 0.510508;,
         0.482911; 0.511695;,
         0.484721; 0.411678;,
         0.549811; 0.838958;,
         0.639411; 0.837701;,
         0.651016; 0.736918;,
         0.562832; 0.738258;,
         0.000000; 0.520355;,
         0.051654; 0.521145;,
         0.058257; 0.421060;,
         0.013490; 0.420216;,
         0.151986; 0.869567;,
         0.233720; 0.869567;,
         0.227619; 0.768023;,
         0.151928; 0.768108;,
         0.233720; 0.869567;,
         0.303501; 0.866236;,
         0.292706; 0.765123;,
         0.227619; 0.768023;,
         0.051654; 0.521145;,
         0.133525; 0.521364;,
         0.134019; 0.421251;,
         0.058257; 0.421060;,
         0.639411; 0.837701;,
         0.731109; 0.835047;,
         0.729312; 0.734538;,
         0.651016; 0.736918;,
         0.011363; 0.646643;,
         0.000000; 0.520355;,
         0.000000; 0.520355;,
         0.011363; 0.646643;,
         0.303501; 0.866236;,
         0.281545; 0.999295;,
         0.281545; 0.999295;,
         0.303501; 0.866236;,
         0.799564; 0.681794;,
         0.869634; 0.728217;,
         0.869634; 0.728217;,
         0.799564; 0.681794;,
         0.737642; 0.713911;,
         0.799564; 0.681794;,
         0.799564; 0.681794;,
         0.737642; 0.713911;,
         0.021784; 0.999295;,
         0.000000; 0.866236;,
         0.000000; 0.866236;,
         0.021784; 0.999295;,
         0.869634; 0.954477;,
         0.799564; 1.000000;,
         0.799564; 1.000000;,
         0.869634; 0.954477;,
         0.799564; 1.000000;,
         0.737642; 0.975928;,
         0.737642; 0.975928;,
         0.799564; 1.000000;,
         0.257416; 0.520355;,
         0.233175; 0.646643;,
         0.233175; 0.646643;,
         0.257416; 0.520355;;
      } // End of Cube_000 UV coordinates
      MeshMaterialList { // Cube_000 material list
        1;
        108;
        0,
        0,
        0,
        0,
        0,
        0,
        0,
        0,
        0,
        0,
        0,
        0,
        0,
        0,
        0,
        0,
        0,
        0,
        0,
        0,
        0,
        0,
        0,
        0,
        0,
        0,
        0,
        0,
        0,
        0,
        0,
        0,
        0,
        0,
        0,
        0,
        0,
        0,
        0,
        0,
        0,
        0,
        0,
        0,
        0,
        0,
        0,
        0,
        0,
        0,
        0,
        0,
        0,
        0,
        0,
        0,
        0,
        0,
        0,
        0,
        0,
        0,
        0,
        0,
        0,
        0,
        0,
        0,
        0,
        0,
        0,
        0,
        0,
        0,
        0,
        0,
        0,
        0,
        0,
        0,
        0,
        0,
        0,
        0,
        0,
        0,
        0,
        0,
        0,
        0,
        0,
        0,
        0,
        0,
        0,
        0,
        0,
        0,
        0,
        0,
        0,
        0,
        0,
        0,
        0,
        0,
        0,
        0;
        Material Material_002 {
           0.640000; 0.640000; 0.640000; 1.000000;;
           96.078431;
           0.500000; 0.500000; 0.500000;;
           0.000000; 0.000000; 0.000000;;
        }
      } // End of Cube_000 material list
    } // End of Cube_000 mesh
  } // End of Cube_000
} // End of Root
