xof 0303txt 0032

Frame Root {
  FrameTransformMatrix {
     1.000000, 0.000000, 0.000000, 0.000000,
     0.000000,-0.000000, 1.000000, 0.000000,
     0.000000, 1.000000, 0.000000, 0.000000,
     0.000000, 0.000000, 0.000000, 1.000000;;
  }
  Frame M_ArmyHelmet_001 {
    FrameTransformMatrix {
       1.000000, 0.000000, 0.000000, 0.000000,
       0.000000,-0.000000, 1.000000, 0.000000,
       0.000000,-1.000000,-0.000000, 0.000000,
       0.000000, 0.000000, 0.000000, 1.000000;;
    }
    Mesh {
      640;
       0.157902;-0.000000; 0.040414;,
       0.158343;-0.030371; 0.027237;,
       0.167004;-0.000000;-0.000786;,
       0.158343;-0.030371; 0.027237;,
       0.159293;-0.041749;-0.001156;,
       0.167004;-0.000000;-0.000786;,
       0.159293;-0.041749;-0.001156;,
       0.160243;-0.028041;-0.033410;,
       0.167004;-0.000000;-0.000786;,
       0.160243;-0.028041;-0.033410;,
       0.160684;-0.000000;-0.051480;,
       0.167004;-0.000000;-0.000786;,
       0.132458; 0.000000; 0.069835;,
       0.132903;-0.038577; 0.060189;,
       0.157902;-0.000000; 0.040414;,
       0.158343;-0.030371; 0.027237;,
       0.157902;-0.000000; 0.040414;,
       0.132903;-0.038577; 0.060189;,
       0.158343;-0.030371; 0.027237;,
       0.132903;-0.038577; 0.060189;,
       0.134121;-0.058836; 0.033834;,
       0.134121;-0.058836; 0.033834;,
       0.135785;-0.063788;-0.002167;,
       0.158343;-0.030371; 0.027237;,
       0.159293;-0.041749;-0.001156;,
       0.158343;-0.030371; 0.027237;,
       0.135785;-0.063788;-0.002167;,
       0.135785;-0.063788;-0.002167;,
       0.138058;-0.038479;-0.052997;,
       0.159293;-0.041749;-0.001156;,
       0.160243;-0.028041;-0.033410;,
       0.159293;-0.041749;-0.001156;,
       0.138058;-0.038479;-0.052997;,
       0.138058;-0.038479;-0.052997;,
       0.139112;-0.000000;-0.072510;,
       0.160243;-0.028041;-0.033410;,
       0.160684;-0.000000;-0.051480;,
       0.160243;-0.028041;-0.033410;,
       0.139112;-0.000000;-0.072510;,
       0.095862; 0.000000; 0.080752;,
       0.096377;-0.044545; 0.069470;,
       0.132458; 0.000000; 0.069835;,
       0.132903;-0.038577; 0.060189;,
       0.132458; 0.000000; 0.069835;,
       0.096377;-0.044545; 0.069470;,
       0.096377;-0.044545; 0.069470;,
       0.097783;-0.067938; 0.038648;,
       0.132903;-0.038577; 0.060189;,
       0.134121;-0.058836; 0.033834;,
       0.132903;-0.038577; 0.060189;,
       0.097783;-0.067938; 0.038648;,
       0.097783;-0.067938; 0.038648;,
       0.099704;-0.073655;-0.003457;,
       0.134121;-0.058836; 0.033834;,
       0.135785;-0.063788;-0.002167;,
       0.134121;-0.058836; 0.033834;,
       0.099704;-0.073655;-0.003457;,
       0.099704;-0.073655;-0.003457;,
       0.101625;-0.059960;-0.046157;,
       0.135785;-0.063788;-0.002167;,
       0.138058;-0.038479;-0.052997;,
       0.135785;-0.063788;-0.002167;,
       0.101625;-0.059960;-0.046157;,
       0.138058;-0.038479;-0.052997;,
       0.101625;-0.059960;-0.046157;,
       0.103565;-0.029939;-0.074468;,
       0.138058;-0.038479;-0.052997;,
       0.103565;-0.029939;-0.074468;,
       0.139112;-0.000000;-0.072510;,
       0.104980;-0.000000;-0.083221;,
       0.139112;-0.000000;-0.072510;,
       0.103565;-0.029939;-0.074468;,
       0.083991; 0.000000; 0.085090;,
       0.084437;-0.048852; 0.073331;,
       0.095862; 0.000000; 0.080752;,
       0.096377;-0.044545; 0.069470;,
       0.095862; 0.000000; 0.080752;,
       0.084437;-0.048852; 0.073331;,
       0.084437;-0.048852; 0.073331;,
       0.085654;-0.074508; 0.041207;,
       0.096377;-0.044545; 0.069470;,
       0.097783;-0.067938; 0.038648;,
       0.096377;-0.044545; 0.069470;,
       0.085654;-0.074508; 0.041207;,
       0.085654;-0.074508; 0.041207;,
       0.087318;-0.080778;-0.002675;,
       0.097783;-0.067938; 0.038648;,
       0.099704;-0.073655;-0.003457;,
       0.097783;-0.067938; 0.038648;,
       0.087318;-0.080778;-0.002675;,
       0.087318;-0.080778;-0.002675;,
       0.088982;-0.064623;-0.049199;,
       0.099704;-0.073655;-0.003457;,
       0.101625;-0.059960;-0.046157;,
       0.099704;-0.073655;-0.003457;,
       0.088982;-0.064623;-0.049199;,
       0.088982;-0.064623;-0.049199;,
       0.090200;-0.032835;-0.086641;,
       0.101625;-0.059960;-0.046157;,
       0.103565;-0.029939;-0.074468;,
       0.101625;-0.059960;-0.046157;,
       0.090200;-0.032835;-0.086641;,
       0.090200;-0.032835;-0.086641;,
       0.092354;-0.000000;-0.097775;,
       0.103565;-0.029939;-0.074468;,
       0.104980;-0.000000;-0.083221;,
       0.103565;-0.029939;-0.074468;,
       0.092354;-0.000000;-0.097775;,
       0.051434; 0.000000; 0.083958;,
       0.043977;-0.050198; 0.073764;,
       0.083991; 0.000000; 0.085090;,
       0.084437;-0.048852; 0.073331;,
       0.083991; 0.000000; 0.085090;,
       0.043977;-0.050198; 0.073764;,
       0.043977;-0.050198; 0.073764;,
       0.040251;-0.076561; 0.041842;,
       0.084437;-0.048852; 0.073331;,
       0.085654;-0.074508; 0.041207;,
       0.084437;-0.048852; 0.073331;,
       0.040251;-0.076561; 0.041842;,
       0.040251;-0.076561; 0.041842;,
       0.041813;-0.080825;-0.002468;,
       0.085654;-0.074508; 0.041207;,
       0.087318;-0.080778;-0.002675;,
       0.085654;-0.074508; 0.041207;,
       0.041813;-0.080825;-0.002468;,
       0.041813;-0.080825;-0.002468;,
       0.053093;-0.074137;-0.025549;,
       0.087318;-0.080778;-0.002675;,
       0.088982;-0.064623;-0.049199;,
       0.087318;-0.080778;-0.002675;,
       0.053093;-0.074137;-0.025549;,
       0.079073;-0.061110;-0.053604;,
       0.079300;-0.054659;-0.049489;,
       0.090200;-0.032835;-0.086641;,
       0.090119;-0.029218;-0.079189;,
       0.090200;-0.032835;-0.086641;,
       0.079300;-0.054659;-0.049489;,
       0.090200;-0.032835;-0.086641;,
       0.090119;-0.029218;-0.079189;,
       0.092354;-0.000000;-0.097775;,
       0.091729;-0.000000;-0.089331;,
       0.092354;-0.000000;-0.097775;,
       0.090119;-0.029218;-0.079189;,
       0.051434; 0.000000; 0.083958;,
       0.053403; 0.000000; 0.077048;,
       0.043977;-0.050198; 0.073764;,
       0.047832;-0.045034; 0.067763;,
       0.043977;-0.050198; 0.073764;,
       0.053403; 0.000000; 0.077048;,
       0.043977;-0.050198; 0.073764;,
       0.047832;-0.045034; 0.067763;,
       0.040251;-0.076561; 0.041842;,
       0.045049;-0.069046; 0.038685;,
       0.040251;-0.076561; 0.041842;,
       0.047832;-0.045034; 0.067763;,
       0.040251;-0.076561; 0.041842;,
       0.045049;-0.069046; 0.038685;,
       0.041813;-0.080825;-0.002468;,
       0.044806;-0.072930;-0.001675;,
       0.041813;-0.080825;-0.002468;,
       0.045049;-0.069046; 0.038685;,
       0.041813;-0.080825;-0.002468;,
       0.044806;-0.072930;-0.001675;,
       0.053093;-0.074137;-0.025549;,
       0.053864;-0.066838;-0.022337;,
       0.053093;-0.074137;-0.025549;,
       0.044806;-0.072930;-0.001675;,
       0.090119;-0.029218;-0.079189;,
       0.123712;-0.042619;-0.020535;,
       0.124182;-0.020328;-0.043557;,
       0.090119;-0.029218;-0.079189;,
       0.124182;-0.020328;-0.043557;,
       0.091729;-0.000000;-0.089331;,
       0.125012;-0.000000;-0.050047;,
       0.091729;-0.000000;-0.089331;,
       0.124182;-0.020328;-0.043557;,
       0.053403; 0.000000; 0.077048;,
       0.105241; 0.000000; 0.052499;,
       0.047832;-0.045034; 0.067763;,
       0.101649;-0.047823; 0.037676;,
       0.047832;-0.045034; 0.067763;,
       0.105241; 0.000000; 0.052499;,
       0.045049;-0.069046; 0.038685;,
       0.047832;-0.045034; 0.067763;,
       0.101649;-0.047823; 0.037676;,
       0.045049;-0.069046; 0.038685;,
       0.101649;-0.047823; 0.037676;,
       0.044806;-0.072930;-0.001675;,
       0.105373;-0.050030;-0.004577;,
       0.044806;-0.072930;-0.001675;,
       0.101649;-0.047823; 0.037676;,
       0.123712;-0.042619;-0.020535;,
       0.053864;-0.066838;-0.022337;,
       0.105373;-0.050030;-0.004577;,
       0.053864;-0.066838;-0.022337;,
       0.044806;-0.072930;-0.001675;,
       0.105373;-0.050030;-0.004577;,
       0.088982;-0.064623;-0.049199;,
       0.079073;-0.061110;-0.053604;,
       0.090200;-0.032835;-0.086641;,
       0.053093;-0.074137;-0.025549;,
       0.079073;-0.061110;-0.053604;,
       0.088982;-0.064623;-0.049199;,
       0.053864;-0.066838;-0.022337;,
       0.079300;-0.054659;-0.049489;,
       0.053093;-0.074137;-0.025549;,
       0.079073;-0.061110;-0.053604;,
       0.053093;-0.074137;-0.025549;,
       0.079300;-0.054659;-0.049489;,
       0.123712;-0.042619;-0.020535;,
       0.079300;-0.054659;-0.049489;,
       0.053864;-0.066838;-0.022337;,
       0.090119;-0.029218;-0.079189;,
       0.079300;-0.054659;-0.049489;,
       0.123712;-0.042619;-0.020535;,
       0.158343; 0.030371; 0.027237;,
       0.157902;-0.000000; 0.040414;,
       0.167004;-0.000000;-0.000786;,
       0.159293; 0.041749;-0.001156;,
       0.158343; 0.030371; 0.027237;,
       0.167004;-0.000000;-0.000786;,
       0.160243; 0.028041;-0.033410;,
       0.159293; 0.041749;-0.001156;,
       0.167004;-0.000000;-0.000786;,
       0.160684;-0.000000;-0.051480;,
       0.160243; 0.028041;-0.033410;,
       0.167004;-0.000000;-0.000786;,
       0.158343; 0.030371; 0.027237;,
       0.132903; 0.038577; 0.060189;,
       0.157902;-0.000000; 0.040414;,
       0.132458; 0.000000; 0.069835;,
       0.157902;-0.000000; 0.040414;,
       0.132903; 0.038577; 0.060189;,
       0.132903; 0.038577; 0.060189;,
       0.158343; 0.030371; 0.027237;,
       0.134121; 0.058836; 0.033834;,
       0.159293; 0.041749;-0.001156;,
       0.135785; 0.063788;-0.002167;,
       0.158343; 0.030371; 0.027237;,
       0.134121; 0.058836; 0.033834;,
       0.158343; 0.030371; 0.027237;,
       0.135785; 0.063788;-0.002167;,
       0.160243; 0.028041;-0.033410;,
       0.138058; 0.038479;-0.052997;,
       0.159293; 0.041749;-0.001156;,
       0.135785; 0.063788;-0.002167;,
       0.159293; 0.041749;-0.001156;,
       0.138058; 0.038479;-0.052997;,
       0.160684;-0.000000;-0.051480;,
       0.139112;-0.000000;-0.072510;,
       0.160243; 0.028041;-0.033410;,
       0.138058; 0.038479;-0.052997;,
       0.160243; 0.028041;-0.033410;,
       0.139112;-0.000000;-0.072510;,
       0.132903; 0.038577; 0.060189;,
       0.096377; 0.044545; 0.069470;,
       0.132458; 0.000000; 0.069835;,
       0.095862; 0.000000; 0.080752;,
       0.132458; 0.000000; 0.069835;,
       0.096377; 0.044545; 0.069470;,
       0.134121; 0.058836; 0.033834;,
       0.097783; 0.067938; 0.038648;,
       0.132903; 0.038577; 0.060189;,
       0.096377; 0.044545; 0.069470;,
       0.132903; 0.038577; 0.060189;,
       0.097783; 0.067938; 0.038648;,
       0.135785; 0.063788;-0.002167;,
       0.099704; 0.073655;-0.003457;,
       0.134121; 0.058836; 0.033834;,
       0.097783; 0.067938; 0.038648;,
       0.134121; 0.058836; 0.033834;,
       0.099704; 0.073655;-0.003457;,
       0.138058; 0.038479;-0.052997;,
       0.101625; 0.059960;-0.046157;,
       0.135785; 0.063788;-0.002167;,
       0.099704; 0.073655;-0.003457;,
       0.135785; 0.063788;-0.002167;,
       0.101625; 0.059960;-0.046157;,
       0.101625; 0.059960;-0.046157;,
       0.138058; 0.038479;-0.052997;,
       0.103565; 0.029939;-0.074468;,
       0.138058; 0.038479;-0.052997;,
       0.139112;-0.000000;-0.072510;,
       0.103565; 0.029939;-0.074468;,
       0.104980;-0.000000;-0.083221;,
       0.103565; 0.029939;-0.074468;,
       0.139112;-0.000000;-0.072510;,
       0.096377; 0.044545; 0.069470;,
       0.084437; 0.048852; 0.073331;,
       0.095862; 0.000000; 0.080752;,
       0.083991; 0.000000; 0.085090;,
       0.095862; 0.000000; 0.080752;,
       0.084437; 0.048852; 0.073331;,
       0.097783; 0.067938; 0.038648;,
       0.085654; 0.074508; 0.041207;,
       0.096377; 0.044545; 0.069470;,
       0.084437; 0.048852; 0.073331;,
       0.096377; 0.044545; 0.069470;,
       0.085654; 0.074508; 0.041207;,
       0.099704; 0.073655;-0.003457;,
       0.087318; 0.080778;-0.002675;,
       0.097783; 0.067938; 0.038648;,
       0.085654; 0.074508; 0.041207;,
       0.097783; 0.067938; 0.038648;,
       0.087318; 0.080778;-0.002675;,
       0.101625; 0.059960;-0.046157;,
       0.088982; 0.064623;-0.049199;,
       0.099704; 0.073655;-0.003457;,
       0.087318; 0.080778;-0.002675;,
       0.099704; 0.073655;-0.003457;,
       0.088982; 0.064623;-0.049199;,
       0.103565; 0.029939;-0.074468;,
       0.090200; 0.032835;-0.086641;,
       0.101625; 0.059960;-0.046157;,
       0.088982; 0.064623;-0.049199;,
       0.101625; 0.059960;-0.046157;,
       0.090200; 0.032835;-0.086641;,
       0.104980;-0.000000;-0.083221;,
       0.092354;-0.000000;-0.097775;,
       0.103565; 0.029939;-0.074468;,
       0.090200; 0.032835;-0.086641;,
       0.103565; 0.029939;-0.074468;,
       0.092354;-0.000000;-0.097775;,
       0.084437; 0.048852; 0.073331;,
       0.043977; 0.050198; 0.073764;,
       0.083991; 0.000000; 0.085090;,
       0.051434; 0.000000; 0.083958;,
       0.083991; 0.000000; 0.085090;,
       0.043977; 0.050198; 0.073764;,
       0.085654; 0.074508; 0.041207;,
       0.040251; 0.076561; 0.041842;,
       0.084437; 0.048852; 0.073331;,
       0.043977; 0.050198; 0.073764;,
       0.084437; 0.048852; 0.073331;,
       0.040251; 0.076561; 0.041842;,
       0.087318; 0.080778;-0.002675;,
       0.041813; 0.080825;-0.002468;,
       0.085654; 0.074508; 0.041207;,
       0.040251; 0.076561; 0.041842;,
       0.085654; 0.074508; 0.041207;,
       0.041813; 0.080825;-0.002468;,
       0.088982; 0.064623;-0.049199;,
       0.053093; 0.074137;-0.025549;,
       0.087318; 0.080778;-0.002675;,
       0.041813; 0.080825;-0.002468;,
       0.087318; 0.080778;-0.002675;,
       0.053093; 0.074137;-0.025549;,
       0.090119; 0.029218;-0.079189;,
       0.079300; 0.054659;-0.049489;,
       0.090200; 0.032835;-0.086641;,
       0.079073; 0.061110;-0.053604;,
       0.090200; 0.032835;-0.086641;,
       0.079300; 0.054659;-0.049489;,
       0.091729;-0.000000;-0.089331;,
       0.090119; 0.029218;-0.079189;,
       0.092354;-0.000000;-0.097775;,
       0.090200; 0.032835;-0.086641;,
       0.092354;-0.000000;-0.097775;,
       0.090119; 0.029218;-0.079189;,
       0.047832; 0.045033; 0.067763;,
       0.053403; 0.000000; 0.077048;,
       0.043977; 0.050198; 0.073764;,
       0.051434; 0.000000; 0.083958;,
       0.043977; 0.050198; 0.073764;,
       0.053403; 0.000000; 0.077048;,
       0.045049; 0.069046; 0.038685;,
       0.047832; 0.045033; 0.067763;,
       0.040251; 0.076561; 0.041842;,
       0.043977; 0.050198; 0.073764;,
       0.040251; 0.076561; 0.041842;,
       0.047832; 0.045033; 0.067763;,
       0.044806; 0.072930;-0.001675;,
       0.045049; 0.069046; 0.038685;,
       0.041813; 0.080825;-0.002468;,
       0.040251; 0.076561; 0.041842;,
       0.041813; 0.080825;-0.002468;,
       0.045049; 0.069046; 0.038685;,
       0.053864; 0.066838;-0.022337;,
       0.044806; 0.072930;-0.001675;,
       0.053093; 0.074137;-0.025549;,
       0.041813; 0.080825;-0.002468;,
       0.053093; 0.074137;-0.025549;,
       0.044806; 0.072930;-0.001675;,
       0.090119; 0.029218;-0.079189;,
       0.124182; 0.020328;-0.043557;,
       0.123712; 0.042619;-0.020535;,
       0.125012;-0.000000;-0.050047;,
       0.124182; 0.020328;-0.043557;,
       0.091729;-0.000000;-0.089331;,
       0.090119; 0.029218;-0.079189;,
       0.091729;-0.000000;-0.089331;,
       0.124182; 0.020328;-0.043557;,
       0.101649; 0.047823; 0.037676;,
       0.105241; 0.000000; 0.052499;,
       0.047832; 0.045033; 0.067763;,
       0.053403; 0.000000; 0.077048;,
       0.047832; 0.045033; 0.067763;,
       0.105241; 0.000000; 0.052499;,
       0.045049; 0.069046; 0.038685;,
       0.101649; 0.047823; 0.037676;,
       0.047832; 0.045033; 0.067763;,
       0.105373; 0.050030;-0.004577;,
       0.101649; 0.047823; 0.037676;,
       0.044806; 0.072930;-0.001675;,
       0.045049; 0.069046; 0.038685;,
       0.044806; 0.072930;-0.001675;,
       0.101649; 0.047823; 0.037676;,
       0.053864; 0.066838;-0.022337;,
       0.123712; 0.042619;-0.020535;,
       0.105373; 0.050030;-0.004577;,
       0.053864; 0.066838;-0.022337;,
       0.105373; 0.050030;-0.004577;,
       0.044806; 0.072930;-0.001675;,
       0.079073; 0.061110;-0.053604;,
       0.088982; 0.064623;-0.049199;,
       0.090200; 0.032835;-0.086641;,
       0.079073; 0.061110;-0.053604;,
       0.053093; 0.074137;-0.025549;,
       0.088982; 0.064623;-0.049199;,
       0.079073; 0.061110;-0.053604;,
       0.079300; 0.054659;-0.049489;,
       0.053093; 0.074137;-0.025549;,
       0.053864; 0.066838;-0.022337;,
       0.053093; 0.074137;-0.025549;,
       0.079300; 0.054659;-0.049489;,
       0.079300; 0.054659;-0.049489;,
       0.123712; 0.042619;-0.020535;,
       0.053864; 0.066838;-0.022337;,
       0.079300; 0.054659;-0.049489;,
       0.090119; 0.029218;-0.079189;,
       0.123712; 0.042619;-0.020535;,
      -0.002931; 0.025354;-0.054771;,
      -0.009089; 0.025249;-0.046968;,
       0.053823; 0.072751;-0.015958;,
       0.048034; 0.072751;-0.007979;,
       0.053823; 0.072751;-0.015958;,
      -0.009089; 0.025249;-0.046968;,
      -0.012199; 0.000000;-0.064496;,
      -0.016706; 0.000000;-0.055661;,
      -0.002931; 0.025354;-0.054771;,
      -0.009089; 0.025249;-0.046968;,
      -0.002931; 0.025354;-0.054771;,
      -0.016706; 0.000000;-0.055661;,
       0.049024; 0.071002;-0.007260;,
      -0.004310; 0.023500;-0.045904;,
       0.054814; 0.071002;-0.015239;,
       0.002004; 0.023961;-0.053509;,
       0.054814; 0.071002;-0.015239;,
      -0.004310; 0.023500;-0.045904;,
      -0.004310; 0.023500;-0.045904;,
      -0.011012; 0.000000;-0.054366;,
       0.002004; 0.023961;-0.053509;,
      -0.006625; 0.000000;-0.063232;,
       0.002004; 0.023961;-0.053509;,
      -0.011012; 0.000000;-0.054366;,
       0.054814; 0.071002;-0.015239;,
       0.002004; 0.023961;-0.053509;,
       0.053823; 0.072751;-0.015958;,
      -0.002931; 0.025354;-0.054771;,
       0.053823; 0.072751;-0.015958;,
       0.002004; 0.023961;-0.053509;,
       0.002004; 0.023961;-0.053509;,
      -0.006625; 0.000000;-0.063232;,
      -0.002931; 0.025354;-0.054771;,
      -0.012199; 0.000000;-0.064496;,
      -0.002931; 0.025354;-0.054771;,
      -0.006625; 0.000000;-0.063232;,
      -0.011012; 0.000000;-0.054366;,
      -0.004310; 0.023500;-0.045904;,
      -0.016706; 0.000000;-0.055661;,
      -0.009089; 0.025249;-0.046968;,
      -0.016706; 0.000000;-0.055661;,
      -0.004310; 0.023500;-0.045904;,
      -0.004310; 0.023500;-0.045904;,
       0.049024; 0.071002;-0.007260;,
      -0.009089; 0.025249;-0.046968;,
       0.048034; 0.072751;-0.007979;,
      -0.009089; 0.025249;-0.046968;,
       0.049024; 0.071002;-0.007260;,
       0.048034;-0.072750;-0.007979;,
      -0.009089;-0.025248;-0.046968;,
       0.053823;-0.072750;-0.015958;,
      -0.002931;-0.025353;-0.054771;,
       0.053823;-0.072750;-0.015958;,
      -0.009089;-0.025248;-0.046968;,
      -0.009089;-0.025248;-0.046968;,
      -0.016706; 0.000000;-0.055661;,
      -0.002931;-0.025353;-0.054771;,
      -0.012199; 0.000000;-0.064496;,
      -0.002931;-0.025353;-0.054771;,
      -0.016706; 0.000000;-0.055661;,
       0.002004;-0.023960;-0.053509;,
      -0.004310;-0.023499;-0.045904;,
       0.054814;-0.071001;-0.015239;,
       0.049024;-0.071001;-0.007260;,
       0.054814;-0.071001;-0.015239;,
      -0.004310;-0.023499;-0.045904;,
      -0.006625; 0.000000;-0.063232;,
      -0.011012; 0.000000;-0.054366;,
       0.002004;-0.023960;-0.053509;,
      -0.004310;-0.023499;-0.045904;,
       0.002004;-0.023960;-0.053509;,
      -0.011012; 0.000000;-0.054366;,
      -0.002931;-0.025353;-0.054771;,
       0.002004;-0.023960;-0.053509;,
       0.053823;-0.072750;-0.015958;,
       0.054814;-0.071001;-0.015239;,
       0.053823;-0.072750;-0.015958;,
       0.002004;-0.023960;-0.053509;,
      -0.012199; 0.000000;-0.064496;,
      -0.006625; 0.000000;-0.063232;,
      -0.002931;-0.025353;-0.054771;,
       0.002004;-0.023960;-0.053509;,
      -0.002931;-0.025353;-0.054771;,
      -0.006625; 0.000000;-0.063232;,
      -0.009089;-0.025248;-0.046968;,
      -0.004310;-0.023499;-0.045904;,
      -0.016706; 0.000000;-0.055661;,
      -0.011012; 0.000000;-0.054366;,
      -0.016706; 0.000000;-0.055661;,
      -0.004310;-0.023499;-0.045904;,
       0.048034;-0.072750;-0.007979;,
       0.049024;-0.071001;-0.007260;,
      -0.009089;-0.025248;-0.046968;,
      -0.004310;-0.023499;-0.045904;,
      -0.009089;-0.025248;-0.046968;,
       0.049024;-0.071001;-0.007260;,
      -0.000275; 0.011065;-0.060220;,
       0.007802; 0.016357;-0.060123;,
      -0.001271; 0.018290;-0.050590;,
       0.002094; 0.030283;-0.045847;,
      -0.001271; 0.018290;-0.050590;,
       0.007802; 0.016357;-0.060123;,
       0.001186;-0.000000;-0.063845;,
       0.010314;-0.000000;-0.065373;,
      -0.000275; 0.011065;-0.060220;,
       0.007802; 0.016357;-0.060123;,
      -0.000275; 0.011065;-0.060220;,
       0.010314;-0.000000;-0.065373;,
       0.001595; 0.027996;-0.051054;,
       0.007950; 0.015998;-0.065343;,
      -0.001218; 0.020302;-0.054875;,
      -0.000128; 0.010706;-0.063670;,
      -0.001218; 0.020302;-0.054875;,
       0.007950; 0.015998;-0.065343;,
       0.007950; 0.015998;-0.065343;,
       0.010453;-0.000000;-0.070499;,
      -0.000128; 0.010706;-0.063670;,
       0.001326;-0.000000;-0.068971;,
      -0.000128; 0.010706;-0.063670;,
       0.010453;-0.000000;-0.070499;,
      -0.001218; 0.020302;-0.054875;,
      -0.000128; 0.010706;-0.063670;,
      -0.001271; 0.018290;-0.050590;,
      -0.000275; 0.011065;-0.060220;,
      -0.001271; 0.018290;-0.050590;,
      -0.000128; 0.010706;-0.063670;,
      -0.000128; 0.010706;-0.063670;,
       0.001326;-0.000000;-0.068971;,
      -0.000275; 0.011065;-0.060220;,
       0.001186;-0.000000;-0.063845;,
      -0.000275; 0.011065;-0.060220;,
       0.001326;-0.000000;-0.068971;,
       0.010453;-0.000000;-0.070499;,
       0.007950; 0.015998;-0.065343;,
       0.010314;-0.000000;-0.065373;,
       0.007802; 0.016357;-0.060123;,
       0.010314;-0.000000;-0.065373;,
       0.007950; 0.015998;-0.065343;,
       0.007950; 0.015998;-0.065343;,
       0.001595; 0.027996;-0.051054;,
       0.007802; 0.016357;-0.060123;,
       0.002094; 0.030283;-0.045847;,
       0.007802; 0.016357;-0.060123;,
       0.001595; 0.027996;-0.051054;,
       0.002094;-0.029981;-0.045847;,
       0.007802;-0.016358;-0.060123;,
      -0.001271;-0.017989;-0.050590;,
      -0.000275;-0.011065;-0.060220;,
      -0.001271;-0.017989;-0.050590;,
       0.007802;-0.016358;-0.060123;,
       0.007802;-0.016358;-0.060123;,
       0.010314;-0.000000;-0.065373;,
      -0.000275;-0.011065;-0.060220;,
       0.001186;-0.000000;-0.063845;,
      -0.000275;-0.011065;-0.060220;,
       0.010314;-0.000000;-0.065373;,
      -0.000128;-0.010706;-0.065440;,
       0.007950;-0.015998;-0.065343;,
      -0.001218;-0.020001;-0.054875;,
       0.001595;-0.027694;-0.051054;,
      -0.001218;-0.020001;-0.054875;,
       0.007950;-0.015998;-0.065343;,
       0.001326;-0.000000;-0.068971;,
       0.010453;-0.000000;-0.070499;,
      -0.000128;-0.010706;-0.065440;,
       0.007950;-0.015998;-0.065343;,
      -0.000128;-0.010706;-0.065440;,
       0.010453;-0.000000;-0.070499;,
      -0.000275;-0.011065;-0.060220;,
      -0.000128;-0.010706;-0.065440;,
      -0.001271;-0.017989;-0.050590;,
      -0.001218;-0.020001;-0.054875;,
      -0.001271;-0.017989;-0.050590;,
      -0.000128;-0.010706;-0.065440;,
       0.001186;-0.000000;-0.063845;,
       0.001326;-0.000000;-0.068971;,
      -0.000275;-0.011065;-0.060220;,
      -0.000128;-0.010706;-0.065440;,
      -0.000275;-0.011065;-0.060220;,
       0.001326;-0.000000;-0.068971;,
       0.007802;-0.016358;-0.060123;,
       0.007950;-0.015998;-0.065343;,
       0.010314;-0.000000;-0.065373;,
       0.010453;-0.000000;-0.070499;,
       0.010314;-0.000000;-0.065373;,
       0.007950;-0.015998;-0.065343;,
       0.002094;-0.029981;-0.045847;,
       0.001595;-0.027694;-0.051054;,
       0.007802;-0.016358;-0.060123;,
       0.007950;-0.015998;-0.065343;,
       0.007802;-0.016358;-0.060123;,
       0.001595;-0.027694;-0.051054;,
       0.079300;-0.054659;-0.049489;,
       0.090119;-0.029218;-0.079189;,
       0.007784;-0.028019;-0.060578;,
       0.018299;-0.044953;-0.039569;,
       0.090119; 0.029218;-0.079189;,
       0.079300; 0.054659;-0.049489;,
       0.014500; 0.041807;-0.041357;,
       0.007784; 0.030417;-0.060578;,
       0.090119;-0.029218;-0.079189;,
       0.091729;-0.000000;-0.089331;,
       0.009394; 0.001199;-0.070720;,
       0.007784;-0.028019;-0.060578;,
       0.091729;-0.000000;-0.089331;,
       0.090119; 0.029218;-0.079189;,
       0.007784; 0.030417;-0.060578;,
       0.009394; 0.001199;-0.070720;;
      212;
      3;2,1,0;,
      3;5,4,3;,
      3;8,7,6;,
      3;11,10,9;,
      3;14,13,12;,
      3;17,16,15;,
      3;20,19,18;,
      3;23,22,21;,
      3;26,25,24;,
      3;29,28,27;,
      3;32,31,30;,
      3;35,34,33;,
      3;38,37,36;,
      3;41,40,39;,
      3;44,43,42;,
      3;47,46,45;,
      3;50,49,48;,
      3;53,52,51;,
      3;56,55,54;,
      3;59,58,57;,
      3;62,61,60;,
      3;65,64,63;,
      3;68,67,66;,
      3;71,70,69;,
      3;74,73,72;,
      3;77,76,75;,
      3;80,79,78;,
      3;83,82,81;,
      3;86,85,84;,
      3;89,88,87;,
      3;92,91,90;,
      3;95,94,93;,
      3;98,97,96;,
      3;101,100,99;,
      3;104,103,102;,
      3;107,106,105;,
      3;110,109,108;,
      3;113,112,111;,
      3;116,115,114;,
      3;119,118,117;,
      3;122,121,120;,
      3;125,124,123;,
      3;128,127,126;,
      3;131,130,129;,
      3;134,133,132;,
      3;137,136,135;,
      3;140,139,138;,
      3;143,142,141;,
      3;146,145,144;,
      3;149,148,147;,
      3;152,151,150;,
      3;155,154,153;,
      3;158,157,156;,
      3;161,160,159;,
      3;164,163,162;,
      3;167,166,165;,
      3;170,169,168;,
      3;173,172,171;,
      3;176,175,174;,
      3;179,178,177;,
      3;182,181,180;,
      3;185,184,183;,
      3;188,187,186;,
      3;191,190,189;,
      3;194,193,192;,
      3;197,196,195;,
      3;200,199,198;,
      3;203,202,201;,
      3;206,205,204;,
      3;209,208,207;,
      3;212,211,210;,
      3;215,214,213;,
      3;218,217,216;,
      3;221,220,219;,
      3;224,223,222;,
      3;227,226,225;,
      3;230,229,228;,
      3;233,232,231;,
      3;236,235,234;,
      3;239,238,237;,
      3;242,241,240;,
      3;245,244,243;,
      3;248,247,246;,
      3;251,250,249;,
      3;254,253,252;,
      3;257,256,255;,
      3;260,259,258;,
      3;263,262,261;,
      3;266,265,264;,
      3;269,268,267;,
      3;272,271,270;,
      3;275,274,273;,
      3;278,277,276;,
      3;281,280,279;,
      3;284,283,282;,
      3;287,286,285;,
      3;290,289,288;,
      3;293,292,291;,
      3;296,295,294;,
      3;299,298,297;,
      3;302,301,300;,
      3;305,304,303;,
      3;308,307,306;,
      3;311,310,309;,
      3;314,313,312;,
      3;317,316,315;,
      3;320,319,318;,
      3;323,322,321;,
      3;326,325,324;,
      3;329,328,327;,
      3;332,331,330;,
      3;335,334,333;,
      3;338,337,336;,
      3;341,340,339;,
      3;344,343,342;,
      3;347,346,345;,
      3;350,349,348;,
      3;353,352,351;,
      3;356,355,354;,
      3;359,358,357;,
      3;362,361,360;,
      3;365,364,363;,
      3;368,367,366;,
      3;371,370,369;,
      3;374,373,372;,
      3;377,376,375;,
      3;380,379,378;,
      3;383,382,381;,
      3;386,385,384;,
      3;389,388,387;,
      3;392,391,390;,
      3;395,394,393;,
      3;398,397,396;,
      3;401,400,399;,
      3;404,403,402;,
      3;407,406,405;,
      3;410,409,408;,
      3;413,412,411;,
      3;416,415,414;,
      3;419,418,417;,
      3;422,421,420;,
      3;425,424,423;,
      3;428,427,426;,
      3;431,430,429;,
      3;434,433,432;,
      3;437,436,435;,
      3;440,439,438;,
      3;443,442,441;,
      3;446,445,444;,
      3;449,448,447;,
      3;452,451,450;,
      3;455,454,453;,
      3;458,457,456;,
      3;461,460,459;,
      3;464,463,462;,
      3;467,466,465;,
      3;470,469,468;,
      3;473,472,471;,
      3;476,475,474;,
      3;479,478,477;,
      3;482,481,480;,
      3;485,484,483;,
      3;488,487,486;,
      3;491,490,489;,
      3;494,493,492;,
      3;497,496,495;,
      3;500,499,498;,
      3;503,502,501;,
      3;506,505,504;,
      3;509,508,507;,
      3;512,511,510;,
      3;515,514,513;,
      3;518,517,516;,
      3;521,520,519;,
      3;524,523,522;,
      3;527,526,525;,
      3;530,529,528;,
      3;533,532,531;,
      3;536,535,534;,
      3;539,538,537;,
      3;542,541,540;,
      3;545,544,543;,
      3;548,547,546;,
      3;551,550,549;,
      3;554,553,552;,
      3;557,556,555;,
      3;560,559,558;,
      3;563,562,561;,
      3;566,565,564;,
      3;569,568,567;,
      3;572,571,570;,
      3;575,574,573;,
      3;578,577,576;,
      3;581,580,579;,
      3;584,583,582;,
      3;587,586,585;,
      3;590,589,588;,
      3;593,592,591;,
      3;596,595,594;,
      3;599,598,597;,
      3;602,601,600;,
      3;605,604,603;,
      3;608,607,606;,
      3;611,610,609;,
      3;614,613,612;,
      3;617,616,615;,
      3;620,619,618;,
      3;623,622,621;,
      4;627,626,625,624;,
      4;631,630,629,628;,
      4;635,634,633,632;,
      4;639,638,637,636;;
      MeshNormals {
        640;
         0.882526;-0.000000; 0.470264;,
         0.880086;-0.353816; 0.316642;,
         0.999156; 0.000000; 0.041064;,
         0.880086;-0.353816; 0.316642;,
         0.841971;-0.539411; 0.010979;,
         0.999156; 0.000000; 0.041064;,
         0.841971;-0.539411; 0.010979;,
         0.848427;-0.423474;-0.317556;,
         0.999156; 0.000000; 0.041064;,
         0.848427;-0.423474;-0.317556;,
         0.848688; 0.000000;-0.528894;,
         0.999156; 0.000000; 0.041064;,
         0.521874;-0.000000; 0.853022;,
         0.524450;-0.455549; 0.719324;,
         0.882526;-0.000000; 0.470264;,
         0.880086;-0.353816; 0.316642;,
         0.882526;-0.000000; 0.470264;,
         0.524450;-0.455549; 0.719324;,
         0.880086;-0.353816; 0.316642;,
         0.524450;-0.455549; 0.719324;,
         0.519557;-0.783841; 0.340080;,
         0.519557;-0.783841; 0.340080;,
         0.506182;-0.858972;-0.077108;,
         0.880086;-0.353816; 0.316642;,
         0.841971;-0.539411; 0.010979;,
         0.880086;-0.353816; 0.316642;,
         0.506182;-0.858972;-0.077108;,
         0.506182;-0.858972;-0.077108;,
         0.529297;-0.605479;-0.594340;,
         0.841971;-0.539411; 0.010979;,
         0.848427;-0.423474;-0.317556;,
         0.841971;-0.539411; 0.010979;,
         0.529297;-0.605479;-0.594340;,
         0.529297;-0.605479;-0.594340;,
         0.539214;-0.000000;-0.842169;,
         0.848427;-0.423474;-0.317556;,
         0.848688; 0.000000;-0.528894;,
         0.848427;-0.423474;-0.317556;,
         0.539214;-0.000000;-0.842169;,
         0.319531; 0.000000; 0.947576;,
         0.364542;-0.491560; 0.790871;,
         0.521874;-0.000000; 0.853022;,
         0.524450;-0.455549; 0.719324;,
         0.521874;-0.000000; 0.853022;,
         0.364542;-0.491560; 0.790871;,
         0.364542;-0.491560; 0.790871;,
         0.398984;-0.839391; 0.369098;,
         0.524450;-0.455549; 0.719324;,
         0.519557;-0.783841; 0.340080;,
         0.524450;-0.455549; 0.719324;,
         0.398984;-0.839391; 0.369098;,
         0.398984;-0.839391; 0.369098;,
         0.384391;-0.919873;-0.077948;,
         0.519557;-0.783841; 0.340080;,
         0.506182;-0.858972;-0.077108;,
         0.519557;-0.783841; 0.340080;,
         0.384391;-0.919873;-0.077948;,
         0.384391;-0.919873;-0.077948;,
         0.382966;-0.802949;-0.456739;,
         0.506182;-0.858972;-0.077108;,
         0.529297;-0.605479;-0.594340;,
         0.506182;-0.858972;-0.077108;,
         0.382966;-0.802949;-0.456739;,
         0.529297;-0.605479;-0.594340;,
         0.382966;-0.802949;-0.456739;,
         0.518204;-0.461595;-0.719997;,
         0.529297;-0.605479;-0.594340;,
         0.518204;-0.461595;-0.719997;,
         0.539214;-0.000000;-0.842169;,
         0.566050; 0.000000;-0.824371;,
         0.539214;-0.000000;-0.842169;,
         0.518204;-0.461595;-0.719997;,
         0.162879; 0.000000; 0.986646;,
         0.220159;-0.526200; 0.821367;,
         0.319531; 0.000000; 0.947576;,
         0.364542;-0.491560; 0.790871;,
         0.319531; 0.000000; 0.947576;,
         0.220159;-0.526200; 0.821367;,
         0.220159;-0.526200; 0.821367;,
         0.263638;-0.886363; 0.380598;,
         0.364542;-0.491560; 0.790871;,
         0.398984;-0.839391; 0.369098;,
         0.364542;-0.491560; 0.790871;,
         0.263638;-0.886363; 0.380598;,
         0.263638;-0.886363; 0.380598;,
         0.253055;-0.964612;-0.074079;,
         0.398984;-0.839391; 0.369098;,
         0.384391;-0.919873;-0.077948;,
         0.398984;-0.839391; 0.369098;,
         0.253055;-0.964612;-0.074079;,
         0.253055;-0.964612;-0.074079;,
         0.196530;-0.855230;-0.479539;,
         0.384391;-0.919873;-0.077948;,
         0.382966;-0.802949;-0.456739;,
         0.384391;-0.919873;-0.077948;,
         0.196530;-0.855230;-0.479539;,
         0.196530;-0.855230;-0.479539;,
        -0.331262;-0.389561;-0.859364;,
         0.382966;-0.802949;-0.456739;,
         0.518204;-0.461595;-0.719997;,
         0.382966;-0.802949;-0.456739;,
        -0.331262;-0.389561;-0.859364;,
        -0.331262;-0.389561;-0.859364;,
        -0.253395;-0.000000;-0.967363;,
         0.518204;-0.461595;-0.719997;,
         0.566050; 0.000000;-0.824371;,
         0.518204;-0.461595;-0.719997;,
        -0.253395;-0.000000;-0.967363;,
        -0.730690; 0.000000; 0.682710;,
        -0.760225;-0.281887; 0.585318;,
         0.162879; 0.000000; 0.986646;,
         0.220159;-0.526200; 0.821367;,
         0.162879; 0.000000; 0.986646;,
        -0.760225;-0.281887; 0.585318;,
        -0.760225;-0.281887; 0.585318;,
        -0.796954;-0.554271; 0.240099;,
         0.220159;-0.526200; 0.821367;,
         0.263638;-0.886363; 0.380598;,
         0.220159;-0.526200; 0.821367;,
        -0.796954;-0.554271; 0.240099;,
        -0.796954;-0.554271; 0.240099;,
        -0.797444;-0.570691;-0.195946;,
         0.263638;-0.886363; 0.380598;,
         0.253055;-0.964612;-0.074079;,
         0.263638;-0.886363; 0.380598;,
        -0.797444;-0.570691;-0.195946;,
        -0.797444;-0.570691;-0.195946;,
        -0.648959;-0.480815;-0.589635;,
         0.253055;-0.964612;-0.074079;,
         0.196530;-0.855230;-0.479539;,
         0.253055;-0.964612;-0.074079;,
        -0.648959;-0.480815;-0.589635;,
        -0.571992;-0.467327;-0.674115;,
        -0.604223; 0.785299; 0.134981;,
        -0.331262;-0.389561;-0.859364;,
        -0.710119; 0.475358; 0.519390;,
        -0.331262;-0.389561;-0.859364;,
        -0.604223; 0.785299; 0.134981;,
        -0.331262;-0.389561;-0.859364;,
        -0.710119; 0.475358; 0.519390;,
        -0.253395;-0.000000;-0.967363;,
        -0.783177; 0.001040; 0.621798;,
        -0.253395;-0.000000;-0.967363;,
        -0.710119; 0.475358; 0.519390;,
        -0.730690; 0.000000; 0.682710;,
        -0.771747;-0.000001;-0.635930;,
        -0.760225;-0.281887; 0.585318;,
        -0.729123; 0.401464;-0.554262;,
        -0.760225;-0.281887; 0.585318;,
        -0.771747;-0.000001;-0.635930;,
        -0.760225;-0.281887; 0.585318;,
        -0.729123; 0.401464;-0.554262;,
        -0.796954;-0.554271; 0.240099;,
        -0.679247; 0.687849;-0.255904;,
        -0.796954;-0.554271; 0.240099;,
        -0.729123; 0.401464;-0.554262;,
        -0.796954;-0.554271; 0.240099;,
        -0.679247; 0.687849;-0.255904;,
        -0.797444;-0.570691;-0.195946;,
        -0.744545; 0.657292;-0.116708;,
        -0.797444;-0.570691;-0.195946;,
        -0.679247; 0.687849;-0.255904;,
        -0.797444;-0.570691;-0.195946;,
        -0.744545; 0.657292;-0.116708;,
        -0.648959;-0.480815;-0.589635;,
        -0.703385; 0.676603;-0.217849;,
        -0.648959;-0.480815;-0.589635;,
        -0.744545; 0.657292;-0.116708;,
        -0.710119; 0.475358; 0.519390;,
        -0.488570; 0.816851; 0.306681;,
        -0.710656; 0.412857; 0.569665;,
        -0.710119; 0.475358; 0.519390;,
        -0.710656; 0.412857; 0.569665;,
        -0.783177; 0.001040; 0.621798;,
        -0.762977; 0.000000; 0.646425;,
        -0.783177; 0.001040; 0.621798;,
        -0.710656; 0.412857; 0.569665;,
        -0.771747;-0.000001;-0.635930;,
        -0.456126;-0.000001;-0.889915;,
        -0.729123; 0.401464;-0.554262;,
        -0.431052; 0.736557;-0.521227;,
        -0.729123; 0.401464;-0.554262;,
        -0.456126;-0.000001;-0.889915;,
        -0.679247; 0.687849;-0.255904;,
        -0.729123; 0.401464;-0.554262;,
        -0.431052; 0.736557;-0.521227;,
        -0.679247; 0.687849;-0.255904;,
        -0.431052; 0.736557;-0.521227;,
        -0.744545; 0.657292;-0.116708;,
        -0.341092; 0.939919; 0.014422;,
        -0.744545; 0.657292;-0.116708;,
        -0.431052; 0.736557;-0.521227;,
        -0.488570; 0.816851; 0.306681;,
        -0.703385; 0.676603;-0.217849;,
        -0.341092; 0.939919; 0.014422;,
        -0.703385; 0.676603;-0.217849;,
        -0.744545; 0.657292;-0.116708;,
        -0.341092; 0.939919; 0.014422;,
         0.196530;-0.855230;-0.479539;,
        -0.571992;-0.467327;-0.674115;,
        -0.331262;-0.389561;-0.859364;,
        -0.648959;-0.480815;-0.589635;,
        -0.571992;-0.467327;-0.674115;,
         0.196530;-0.855230;-0.479539;,
        -0.703385; 0.676603;-0.217849;,
        -0.604223; 0.785299; 0.134981;,
        -0.648959;-0.480815;-0.589635;,
        -0.571992;-0.467327;-0.674115;,
        -0.648959;-0.480815;-0.589635;,
        -0.604223; 0.785299; 0.134981;,
        -0.488570; 0.816851; 0.306681;,
        -0.604223; 0.785299; 0.134981;,
        -0.703385; 0.676603;-0.217849;,
        -0.710119; 0.475358; 0.519390;,
        -0.604223; 0.785299; 0.134981;,
        -0.488570; 0.816851; 0.306681;,
         0.880087; 0.353816; 0.316642;,
         0.882526;-0.000000; 0.470264;,
         0.999156; 0.000000; 0.041064;,
         0.841971; 0.539411; 0.010979;,
         0.880087; 0.353816; 0.316642;,
         0.999156; 0.000000; 0.041064;,
         0.848427; 0.423474;-0.317556;,
         0.841971; 0.539411; 0.010979;,
         0.999156; 0.000000; 0.041064;,
         0.848688; 0.000000;-0.528894;,
         0.848427; 0.423474;-0.317556;,
         0.999156; 0.000000; 0.041064;,
         0.880087; 0.353816; 0.316642;,
         0.524450; 0.455549; 0.719324;,
         0.882526;-0.000000; 0.470264;,
         0.521874;-0.000000; 0.853022;,
         0.882526;-0.000000; 0.470264;,
         0.524450; 0.455549; 0.719324;,
         0.524450; 0.455549; 0.719324;,
         0.880087; 0.353816; 0.316642;,
         0.519557; 0.783841; 0.340080;,
         0.841971; 0.539411; 0.010979;,
         0.506182; 0.858973;-0.077108;,
         0.880087; 0.353816; 0.316642;,
         0.519557; 0.783841; 0.340080;,
         0.880087; 0.353816; 0.316642;,
         0.506182; 0.858973;-0.077108;,
         0.848427; 0.423474;-0.317556;,
         0.529297; 0.605479;-0.594340;,
         0.841971; 0.539411; 0.010979;,
         0.506182; 0.858973;-0.077108;,
         0.841971; 0.539411; 0.010979;,
         0.529297; 0.605479;-0.594340;,
         0.848688; 0.000000;-0.528894;,
         0.539214;-0.000000;-0.842169;,
         0.848427; 0.423474;-0.317556;,
         0.529297; 0.605479;-0.594340;,
         0.848427; 0.423474;-0.317556;,
         0.539214;-0.000000;-0.842169;,
         0.524450; 0.455549; 0.719324;,
         0.364542; 0.491560; 0.790871;,
         0.521874;-0.000000; 0.853022;,
         0.319531; 0.000000; 0.947576;,
         0.521874;-0.000000; 0.853022;,
         0.364542; 0.491560; 0.790871;,
         0.519557; 0.783841; 0.340080;,
         0.398984; 0.839391; 0.369098;,
         0.524450; 0.455549; 0.719324;,
         0.364542; 0.491560; 0.790871;,
         0.524450; 0.455549; 0.719324;,
         0.398984; 0.839391; 0.369098;,
         0.506182; 0.858973;-0.077108;,
         0.384391; 0.919873;-0.077948;,
         0.519557; 0.783841; 0.340080;,
         0.398984; 0.839391; 0.369098;,
         0.519557; 0.783841; 0.340080;,
         0.384391; 0.919873;-0.077948;,
         0.529297; 0.605479;-0.594340;,
         0.382966; 0.802949;-0.456739;,
         0.506182; 0.858973;-0.077108;,
         0.384391; 0.919873;-0.077948;,
         0.506182; 0.858973;-0.077108;,
         0.382966; 0.802949;-0.456739;,
         0.382966; 0.802949;-0.456739;,
         0.529297; 0.605479;-0.594340;,
         0.518204; 0.461595;-0.719997;,
         0.529297; 0.605479;-0.594340;,
         0.539214;-0.000000;-0.842169;,
         0.518204; 0.461595;-0.719997;,
         0.566050; 0.000000;-0.824371;,
         0.518204; 0.461595;-0.719997;,
         0.539214;-0.000000;-0.842169;,
         0.364542; 0.491560; 0.790871;,
         0.220159; 0.526200; 0.821367;,
         0.319531; 0.000000; 0.947576;,
         0.162879; 0.000000; 0.986646;,
         0.319531; 0.000000; 0.947576;,
         0.220159; 0.526200; 0.821367;,
         0.398984; 0.839391; 0.369098;,
         0.263638; 0.886363; 0.380598;,
         0.364542; 0.491560; 0.790871;,
         0.220159; 0.526200; 0.821367;,
         0.364542; 0.491560; 0.790871;,
         0.263638; 0.886363; 0.380598;,
         0.384391; 0.919873;-0.077948;,
         0.253055; 0.964612;-0.074079;,
         0.398984; 0.839391; 0.369098;,
         0.263638; 0.886363; 0.380598;,
         0.398984; 0.839391; 0.369098;,
         0.253055; 0.964612;-0.074079;,
         0.382966; 0.802949;-0.456739;,
         0.196530; 0.855230;-0.479539;,
         0.384391; 0.919873;-0.077948;,
         0.253055; 0.964612;-0.074079;,
         0.384391; 0.919873;-0.077948;,
         0.196530; 0.855230;-0.479539;,
         0.518204; 0.461595;-0.719997;,
        -0.331262; 0.389561;-0.859364;,
         0.382966; 0.802949;-0.456739;,
         0.196530; 0.855230;-0.479539;,
         0.382966; 0.802949;-0.456739;,
        -0.331262; 0.389561;-0.859364;,
         0.566050; 0.000000;-0.824371;,
        -0.253395;-0.000000;-0.967363;,
         0.518204; 0.461595;-0.719997;,
        -0.331262; 0.389561;-0.859364;,
         0.518204; 0.461595;-0.719997;,
        -0.253395;-0.000000;-0.967363;,
         0.220159; 0.526200; 0.821367;,
        -0.760215; 0.281889; 0.585330;,
         0.162879; 0.000000; 0.986646;,
        -0.730690; 0.000000; 0.682710;,
         0.162879; 0.000000; 0.986646;,
        -0.760215; 0.281889; 0.585330;,
         0.263638; 0.886363; 0.380598;,
        -0.796953; 0.554273; 0.240096;,
         0.220159; 0.526200; 0.821367;,
        -0.760215; 0.281889; 0.585330;,
         0.220159; 0.526200; 0.821367;,
        -0.796953; 0.554273; 0.240096;,
         0.253055; 0.964612;-0.074079;,
        -0.797444; 0.570691;-0.195946;,
         0.263638; 0.886363; 0.380598;,
        -0.796953; 0.554273; 0.240096;,
         0.263638; 0.886363; 0.380598;,
        -0.797444; 0.570691;-0.195946;,
         0.196530; 0.855230;-0.479539;,
        -0.648959; 0.480815;-0.589635;,
         0.253055; 0.964612;-0.074079;,
        -0.797444; 0.570691;-0.195946;,
         0.253055; 0.964612;-0.074079;,
        -0.648959; 0.480815;-0.589635;,
        -0.711685;-0.477499; 0.515266;,
        -0.607649;-0.784834; 0.121649;,
        -0.331262; 0.389561;-0.859364;,
        -0.571992; 0.467327;-0.674115;,
        -0.331262; 0.389561;-0.859364;,
        -0.607649;-0.784834; 0.121649;,
        -0.783177; 0.001040; 0.621798;,
        -0.711685;-0.477499; 0.515266;,
        -0.253395;-0.000000;-0.967363;,
        -0.331262; 0.389561;-0.859364;,
        -0.253395;-0.000000;-0.967363;,
        -0.711685;-0.477499; 0.515266;,
        -0.729133;-0.401453;-0.554257;,
        -0.771747;-0.000001;-0.635930;,
        -0.760215; 0.281889; 0.585330;,
        -0.730690; 0.000000; 0.682710;,
        -0.760215; 0.281889; 0.585330;,
        -0.771747;-0.000001;-0.635930;,
        -0.679248;-0.687845;-0.255911;,
        -0.729133;-0.401453;-0.554257;,
        -0.796953; 0.554273; 0.240096;,
        -0.760215; 0.281889; 0.585330;,
        -0.796953; 0.554273; 0.240096;,
        -0.729133;-0.401453;-0.554257;,
        -0.744545;-0.657292;-0.116708;,
        -0.679248;-0.687845;-0.255911;,
        -0.797444; 0.570691;-0.195946;,
        -0.796953; 0.554273; 0.240096;,
        -0.797444; 0.570691;-0.195946;,
        -0.679248;-0.687845;-0.255911;,
        -0.703385;-0.676603;-0.217849;,
        -0.744545;-0.657292;-0.116708;,
        -0.648959; 0.480815;-0.589635;,
        -0.797444; 0.570691;-0.195946;,
        -0.648959; 0.480815;-0.589635;,
        -0.744545;-0.657292;-0.116708;,
        -0.711685;-0.477499; 0.515266;,
        -0.710656;-0.412857; 0.569665;,
        -0.488570;-0.816851; 0.306681;,
        -0.762977; 0.000000; 0.646425;,
        -0.710656;-0.412857; 0.569665;,
        -0.783177; 0.001040; 0.621798;,
        -0.711685;-0.477499; 0.515266;,
        -0.783177; 0.001040; 0.621798;,
        -0.710656;-0.412857; 0.569665;,
        -0.431049;-0.736557;-0.521230;,
        -0.456126;-0.000001;-0.889915;,
        -0.729133;-0.401453;-0.554257;,
        -0.771747;-0.000001;-0.635930;,
        -0.729133;-0.401453;-0.554257;,
        -0.456126;-0.000001;-0.889915;,
        -0.679248;-0.687845;-0.255911;,
        -0.431049;-0.736557;-0.521230;,
        -0.729133;-0.401453;-0.554257;,
        -0.341092;-0.939919; 0.014422;,
        -0.431049;-0.736557;-0.521230;,
        -0.744545;-0.657292;-0.116708;,
        -0.679248;-0.687845;-0.255911;,
        -0.744545;-0.657292;-0.116708;,
        -0.431049;-0.736557;-0.521230;,
        -0.703385;-0.676603;-0.217849;,
        -0.488570;-0.816851; 0.306681;,
        -0.341092;-0.939919; 0.014422;,
        -0.703385;-0.676603;-0.217849;,
        -0.341092;-0.939919; 0.014422;,
        -0.744545;-0.657292;-0.116708;,
        -0.571992; 0.467327;-0.674115;,
         0.196530; 0.855230;-0.479539;,
        -0.331262; 0.389561;-0.859364;,
        -0.571992; 0.467327;-0.674115;,
        -0.648959; 0.480815;-0.589635;,
         0.196530; 0.855230;-0.479539;,
        -0.571992; 0.467327;-0.674115;,
        -0.607649;-0.784834; 0.121649;,
        -0.648959; 0.480815;-0.589635;,
        -0.703385;-0.676603;-0.217849;,
        -0.648959; 0.480815;-0.589635;,
        -0.607649;-0.784834; 0.121649;,
        -0.607649;-0.784834; 0.121649;,
        -0.488570;-0.816851; 0.306681;,
        -0.703385;-0.676603;-0.217849;,
        -0.607649;-0.784834; 0.121649;,
        -0.711685;-0.477499; 0.515266;,
        -0.488570;-0.816851; 0.306681;,
        -0.231141; 0.573452;-0.785956;,
        -0.860294; 0.385141; 0.334007;,
         0.092659; 0.580564;-0.808925;,
        -0.727668; 0.595164; 0.340997;,
         0.092659; 0.580564;-0.808925;,
        -0.860294; 0.385141; 0.334007;,
        -0.465758;-0.000007;-0.884912;,
        -0.972358;-0.000005; 0.233495;,
        -0.231141; 0.573452;-0.785956;,
        -0.860294; 0.385141; 0.334007;,
        -0.231141; 0.573452;-0.785956;,
        -0.972358;-0.000005; 0.233495;,
        -0.067491;-0.565717; 0.821833;,
         0.120767;-0.527855; 0.840705;,
         0.750195;-0.571045;-0.333340;,
         0.837803;-0.245238;-0.487795;,
         0.750195;-0.571045;-0.333340;,
         0.120767;-0.527855; 0.840705;,
         0.120767;-0.527855; 0.840705;,
         0.356352; 0.000010; 0.934352;,
         0.837803;-0.245238;-0.487795;,
         0.769029;-0.000001;-0.639213;,
         0.837803;-0.245238;-0.487795;,
         0.356352; 0.000010; 0.934352;,
         0.750195;-0.571045;-0.333340;,
         0.837803;-0.245238;-0.487795;,
         0.092659; 0.580564;-0.808925;,
        -0.231141; 0.573452;-0.785956;,
         0.092659; 0.580564;-0.808925;,
         0.837803;-0.245238;-0.487795;,
         0.837803;-0.245238;-0.487795;,
         0.769029;-0.000001;-0.639213;,
        -0.231141; 0.573452;-0.785956;,
        -0.465758;-0.000007;-0.884912;,
        -0.231141; 0.573452;-0.785956;,
         0.769029;-0.000001;-0.639213;,
         0.356352; 0.000010; 0.934352;,
         0.120767;-0.527855; 0.840705;,
        -0.972358;-0.000005; 0.233495;,
        -0.860294; 0.385141; 0.334007;,
        -0.972358;-0.000005; 0.233495;,
         0.120767;-0.527855; 0.840705;,
         0.120767;-0.527855; 0.840705;,
        -0.067491;-0.565717; 0.821833;,
        -0.860294; 0.385141; 0.334007;,
        -0.727668; 0.595164; 0.340997;,
        -0.860294; 0.385141; 0.334007;,
        -0.067491;-0.565717; 0.821833;,
        -0.727667;-0.595164; 0.340998;,
        -0.860292;-0.385142; 0.334012;,
         0.092658;-0.580564;-0.808925;,
        -0.231138;-0.573458;-0.785953;,
         0.092658;-0.580564;-0.808925;,
        -0.860292;-0.385142; 0.334012;,
        -0.860292;-0.385142; 0.334012;,
        -0.972358;-0.000005; 0.233495;,
        -0.231138;-0.573458;-0.785953;,
        -0.465758;-0.000007;-0.884912;,
        -0.231138;-0.573458;-0.785953;,
        -0.972358;-0.000005; 0.233495;,
         0.837803; 0.245243;-0.487793;,
         0.120765; 0.527861; 0.840701;,
         0.750194; 0.571045;-0.333341;,
        -0.067490; 0.565716; 0.821833;,
         0.750194; 0.571045;-0.333341;,
         0.120765; 0.527861; 0.840701;,
         0.769029;-0.000001;-0.639213;,
         0.356352; 0.000010; 0.934352;,
         0.837803; 0.245243;-0.487793;,
         0.120765; 0.527861; 0.840701;,
         0.837803; 0.245243;-0.487793;,
         0.356352; 0.000010; 0.934352;,
        -0.231138;-0.573458;-0.785953;,
         0.837803; 0.245243;-0.487793;,
         0.092658;-0.580564;-0.808925;,
         0.750194; 0.571045;-0.333341;,
         0.092658;-0.580564;-0.808925;,
         0.837803; 0.245243;-0.487793;,
        -0.465758;-0.000007;-0.884912;,
         0.769029;-0.000001;-0.639213;,
        -0.231138;-0.573458;-0.785953;,
         0.837803; 0.245243;-0.487793;,
        -0.231138;-0.573458;-0.785953;,
         0.769029;-0.000001;-0.639213;,
        -0.860292;-0.385142; 0.334012;,
         0.120765; 0.527861; 0.840701;,
        -0.972358;-0.000005; 0.233495;,
         0.356352; 0.000010; 0.934352;,
        -0.972358;-0.000005; 0.233495;,
         0.120765; 0.527861; 0.840701;,
        -0.727667;-0.595164; 0.340998;,
        -0.067490; 0.565716; 0.821833;,
        -0.860292;-0.385142; 0.334012;,
         0.120765; 0.527861; 0.840701;,
        -0.860292;-0.385142; 0.334012;,
        -0.067490; 0.565716; 0.821833;,
        -0.670484;-0.439571; 0.597686;,
         0.901323;-0.000248; 0.433148;,
         0.164670;-0.651890; 0.740218;,
         0.940305; 0.038802; 0.338113;,
         0.164670;-0.651890; 0.740218;,
         0.901323;-0.000248; 0.433148;,
        -0.707191;-0.000000; 0.707022;,
         0.839738;-0.000001; 0.542992;,
        -0.670484;-0.439571; 0.597686;,
         0.901323;-0.000248; 0.433148;,
        -0.670484;-0.439571; 0.597686;,
         0.839738;-0.000001; 0.542992;,
         0.513401; 0.716015;-0.473014;,
         0.444149; 0.570512;-0.690831;,
        -0.819417; 0.324223;-0.472688;,
        -0.814837; 0.199438;-0.544303;,
        -0.819417; 0.324223;-0.472688;,
         0.444149; 0.570512;-0.690831;,
         0.444149; 0.570512;-0.690831;,
         0.616051; 0.027426;-0.787229;,
        -0.814837; 0.199438;-0.544303;,
        -0.658096; 0.058789;-0.750636;,
        -0.814837; 0.199438;-0.544303;,
         0.616051; 0.027426;-0.787229;,
        -0.819417; 0.324223;-0.472688;,
        -0.814837; 0.199438;-0.544303;,
         0.164670;-0.651890; 0.740218;,
        -0.670484;-0.439571; 0.597686;,
         0.164670;-0.651890; 0.740218;,
        -0.814837; 0.199438;-0.544303;,
        -0.814837; 0.199438;-0.544303;,
        -0.658096; 0.058789;-0.750636;,
        -0.670484;-0.439571; 0.597686;,
        -0.707191;-0.000000; 0.707022;,
        -0.670484;-0.439571; 0.597686;,
        -0.658096; 0.058789;-0.750636;,
         0.616051; 0.027426;-0.787229;,
         0.444149; 0.570512;-0.690831;,
         0.839738;-0.000001; 0.542992;,
         0.901323;-0.000248; 0.433148;,
         0.839738;-0.000001; 0.542992;,
         0.444149; 0.570512;-0.690831;,
         0.444149; 0.570512;-0.690831;,
         0.513401; 0.716015;-0.473014;,
         0.901323;-0.000248; 0.433148;,
         0.940305; 0.038802; 0.338113;,
         0.901323;-0.000248; 0.433148;,
         0.513401; 0.716015;-0.473014;,
         0.939836;-0.038011; 0.339504;,
         0.903507;-0.005615; 0.428536;,
         0.179138; 0.656932; 0.732359;,
        -0.662411; 0.453414; 0.596345;,
         0.179138; 0.656932; 0.732359;,
         0.903507;-0.005615; 0.428536;,
         0.903507;-0.005615; 0.428536;,
         0.839738;-0.000001; 0.542992;,
        -0.662411; 0.453414; 0.596345;,
        -0.707191;-0.000000; 0.707022;,
        -0.662411; 0.453414; 0.596345;,
         0.839738;-0.000001; 0.542992;,
        -0.762706;-0.237766;-0.601453;,
         0.481213;-0.596156;-0.642676;,
        -0.827130;-0.334399;-0.451699;,
         0.495715;-0.726908;-0.475260;,
        -0.827130;-0.334399;-0.451699;,
         0.481213;-0.596156;-0.642676;,
        -0.658096; 0.058789;-0.750636;,
         0.616051; 0.027426;-0.787229;,
        -0.762706;-0.237766;-0.601453;,
         0.481213;-0.596156;-0.642676;,
        -0.762706;-0.237766;-0.601453;,
         0.616051; 0.027426;-0.787229;,
        -0.662411; 0.453414; 0.596345;,
        -0.762706;-0.237766;-0.601453;,
         0.179138; 0.656932; 0.732359;,
        -0.827130;-0.334399;-0.451699;,
         0.179138; 0.656932; 0.732359;,
        -0.762706;-0.237766;-0.601453;,
        -0.707191;-0.000000; 0.707022;,
        -0.658096; 0.058789;-0.750636;,
        -0.662411; 0.453414; 0.596345;,
        -0.762706;-0.237766;-0.601453;,
        -0.662411; 0.453414; 0.596345;,
        -0.658096; 0.058789;-0.750636;,
         0.903507;-0.005615; 0.428536;,
         0.481213;-0.596156;-0.642676;,
         0.839738;-0.000001; 0.542992;,
         0.616051; 0.027426;-0.787229;,
         0.839738;-0.000001; 0.542992;,
         0.481213;-0.596156;-0.642676;,
         0.939836;-0.038011; 0.339504;,
         0.495715;-0.726908;-0.475260;,
         0.903507;-0.005615; 0.428536;,
         0.481213;-0.596156;-0.642676;,
         0.903507;-0.005615; 0.428536;,
         0.495715;-0.726908;-0.475260;,
        -0.604223; 0.785299; 0.134981;,
        -0.710119; 0.475358; 0.519390;,
         0.206452; 0.544181; 0.813169;,
         0.182966; 0.753858; 0.631049;,
        -0.711685;-0.477499; 0.515266;,
        -0.607649;-0.784834; 0.121649;,
         0.171155;-0.780159; 0.601712;,
         0.196152;-0.573056; 0.795695;,
        -0.710119; 0.475358; 0.519390;,
        -0.783177; 0.001040; 0.621798;,
         0.220433;-0.003147; 0.975397;,
         0.206452; 0.544181; 0.813169;,
        -0.783177; 0.001040; 0.621798;,
        -0.711685;-0.477499; 0.515266;,
         0.196152;-0.573056; 0.795695;,
         0.220433;-0.003147; 0.975397;;
        212;
        3;2,1,0;,
        3;5,4,3;,
        3;8,7,6;,
        3;11,10,9;,
        3;14,13,12;,
        3;17,16,15;,
        3;20,19,18;,
        3;23,22,21;,
        3;26,25,24;,
        3;29,28,27;,
        3;32,31,30;,
        3;35,34,33;,
        3;38,37,36;,
        3;41,40,39;,
        3;44,43,42;,
        3;47,46,45;,
        3;50,49,48;,
        3;53,52,51;,
        3;56,55,54;,
        3;59,58,57;,
        3;62,61,60;,
        3;65,64,63;,
        3;68,67,66;,
        3;71,70,69;,
        3;74,73,72;,
        3;77,76,75;,
        3;80,79,78;,
        3;83,82,81;,
        3;86,85,84;,
        3;89,88,87;,
        3;92,91,90;,
        3;95,94,93;,
        3;98,97,96;,
        3;101,100,99;,
        3;104,103,102;,
        3;107,106,105;,
        3;110,109,108;,
        3;113,112,111;,
        3;116,115,114;,
        3;119,118,117;,
        3;122,121,120;,
        3;125,124,123;,
        3;128,127,126;,
        3;131,130,129;,
        3;134,133,132;,
        3;137,136,135;,
        3;140,139,138;,
        3;143,142,141;,
        3;146,145,144;,
        3;149,148,147;,
        3;152,151,150;,
        3;155,154,153;,
        3;158,157,156;,
        3;161,160,159;,
        3;164,163,162;,
        3;167,166,165;,
        3;170,169,168;,
        3;173,172,171;,
        3;176,175,174;,
        3;179,178,177;,
        3;182,181,180;,
        3;185,184,183;,
        3;188,187,186;,
        3;191,190,189;,
        3;194,193,192;,
        3;197,196,195;,
        3;200,199,198;,
        3;203,202,201;,
        3;206,205,204;,
        3;209,208,207;,
        3;212,211,210;,
        3;215,214,213;,
        3;218,217,216;,
        3;221,220,219;,
        3;224,223,222;,
        3;227,226,225;,
        3;230,229,228;,
        3;233,232,231;,
        3;236,235,234;,
        3;239,238,237;,
        3;242,241,240;,
        3;245,244,243;,
        3;248,247,246;,
        3;251,250,249;,
        3;254,253,252;,
        3;257,256,255;,
        3;260,259,258;,
        3;263,262,261;,
        3;266,265,264;,
        3;269,268,267;,
        3;272,271,270;,
        3;275,274,273;,
        3;278,277,276;,
        3;281,280,279;,
        3;284,283,282;,
        3;287,286,285;,
        3;290,289,288;,
        3;293,292,291;,
        3;296,295,294;,
        3;299,298,297;,
        3;302,301,300;,
        3;305,304,303;,
        3;308,307,306;,
        3;311,310,309;,
        3;314,313,312;,
        3;317,316,315;,
        3;320,319,318;,
        3;323,322,321;,
        3;326,325,324;,
        3;329,328,327;,
        3;332,331,330;,
        3;335,334,333;,
        3;338,337,336;,
        3;341,340,339;,
        3;344,343,342;,
        3;347,346,345;,
        3;350,349,348;,
        3;353,352,351;,
        3;356,355,354;,
        3;359,358,357;,
        3;362,361,360;,
        3;365,364,363;,
        3;368,367,366;,
        3;371,370,369;,
        3;374,373,372;,
        3;377,376,375;,
        3;380,379,378;,
        3;383,382,381;,
        3;386,385,384;,
        3;389,388,387;,
        3;392,391,390;,
        3;395,394,393;,
        3;398,397,396;,
        3;401,400,399;,
        3;404,403,402;,
        3;407,406,405;,
        3;410,409,408;,
        3;413,412,411;,
        3;416,415,414;,
        3;419,418,417;,
        3;422,421,420;,
        3;425,424,423;,
        3;428,427,426;,
        3;431,430,429;,
        3;434,433,432;,
        3;437,436,435;,
        3;440,439,438;,
        3;443,442,441;,
        3;446,445,444;,
        3;449,448,447;,
        3;452,451,450;,
        3;455,454,453;,
        3;458,457,456;,
        3;461,460,459;,
        3;464,463,462;,
        3;467,466,465;,
        3;470,469,468;,
        3;473,472,471;,
        3;476,475,474;,
        3;479,478,477;,
        3;482,481,480;,
        3;485,484,483;,
        3;488,487,486;,
        3;491,490,489;,
        3;494,493,492;,
        3;497,496,495;,
        3;500,499,498;,
        3;503,502,501;,
        3;506,505,504;,
        3;509,508,507;,
        3;512,511,510;,
        3;515,514,513;,
        3;518,517,516;,
        3;521,520,519;,
        3;524,523,522;,
        3;527,526,525;,
        3;530,529,528;,
        3;533,532,531;,
        3;536,535,534;,
        3;539,538,537;,
        3;542,541,540;,
        3;545,544,543;,
        3;548,547,546;,
        3;551,550,549;,
        3;554,553,552;,
        3;557,556,555;,
        3;560,559,558;,
        3;563,562,561;,
        3;566,565,564;,
        3;569,568,567;,
        3;572,571,570;,
        3;575,574,573;,
        3;578,577,576;,
        3;581,580,579;,
        3;584,583,582;,
        3;587,586,585;,
        3;590,589,588;,
        3;593,592,591;,
        3;596,595,594;,
        3;599,598,597;,
        3;602,601,600;,
        3;605,604,603;,
        3;608,607,606;,
        3;611,610,609;,
        3;614,613,612;,
        3;617,616,615;,
        3;620,619,618;,
        3;623,622,621;,
        4;627,626,625,624;,
        4;631,630,629,628;,
        4;635,634,633,632;,
        4;639,638,637,636;;
      }
      MeshTextureCoords {
        640;
         0.500177; 0.801364;,
         0.584498; 0.747675;,
         0.505039; 0.657818;,
         0.584498; 0.747675;,
         0.616051; 0.686004;,
         0.505039; 0.657818;,
         0.616051; 0.686004;,
         0.617525; 0.608920;,
         0.505039; 0.657818;,
         0.617525; 0.608920;,
         0.587942; 0.526835;,
         0.505039; 0.657818;,
         0.566793; 0.919519;,
         0.636985; 0.830374;,
         0.500177; 0.801364;,
         0.584498; 0.747675;,
         0.500177; 0.801364;,
         0.636985; 0.830374;,
         0.584498; 0.747675;,
         0.636985; 0.830374;,
         0.664036; 0.767550;,
         0.664036; 0.767550;,
         0.679357; 0.701232;,
         0.584498; 0.747675;,
         0.616051; 0.686004;,
         0.584498; 0.747675;,
         0.679357; 0.701232;,
         0.679357; 0.701232;,
         0.685285; 0.584885;,
         0.616051; 0.686004;,
         0.617525; 0.608920;,
         0.616051; 0.686004;,
         0.685285; 0.584885;,
         0.685285; 0.584885;,
         0.657140; 0.475582;,
         0.617525; 0.608920;,
         0.587942; 0.526835;,
         0.617525; 0.608920;,
         0.657140; 0.475582;,
         0.674653; 0.984872;,
         0.711375; 0.866129;,
         0.566793; 0.919519;,
         0.636985; 0.830374;,
         0.566793; 0.919519;,
         0.711375; 0.866129;,
         0.711375; 0.866129;,
         0.729202; 0.790975;,
         0.636985; 0.830374;,
         0.664036; 0.767550;,
         0.636985; 0.830374;,
         0.729202; 0.790975;,
         0.729202; 0.790975;,
         0.745485; 0.717034;,
         0.664036; 0.767550;,
         0.679357; 0.701232;,
         0.664036; 0.767550;,
         0.745485; 0.717034;,
         0.745485; 0.717034;,
         0.766366; 0.629827;,
         0.679357; 0.701232;,
         0.685285; 0.584885;,
         0.679357; 0.701232;,
         0.766366; 0.629827;,
         0.685285; 0.584885;,
         0.766366; 0.629827;,
         0.770002; 0.535675;,
         0.685285; 0.584885;,
         0.770002; 0.535675;,
         0.657140; 0.475582;,
         0.761013; 0.456736;,
         0.657140; 0.475582;,
         0.770002; 0.535675;,
         0.710768; 0.998371;,
         0.739673; 0.870140;,
         0.674653; 0.984872;,
         0.711375; 0.866129;,
         0.674653; 0.984872;,
         0.739673; 0.870140;,
         0.739673; 0.870140;,
         0.753288; 0.796448;,
         0.711375; 0.866129;,
         0.729202; 0.790975;,
         0.711375; 0.866129;,
         0.753288; 0.796448;,
         0.753288; 0.796448;,
         0.768592; 0.726416;,
         0.729202; 0.790975;,
         0.745485; 0.717034;,
         0.729202; 0.790975;,
         0.768592; 0.726416;,
         0.768592; 0.726416;,
         0.796276; 0.635636;,
         0.745485; 0.717034;,
         0.766366; 0.629827;,
         0.745485; 0.717034;,
         0.796276; 0.635636;,
         0.796276; 0.635636;,
         0.811311; 0.529095;,
         0.766366; 0.629827;,
         0.770002; 0.535675;,
         0.766366; 0.629827;,
         0.811311; 0.529095;,
         0.811311; 0.529095;,
         0.809347; 0.444621;,
         0.770002; 0.535675;,
         0.761013; 0.456736;,
         0.770002; 0.535675;,
         0.809347; 0.444621;,
         0.814265; 0.999823;,
         0.814578; 0.877521;,
         0.710768; 0.998371;,
         0.739673; 0.870140;,
         0.710768; 0.998371;,
         0.814578; 0.877521;,
         0.814578; 0.877521;,
         0.821228; 0.810020;,
         0.739673; 0.870140;,
         0.753288; 0.796448;,
         0.739673; 0.870140;,
         0.821228; 0.810020;,
         0.821228; 0.810020;,
         0.827094; 0.750017;,
         0.753288; 0.796448;,
         0.768592; 0.726416;,
         0.753288; 0.796448;,
         0.827094; 0.750017;,
         0.827094; 0.750017;,
         0.829615; 0.713086;,
         0.768592; 0.726416;,
         0.796276; 0.635636;,
         0.768592; 0.726416;,
         0.829615; 0.713086;,
         0.822082; 0.631865;,
         0.841431; 0.629632;,
         0.811311; 0.529095;,
         0.830434; 0.530648;,
         0.811311; 0.529095;,
         0.841431; 0.629632;,
         0.811311; 0.529095;,
         0.830434; 0.530648;,
         0.809347; 0.444621;,
         0.829802; 0.451599;,
         0.809347; 0.444621;,
         0.830434; 0.530648;,
         0.814265; 0.999823;,
         0.834327; 0.996677;,
         0.814578; 0.877521;,
         0.832154; 0.882438;,
         0.814578; 0.877521;,
         0.834327; 0.996677;,
         0.814578; 0.877521;,
         0.832154; 0.882438;,
         0.821228; 0.810020;,
         0.836298; 0.811568;,
         0.821228; 0.810020;,
         0.832154; 0.882438;,
         0.821228; 0.810020;,
         0.836298; 0.811568;,
         0.827094; 0.750017;,
         0.839043; 0.749971;,
         0.827094; 0.750017;,
         0.836298; 0.811568;,
         0.827094; 0.750017;,
         0.839043; 0.749971;,
         0.829615; 0.713086;,
         0.842469; 0.713381;,
         0.829615; 0.713086;,
         0.839043; 0.749971;,
         0.847984; 0.514824;,
         0.994884; 0.643508;,
         0.984640; 0.553258;,
         0.847984; 0.514824;,
         0.984640; 0.553258;,
         0.869188; 0.429652;,
         0.999823; 0.494672;,
         0.869188; 0.429652;,
         0.984640; 0.553258;,
         0.834327; 0.996677;,
         0.999823; 0.970895;,
         0.832154; 0.882438;,
         0.976136; 0.824753;,
         0.832154; 0.882438;,
         0.999823; 0.970895;,
         0.836298; 0.811568;,
         0.832154; 0.882438;,
         0.976136; 0.824753;,
         0.836298; 0.811568;,
         0.976136; 0.824753;,
         0.839043; 0.749971;,
         0.965827; 0.704137;,
         0.839043; 0.749971;,
         0.976136; 0.824753;,
         0.994884; 0.643508;,
         0.842469; 0.713381;,
         0.965827; 0.704137;,
         0.842469; 0.713381;,
         0.839043; 0.749971;,
         0.965827; 0.704137;,
         0.796276; 0.635636;,
         0.822082; 0.631865;,
         0.811311; 0.529095;,
         0.829615; 0.713086;,
         0.822082; 0.631865;,
         0.796276; 0.635636;,
         0.842469; 0.713381;,
         0.841431; 0.629632;,
         0.829615; 0.713086;,
         0.822082; 0.631865;,
         0.829615; 0.713086;,
         0.841431; 0.629632;,
         0.994884; 0.643508;,
         0.841431; 0.629632;,
         0.842469; 0.713381;,
         0.847984; 0.514824;,
         0.841431; 0.629632;,
         0.994884; 0.643508;,
         0.084498; 0.681802;,
         0.000177; 0.628113;,
         0.005040; 0.771659;,
         0.116052; 0.743473;,
         0.084498; 0.681802;,
         0.005040; 0.771659;,
         0.117526; 0.820556;,
         0.116052; 0.743473;,
         0.005040; 0.771659;,
         0.087943; 0.902641;,
         0.117526; 0.820556;,
         0.005040; 0.771659;,
         0.084498; 0.681802;,
         0.136985; 0.599102;,
         0.000177; 0.628113;,
         0.066792; 0.509957;,
         0.000177; 0.628113;,
         0.136985; 0.599102;,
         0.136985; 0.599102;,
         0.084498; 0.681802;,
         0.164036; 0.661926;,
         0.116052; 0.743473;,
         0.179357; 0.728244;,
         0.084498; 0.681802;,
         0.164036; 0.661926;,
         0.084498; 0.681802;,
         0.179357; 0.728244;,
         0.117526; 0.820556;,
         0.185286; 0.844591;,
         0.116052; 0.743473;,
         0.179357; 0.728244;,
         0.116052; 0.743473;,
         0.185286; 0.844591;,
         0.087943; 0.902641;,
         0.157141; 0.953894;,
         0.117526; 0.820556;,
         0.185286; 0.844591;,
         0.117526; 0.820556;,
         0.157141; 0.953894;,
         0.136985; 0.599102;,
         0.211374; 0.563347;,
         0.066792; 0.509957;,
         0.174653; 0.444603;,
         0.066792; 0.509957;,
         0.211374; 0.563347;,
         0.164036; 0.661926;,
         0.229202; 0.638502;,
         0.136985; 0.599102;,
         0.211374; 0.563347;,
         0.136985; 0.599102;,
         0.229202; 0.638502;,
         0.179357; 0.728244;,
         0.245486; 0.712442;,
         0.164036; 0.661926;,
         0.229202; 0.638502;,
         0.164036; 0.661926;,
         0.245486; 0.712442;,
         0.185286; 0.844591;,
         0.266367; 0.799649;,
         0.179357; 0.728244;,
         0.245486; 0.712442;,
         0.179357; 0.728244;,
         0.266367; 0.799649;,
         0.266367; 0.799649;,
         0.185286; 0.844591;,
         0.270003; 0.893801;,
         0.185286; 0.844591;,
         0.157141; 0.953894;,
         0.270003; 0.893801;,
         0.261015; 0.972740;,
         0.270003; 0.893801;,
         0.157141; 0.953894;,
         0.211374; 0.563347;,
         0.239673; 0.559336;,
         0.174653; 0.444603;,
         0.210767; 0.431105;,
         0.174653; 0.444603;,
         0.239673; 0.559336;,
         0.229202; 0.638502;,
         0.253288; 0.633028;,
         0.211374; 0.563347;,
         0.239673; 0.559336;,
         0.211374; 0.563347;,
         0.253288; 0.633028;,
         0.245486; 0.712442;,
         0.268592; 0.703059;,
         0.229202; 0.638502;,
         0.253288; 0.633028;,
         0.229202; 0.638502;,
         0.268592; 0.703059;,
         0.266367; 0.799649;,
         0.296277; 0.793839;,
         0.245486; 0.712442;,
         0.268592; 0.703059;,
         0.245486; 0.712442;,
         0.296277; 0.793839;,
         0.270003; 0.893801;,
         0.311312; 0.900380;,
         0.266367; 0.799649;,
         0.296277; 0.793839;,
         0.266367; 0.799649;,
         0.311312; 0.900380;,
         0.261015; 0.972740;,
         0.309349; 0.984855;,
         0.270003; 0.893801;,
         0.311312; 0.900380;,
         0.270003; 0.893801;,
         0.309349; 0.984855;,
         0.239673; 0.559336;,
         0.314578; 0.551955;,
         0.210767; 0.431105;,
         0.314265; 0.429653;,
         0.210767; 0.431105;,
         0.314578; 0.551955;,
         0.253288; 0.633028;,
         0.321228; 0.619456;,
         0.239673; 0.559336;,
         0.314578; 0.551955;,
         0.239673; 0.559336;,
         0.321228; 0.619456;,
         0.268592; 0.703059;,
         0.327094; 0.679459;,
         0.253288; 0.633028;,
         0.321228; 0.619456;,
         0.253288; 0.633028;,
         0.327094; 0.679459;,
         0.296277; 0.793839;,
         0.329615; 0.716389;,
         0.268592; 0.703059;,
         0.327094; 0.679459;,
         0.268592; 0.703059;,
         0.329615; 0.716389;,
         0.330435; 0.898827;,
         0.341431; 0.799843;,
         0.311312; 0.900380;,
         0.322083; 0.797611;,
         0.311312; 0.900380;,
         0.341431; 0.799843;,
         0.329804; 0.977876;,
         0.330435; 0.898827;,
         0.309349; 0.984855;,
         0.311312; 0.900380;,
         0.309349; 0.984855;,
         0.330435; 0.898827;,
         0.332155; 0.547036;,
         0.334328; 0.432799;,
         0.314578; 0.551955;,
         0.314265; 0.429653;,
         0.314578; 0.551955;,
         0.334328; 0.432799;,
         0.336298; 0.617907;,
         0.332155; 0.547036;,
         0.321228; 0.619456;,
         0.314578; 0.551955;,
         0.321228; 0.619456;,
         0.332155; 0.547036;,
         0.339043; 0.679504;,
         0.336298; 0.617907;,
         0.327094; 0.679459;,
         0.321228; 0.619456;,
         0.327094; 0.679459;,
         0.336298; 0.617907;,
         0.342469; 0.716094;,
         0.339043; 0.679504;,
         0.329615; 0.716389;,
         0.327094; 0.679459;,
         0.329615; 0.716389;,
         0.339043; 0.679504;,
         0.347985; 0.914651;,
         0.484641; 0.876217;,
         0.494884; 0.785968;,
         0.499823; 0.934803;,
         0.484641; 0.876217;,
         0.369189; 0.999823;,
         0.347985; 0.914651;,
         0.369189; 0.999823;,
         0.484641; 0.876217;,
         0.476136; 0.604723;,
         0.499823; 0.458580;,
         0.332155; 0.547036;,
         0.334328; 0.432799;,
         0.332155; 0.547036;,
         0.499823; 0.458580;,
         0.336298; 0.617907;,
         0.476136; 0.604723;,
         0.332155; 0.547036;,
         0.465827; 0.725339;,
         0.476136; 0.604723;,
         0.339043; 0.679504;,
         0.336298; 0.617907;,
         0.339043; 0.679504;,
         0.476136; 0.604723;,
         0.342469; 0.716094;,
         0.494884; 0.785968;,
         0.465827; 0.725339;,
         0.342469; 0.716094;,
         0.465827; 0.725339;,
         0.339043; 0.679504;,
         0.322083; 0.797611;,
         0.296277; 0.793839;,
         0.311312; 0.900380;,
         0.322083; 0.797611;,
         0.329615; 0.716389;,
         0.296277; 0.793839;,
         0.322083; 0.797611;,
         0.341431; 0.799843;,
         0.329615; 0.716389;,
         0.342469; 0.716094;,
         0.329615; 0.716389;,
         0.341431; 0.799843;,
         0.341431; 0.799843;,
         0.494884; 0.785968;,
         0.342469; 0.716094;,
         0.341431; 0.799843;,
         0.347985; 0.914651;,
         0.494884; 0.785968;,
         0.472790; 0.282068;,
         0.546551; 0.274109;,
         0.546580; 0.273971;,
         0.535255; 0.269374;,
         0.546580; 0.273971;,
         0.546551; 0.274109;,
         0.585838; 0.231369;,
         0.456996; 0.239289;,
         0.472790; 0.282068;,
         0.546551; 0.274109;,
         0.472790; 0.282068;,
         0.456996; 0.239289;,
         0.535073; 0.269791;,
         0.547008; 0.269772;,
         0.545055; 0.276678;,
         0.482725; 0.259419;,
         0.545055; 0.276678;,
         0.547008; 0.269772;,
         0.547008; 0.269772;,
         0.469189; 0.289934;,
         0.482725; 0.259419;,
         0.585838; 0.299543;,
         0.482725; 0.259419;,
         0.469189; 0.289934;,
         0.545055; 0.276678;,
         0.482725; 0.259419;,
         0.546580; 0.273971;,
         0.472790; 0.282068;,
         0.546580; 0.273971;,
         0.482725; 0.259419;,
         0.482725; 0.259419;,
         0.585838; 0.299543;,
         0.472790; 0.282068;,
         0.585838; 0.231369;,
         0.472790; 0.282068;,
         0.585838; 0.299543;,
         0.469189; 0.289934;,
         0.547008; 0.269772;,
         0.456996; 0.239289;,
         0.546551; 0.274109;,
         0.456996; 0.239289;,
         0.547008; 0.269772;,
         0.547008; 0.269772;,
         0.535073; 0.269791;,
         0.546551; 0.274109;,
         0.535255; 0.269374;,
         0.546551; 0.274109;,
         0.535073; 0.269791;,
         0.421533; 0.353512;,
         0.415995; 0.342593;,
         0.416106; 0.342605;,
         0.412986; 0.416326;,
         0.416106; 0.342605;,
         0.415995; 0.342593;,
         0.415995; 0.342593;,
         0.456642; 0.429298;,
         0.412986; 0.416326;,
         0.456642; 0.299898;,
         0.412986; 0.416326;,
         0.456642; 0.429298;,
         0.434937; 0.404960;,
         0.420292; 0.341819;,
         0.413542; 0.344280;,
         0.421131; 0.353724;,
         0.413542; 0.344280;,
         0.420292; 0.341819;,
         0.388342; 0.304262;,
         0.405412; 0.420447;,
         0.434937; 0.404960;,
         0.420292; 0.341819;,
         0.434937; 0.404960;,
         0.405412; 0.420447;,
         0.412986; 0.416326;,
         0.434937; 0.404960;,
         0.416106; 0.342605;,
         0.413542; 0.344280;,
         0.416106; 0.342605;,
         0.434937; 0.404960;,
         0.456642; 0.299898;,
         0.388342; 0.304262;,
         0.412986; 0.416326;,
         0.434937; 0.404960;,
         0.412986; 0.416326;,
         0.388342; 0.304262;,
         0.415995; 0.342593;,
         0.420292; 0.341819;,
         0.456642; 0.429298;,
         0.405412; 0.420447;,
         0.456642; 0.429298;,
         0.420292; 0.341819;,
         0.421533; 0.353512;,
         0.421131; 0.353724;,
         0.415995; 0.342593;,
         0.420292; 0.341819;,
         0.415995; 0.342593;,
         0.421131; 0.353724;,
         0.625841; 0.083448;,
         0.625972; 0.083641;,
         0.625889; 0.083640;,
         0.625972; 0.299543;,
         0.625889; 0.083640;,
         0.625972; 0.083641;,
         0.625801; 0.083430;,
         0.625826; 0.083424;,
         0.625841; 0.083448;,
         0.625972; 0.083641;,
         0.625841; 0.083448;,
         0.625826; 0.083424;,
         0.586193; 0.227667;,
         0.625792; 0.083475;,
         0.625858; 0.083497;,
         0.625816; 0.083443;,
         0.625858; 0.083497;,
         0.625792; 0.083475;,
         0.625792; 0.083475;,
         0.625819; 0.083439;,
         0.625816; 0.083443;,
         0.625806; 0.083441;,
         0.625816; 0.083443;,
         0.625819; 0.083439;,
         0.625858; 0.083497;,
         0.625816; 0.083443;,
         0.625889; 0.083640;,
         0.625841; 0.083448;,
         0.625889; 0.083640;,
         0.625816; 0.083443;,
         0.625816; 0.083443;,
         0.625806; 0.083441;,
         0.625841; 0.083448;,
         0.625801; 0.083430;,
         0.625841; 0.083448;,
         0.625806; 0.083441;,
         0.625819; 0.083439;,
         0.625792; 0.083475;,
         0.625826; 0.083424;,
         0.625972; 0.083641;,
         0.625826; 0.083424;,
         0.625792; 0.083475;,
         0.625792; 0.083475;,
         0.586193; 0.227667;,
         0.625972; 0.083641;,
         0.625972; 0.299543;,
         0.625972; 0.083641;,
         0.586193; 0.227667;,
         0.406902; 0.299543;,
         0.415617; 0.173822;,
         0.388342; 0.210929;,
         0.402448; 0.166775;,
         0.388342; 0.210929;,
         0.415617; 0.173822;,
         0.415617; 0.173822;,
         0.412246; 0.131861;,
         0.402448; 0.166775;,
         0.408373; 0.141581;,
         0.402448; 0.166775;,
         0.412246; 0.131861;,
         0.414161; 0.158841;,
         0.405309; 0.162890;,
         0.411139; 0.199443;,
         0.415617; 0.245578;,
         0.411139; 0.199443;,
         0.405309; 0.162890;,
         0.410853; 0.137079;,
         0.410283; 0.119616;,
         0.414161; 0.158841;,
         0.405309; 0.162890;,
         0.414161; 0.158841;,
         0.410283; 0.119616;,
         0.402448; 0.166775;,
         0.414161; 0.158841;,
         0.388342; 0.210929;,
         0.411139; 0.199443;,
         0.388342; 0.210929;,
         0.414161; 0.158841;,
         0.408373; 0.141581;,
         0.410853; 0.137079;,
         0.402448; 0.166775;,
         0.414161; 0.158841;,
         0.402448; 0.166775;,
         0.410853; 0.137079;,
         0.415617; 0.173822;,
         0.405309; 0.162890;,
         0.412246; 0.131861;,
         0.410283; 0.119616;,
         0.412246; 0.131861;,
         0.405309; 0.162890;,
         0.406902; 0.299543;,
         0.415617; 0.245578;,
         0.415617; 0.173822;,
         0.405309; 0.162890;,
         0.415617; 0.173822;,
         0.415617; 0.245578;,
         0.029292; 0.268477;,
         0.000177; 0.357679;,
         0.194229; 0.336302;,
         0.173910; 0.272487;,
         0.387988; 0.357679;,
         0.359530; 0.268265;,
         0.205936; 0.278327;,
         0.194583; 0.331071;,
         0.000177; 0.357679;,
         0.000177; 0.429298;,
         0.194229; 0.407921;,
         0.194229; 0.336302;,
         0.387988; 0.429298;,
         0.387988; 0.357679;,
         0.194583; 0.331071;,
         0.194583; 0.402690;;
      }
      MeshMaterialList {
        1;
        212;
        0,
        0,
        0,
        0,
        0,
        0,
        0,
        0,
        0,
        0,
        0,
        0,
        0,
        0,
        0,
        0,
        0,
        0,
        0,
        0,
        0,
        0,
        0,
        0,
        0,
        0,
        0,
        0,
        0,
        0,
        0,
        0,
        0,
        0,
        0,
        0,
        0,
        0,
        0,
        0,
        0,
        0,
        0,
        0,
        0,
        0,
        0,
        0,
        0,
        0,
        0,
        0,
        0,
        0,
        0,
        0,
        0,
        0,
        0,
        0,
        0,
        0,
        0,
        0,
        0,
        0,
        0,
        0,
        0,
        0,
        0,
        0,
        0,
        0,
        0,
        0,
        0,
        0,
        0,
        0,
        0,
        0,
        0,
        0,
        0,
        0,
        0,
        0,
        0,
        0,
        0,
        0,
        0,
        0,
        0,
        0,
        0,
        0,
        0,
        0,
        0,
        0,
        0,
        0,
        0,
        0,
        0,
        0,
        0,
        0,
        0,
        0,
        0,
        0,
        0,
        0,
        0,
        0,
        0,
        0,
        0,
        0,
        0,
        0,
        0,
        0,
        0,
        0,
        0,
        0,
        0,
        0,
        0,
        0,
        0,
        0,
        0,
        0,
        0,
        0,
        0,
        0,
        0,
        0,
        0,
        0,
        0,
        0,
        0,
        0,
        0,
        0,
        0,
        0,
        0,
        0,
        0,
        0,
        0,
        0,
        0,
        0,
        0,
        0,
        0,
        0,
        0,
        0,
        0,
        0,
        0,
        0,
        0,
        0,
        0,
        0,
        0,
        0,
        0,
        0,
        0,
        0,
        0,
        0,
        0,
        0,
        0,
        0,
        0,
        0,
        0,
        0,
        0,
        0,
        0,
        0,
        0,
        0,
        0,
        0,
        0,
        0,
        0,
        0,
        0,
        0,
        0,
        0,
        0,
        0,
        0,
        0;
        Material Material__101_001 {
           0.800000; 0.800000; 0.800000; 1.000000;;
           225.000000;
           0.000000; 0.000000; 0.000000;;
           0.000000; 0.000000; 0.000000;;
        }
      }
    }
  }
}
