xof 0303txt 0032

Frame Root {
  FrameTransformMatrix {
     1.000000, 0.000000, 0.000000, 0.000000,
     0.000000,-0.000000, 1.000000, 0.000000,
     0.000000, 1.000000, 0.000000, 0.000000,
     0.000000, 0.000000, 0.000000, 1.000000;;
  }
  Frame _0002 {
    FrameTransformMatrix {
       1.000000, 0.000000, 0.000000, 0.000000,
       0.000000, 1.000000, 0.000000, 0.000000,
       0.000000, 0.000000, 1.000000, 0.000000,
       0.000000, 0.000000, 0.000000, 1.000000;;
    }
    Mesh { // _0002 mesh
      709;
       0.007841; 0.004302; 0.026216;,
       0.000368; 0.006574;-0.085395;,
       0.000368; 0.008373; 0.030828;,
       0.000368; 0.006574;-0.085395;,
       0.007841; 0.004302; 0.026216;,
       0.007418; 0.002574;-0.081705;,
       0.007841;-0.003839; 0.026216;,
       0.007418; 0.002574;-0.081705;,
       0.007841; 0.004302; 0.026216;,
       0.007418; 0.002574;-0.081705;,
       0.007841;-0.003839; 0.026216;,
       0.007418;-0.005424;-0.074325;,
       0.000368;-0.007909; 0.030828;,
       0.007418;-0.005424;-0.074325;,
       0.007841;-0.003839; 0.026216;,
       0.007418;-0.005424;-0.074325;,
       0.000368;-0.007909; 0.030828;,
       0.000368;-0.009423;-0.069983;,
      -0.007106;-0.003839; 0.035440;,
       0.000368;-0.009423;-0.069983;,
       0.000368;-0.007909; 0.030828;,
       0.000368;-0.009423;-0.069983;,
      -0.007106;-0.003839; 0.035440;,
      -0.006682;-0.005424;-0.074325;,
      -0.007106; 0.004302; 0.035440;,
      -0.006682;-0.005424;-0.074325;,
      -0.007106;-0.003839; 0.035440;,
      -0.006682;-0.005424;-0.074325;,
      -0.007106; 0.004302; 0.035440;,
      -0.006682; 0.002574;-0.079465;,
       0.000368; 0.008373; 0.030828;,
      -0.006682; 0.002574;-0.079465;,
      -0.007106; 0.004302; 0.035440;,
      -0.006682; 0.002574;-0.079465;,
       0.000368; 0.008373; 0.030828;,
       0.000368; 0.006574;-0.085395;,
       0.008541; 0.002567; 0.191390;,
       0.000368; 0.008373; 0.030828;,
       0.001491; 0.006638; 0.191390;,
       0.000368; 0.008373; 0.030828;,
       0.008541; 0.002567; 0.191390;,
       0.007841; 0.004302; 0.026216;,
       0.008541;-0.005574; 0.191390;,
       0.007841; 0.004302; 0.026216;,
       0.008541; 0.002567; 0.191390;,
       0.007841; 0.004302; 0.026216;,
       0.008541;-0.005574; 0.191390;,
       0.007841;-0.003839; 0.026216;,
       0.001491;-0.009644; 0.191390;,
       0.007841;-0.003839; 0.026216;,
       0.008541;-0.005574; 0.191390;,
       0.007841;-0.003839; 0.026216;,
       0.001491;-0.009644; 0.191390;,
       0.000368;-0.007909; 0.030828;,
      -0.005559;-0.005574; 0.191390;,
       0.000368;-0.007909; 0.030828;,
       0.001491;-0.009644; 0.191390;,
       0.000368;-0.007909; 0.030828;,
      -0.005559;-0.005574; 0.191390;,
      -0.007106;-0.003839; 0.035440;,
      -0.005559; 0.002567; 0.191390;,
      -0.007106;-0.003839; 0.035440;,
      -0.005559;-0.005574; 0.191390;,
      -0.007106;-0.003839; 0.035440;,
      -0.005559; 0.002567; 0.191390;,
      -0.007106; 0.004302; 0.035440;,
       0.001491; 0.006638; 0.191390;,
      -0.007106; 0.004302; 0.035440;,
      -0.005559; 0.002567; 0.191390;,
      -0.007106; 0.004302; 0.035440;,
       0.001491; 0.006638; 0.191390;,
       0.000368; 0.008373; 0.030828;,
       0.007351; 0.002047; 0.300913;,
       0.001491; 0.006638; 0.191390;,
       0.001636; 0.005695; 0.300913;,
       0.001491; 0.006638; 0.191390;,
       0.007351; 0.002047; 0.300913;,
       0.008541; 0.002567; 0.191390;,
       0.007351;-0.005250; 0.300913;,
       0.008541; 0.002567; 0.191390;,
       0.007351; 0.002047; 0.300913;,
       0.008541; 0.002567; 0.191390;,
       0.007351;-0.005250; 0.300913;,
       0.008541;-0.005574; 0.191390;,
       0.001636;-0.008899; 0.300913;,
       0.008541;-0.005574; 0.191390;,
       0.007351;-0.005250; 0.300913;,
       0.008541;-0.005574; 0.191390;,
       0.001636;-0.008899; 0.300913;,
       0.001491;-0.009644; 0.191390;,
      -0.004080;-0.005250; 0.300913;,
       0.001491;-0.009644; 0.191390;,
       0.001636;-0.008899; 0.300913;,
       0.001491;-0.009644; 0.191390;,
      -0.004080;-0.005250; 0.300913;,
      -0.005559;-0.005574; 0.191390;,
      -0.004080; 0.002047; 0.300913;,
      -0.005559;-0.005574; 0.191390;,
      -0.004080;-0.005250; 0.300913;,
      -0.005559;-0.005574; 0.191390;,
      -0.004080; 0.002047; 0.300913;,
      -0.005559; 0.002567; 0.191390;,
       0.001636; 0.005695; 0.300913;,
      -0.005559; 0.002567; 0.191390;,
      -0.004080; 0.002047; 0.300913;,
      -0.005559; 0.002567; 0.191390;,
       0.001636; 0.005695; 0.300913;,
       0.001491; 0.006638; 0.191390;,
       0.009074; 0.003816; 0.490259;,
       0.001636; 0.005695; 0.300913;,
       0.000301; 0.007547; 0.489179;,
       0.001636; 0.005695; 0.300913;,
       0.009074; 0.003816; 0.490259;,
       0.007351; 0.002047; 0.300913;,
       0.009074;-0.003645; 0.490259;,
       0.007351; 0.002047; 0.300913;,
       0.009074; 0.003816; 0.490259;,
       0.007351; 0.002047; 0.300913;,
       0.009074;-0.003645; 0.490259;,
       0.007351;-0.005250; 0.300913;,
       0.000301;-0.007375; 0.489179;,
       0.007351;-0.005250; 0.300913;,
       0.009074;-0.003645; 0.490259;,
       0.007351;-0.005250; 0.300913;,
       0.000301;-0.007375; 0.489179;,
       0.001636;-0.008899; 0.300913;,
      -0.007148;-0.003645; 0.488098;,
       0.001636;-0.008899; 0.300913;,
       0.000301;-0.007375; 0.489179;,
       0.001636;-0.008899; 0.300913;,
      -0.007148;-0.003645; 0.488098;,
      -0.004080;-0.005250; 0.300913;,
      -0.007148; 0.003816; 0.488098;,
      -0.004080;-0.005250; 0.300913;,
      -0.007148;-0.003645; 0.488098;,
      -0.004080;-0.005250; 0.300913;,
      -0.007148; 0.003816; 0.488098;,
      -0.004080; 0.002047; 0.300913;,
       0.000301; 0.007547; 0.489179;,
      -0.004080; 0.002047; 0.300913;,
      -0.007148; 0.003816; 0.488098;,
      -0.004080; 0.002047; 0.300913;,
       0.000301; 0.007547; 0.489179;,
       0.001636; 0.005695; 0.300913;,
       0.009584; 0.003018; 0.576908;,
       0.000301; 0.007547; 0.489179;,
       0.000231; 0.007080; 0.575114;,
       0.000301; 0.007547; 0.489179;,
       0.009584; 0.003018; 0.576908;,
       0.009074; 0.003816; 0.490259;,
       0.009584;-0.002279; 0.579528;,
       0.009074; 0.003816; 0.490259;,
       0.009584; 0.003018; 0.576908;,
       0.009074; 0.003816; 0.490259;,
       0.009584;-0.002279; 0.579528;,
       0.009074;-0.003645; 0.490259;,
       0.000231;-0.007568; 0.579798;,
       0.009074;-0.003645; 0.490259;,
       0.009584;-0.002279; 0.579528;,
       0.009074;-0.003645; 0.490259;,
       0.000231;-0.007568; 0.579798;,
       0.000301;-0.007375; 0.489179;,
      -0.007658;-0.004489; 0.575817;,
       0.000301;-0.007375; 0.489179;,
       0.000231;-0.007568; 0.579798;,
       0.000301;-0.007375; 0.489179;,
      -0.007658;-0.004489; 0.575817;,
      -0.007148;-0.003645; 0.488098;,
      -0.007658; 0.004035; 0.579262;,
      -0.007148;-0.003645; 0.488098;,
      -0.007658;-0.004489; 0.575817;,
      -0.007148;-0.003645; 0.488098;,
      -0.007658; 0.004035; 0.579262;,
      -0.007148; 0.003816; 0.488098;,
       0.000231; 0.007080; 0.575114;,
      -0.007148; 0.003816; 0.488098;,
      -0.007658; 0.004035; 0.579262;,
      -0.007148; 0.003816; 0.488098;,
       0.000231; 0.007080; 0.575114;,
       0.000301; 0.007547; 0.489179;,
      -0.006682; 0.002574;-0.079465;,
       0.000416;-0.002453;-0.090480;,
      -0.006682;-0.005424;-0.074325;,
      -0.006682;-0.005424;-0.074325;,
       0.000416;-0.002453;-0.090480;,
       0.000368;-0.009423;-0.069983;,
       0.000368;-0.009423;-0.069983;,
       0.000416;-0.002453;-0.090480;,
       0.007418;-0.005424;-0.074325;,
       0.007418;-0.005424;-0.074325;,
       0.000416;-0.002453;-0.090480;,
       0.007418; 0.002574;-0.081705;,
       0.007418; 0.002574;-0.081705;,
       0.000416;-0.002453;-0.090480;,
       0.000368; 0.006574;-0.085395;,
       0.000368; 0.006574;-0.085395;,
       0.000416;-0.002453;-0.090480;,
      -0.006682; 0.002574;-0.079465;,
       0.000231;-0.007568; 0.579798;,
       0.009584;-0.002279; 0.579528;,
       0.009584; 0.003018; 0.576908;,
       0.000231; 0.007080; 0.575114;,
      -0.007658; 0.004035; 0.579262;,
      -0.007658; 0.004035; 0.579262;,
      -0.007658;-0.004489; 0.575817;,
       0.010884; 0.000321; 0.563340;,
       0.010884; 0.000321; 0.596920;,
       0.003739;-0.020094; 0.592577;,
       0.003739;-0.020094; 0.567683;,
       0.003739;-0.020094; 0.567683;,
       0.003739;-0.020094; 0.592577;,
      -0.004147;-0.020094; 0.592577;,
      -0.004147;-0.020094; 0.567683;,
      -0.008770; 0.000321; 0.563340;,
      -0.008770; 0.000321; 0.596920;,
      -0.004147; 0.020094; 0.592577;,
      -0.004147; 0.020094; 0.567683;,
      -0.004147; 0.020094; 0.567683;,
      -0.004147; 0.020094; 0.592577;,
       0.003739; 0.020094; 0.592577;,
       0.003739; 0.020094; 0.567683;,
       0.010884; 0.000321; 0.563340;,
      -0.008770; 0.000321; 0.563340;,
      -0.004147; 0.020094; 0.567683;,
       0.003739; 0.020094; 0.567683;,
      -0.004147;-0.020094; 0.592577;,
       0.003739;-0.020094; 0.592577;,
       0.005567;-0.029407; 0.602234;,
      -0.005974;-0.029407; 0.602234;,
      -0.005974; 0.000469; 0.602234;,
      -0.005974;-0.029407; 0.602234;,
      -0.005974;-0.029407; 0.714599;,
      -0.005974; 0.000469; 0.714599;,
      -0.008770; 0.000321; 0.596920;,
      -0.004147;-0.020094; 0.592577;,
      -0.005974;-0.029407; 0.602234;,
      -0.005974; 0.000469; 0.602234;,
       0.010884; 0.000321; 0.596920;,
       0.003739; 0.020094; 0.592577;,
       0.005567; 0.029407; 0.602234;,
       0.005567; 0.000469; 0.602234;,
       0.003739; 0.020094; 0.592577;,
      -0.004147; 0.020094; 0.592577;,
      -0.005974; 0.029407; 0.602234;,
       0.005567; 0.029407; 0.602234;,
       0.005567; 0.000469; 0.714599;,
       0.005567; 0.029407; 0.714599;,
       0.003647; 0.037253; 0.721416;,
       0.004121; 0.008521; 0.720577;,
       0.005567; 0.000469; 0.602234;,
       0.005567; 0.029407; 0.602234;,
       0.005567; 0.029407; 0.714599;,
       0.005567; 0.000469; 0.714599;,
      -0.002452; 0.029407; 0.605755;,
      -0.002452; 0.029407; 0.645002;,
      -0.002166; 0.040292; 0.642287;,
      -0.002166; 0.034877; 0.608470;,
      -0.003923;-0.029407; 0.712548;,
      -0.003923;-0.029407; 0.604285;,
      -0.003670;-0.033504; 0.607971;,
      -0.003670;-0.033504; 0.708862;,
      -0.001951;-0.018454; 0.721188;,
       0.001543;-0.018454; 0.721188;,
       0.001234;-0.012266; 0.727828;,
      -0.001641;-0.012266; 0.727828;,
       0.005567; 0.029407; 0.714599;,
      -0.005974; 0.029407; 0.714599;,
      -0.004055; 0.037253; 0.721416;,
       0.003647; 0.037253; 0.721416;,
      -0.005974;-0.029407; 0.714599;,
       0.005567;-0.029407; 0.714599;,
       0.004611;-0.021142; 0.719710;,
      -0.005018;-0.021142; 0.719710;,
      -0.005974; 0.000469; 0.714599;,
      -0.005974;-0.029407; 0.714599;,
      -0.005018;-0.021142; 0.719710;,
      -0.004529; 0.008521; 0.720577;,
       0.001366;-0.003339; 0.721304;,
       0.001543;-0.018454; 0.721188;,
       0.004611;-0.021142; 0.719710;,
       0.004121; 0.008521; 0.720577;,
       0.001543;-0.018454; 0.721188;,
      -0.001951;-0.018454; 0.721188;,
      -0.005018;-0.021142; 0.719710;,
       0.004611;-0.021142; 0.719710;,
      -0.001773;-0.003339; 0.721304;,
      -0.001601; 0.011302; 0.721416;,
      -0.004055; 0.037253; 0.721416;,
      -0.004529; 0.008521; 0.720577;,
      -0.001601; 0.011302; 0.721416;,
       0.001194; 0.011302; 0.721416;,
       0.003647; 0.037253; 0.721416;,
      -0.004055; 0.037253; 0.721416;,
      -0.001641;-0.003916; 0.727939;,
      -0.001641;-0.012266; 0.727828;,
      -0.001325;-0.011038; 0.750069;,
      -0.001325;-0.005626; 0.749958;,
      -0.001773;-0.003339; 0.721304;,
      -0.001951;-0.018454; 0.721188;,
      -0.001641;-0.012266; 0.727828;,
      -0.001641;-0.003916; 0.727939;,
       0.001366;-0.003339; 0.721304;,
       0.001194; 0.011302; 0.721416;,
       0.001234; 0.004173; 0.728046;,
       0.001234;-0.003916; 0.727939;,
       0.001194; 0.011302; 0.721416;,
      -0.001601; 0.011302; 0.721416;,
      -0.001641; 0.004173; 0.728046;,
       0.001234; 0.004173; 0.728046;,
       0.000917;-0.000384; 0.749851;,
      -0.001325;-0.000384; 0.749851;,
      -0.000652;-0.004946; 0.774561;,
       0.000245;-0.004946; 0.774561;,
       0.001234;-0.003916; 0.727939;,
       0.001234; 0.004173; 0.728046;,
       0.000917;-0.000384; 0.749851;,
       0.000917;-0.005626; 0.749958;,
       0.001234; 0.004173; 0.728046;,
      -0.001641; 0.004173; 0.728046;,
      -0.001325;-0.000384; 0.749851;,
       0.000917;-0.000384; 0.749851;,
      -0.001641;-0.012266; 0.727828;,
       0.001234;-0.012266; 0.727828;,
       0.000917;-0.011038; 0.750069;,
      -0.001325;-0.011038; 0.750069;,
      -0.000652;-0.006659; 0.774561;,
       0.000245;-0.006659; 0.774561;,
       0.000245;-0.004946; 0.774561;,
      -0.000652;-0.004946; 0.774561;,
      -0.001325;-0.011038; 0.750069;,
       0.000917;-0.011038; 0.750069;,
       0.000245;-0.008428; 0.774561;,
      -0.000652;-0.008428; 0.774561;,
      -0.001325;-0.005626; 0.749958;,
      -0.001325;-0.011038; 0.750069;,
      -0.000652;-0.008428; 0.774561;,
      -0.000652;-0.006659; 0.774561;,
       0.000917;-0.005626; 0.749958;,
       0.000917;-0.000384; 0.749851;,
       0.000245;-0.004946; 0.774561;,
       0.000245;-0.006659; 0.774561;,
      -0.002452; 0.029407; 0.605755;,
       0.002045; 0.029407; 0.605755;,
       0.005567; 0.029407; 0.602234;,
      -0.005974; 0.029407; 0.602234;,
       0.002045; 0.029407; 0.645002;,
      -0.002452; 0.029407; 0.645002;,
      -0.005974; 0.029407; 0.714599;,
       0.005567; 0.029407; 0.714599;,
      -0.002452; 0.029407; 0.645002;,
      -0.002452; 0.029407; 0.605755;,
      -0.005974; 0.029407; 0.602234;,
      -0.005974; 0.029407; 0.714599;,
       0.002045; 0.029407; 0.605755;,
       0.002045; 0.029407; 0.645002;,
       0.005567; 0.029407; 0.714599;,
       0.005567; 0.029407; 0.602234;,
      -0.002166; 0.034877; 0.608470;,
      -0.002166; 0.040292; 0.642287;,
      -0.001763; 0.047545; 0.637564;,
      -0.001763; 0.043242; 0.610692;,
       0.002045; 0.029407; 0.605755;,
      -0.002452; 0.029407; 0.605755;,
      -0.002166; 0.034877; 0.608470;,
       0.001759; 0.034877; 0.608470;,
       0.002045; 0.029407; 0.645002;,
       0.002045; 0.029407; 0.605755;,
       0.001759; 0.034877; 0.608470;,
       0.001759; 0.040292; 0.642287;,
      -0.002452; 0.029407; 0.645002;,
       0.002045; 0.029407; 0.645002;,
       0.001759; 0.040292; 0.642287;,
      -0.002166; 0.040292; 0.642287;,
       0.001356; 0.047545; 0.637564;,
       0.001356; 0.043242; 0.610692;,
       0.000605; 0.051207; 0.613795;,
       0.000605; 0.056898; 0.626706;,
       0.001759; 0.034877; 0.608470;,
      -0.002166; 0.034877; 0.608470;,
      -0.001763; 0.043242; 0.610692;,
       0.001356; 0.043242; 0.610692;,
       0.001759; 0.040292; 0.642287;,
       0.001759; 0.034877; 0.608470;,
       0.001356; 0.043242; 0.610692;,
       0.001356; 0.047545; 0.637564;,
      -0.002166; 0.040292; 0.642287;,
       0.001759; 0.040292; 0.642287;,
       0.001356; 0.047545; 0.637564;,
      -0.001763; 0.047545; 0.637564;,
      -0.001012; 0.051207; 0.613795;,
      -0.001012; 0.056898; 0.626706;,
      -0.000539; 0.060946; 0.620410;,
      -0.000539; 0.058585; 0.615054;,
      -0.001763; 0.047545; 0.637564;,
       0.001356; 0.047545; 0.637564;,
       0.000605; 0.056898; 0.626706;,
      -0.001012; 0.056898; 0.626706;,
      -0.001763; 0.043242; 0.610692;,
      -0.001763; 0.047545; 0.637564;,
      -0.001012; 0.056898; 0.626706;,
      -0.001012; 0.051207; 0.613795;,
       0.001356; 0.043242; 0.610692;,
      -0.001763; 0.043242; 0.610692;,
      -0.001012; 0.051207; 0.613795;,
       0.000605; 0.051207; 0.613795;,
       0.000132; 0.060946; 0.620410;,
       0.000132; 0.058585; 0.615054;,
      -0.000148; 0.064361; 0.614393;,
      -0.000148; 0.064752; 0.615281;,
       0.000605; 0.051207; 0.613795;,
      -0.001012; 0.051207; 0.613795;,
      -0.000539; 0.058585; 0.615054;,
       0.000132; 0.058585; 0.615054;,
       0.000605; 0.056898; 0.626706;,
       0.000605; 0.051207; 0.613795;,
       0.000132; 0.058585; 0.615054;,
       0.000132; 0.060946; 0.620410;,
      -0.001012; 0.056898; 0.626706;,
       0.000605; 0.056898; 0.626706;,
       0.000132; 0.060946; 0.620410;,
      -0.000539; 0.060946; 0.620410;,
      -0.000148; 0.064361; 0.614393;,
      -0.000259; 0.064361; 0.614393;,
      -0.000259; 0.064752; 0.615281;,
      -0.000148; 0.064752; 0.615281;,
      -0.000539; 0.060946; 0.620410;,
       0.000132; 0.060946; 0.620410;,
      -0.000148; 0.064752; 0.615281;,
      -0.000259; 0.064752; 0.615281;,
      -0.000539; 0.058585; 0.615054;,
      -0.000539; 0.060946; 0.620410;,
      -0.000259; 0.064752; 0.615281;,
      -0.000259; 0.064361; 0.614393;,
       0.000132; 0.058585; 0.615054;,
      -0.000539; 0.058585; 0.615054;,
      -0.000259; 0.064361; 0.614393;,
      -0.000148; 0.064361; 0.614393;,
       0.003516;-0.029407; 0.604285;,
      -0.003923;-0.029407; 0.604285;,
      -0.005974;-0.029407; 0.602234;,
       0.005567;-0.029407; 0.602234;,
      -0.003923;-0.029407; 0.712548;,
       0.003516;-0.029407; 0.712548;,
       0.005567;-0.029407; 0.714599;,
      -0.005974;-0.029407; 0.714599;,
      -0.003923;-0.029407; 0.604285;,
      -0.003923;-0.029407; 0.712548;,
      -0.005974;-0.029407; 0.714599;,
      -0.005974;-0.029407; 0.602234;,
       0.003516;-0.029407; 0.712548;,
       0.003516;-0.029407; 0.604285;,
       0.005567;-0.029407; 0.602234;,
       0.005567;-0.029407; 0.714599;,
       0.003263;-0.033504; 0.607971;,
       0.003263;-0.033504; 0.708862;,
       0.001809;-0.039739; 0.708862;,
       0.003263;-0.035262; 0.611812;,
      -0.003923;-0.029407; 0.604285;,
       0.003516;-0.029407; 0.604285;,
       0.003263;-0.033504; 0.607971;,
      -0.003670;-0.033504; 0.607971;,
       0.003516;-0.029407; 0.604285;,
       0.003516;-0.029407; 0.712548;,
       0.003263;-0.033504; 0.708862;,
       0.003263;-0.033504; 0.607971;,
       0.003516;-0.029407; 0.712548;,
      -0.003923;-0.029407; 0.712548;,
      -0.003670;-0.033504; 0.708862;,
       0.003263;-0.033504; 0.708862;,
      -0.002638;-0.039739; 0.708862;,
      -0.003670;-0.035262; 0.611812;,
      -0.002829;-0.046948; 0.616372;,
      -0.002829;-0.042471; 0.696619;,
      -0.000512;-0.039982; 0.554919;,
       0.000105;-0.039982; 0.554919;,
       0.000090;-0.045017; 0.558813;,
      -0.000497;-0.045017; 0.558813;,
      -0.003670;-0.033504; 0.708862;,
      -0.003670;-0.033504; 0.607971;,
      -0.003670;-0.035262; 0.611812;,
      -0.002638;-0.039739; 0.708862;,
      -0.003670;-0.033504; 0.607971;,
       0.003263;-0.033504; 0.607971;,
       0.003263;-0.035262; 0.611812;,
      -0.003670;-0.035262; 0.611812;,
      -0.002829;-0.042471; 0.696619;,
      -0.002829;-0.046948; 0.616372;,
      -0.001435;-0.051655; 0.617374;,
      -0.001435;-0.053931; 0.693845;,
       0.003263;-0.035262; 0.611812;,
       0.002421;-0.046948; 0.616372;,
       0.000768;-0.045884; 0.602560;,
       0.001080;-0.041558; 0.600871;,
       0.003263;-0.035262; 0.611812;,
       0.001809;-0.039739; 0.708862;,
       0.002421;-0.042471; 0.696619;,
       0.002421;-0.046948; 0.616372;,
       0.000768;-0.046611; 0.569070;,
       0.000768;-0.045884; 0.602560;,
       0.000722;-0.050641; 0.604211;,
       0.000722;-0.051333; 0.572298;,
      -0.001176;-0.045884; 0.602560;,
      -0.001487;-0.041558; 0.600871;,
      -0.001487;-0.042227; 0.570603;,
      -0.001176;-0.046611; 0.569070;,
      -0.002829;-0.046948; 0.616372;,
      -0.003670;-0.035262; 0.611812;,
      -0.001487;-0.041558; 0.600871;,
      -0.001176;-0.045884; 0.602560;,
      -0.001176;-0.046611; 0.569070;,
      -0.000512;-0.039982; 0.554919;,
      -0.000497;-0.045017; 0.558813;,
      -0.001130;-0.051333; 0.572298;,
      -0.003670;-0.035262; 0.611812;,
       0.003263;-0.035262; 0.611812;,
       0.001080;-0.041558; 0.600871;,
      -0.001487;-0.041558; 0.600871;,
       0.001080;-0.042227; 0.570603;,
       0.000768;-0.046611; 0.569070;,
       0.000105;-0.039982; 0.554919;,
       0.000203;-0.038592; 0.555406;,
      -0.001487;-0.041558; 0.600871;,
       0.001080;-0.041558; 0.600871;,
       0.001080;-0.042227; 0.570603;,
      -0.001487;-0.042227; 0.570603;,
       0.001080;-0.041558; 0.600871;,
       0.000768;-0.045884; 0.602560;,
       0.000768;-0.046611; 0.569070;,
       0.001080;-0.042227; 0.570603;,
      -0.002829;-0.046948; 0.616372;,
      -0.001176;-0.045884; 0.602560;,
      -0.001130;-0.050641; 0.604211;,
      -0.001435;-0.051655; 0.617374;,
      -0.000611;-0.038592; 0.555406;,
       0.000203;-0.038592; 0.555406;,
       0.000105;-0.039982; 0.554919;,
      -0.000512;-0.039982; 0.554919;,
      -0.001703;-0.038575; 0.735284;,
      -0.002638;-0.039739; 0.708862;,
      -0.001077;-0.054959; 0.705512;,
      -0.001435;-0.043676; 0.730690;,
      -0.001176;-0.046611; 0.569070;,
      -0.001487;-0.042227; 0.570603;,
      -0.000611;-0.038592; 0.555406;,
      -0.000512;-0.039982; 0.554919;,
      -0.001487;-0.042227; 0.570603;,
       0.001080;-0.042227; 0.570603;,
       0.000203;-0.038592; 0.555406;,
      -0.000611;-0.038592; 0.555406;,
       0.003263;-0.034667; 0.730426;,
      -0.003670;-0.034667; 0.730426;,
      -0.001703;-0.038575; 0.735284;,
       0.000874;-0.038575; 0.735284;,
      -0.003670;-0.033504; 0.708862;,
      -0.002638;-0.039739; 0.708862;,
      -0.001703;-0.038575; 0.735284;,
      -0.003670;-0.034667; 0.730426;,
       0.003263;-0.033504; 0.708862;,
      -0.003670;-0.033504; 0.708862;,
      -0.003670;-0.034667; 0.730426;,
       0.003263;-0.034667; 0.730426;,
       0.001809;-0.039739; 0.708862;,
       0.003263;-0.033504; 0.708862;,
       0.003263;-0.034667; 0.730426;,
       0.000874;-0.038575; 0.735284;,
      -0.001077;-0.054959; 0.705512;,
       0.000248;-0.054959; 0.705512;,
       0.000541;-0.051174; 0.715483;,
       0.000084;-0.051174; 0.715483;,
      -0.001435;-0.051655; 0.617374;,
      -0.000620;-0.051655; 0.617374;,
      -0.000620;-0.053931; 0.693845;,
      -0.001435;-0.053931; 0.693845;,
       0.000248;-0.054959; 0.705512;,
      -0.001077;-0.054959; 0.705512;,
      -0.001435;-0.053931; 0.693845;,
      -0.000620;-0.053931; 0.693845;,
      -0.000620;-0.051655; 0.617374;,
      -0.001435;-0.051655; 0.617374;,
      -0.001130;-0.050641; 0.604211;,
       0.000722;-0.050641; 0.604211;,
       0.000722;-0.050641; 0.604211;,
      -0.001130;-0.050641; 0.604211;,
      -0.001130;-0.051333; 0.572298;,
       0.000722;-0.051333; 0.572298;,
       0.000722;-0.051333; 0.572298;,
      -0.001130;-0.051333; 0.572298;,
      -0.000497;-0.045017; 0.558813;,
       0.000090;-0.045017; 0.558813;,
       0.002421;-0.046948; 0.616372;,
       0.002421;-0.042471; 0.696619;,
      -0.000620;-0.053931; 0.693845;,
      -0.000620;-0.051655; 0.617374;,
       0.000874;-0.038575; 0.735284;,
      -0.001703;-0.038575; 0.735284;,
      -0.001435;-0.043676; 0.730690;,
       0.000606;-0.043676; 0.730690;,
       0.000768;-0.045884; 0.602560;,
       0.002421;-0.046948; 0.616372;,
      -0.000620;-0.051655; 0.617374;,
       0.000722;-0.050641; 0.604211;,
      -0.002638;-0.039739; 0.708862;,
      -0.002829;-0.042471; 0.696619;,
      -0.001435;-0.053931; 0.693845;,
      -0.001077;-0.054959; 0.705512;,
       0.000105;-0.039982; 0.554919;,
       0.000768;-0.046611; 0.569070;,
       0.000722;-0.051333; 0.572298;,
       0.000090;-0.045017; 0.558813;,
      -0.001176;-0.045884; 0.602560;,
      -0.001176;-0.046611; 0.569070;,
      -0.001130;-0.051333; 0.572298;,
      -0.001130;-0.050641; 0.604211;,
       0.001809;-0.039739; 0.708862;,
       0.000874;-0.038575; 0.735284;,
       0.000606;-0.043676; 0.730690;,
       0.000248;-0.054959; 0.705512;,
       0.002421;-0.042471; 0.696619;,
       0.001809;-0.039739; 0.708862;,
       0.000248;-0.054959; 0.705512;,
      -0.000620;-0.053931; 0.693845;,
       0.000084;-0.051174; 0.715483;,
       0.000541;-0.051174; 0.715483;,
       0.000541;-0.049080; 0.721157;,
       0.000084;-0.049080; 0.721157;,
      -0.001435;-0.043676; 0.730690;,
      -0.001077;-0.054959; 0.705512;,
       0.000084;-0.051174; 0.715483;,
       0.000084;-0.049080; 0.721157;,
       0.000606;-0.043676; 0.730690;,
      -0.001435;-0.043676; 0.730690;,
       0.000084;-0.049080; 0.721157;,
       0.000541;-0.049080; 0.721157;,
       0.000248;-0.054959; 0.705512;,
       0.000606;-0.043676; 0.730690;,
       0.000541;-0.049080; 0.721157;,
       0.000541;-0.051174; 0.715483;,
       0.000917;-0.011038; 0.750069;,
       0.000917;-0.005626; 0.749958;,
       0.000245;-0.006659; 0.774561;,
       0.000245;-0.008428; 0.774561;,
      -0.001325;-0.000384; 0.749851;,
      -0.001325;-0.005626; 0.749958;,
      -0.000652;-0.006659; 0.774561;,
      -0.000652;-0.004946; 0.774561;,
      -0.000652;-0.008428; 0.774561;,
       0.000245;-0.008428; 0.774561;,
       0.000245;-0.006659; 0.774561;,
      -0.000652;-0.006659; 0.774561;,
       0.001234;-0.012266; 0.727828;,
       0.001234;-0.003916; 0.727939;,
       0.000917;-0.005626; 0.749958;,
       0.000917;-0.011038; 0.750069;,
       0.001543;-0.018454; 0.721188;,
       0.001366;-0.003339; 0.721304;,
       0.001234;-0.003916; 0.727939;,
       0.001234;-0.012266; 0.727828;,
      -0.001601; 0.011302; 0.721416;,
      -0.001773;-0.003339; 0.721304;,
      -0.001641;-0.003916; 0.727939;,
      -0.001641; 0.004173; 0.728046;,
      -0.001641; 0.004173; 0.728046;,
      -0.001641;-0.003916; 0.727939;,
      -0.001325;-0.005626; 0.749958;,
      -0.001325;-0.000384; 0.749851;,
      -0.001951;-0.018454; 0.721188;,
      -0.001773;-0.003339; 0.721304;,
      -0.004529; 0.008521; 0.720577;,
      -0.005018;-0.021142; 0.719710;,
       0.001194; 0.011302; 0.721416;,
       0.001366;-0.003339; 0.721304;,
       0.004121; 0.008521; 0.720577;,
       0.003647; 0.037253; 0.721416;,
      -0.005974; 0.029407; 0.714599;,
      -0.005974; 0.000469; 0.714599;,
      -0.004529; 0.008521; 0.720577;,
      -0.004055; 0.037253; 0.721416;,
       0.005567;-0.029407; 0.602234;,
       0.005567; 0.000469; 0.602234;,
       0.005567; 0.000469; 0.714599;,
       0.005567;-0.029407; 0.714599;,
       0.005567;-0.029407; 0.714599;,
       0.005567; 0.000469; 0.714599;,
       0.004121; 0.008521; 0.720577;,
       0.004611;-0.021142; 0.719710;,
       0.003739;-0.020094; 0.592577;,
       0.010884; 0.000321; 0.596920;,
       0.005567; 0.000469; 0.602234;,
       0.005567;-0.029407; 0.602234;,
      -0.004147; 0.020094; 0.592577;,
      -0.008770; 0.000321; 0.596920;,
      -0.005974; 0.000469; 0.602234;,
      -0.005974; 0.029407; 0.602234;,
      -0.005974; 0.029407; 0.602234;,
      -0.005974; 0.000469; 0.602234;,
      -0.005974; 0.000469; 0.714599;,
      -0.005974; 0.029407; 0.714599;,
       0.003739;-0.020094; 0.567683;,
      -0.004147;-0.020094; 0.567683;,
      -0.008770; 0.000321; 0.563340;,
       0.010884; 0.000321; 0.563340;,
      -0.004147;-0.020094; 0.567683;,
      -0.004147;-0.020094; 0.592577;,
      -0.008770; 0.000321; 0.596920;,
      -0.008770; 0.000321; 0.563340;,
       0.003739; 0.020094; 0.567683;,
       0.003739; 0.020094; 0.592577;,
       0.010884; 0.000321; 0.596920;,
       0.010884; 0.000321; 0.563340;;
      193;
      3;2,1,0;,
      3;5,4,3;,
      3;8,7,6;,
      3;11,10,9;,
      3;14,13,12;,
      3;17,16,15;,
      3;20,19,18;,
      3;23,22,21;,
      3;26,25,24;,
      3;29,28,27;,
      3;32,31,30;,
      3;35,34,33;,
      3;38,37,36;,
      3;41,40,39;,
      3;44,43,42;,
      3;47,46,45;,
      3;50,49,48;,
      3;53,52,51;,
      3;56,55,54;,
      3;59,58,57;,
      3;62,61,60;,
      3;65,64,63;,
      3;68,67,66;,
      3;71,70,69;,
      3;74,73,72;,
      3;77,76,75;,
      3;80,79,78;,
      3;83,82,81;,
      3;86,85,84;,
      3;89,88,87;,
      3;92,91,90;,
      3;95,94,93;,
      3;98,97,96;,
      3;101,100,99;,
      3;104,103,102;,
      3;107,106,105;,
      3;110,109,108;,
      3;113,112,111;,
      3;116,115,114;,
      3;119,118,117;,
      3;122,121,120;,
      3;125,124,123;,
      3;128,127,126;,
      3;131,130,129;,
      3;134,133,132;,
      3;137,136,135;,
      3;140,139,138;,
      3;143,142,141;,
      3;146,145,144;,
      3;149,148,147;,
      3;152,151,150;,
      3;155,154,153;,
      3;158,157,156;,
      3;161,160,159;,
      3;164,163,162;,
      3;167,166,165;,
      3;170,169,168;,
      3;173,172,171;,
      3;176,175,174;,
      3;179,178,177;,
      3;182,181,180;,
      3;185,184,183;,
      3;188,187,186;,
      3;191,190,189;,
      3;194,193,192;,
      3;197,196,195;,
      7;204,203,202,201,200,199,198;,
      4;208,207,206,205;,
      4;212,211,210,209;,
      4;216,215,214,213;,
      4;220,219,218,217;,
      4;224,223,222,221;,
      4;228,227,226,225;,
      4;232,231,230,229;,
      4;236,235,234,233;,
      4;240,239,238,237;,
      4;244,243,242,241;,
      4;248,247,246,245;,
      4;252,251,250,249;,
      4;256,255,254,253;,
      4;260,259,258,257;,
      4;264,263,262,261;,
      4;268,267,266,265;,
      4;272,271,270,269;,
      4;276,275,274,273;,
      4;280,279,278,277;,
      4;284,283,282,281;,
      4;288,287,286,285;,
      4;292,291,290,289;,
      4;296,295,294,293;,
      4;300,299,298,297;,
      4;304,303,302,301;,
      4;308,307,306,305;,
      4;312,311,310,309;,
      4;316,315,314,313;,
      4;320,319,318,317;,
      4;324,323,322,321;,
      4;328,327,326,325;,
      4;332,331,330,329;,
      4;336,335,334,333;,
      4;340,339,338,337;,
      4;344,343,342,341;,
      4;348,347,346,345;,
      4;352,351,350,349;,
      4;356,355,354,353;,
      4;360,359,358,357;,
      4;364,363,362,361;,
      4;368,367,366,365;,
      4;372,371,370,369;,
      4;376,375,374,373;,
      4;380,379,378,377;,
      4;384,383,382,381;,
      4;388,387,386,385;,
      4;392,391,390,389;,
      4;396,395,394,393;,
      4;400,399,398,397;,
      4;404,403,402,401;,
      4;408,407,406,405;,
      4;412,411,410,409;,
      4;416,415,414,413;,
      4;420,419,418,417;,
      4;424,423,422,421;,
      4;428,427,426,425;,
      4;432,431,430,429;,
      4;436,435,434,433;,
      4;440,439,438,437;,
      4;444,443,442,441;,
      4;448,447,446,445;,
      4;452,451,450,449;,
      4;456,455,454,453;,
      4;460,459,458,457;,
      4;464,463,462,461;,
      4;468,467,466,465;,
      4;472,471,470,469;,
      4;476,475,474,473;,
      4;480,479,478,477;,
      4;484,483,482,481;,
      4;488,487,486,485;,
      4;492,491,490,489;,
      4;496,495,494,493;,
      4;500,499,498,497;,
      4;504,503,502,501;,
      4;508,507,506,505;,
      4;512,511,510,509;,
      4;516,515,514,513;,
      4;520,519,518,517;,
      4;524,523,522,521;,
      4;528,527,526,525;,
      4;532,531,530,529;,
      4;536,535,534,533;,
      4;540,539,538,537;,
      4;544,543,542,541;,
      4;548,547,546,545;,
      4;552,551,550,549;,
      4;556,555,554,553;,
      4;560,559,558,557;,
      4;564,563,562,561;,
      4;568,567,566,565;,
      4;572,571,570,569;,
      4;576,575,574,573;,
      4;580,579,578,577;,
      4;584,583,582,581;,
      4;588,587,586,585;,
      4;592,591,590,589;,
      4;596,595,594,593;,
      4;600,599,598,597;,
      4;604,603,602,601;,
      4;608,607,606,605;,
      4;612,611,610,609;,
      4;616,615,614,613;,
      4;620,619,618,617;,
      4;624,623,622,621;,
      4;628,627,626,625;,
      4;632,631,630,629;,
      4;636,635,634,633;,
      4;640,639,638,637;,
      4;644,643,642,641;,
      4;648,647,646,645;,
      4;652,651,650,649;,
      4;656,655,654,653;,
      4;660,659,658,657;,
      4;664,663,662,661;,
      4;668,667,666,665;,
      4;672,671,670,669;,
      4;676,675,674,673;,
      4;680,679,678,677;,
      4;684,683,682,681;,
      4;688,687,686,685;,
      4;692,691,690,689;,
      4;696,695,694,693;,
      4;700,699,698,697;,
      4;704,703,702,701;,
      4;708,707,706,705;;
      MeshNormals { // _0002 normals
        709;
         0.857112; 0.515061;-0.006195;,
         0.053774; 0.998383;-0.016877;,
        -0.002503; 0.999969;-0.003052;,
         0.053774; 0.998383;-0.016877;,
         0.857112; 0.515061;-0.006195;,
         0.729301; 0.684011;-0.013886;,
         0.862148;-0.506607;-0.000427;,
         0.729301; 0.684011;-0.013886;,
         0.857112; 0.515061;-0.006195;,
         0.729301; 0.684011;-0.013886;,
         0.862148;-0.506607;-0.000427;,
         0.948027;-0.318125; 0.001495;,
        -0.000275;-0.999969; 0.001495;,
         0.948027;-0.318125; 0.001495;,
         0.862148;-0.506607;-0.000427;,
         0.948027;-0.318125; 0.001495;,
        -0.000275;-0.999969; 0.001495;,
         0.001221;-0.999878; 0.013672;,
        -0.862117;-0.506638; 0.002441;,
         0.001221;-0.999878; 0.013672;,
        -0.000275;-0.999969; 0.001495;,
         0.001221;-0.999878; 0.013672;,
        -0.862117;-0.506638; 0.002441;,
        -0.942198;-0.334971; 0.001312;,
        -0.999969;-0.000031; 0.003021;,
        -0.942198;-0.334971; 0.001312;,
        -0.862117;-0.506638; 0.002441;,
        -0.942198;-0.334971; 0.001312;,
        -0.999969;-0.000031; 0.003021;,
        -0.999969;-0.002319;-0.003632;,
        -0.002503; 0.999969;-0.003052;,
        -0.501328; 0.865139;-0.013428;,
        -0.477218; 0.878750; 0.003327;,
        -0.501328; 0.865139;-0.013428;,
        -0.002503; 0.999969;-0.003052;,
         0.053774; 0.998383;-0.016877;,
         0.866909; 0.498367; 0.006317;,
        -0.002503; 0.999969;-0.003052;,
         0.001617; 0.999908; 0.010926;,
        -0.002503; 0.999969;-0.003052;,
         0.866909; 0.498367; 0.006317;,
         0.857112; 0.515061;-0.006195;,
         0.865902;-0.500198; 0.000183;,
         0.857112; 0.515061;-0.006195;,
         0.866909; 0.498367; 0.006317;,
         0.857112; 0.515061;-0.006195;,
         0.865902;-0.500198; 0.000183;,
         0.862148;-0.506607;-0.000427;,
         0.000183;-0.999969;-0.000763;,
         0.862148;-0.506607;-0.000427;,
         0.865902;-0.500198; 0.000183;,
         0.862148;-0.506607;-0.000427;,
         0.000183;-0.999969;-0.000763;,
        -0.000275;-0.999969; 0.001495;,
        -0.865047;-0.501602; 0.007691;,
        -0.000275;-0.999969; 0.001495;,
         0.000183;-0.999969;-0.000763;,
        -0.000275;-0.999969; 0.001495;,
        -0.865047;-0.501602; 0.007691;,
        -0.862117;-0.506638; 0.002441;,
        -0.999908; 0.000000; 0.011689;,
        -0.862117;-0.506638; 0.002441;,
        -0.865047;-0.501602; 0.007691;,
        -0.862117;-0.506638; 0.002441;,
        -0.999908; 0.000000; 0.011689;,
        -0.999969;-0.000031; 0.003021;,
         0.001617; 0.999908; 0.010926;,
        -0.477218; 0.878750; 0.003327;,
        -0.500778; 0.865474; 0.011414;,
        -0.477218; 0.878750; 0.003327;,
         0.001617; 0.999908; 0.010926;,
        -0.002503; 0.999969;-0.003052;,
         0.876888; 0.480667;-0.001221;,
         0.001617; 0.999908; 0.010926;,
         0.000671; 0.999969;-0.002075;,
         0.001617; 0.999908; 0.010926;,
         0.876888; 0.480667;-0.001221;,
         0.866909; 0.498367; 0.006317;,
         0.875240;-0.483627; 0.005890;,
         0.866909; 0.498367; 0.006317;,
         0.876888; 0.480667;-0.001221;,
         0.866909; 0.498367; 0.006317;,
         0.875240;-0.483627; 0.005890;,
         0.865902;-0.500198; 0.000183;,
         0.001648;-0.999969; 0.007080;,
         0.865902;-0.500198; 0.000183;,
         0.875240;-0.483627; 0.005890;,
         0.865902;-0.500198; 0.000183;,
         0.001648;-0.999969; 0.007080;,
         0.000183;-0.999969;-0.000763;,
        -0.875240;-0.483627; 0.000610;,
         0.000183;-0.999969;-0.000763;,
         0.001648;-0.999969; 0.007080;,
         0.000183;-0.999969;-0.000763;,
        -0.875240;-0.483627; 0.000610;,
        -0.865047;-0.501602; 0.007691;,
        -0.999969; 0.000000;-0.001465;,
        -0.865047;-0.501602; 0.007691;,
        -0.875240;-0.483627; 0.000610;,
        -0.865047;-0.501602; 0.007691;,
        -0.999969; 0.000000;-0.001465;,
        -0.999908; 0.000000; 0.011689;,
         0.000671; 0.999969;-0.002075;,
        -0.500778; 0.865474; 0.011414;,
        -0.536729; 0.843745;-0.000458;,
        -0.500778; 0.865474; 0.011414;,
         0.000671; 0.999969;-0.002075;,
         0.001617; 0.999908; 0.010926;,
         0.833247; 0.552843;-0.004181;,
         0.000671; 0.999969;-0.002075;,
        -0.031983; 0.999481;-0.002899;,
         0.000671; 0.999969;-0.002075;,
         0.833247; 0.552843;-0.004181;,
         0.876888; 0.480667;-0.001221;,
         0.834803;-0.550493;-0.003510;,
         0.876888; 0.480667;-0.001221;,
         0.833247; 0.552843;-0.004181;,
         0.876888; 0.480667;-0.001221;,
         0.834803;-0.550493;-0.003510;,
         0.875240;-0.483627; 0.005890;,
        -0.029420;-0.999542;-0.001282;,
         0.875240;-0.483627; 0.005890;,
         0.834803;-0.550493;-0.003510;,
         0.875240;-0.483627; 0.005890;,
        -0.029420;-0.999542;-0.001282;,
         0.001648;-0.999969; 0.007080;,
        -0.852840;-0.522080;-0.008271;,
         0.001648;-0.999969; 0.007080;,
        -0.029420;-0.999542;-0.001282;,
         0.001648;-0.999969; 0.007080;,
        -0.852840;-0.522080;-0.008271;,
        -0.875240;-0.483627; 0.000610;,
        -0.999847; 0.000000;-0.016358;,
        -0.875240;-0.483627; 0.000610;,
        -0.852840;-0.522080;-0.008271;,
        -0.875240;-0.483627; 0.000610;,
        -0.999847; 0.000000;-0.016358;,
        -0.999969; 0.000000;-0.001465;,
        -0.031983; 0.999481;-0.002899;,
        -0.536729; 0.843745;-0.000458;,
        -0.444472; 0.895749;-0.006684;,
        -0.536729; 0.843745;-0.000458;,
        -0.031983; 0.999481;-0.002899;,
         0.000671; 0.999969;-0.002075;,
         0.694357; 0.468429; 0.546251;,
        -0.031983; 0.999481;-0.002899;,
        -0.033601; 0.880886; 0.472091;,
        -0.031983; 0.999481;-0.002899;,
         0.694357; 0.468429; 0.546251;,
         0.833247; 0.552843;-0.004181;,
         0.631794;-0.334788; 0.699088;,
         0.833247; 0.552843;-0.004181;,
         0.694357; 0.468429; 0.546251;,
         0.833247; 0.552843;-0.004181;,
         0.631794;-0.334788; 0.699088;,
         0.834803;-0.550493;-0.003510;,
         0.082064;-0.674215; 0.733940;,
         0.834803;-0.550493;-0.003510;,
         0.631794;-0.334788; 0.699088;,
         0.834803;-0.550493;-0.003510;,
         0.082064;-0.674215; 0.733940;,
        -0.029420;-0.999542;-0.001282;,
        -0.776055;-0.424024; 0.466781;,
        -0.029420;-0.999542;-0.001282;,
         0.082064;-0.674215; 0.733940;,
        -0.029420;-0.999542;-0.001282;,
        -0.776055;-0.424024; 0.466781;,
        -0.852840;-0.522080;-0.008271;,
        -0.627003; 0.163030; 0.761742;,
        -0.852840;-0.522080;-0.008271;,
        -0.776055;-0.424024; 0.466781;,
        -0.852840;-0.522080;-0.008271;,
        -0.627003; 0.163030; 0.761742;,
        -0.999969; 0.000000;-0.005585;,
        -0.033601; 0.880886; 0.472091;,
        -0.444472; 0.895749;-0.006684;,
        -0.226325; 0.646901; 0.728172;,
        -0.444472; 0.895749;-0.006684;,
        -0.033601; 0.880886; 0.472091;,
        -0.031983; 0.999481;-0.002899;,
        -0.853633;-0.076327;-0.515213;,
        -0.391583; 0.295175;-0.871487;,
        -0.860408;-0.275491;-0.428694;,
        -0.320353;-0.896603;-0.305643;,
         0.413373;-0.806665;-0.422315;,
        -0.000214;-0.946745;-0.321940;,
        -0.000214;-0.946745;-0.321940;,
         0.413373;-0.806665;-0.422315;,
         0.494583;-0.791101;-0.359844;,
         0.494583;-0.791101;-0.359844;,
         0.413373;-0.806665;-0.422315;,
         0.815271;-0.392682;-0.425550;,
         0.592364; 0.397778;-0.700583;,
        -0.391583; 0.295175;-0.871487;,
        -0.119510; 0.486770;-0.865291;,
        -0.119510; 0.486770;-0.865291;,
        -0.391583; 0.295175;-0.871487;,
        -0.853633;-0.076327;-0.515213;,
         0.082064;-0.674215; 0.733940;,
         0.631794;-0.334788; 0.699088;,
         0.694357; 0.468429; 0.546251;,
        -0.033601; 0.880886; 0.472091;,
        -0.226325; 0.646901; 0.728172;,
        -0.627003; 0.163030; 0.761742;,
        -0.776055;-0.424024; 0.466781;,
         0.729972; 0.004822;-0.683401;,
         0.997406; 0.002106; 0.071688;,
         0.694327;-0.698813;-0.171728;,
         0.467574;-0.714316;-0.520615;,
         0.467574;-0.714316;-0.520615;,
         0.694327;-0.698813;-0.171728;,
        -0.727744;-0.648244;-0.223823;,
        -0.510300;-0.688223;-0.515641;,
        -0.709586; 0.004059;-0.704581;,
        -0.999969; 0.001343; 0.003449;,
        -0.725394; 0.650533;-0.224830;,
        -0.507981; 0.691549;-0.513474;,
        -0.507981; 0.691549;-0.513474;,
        -0.725394; 0.650533;-0.224830;,
         0.690725; 0.701926;-0.173711;,
         0.463912; 0.718192;-0.518601;,
         0.729972; 0.004822;-0.683401;,
        -0.709586; 0.004059;-0.704581;,
        -0.507981; 0.691549;-0.513474;,
         0.463912; 0.718192;-0.518601;,
        -0.727744;-0.648244;-0.223823;,
         0.694327;-0.698813;-0.171728;,
         0.636525;-0.733482;-0.238350;,
        -0.640095;-0.720634;-0.266305;,
        -0.999969; 0.001373; 0.003082;,
        -0.640095;-0.720634;-0.266305;,
        -0.615864;-0.680380; 0.397168;,
        -0.994171; 0.002441; 0.107547;,
        -0.999969; 0.001343; 0.003449;,
        -0.727744;-0.648244;-0.223823;,
        -0.640095;-0.720634;-0.266305;,
        -0.999969; 0.001373; 0.003082;,
         0.997406; 0.002106; 0.071688;,
         0.690725; 0.701926;-0.173711;,
         0.635884; 0.733696;-0.239357;,
         0.997742; 0.002075; 0.067049;,
         0.690725; 0.701926;-0.173711;,
        -0.725394; 0.650533;-0.224830;,
        -0.639668; 0.720786;-0.266915;,
         0.635884; 0.733696;-0.239357;,
         0.994171; 0.002441; 0.107547;,
         0.838893; 0.535691;-0.096225;,
         0.499069; 0.809778; 0.308451;,
         0.717917;-0.007294; 0.696036;,
         0.997742; 0.002075; 0.067049;,
         0.635884; 0.733696;-0.239357;,
         0.838893; 0.535691;-0.096225;,
         0.994171; 0.002441; 0.107547;,
        -0.194464; 0.951170;-0.239662;,
        -0.240669; 0.931822; 0.271554;,
        -0.669607; 0.318247; 0.671041;,
        -0.723075; 0.269570;-0.635975;,
        -0.140660;-0.971557; 0.190374;,
        -0.140660;-0.971557;-0.190374;,
        -0.638783;-0.634602;-0.434919;,
        -0.969359;-0.049593; 0.240455;,
        -0.278848;-0.385113; 0.879696;,
         0.278848;-0.385113; 0.879696;,
         0.788141;-0.557207; 0.261391;,
        -0.788141;-0.557207; 0.261391;,
         0.838893; 0.535691;-0.096225;,
        -0.838893; 0.535691;-0.096225;,
        -0.499069; 0.809778; 0.308451;,
         0.499069; 0.809778; 0.308451;,
        -0.615864;-0.680380; 0.397168;,
         0.615864;-0.680380; 0.397168;,
         0.617420;-0.268868; 0.739219;,
        -0.617420;-0.268838; 0.739219;,
        -0.994171; 0.002441; 0.107547;,
        -0.615864;-0.680380; 0.397168;,
        -0.617420;-0.268838; 0.739219;,
        -0.717917;-0.007294; 0.696036;,
         0.820704;-0.004547; 0.571306;,
         0.278848;-0.385113; 0.879696;,
         0.617420;-0.268868; 0.739219;,
         0.717917;-0.007294; 0.696036;,
         0.278848;-0.385113; 0.879696;,
        -0.278848;-0.385113; 0.879696;,
        -0.617420;-0.268838; 0.739219;,
         0.617420;-0.268868; 0.739219;,
        -0.820704;-0.004547; 0.571276;,
        -0.255806; 0.169561; 0.951720;,
        -0.499069; 0.809778; 0.308451;,
        -0.717917;-0.007294; 0.696036;,
        -0.255806; 0.169561; 0.951720;,
         0.255806; 0.169561; 0.951720;,
         0.499069; 0.809778; 0.308451;,
        -0.499069; 0.809778; 0.308451;,
        -0.999817; 0.003662; 0.017731;,
        -0.788141;-0.557207; 0.261391;,
        -0.702231;-0.708335; 0.071474;,
        -0.999756; 0.000183; 0.020844;,
        -0.820704;-0.004547; 0.571276;,
        -0.278848;-0.385113; 0.879696;,
        -0.788141;-0.557207; 0.261391;,
        -0.999817; 0.003662; 0.017731;,
         0.820704;-0.004547; 0.571306;,
         0.255806; 0.169561; 0.951720;,
         0.779870; 0.541459; 0.313913;,
         0.999817; 0.003662; 0.017731;,
         0.255806; 0.169561; 0.951720;,
        -0.255806; 0.169561; 0.951720;,
        -0.779870; 0.541459; 0.313913;,
         0.779870; 0.541459; 0.313913;,
         0.709586; 0.688498; 0.149754;,
        -0.709586; 0.688498; 0.149754;,
        -0.578265; 0.518601; 0.629749;,
         0.578265; 0.518601; 0.629780;,
         0.999817; 0.003662; 0.017731;,
         0.779870; 0.541459; 0.313913;,
         0.709586; 0.688498; 0.149754;,
         0.999756; 0.000183; 0.020844;,
         0.779870; 0.541459; 0.313913;,
        -0.779870; 0.541459; 0.313913;,
        -0.709586; 0.688498; 0.149754;,
         0.709586; 0.688498; 0.149754;,
        -0.788141;-0.557207; 0.261391;,
         0.788141;-0.557207; 0.261391;,
         0.702231;-0.708335; 0.071474;,
        -0.702231;-0.708335; 0.071474;,
        -0.697348; 0.000275; 0.716697;,
         0.697348; 0.000275; 0.716697;,
         0.578265; 0.518601; 0.629780;,
        -0.578265; 0.518601; 0.629749;,
        -0.702231;-0.708335; 0.071474;,
         0.702231;-0.708335; 0.071474;,
         0.574175;-0.544084; 0.611774;,
        -0.574175;-0.544084; 0.611774;,
        -0.999756; 0.000183; 0.020844;,
        -0.702231;-0.708335; 0.071474;,
        -0.574175;-0.544084; 0.611774;,
        -0.697348; 0.000275; 0.716697;,
         0.999756; 0.000183; 0.020844;,
         0.709586; 0.688498; 0.149754;,
         0.578265; 0.518601; 0.629780;,
         0.697348; 0.000275; 0.716697;,
        -0.194464; 0.951170;-0.239662;,
         0.194464; 0.951170;-0.239662;,
         0.635884; 0.733696;-0.239357;,
        -0.639668; 0.720786;-0.266915;,
         0.240669; 0.931822; 0.271554;,
        -0.240669; 0.931822; 0.271554;,
        -0.838893; 0.535691;-0.096225;,
         0.838893; 0.535691;-0.096225;,
        -0.240669; 0.931822; 0.271554;,
        -0.194464; 0.951170;-0.239662;,
        -0.639668; 0.720786;-0.266915;,
        -0.838893; 0.535691;-0.096225;,
         0.194464; 0.951170;-0.239662;,
         0.240669; 0.931822; 0.271554;,
         0.838893; 0.535691;-0.096225;,
         0.635884; 0.733696;-0.239357;,
        -0.723075; 0.269570;-0.635975;,
        -0.669607; 0.318247; 0.671041;,
        -0.666463; 0.513840; 0.540117;,
        -0.688131; 0.258034;-0.678091;,
         0.194464; 0.951170;-0.239662;,
        -0.194464; 0.951170;-0.239662;,
        -0.723075; 0.269570;-0.635975;,
         0.723075; 0.269570;-0.635975;,
         0.240669; 0.931822; 0.271554;,
         0.194464; 0.951170;-0.239662;,
         0.723075; 0.269570;-0.635975;,
         0.669607; 0.318247; 0.671041;,
        -0.240669; 0.931822; 0.271554;,
         0.240669; 0.931822; 0.271554;,
         0.669607; 0.318247; 0.671041;,
        -0.669607; 0.318247; 0.671041;,
         0.666463; 0.513840; 0.540117;,
         0.688131; 0.258034;-0.678091;,
         0.710532; 0.236091;-0.662831;,
         0.675558; 0.614490; 0.407422;,
         0.723075; 0.269570;-0.635975;,
        -0.723075; 0.269570;-0.635975;,
        -0.688131; 0.258034;-0.678091;,
         0.688131; 0.258034;-0.678091;,
         0.669607; 0.318247; 0.671041;,
         0.723075; 0.269570;-0.635975;,
         0.688131; 0.258034;-0.678091;,
         0.666463; 0.513840; 0.540117;,
        -0.669607; 0.318247; 0.671041;,
         0.669607; 0.318247; 0.671041;,
         0.666463; 0.513840; 0.540117;,
        -0.666463; 0.513840; 0.540117;,
        -0.710532; 0.236091;-0.662831;,
        -0.675558; 0.614490; 0.407422;,
        -0.698630; 0.610828; 0.372539;,
        -0.726615; 0.065737;-0.683859;,
        -0.666463; 0.513840; 0.540117;,
         0.666463; 0.513840; 0.540117;,
         0.675558; 0.614490; 0.407422;,
        -0.675558; 0.614490; 0.407422;,
        -0.688131; 0.258034;-0.678091;,
        -0.666463; 0.513840; 0.540117;,
        -0.675558; 0.614490; 0.407422;,
        -0.710532; 0.236091;-0.662831;,
         0.688131; 0.258034;-0.678091;,
        -0.688131; 0.258034;-0.678091;,
        -0.710532; 0.236091;-0.662831;,
         0.710532; 0.236091;-0.662831;,
         0.698630; 0.610828; 0.372539;,
         0.726615; 0.065737;-0.683859;,
         0.577227; 0.413617;-0.704062;,
         0.591144; 0.802454; 0.081118;,
         0.710532; 0.236091;-0.662831;,
        -0.710532; 0.236091;-0.662831;,
        -0.726615; 0.065737;-0.683859;,
         0.726615; 0.065737;-0.683859;,
         0.675558; 0.614490; 0.407422;,
         0.710532; 0.236091;-0.662831;,
         0.726615; 0.065737;-0.683859;,
         0.698630; 0.610828; 0.372539;,
        -0.675558; 0.614490; 0.407422;,
         0.675558; 0.614490; 0.407422;,
         0.698630; 0.610828; 0.372539;,
        -0.698630; 0.610828; 0.372539;,
         0.577227; 0.413617;-0.704062;,
        -0.577227; 0.413617;-0.704062;,
        -0.591144; 0.802454; 0.081118;,
         0.591144; 0.802454; 0.081118;,
        -0.698630; 0.610828; 0.372539;,
         0.698630; 0.610828; 0.372539;,
         0.591144; 0.802454; 0.081118;,
        -0.591144; 0.802454; 0.081118;,
        -0.726615; 0.065737;-0.683859;,
        -0.698630; 0.610828; 0.372539;,
        -0.591144; 0.802454; 0.081118;,
        -0.577227; 0.413617;-0.704062;,
         0.726615; 0.065737;-0.683859;,
        -0.726615; 0.065737;-0.683859;,
        -0.577227; 0.413617;-0.704062;,
         0.577227; 0.413617;-0.704062;,
         0.140660;-0.971557;-0.190374;,
        -0.140660;-0.971557;-0.190374;,
        -0.640095;-0.720634;-0.266305;,
         0.636525;-0.733482;-0.238350;,
        -0.140660;-0.971557; 0.190374;,
         0.140660;-0.971557; 0.190374;,
         0.615864;-0.680380; 0.397168;,
        -0.615864;-0.680380; 0.397168;,
        -0.140660;-0.971557;-0.190374;,
        -0.140660;-0.971557; 0.190374;,
        -0.615864;-0.680380; 0.397168;,
        -0.640095;-0.720634;-0.266305;,
         0.140660;-0.971557; 0.190374;,
         0.140660;-0.971557;-0.190374;,
         0.636525;-0.733482;-0.238350;,
         0.615864;-0.680380; 0.397168;,
         0.636311;-0.637989;-0.433668;,
         0.966582;-0.084323; 0.242042;,
         0.981597;-0.190222; 0.016419;,
         0.948271;-0.161962;-0.272958;,
        -0.140660;-0.971557;-0.190374;,
         0.140660;-0.971557;-0.190374;,
         0.636311;-0.637989;-0.433668;,
        -0.638783;-0.634602;-0.434919;,
         0.140660;-0.971557;-0.190374;,
         0.140660;-0.971557; 0.190374;,
         0.966582;-0.084323; 0.242042;,
         0.636311;-0.637989;-0.433668;,
         0.140660;-0.971557; 0.190374;,
        -0.140660;-0.971557; 0.190374;,
        -0.969359;-0.049593; 0.240455;,
         0.966582;-0.084323; 0.242042;,
        -0.988189;-0.151585; 0.021546;,
        -0.951201;-0.142521;-0.273659;,
        -0.991028;-0.125523;-0.045351;,
        -0.995331;-0.095340; 0.013276;,
        -0.582354;-0.143315;-0.800165;,
         0.582354;-0.143315;-0.800165;,
         0.620777;-0.605182;-0.498337;,
        -0.620777;-0.605182;-0.498337;,
        -0.969359;-0.049593; 0.240455;,
        -0.638783;-0.634602;-0.434919;,
        -0.951201;-0.142521;-0.273659;,
        -0.988189;-0.151585; 0.021546;,
        -0.638783;-0.634602;-0.434919;,
         0.636311;-0.637989;-0.433668;,
         0.948271;-0.161962;-0.272958;,
        -0.951201;-0.142521;-0.273659;,
        -0.995331;-0.095340; 0.013276;,
        -0.991028;-0.125523;-0.045351;,
        -0.641011;-0.765404;-0.056978;,
        -0.662923;-0.748161;-0.027894;,
         0.948271;-0.161962;-0.272958;,
         0.978881;-0.202094;-0.029908;,
         0.992187;-0.115268;-0.047182;,
         0.774438; 0.585406;-0.239814;,
         0.948271;-0.161962;-0.272958;,
         0.981597;-0.190222; 0.016419;,
         0.990448;-0.137761; 0.005432;,
         0.978881;-0.202094;-0.029908;,
         0.997559;-0.051607;-0.046999;,
         0.992187;-0.115268;-0.047182;,
         0.648152;-0.760857;-0.030732;,
         0.656850;-0.736778;-0.160222;,
        -0.994537;-0.087649;-0.056154;,
        -0.774438; 0.585406;-0.239814;,
        -0.765313; 0.641682; 0.049745;,
        -0.997559;-0.051607;-0.046999;,
        -0.991028;-0.125523;-0.045351;,
        -0.951201;-0.142521;-0.273659;,
        -0.774438; 0.585406;-0.239814;,
        -0.994537;-0.087649;-0.056154;,
        -0.997559;-0.051607;-0.046999;,
        -0.582354;-0.143315;-0.800165;,
        -0.620777;-0.605182;-0.498337;,
        -0.656850;-0.736778;-0.160222;,
        -0.951201;-0.142521;-0.273659;,
         0.948271;-0.161962;-0.272958;,
         0.774438; 0.585406;-0.239814;,
        -0.774438; 0.585406;-0.239814;,
         0.765313; 0.641682; 0.049745;,
         0.997559;-0.051607;-0.046999;,
         0.582354;-0.143315;-0.800165;,
         0.585803; 0.701651;-0.405560;,
        -0.774438; 0.585406;-0.239814;,
         0.774438; 0.585406;-0.239814;,
         0.765313; 0.641682; 0.049745;,
        -0.765313; 0.641682; 0.049745;,
         0.774438; 0.585406;-0.239814;,
         0.992187;-0.115268;-0.047182;,
         0.997559;-0.051607;-0.046999;,
         0.765313; 0.641682; 0.049745;,
        -0.991028;-0.125523;-0.045351;,
        -0.994537;-0.087649;-0.056154;,
        -0.672567;-0.738029;-0.053652;,
        -0.641011;-0.765404;-0.056978;,
        -0.585803; 0.701651;-0.405560;,
         0.585803; 0.701651;-0.405560;,
         0.582354;-0.143315;-0.800165;,
        -0.582354;-0.143315;-0.800165;,
        -0.541337; 0.051851; 0.839167;,
        -0.988189;-0.151585; 0.021546;,
        -0.619373;-0.776208; 0.117618;,
        -0.632771;-0.618671; 0.465590;,
        -0.997559;-0.051607;-0.046999;,
        -0.765313; 0.641682; 0.049745;,
        -0.585803; 0.701651;-0.405560;,
        -0.582354;-0.143315;-0.800165;,
        -0.765313; 0.641682; 0.049745;,
         0.765313; 0.641682; 0.049745;,
         0.585803; 0.701651;-0.405560;,
        -0.585803; 0.701651;-0.405560;,
         0.770653; 0.562761; 0.298898;,
        -0.748222; 0.595325; 0.292764;,
        -0.541337; 0.051851; 0.839167;,
         0.535356; 0.046541; 0.843318;,
        -0.969359;-0.049593; 0.240455;,
        -0.988189;-0.151585; 0.021546;,
        -0.541337; 0.051851; 0.839167;,
        -0.748222; 0.595325; 0.292764;,
         0.966582;-0.084323; 0.242042;,
        -0.969359;-0.049593; 0.240455;,
        -0.748222; 0.595325; 0.292764;,
         0.770653; 0.562761; 0.298898;,
         0.981597;-0.190222; 0.016419;,
         0.966582;-0.084323; 0.242042;,
         0.770653; 0.562761; 0.298898;,
         0.535356; 0.046541; 0.843318;,
        -0.619373;-0.776208; 0.117618;,
         0.617878;-0.778741; 0.108341;,
         0.753319;-0.620441; 0.217994;,
        -0.264443;-0.896359; 0.355815;,
        -0.641011;-0.765404;-0.056978;,
         0.556902;-0.829524;-0.041078;,
         0.598376;-0.800409;-0.035371;,
        -0.662923;-0.748161;-0.027894;,
         0.617878;-0.778741; 0.108341;,
        -0.619373;-0.776208; 0.117618;,
        -0.662923;-0.748161;-0.027894;,
         0.598376;-0.800409;-0.035371;,
         0.556902;-0.829524;-0.041078;,
        -0.641011;-0.765404;-0.056978;,
        -0.672567;-0.738029;-0.053652;,
         0.648152;-0.760857;-0.030732;,
         0.648152;-0.760857;-0.030732;,
        -0.672567;-0.738029;-0.053652;,
        -0.656850;-0.736778;-0.160222;,
         0.656850;-0.736778;-0.160222;,
         0.656850;-0.736778;-0.160222;,
        -0.656850;-0.736778;-0.160222;,
        -0.620777;-0.605182;-0.498337;,
         0.620777;-0.605182;-0.498337;,
         0.978881;-0.202094;-0.029908;,
         0.990448;-0.137761; 0.005432;,
         0.598376;-0.800409;-0.035371;,
         0.556902;-0.829524;-0.041078;,
         0.535356; 0.046541; 0.843318;,
        -0.541337; 0.051851; 0.839167;,
        -0.632771;-0.618671; 0.465590;,
         0.635548;-0.614551; 0.467299;,
         0.992187;-0.115268;-0.047182;,
         0.978881;-0.202094;-0.029908;,
         0.556902;-0.829524;-0.041078;,
         0.648152;-0.760857;-0.030732;,
        -0.988189;-0.151585; 0.021546;,
        -0.995331;-0.095340; 0.013276;,
        -0.662923;-0.748161;-0.027894;,
        -0.619373;-0.776208; 0.117618;,
         0.582354;-0.143315;-0.800165;,
         0.997559;-0.051607;-0.046999;,
         0.656850;-0.736778;-0.160222;,
         0.620777;-0.605182;-0.498337;,
        -0.994537;-0.087649;-0.056154;,
        -0.997559;-0.051607;-0.046999;,
        -0.656850;-0.736778;-0.160222;,
        -0.672567;-0.738029;-0.053652;,
         0.981597;-0.190222; 0.016419;,
         0.535356; 0.046541; 0.843318;,
         0.635548;-0.614551; 0.467299;,
         0.617878;-0.778741; 0.108341;,
         0.990448;-0.137761; 0.005432;,
         0.981597;-0.190222; 0.016419;,
         0.617878;-0.778741; 0.108341;,
         0.598376;-0.800409;-0.035371;,
        -0.264443;-0.896359; 0.355815;,
         0.753319;-0.620441; 0.217994;,
         0.734123;-0.617969; 0.281259;,
        -0.258858;-0.880886; 0.396222;,
        -0.632771;-0.618671; 0.465590;,
        -0.619373;-0.776208; 0.117618;,
        -0.264443;-0.896359; 0.355815;,
        -0.258858;-0.880886; 0.396222;,
         0.635548;-0.614551; 0.467299;,
        -0.632771;-0.618671; 0.465590;,
        -0.258858;-0.880886; 0.396222;,
         0.734123;-0.617969; 0.281259;,
         0.617878;-0.778741; 0.108341;,
         0.635548;-0.614551; 0.467299;,
         0.734123;-0.617969; 0.281259;,
         0.753319;-0.620441; 0.217994;,
         0.702231;-0.708335; 0.071474;,
         0.999756; 0.000183; 0.020844;,
         0.697348; 0.000275; 0.716697;,
         0.574175;-0.544084; 0.611774;,
        -0.709586; 0.688498; 0.149754;,
        -0.999756; 0.000183; 0.020844;,
        -0.697348; 0.000275; 0.716697;,
        -0.578265; 0.518601; 0.629749;,
        -0.574175;-0.544084; 0.611774;,
         0.574175;-0.544084; 0.611774;,
         0.697348; 0.000275; 0.716697;,
        -0.697348; 0.000275; 0.716697;,
         0.788141;-0.557207; 0.261391;,
         0.999817; 0.003662; 0.017731;,
         0.999756; 0.000183; 0.020844;,
         0.702231;-0.708335; 0.071474;,
         0.278848;-0.385113; 0.879696;,
         0.820704;-0.004547; 0.571306;,
         0.999817; 0.003662; 0.017731;,
         0.788141;-0.557207; 0.261391;,
        -0.255806; 0.169561; 0.951720;,
        -0.820704;-0.004547; 0.571276;,
        -0.999817; 0.003662; 0.017731;,
        -0.779870; 0.541459; 0.313913;,
        -0.779870; 0.541459; 0.313913;,
        -0.999817; 0.003662; 0.017731;,
        -0.999756; 0.000183; 0.020844;,
        -0.709586; 0.688498; 0.149754;,
        -0.278848;-0.385113; 0.879696;,
        -0.820704;-0.004547; 0.571276;,
        -0.717917;-0.007294; 0.696036;,
        -0.617420;-0.268838; 0.739219;,
         0.255806; 0.169561; 0.951720;,
         0.820704;-0.004547; 0.571306;,
         0.717917;-0.007294; 0.696036;,
         0.499069; 0.809778; 0.308451;,
        -0.838893; 0.535691;-0.096225;,
        -0.994171; 0.002441; 0.107547;,
        -0.717917;-0.007294; 0.696036;,
        -0.499069; 0.809778; 0.308451;,
         0.636525;-0.733482;-0.238350;,
         0.997742; 0.002075; 0.067049;,
         0.994171; 0.002441; 0.107547;,
         0.615864;-0.680380; 0.397168;,
         0.615864;-0.680380; 0.397168;,
         0.994171; 0.002441; 0.107547;,
         0.717917;-0.007294; 0.696036;,
         0.617420;-0.268868; 0.739219;,
         0.694327;-0.698813;-0.171728;,
         0.997406; 0.002106; 0.071688;,
         0.997742; 0.002075; 0.067049;,
         0.636525;-0.733482;-0.238350;,
        -0.725394; 0.650533;-0.224830;,
        -0.999969; 0.001343; 0.003449;,
        -0.999969; 0.001373; 0.003082;,
        -0.639668; 0.720786;-0.266915;,
        -0.639668; 0.720786;-0.266915;,
        -0.999969; 0.001373; 0.003082;,
        -0.994171; 0.002441; 0.107547;,
        -0.838893; 0.535691;-0.096225;,
         0.467574;-0.714316;-0.520615;,
        -0.510300;-0.688223;-0.515641;,
        -0.709586; 0.004059;-0.704581;,
         0.729972; 0.004822;-0.683401;,
        -0.510300;-0.688223;-0.515641;,
        -0.727744;-0.648244;-0.223823;,
        -0.999969; 0.001343; 0.003449;,
        -0.709586; 0.004059;-0.704581;,
         0.463912; 0.718192;-0.518601;,
         0.690725; 0.701926;-0.173711;,
         0.997406; 0.002106; 0.071688;,
         0.729972; 0.004822;-0.683401;;
        193;
        3;2,1,0;,
        3;5,4,3;,
        3;8,7,6;,
        3;11,10,9;,
        3;14,13,12;,
        3;17,16,15;,
        3;20,19,18;,
        3;23,22,21;,
        3;26,25,24;,
        3;29,28,27;,
        3;32,31,30;,
        3;35,34,33;,
        3;38,37,36;,
        3;41,40,39;,
        3;44,43,42;,
        3;47,46,45;,
        3;50,49,48;,
        3;53,52,51;,
        3;56,55,54;,
        3;59,58,57;,
        3;62,61,60;,
        3;65,64,63;,
        3;68,67,66;,
        3;71,70,69;,
        3;74,73,72;,
        3;77,76,75;,
        3;80,79,78;,
        3;83,82,81;,
        3;86,85,84;,
        3;89,88,87;,
        3;92,91,90;,
        3;95,94,93;,
        3;98,97,96;,
        3;101,100,99;,
        3;104,103,102;,
        3;107,106,105;,
        3;110,109,108;,
        3;113,112,111;,
        3;116,115,114;,
        3;119,118,117;,
        3;122,121,120;,
        3;125,124,123;,
        3;128,127,126;,
        3;131,130,129;,
        3;134,133,132;,
        3;137,136,135;,
        3;140,139,138;,
        3;143,142,141;,
        3;146,145,144;,
        3;149,148,147;,
        3;152,151,150;,
        3;155,154,153;,
        3;158,157,156;,
        3;161,160,159;,
        3;164,163,162;,
        3;167,166,165;,
        3;170,169,168;,
        3;173,172,171;,
        3;176,175,174;,
        3;179,178,177;,
        3;182,181,180;,
        3;185,184,183;,
        3;188,187,186;,
        3;191,190,189;,
        3;194,193,192;,
        3;197,196,195;,
        7;204,203,202,201,200,199,198;,
        4;208,207,206,205;,
        4;212,211,210,209;,
        4;216,215,214,213;,
        4;220,219,218,217;,
        4;224,223,222,221;,
        4;228,227,226,225;,
        4;232,231,230,229;,
        4;236,235,234,233;,
        4;240,239,238,237;,
        4;244,243,242,241;,
        4;248,247,246,245;,
        4;252,251,250,249;,
        4;256,255,254,253;,
        4;260,259,258,257;,
        4;264,263,262,261;,
        4;268,267,266,265;,
        4;272,271,270,269;,
        4;276,275,274,273;,
        4;280,279,278,277;,
        4;284,283,282,281;,
        4;288,287,286,285;,
        4;292,291,290,289;,
        4;296,295,294,293;,
        4;300,299,298,297;,
        4;304,303,302,301;,
        4;308,307,306,305;,
        4;312,311,310,309;,
        4;316,315,314,313;,
        4;320,319,318,317;,
        4;324,323,322,321;,
        4;328,327,326,325;,
        4;332,331,330,329;,
        4;336,335,334,333;,
        4;340,339,338,337;,
        4;344,343,342,341;,
        4;348,347,346,345;,
        4;352,351,350,349;,
        4;356,355,354,353;,
        4;360,359,358,357;,
        4;364,363,362,361;,
        4;368,367,366,365;,
        4;372,371,370,369;,
        4;376,375,374,373;,
        4;380,379,378,377;,
        4;384,383,382,381;,
        4;388,387,386,385;,
        4;392,391,390,389;,
        4;396,395,394,393;,
        4;400,399,398,397;,
        4;404,403,402,401;,
        4;408,407,406,405;,
        4;412,411,410,409;,
        4;416,415,414,413;,
        4;420,419,418,417;,
        4;424,423,422,421;,
        4;428,427,426,425;,
        4;432,431,430,429;,
        4;436,435,434,433;,
        4;440,439,438,437;,
        4;444,443,442,441;,
        4;448,447,446,445;,
        4;452,451,450,449;,
        4;456,455,454,453;,
        4;460,459,458,457;,
        4;464,463,462,461;,
        4;468,467,466,465;,
        4;472,471,470,469;,
        4;476,475,474,473;,
        4;480,479,478,477;,
        4;484,483,482,481;,
        4;488,487,486,485;,
        4;492,491,490,489;,
        4;496,495,494,493;,
        4;500,499,498,497;,
        4;504,503,502,501;,
        4;508,507,506,505;,
        4;512,511,510,509;,
        4;516,515,514,513;,
        4;520,519,518,517;,
        4;524,523,522,521;,
        4;528,527,526,525;,
        4;532,531,530,529;,
        4;536,535,534,533;,
        4;540,539,538,537;,
        4;544,543,542,541;,
        4;548,547,546,545;,
        4;552,551,550,549;,
        4;556,555,554,553;,
        4;560,559,558,557;,
        4;564,563,562,561;,
        4;568,567,566,565;,
        4;572,571,570,569;,
        4;576,575,574,573;,
        4;580,579,578,577;,
        4;584,583,582,581;,
        4;588,587,586,585;,
        4;592,591,590,589;,
        4;596,595,594,593;,
        4;600,599,598,597;,
        4;604,603,602,601;,
        4;608,607,606,605;,
        4;612,611,610,609;,
        4;616,615,614,613;,
        4;620,619,618,617;,
        4;624,623,622,621;,
        4;628,627,626,625;,
        4;632,631,630,629;,
        4;636,635,634,633;,
        4;640,639,638,637;,
        4;644,643,642,641;,
        4;648,647,646,645;,
        4;652,651,650,649;,
        4;656,655,654,653;,
        4;660,659,658,657;,
        4;664,663,662,661;,
        4;668,667,666,665;,
        4;672,671,670,669;,
        4;676,675,674,673;,
        4;680,679,678,677;,
        4;684,683,682,681;,
        4;688,687,686,685;,
        4;692,691,690,689;,
        4;696,695,694,693;,
        4;700,699,698,697;,
        4;704,703,702,701;,
        4;708,707,706,705;;
      } // End of _0002 normals
      MeshTextureCoords { // _0002 UV coordinates
        709;
         0.009198; 0.832017;,
         0.039523; 1.000000;,
         0.039031; 0.825229;,
         0.039523; 1.000000;,
         0.009198; 0.832017;,
         0.011349; 0.994300;,
         0.702878; 0.167399;,
         0.677476; 0.005004;,
         0.670327; 0.167398;,
         0.677476; 0.005004;,
         0.702878; 0.167399;,
         0.709442; 0.016111;,
         0.106846; 0.841689;,
         0.135967; 0.999953;,
         0.136534; 0.848736;,
         0.135967; 0.999953;,
         0.106846; 0.841689;,
         0.107970; 0.993314;,
         0.076649; 0.834908;,
         0.107970; 0.993314;,
         0.106846; 0.841689;,
         0.107970; 0.993314;,
         0.076649; 0.834908;,
         0.079566; 1.000000;,
         0.709442; 0.827082;,
         0.748693; 0.992255;,
         0.741995; 0.827071;,
         0.748693; 0.992255;,
         0.709442; 0.827082;,
         0.716726; 1.000000;,
         0.039031; 0.825229;,
         0.067748; 0.990910;,
         0.068958; 0.818119;,
         0.067748; 0.990910;,
         0.039031; 0.825229;,
         0.039523; 1.000000;,
         0.005745; 0.583467;,
         0.039031; 0.825229;,
         0.033904; 0.583618;,
         0.039031; 0.825229;,
         0.005745; 0.583467;,
         0.009198; 0.832017;,
         0.709442; 0.415943;,
         0.670327; 0.167398;,
         0.676891; 0.415942;,
         0.670327; 0.167398;,
         0.709442; 0.415943;,
         0.702878; 0.167399;,
         0.109804; 0.600058;,
         0.136534; 0.848736;,
         0.137753; 0.600167;,
         0.136534; 0.848736;,
         0.109804; 0.600058;,
         0.106846; 0.841689;,
         0.081351; 0.600214;,
         0.106846; 0.841689;,
         0.109804; 0.600058;,
         0.106846; 0.841689;,
         0.081351; 0.600214;,
         0.076649; 0.834908;,
         0.716140; 0.592404;,
         0.741995; 0.827071;,
         0.748693; 0.592394;,
         0.741995; 0.827071;,
         0.716140; 0.592404;,
         0.709442; 0.827082;,
         0.033904; 0.583618;,
         0.068958; 0.818119;,
         0.062154; 0.583447;,
         0.068958; 0.818119;,
         0.033904; 0.583618;,
         0.039031; 0.825229;,
         0.010067; 0.418681;,
         0.033904; 0.583618;,
         0.032889; 0.418818;,
         0.033904; 0.583618;,
         0.010067; 0.418681;,
         0.005745; 0.583467;,
         0.708121; 0.580773;,
         0.676891; 0.415942;,
         0.678945; 0.580772;,
         0.676891; 0.415942;,
         0.708121; 0.580773;,
         0.709442; 0.415943;,
         0.109218; 0.435300;,
         0.137753; 0.600167;,
         0.131853; 0.435400;,
         0.137753; 0.600167;,
         0.109218; 0.435300;,
         0.109804; 0.600058;,
         0.086128; 0.435438;,
         0.109804; 0.600058;,
         0.109218; 0.435300;,
         0.109804; 0.600058;,
         0.086128; 0.435438;,
         0.081351; 0.600214;,
         0.718101; 0.427594;,
         0.748693; 0.592394;,
         0.747279; 0.427585;,
         0.748693; 0.592394;,
         0.718101; 0.427594;,
         0.716140; 0.592404;,
         0.032889; 0.418818;,
         0.062154; 0.583447;,
         0.055797; 0.418665;,
         0.062154; 0.583447;,
         0.032889; 0.418818;,
         0.033904; 0.583618;,
         0.002384; 0.133908;,
         0.032889; 0.418818;,
         0.037444; 0.135669;,
         0.032889; 0.418818;,
         0.002384; 0.133908;,
         0.010067; 0.418681;,
         0.701152; 0.865675;,
         0.678945; 0.580772;,
         0.671321; 0.865675;,
         0.678945; 0.580772;,
         0.701152; 0.865675;,
         0.708121; 0.580773;,
         0.101859; 0.152102;,
         0.131853; 0.435400;,
         0.136710; 0.150569;,
         0.131853; 0.435400;,
         0.101859; 0.152102;,
         0.109218; 0.435300;,
         0.071842; 0.153874;,
         0.109218; 0.435300;,
         0.101859; 0.152102;,
         0.109218; 0.435300;,
         0.071842; 0.153874;,
         0.086128; 0.435438;,
         0.710117; 0.145887;,
         0.747279; 0.427585;,
         0.739950; 0.145877;,
         0.747279; 0.427585;,
         0.710117; 0.145887;,
         0.718101; 0.427594;,
         0.037444; 0.135669;,
         0.055797; 0.418665;,
         0.067290; 0.137136;,
         0.055797; 0.418665;,
         0.037444; 0.135669;,
         0.032889; 0.418818;,
         0.000000; 0.003525;,
         0.037444; 0.135669;,
         0.037380; 0.006372;,
         0.037444; 0.135669;,
         0.000000; 0.003525;,
         0.002384; 0.133908;,
         0.695471; 1.000000;,
         0.671321; 0.865675;,
         0.674296; 0.996057;,
         0.671321; 0.865675;,
         0.695471; 1.000000;,
         0.701152; 0.865675;,
         0.100665; 0.015756;,
         0.136710; 0.150569;,
         0.137753; 0.016303;,
         0.136710; 0.150569;,
         0.100665; 0.015756;,
         0.101859; 0.152102;,
         0.068958; 0.021872;,
         0.101859; 0.152102;,
         0.100665; 0.015756;,
         0.101859; 0.152102;,
         0.068958; 0.021872;,
         0.071842; 0.153874;,
         0.389442; 0.761993;,
         0.359609; 0.624771;,
         0.355394; 0.756777;,
         0.359609; 0.624771;,
         0.389442; 0.761993;,
         0.389442; 0.624799;,
         0.037380; 0.006372;,
         0.067290; 0.137136;,
         0.068957; 0.000000;,
         0.067290; 0.137136;,
         0.037380; 0.006372;,
         0.037444; 0.135669;,
         0.834846; 0.687500;,
         0.794864; 0.676896;,
         0.817078; 0.700145;,
         0.846581; 0.726758;,
         0.846581; 0.700145;,
         0.813432; 0.728598;,
         0.813432; 0.728598;,
         0.846581; 0.700145;,
         0.794864; 0.718292;,
         0.549536; 0.681958;,
         0.549536; 0.657412;,
         0.522956; 0.668998;,
         0.404024; 0.669265;,
         0.418233; 0.681936;,
         0.435719; 0.669265;,
         0.836300; 0.676896;,
         0.794864; 0.676896;,
         0.834846; 0.687500;,
         0.355394; 0.688818;,
         0.336361; 0.674743;,
         0.320993; 0.674743;,
         0.308870; 0.688818;,
         0.313552; 0.700690;,
         0.313552; 0.700690;,
         0.350325; 0.700690;,
         0.284449; 0.761993;,
         0.284449; 0.812525;,
         0.367032; 0.806090;,
         0.367032; 0.768630;,
         0.961719; 0.778652;,
         0.961719; 0.816106;,
         0.993263; 0.816110;,
         0.993263; 0.778656;,
         0.551105; 1.000000;,
         0.551105; 0.949466;,
         0.472625; 0.956035;,
         0.472625; 0.993498;,
         0.882846; 0.728567;,
         0.882846; 0.691117;,
         0.851297; 0.691116;,
         0.851297; 0.728566;,
         0.278806; 0.735285;,
         0.355394; 0.728585;,
         0.319157; 0.700690;,
         0.288428; 0.703378;,
         0.993263; 0.816110;,
         0.961719; 0.816106;,
         0.953829; 0.830936;,
         0.999995; 0.830942;,
         0.550865; 0.941488;,
         0.670327; 0.941482;,
         0.670327; 0.772386;,
         0.550865; 0.772392;,
         0.551105; 0.949466;,
         0.633318; 0.956027;,
         0.670327; 0.941482;,
         0.550865; 0.941488;,
         0.284449; 0.812525;,
         0.206348; 0.806112;,
         0.168865; 0.820619;,
         0.284569; 0.820604;,
         0.641899; 0.679208;,
         0.641899; 0.667341;,
         0.600992; 0.664591;,
         0.600992; 0.681958;,
         0.284569; 0.989692;,
         0.168865; 0.989707;,
         0.137753; 1.000000;,
         0.252568; 0.998714;,
         0.284569; 0.820604;,
         0.168865; 0.820619;,
         0.168865; 0.989707;,
         0.284569; 0.989692;,
         0.278806; 0.761993;,
         0.278806; 0.702932;,
         0.235316; 0.707021;,
         0.256971; 0.757911;,
         0.953829; 0.965798;,
         0.953829; 0.802875;,
         0.937417; 0.808422;,
         0.937417; 0.960250;,
         0.778767; 0.651374;,
         0.764789; 0.651374;,
         0.766027; 0.663863;,
         0.777530; 0.663863;,
         0.600992; 0.681958;,
         0.600992; 0.664591;,
         0.567054; 0.667479;,
         0.567054; 0.679070;,
         0.794864; 0.632321;,
         0.748693; 0.632321;,
         0.752518; 0.646780;,
         0.791039; 0.646780;,
         0.550865; 0.772392;,
         0.670327; 0.772386;,
         0.637399; 0.764703;,
         0.518850; 0.763407;,
         0.765500; 0.672359;,
         0.764789; 0.651374;,
         0.752518; 0.646780;,
         0.754476; 0.688342;,
         0.764789; 0.651374;,
         0.778767; 0.651374;,
         0.791039; 0.646780;,
         0.752518; 0.646780;,
         0.778057; 0.672359;,
         0.777369; 0.692686;,
         0.787185; 0.728598;,
         0.789081; 0.688342;,
         0.777369; 0.692686;,
         0.766188; 0.692686;,
         0.756372; 0.728598;,
         0.787185; 0.728598;,
         0.581253; 0.691948;,
         0.547859; 0.691877;,
         0.553397; 0.725331;,
         0.575033; 0.725102;,
         0.583376; 0.681958;,
         0.522956; 0.681958;,
         0.547859; 0.691877;,
         0.581253; 0.691948;,
         0.462542; 0.681936;,
         0.404024; 0.681937;,
         0.432305; 0.691996;,
         0.464648; 0.691929;,
         0.912258; 0.647974;,
         0.901077; 0.647974;,
         0.900838; 0.658230;,
         0.912342; 0.658230;,
         0.911032; 0.691213;,
         0.902062; 0.691213;,
         0.904709; 0.728567;,
         0.908300; 0.728567;,
         0.464648; 0.691929;,
         0.432305; 0.691996;,
         0.449858; 0.724865;,
         0.470813; 0.725088;,
         0.912342; 0.658230;,
         0.900838; 0.658230;,
         0.902062; 0.691213;,
         0.911032; 0.691213;,
         0.923843; 0.658379;,
         0.912342; 0.658379;,
         0.913713; 0.691803;,
         0.922682; 0.691803;,
         0.391949; 0.750432;,
         0.395539; 0.750432;,
         0.395539; 0.748061;,
         0.391949; 0.748061;,
         0.922682; 0.691803;,
         0.913713; 0.691803;,
         0.916597; 0.728567;,
         0.920187; 0.728567;,
         0.575033; 0.725102;,
         0.553397; 0.725331;,
         0.564479; 0.762153;,
         0.571553; 0.762132;,
         0.470813; 0.725088;,
         0.449858; 0.724865;,
         0.467381; 0.762112;,
         0.474232; 0.762132;,
         0.985911; 0.773353;,
         0.967918; 0.773353;,
         0.953829; 0.778650;,
         1.000000; 0.778652;,
         0.967918; 0.714312;,
         0.985911; 0.714312;,
         1.000000; 0.609613;,
         0.953829; 0.609611;,
         0.985911; 0.714312;,
         0.985911; 0.773353;,
         1.000000; 0.778652;,
         1.000000; 0.609613;,
         0.967918; 0.773353;,
         0.967918; 0.714312;,
         0.953829; 0.609611;,
         0.953829; 0.778650;,
         0.256971; 0.757911;,
         0.235316; 0.707021;,
         0.206365; 0.714134;,
         0.223572; 0.754571;,
         0.900838; 0.674935;,
         0.882846; 0.674935;,
         0.883991; 0.683531;,
         0.899693; 0.683531;,
         0.278780; 0.702932;,
         0.278780; 0.643874;,
         0.256948; 0.647966;,
         0.235295; 0.698858;,
         0.453712; 0.668478;,
         0.435719; 0.668478;,
         0.436865; 0.681936;,
         0.452566; 0.681936;,
         0.206348; 0.691760;,
         0.223555; 0.651321;,
         0.191810; 0.656006;,
         0.169056; 0.675438;,
         0.899693; 0.683531;,
         0.883991; 0.683531;,
         0.885604; 0.696390;,
         0.898080; 0.696390;,
         0.235295; 0.698858;,
         0.256948; 0.647966;,
         0.223555; 0.651321;,
         0.206348; 0.691760;,
         0.866999; 0.648198;,
         0.851297; 0.648198;,
         0.852830; 0.655592;,
         0.865306; 0.655592;,
         0.191820; 0.749908;,
         0.169064; 0.730480;,
         0.152937; 0.739958;,
         0.162377; 0.748017;,
         0.865306; 0.655592;,
         0.852830; 0.655592;,
         0.855732; 0.672297;,
         0.862201; 0.672297;,
         0.223572; 0.754571;,
         0.206365; 0.714134;,
         0.169064; 0.730480;,
         0.191820; 0.749908;,
         0.898080; 0.696390;,
         0.885604; 0.696390;,
         0.888608; 0.708780;,
         0.895076; 0.708780;,
         0.152934; 0.665973;,
         0.162373; 0.657913;,
         0.139317; 0.656925;,
         0.137753; 0.658261;,
         0.895076; 0.708780;,
         0.888608; 0.708780;,
         0.890500; 0.720016;,
         0.893184; 0.720016;,
         0.169056; 0.675438;,
         0.191810; 0.656006;,
         0.162373; 0.657913;,
         0.152934; 0.665973;,
         0.862201; 0.672297;,
         0.855732; 0.672297;,
         0.857582; 0.681929;,
         0.860265; 0.681929;,
         0.858665; 0.691116;,
         0.859109; 0.691116;,
         0.859105; 0.689796;,
         0.858660; 0.689796;,
         0.860265; 0.681929;,
         0.857582; 0.681929;,
         0.858660; 0.689796;,
         0.859105; 0.689796;,
         0.162377; 0.748017;,
         0.152937; 0.739958;,
         0.137753; 0.747680;,
         0.139317; 0.749016;,
         0.893184; 0.720016;,
         0.890500; 0.720016;,
         0.891620; 0.728567;,
         0.892064; 0.728567;,
         0.962033; 0.834023;,
         0.991791; 0.834026;,
         0.999995; 0.830942;,
         0.953829; 0.830936;,
         0.991791; 0.996913;,
         0.962033; 0.996909;,
         0.953829; 0.999994;,
         0.999995; 1.000000;,
         0.991791; 0.834026;,
         0.991791; 0.996913;,
         0.999995; 1.000000;,
         0.999995; 0.830942;,
         0.962033; 0.996909;,
         0.962033; 0.834023;,
         0.953829; 0.830936;,
         0.953829; 0.999994;,
         0.834884; 0.920214;,
         0.834884; 0.768392;,
         0.809758; 0.768373;,
         0.827852; 0.914434;,
         0.991791; 0.834026;,
         0.962033; 0.834023;,
         0.962792; 0.839702;,
         0.990523; 0.839705;,
         0.851297; 0.925762;,
         0.851297; 0.762847;,
         0.834884; 0.768392;,
         0.834884; 0.920214;,
         0.453712; 0.670741;,
         0.453712; 0.681936;,
         0.474577; 0.681555;,
         0.474577; 0.671123;,
         0.912354; 0.960245;,
         0.930384; 0.814203;,
         0.883552; 0.821062;,
         0.901452; 0.941823;,
         0.392678; 0.759838;,
         0.395144; 0.759838;,
         0.395086; 0.752881;,
         0.392736; 0.752881;,
         0.937417; 0.960250;,
         0.937417; 0.808422;,
         0.930384; 0.814203;,
         0.912354; 0.960245;,
         0.990523; 0.839705;,
         0.962792; 0.839702;,
         0.962682; 0.845538;,
         0.990413; 0.845542;,
         0.901452; 0.941823;,
         0.883552; 0.821062;,
         0.864555; 0.822561;,
         0.855453; 0.937642;,
         0.827852; 0.914434;,
         0.781016; 0.907565;,
         0.785047; 0.928324;,
         0.802387; 0.930867;,
         0.827852; 0.914434;,
         0.809758; 0.768373;,
         0.798914; 0.786806;,
         0.781016; 0.907565;,
         0.782142; 0.978720;,
         0.785047; 0.928324;,
         0.766021; 0.925840;,
         0.763253; 0.973865;,
         0.887596; 0.800265;,
         0.904935; 0.797725;,
         0.902260; 0.752176;,
         0.884691; 0.749867;,
         0.883552; 0.821062;,
         0.930384; 0.814203;,
         0.904935; 0.797725;,
         0.887596; 0.800265;,
         0.884691; 0.749867;,
         0.911112; 0.728567;,
         0.890979; 0.734426;,
         0.865801; 0.754725;,
         0.670327; 0.677428;,
         0.642593; 0.677428;,
         0.651400; 0.693638;,
         0.661668; 0.693638;,
         0.799712; 0.976415;,
         0.782142; 0.978720;,
         0.808556; 1.000000;,
         0.814128; 0.999269;,
         0.661668; 0.693638;,
         0.651400; 0.693638;,
         0.651416; 0.739146;,
         0.661685; 0.739146;,
         0.802387; 0.930867;,
         0.785047; 0.928324;,
         0.782142; 0.978720;,
         0.799712; 0.976415;,
         0.883552; 0.821062;,
         0.887596; 0.800265;,
         0.868570; 0.802751;,
         0.864555; 0.822561;,
         0.392283; 0.761993;,
         0.395539; 0.761993;,
         0.395144; 0.759838;,
         0.392678; 0.759838;,
         0.916887; 1.000000;,
         0.912354; 0.960245;,
         0.851297; 0.955196;,
         0.896458; 0.993087;,
         0.884691; 0.749867;,
         0.902260; 0.752176;,
         0.916684; 0.729299;,
         0.911112; 0.728567;,
         0.661685; 0.739146;,
         0.651416; 0.739146;,
         0.654885; 0.762153;,
         0.658142; 0.762153;,
         0.281136; 0.668204;,
         0.308870; 0.668203;,
         0.301043; 0.660740;,
         0.290732; 0.660741;,
         0.937417; 0.960250;,
         0.912354; 0.960245;,
         0.916887; 1.000000;,
         0.932765; 0.992701;,
         0.281136; 0.700690;,
         0.308870; 0.700689;,
         0.308870; 0.668203;,
         0.281136; 0.668204;,
         0.809758; 0.768373;,
         0.834884; 0.768392;,
         0.830233; 0.735943;,
         0.814284; 0.728598;,
         0.397726; 0.540953;,
         0.403029; 0.540957;,
         0.404024; 0.526078;,
         0.402197; 0.526076;,
         0.395539; 0.673666;,
         0.398798; 0.673668;,
         0.399416; 0.558540;,
         0.396158; 0.558538;,
         0.403029; 0.540957;,
         0.397726; 0.540953;,
         0.396158; 0.558538;,
         0.399416; 0.558540;,
         0.398798; 0.673668;,
         0.395539; 0.673666;,
         0.396615; 0.693503;,
         0.404024; 0.693508;,
         0.404024; 0.693508;,
         0.396615; 0.693503;,
         0.396459; 0.741496;,
         0.403868; 0.741502;,
         0.403868; 0.741502;,
         0.396459; 0.741496;,
         0.398511; 0.761992;,
         0.400861; 0.761993;,
         0.781016; 0.907565;,
         0.798914; 0.786806;,
         0.752687; 0.790939;,
         0.761788; 0.906013;,
         0.836300; 0.700145;,
         0.846612; 0.700145;,
         0.845541; 0.690370;,
         0.837372; 0.690370;,
         0.785047; 0.928324;,
         0.781016; 0.907565;,
         0.761788; 0.906013;,
         0.766021; 0.925840;,
         0.912354; 0.960245;,
         0.901452; 0.941823;,
         0.855453; 0.937642;,
         0.851297; 0.955196;,
         0.808556; 1.000000;,
         0.782142; 0.978720;,
         0.763253; 0.973865;,
         0.788424; 0.994144;,
         0.887596; 0.800265;,
         0.884691; 0.749867;,
         0.865801; 0.754725;,
         0.868570; 0.802751;,
         0.809758; 0.768373;,
         0.814284; 0.728598;,
         0.793853; 0.735508;,
         0.748693; 0.773398;,
         0.798914; 0.786806;,
         0.809758; 0.768373;,
         0.748693; 0.773398;,
         0.752687; 0.790939;,
         0.402197; 0.526076;,
         0.404024; 0.526078;,
         0.403929; 0.517610;,
         0.402102; 0.517608;,
         0.395748; 0.503436;,
         0.397726; 0.540953;,
         0.402197; 0.526076;,
         0.402102; 0.517608;,
         0.403915; 0.503442;,
         0.395748; 0.503436;,
         0.402102; 0.517608;,
         0.403929; 0.517610;,
         0.748693; 0.773398;,
         0.793853; 0.735508;,
         0.772238; 0.749856;,
         0.763864; 0.758395;,
         0.492446; 0.725318;,
         0.470813; 0.725088;,
         0.474232; 0.762132;,
         0.481306; 0.762153;,
         0.595989; 0.724880;,
         0.575033; 0.725102;,
         0.571553; 0.762132;,
         0.578405; 0.762113;,
         0.391949; 0.752881;,
         0.395539; 0.752881;,
         0.395539; 0.750432;,
         0.391949; 0.750432;,
         0.498040; 0.691860;,
         0.464648; 0.691929;,
         0.470813; 0.725088;,
         0.492446; 0.725318;,
         0.522956; 0.681936;,
         0.462542; 0.681936;,
         0.464648; 0.691929;,
         0.498040; 0.691860;,
         0.641899; 0.681959;,
         0.583376; 0.681958;,
         0.581253; 0.691948;,
         0.613598; 0.692018;,
         0.613598; 0.692018;,
         0.581253; 0.691948;,
         0.575033; 0.725102;,
         0.595989; 0.724880;,
         0.778767; 0.651374;,
         0.778057; 0.672359;,
         0.789081; 0.688342;,
         0.791039; 0.646780;,
         0.766188; 0.692686;,
         0.765500; 0.672359;,
         0.754476; 0.688342;,
         0.756372; 0.728598;,
         0.435153; 0.772398;,
         0.550865; 0.772392;,
         0.518850; 0.763407;,
         0.404024; 0.762153;,
         0.404024; 0.820588;,
         0.284569; 0.820604;,
         0.284569; 0.989692;,
         0.404024; 0.989677;,
         0.404024; 0.989677;,
         0.284569; 0.989692;,
         0.252568; 0.998714;,
         0.371105; 0.997386;,
         0.367032; 0.806090;,
         0.284449; 0.812525;,
         0.284569; 0.820604;,
         0.404024; 0.820588;,
         0.472625; 0.956035;,
         0.551105; 0.949466;,
         0.550865; 0.941488;,
         0.435153; 0.941494;,
         0.435153; 0.941494;,
         0.550865; 0.941488;,
         0.550865; 0.772392;,
         0.435153; 0.772398;,
         0.324665; 0.761993;,
         0.355394; 0.759305;,
         0.355394; 0.728585;,
         0.278806; 0.735285;,
         0.633318; 0.993490;,
         0.633318; 0.956027;,
         0.551105; 0.949466;,
         0.551105; 1.000000;,
         0.206348; 0.768651;,
         0.206348; 0.806112;,
         0.284449; 0.812525;,
         0.284449; 0.761993;;
      } // End of _0002 UV coordinates
      MeshMaterialList { // _0002 material list
        1;
        193;
        0,
        0,
        0,
        0,
        0,
        0,
        0,
        0,
        0,
        0,
        0,
        0,
        0,
        0,
        0,
        0,
        0,
        0,
        0,
        0,
        0,
        0,
        0,
        0,
        0,
        0,
        0,
        0,
        0,
        0,
        0,
        0,
        0,
        0,
        0,
        0,
        0,
        0,
        0,
        0,
        0,
        0,
        0,
        0,
        0,
        0,
        0,
        0,
        0,
        0,
        0,
        0,
        0,
        0,
        0,
        0,
        0,
        0,
        0,
        0,
        0,
        0,
        0,
        0,
        0,
        0,
        0,
        0,
        0,
        0,
        0,
        0,
        0,
        0,
        0,
        0,
        0,
        0,
        0,
        0,
        0,
        0,
        0,
        0,
        0,
        0,
        0,
        0,
        0,
        0,
        0,
        0,
        0,
        0,
        0,
        0,
        0,
        0,
        0,
        0,
        0,
        0,
        0,
        0,
        0,
        0,
        0,
        0,
        0,
        0,
        0,
        0,
        0,
        0,
        0,
        0,
        0,
        0,
        0,
        0,
        0,
        0,
        0,
        0,
        0,
        0,
        0,
        0,
        0,
        0,
        0,
        0,
        0,
        0,
        0,
        0,
        0,
        0,
        0,
        0,
        0,
        0,
        0,
        0,
        0,
        0,
        0,
        0,
        0,
        0,
        0,
        0,
        0,
        0,
        0,
        0,
        0,
        0,
        0,
        0,
        0,
        0,
        0,
        0,
        0,
        0,
        0,
        0,
        0,
        0,
        0,
        0,
        0,
        0,
        0,
        0,
        0,
        0,
        0,
        0,
        0,
        0,
        0,
        0,
        0,
        0,
        0,
        0,
        0,
        0,
        0,
        0,
        0;
        Material Material_001 {
           0.640000; 0.640000; 0.640000; 1.000000;;
           96.078431;
           0.500000; 0.500000; 0.500000;;
           0.000000; 0.000000; 0.000000;;
        }
      } // End of _0002 material list
    } // End of _0002 mesh
  } // End of _0002
} // End of Root
