xof 0303txt 0032

Frame Root {
  FrameTransformMatrix {
     1.000000, 0.000000, 0.000000, 0.000000,
     0.000000, 1.000000, 0.000000, 0.000000,
     0.000000, 0.000000, 1.000000, 0.000000,
     0.000000, 0.000000, 0.000000, 1.000000;;
  }
  Frame Cube {
    FrameTransformMatrix {
       1.000000, 0.000000, 0.000000, 0.000000,
       0.000000, 1.000000, 0.000000, 0.000000,
       0.000000, 0.000000, 1.000000, 0.000000,
       0.000000, 0.000000, 0.000000, 1.000000;;
    }
    Mesh {
      680;
       0.001052; 0.565402;-0.007115;,
       0.001052; 0.565431;-0.000449;,
       0.001930; 0.578128;-0.000484;,
       0.001930; 0.578101;-0.006705;,
      -0.001126; 0.117310;-0.007420;,
       0.000299; 0.117291;-0.011966;,
      -0.002210; 0.113848;-0.011986;,
      -0.004473; 0.113868;-0.007425;,
       0.010057; 0.117357; 0.003381;,
       0.013293; 0.113915; 0.003412;,
       0.013293; 0.113868;-0.007425;,
       0.010057; 0.117310;-0.007420;,
       0.001931; 0.565450; 0.003718;,
       0.000299; 0.117387; 0.010134;,
       0.004607; 0.117418; 0.017279;,
       0.004590; 0.565469; 0.008127;,
       0.007248; 0.565450; 0.003718;,
       0.008915; 0.117387; 0.010134;,
       0.010057; 0.117357; 0.003381;,
       0.007953; 0.565431;-0.000449;,
       0.001931; 0.565390;-0.009920;,
       0.000299; 0.117291;-0.011966;,
      -0.001126; 0.117310;-0.007420;,
       0.001052; 0.565402;-0.007115;,
       0.004607; 0.117262;-0.018442;,
       0.008915; 0.117291;-0.011966;,
       0.011478; 0.113848;-0.011986;,
       0.004634; 0.113820;-0.018485;,
       0.008915; 0.117387; 0.010134;,
       0.004607; 0.117418; 0.017279;,
       0.004634; 0.113976; 0.017357;,
       0.011478; 0.113945; 0.010188;,
       0.008915; 0.117291;-0.011966;,
       0.010057; 0.117310;-0.007420;,
       0.013293; 0.113868;-0.007425;,
       0.011478; 0.113848;-0.011986;,
       0.007953; 0.565431;-0.000449;,
       0.007953; 0.565402;-0.007115;,
       0.007109; 0.578101;-0.006705;,
       0.007109; 0.578128;-0.000484;,
       0.001930; 0.578101;-0.006705;,
       0.001930; 0.578128;-0.000484;,
       0.003149; 0.590203;-0.001543;,
       0.003149; 0.590185;-0.005784;,
       0.001052; 0.565431;-0.000449;,
       0.001931; 0.565450; 0.003718;,
       0.002589; 0.578142; 0.002644;,
       0.001930; 0.578128;-0.000484;,
       0.004590; 0.565469; 0.008127;,
       0.004607; 0.117418; 0.017279;,
       0.008915; 0.117387; 0.010134;,
       0.007248; 0.565450; 0.003718;,
       0.004590; 0.565373;-0.013917;,
       0.004607; 0.117262;-0.018442;,
       0.000299; 0.117291;-0.011966;,
       0.001931; 0.565390;-0.009920;,
       0.000299; 0.117387; 0.010134;,
      -0.001126; 0.117357; 0.003381;,
      -0.004473; 0.113915; 0.003412;,
      -0.002210; 0.113945; 0.010188;,
       0.007109; 0.578128;-0.000484;,
       0.007109; 0.578101;-0.006705;,
       0.005935; 0.590185;-0.005784;,
       0.005935; 0.590203;-0.001543;,
       0.010057; 0.117357; 0.003381;,
       0.008915; 0.117387; 0.010134;,
       0.011478; 0.113945; 0.010188;,
       0.013293; 0.113915; 0.003412;,
       0.004607; 0.117418; 0.017279;,
       0.000299; 0.117387; 0.010134;,
      -0.002210; 0.113945; 0.010188;,
       0.004634; 0.113976; 0.017357;,
       0.007953; 0.565402;-0.007115;,
       0.010057; 0.117310;-0.007420;,
       0.008915; 0.117291;-0.011966;,
       0.007248; 0.565390;-0.009920;,
       0.001052; 0.565402;-0.007115;,
      -0.001126; 0.117310;-0.007420;,
      -0.001126; 0.117357; 0.003381;,
       0.001052; 0.565431;-0.000449;,
       0.004590; 0.565469; 0.008127;,
       0.007248; 0.565450; 0.003718;,
       0.006580; 0.578142; 0.002644;,
       0.004585; 0.578156; 0.005953;,
       0.007248; 0.565390;-0.009920;,
       0.004590; 0.565373;-0.013917;,
       0.004585; 0.578079;-0.011809;,
       0.006580; 0.578092;-0.008810;,
       0.007953; 0.565402;-0.007115;,
       0.007248; 0.565390;-0.009920;,
       0.006580; 0.578092;-0.008810;,
       0.007109; 0.578101;-0.006705;,
       0.001931; 0.565390;-0.009920;,
       0.001052; 0.565402;-0.007115;,
       0.001930; 0.578101;-0.006705;,
       0.002589; 0.578092;-0.008810;,
       0.004590; 0.565373;-0.013917;,
       0.001931; 0.565390;-0.009920;,
       0.002589; 0.578092;-0.008810;,
       0.004585; 0.578079;-0.011809;,
       0.001931; 0.565450; 0.003718;,
       0.004590; 0.565469; 0.008127;,
       0.004585; 0.578156; 0.005953;,
       0.002589; 0.578142; 0.002644;,
       0.007248; 0.565450; 0.003718;,
       0.007953; 0.565431;-0.000449;,
       0.007109; 0.578128;-0.000484;,
       0.006580; 0.578142; 0.002644;,
       0.005935; 0.590185;-0.005784;,
       0.005225; 0.596547;-0.004977;,
       0.005225; 0.596558;-0.002630;,
       0.005935; 0.590203;-0.001543;,
       0.001930; 0.578128;-0.000484;,
       0.002589; 0.578142; 0.002644;,
       0.003504; 0.590210; 0.000140;,
       0.003149; 0.590203;-0.001543;,
       0.002589; 0.578142; 0.002644;,
       0.004585; 0.578156; 0.005953;,
       0.004577; 0.590218; 0.001920;,
       0.003504; 0.590210; 0.000140;,
       0.003149; 0.590203;-0.001543;,
       0.003888; 0.596558;-0.002630;,
       0.003888; 0.596547;-0.004977;,
       0.003149; 0.590185;-0.005784;,
       0.004585; 0.578079;-0.011809;,
       0.002589; 0.578092;-0.008810;,
       0.003504; 0.590180;-0.006916;,
       0.004577; 0.590173;-0.008530;,
       0.002589; 0.578092;-0.008810;,
       0.001930; 0.578101;-0.006705;,
       0.003149; 0.590185;-0.005784;,
       0.003504; 0.590180;-0.006916;,
       0.007109; 0.578101;-0.006705;,
       0.006580; 0.578092;-0.008810;,
       0.005651; 0.590180;-0.006916;,
       0.005935; 0.590185;-0.005784;,
       0.006580; 0.578142; 0.002644;,
       0.007109; 0.578128;-0.000484;,
       0.005935; 0.590203;-0.001543;,
       0.005651; 0.590210; 0.000140;,
       0.004585; 0.578156; 0.005953;,
       0.006580; 0.578142; 0.002644;,
       0.005651; 0.590210; 0.000140;,
       0.004577; 0.590218; 0.001920;,
       0.006580; 0.578092;-0.008810;,
       0.004585; 0.578079;-0.011809;,
       0.004577; 0.590173;-0.008530;,
       0.005651; 0.590180;-0.006916;,
       0.003888; 0.596547;-0.004977;,
       0.003888; 0.596558;-0.002630;,
       0.004427; 0.600736;-0.003440;,
       0.004427; 0.600733;-0.004122;,
       0.005651; 0.590180;-0.006916;,
       0.004577; 0.590173;-0.008530;,
       0.004573; 0.596542;-0.006294;,
       0.005088; 0.596545;-0.005520;,
       0.003504; 0.590180;-0.006916;,
       0.003149; 0.590185;-0.005784;,
       0.003888; 0.596547;-0.004977;,
       0.004058; 0.596545;-0.005520;,
       0.004577; 0.590173;-0.008530;,
       0.003504; 0.590180;-0.006916;,
       0.004058; 0.596545;-0.005520;,
       0.004573; 0.596542;-0.006294;,
       0.005225; 0.596558;-0.002630;,
       0.005225; 0.596547;-0.004977;,
       0.004707; 0.600733;-0.004122;,
       0.004707; 0.600736;-0.003440;,
       0.005935; 0.590185;-0.005784;,
       0.005651; 0.590180;-0.006916;,
       0.005088; 0.596545;-0.005520;,
       0.005225; 0.596547;-0.004977;,
       0.003504; 0.590210; 0.000140;,
       0.004577; 0.590218; 0.001920;,
       0.004573; 0.596565;-0.000969;,
       0.004058; 0.596561;-0.001823;,
       0.005651; 0.590210; 0.000140;,
       0.005935; 0.590203;-0.001543;,
       0.005225; 0.596558;-0.002630;,
       0.005088; 0.596561;-0.001823;,
       0.004577; 0.590218; 0.001920;,
       0.005651; 0.590210; 0.000140;,
       0.005088; 0.596561;-0.001823;,
       0.004573; 0.596565;-0.000969;,
       0.003149; 0.590203;-0.001543;,
       0.003504; 0.590210; 0.000140;,
       0.004058; 0.596561;-0.001823;,
       0.003888; 0.596558;-0.002630;,
       0.004058; 0.596545;-0.005520;,
       0.003888; 0.596547;-0.004977;,
       0.004427; 0.600733;-0.004122;,
       0.004462; 0.600733;-0.004236;,
       0.004058; 0.596561;-0.001823;,
       0.004573; 0.596565;-0.000969;,
       0.004570; 0.600738;-0.003092;,
       0.004462; 0.600737;-0.003271;,
       0.004573; 0.596542;-0.006294;,
       0.004058; 0.596545;-0.005520;,
       0.004462; 0.600733;-0.004236;,
       0.004570; 0.600732;-0.004398;,
       0.005088; 0.596561;-0.001823;,
       0.005225; 0.596558;-0.002630;,
       0.004707; 0.600736;-0.003440;,
       0.004678; 0.600737;-0.003271;,
       0.005225; 0.596547;-0.004977;,
       0.005088; 0.596545;-0.005520;,
       0.004678; 0.600733;-0.004236;,
       0.004707; 0.600733;-0.004122;,
       0.004707; 0.600736;-0.003440;,
       0.004707; 0.600733;-0.004122;,
       0.004570; 0.601331;-0.003784;,
       0.004427; 0.600736;-0.003440;,
       0.004570; 0.601331;-0.003784;,
       0.004427; 0.600733;-0.004122;,
       0.004573; 0.596565;-0.000969;,
       0.005088; 0.596561;-0.001823;,
       0.004678; 0.600737;-0.003271;,
       0.004570; 0.600738;-0.003092;,
       0.005088; 0.596545;-0.005520;,
       0.004573; 0.596542;-0.006294;,
       0.004570; 0.600732;-0.004398;,
       0.004678; 0.600733;-0.004236;,
       0.003888; 0.596558;-0.002630;,
       0.004058; 0.596561;-0.001823;,
       0.004462; 0.600737;-0.003271;,
       0.004427; 0.600736;-0.003440;,
       0.004570; 0.600732;-0.004398;,
       0.004462; 0.600733;-0.004236;,
       0.004570; 0.601331;-0.003784;,
       0.013293; 0.113868;-0.007425;,
       0.013293; 0.113915; 0.003412;,
       0.013293; 0.099379; 0.003476;,
       0.013293; 0.099332;-0.007362;,
       0.004427; 0.600733;-0.004122;,
       0.004570; 0.601331;-0.003784;,
       0.004462; 0.600733;-0.004236;,
      -0.004473; 0.113915; 0.003412;,
      -0.004473; 0.113868;-0.007425;,
      -0.004473; 0.099332;-0.007362;,
      -0.004473; 0.099379; 0.003476;,
       0.004678; 0.600733;-0.004236;,
       0.004570; 0.601331;-0.003784;,
       0.004707; 0.600733;-0.004122;,
       0.004570; 0.601331;-0.003784;,
       0.004678; 0.600733;-0.004236;,
       0.004570; 0.600732;-0.004398;,
       0.004462; 0.600737;-0.003271;,
       0.004570; 0.601331;-0.003784;,
       0.004427; 0.600736;-0.003440;,
       0.004570; 0.600738;-0.003092;,
       0.004570; 0.601331;-0.003784;,
       0.004462; 0.600737;-0.003271;,
       0.004678; 0.600737;-0.003271;,
       0.004570; 0.601331;-0.003784;,
       0.004570; 0.600738;-0.003092;,
       0.004707; 0.600736;-0.003440;,
       0.004570; 0.601331;-0.003784;,
       0.004678; 0.600737;-0.003271;,
      -0.002210; 0.113945; 0.010188;,
      -0.004473; 0.113915; 0.003412;,
      -0.004473; 0.099379; 0.003476;,
      -0.002210; 0.099409; 0.010251;,
      -0.004473; 0.113868;-0.007425;,
      -0.002210; 0.113848;-0.011986;,
      -0.002210; 0.099312;-0.011923;,
      -0.004473; 0.099332;-0.007362;,
      -0.002210; 0.099409; 0.010251;,
       0.004634; 0.099440; 0.017421;,
       0.004634; 0.107547; 0.041522;,
      -0.002210; 0.110437; 0.034340;,
      -0.001126; 0.117357; 0.003381;,
      -0.001126; 0.117310;-0.007420;,
      -0.004473; 0.113868;-0.007425;,
      -0.004473; 0.113915; 0.003412;,
       0.011478; 0.099409; 0.010251;,
       0.011478; 0.113945; 0.010188;,
       0.011478; 0.114236; 0.034324;,
       0.011478; 0.110437; 0.034340;,
       0.013293; 0.099332;-0.007362;,
       0.013293; 0.099379; 0.003476;,
       0.013293; 0.094561; 0.003497;,
       0.013293; 0.094514;-0.007341;,
       0.013293; 0.113915; 0.003412;,
       0.011478; 0.113945; 0.010188;,
       0.011478; 0.099409; 0.010251;,
       0.013293; 0.099379; 0.003476;,
       0.000299; 0.117291;-0.011966;,
       0.004607; 0.117262;-0.018442;,
       0.004634; 0.113820;-0.018485;,
      -0.002210; 0.113848;-0.011986;,
      -0.004473; 0.099379; 0.003476;,
      -0.004473; 0.099332;-0.007362;,
      -0.004473; 0.094514;-0.007341;,
      -0.004473; 0.094561; 0.003497;,
      -0.004473; 0.099332;-0.007362;,
      -0.002210; 0.099312;-0.011923;,
      -0.002210; 0.094499;-0.010691;,
      -0.004473; 0.094514;-0.007341;,
      -0.002210; 0.094578; 0.007396;,
       0.004634; 0.094589; 0.009888;,
      -0.002210; 0.099409; 0.010251;,
      -0.004473; 0.015275; 0.003842;,
      -0.004473; 0.015228;-0.006996;,
      -0.001572;-0.064050;-0.004884;,
      -0.001572;-0.064018; 0.002475;,
       0.004634; 0.094589; 0.009888;,
       0.011478; 0.094578; 0.007396;,
       0.011478; 0.099409; 0.010251;,
       0.013293; 0.015228;-0.006996;,
       0.013293; 0.015275; 0.003842;,
       0.010492;-0.064018; 0.002475;,
       0.010492;-0.064050;-0.004884;,
       0.013293; 0.099379; 0.003476;,
       0.011478; 0.099409; 0.010251;,
       0.011478; 0.094578; 0.007396;,
       0.013293; 0.094561; 0.003497;,
       0.011478; 0.099312;-0.011923;,
       0.013293; 0.099332;-0.007362;,
       0.013293; 0.094514;-0.007341;,
       0.011478; 0.094499;-0.010691;,
       0.004634; 0.099284;-0.018422;,
      -0.002210; 0.099312;-0.011923;,
      -0.002210; 0.110132;-0.035750;,
       0.004634; 0.107183;-0.042236;,
      -0.002210; 0.099312;-0.011923;,
      -0.002210; 0.113848;-0.011986;,
      -0.002210; 0.113930;-0.035766;,
      -0.002210; 0.110132;-0.035750;,
       0.011478; 0.113848;-0.011986;,
       0.013293; 0.113868;-0.007425;,
       0.013293; 0.099332;-0.007362;,
       0.011478; 0.099312;-0.011923;,
       0.011478; 0.015292; 0.007741;,
       0.004634; 0.015303; 0.010233;,
       0.004612;-0.063999; 0.006815;,
       0.009259;-0.064006; 0.005123;,
      -0.001572;-0.064018; 0.002475;,
      -0.001572;-0.064050;-0.004884;,
      -0.000035;-0.064060;-0.007158;,
      -0.000035;-0.064034;-0.001293;,
      -0.000035;-0.064006; 0.005123;,
       0.004634; 0.015303; 0.010233;,
      -0.002210; 0.015292; 0.007741;,
      -0.000035;-0.064006; 0.005123;,
       0.004612;-0.063999; 0.006815;,
       0.009259;-0.064006; 0.005123;,
       0.009259;-0.064034;-0.001293;,
       0.009259;-0.064060;-0.007158;,
       0.010492;-0.064050;-0.004884;,
       0.010492;-0.064018; 0.002475;,
       0.013293; 0.015275; 0.003842;,
       0.011478; 0.015292; 0.007741;,
       0.009259;-0.064006; 0.005123;,
       0.010492;-0.064018; 0.002475;,
       0.011478; 0.015213;-0.010346;,
       0.013293; 0.015228;-0.006996;,
       0.010492;-0.064050;-0.004884;,
       0.009259;-0.064060;-0.007158;,
       0.004634; 0.015202;-0.012963;,
       0.011478; 0.015213;-0.010346;,
       0.009259;-0.064060;-0.007158;,
       0.004612;-0.064068;-0.008935;,
      -0.002210; 0.099409; 0.010251;,
      -0.004473; 0.099379; 0.003476;,
      -0.004473; 0.094561; 0.003497;,
      -0.002210; 0.094578; 0.007396;,
      -0.002210; 0.099312;-0.011923;,
       0.004634; 0.099284;-0.018422;,
       0.004634; 0.094488;-0.013308;,
      -0.002210; 0.094499;-0.010691;,
      -0.002210; 0.099312;-0.011923;,
       0.004634; 0.094488;-0.013308;,
      -0.000035;-0.064034;-0.001293;,
      -0.000035;-0.064060;-0.007158;,
       0.004612;-0.064068;-0.008935;,
       0.004612;-0.064034;-0.001293;,
      -0.000035;-0.064006; 0.005123;,
      -0.000035;-0.064034;-0.001293;,
       0.004612;-0.064034;-0.001293;,
       0.004612;-0.063999; 0.006815;,
       0.004612;-0.063999; 0.006815;,
       0.004612;-0.064034;-0.001293;,
       0.009259;-0.064034;-0.001293;,
       0.009259;-0.064006; 0.005123;,
       0.004612;-0.064034;-0.001293;,
       0.004612;-0.064068;-0.008935;,
       0.009259;-0.064060;-0.007158;,
       0.009259;-0.064034;-0.001293;,
       0.007248; 0.565390;-0.009920;,
       0.008915; 0.117291;-0.011966;,
       0.004607; 0.117262;-0.018442;,
       0.004590; 0.565373;-0.013917;,
      -0.004473; 0.015228;-0.006996;,
      -0.002210; 0.015213;-0.010346;,
      -0.000035;-0.064060;-0.007158;,
      -0.001572;-0.064050;-0.004884;,
      -0.002210; 0.015292; 0.007741;,
      -0.004473; 0.015275; 0.003842;,
      -0.001572;-0.064018; 0.002475;,
      -0.000035;-0.064006; 0.005123;,
      -0.002210; 0.015213;-0.010346;,
       0.004634; 0.015202;-0.012963;,
       0.004612;-0.064068;-0.008935;,
      -0.000035;-0.064060;-0.007158;,
       0.011478; 0.094499;-0.010691;,
       0.004634; 0.094488;-0.013308;,
       0.011478; 0.099312;-0.011923;,
       0.011478; 0.099312;-0.011923;,
       0.004634; 0.094488;-0.013308;,
       0.004634; 0.099284;-0.018422;,
       0.004634; 0.099440; 0.017421;,
       0.004634; 0.094589; 0.009888;,
       0.011478; 0.099409; 0.010251;,
      -0.002210; 0.099409; 0.010251;,
       0.004634; 0.094589; 0.009888;,
       0.004634; 0.099440; 0.017421;,
       0.011478; 0.114236; 0.034324;,
       0.004634; 0.122567; 0.054042;,
       0.004634; 0.107547; 0.041522;,
       0.011478; 0.110437; 0.034340;,
       0.004634; 0.122567; 0.054042;,
      -0.002210; 0.114236; 0.034324;,
      -0.002210; 0.110437; 0.034340;,
       0.004634; 0.107547; 0.041522;,
       0.004634; 0.099440; 0.017421;,
       0.011478; 0.099409; 0.010251;,
       0.011478; 0.110437; 0.034340;,
       0.004634; 0.107547; 0.041522;,
       0.004634; 0.122567; 0.054042;,
       0.011478; 0.114236; 0.034324;,
      -0.002210; 0.114236; 0.034324;,
       0.011478; 0.114236; 0.034324;,
       0.004634; 0.113976; 0.017357;,
      -0.002210; 0.114236; 0.034324;,
      -0.002210; 0.113945; 0.010188;,
      -0.002210; 0.099409; 0.010251;,
      -0.002210; 0.110437; 0.034340;,
      -0.002210; 0.114236; 0.034324;,
      -0.002210; 0.113930;-0.035766;,
       0.004634; 0.122093;-0.054885;,
       0.004634; 0.107183;-0.042236;,
      -0.002210; 0.110132;-0.035750;,
       0.004634; 0.122093;-0.054885;,
       0.011478; 0.113930;-0.035766;,
       0.011478; 0.110132;-0.035750;,
       0.004634; 0.107183;-0.042236;,
       0.004634; 0.113976; 0.017357;,
       0.011478; 0.114236; 0.034324;,
       0.011478; 0.113945; 0.010188;,
       0.011478; 0.113848;-0.011986;,
       0.011478; 0.099312;-0.011923;,
       0.011478; 0.110132;-0.035750;,
       0.011478; 0.113930;-0.035766;,
       0.011478; 0.099312;-0.011923;,
       0.004634; 0.099284;-0.018422;,
       0.004634; 0.107183;-0.042236;,
       0.011478; 0.110132;-0.035750;,
      -0.002210; 0.113945; 0.010188;,
      -0.002210; 0.114236; 0.034324;,
       0.004634; 0.113976; 0.017357;,
       0.004634; 0.113820;-0.018485;,
      -0.002210; 0.113930;-0.035766;,
      -0.002210; 0.113848;-0.011986;,
       0.011478; 0.113848;-0.011986;,
       0.011478; 0.113930;-0.035766;,
       0.004634; 0.113820;-0.018485;,
      -0.002210; 0.113930;-0.035766;,
       0.004634; 0.113820;-0.018485;,
       0.011478; 0.113930;-0.035766;,
       0.004634; 0.122093;-0.054885;,
      -0.002210; 0.113930;-0.035766;,
       0.011478; 0.113930;-0.035766;,
       0.007953; 0.565431;-0.000449;,
       0.010057; 0.117357; 0.003381;,
       0.010057; 0.117310;-0.007420;,
       0.007953; 0.565402;-0.007115;,
       0.001052; 0.565431;-0.000449;,
      -0.001126; 0.117357; 0.003381;,
       0.000299; 0.117387; 0.010134;,
       0.001931; 0.565450; 0.003718;,
      -0.001758;-0.079176;-0.013112;,
      -0.001758;-0.086238;-0.005885;,
      -0.001758;-0.083515;-0.004794;,
      -0.001758;-0.078022;-0.010415;,
      -0.001758;-0.078022;-0.010415;,
      -0.001758;-0.083515;-0.004794;,
       0.004634;-0.082153;-0.004249;,
       0.004634;-0.077446;-0.009066;,
       0.004634;-0.077446;-0.009066;,
       0.004634;-0.082153;-0.004249;,
       0.011026;-0.083515;-0.004794;,
       0.011026;-0.078022;-0.010415;,
       0.011026;-0.078022;-0.010415;,
       0.011026;-0.083515;-0.004794;,
       0.011026;-0.086238;-0.005885;,
       0.011026;-0.079176;-0.013112;,
      -0.001758;-0.061847;-0.006167;,
       0.011026;-0.061847;-0.006167;,
       0.011026;-0.069073;-0.013228;,
      -0.001758;-0.069073;-0.013228;,
      -0.001758;-0.086238;-0.005885;,
      -0.001758;-0.086121; 0.004217;,
      -0.001758;-0.083424; 0.003064;,
      -0.001758;-0.083515;-0.004794;,
      -0.001758;-0.083515;-0.004794;,
      -0.001758;-0.083424; 0.003064;,
       0.004634;-0.082075; 0.002487;,
       0.004634;-0.082153;-0.004249;,
       0.004634;-0.082153;-0.004249;,
       0.004634;-0.082075; 0.002487;,
       0.011026;-0.083424; 0.003064;,
       0.011026;-0.083515;-0.004794;,
       0.011026;-0.083515;-0.004794;,
       0.011026;-0.083424; 0.003064;,
       0.011026;-0.086121; 0.004217;,
       0.011026;-0.086238;-0.005885;,
      -0.001758;-0.069073;-0.013228;,
       0.011026;-0.069073;-0.013228;,
       0.011026;-0.079176;-0.013112;,
      -0.001758;-0.079176;-0.013112;,
      -0.001758;-0.086121; 0.004217;,
      -0.001758;-0.078895; 0.011279;,
      -0.001758;-0.077803; 0.008556;,
      -0.001758;-0.083424; 0.003064;,
      -0.001758;-0.083424; 0.003064;,
      -0.001758;-0.077803; 0.008556;,
       0.004634;-0.077258; 0.007194;,
       0.004634;-0.082075; 0.002487;,
       0.004634;-0.082075; 0.002487;,
       0.004634;-0.077258; 0.007194;,
       0.011026;-0.077803; 0.008556;,
       0.011026;-0.083424; 0.003064;,
       0.011026;-0.083424; 0.003064;,
       0.011026;-0.077803; 0.008556;,
       0.011026;-0.078895; 0.011279;,
       0.011026;-0.086121; 0.004217;,
      -0.001758;-0.086238;-0.005885;,
      -0.001758;-0.079176;-0.013112;,
       0.011026;-0.079176;-0.013112;,
       0.011026;-0.086238;-0.005885;,
      -0.001758;-0.078895; 0.011279;,
      -0.001758;-0.068792; 0.011162;,
      -0.001758;-0.069946; 0.008465;,
      -0.001758;-0.077803; 0.008556;,
      -0.001758;-0.077803; 0.008556;,
      -0.001758;-0.069946; 0.008465;,
       0.004634;-0.070523; 0.007117;,
       0.004634;-0.077258; 0.007194;,
       0.004634;-0.077258; 0.007194;,
       0.004634;-0.070523; 0.007117;,
       0.011026;-0.069946; 0.008465;,
       0.011026;-0.077803; 0.008556;,
       0.011026;-0.077803; 0.008556;,
       0.011026;-0.069946; 0.008465;,
       0.011026;-0.068792; 0.011162;,
       0.011026;-0.078895; 0.011279;,
       0.011026;-0.086238;-0.005885;,
       0.011026;-0.086121; 0.004217;,
      -0.001758;-0.086121; 0.004217;,
      -0.001758;-0.086238;-0.005885;,
      -0.001758;-0.086121; 0.004217;,
       0.011026;-0.086121; 0.004217;,
       0.011026;-0.078895; 0.011279;,
      -0.001758;-0.078895; 0.011279;,
      -0.001758;-0.068792; 0.011162;,
      -0.001758;-0.061730; 0.003936;,
      -0.001758;-0.064453; 0.002845;,
      -0.001758;-0.069946; 0.008465;,
      -0.001758;-0.069946; 0.008465;,
      -0.001758;-0.064453; 0.002845;,
       0.004634;-0.065815; 0.002299;,
       0.004634;-0.070523; 0.007117;,
       0.004634;-0.070523; 0.007117;,
       0.004634;-0.065815; 0.002299;,
       0.011026;-0.064453; 0.002845;,
       0.011026;-0.069946; 0.008465;,
       0.011026;-0.069946; 0.008465;,
       0.011026;-0.064453; 0.002845;,
       0.011026;-0.061730; 0.003936;,
       0.011026;-0.068792; 0.011162;,
      -0.001758;-0.068792; 0.011162;,
      -0.001758;-0.078895; 0.011279;,
       0.011026;-0.078895; 0.011279;,
       0.011026;-0.068792; 0.011162;,
       0.011026;-0.068792; 0.011162;,
       0.011026;-0.061730; 0.003936;,
      -0.001758;-0.061730; 0.003936;,
      -0.001758;-0.068792; 0.011162;,
      -0.001758;-0.061730; 0.003936;,
      -0.001758;-0.061847;-0.006167;,
      -0.001758;-0.064544;-0.005013;,
      -0.001758;-0.064453; 0.002845;,
      -0.001758;-0.064453; 0.002845;,
      -0.001758;-0.064544;-0.005013;,
       0.004634;-0.065893;-0.004436;,
       0.004634;-0.065815; 0.002299;,
       0.004634;-0.065815; 0.002299;,
       0.004634;-0.065893;-0.004436;,
       0.011026;-0.064544;-0.005013;,
       0.011026;-0.064453; 0.002845;,
       0.011026;-0.064453; 0.002845;,
       0.011026;-0.064544;-0.005013;,
       0.011026;-0.061847;-0.006167;,
       0.011026;-0.061730; 0.003936;,
      -0.001758;-0.061730; 0.003936;,
       0.011026;-0.061730; 0.003936;,
       0.011026;-0.061847;-0.006167;,
      -0.001758;-0.061847;-0.006167;,
      -0.001758;-0.061847;-0.006167;,
      -0.001758;-0.069073;-0.013228;,
      -0.001758;-0.070165;-0.010505;,
      -0.001758;-0.064544;-0.005013;,
      -0.001758;-0.064544;-0.005013;,
      -0.001758;-0.070165;-0.010505;,
       0.004634;-0.070710;-0.009144;,
       0.004634;-0.065893;-0.004436;,
       0.004634;-0.065893;-0.004436;,
       0.004634;-0.070710;-0.009144;,
       0.011026;-0.070165;-0.010505;,
       0.011026;-0.064544;-0.005013;,
       0.011026;-0.064544;-0.005013;,
       0.011026;-0.070165;-0.010505;,
       0.011026;-0.069073;-0.013228;,
       0.011026;-0.061847;-0.006167;,
      -0.001758;-0.069073;-0.013228;,
      -0.001758;-0.079176;-0.013112;,
      -0.001758;-0.078022;-0.010415;,
      -0.001758;-0.070165;-0.010505;,
      -0.001758;-0.070165;-0.010505;,
      -0.001758;-0.078022;-0.010415;,
       0.004634;-0.077446;-0.009066;,
       0.004634;-0.070710;-0.009144;,
       0.004634;-0.070710;-0.009144;,
       0.004634;-0.077446;-0.009066;,
       0.011026;-0.078022;-0.010415;,
       0.011026;-0.070165;-0.010505;,
       0.011026;-0.070165;-0.010505;,
       0.011026;-0.078022;-0.010415;,
       0.011026;-0.079176;-0.013112;,
       0.011026;-0.069073;-0.013228;,
      -0.002210; 0.094499;-0.010691;,
       0.004634; 0.094488;-0.013308;,
       0.004634; 0.015202;-0.012963;,
      -0.002210; 0.015213;-0.010346;,
      -0.002210; 0.094578; 0.007396;,
      -0.004473; 0.094561; 0.003497;,
      -0.004473; 0.015275; 0.003842;,
      -0.002210; 0.015292; 0.007741;,
      -0.004473; 0.094514;-0.007341;,
      -0.002210; 0.094499;-0.010691;,
      -0.002210; 0.015213;-0.010346;,
      -0.004473; 0.015228;-0.006996;,
       0.004634; 0.094488;-0.013308;,
       0.011478; 0.094499;-0.010691;,
       0.011478; 0.015213;-0.010346;,
       0.004634; 0.015202;-0.012963;,
       0.011478; 0.094499;-0.010691;,
       0.013293; 0.094514;-0.007341;,
       0.013293; 0.015228;-0.006996;,
       0.011478; 0.015213;-0.010346;,
       0.013293; 0.094561; 0.003497;,
       0.011478; 0.094578; 0.007396;,
       0.011478; 0.015292; 0.007741;,
       0.013293; 0.015275; 0.003842;,
       0.004634; 0.094589; 0.009888;,
      -0.002210; 0.094578; 0.007396;,
      -0.002210; 0.015292; 0.007741;,
       0.004634; 0.015303; 0.010233;,
       0.011478; 0.094578; 0.007396;,
       0.004634; 0.094589; 0.009888;,
       0.004634; 0.015303; 0.010233;,
       0.011478; 0.015292; 0.007741;,
       0.013293; 0.094514;-0.007341;,
       0.013293; 0.094561; 0.003497;,
       0.013293; 0.015275; 0.003842;,
       0.013293; 0.015228;-0.006996;,
      -0.004473; 0.094561; 0.003497;,
      -0.004473; 0.094514;-0.007341;,
      -0.004473; 0.015228;-0.006996;,
      -0.004473; 0.015275; 0.003842;;
      176;
      4;0,1,2,3;,
      4;4,5,6,7;,
      4;8,9,10,11;,
      4;12,13,14,15;,
      4;16,17,18,19;,
      4;20,21,22,23;,
      4;24,25,26,27;,
      4;28,29,30,31;,
      4;32,33,34,35;,
      4;36,37,38,39;,
      4;40,41,42,43;,
      4;44,45,46,47;,
      4;48,49,50,51;,
      4;52,53,54,55;,
      4;56,57,58,59;,
      4;60,61,62,63;,
      4;64,65,66,67;,
      4;68,69,70,71;,
      4;72,73,74,75;,
      4;76,77,78,79;,
      4;80,81,82,83;,
      4;84,85,86,87;,
      4;88,89,90,91;,
      4;92,93,94,95;,
      4;96,97,98,99;,
      4;100,101,102,103;,
      4;104,105,106,107;,
      4;108,109,110,111;,
      4;112,113,114,115;,
      4;116,117,118,119;,
      4;120,121,122,123;,
      4;124,125,126,127;,
      4;128,129,130,131;,
      4;132,133,134,135;,
      4;136,137,138,139;,
      4;140,141,142,143;,
      4;144,145,146,147;,
      4;148,149,150,151;,
      4;152,153,154,155;,
      4;156,157,158,159;,
      4;160,161,162,163;,
      4;164,165,166,167;,
      4;168,169,170,171;,
      4;172,173,174,175;,
      4;176,177,178,179;,
      4;180,181,182,183;,
      4;184,185,186,187;,
      4;188,189,190,191;,
      4;192,193,194,195;,
      4;196,197,198,199;,
      4;200,201,202,203;,
      4;204,205,206,207;,
      3;208,209,210;,
      3;211,212,213;,
      4;214,215,216,217;,
      4;218,219,220,221;,
      4;222,223,224,225;,
      3;226,227,228;,
      4;229,230,231,232;,
      3;233,234,235;,
      4;236,237,238,239;,
      3;240,241,242;,
      3;243,244,245;,
      3;246,247,248;,
      3;249,250,251;,
      3;252,253,254;,
      3;255,256,257;,
      4;258,259,260,261;,
      4;262,263,264,265;,
      4;266,267,268,269;,
      4;270,271,272,273;,
      4;274,275,276,277;,
      4;278,279,280,281;,
      4;282,283,284,285;,
      4;286,287,288,289;,
      4;290,291,292,293;,
      4;294,295,296,297;,
      3;298,299,300;,
      4;301,302,303,304;,
      3;305,306,307;,
      4;308,309,310,311;,
      4;312,313,314,315;,
      4;316,317,318,319;,
      4;320,321,322,323;,
      4;324,325,326,327;,
      4;328,329,330,331;,
      4;332,333,334,335;,
      5;336,337,338,339,340;,
      4;341,342,343,344;,
      5;345,346,347,348,349;,
      4;350,351,352,353;,
      4;354,355,356,357;,
      4;358,359,360,361;,
      4;362,363,364,365;,
      3;366,367,368;,
      3;369,370,371;,
      4;372,373,374,375;,
      4;376,377,378,379;,
      4;380,381,382,383;,
      4;384,385,386,387;,
      4;388,389,390,391;,
      4;392,393,394,395;,
      4;396,397,398,399;,
      4;400,401,402,403;,
      3;404,405,406;,
      3;407,408,409;,
      3;410,411,412;,
      3;413,414,415;,
      4;416,417,418,419;,
      4;420,421,422,423;,
      4;424,425,426,427;,
      3;428,429,430;,
      3;431,432,433;,
      4;434,435,436,437;,
      4;438,439,440,441;,
      4;442,443,444,445;,
      3;446,447,448;,
      4;449,450,451,452;,
      4;453,454,455,456;,
      3;457,458,459;,
      3;460,461,462;,
      3;463,464,465;,
      3;466,467,468;,
      3;469,470,471;,
      4;472,473,474,475;,
      4;476,477,478,479;,
      4;480,481,482,483;,
      4;484,485,486,487;,
      4;488,489,490,491;,
      4;492,493,494,495;,
      4;496,497,498,499;,
      4;500,501,502,503;,
      4;504,505,506,507;,
      4;508,509,510,511;,
      4;512,513,514,515;,
      4;516,517,518,519;,
      4;520,521,522,523;,
      4;524,525,526,527;,
      4;528,529,530,531;,
      4;532,533,534,535;,
      4;536,537,538,539;,
      4;540,541,542,543;,
      4;544,545,546,547;,
      4;548,549,550,551;,
      4;552,553,554,555;,
      4;556,557,558,559;,
      4;560,561,562,563;,
      4;564,565,566,567;,
      4;568,569,570,571;,
      4;572,573,574,575;,
      4;576,577,578,579;,
      4;580,581,582,583;,
      4;584,585,586,587;,
      4;588,589,590,591;,
      4;592,593,594,595;,
      4;596,597,598,599;,
      4;600,601,602,603;,
      4;604,605,606,607;,
      4;608,609,610,611;,
      4;612,613,614,615;,
      4;616,617,618,619;,
      4;620,621,622,623;,
      4;624,625,626,627;,
      4;628,629,630,631;,
      4;632,633,634,635;,
      4;636,637,638,639;,
      4;640,641,642,643;,
      4;644,645,646,647;,
      4;648,649,650,651;,
      4;652,653,654,655;,
      4;656,657,658,659;,
      4;660,661,662,663;,
      4;664,665,666,667;,
      4;668,669,670,671;,
      4;672,673,674,675;,
      4;676,677,678,679;;
      MeshNormals {
        176;
        -0.997621; 0.068933;-0.000300;,
        -0.726770; 0.619363;-0.296978;,
         0.728589; 0.684945;-0.002981;,
        -0.856353; 0.010513; 0.516283;,
         0.985980; 0.006055; 0.166754;,
        -0.954228; 0.004842;-0.299042;,
         0.727534; 0.279562;-0.626529;,
         0.754315; 0.295204; 0.586399;,
         0.741336; 0.625428;-0.243433;,
         0.997795; 0.066370;-0.000289;,
        -0.994944; 0.100428;-0.000437;,
        -0.976262; 0.068014; 0.205640;,
         0.856353; 0.010578; 0.516283;,
        -0.832605; 0.005562;-0.553840;,
        -0.745002; 0.636281; 0.200297;,
         0.995314; 0.096694;-0.000421;,
         0.753686; 0.636966; 0.161962;,
        -0.756917; 0.284208; 0.588474;,
         0.969834; 0.004719;-0.243723;,
        -0.999988; 0.004861;-0.000021;,
         0.853194; 0.088451; 0.514039;,
         0.828924; 0.091859;-0.551767;,
         0.967245; 0.072189;-0.243365;,
        -0.951437; 0.075373;-0.298473;,
        -0.828978; 0.091168;-0.551800;,
        -0.853246; 0.087738; 0.514074;,
         0.983898; 0.065895; 0.166142;,
         0.993813; 0.111065;-0.000483;,
        -0.971955; 0.116082; 0.204522;,
        -0.844322; 0.169444; 0.508339;,
        -0.993315; 0.115434;-0.000502;,
        -0.823145; 0.148143;-0.548166;,
        -0.947401; 0.118262;-0.297397;,
         0.963623; 0.112075;-0.242630;,
         0.980116; 0.109753; 0.165311;,
         0.844178; 0.170436; 0.508247;,
         0.823021; 0.149117;-0.548088;,
        -0.991806; 0.127750;-0.000558;,
         0.816825; 0.191564;-0.544151;,
        -0.943666; 0.147195;-0.296360;,
        -0.816992; 0.190543;-0.544258;,
         0.992415; 0.122929;-0.000537;,
         0.960431; 0.137964;-0.241948;,
        -0.834264; 0.228001; 0.502015;,
         0.976738; 0.137416; 0.164622;,
         0.834060; 0.229028; 0.501887;,
        -0.967908; 0.147404; 0.203534;,
        -0.938275; 0.180911;-0.294808;,
        -0.828994; 0.253067; 0.498724;,
        -0.807218; 0.242815;-0.537997;,
         0.974550; 0.152615; 0.164197;,
         0.955977; 0.167482;-0.240952;,
         0.974813; 0.223024;-0.000973;,
        -0.972246; 0.233957;-0.001021;,
         0.828747; 0.254183; 0.498568;,
         0.806988; 0.243906;-0.537847;,
        -0.965401; 0.163755; 0.202944;,
        -0.722282; 0.495361;-0.482624;,
         1.000000;-0.000000; 0.000000;,
        -0.885755; 0.370850;-0.279121;,
        -1.000000; 0.000000; 0.000000;,
         0.912118; 0.338902;-0.230620;,
         0.722288; 0.495357;-0.482620;,
        -0.922463; 0.334283; 0.193175;,
        -0.735333; 0.514475; 0.441136;,
         0.735339; 0.514470; 0.441132;,
         0.938773; 0.306429; 0.157500;,
        -0.948496; 0.001379; 0.316786;,
        -0.895800;-0.001935;-0.444453;,
        -0.502379;-0.803610; 0.319103;,
        -0.716896; 0.697173;-0.003034;,
         1.000000; 0.000000; 0.000000;,
         1.000000;-0.000000; 0.000000;,
         0.965956; 0.001126; 0.258703;,
        -0.729868; 0.268875;-0.628489;,
        -1.000000; 0.000000; 0.000000;,
        -0.866295;-0.064456;-0.495357;,
        -0.298370;-0.485606; 0.821683;,
        -0.999331;-0.036567; 0.000159;,
         0.298370;-0.485606; 0.821683;,
         0.999376;-0.035313; 0.000154;,
         0.942441;-0.094227; 0.320822;,
         0.907664;-0.054154;-0.416189;,
        -0.481486;-0.815745;-0.320518;,
        -1.000000; 0.000000; 0.000000;,
         0.929160;-0.001609;-0.369673;,
         0.341753;-0.040563; 0.938914;,
         0.000001;-0.999991; 0.004353;,
        -0.341756;-0.040372; 0.938921;,
        -0.000001;-0.999991; 0.004353;,
         0.905874;-0.039274; 0.421722;,
         0.878504;-0.043722;-0.475731;,
         0.356845;-0.047504;-0.932955;,
        -0.914487;-0.114021; 0.388217;,
        -0.546504;-0.610829;-0.572906;,
        -0.347725;-0.232547;-0.908300;,
        -0.000001;-0.999991; 0.004353;,
         0.000000;-0.999991; 0.004353;,
        -0.000000;-0.999990; 0.004353;,
         0.000001;-0.999990; 0.004353;,
         0.832604; 0.005625;-0.553840;,
        -0.827870;-0.045194;-0.559097;,
        -0.864133;-0.040262; 0.501651;,
        -0.356848;-0.047305;-0.932964;,
         0.347725;-0.232547;-0.908300;,
         0.546504;-0.610829;-0.572906;,
         0.490817;-0.732496; 0.471751;,
        -0.490817;-0.732496; 0.471751;,
         0.816996;-0.319107; 0.480301;,
        -0.816996;-0.319107; 0.480301;,
         0.502379;-0.803610; 0.319103;,
         0.000000; 0.921142;-0.389226;,
         0.000000; 0.999883;-0.015294;,
        -1.000000; 0.000000;-0.000000;,
        -0.800453;-0.336031;-0.496345;,
         0.800453;-0.336031;-0.496345;,
        -0.008056; 0.999895;-0.012044;,
         1.000000; 0.000000;-0.000000;,
         0.481486;-0.815745;-0.320518;,
         0.008056; 0.999895;-0.012044;,
         0.007413; 0.999967; 0.003454;,
        -0.007413; 0.999967; 0.003454;,
         0.000000; 0.999980; 0.006390;,
         0.000000; 0.919688; 0.392651;,
         0.999989; 0.004695;-0.000020;,
        -0.978452; 0.006520; 0.206369;,
        -1.000000; 0.000000; 0.000001;,
        -0.207400; 0.699671; 0.683700;,
         0.207402; 0.699672; 0.683699;,
         1.000000;-0.000000;-0.000000;,
         0.000001; 0.698895;-0.715225;,
        -1.000000; 0.000001; 0.000000;,
        -0.207400; 0.978191;-0.011296;,
         0.207400; 0.978191;-0.011296;,
         1.000000;-0.000000; 0.000000;,
        -0.000000;-0.011544;-0.999933;,
        -1.000000;-0.000000; 0.000000;,
        -0.207402; 0.683701;-0.699669;,
         0.207402; 0.683701;-0.699669;,
         1.000000; 0.000000;-0.000000;,
        -0.000000;-0.715223;-0.698896;,
        -1.000000; 0.000000; 0.000000;,
        -0.207403;-0.011294;-0.978190;,
         0.207403;-0.011294;-0.978190;,
         1.000000;-0.000000;-0.000000;,
         0.000000;-0.999933; 0.011549;,
         0.000000;-0.698898; 0.715221;,
        -1.000000; 0.000000; 0.000000;,
        -0.207403;-0.699670;-0.683700;,
         0.207403;-0.699670;-0.683700;,
         1.000000;-0.000000;-0.000000;,
         0.000000; 0.011545; 0.999933;,
         0.000000; 0.715223; 0.698897;,
        -1.000000; 0.000000; 0.000000;,
        -0.207401;-0.978191; 0.011294;,
         0.207401;-0.978191; 0.011294;,
         1.000000;-0.000000;-0.000000;,
        -0.000000; 0.999933;-0.011545;,
        -1.000000;-0.000000; 0.000000;,
        -0.207404;-0.683699; 0.699671;,
         0.207404;-0.683699; 0.699670;,
         1.000000; 0.000000;-0.000000;,
        -1.000000; 0.000000; 0.000000;,
        -0.207402; 0.011294; 0.978190;,
         0.207403; 0.011293; 0.978190;,
         1.000000; 0.000000;-0.000000;,
        -0.357182;-0.004066;-0.934026;,
        -0.864912; 0.002185; 0.501918;,
        -0.828628;-0.002437;-0.559795;,
         0.357182;-0.004066;-0.934026;,
         0.879267;-0.002073;-0.476325;,
         0.906641; 0.001837; 0.421900;,
        -0.342095; 0.004090; 0.939657;,
         0.342095; 0.004090; 0.939657;,
         1.000000;-0.000000; 0.000000;,
        -1.000000; 0.000000; 0.000000;;
        176;
        4;0,0,0,0;,
        4;1,1,1,1;,
        4;2,2,2,2;,
        4;3,3,3,3;,
        4;4,4,4,4;,
        4;5,5,5,5;,
        4;6,6,6,6;,
        4;7,7,7,7;,
        4;8,8,8,8;,
        4;9,9,9,9;,
        4;10,10,10,10;,
        4;11,11,11,11;,
        4;12,12,12,12;,
        4;13,13,13,13;,
        4;14,14,14,14;,
        4;15,15,15,15;,
        4;16,16,16,16;,
        4;17,17,17,17;,
        4;18,18,18,18;,
        4;19,19,19,19;,
        4;20,20,20,20;,
        4;21,21,21,21;,
        4;22,22,22,22;,
        4;23,23,23,23;,
        4;24,24,24,24;,
        4;25,25,25,25;,
        4;26,26,26,26;,
        4;27,27,27,27;,
        4;28,28,28,28;,
        4;29,29,29,29;,
        4;30,30,30,30;,
        4;31,31,31,31;,
        4;32,32,32,32;,
        4;33,33,33,33;,
        4;34,34,34,34;,
        4;35,35,35,35;,
        4;36,36,36,36;,
        4;37,37,37,37;,
        4;38,38,38,38;,
        4;39,39,39,39;,
        4;40,40,40,40;,
        4;41,41,41,41;,
        4;42,42,42,42;,
        4;43,43,43,43;,
        4;44,44,44,44;,
        4;45,45,45,45;,
        4;46,46,46,46;,
        4;47,47,47,47;,
        4;48,48,48,48;,
        4;49,49,49,49;,
        4;50,50,50,50;,
        4;51,51,51,51;,
        3;52,52,52;,
        3;53,53,53;,
        4;54,54,54,54;,
        4;55,55,55,55;,
        4;56,56,56,56;,
        3;57,57,57;,
        4;58,58,58,58;,
        3;59,59,59;,
        4;60,60,60,60;,
        3;61,61,61;,
        3;62,62,62;,
        3;63,63,63;,
        3;64,64,64;,
        3;65,65,65;,
        3;66,66,66;,
        4;67,67,67,67;,
        4;68,68,68,68;,
        4;69,69,69,69;,
        4;70,70,70,70;,
        4;71,71,71,71;,
        4;72,72,72,72;,
        4;73,73,73,73;,
        4;74,74,74,74;,
        4;75,75,75,75;,
        4;76,76,76,76;,
        3;77,77,77;,
        4;78,78,78,78;,
        3;79,79,79;,
        4;80,80,80,80;,
        4;81,81,81,81;,
        4;82,82,82,82;,
        4;83,83,83,83;,
        4;84,84,84,84;,
        4;85,85,85,85;,
        4;86,86,86,86;,
        5;87,87,87,87,87;,
        4;88,88,88,88;,
        5;89,89,89,89,89;,
        4;90,90,90,90;,
        4;91,91,91,91;,
        4;92,92,92,92;,
        4;93,93,93,93;,
        3;94,94,94;,
        3;95,95,95;,
        4;96,96,96,96;,
        4;97,97,97,97;,
        4;98,98,98,98;,
        4;99,99,99,99;,
        4;100,100,100,100;,
        4;101,101,101,101;,
        4;102,102,102,102;,
        4;103,103,103,103;,
        3;104,104,104;,
        3;105,105,105;,
        3;106,106,106;,
        3;107,107,107;,
        4;108,108,108,108;,
        4;109,109,109,109;,
        4;110,110,110,110;,
        3;111,111,111;,
        3;112,112,112;,
        4;113,113,113,113;,
        4;114,114,114,114;,
        4;115,115,115,115;,
        3;116,116,116;,
        4;117,117,117,117;,
        4;118,118,118,118;,
        3;119,119,119;,
        3;120,120,120;,
        3;121,121,121;,
        3;122,122,122;,
        3;123,123,123;,
        4;124,124,124,124;,
        4;125,125,125,125;,
        4;126,126,126,126;,
        4;127,127,127,127;,
        4;128,128,128,128;,
        4;129,129,129,129;,
        4;130,130,130,130;,
        4;131,131,131,131;,
        4;132,132,132,132;,
        4;133,133,133,133;,
        4;134,134,134,134;,
        4;135,135,135,135;,
        4;136,136,136,136;,
        4;137,137,137,137;,
        4;138,138,138,138;,
        4;139,139,139,139;,
        4;140,140,140,140;,
        4;141,141,141,141;,
        4;142,142,142,142;,
        4;143,143,143,143;,
        4;144,144,144,144;,
        4;145,145,145,145;,
        4;146,146,146,146;,
        4;147,147,147,147;,
        4;148,148,148,148;,
        4;149,149,149,149;,
        4;150,150,150,150;,
        4;151,151,151,151;,
        4;152,152,152,152;,
        4;153,153,153,153;,
        4;154,154,154,154;,
        4;155,155,155,155;,
        4;156,156,156,156;,
        4;157,157,157,157;,
        4;158,158,158,158;,
        4;159,159,159,159;,
        4;160,160,160,160;,
        4;161,161,161,161;,
        4;162,162,162,162;,
        4;163,163,163,163;,
        4;164,164,164,164;,
        4;165,165,165,165;,
        4;166,166,166,166;,
        4;167,167,167,167;,
        4;168,168,168,168;,
        4;169,169,169,169;,
        4;170,170,170,170;,
        4;171,171,171,171;,
        4;172,172,172,172;,
        4;173,173,173,173;,
        4;174,174,174,174;,
        4;175,175,175,175;;
      }
      MeshTextureCoords {
        680;
         0.323127; 0.061235;,
         0.332973; 0.062241;,
         0.334931; 0.043427;,
         0.325742; 0.042488;,
         0.253922; 0.722591;,
         0.247314; 0.721788;,
         0.246568; 0.727072;,
         0.253134; 0.727949;,
         0.093286; 0.275953;,
         0.092749; 0.270626;,
         0.076720; 0.272224;,
         0.077311; 0.277546;,
         0.339194; 0.062796;,
         0.279959; 0.725121;,
         0.290838; 0.725840;,
         0.345908; 0.063240;,
         0.162501; 0.937700;,
         0.103292; 0.275042;,
         0.093286; 0.275953;,
         0.156326; 0.938263;,
         0.319049; 0.060740;,
         0.247314; 0.721788;,
         0.253922; 0.722591;,
         0.323127; 0.061235;,
         0.061102; 0.279577;,
         0.070608; 0.278301;,
         0.070006; 0.273033;,
         0.060512; 0.274500;,
         0.103292; 0.275042;,
         0.113933; 0.274309;,
         0.113521; 0.269213;,
         0.102801; 0.269762;,
         0.070608; 0.278301;,
         0.077311; 0.277546;,
         0.076720; 0.272224;,
         0.070006; 0.273033;,
         0.156326; 0.938263;,
         0.146468; 0.939245;,
         0.149035; 0.957994;,
         0.158236; 0.957077;,
         0.325742; 0.042488;,
         0.334931; 0.043427;,
         0.335308; 0.025341;,
         0.329043; 0.024702;,
         0.332973; 0.062241;,
         0.339194; 0.062796;,
         0.339601; 0.043842;,
         0.334931; 0.043427;,
         0.169068; 0.937248;,
         0.113933; 0.274309;,
         0.103292; 0.275042;,
         0.162501; 0.937700;,
         0.313346; 0.059916;,
         0.238072; 0.720453;,
         0.247314; 0.721788;,
         0.319049; 0.060740;,
         0.279959; 0.725121;,
         0.269876; 0.724220;,
         0.269144; 0.729584;,
         0.279323; 0.730417;,
         0.158236; 0.957077;,
         0.149035; 0.957994;,
         0.152268; 0.975780;,
         0.158541; 0.975155;,
         0.093286; 0.275953;,
         0.103292; 0.275042;,
         0.102801; 0.269762;,
         0.092749; 0.270626;,
         0.290838; 0.725840;,
         0.279959; 0.725121;,
         0.279323; 0.730417;,
         0.290429; 0.730928;,
         0.146468; 0.939245;,
         0.077311; 0.277546;,
         0.070608; 0.278301;,
         0.142332; 0.939711;,
         0.323127; 0.061235;,
         0.253922; 0.722591;,
         0.269876; 0.724220;,
         0.332973; 0.062241;,
         0.169068; 0.937248;,
         0.162501; 0.937700;,
         0.162870; 0.956656;,
         0.167798; 0.956316;,
         0.142332; 0.939711;,
         0.136466; 0.940498;,
         0.141529; 0.958935;,
         0.145931; 0.958344;,
         0.146468; 0.939245;,
         0.142332; 0.939711;,
         0.145931; 0.958344;,
         0.149035; 0.957994;,
         0.319049; 0.060740;,
         0.323127; 0.061235;,
         0.325742; 0.042488;,
         0.322682; 0.042116;,
         0.313346; 0.059916;,
         0.319049; 0.060740;,
         0.322682; 0.042116;,
         0.318402; 0.041498;,
         0.339194; 0.062796;,
         0.345908; 0.063240;,
         0.344639; 0.044176;,
         0.339601; 0.043842;,
         0.162501; 0.937700;,
         0.156326; 0.938263;,
         0.158236; 0.957077;,
         0.162870; 0.956656;,
         0.152268; 0.975780;,
         0.154449; 0.985104;,
         0.157919; 0.984756;,
         0.158541; 0.975155;,
         0.334931; 0.043427;,
         0.339601; 0.043842;,
         0.337820; 0.025564;,
         0.335308; 0.025341;,
         0.339601; 0.043842;,
         0.344639; 0.044176;,
         0.340531; 0.025743;,
         0.337820; 0.025564;,
         0.335308; 0.025341;,
         0.334731; 0.015732;,
         0.331264; 0.015377;,
         0.329043; 0.024702;,
         0.318402; 0.041498;,
         0.322682; 0.042116;,
         0.327397; 0.024502;,
         0.325094; 0.024168;,
         0.322682; 0.042116;,
         0.325742; 0.042488;,
         0.329043; 0.024702;,
         0.327397; 0.024502;,
         0.149035; 0.957994;,
         0.145931; 0.958344;,
         0.150598; 0.975969;,
         0.152268; 0.975780;,
         0.162870; 0.956656;,
         0.158236; 0.957077;,
         0.158541; 0.975155;,
         0.161034; 0.974928;,
         0.167798; 0.956316;,
         0.162870; 0.956656;,
         0.161034; 0.974928;,
         0.163685; 0.974745;,
         0.145931; 0.958344;,
         0.141529; 0.958935;,
         0.148230; 0.976286;,
         0.150598; 0.975969;,
         0.331264; 0.015377;,
         0.334731; 0.015732;,
         0.334216; 0.009394;,
         0.333208; 0.009291;,
         0.150598; 0.975969;,
         0.148230; 0.976286;,
         0.152511; 0.985346;,
         0.153647; 0.985193;,
         0.327397; 0.024502;,
         0.329043; 0.024702;,
         0.331264; 0.015377;,
         0.330475; 0.015282;,
         0.325094; 0.024168;,
         0.327397; 0.024502;,
         0.330475; 0.015282;,
         0.329370; 0.015121;,
         0.157919; 0.984756;,
         0.154449; 0.985104;,
         0.156362; 0.991190;,
         0.157372; 0.991091;,
         0.152268; 0.975780;,
         0.150598; 0.975969;,
         0.153647; 0.985193;,
         0.154449; 0.985104;,
         0.337820; 0.025564;,
         0.340531; 0.025743;,
         0.337236; 0.015924;,
         0.335936; 0.015839;,
         0.161034; 0.974928;,
         0.158541; 0.975155;,
         0.157919; 0.984756;,
         0.159115; 0.984648;,
         0.163685; 0.974745;,
         0.161034; 0.974928;,
         0.159115; 0.984648;,
         0.160387; 0.984560;,
         0.335308; 0.025341;,
         0.337820; 0.025564;,
         0.335936; 0.015839;,
         0.334731; 0.015732;,
         0.330475; 0.015282;,
         0.331264; 0.015377;,
         0.333208; 0.009291;,
         0.333042; 0.009270;,
         0.335936; 0.015839;,
         0.337236; 0.015924;,
         0.334741; 0.009434;,
         0.334468; 0.009415;,
         0.329370; 0.015121;,
         0.330475; 0.015282;,
         0.333042; 0.009270;,
         0.332811; 0.009237;,
         0.159115; 0.984648;,
         0.157919; 0.984756;,
         0.157372; 0.991091;,
         0.157622; 0.991068;,
         0.154449; 0.985104;,
         0.153647; 0.985193;,
         0.156194; 0.991209;,
         0.156362; 0.991190;,
         0.157372; 0.991091;,
         0.156362; 0.991190;,
         0.156957; 0.992031;,
         0.334216; 0.009394;,
         0.333810; 0.008450;,
         0.333208; 0.009291;,
         0.160387; 0.984560;,
         0.159115; 0.984648;,
         0.157622; 0.991068;,
         0.157888; 0.991049;,
         0.153647; 0.985193;,
         0.152511; 0.985346;,
         0.155956; 0.991241;,
         0.156194; 0.991209;,
         0.334731; 0.015732;,
         0.335936; 0.015839;,
         0.334468; 0.009415;,
         0.334216; 0.009394;,
         0.332811; 0.009237;,
         0.333042; 0.009270;,
         0.333810; 0.008450;,
         0.076720; 0.272224;,
         0.092749; 0.270626;,
         0.090615; 0.249155;,
         0.074586; 0.250753;,
         0.333208; 0.009291;,
         0.333810; 0.008450;,
         0.333042; 0.009270;,
         0.269144; 0.729584;,
         0.253134; 0.727949;,
         0.251003; 0.749409;,
         0.267012; 0.751043;,
         0.156194; 0.991209;,
         0.156957; 0.992031;,
         0.156362; 0.991190;,
         0.156957; 0.992031;,
         0.156194; 0.991209;,
         0.155956; 0.991241;,
         0.334468; 0.009415;,
         0.333810; 0.008450;,
         0.334216; 0.009394;,
         0.334741; 0.009434;,
         0.333810; 0.008450;,
         0.334468; 0.009415;,
         0.157622; 0.991068;,
         0.156957; 0.992031;,
         0.157888; 0.991049;,
         0.157372; 0.991091;,
         0.156957; 0.992031;,
         0.157622; 0.991068;,
         0.279323; 0.730417;,
         0.269144; 0.729584;,
         0.267012; 0.751043;,
         0.277191; 0.751877;,
         0.253134; 0.727949;,
         0.246568; 0.727072;,
         0.244436; 0.748533;,
         0.251003; 0.749409;,
         0.398128; 0.627751;,
         0.408301; 0.617095;,
         0.408301; 0.581192;,
         0.398128; 0.591837;,
         0.269876; 0.724220;,
         0.253922; 0.722591;,
         0.253134; 0.727949;,
         0.269144; 0.729584;,
         0.100667; 0.248289;,
         0.102801; 0.269762;,
         0.138525; 0.266476;,
         0.137968; 0.260866;,
         0.074586; 0.250753;,
         0.090615; 0.249155;,
         0.089908; 0.242037;,
         0.073879; 0.243635;,
         0.092749; 0.270626;,
         0.102801; 0.269762;,
         0.100667; 0.248289;,
         0.090615; 0.249155;,
         0.247314; 0.721788;,
         0.238072; 0.720453;,
         0.237484; 0.725523;,
         0.246568; 0.727072;,
         0.267012; 0.751043;,
         0.251003; 0.749409;,
         0.250296; 0.756521;,
         0.266305; 0.758156;,
         0.251003; 0.749409;,
         0.244436; 0.748533;,
         0.245519; 0.755829;,
         0.250296; 0.756521;,
         0.418473; 0.984827;,
         0.408301; 0.984865;,
         0.418473; 0.992031;,
         0.254678; 0.875208;,
         0.238669; 0.873573;,
         0.229872; 0.990650;,
         0.240742; 0.991760;,
         0.408301; 0.984865;,
         0.398128; 0.984827;,
         0.398128; 0.992031;,
         0.062239; 0.126520;,
         0.078267; 0.124922;,
         0.064144; 0.008268;,
         0.053260; 0.009354;,
         0.090615; 0.249155;,
         0.100667; 0.248289;,
         0.095706; 0.241596;,
         0.089908; 0.242037;,
         0.067872; 0.251560;,
         0.074586; 0.250753;,
         0.073879; 0.243635;,
         0.068956; 0.244265;,
         0.444584; 0.956716;,
         0.434411; 0.947057;,
         0.434411; 0.982362;,
         0.444584; 0.992031;,
         0.244436; 0.748533;,
         0.246568; 0.727072;,
         0.211469; 0.723213;,
         0.210912; 0.728821;,
         0.070006; 0.273033;,
         0.076720; 0.272224;,
         0.074586; 0.250753;,
         0.067872; 0.251560;,
         0.398128; 0.866987;,
         0.408301; 0.867025;,
         0.408334; 0.749130;,
         0.401426; 0.749105;,
         0.361845; 0.554960;,
         0.361845; 0.565897;,
         0.364129; 0.569278;,
         0.364129; 0.560561;,
         0.364129; 0.551024;,
         0.408301; 0.867025;,
         0.418473; 0.866987;,
         0.415241; 0.749105;,
         0.408334; 0.749130;,
         0.377944; 0.551024;,
         0.377944; 0.560561;,
         0.377944; 0.569278;,
         0.379775; 0.565897;,
         0.379775; 0.554960;,
         0.078267; 0.124922;,
         0.084065; 0.124481;,
         0.068080; 0.007969;,
         0.064144; 0.008268;,
         0.057315; 0.127150;,
         0.062239; 0.126520;,
         0.053260; 0.009354;,
         0.049917; 0.009779;,
         0.372018; 0.873907;,
         0.361845; 0.874166;,
         0.365143; 0.992031;,
         0.372051; 0.991856;,
         0.277191; 0.751877;,
         0.267012; 0.751043;,
         0.266305; 0.758156;,
         0.272236; 0.758556;,
         0.382191; 0.749315;,
         0.372018; 0.748674;,
         0.372018; 0.756323;,
         0.382191; 0.756580;,
         0.382191; 0.749315;,
         0.372018; 0.756323;,
         0.364129; 0.560561;,
         0.364129; 0.569278;,
         0.371036; 0.571920;,
         0.371036; 0.560561;,
         0.364129; 0.551024;,
         0.364129; 0.560561;,
         0.371036; 0.560561;,
         0.371036; 0.548509;,
         0.371036; 0.548509;,
         0.371036; 0.560561;,
         0.377944; 0.560561;,
         0.377944; 0.551024;,
         0.371036; 0.560561;,
         0.371036; 0.571920;,
         0.377944; 0.569278;,
         0.377944; 0.560561;,
         0.142332; 0.939711;,
         0.070608; 0.278301;,
         0.061102; 0.279577;,
         0.136466; 0.940498;,
         0.238669; 0.873573;,
         0.233892; 0.872881;,
         0.226628; 0.990179;,
         0.229872; 0.990650;,
         0.260609; 0.875608;,
         0.254678; 0.875208;,
         0.240742; 0.991760;,
         0.244769; 0.992031;,
         0.382191; 0.874166;,
         0.372018; 0.873907;,
         0.372051; 0.991856;,
         0.378958; 0.992031;,
         0.361845; 0.756580;,
         0.372018; 0.756323;,
         0.361845; 0.749315;,
         0.361845; 0.749315;,
         0.372018; 0.756323;,
         0.372018; 0.748674;,
         0.408301; 0.617095;,
         0.408301; 0.628339;,
         0.418473; 0.627751;,
         0.398128; 0.627751;,
         0.408301; 0.628339;,
         0.408301; 0.617095;,
         0.138525; 0.266476;,
         0.169068; 0.276251;,
         0.148259; 0.256002;,
         0.137968; 0.260866;,
         0.345908; 0.724018;,
         0.315003; 0.733782;,
         0.314446; 0.739389;,
         0.325124; 0.744215;,
         0.408301; 0.617095;,
         0.418473; 0.627751;,
         0.418473; 0.591837;,
         0.408301; 0.581192;,
         0.372018; 0.732738;,
         0.382191; 0.703366;,
         0.361845; 0.703366;,
         0.382191; 0.703366;,
         0.372018; 0.678146;,
         0.361845; 0.703366;,
         0.279323; 0.730417;,
         0.277191; 0.751877;,
         0.314446; 0.739389;,
         0.315003; 0.733782;,
         0.211469; 0.723213;,
         0.185005; 0.707592;,
         0.201400; 0.731583;,
         0.210912; 0.728821;,
         0.007968; 0.292316;,
         0.034864; 0.276814;,
         0.034307; 0.271204;,
         0.024383; 0.268356;,
         0.372018; 0.678146;,
         0.382191; 0.703366;,
         0.382191; 0.667490;,
         0.070006; 0.273033;,
         0.067872; 0.251560;,
         0.034307; 0.271204;,
         0.034864; 0.276814;,
         0.454756; 0.947057;,
         0.444584; 0.956716;,
         0.444584; 0.992031;,
         0.454756; 0.982362;,
         0.361845; 0.667490;,
         0.361845; 0.703366;,
         0.372018; 0.678146;,
         0.372018; 0.597516;,
         0.382191; 0.623200;,
         0.382191; 0.587857;,
         0.361845; 0.587857;,
         0.361845; 0.623200;,
         0.372018; 0.597516;,
         0.382191; 0.623200;,
         0.372018; 0.597516;,
         0.361845; 0.623200;,
         0.372018; 0.651553;,
         0.382191; 0.623200;,
         0.361845; 0.623200;,
         0.156326; 0.938263;,
         0.093286; 0.275953;,
         0.077311; 0.277546;,
         0.146468; 0.939245;,
         0.332973; 0.062241;,
         0.269876; 0.724220;,
         0.279959; 0.725121;,
         0.339194; 0.062796;,
         0.398129; 0.654886;,
         0.398129; 0.669901;,
         0.402145; 0.668236;,
         0.402145; 0.656557;,
         0.453411; 0.878928;,
         0.453411; 0.870617;,
         0.443911; 0.869796;,
         0.443911; 0.876919;,
         0.443911; 0.876919;,
         0.443911; 0.869796;,
         0.434411; 0.870617;,
         0.434411; 0.878928;,
         0.422064; 0.700511;,
         0.430313; 0.708773;,
         0.434336; 0.707106;,
         0.423731; 0.696483;,
         0.434411; 0.905417;,
         0.453411; 0.905417;,
         0.453411; 0.894865;,
         0.434411; 0.894865;,
         0.398129; 0.669901;,
         0.408718; 0.680529;,
         0.410381; 0.676502;,
         0.402145; 0.668236;,
         0.453411; 0.870617;,
         0.453411; 0.858938;,
         0.443911; 0.859784;,
         0.443911; 0.869796;,
         0.443911; 0.869796;,
         0.443911; 0.859784;,
         0.434411; 0.858938;,
         0.434411; 0.870617;,
         0.430313; 0.708773;,
         0.430313; 0.720452;,
         0.434336; 0.722122;,
         0.434336; 0.707106;,
         0.453411; 0.808575;,
         0.434411; 0.808575;,
         0.434411; 0.823566;,
         0.453411; 0.823566;,
         0.408718; 0.680529;,
         0.423693; 0.680540;,
         0.422028; 0.676512;,
         0.410381; 0.676502;,
         0.453411; 0.858938;,
         0.453411; 0.850731;,
         0.443911; 0.852750;,
         0.443911; 0.859784;,
         0.443911; 0.859784;,
         0.443911; 0.852750;,
         0.434411; 0.850731;,
         0.434411; 0.858938;,
         0.430313; 0.720452;,
         0.422064; 0.728708;,
         0.423731; 0.732737;,
         0.434336; 0.722122;,
         0.453411; 0.834793;,
         0.453411; 0.823566;,
         0.434411; 0.823566;,
         0.434411; 0.834793;,
         0.423693; 0.680540;,
         0.434282; 0.669931;,
         0.430264; 0.668259;,
         0.422028; 0.676512;,
         0.434411; 0.607948;,
         0.434411; 0.619608;,
         0.443911; 0.618893;,
         0.443911; 0.608900;,
         0.443911; 0.608900;,
         0.443911; 0.618893;,
         0.453411; 0.619608;,
         0.453411; 0.607948;,
         0.422064; 0.728708;,
         0.410400; 0.728704;,
         0.408733; 0.732732;,
         0.423731; 0.732737;,
         0.413145; 0.546254;,
         0.398128; 0.546254;,
         0.398128; 0.565255;,
         0.413145; 0.565255;,
         0.453411; 0.766821;,
         0.434411; 0.766821;,
         0.434411; 0.777622;,
         0.453411; 0.777622;,
         0.434282; 0.669931;,
         0.434282; 0.654915;,
         0.430264; 0.656580;,
         0.430264; 0.668259;,
         0.434411; 0.619608;,
         0.434411; 0.628340;,
         0.443911; 0.626379;,
         0.443911; 0.618893;,
         0.443911; 0.618893;,
         0.443911; 0.626379;,
         0.453411; 0.628340;,
         0.453411; 0.619608;,
         0.410400; 0.728704;,
         0.402151; 0.720443;,
         0.398129; 0.722110;,
         0.408733; 0.732732;,
         0.453411; 0.792637;,
         0.453411; 0.777622;,
         0.434411; 0.777622;,
         0.434411; 0.792637;,
         0.453411; 0.931119;,
         0.453411; 0.920434;,
         0.434411; 0.920434;,
         0.434411; 0.931119;,
         0.434282; 0.654915;,
         0.423693; 0.644287;,
         0.422028; 0.648315;,
         0.430264; 0.656580;,
         0.461898; 0.661541;,
         0.450218; 0.661541;,
         0.451062; 0.671041;,
         0.461074; 0.671041;,
         0.461074; 0.671041;,
         0.451062; 0.671041;,
         0.450218; 0.680541;,
         0.461898; 0.680541;,
         0.402151; 0.720443;,
         0.402151; 0.708763;,
         0.398129; 0.707093;,
         0.398129; 0.722110;,
         0.434411; 0.920434;,
         0.453411; 0.920434;,
         0.453411; 0.905417;,
         0.434411; 0.905417;,
         0.423693; 0.644287;,
         0.408718; 0.644276;,
         0.410381; 0.648306;,
         0.422028; 0.648315;,
         0.453411; 0.592009;,
         0.453411; 0.583609;,
         0.443911; 0.582809;,
         0.443911; 0.590010;,
         0.443911; 0.590010;,
         0.443911; 0.582809;,
         0.434411; 0.583609;,
         0.434411; 0.592009;,
         0.402151; 0.708763;,
         0.410400; 0.700507;,
         0.408733; 0.696478;,
         0.398129; 0.707093;,
         0.408718; 0.644276;,
         0.398129; 0.654886;,
         0.402145; 0.656557;,
         0.410381; 0.648306;,
         0.453411; 0.583609;,
         0.453411; 0.571930;,
         0.443911; 0.572800;,
         0.443911; 0.582809;,
         0.443911; 0.582809;,
         0.443911; 0.572800;,
         0.434411; 0.571930;,
         0.434411; 0.583609;,
         0.410400; 0.700507;,
         0.422064; 0.700511;,
         0.423731; 0.696483;,
         0.408733; 0.696478;,
         0.382191; 0.756580;,
         0.372018; 0.756323;,
         0.372018; 0.873907;,
         0.382191; 0.874166;,
         0.272236; 0.758556;,
         0.266305; 0.758156;,
         0.254678; 0.875208;,
         0.260609; 0.875608;,
         0.250296; 0.756521;,
         0.245519; 0.755829;,
         0.233892; 0.872881;,
         0.238669; 0.873573;,
         0.372018; 0.756323;,
         0.361845; 0.756580;,
         0.361845; 0.874166;,
         0.372018; 0.873907;,
         0.068956; 0.244265;,
         0.073879; 0.243635;,
         0.062239; 0.126520;,
         0.057315; 0.127150;,
         0.089908; 0.242037;,
         0.095706; 0.241596;,
         0.084065; 0.124481;,
         0.078267; 0.124922;,
         0.408301; 0.984865;,
         0.418473; 0.984827;,
         0.418473; 0.866987;,
         0.408301; 0.867025;,
         0.398128; 0.984827;,
         0.408301; 0.984865;,
         0.408301; 0.867025;,
         0.398128; 0.866987;,
         0.073879; 0.243635;,
         0.089908; 0.242037;,
         0.078267; 0.124922;,
         0.062239; 0.126520;,
         0.266305; 0.758156;,
         0.250296; 0.756521;,
         0.238669; 0.873573;,
         0.254678; 0.875208;;
      }
      MeshMaterialList {
        1;
        176;
        0,
        0,
        0,
        0,
        0,
        0,
        0,
        0,
        0,
        0,
        0,
        0,
        0,
        0,
        0,
        0,
        0,
        0,
        0,
        0,
        0,
        0,
        0,
        0,
        0,
        0,
        0,
        0,
        0,
        0,
        0,
        0,
        0,
        0,
        0,
        0,
        0,
        0,
        0,
        0,
        0,
        0,
        0,
        0,
        0,
        0,
        0,
        0,
        0,
        0,
        0,
        0,
        0,
        0,
        0,
        0,
        0,
        0,
        0,
        0,
        0,
        0,
        0,
        0,
        0,
        0,
        0,
        0,
        0,
        0,
        0,
        0,
        0,
        0,
        0,
        0,
        0,
        0,
        0,
        0,
        0,
        0,
        0,
        0,
        0,
        0,
        0,
        0,
        0,
        0,
        0,
        0,
        0,
        0,
        0,
        0,
        0,
        0,
        0,
        0,
        0,
        0,
        0,
        0,
        0,
        0,
        0,
        0,
        0,
        0,
        0,
        0,
        0,
        0,
        0,
        0,
        0,
        0,
        0,
        0,
        0,
        0,
        0,
        0,
        0,
        0,
        0,
        0,
        0,
        0,
        0,
        0,
        0,
        0,
        0,
        0,
        0,
        0,
        0,
        0,
        0,
        0,
        0,
        0,
        0,
        0,
        0,
        0,
        0,
        0,
        0,
        0,
        0,
        0,
        0,
        0,
        0,
        0,
        0,
        0,
        0,
        0,
        0,
        0,
        0,
        0,
        0,
        0,
        0,
        0,
        0,
        0,
        0,
        0,
        0,
        0;
        Material Material_001 {
           0.800000; 0.800000; 0.800000; 1.000000;;
           323.999994;
           0.500000; 0.500000; 0.500000;;
           0.000000; 0.000000; 0.000000;;
          TextureFilename {"Sword.png";}
        }
      }
    }
  }
}
