xof 0303txt 0032

Frame Root {
  FrameTransformMatrix {
     1.000000, 0.000000, 0.000000, 0.000000,
     0.000000,-0.000000, 1.000000, 0.000000,
     0.000000, 1.000000, 0.000000, 0.000000,
     0.000000, 0.000000, 0.000000, 1.000000;;
  }
  Frame Cube_001 {
    FrameTransformMatrix {
       1.000000, 0.000000, 0.000000, 0.000000,
       0.000000, 1.000000, 0.000000, 0.000000,
       0.000000, 0.000000, 1.000000, 0.000000,
       0.000000, 0.000000, 0.000000, 1.000000;;
    }
    Mesh { // Cube_001 mesh
      544;
      -0.015790; 0.000071;-0.041924;,
      -0.014931; 0.000232;-0.006685;,
      -0.013447; 0.013800;-0.001258;,
      -0.014803; 0.014980;-0.033582;,
       0.000000; 0.017880;-0.058509;,
       0.000000; 0.017248;-0.022689;,
       0.013447; 0.013800;-0.001258;,
       0.014803; 0.014980;-0.033582;,
       0.015790; 0.000071;-0.041924;,
       0.014931; 0.000232;-0.006685;,
       0.013447;-0.013213;-0.001258;,
       0.014803;-0.014809;-0.033582;,
       0.000000;-0.015463;-0.058509;,
       0.000000;-0.014301;-0.022689;,
      -0.013447;-0.013213;-0.001258;,
      -0.014803;-0.014809;-0.033582;,
       0.000000; 0.001226;-0.070203;,
       0.015790; 0.000071;-0.041924;,
       0.014803;-0.014809;-0.033582;,
       0.000000;-0.015463;-0.058509;,
      -0.014931; 0.000232;-0.006685;,
      -0.013447;-0.013213;-0.001258;,
      -0.013141;-0.009253; 0.051943;,
      -0.014609; 0.004007; 0.048319;,
       0.000000; 0.020891; 0.035412;,
      -0.013141; 0.017147; 0.051943;,
      -0.010801; 0.018585; 0.117111;,
       0.000000; 0.022249; 0.106591;,
       0.000000;-0.014301;-0.022689;,
       0.013447;-0.013213;-0.001258;,
       0.013141;-0.009253; 0.051943;,
       0.000000;-0.009972; 0.035412;,
       0.000000; 0.017248;-0.022689;,
      -0.013447; 0.013800;-0.001258;,
      -0.013141; 0.017147; 0.051943;,
       0.000000; 0.020891; 0.035412;,
       0.014931; 0.000232;-0.006685;,
       0.013447; 0.013800;-0.001258;,
       0.013141; 0.017147; 0.051943;,
       0.014609; 0.004007; 0.048319;,
       0.011992; 0.007913; 0.115701;,
       0.010801; 0.018585; 0.117111;,
       0.009785; 0.011541; 0.186938;,
       0.010870; 0.001693; 0.187884;,
       0.014609; 0.004007; 0.048319;,
       0.013141; 0.017147; 0.051943;,
       0.010801; 0.018585; 0.117111;,
       0.011992; 0.007913; 0.115701;,
      -0.014609; 0.004007; 0.048319;,
      -0.013141;-0.009253; 0.051943;,
      -0.010801;-0.003112; 0.117111;,
      -0.011992; 0.007913; 0.115701;,
       0.000000;-0.009972; 0.035412;,
       0.013141;-0.009253; 0.051943;,
       0.010801;-0.003112; 0.117111;,
       0.000000;-0.003090; 0.106591;,
       0.000000;-0.008469; 0.182834;,
       0.009785;-0.008116; 0.186938;,
       0.009176;-0.015692; 0.241822;,
       0.000000;-0.016666; 0.242432;,
      -0.011992; 0.007913; 0.115701;,
      -0.010801;-0.003112; 0.117111;,
      -0.009785;-0.008116; 0.186938;,
      -0.010870; 0.001693; 0.187884;,
       0.000000;-0.003090; 0.106591;,
       0.010801;-0.003112; 0.117111;,
       0.009785;-0.008116; 0.186938;,
       0.000000;-0.008469; 0.182834;,
       0.000000; 0.022249; 0.106591;,
      -0.010801; 0.018585; 0.117111;,
      -0.009785; 0.011541; 0.186938;,
       0.000000; 0.014496; 0.182834;,
       0.010185;-0.006757; 0.244627;,
       0.009176; 0.002741; 0.241822;,
       0.010447; 0.007665; 0.273911;,
       0.011724;-0.003744; 0.277263;,
       0.000000; 0.014496; 0.182834;,
      -0.009785; 0.011541; 0.186938;,
      -0.009176; 0.002741; 0.241822;,
       0.000000; 0.004855; 0.242772;,
       0.010870; 0.001693; 0.187884;,
       0.009785; 0.011541; 0.186938;,
       0.009176; 0.002741; 0.241822;,
       0.010185;-0.006757; 0.244627;,
      -0.010870; 0.001693; 0.187884;,
      -0.009785;-0.008116; 0.186938;,
      -0.009176;-0.015692; 0.241822;,
      -0.010185;-0.006757; 0.244627;,
       0.011838;-0.003485; 0.310209;,
       0.011044; 0.007794; 0.304656;,
       0.010452; 0.007867; 0.336209;,
       0.011731;-0.003485; 0.343265;,
      -0.010185;-0.006757; 0.244627;,
      -0.009176;-0.015692; 0.241822;,
      -0.010804;-0.015145; 0.273375;,
      -0.011724;-0.003744; 0.277263;,
       0.000000;-0.016666; 0.242432;,
       0.009176;-0.015692; 0.241822;,
       0.010804;-0.015145; 0.273375;,
       0.000000;-0.016371; 0.270970;,
       0.000000; 0.004855; 0.242772;,
      -0.009176; 0.002741; 0.241822;,
      -0.010447; 0.007665; 0.273911;,
       0.000000; 0.010253; 0.276048;,
       0.000000;-0.016102; 0.349342;,
       0.010809;-0.014953; 0.336927;,
       0.009062;-0.012395; 0.366655;,
       0.000000;-0.012602; 0.379940;,
      -0.011838;-0.003485; 0.310209;,
      -0.011489;-0.015103; 0.304310;,
      -0.010809;-0.014953; 0.336927;,
      -0.011731;-0.003485; 0.343265;,
       0.011489;-0.015103; 0.304310;,
       0.010809;-0.014953; 0.336927;,
       0.012376;-0.033487; 0.334550;,
       0.013210;-0.033333; 0.300302;,
       0.000000; 0.010536; 0.348198;,
       0.010452; 0.007867; 0.336209;,
       0.006352; 0.016656; 0.322673;,
       0.000000; 0.019398; 0.332887;,
       0.000000;-0.002601; 0.391125;,
      -0.009599;-0.003422; 0.374910;,
      -0.009062;-0.012395; 0.366655;,
       0.000000;-0.012602; 0.379940;,
       0.000000; 0.010536; 0.348198;,
      -0.010452; 0.007867; 0.336209;,
      -0.009062; 0.005837; 0.366655;,
       0.000000; 0.007671; 0.379940;,
       0.011731;-0.003485; 0.343265;,
       0.010452; 0.007867; 0.336209;,
       0.009062; 0.005837; 0.366655;,
       0.009599;-0.003422; 0.374910;,
      -0.011731;-0.003485; 0.343265;,
      -0.010809;-0.014953; 0.336927;,
      -0.009062;-0.012395; 0.366655;,
      -0.009599;-0.003422; 0.374910;,
       0.000000;-0.035565; 0.277935;,
       0.012376;-0.033487; 0.281865;,
       0.012348;-0.061058; 0.282175;,
       0.000000;-0.065739; 0.278243;,
       0.000000;-0.016102; 0.349342;,
      -0.010809;-0.014953; 0.336927;,
      -0.012376;-0.033487; 0.334550;,
       0.000000;-0.035565; 0.348887;,
       0.000000;-0.016371; 0.270970;,
       0.010804;-0.015145; 0.273375;,
       0.012376;-0.033487; 0.281865;,
       0.000000;-0.035565; 0.277935;,
      -0.011489;-0.015103; 0.304310;,
      -0.010804;-0.015145; 0.273375;,
      -0.012376;-0.033487; 0.281865;,
      -0.013210;-0.033333; 0.300302;,
      -0.013181;-0.060688; 0.299956;,
      -0.012348;-0.061058; 0.282175;,
      -0.009914;-0.074521; 0.279374;,
      -0.010594;-0.074061; 0.299056;,
      -0.013210;-0.033333; 0.300302;,
      -0.012376;-0.033487; 0.281865;,
      -0.012348;-0.061058; 0.282175;,
      -0.013181;-0.060688; 0.299956;,
       0.000000;-0.035565; 0.348887;,
      -0.012376;-0.033487; 0.334550;,
      -0.012348;-0.061058; 0.333908;,
       0.000000;-0.065739; 0.348307;,
       0.013210;-0.033333; 0.300302;,
       0.012376;-0.033487; 0.334550;,
       0.012348;-0.061058; 0.333908;,
       0.013181;-0.060688; 0.299956;,
       0.010594;-0.074061; 0.299056;,
       0.009914;-0.074521; 0.324629;,
       0.004184;-0.088860; 0.313233;,
       0.004121;-0.088992; 0.299055;,
       0.000000;-0.065739; 0.348307;,
      -0.012348;-0.061058; 0.333908;,
      -0.009914;-0.074521; 0.324629;,
       0.000000;-0.080523; 0.337192;,
       0.013181;-0.060688; 0.299956;,
       0.012348;-0.061058; 0.333908;,
       0.009914;-0.074521; 0.324629;,
       0.010594;-0.074061; 0.299056;,
       0.000000;-0.065739; 0.278243;,
       0.012348;-0.061058; 0.282175;,
       0.009914;-0.074521; 0.279374;,
       0.000000;-0.080523; 0.278016;,
       0.000000;-0.097442; 0.305667;,
       0.004121;-0.088992; 0.299055;,
       0.004184;-0.088860; 0.313233;,
       0.000000;-0.096355; 0.320076;,
       0.000000;-0.080523; 0.278016;,
       0.009914;-0.074521; 0.279374;,
       0.004184;-0.088860; 0.283708;,
       0.000000;-0.096355; 0.288187;,
      -0.010594;-0.074061; 0.299056;,
      -0.009914;-0.074521; 0.279374;,
      -0.004184;-0.088860; 0.283708;,
      -0.004121;-0.088992; 0.299055;,
       0.000000;-0.080523; 0.337192;,
      -0.009914;-0.074521; 0.324629;,
      -0.004184;-0.088860; 0.313233;,
       0.000000;-0.096355; 0.320076;,
       0.000000; 0.019398; 0.332887;,
       0.006352; 0.016656; 0.322673;,
       0.008566; 0.023920; 0.328932;,
       0.000000; 0.027368; 0.340334;,
       0.000000; 0.010253; 0.276048;,
      -0.010447; 0.007665; 0.273911;,
      -0.006352; 0.016656; 0.286904;,
       0.000000; 0.019398; 0.291243;,
       0.011044; 0.007794; 0.304656;,
       0.010447; 0.007665; 0.273911;,
       0.006352; 0.016656; 0.286904;,
       0.006740; 0.016444; 0.304229;,
      -0.011044; 0.007794; 0.304656;,
      -0.010452; 0.007867; 0.336209;,
      -0.006352; 0.016656; 0.322673;,
      -0.006740; 0.016444; 0.304229;,
       0.009166; 0.023657; 0.304229;,
       0.008566; 0.023920; 0.280645;,
       0.005825; 0.034354; 0.288527;,
       0.005876; 0.034477; 0.304788;,
       0.006740; 0.016444; 0.304229;,
       0.006352; 0.016656; 0.286904;,
       0.008566; 0.023920; 0.280645;,
       0.009166; 0.023657; 0.304229;,
       0.000000; 0.019398; 0.291243;,
      -0.006352; 0.016656; 0.286904;,
      -0.008566; 0.023920; 0.280645;,
       0.000000; 0.027368; 0.283797;,
      -0.006740; 0.016444; 0.304229;,
      -0.006352; 0.016656; 0.322673;,
      -0.008566; 0.023920; 0.328932;,
      -0.009166; 0.023657; 0.304229;,
       0.000000; 0.039717; 0.312065;,
      -0.005876; 0.034477; 0.304788;,
      -0.005825; 0.034354; 0.321424;,
       0.000000; 0.038914; 0.330192;,
       0.000000; 0.027368; 0.283797;,
      -0.008566; 0.023920; 0.280645;,
      -0.005825; 0.034354; 0.288527;,
       0.000000; 0.038914; 0.293938;,
      -0.009166; 0.023657; 0.304229;,
      -0.008566; 0.023920; 0.328932;,
      -0.005825; 0.034354; 0.321424;,
      -0.005876; 0.034477; 0.304788;,
       0.000000; 0.027368; 0.340334;,
       0.008566; 0.023920; 0.328932;,
       0.005825; 0.034354; 0.321424;,
       0.000000; 0.038914; 0.330192;,
      -0.010452; 0.007867; 0.336209;,
      -0.011731;-0.003485; 0.343265;,
      -0.009599;-0.003422; 0.374910;,
      -0.009062; 0.005837; 0.366655;,
       0.010809;-0.014953; 0.336927;,
       0.011731;-0.003485; 0.343265;,
       0.009599;-0.003422; 0.374910;,
       0.009062;-0.012395; 0.366655;,
       0.000000; 0.007671; 0.379940;,
      -0.009062; 0.005837; 0.366655;,
      -0.009599;-0.003422; 0.374910;,
       0.000000;-0.002601; 0.391125;,
      -0.011044; 0.007794; 0.304656;,
      -0.011838;-0.003485; 0.310209;,
      -0.011731;-0.003485; 0.343265;,
      -0.010452; 0.007867; 0.336209;,
      -0.009176; 0.002741; 0.241822;,
      -0.010185;-0.006757; 0.244627;,
      -0.011724;-0.003744; 0.277263;,
      -0.010447; 0.007665; 0.273911;,
       0.011489;-0.015103; 0.304310;,
       0.011838;-0.003485; 0.310209;,
       0.011731;-0.003485; 0.343265;,
       0.010809;-0.014953; 0.336927;,
      -0.009785; 0.011541; 0.186938;,
      -0.010870; 0.001693; 0.187884;,
      -0.010185;-0.006757; 0.244627;,
      -0.009176; 0.002741; 0.241822;,
       0.009785;-0.008116; 0.186938;,
       0.010870; 0.001693; 0.187884;,
       0.010185;-0.006757; 0.244627;,
       0.009176;-0.015692; 0.241822;,
       0.009176;-0.015692; 0.241822;,
       0.010185;-0.006757; 0.244627;,
       0.011724;-0.003744; 0.277263;,
       0.010804;-0.015145; 0.273375;,
      -0.010801; 0.018585; 0.117111;,
      -0.011992; 0.007913; 0.115701;,
      -0.010870; 0.001693; 0.187884;,
      -0.009785; 0.011541; 0.186938;,
      -0.013141; 0.017147; 0.051943;,
      -0.014609; 0.004007; 0.048319;,
      -0.011992; 0.007913; 0.115701;,
      -0.010801; 0.018585; 0.117111;,
       0.013141;-0.009253; 0.051943;,
       0.014609; 0.004007; 0.048319;,
       0.011992; 0.007913; 0.115701;,
       0.010801;-0.003112; 0.117111;,
       0.010801;-0.003112; 0.117111;,
       0.011992; 0.007913; 0.115701;,
       0.010870; 0.001693; 0.187884;,
       0.009785;-0.008116; 0.186938;,
       0.013447;-0.013213;-0.001258;,
       0.014931; 0.000232;-0.006685;,
       0.014609; 0.004007; 0.048319;,
       0.013141;-0.009253; 0.051943;,
      -0.013447; 0.013800;-0.001258;,
      -0.014931; 0.000232;-0.006685;,
      -0.014609; 0.004007; 0.048319;,
      -0.013141; 0.017147; 0.051943;,
       0.000000; 0.017880;-0.058509;,
       0.014803; 0.014980;-0.033582;,
       0.015790; 0.000071;-0.041924;,
       0.000000; 0.001226;-0.070203;,
       0.014803; 0.014980;-0.033582;,
       0.013447; 0.013800;-0.001258;,
       0.014931; 0.000232;-0.006685;,
       0.015790; 0.000071;-0.041924;,
      -0.014803;-0.014809;-0.033582;,
      -0.013447;-0.013213;-0.001258;,
      -0.014931; 0.000232;-0.006685;,
      -0.015790; 0.000071;-0.041924;,
       0.010804;-0.015145; 0.273375;,
       0.011724;-0.003744; 0.277263;,
       0.011838;-0.003485; 0.310209;,
       0.011489;-0.015103; 0.304310;,
      -0.010447; 0.007665; 0.273911;,
      -0.011724;-0.003744; 0.277263;,
      -0.011838;-0.003485; 0.310209;,
      -0.011044; 0.007794; 0.304656;,
      -0.008566; 0.023920; 0.280645;,
      -0.009166; 0.023657; 0.304229;,
      -0.005876; 0.034477; 0.304788;,
      -0.005825; 0.034354; 0.288527;,
       0.000000; 0.038914; 0.293938;,
      -0.005825; 0.034354; 0.288527;,
      -0.005876; 0.034477; 0.304788;,
       0.000000; 0.039717; 0.312065;,
      -0.006352; 0.016656; 0.286904;,
      -0.006740; 0.016444; 0.304229;,
      -0.009166; 0.023657; 0.304229;,
      -0.008566; 0.023920; 0.280645;,
       0.006352; 0.016656; 0.322673;,
       0.006740; 0.016444; 0.304229;,
       0.009166; 0.023657; 0.304229;,
       0.008566; 0.023920; 0.328932;,
       0.008566; 0.023920; 0.328932;,
       0.009166; 0.023657; 0.304229;,
       0.005876; 0.034477; 0.304788;,
       0.005825; 0.034354; 0.321424;,
      -0.010447; 0.007665; 0.273911;,
      -0.011044; 0.007794; 0.304656;,
      -0.006740; 0.016444; 0.304229;,
      -0.006352; 0.016656; 0.286904;,
       0.010452; 0.007867; 0.336209;,
       0.011044; 0.007794; 0.304656;,
       0.006740; 0.016444; 0.304229;,
       0.006352; 0.016656; 0.322673;,
      -0.009914;-0.074521; 0.324629;,
      -0.010594;-0.074061; 0.299056;,
      -0.004121;-0.088992; 0.299055;,
      -0.004184;-0.088860; 0.313233;,
       0.000000;-0.096355; 0.288187;,
       0.004184;-0.088860; 0.283708;,
       0.004121;-0.088992; 0.299055;,
       0.000000;-0.097442; 0.305667;,
       0.012348;-0.061058; 0.282175;,
       0.013181;-0.060688; 0.299956;,
       0.010594;-0.074061; 0.299056;,
       0.009914;-0.074521; 0.279374;,
       0.009914;-0.074521; 0.279374;,
       0.010594;-0.074061; 0.299056;,
       0.004121;-0.088992; 0.299055;,
       0.004184;-0.088860; 0.283708;,
       0.012376;-0.033487; 0.281865;,
       0.013210;-0.033333; 0.300302;,
       0.013181;-0.060688; 0.299956;,
       0.012348;-0.061058; 0.282175;,
      -0.012376;-0.033487; 0.334550;,
      -0.013210;-0.033333; 0.300302;,
      -0.013181;-0.060688; 0.299956;,
      -0.012348;-0.061058; 0.333908;,
      -0.012348;-0.061058; 0.333908;,
      -0.013181;-0.060688; 0.299956;,
      -0.010594;-0.074061; 0.299056;,
      -0.009914;-0.074521; 0.324629;,
      -0.010809;-0.014953; 0.336927;,
      -0.011489;-0.015103; 0.304310;,
      -0.013210;-0.033333; 0.300302;,
      -0.012376;-0.033487; 0.334550;,
       0.010804;-0.015145; 0.273375;,
       0.011489;-0.015103; 0.304310;,
       0.013210;-0.033333; 0.300302;,
       0.012376;-0.033487; 0.281865;,
      -0.011724;-0.003744; 0.277263;,
      -0.010804;-0.015145; 0.273375;,
      -0.011489;-0.015103; 0.304310;,
      -0.011838;-0.003485; 0.310209;,
       0.011724;-0.003744; 0.277263;,
       0.010447; 0.007665; 0.273911;,
       0.011044; 0.007794; 0.304656;,
       0.011838;-0.003485; 0.310209;,
      -0.004184;-0.088860; 0.283708;,
       0.000000;-0.096355; 0.288187;,
       0.000000;-0.097442; 0.305667;,
      -0.004121;-0.088992; 0.299055;,
       0.005825; 0.034354; 0.288527;,
       0.000000; 0.038914; 0.293938;,
       0.000000; 0.039717; 0.312065;,
       0.005876; 0.034477; 0.304788;,
      -0.014803; 0.014980;-0.033582;,
       0.000000; 0.017880;-0.058509;,
       0.000000; 0.001226;-0.070203;,
      -0.015790; 0.000071;-0.041924;,
       0.009062; 0.005837; 0.366655;,
       0.000000; 0.007671; 0.379940;,
       0.000000;-0.002601; 0.391125;,
       0.009599;-0.003422; 0.374910;,
      -0.008566; 0.023920; 0.328932;,
       0.000000; 0.027368; 0.340334;,
       0.000000; 0.038914; 0.330192;,
      -0.005825; 0.034354; 0.321424;,
       0.008566; 0.023920; 0.280645;,
       0.000000; 0.027368; 0.283797;,
       0.000000; 0.038914; 0.293938;,
       0.005825; 0.034354; 0.288527;,
       0.005876; 0.034477; 0.304788;,
       0.000000; 0.039717; 0.312065;,
       0.000000; 0.038914; 0.330192;,
       0.005825; 0.034354; 0.321424;,
       0.006352; 0.016656; 0.286904;,
       0.000000; 0.019398; 0.291243;,
       0.000000; 0.027368; 0.283797;,
       0.008566; 0.023920; 0.280645;,
       0.010447; 0.007665; 0.273911;,
       0.000000; 0.010253; 0.276048;,
       0.000000; 0.019398; 0.291243;,
       0.006352; 0.016656; 0.286904;,
      -0.006352; 0.016656; 0.322673;,
       0.000000; 0.019398; 0.332887;,
       0.000000; 0.027368; 0.340334;,
      -0.008566; 0.023920; 0.328932;,
       0.009914;-0.074521; 0.324629;,
       0.000000;-0.080523; 0.337192;,
       0.000000;-0.096355; 0.320076;,
       0.004184;-0.088860; 0.313233;,
      -0.009914;-0.074521; 0.279374;,
       0.000000;-0.080523; 0.278016;,
       0.000000;-0.096355; 0.288187;,
      -0.004184;-0.088860; 0.283708;,
      -0.004121;-0.088992; 0.299055;,
       0.000000;-0.097442; 0.305667;,
       0.000000;-0.096355; 0.320076;,
      -0.004184;-0.088860; 0.313233;,
      -0.012348;-0.061058; 0.282175;,
       0.000000;-0.065739; 0.278243;,
       0.000000;-0.080523; 0.278016;,
      -0.009914;-0.074521; 0.279374;,
       0.012348;-0.061058; 0.333908;,
       0.000000;-0.065739; 0.348307;,
       0.000000;-0.080523; 0.337192;,
       0.009914;-0.074521; 0.324629;,
       0.012376;-0.033487; 0.334550;,
       0.000000;-0.035565; 0.348887;,
       0.000000;-0.065739; 0.348307;,
       0.012348;-0.061058; 0.333908;,
      -0.010804;-0.015145; 0.273375;,
       0.000000;-0.016371; 0.270970;,
       0.000000;-0.035565; 0.277935;,
      -0.012376;-0.033487; 0.281865;,
       0.010809;-0.014953; 0.336927;,
       0.000000;-0.016102; 0.349342;,
       0.000000;-0.035565; 0.348887;,
       0.012376;-0.033487; 0.334550;,
      -0.012376;-0.033487; 0.281865;,
       0.000000;-0.035565; 0.277935;,
       0.000000;-0.065739; 0.278243;,
      -0.012348;-0.061058; 0.282175;,
       0.010452; 0.007867; 0.336209;,
       0.000000; 0.010536; 0.348198;,
       0.000000; 0.007671; 0.379940;,
       0.009062; 0.005837; 0.366655;,
       0.009599;-0.003422; 0.374910;,
       0.000000;-0.002601; 0.391125;,
       0.000000;-0.012602; 0.379940;,
       0.009062;-0.012395; 0.366655;,
      -0.010452; 0.007867; 0.336209;,
       0.000000; 0.010536; 0.348198;,
       0.000000; 0.019398; 0.332887;,
      -0.006352; 0.016656; 0.322673;,
      -0.010809;-0.014953; 0.336927;,
       0.000000;-0.016102; 0.349342;,
       0.000000;-0.012602; 0.379940;,
      -0.009062;-0.012395; 0.366655;,
       0.009176; 0.002741; 0.241822;,
       0.000000; 0.004855; 0.242772;,
       0.000000; 0.010253; 0.276048;,
       0.010447; 0.007665; 0.273911;,
      -0.009176;-0.015692; 0.241822;,
       0.000000;-0.016666; 0.242432;,
       0.000000;-0.016371; 0.270970;,
      -0.010804;-0.015145; 0.273375;,
       0.009785; 0.011541; 0.186938;,
       0.000000; 0.014496; 0.182834;,
       0.000000; 0.004855; 0.242772;,
       0.009176; 0.002741; 0.241822;,
       0.010801; 0.018585; 0.117111;,
       0.000000; 0.022249; 0.106591;,
       0.000000; 0.014496; 0.182834;,
       0.009785; 0.011541; 0.186938;,
      -0.010801;-0.003112; 0.117111;,
       0.000000;-0.003090; 0.106591;,
       0.000000;-0.008469; 0.182834;,
      -0.009785;-0.008116; 0.186938;,
      -0.009785;-0.008116; 0.186938;,
       0.000000;-0.008469; 0.182834;,
       0.000000;-0.016666; 0.242432;,
      -0.009176;-0.015692; 0.241822;,
      -0.013141;-0.009253; 0.051943;,
       0.000000;-0.009972; 0.035412;,
       0.000000;-0.003090; 0.106591;,
      -0.010801;-0.003112; 0.117111;,
       0.013447; 0.013800;-0.001258;,
       0.000000; 0.017248;-0.022689;,
       0.000000; 0.020891; 0.035412;,
       0.013141; 0.017147; 0.051943;,
      -0.013447;-0.013213;-0.001258;,
       0.000000;-0.014301;-0.022689;,
       0.000000;-0.009972; 0.035412;,
      -0.013141;-0.009253; 0.051943;,
       0.013141; 0.017147; 0.051943;,
       0.000000; 0.020891; 0.035412;,
       0.000000; 0.022249; 0.106591;,
       0.010801; 0.018585; 0.117111;,
      -0.015790; 0.000071;-0.041924;,
       0.000000; 0.001226;-0.070203;,
       0.000000;-0.015463;-0.058509;,
      -0.014803;-0.014809;-0.033582;,
       0.014803;-0.014809;-0.033582;,
       0.013447;-0.013213;-0.001258;,
       0.000000;-0.014301;-0.022689;,
       0.000000;-0.015463;-0.058509;,
      -0.014803; 0.014980;-0.033582;,
      -0.013447; 0.013800;-0.001258;,
       0.000000; 0.017248;-0.022689;,
       0.000000; 0.017880;-0.058509;;
      136;
      4;3,2,1,0;,
      4;7,6,5,4;,
      4;11,10,9,8;,
      4;15,14,13,12;,
      4;19,18,17,16;,
      4;23,22,21,20;,
      4;27,26,25,24;,
      4;31,30,29,28;,
      4;35,34,33,32;,
      4;39,38,37,36;,
      4;43,42,41,40;,
      4;47,46,45,44;,
      4;51,50,49,48;,
      4;55,54,53,52;,
      4;59,58,57,56;,
      4;63,62,61,60;,
      4;67,66,65,64;,
      4;71,70,69,68;,
      4;75,74,73,72;,
      4;79,78,77,76;,
      4;83,82,81,80;,
      4;87,86,85,84;,
      4;91,90,89,88;,
      4;95,94,93,92;,
      4;99,98,97,96;,
      4;103,102,101,100;,
      4;107,106,105,104;,
      4;111,110,109,108;,
      4;115,114,113,112;,
      4;119,118,117,116;,
      4;123,122,121,120;,
      4;127,126,125,124;,
      4;131,130,129,128;,
      4;135,134,133,132;,
      4;139,138,137,136;,
      4;143,142,141,140;,
      4;147,146,145,144;,
      4;151,150,149,148;,
      4;155,154,153,152;,
      4;159,158,157,156;,
      4;163,162,161,160;,
      4;167,166,165,164;,
      4;171,170,169,168;,
      4;175,174,173,172;,
      4;179,178,177,176;,
      4;183,182,181,180;,
      4;187,186,185,184;,
      4;191,190,189,188;,
      4;195,194,193,192;,
      4;199,198,197,196;,
      4;203,202,201,200;,
      4;207,206,205,204;,
      4;211,210,209,208;,
      4;215,214,213,212;,
      4;219,218,217,216;,
      4;223,222,221,220;,
      4;227,226,225,224;,
      4;231,230,229,228;,
      4;235,234,233,232;,
      4;239,238,237,236;,
      4;243,242,241,240;,
      4;247,246,245,244;,
      4;251,250,249,248;,
      4;255,254,253,252;,
      4;259,258,257,256;,
      4;263,262,261,260;,
      4;267,266,265,264;,
      4;271,270,269,268;,
      4;275,274,273,272;,
      4;279,278,277,276;,
      4;283,282,281,280;,
      4;287,286,285,284;,
      4;291,290,289,288;,
      4;295,294,293,292;,
      4;299,298,297,296;,
      4;303,302,301,300;,
      4;307,306,305,304;,
      4;311,310,309,308;,
      4;315,314,313,312;,
      4;319,318,317,316;,
      4;323,322,321,320;,
      4;327,326,325,324;,
      4;331,330,329,328;,
      4;335,334,333,332;,
      4;339,338,337,336;,
      4;343,342,341,340;,
      4;347,346,345,344;,
      4;351,350,349,348;,
      4;355,354,353,352;,
      4;359,358,357,356;,
      4;363,362,361,360;,
      4;367,366,365,364;,
      4;371,370,369,368;,
      4;375,374,373,372;,
      4;379,378,377,376;,
      4;383,382,381,380;,
      4;387,386,385,384;,
      4;391,390,389,388;,
      4;395,394,393,392;,
      4;399,398,397,396;,
      4;403,402,401,400;,
      4;407,406,405,404;,
      4;411,410,409,408;,
      4;415,414,413,412;,
      4;419,418,417,416;,
      4;423,422,421,420;,
      4;427,426,425,424;,
      4;431,430,429,428;,
      4;435,434,433,432;,
      4;439,438,437,436;,
      4;443,442,441,440;,
      4;447,446,445,444;,
      4;451,450,449,448;,
      4;455,454,453,452;,
      4;459,458,457,456;,
      4;463,462,461,460;,
      4;467,466,465,464;,
      4;471,470,469,468;,
      4;475,474,473,472;,
      4;479,478,477,476;,
      4;483,482,481,480;,
      4;487,486,485,484;,
      4;491,490,489,488;,
      4;495,494,493,492;,
      4;499,498,497,496;,
      4;503,502,501,500;,
      4;507,506,505,504;,
      4;511,510,509,508;,
      4;515,514,513,512;,
      4;519,518,517,516;,
      4;523,522,521,520;,
      4;527,526,525,524;,
      4;531,530,529,528;,
      4;535,534,533,532;,
      4;539,538,537,536;,
      4;543,542,541,540;;
      MeshNormals { // Cube_001 normals
        544;
        -0.950072;-0.007874;-0.311869;,
        -0.999695;-0.001282; 0.023682;,
        -0.785333; 0.618824;-0.017151;,
        -0.752495; 0.652150;-0.091647;,
         0.000000; 0.793146;-0.608997;,
         0.000000; 0.999908; 0.013489;,
         0.785333; 0.618824;-0.017151;,
         0.752495; 0.652150;-0.091647;,
         0.950072;-0.007874;-0.311869;,
         0.999695;-0.001282; 0.023682;,
         0.654347;-0.753624; 0.061708;,
         0.692251;-0.715934;-0.090365;,
         0.000000;-0.784234;-0.620441;,
         0.000000;-0.998901; 0.046358;,
        -0.654347;-0.753624; 0.061708;,
        -0.692251;-0.715934;-0.090365;,
         0.000000; 0.009857;-0.999939;,
         0.950072;-0.007874;-0.311869;,
         0.692251;-0.715934;-0.090365;,
         0.000000;-0.784234;-0.620441;,
        -0.999695;-0.001282; 0.023682;,
        -0.654347;-0.753624; 0.061708;,
        -0.644856;-0.759728; 0.083346;,
        -0.999786; 0.002838; 0.019593;,
         0.000000; 0.998688;-0.051210;,
        -0.777581; 0.628742;-0.003052;,
        -0.746483; 0.662679; 0.059786;,
         0.000000; 0.999847; 0.015717;,
         0.000000;-0.998901; 0.046358;,
         0.654347;-0.753624; 0.061708;,
         0.644856;-0.759728; 0.083346;,
         0.000000;-0.996918; 0.078341;,
         0.000000; 0.999908; 0.013489;,
        -0.785333; 0.618824;-0.017151;,
        -0.777581; 0.628742;-0.003052;,
         0.000000; 0.998688;-0.051210;,
         0.999695;-0.001282; 0.023682;,
         0.785333; 0.618824;-0.017151;,
         0.777581; 0.628742;-0.003052;,
         0.999786; 0.002838; 0.019593;,
         0.999542; 0.006317; 0.028565;,
         0.746483; 0.662679; 0.059786;,
         0.743461; 0.661336; 0.099307;,
         0.999878; 0.003327; 0.014557;,
         0.999786; 0.002838; 0.019593;,
         0.777581; 0.628742;-0.003052;,
         0.746483; 0.662679; 0.059786;,
         0.999542; 0.006317; 0.028565;,
        -0.999786; 0.002838; 0.019593;,
        -0.644856;-0.759728; 0.083346;,
        -0.694693;-0.719291;-0.001068;,
        -0.999542; 0.006317; 0.028565;,
         0.000000;-0.996918; 0.078341;,
         0.644856;-0.759728; 0.083346;,
         0.694693;-0.719291;-0.001068;,
         0.000000;-0.998627; 0.051973;,
         0.000000;-0.995453;-0.095096;,
         0.704367;-0.706320;-0.070284;,
         0.686178;-0.725211;-0.056490;,
         0.000000;-0.998230;-0.059267;,
        -0.999542; 0.006317; 0.028565;,
        -0.694693;-0.719291;-0.001068;,
        -0.704367;-0.706320;-0.070284;,
        -0.999878; 0.003327; 0.014557;,
         0.000000;-0.998627; 0.051973;,
         0.694693;-0.719291;-0.001068;,
         0.704367;-0.706320;-0.070284;,
         0.000000;-0.995453;-0.095096;,
         0.000000; 0.999847; 0.015717;,
        -0.746483; 0.662679; 0.059786;,
        -0.743461; 0.661336; 0.099307;,
         0.000000; 0.992309; 0.123569;,
         0.999664;-0.003235;-0.025147;,
         0.773583; 0.633656; 0.000946;,
         0.775079; 0.604999;-0.182195;,
         0.999481; 0.015992;-0.027345;,
         0.000000; 0.992309; 0.123569;,
        -0.743461; 0.661336; 0.099307;,
        -0.773583; 0.633656; 0.000946;,
         0.000000; 0.999939;-0.010559;,
         0.999878; 0.003327; 0.014557;,
         0.743461; 0.661336; 0.099307;,
         0.773583; 0.633656; 0.000946;,
         0.999664;-0.003235;-0.025147;,
        -0.999878; 0.003327; 0.014557;,
        -0.704367;-0.706320;-0.070284;,
        -0.686178;-0.725211;-0.056490;,
        -0.999664;-0.003235;-0.025147;,
         0.999817; 0.018189; 0.003143;,
         0.962798; 0.270180;-0.002319;,
         0.882839; 0.449934; 0.134556;,
         0.998840; 0.010559; 0.046785;,
        -0.999664;-0.003235;-0.025147;,
        -0.686178;-0.725211;-0.056490;,
        -0.888180;-0.360027;-0.285440;,
        -0.999481; 0.015992;-0.027345;,
         0.000000;-0.998230;-0.059267;,
         0.686178;-0.725211;-0.056490;,
         0.888180;-0.360027;-0.285440;,
         0.000000;-0.858241;-0.513230;,
         0.000000; 0.999939;-0.010559;,
        -0.773583; 0.633656; 0.000946;,
        -0.775079; 0.604999;-0.182195;,
         0.000000; 0.921873;-0.387463;,
         0.000000;-0.875179; 0.483749;,
         0.968474;-0.133518; 0.210273;,
         0.725425;-0.663839; 0.181677;,
         0.000000;-0.839381; 0.543504;,
        -0.999817; 0.018189; 0.003143;,
        -0.999847; 0.015931;-0.002106;,
        -0.968474;-0.133518; 0.210273;,
        -0.998840; 0.010559; 0.046785;,
         0.999847; 0.015931;-0.002106;,
         0.968474;-0.133518; 0.210273;,
         0.938047; 0.016022; 0.346110;,
         0.999054; 0.042329;-0.009156;,
         0.000000; 0.984863; 0.173162;,
         0.882839; 0.449934; 0.134556;,
         0.979369; 0.103702; 0.173406;,
         0.000000; 0.051790; 0.998657;,
         0.000000; 0.008728; 0.999939;,
        -0.919889;-0.021424; 0.391552;,
        -0.725425;-0.663839; 0.181677;,
         0.000000;-0.839381; 0.543504;,
         0.000000; 0.984863; 0.173162;,
        -0.882839; 0.449934; 0.134556;,
        -0.768059; 0.619556; 0.161840;,
         0.000000; 0.846034; 0.533067;,
         0.998840; 0.010559; 0.046785;,
         0.882839; 0.449934; 0.134556;,
         0.768059; 0.619556; 0.161840;,
         0.919889;-0.021424; 0.391552;,
        -0.998840; 0.010559; 0.046785;,
        -0.968474;-0.133518; 0.210273;,
        -0.725425;-0.663839; 0.181677;,
        -0.919889;-0.021424; 0.391552;,
         0.000000;-0.182531;-0.983184;,
         0.840907;-0.072146;-0.536332;,
         0.812311;-0.050508;-0.581011;,
         0.000000; 0.051546;-0.998657;,
         0.000000;-0.875179; 0.483749;,
        -0.968474;-0.133518; 0.210273;,
        -0.938047; 0.016022; 0.346110;,
         0.000000;-0.024079; 0.999695;,
         0.000000;-0.858241;-0.513230;,
         0.888180;-0.360027;-0.285440;,
         0.840907;-0.072146;-0.536332;,
         0.000000;-0.182531;-0.983184;,
        -0.999847; 0.015931;-0.002106;,
        -0.888180;-0.360027;-0.285440;,
        -0.840907;-0.072146;-0.536332;,
        -0.999054; 0.042329;-0.009156;,
        -0.995636;-0.092837;-0.008332;,
        -0.812311;-0.050508;-0.581011;,
        -0.716330;-0.202033;-0.667837;,
        -0.958159;-0.286142;-0.004456;,
        -0.999054; 0.042329;-0.009156;,
        -0.840907;-0.072146;-0.536332;,
        -0.812311;-0.050508;-0.581011;,
        -0.995636;-0.092837;-0.008332;,
         0.000000;-0.024079; 0.999695;,
        -0.938047; 0.016022; 0.346110;,
        -0.919645;-0.160985; 0.358165;,
         0.000000;-0.349834; 0.936796;,
         0.999054; 0.042329;-0.009156;,
         0.938047; 0.016022; 0.346110;,
         0.919645;-0.160985; 0.358165;,
         0.995636;-0.092837;-0.008332;,
         0.958159;-0.286142;-0.004456;,
         0.912595;-0.350932; 0.209662;,
         0.896756;-0.431257; 0.098941;,
         0.904416;-0.426557;-0.003235;,
         0.000000;-0.349834; 0.936796;,
        -0.919645;-0.160985; 0.358165;,
        -0.912595;-0.350932; 0.209662;,
         0.000000;-0.725944; 0.687735;,
         0.995636;-0.092837;-0.008332;,
         0.919645;-0.160985; 0.358165;,
         0.912595;-0.350932; 0.209662;,
         0.958159;-0.286142;-0.004456;,
         0.000000; 0.051546;-0.998657;,
         0.812311;-0.050508;-0.581011;,
         0.716330;-0.202033;-0.667837;,
         0.000000;-0.287454;-0.957762;,
         0.000000;-0.999847; 0.016144;,
         0.904416;-0.426557;-0.003235;,
         0.896756;-0.431257; 0.098941;,
         0.000000;-0.917783; 0.397046;,
         0.000000;-0.287454;-0.957762;,
         0.716330;-0.202033;-0.667837;,
         0.686605;-0.517655;-0.510483;,
         0.000000;-0.944578;-0.328257;,
        -0.958159;-0.286142;-0.004456;,
        -0.716330;-0.202033;-0.667837;,
        -0.686605;-0.517655;-0.510483;,
        -0.904416;-0.426557;-0.003235;,
         0.000000;-0.725944; 0.687735;,
        -0.912595;-0.350932; 0.209662;,
        -0.896756;-0.431257; 0.098941;,
         0.000000;-0.917783; 0.397046;,
         0.000000; 0.051790; 0.998657;,
         0.979369; 0.103702; 0.173406;,
         0.908597;-0.112400; 0.402234;,
         0.000000; 0.058260; 0.998291;,
         0.000000; 0.921873;-0.387463;,
        -0.775079; 0.604999;-0.182195;,
        -0.753746; 0.329081;-0.568804;,
         0.000000; 0.002075;-0.999969;,
         0.962798; 0.270180;-0.002319;,
         0.775079; 0.604999;-0.182195;,
         0.753746; 0.329081;-0.568804;,
         0.997406; 0.071627;-0.001312;,
        -0.962798; 0.270180;-0.002319;,
        -0.882839; 0.449934; 0.134556;,
        -0.979369; 0.103702; 0.173406;,
        -0.997406; 0.071627;-0.001312;,
         0.999756;-0.021577;-0.000732;,
         0.464003;-0.110385;-0.878903;,
         0.552538; 0.682333;-0.478591;,
         0.835231; 0.549821;-0.005463;,
         0.997406; 0.071627;-0.001312;,
         0.753746; 0.329081;-0.568804;,
         0.464003;-0.110385;-0.878903;,
         0.999756;-0.021577;-0.000732;,
         0.000000; 0.002075;-0.999969;,
        -0.753746; 0.329081;-0.568804;,
        -0.464003;-0.110385;-0.878903;,
         0.000000; 0.186071;-0.982513;,
        -0.997406; 0.071627;-0.001312;,
        -0.979369; 0.103702; 0.173406;,
        -0.908597;-0.112400; 0.402234;,
        -0.999756;-0.021577;-0.000732;,
         0.000000; 0.999908; 0.013062;,
        -0.835231; 0.549821;-0.005463;,
        -0.841487; 0.526475; 0.121189;,
         0.000000; 0.870815; 0.491592;,
         0.000000; 0.186071;-0.982513;,
        -0.464003;-0.110385;-0.878903;,
        -0.552538; 0.682333;-0.478591;,
         0.000000; 0.964629;-0.263558;,
        -0.999756;-0.021577;-0.000732;,
        -0.908597;-0.112400; 0.402234;,
        -0.841487; 0.526475; 0.121189;,
        -0.835231; 0.549821;-0.005463;,
         0.000000; 0.058260; 0.998291;,
         0.908597;-0.112400; 0.402234;,
         0.841487; 0.526475; 0.121189;,
         0.000000; 0.870815; 0.491592;,
        -0.882839; 0.449934; 0.134556;,
        -0.998840; 0.010559; 0.046785;,
        -0.919889;-0.021424; 0.391552;,
        -0.768059; 0.619556; 0.161840;,
         0.968474;-0.133518; 0.210273;,
         0.998840; 0.010559; 0.046785;,
         0.919889;-0.021424; 0.391552;,
         0.725425;-0.663839; 0.181677;,
         0.000000; 0.846034; 0.533067;,
        -0.768059; 0.619556; 0.161840;,
        -0.919889;-0.021424; 0.391552;,
         0.000000; 0.008728; 0.999939;,
        -0.962798; 0.270180;-0.002319;,
        -0.999817; 0.018189; 0.003143;,
        -0.998840; 0.010559; 0.046785;,
        -0.882839; 0.449934; 0.134556;,
        -0.773583; 0.633656; 0.000946;,
        -0.999664;-0.003235;-0.025147;,
        -0.999481; 0.015992;-0.027345;,
        -0.775079; 0.604999;-0.182195;,
         0.999847; 0.015931;-0.002106;,
         0.999817; 0.018189; 0.003143;,
         0.998840; 0.010559; 0.046785;,
         0.968474;-0.133518; 0.210273;,
        -0.743461; 0.661336; 0.099307;,
        -0.999878; 0.003327; 0.014557;,
        -0.999664;-0.003235;-0.025147;,
        -0.773583; 0.633656; 0.000946;,
         0.704367;-0.706320;-0.070284;,
         0.999878; 0.003327; 0.014557;,
         0.999664;-0.003235;-0.025147;,
         0.686178;-0.725211;-0.056490;,
         0.686178;-0.725211;-0.056490;,
         0.999664;-0.003235;-0.025147;,
         0.999481; 0.015992;-0.027345;,
         0.888180;-0.360027;-0.285440;,
        -0.746483; 0.662679; 0.059786;,
        -0.999542; 0.006317; 0.028565;,
        -0.999878; 0.003327; 0.014557;,
        -0.743461; 0.661336; 0.099307;,
        -0.777581; 0.628742;-0.003052;,
        -0.999786; 0.002838; 0.019593;,
        -0.999542; 0.006317; 0.028565;,
        -0.746483; 0.662679; 0.059786;,
         0.644856;-0.759728; 0.083346;,
         0.999786; 0.002838; 0.019593;,
         0.999542; 0.006317; 0.028565;,
         0.694693;-0.719291;-0.001068;,
         0.694693;-0.719291;-0.001068;,
         0.999542; 0.006317; 0.028565;,
         0.999878; 0.003327; 0.014557;,
         0.704367;-0.706320;-0.070284;,
         0.654347;-0.753624; 0.061708;,
         0.999695;-0.001282; 0.023682;,
         0.999786; 0.002838; 0.019593;,
         0.644856;-0.759728; 0.083346;,
        -0.785333; 0.618824;-0.017151;,
        -0.999695;-0.001282; 0.023682;,
        -0.999786; 0.002838; 0.019593;,
        -0.777581; 0.628742;-0.003052;,
         0.000000; 0.793146;-0.608997;,
         0.752495; 0.652150;-0.091647;,
         0.950072;-0.007874;-0.311869;,
         0.000000; 0.009857;-0.999939;,
         0.752495; 0.652150;-0.091647;,
         0.785333; 0.618824;-0.017151;,
         0.999695;-0.001282; 0.023682;,
         0.950072;-0.007874;-0.311869;,
        -0.692251;-0.715934;-0.090365;,
        -0.654347;-0.753624; 0.061708;,
        -0.999695;-0.001282; 0.023682;,
        -0.950072;-0.007874;-0.311869;,
         0.888180;-0.360027;-0.285440;,
         0.999481; 0.015992;-0.027345;,
         0.999817; 0.018189; 0.003143;,
         0.999847; 0.015931;-0.002106;,
        -0.775079; 0.604999;-0.182195;,
        -0.999481; 0.015992;-0.027345;,
        -0.999817; 0.018189; 0.003143;,
        -0.962798; 0.270180;-0.002319;,
        -0.464003;-0.110385;-0.878903;,
        -0.999756;-0.021577;-0.000732;,
        -0.835231; 0.549821;-0.005463;,
        -0.552538; 0.682333;-0.478591;,
         0.000000; 0.964629;-0.263558;,
        -0.552538; 0.682333;-0.478591;,
        -0.835231; 0.549821;-0.005463;,
         0.000000; 0.999908; 0.013062;,
        -0.753746; 0.329081;-0.568804;,
        -0.997406; 0.071627;-0.001312;,
        -0.999756;-0.021577;-0.000732;,
        -0.464003;-0.110385;-0.878903;,
         0.979369; 0.103702; 0.173406;,
         0.997406; 0.071627;-0.001312;,
         0.999756;-0.021577;-0.000732;,
         0.908597;-0.112400; 0.402234;,
         0.908597;-0.112400; 0.402234;,
         0.999756;-0.021577;-0.000732;,
         0.835231; 0.549821;-0.005463;,
         0.841487; 0.526475; 0.121189;,
        -0.775079; 0.604999;-0.182195;,
        -0.962798; 0.270180;-0.002319;,
        -0.997406; 0.071627;-0.001312;,
        -0.753746; 0.329081;-0.568804;,
         0.882839; 0.449934; 0.134556;,
         0.962798; 0.270180;-0.002319;,
         0.997406; 0.071627;-0.001312;,
         0.979369; 0.103702; 0.173406;,
        -0.912595;-0.350932; 0.209662;,
        -0.958159;-0.286142;-0.004456;,
        -0.904416;-0.426557;-0.003235;,
        -0.896756;-0.431257; 0.098941;,
         0.000000;-0.944578;-0.328257;,
         0.686605;-0.517655;-0.510483;,
         0.904416;-0.426557;-0.003235;,
         0.000000;-0.999847; 0.016144;,
         0.812311;-0.050508;-0.581011;,
         0.995636;-0.092837;-0.008332;,
         0.958159;-0.286142;-0.004456;,
         0.716330;-0.202033;-0.667837;,
         0.716330;-0.202033;-0.667837;,
         0.958159;-0.286142;-0.004456;,
         0.904416;-0.426557;-0.003235;,
         0.686605;-0.517655;-0.510483;,
         0.840907;-0.072146;-0.536332;,
         0.999054; 0.042329;-0.009156;,
         0.995636;-0.092837;-0.008332;,
         0.812311;-0.050508;-0.581011;,
        -0.938047; 0.016022; 0.346110;,
        -0.999054; 0.042329;-0.009156;,
        -0.995636;-0.092837;-0.008332;,
        -0.919645;-0.160985; 0.358165;,
        -0.919645;-0.160985; 0.358165;,
        -0.995636;-0.092837;-0.008332;,
        -0.958159;-0.286142;-0.004456;,
        -0.912595;-0.350932; 0.209662;,
        -0.968474;-0.133518; 0.210273;,
        -0.999847; 0.015931;-0.002106;,
        -0.999054; 0.042329;-0.009156;,
        -0.938047; 0.016022; 0.346110;,
         0.888180;-0.360027;-0.285440;,
         0.999847; 0.015931;-0.002106;,
         0.999054; 0.042329;-0.009156;,
         0.840907;-0.072146;-0.536332;,
        -0.999481; 0.015992;-0.027345;,
        -0.888180;-0.360027;-0.285440;,
        -0.999847; 0.015931;-0.002106;,
        -0.999817; 0.018189; 0.003143;,
         0.999481; 0.015992;-0.027345;,
         0.775079; 0.604999;-0.182195;,
         0.962798; 0.270180;-0.002319;,
         0.999817; 0.018189; 0.003143;,
        -0.686605;-0.517655;-0.510483;,
         0.000000;-0.944578;-0.328257;,
         0.000000;-0.999847; 0.016144;,
        -0.904416;-0.426557;-0.003235;,
         0.552538; 0.682333;-0.478591;,
         0.000000; 0.964629;-0.263558;,
         0.000000; 0.999908; 0.013062;,
         0.835231; 0.549821;-0.005463;,
        -0.752495; 0.652150;-0.091647;,
         0.000000; 0.793146;-0.608997;,
         0.000000; 0.009857;-0.999939;,
        -0.950072;-0.007874;-0.311869;,
         0.768059; 0.619556; 0.161840;,
         0.000000; 0.846034; 0.533067;,
         0.000000; 0.008728; 0.999939;,
         0.919889;-0.021424; 0.391552;,
        -0.908597;-0.112400; 0.402234;,
         0.000000; 0.058260; 0.998291;,
         0.000000; 0.870815; 0.491592;,
        -0.841487; 0.526475; 0.121189;,
         0.464003;-0.110385;-0.878903;,
         0.000000; 0.186071;-0.982513;,
         0.000000; 0.964629;-0.263558;,
         0.552538; 0.682333;-0.478591;,
         0.835231; 0.549821;-0.005463;,
         0.000000; 0.999908; 0.013062;,
         0.000000; 0.870815; 0.491592;,
         0.841487; 0.526475; 0.121189;,
         0.753746; 0.329081;-0.568804;,
         0.000000; 0.002075;-0.999969;,
         0.000000; 0.186071;-0.982513;,
         0.464003;-0.110385;-0.878903;,
         0.775079; 0.604999;-0.182195;,
         0.000000; 0.921873;-0.387463;,
         0.000000; 0.002075;-0.999969;,
         0.753746; 0.329081;-0.568804;,
        -0.979369; 0.103702; 0.173406;,
         0.000000; 0.051790; 0.998657;,
         0.000000; 0.058260; 0.998291;,
        -0.908597;-0.112400; 0.402234;,
         0.912595;-0.350932; 0.209662;,
         0.000000;-0.725944; 0.687735;,
         0.000000;-0.917783; 0.397046;,
         0.896756;-0.431257; 0.098941;,
        -0.716330;-0.202033;-0.667837;,
         0.000000;-0.287454;-0.957762;,
         0.000000;-0.944578;-0.328257;,
        -0.686605;-0.517655;-0.510483;,
        -0.904416;-0.426557;-0.003235;,
         0.000000;-0.999847; 0.016144;,
         0.000000;-0.917783; 0.397046;,
        -0.896756;-0.431257; 0.098941;,
        -0.812311;-0.050508;-0.581011;,
         0.000000; 0.051546;-0.998657;,
         0.000000;-0.287454;-0.957762;,
        -0.716330;-0.202033;-0.667837;,
         0.919645;-0.160985; 0.358165;,
         0.000000;-0.349834; 0.936796;,
         0.000000;-0.725944; 0.687735;,
         0.912595;-0.350932; 0.209662;,
         0.938047; 0.016022; 0.346110;,
         0.000000;-0.024079; 0.999695;,
         0.000000;-0.349834; 0.936796;,
         0.919645;-0.160985; 0.358165;,
        -0.888180;-0.360027;-0.285440;,
         0.000000;-0.858241;-0.513230;,
         0.000000;-0.182531;-0.983184;,
        -0.840907;-0.072146;-0.536332;,
         0.968474;-0.133518; 0.210273;,
         0.000000;-0.875179; 0.483749;,
         0.000000;-0.024079; 0.999695;,
         0.938047; 0.016022; 0.346110;,
        -0.840907;-0.072146;-0.536332;,
         0.000000;-0.182531;-0.983184;,
         0.000000; 0.051546;-0.998657;,
        -0.812311;-0.050508;-0.581011;,
         0.882839; 0.449934; 0.134556;,
         0.000000; 0.984863; 0.173162;,
         0.000000; 0.846034; 0.533067;,
         0.768059; 0.619556; 0.161840;,
         0.919889;-0.021424; 0.391552;,
         0.000000; 0.008728; 0.999939;,
         0.000000;-0.839381; 0.543504;,
         0.725425;-0.663839; 0.181677;,
        -0.882839; 0.449934; 0.134556;,
         0.000000; 0.984863; 0.173162;,
         0.000000; 0.051790; 0.998657;,
        -0.979369; 0.103702; 0.173406;,
        -0.968474;-0.133518; 0.210273;,
         0.000000;-0.875179; 0.483749;,
         0.000000;-0.839381; 0.543504;,
        -0.725425;-0.663839; 0.181677;,
         0.773583; 0.633656; 0.000946;,
         0.000000; 0.999939;-0.010559;,
         0.000000; 0.921873;-0.387463;,
         0.775079; 0.604999;-0.182195;,
        -0.686178;-0.725211;-0.056490;,
         0.000000;-0.998230;-0.059267;,
         0.000000;-0.858241;-0.513230;,
        -0.888180;-0.360027;-0.285440;,
         0.743461; 0.661336; 0.099307;,
         0.000000; 0.992309; 0.123569;,
         0.000000; 0.999939;-0.010559;,
         0.773583; 0.633656; 0.000946;,
         0.746483; 0.662679; 0.059786;,
         0.000000; 0.999847; 0.015717;,
         0.000000; 0.992309; 0.123569;,
         0.743461; 0.661336; 0.099307;,
        -0.694693;-0.719291;-0.001068;,
         0.000000;-0.998627; 0.051973;,
         0.000000;-0.995453;-0.095096;,
        -0.704367;-0.706320;-0.070284;,
        -0.704367;-0.706320;-0.070284;,
         0.000000;-0.995453;-0.095096;,
         0.000000;-0.998230;-0.059267;,
        -0.686178;-0.725211;-0.056490;,
        -0.644856;-0.759728; 0.083346;,
         0.000000;-0.996918; 0.078341;,
         0.000000;-0.998627; 0.051973;,
        -0.694693;-0.719291;-0.001068;,
         0.785333; 0.618824;-0.017151;,
         0.000000; 0.999908; 0.013489;,
         0.000000; 0.998688;-0.051210;,
         0.777581; 0.628742;-0.003052;,
        -0.654347;-0.753624; 0.061708;,
         0.000000;-0.998901; 0.046358;,
         0.000000;-0.996918; 0.078341;,
        -0.644856;-0.759728; 0.083346;,
         0.777581; 0.628742;-0.003052;,
         0.000000; 0.998688;-0.051210;,
         0.000000; 0.999847; 0.015717;,
         0.746483; 0.662679; 0.059786;,
        -0.950072;-0.007874;-0.311869;,
         0.000000; 0.009857;-0.999939;,
         0.000000;-0.784234;-0.620441;,
        -0.692251;-0.715934;-0.090365;,
         0.692251;-0.715934;-0.090365;,
         0.654347;-0.753624; 0.061708;,
         0.000000;-0.998901; 0.046358;,
         0.000000;-0.784234;-0.620441;,
        -0.752495; 0.652150;-0.091647;,
        -0.785333; 0.618824;-0.017151;,
         0.000000; 0.999908; 0.013489;,
         0.000000; 0.793146;-0.608997;;
        136;
        4;3,2,1,0;,
        4;7,6,5,4;,
        4;11,10,9,8;,
        4;15,14,13,12;,
        4;19,18,17,16;,
        4;23,22,21,20;,
        4;27,26,25,24;,
        4;31,30,29,28;,
        4;35,34,33,32;,
        4;39,38,37,36;,
        4;43,42,41,40;,
        4;47,46,45,44;,
        4;51,50,49,48;,
        4;55,54,53,52;,
        4;59,58,57,56;,
        4;63,62,61,60;,
        4;67,66,65,64;,
        4;71,70,69,68;,
        4;75,74,73,72;,
        4;79,78,77,76;,
        4;83,82,81,80;,
        4;87,86,85,84;,
        4;91,90,89,88;,
        4;95,94,93,92;,
        4;99,98,97,96;,
        4;103,102,101,100;,
        4;107,106,105,104;,
        4;111,110,109,108;,
        4;115,114,113,112;,
        4;119,118,117,116;,
        4;123,122,121,120;,
        4;127,126,125,124;,
        4;131,130,129,128;,
        4;135,134,133,132;,
        4;139,138,137,136;,
        4;143,142,141,140;,
        4;147,146,145,144;,
        4;151,150,149,148;,
        4;155,154,153,152;,
        4;159,158,157,156;,
        4;163,162,161,160;,
        4;167,166,165,164;,
        4;171,170,169,168;,
        4;175,174,173,172;,
        4;179,178,177,176;,
        4;183,182,181,180;,
        4;187,186,185,184;,
        4;191,190,189,188;,
        4;195,194,193,192;,
        4;199,198,197,196;,
        4;203,202,201,200;,
        4;207,206,205,204;,
        4;211,210,209,208;,
        4;215,214,213,212;,
        4;219,218,217,216;,
        4;223,222,221,220;,
        4;227,226,225,224;,
        4;231,230,229,228;,
        4;235,234,233,232;,
        4;239,238,237,236;,
        4;243,242,241,240;,
        4;247,246,245,244;,
        4;251,250,249,248;,
        4;255,254,253,252;,
        4;259,258,257,256;,
        4;263,262,261,260;,
        4;267,266,265,264;,
        4;271,270,269,268;,
        4;275,274,273,272;,
        4;279,278,277,276;,
        4;283,282,281,280;,
        4;287,286,285,284;,
        4;291,290,289,288;,
        4;295,294,293,292;,
        4;299,298,297,296;,
        4;303,302,301,300;,
        4;307,306,305,304;,
        4;311,310,309,308;,
        4;315,314,313,312;,
        4;319,318,317,316;,
        4;323,322,321,320;,
        4;327,326,325,324;,
        4;331,330,329,328;,
        4;335,334,333,332;,
        4;339,338,337,336;,
        4;343,342,341,340;,
        4;347,346,345,344;,
        4;351,350,349,348;,
        4;355,354,353,352;,
        4;359,358,357,356;,
        4;363,362,361,360;,
        4;367,366,365,364;,
        4;371,370,369,368;,
        4;375,374,373,372;,
        4;379,378,377,376;,
        4;383,382,381,380;,
        4;387,386,385,384;,
        4;391,390,389,388;,
        4;395,394,393,392;,
        4;399,398,397,396;,
        4;403,402,401,400;,
        4;407,406,405,404;,
        4;411,410,409,408;,
        4;415,414,413,412;,
        4;419,418,417,416;,
        4;423,422,421,420;,
        4;427,426,425,424;,
        4;431,430,429,428;,
        4;435,434,433,432;,
        4;439,438,437,436;,
        4;443,442,441,440;,
        4;447,446,445,444;,
        4;451,450,449,448;,
        4;455,454,453,452;,
        4;459,458,457,456;,
        4;463,462,461,460;,
        4;467,466,465,464;,
        4;471,470,469,468;,
        4;475,474,473,472;,
        4;479,478,477,476;,
        4;483,482,481,480;,
        4;487,486,485,484;,
        4;491,490,489,488;,
        4;495,494,493,492;,
        4;499,498,497,496;,
        4;503,502,501,500;,
        4;507,506,505,504;,
        4;511,510,509,508;,
        4;515,514,513,512;,
        4;519,518,517,516;,
        4;523,522,521,520;,
        4;527,526,525,524;,
        4;531,530,529,528;,
        4;535,534,533,532;,
        4;539,538,537,536;,
        4;543,542,541,540;;
      } // End of Cube_001 normals
      MeshTextureCoords { // Cube_001 UV coordinates
        544;
         0.332334; 0.061664;,
         0.326931; 0.138077;,
         0.364195; 0.151551;,
         0.372897; 0.081638;,
         0.889318; 1.000000;,
         0.890787; 0.931450;,
         0.853268; 0.892185;,
         0.848242; 0.953311;,
         0.714050; 0.939232;,
         0.709037; 0.862768;,
         0.670213; 0.852553;,
         0.670807; 0.922878;,
         0.806505; 1.000000;,
         0.806505; 0.922166;,
         0.768593; 0.875583;,
         0.764769; 0.945841;,
         0.719704; 1.000000;,
         0.714050; 0.939232;,
         0.670807; 0.922878;,
         0.670983; 0.976617;,
         0.326931; 0.138077;,
         0.288166; 0.148102;,
         0.290483; 0.263952;,
         0.328427; 0.257812;,
         0.894038; 0.815643;,
         0.931036; 0.788684;,
         0.927607; 0.661186;,
         0.897443; 0.676840;,
         0.806505; 0.922166;,
         0.844418; 0.875583;,
         0.843554; 0.759902;,
         0.806506; 0.795829;,
         0.890787; 0.931450;,
         0.928919; 0.894765;,
         0.931036; 0.788684;,
         0.894038; 0.815643;,
         0.709037; 0.862768;,
         0.746195; 0.849352;,
         0.747474; 0.733575;,
         0.711243; 0.743030;,
         0.711659; 0.596370;,
         0.741318; 0.592016;,
         0.710755; 0.441394;,
         0.683042; 0.440537;,
         0.711243; 0.743030;,
         0.747474; 0.733575;,
         0.741318; 0.592016;,
         0.711659; 0.596370;,
         0.328427; 0.257812;,
         0.290483; 0.263952;,
         0.296924; 0.405995;,
         0.328206; 0.404366;,
         0.806506; 0.795829;,
         0.843554; 0.759902;,
         0.836958; 0.618150;,
         0.806506; 0.640996;,
         0.806507; 0.475613;,
         0.834094; 0.466688;,
         0.832379; 0.347773;,
         0.806507; 0.346482;,
         0.328206; 0.404366;,
         0.296924; 0.405995;,
         0.271244; 0.556739;,
         0.298711; 0.560061;,
         0.806506; 0.640996;,
         0.836958; 0.618150;,
         0.834094; 0.466688;,
         0.806507; 0.475613;,
         0.897443; 0.676840;,
         0.927607; 0.661186;,
         0.926529; 0.533210;,
         0.899375; 0.537272;,
         0.650554; 0.318465;,
         0.677576; 0.323398;,
         0.686694; 0.253259;,
         0.654247; 0.247375;,
         0.899375; 0.537272;,
         0.926529; 0.533210;,
         0.925608; 0.435869;,
         0.900233; 0.431061;,
         0.683042; 0.440537;,
         0.710755; 0.441394;,
         0.677576; 0.323398;,
         0.650554; 0.318465;,
         0.298711; 0.560061;,
         0.271244; 0.556739;,
         0.240809; 0.674761;,
         0.265507; 0.682002;,
         0.649976; 0.175898;,
         0.682451; 0.186584;,
         0.677783; 0.118133;,
         0.644932; 0.104209;,
         0.265507; 0.682002;,
         0.240809; 0.674761;,
         0.237142; 0.743272;,
         0.268598; 0.753173;,
         0.806507; 0.346482;,
         0.832379; 0.347773;,
         0.836967; 0.279227;,
         0.806508; 0.284495;,
         0.900233; 0.431061;,
         0.925608; 0.435869;,
         0.931522; 0.369149;,
         0.902712; 0.361458;,
         0.961996; 0.754362;,
         0.931522; 0.727442;,
         0.936448; 0.792097;,
         0.961996; 0.820940;,
         0.263866; 0.824644;,
         0.232139; 0.810364;,
         0.227143; 0.881092;,
         0.258382; 0.896314;,
         0.618153; 0.190059;,
         0.613530; 0.119289;,
         0.561949; 0.126681;,
         0.567694; 0.200958;,
         0.682208; 0.091536;,
         0.677783; 0.118133;,
         0.704069; 0.146337;,
         0.709465; 0.123690;,
         0.252753; 1.000000;,
         0.253278; 0.964899;,
         0.229384; 0.945846;,
         0.226462; 0.974471;,
         0.878126; 0.264629;,
         0.848242; 0.238824;,
         0.854448; 0.295590;,
         0.880611; 0.323065;,
         0.644932; 0.104209;,
         0.677783; 0.118133;,
         0.667271; 0.052309;,
         0.640036; 0.035518;,
         0.258382; 0.896314;,
         0.227143; 0.881092;,
         0.229384; 0.945846;,
         0.253278; 0.964899;,
         0.968146; 0.867579;,
         0.931522; 0.864176;,
         0.932497; 0.921433;,
         0.969150; 0.930218;,
         0.221685; 0.907681;,
         0.227143; 0.881092;,
         0.175397; 0.873598;,
         0.166982; 0.904209;,
         0.972179; 0.823356;,
         0.940940; 0.820940;,
         0.931522; 0.864176;,
         0.968146; 0.867579;,
         0.232139; 0.810364;,
         0.237142; 0.743272;,
         0.184135; 0.759366;,
         0.181522; 0.799374;,
         0.104590; 0.795132;,
         0.106485; 0.756516;,
         0.069021; 0.748683;,
         0.067061; 0.791429;,
         0.181522; 0.799374;,
         0.184135; 0.759366;,
         0.106485; 0.756516;,
         0.104590; 0.795132;,
         0.166982; 0.904209;,
         0.175397; 0.873598;,
         0.097905; 0.868686;,
         0.082153; 0.899100;,
         0.567694; 0.200958;,
         0.561949; 0.126681;,
         0.484494; 0.131340;,
         0.490802; 0.204948;,
         0.453012; 0.208416;,
         0.447745; 0.152993;,
         0.408458; 0.179253;,
         0.410237; 0.210015;,
         0.082153; 0.899100;,
         0.097905; 0.868686;,
         0.061515; 0.846807;,
         0.042389; 0.873111;,
         0.490802; 0.204948;,
         0.484494; 0.131340;,
         0.447745; 0.152993;,
         0.453012; 0.208416;,
         0.969150; 0.930218;,
         0.932497; 0.921433;,
         0.941624; 0.947805;,
         0.969903; 0.960663;,
         0.384970; 0.196567;,
         0.410237; 0.210015;,
         0.408458; 0.179253;,
         0.385834; 0.165189;,
         0.969903; 0.960663;,
         0.941624; 0.947805;,
         0.954876; 0.981041;,
         0.963523; 1.000000;,
         0.067061; 0.791429;,
         0.069021; 0.748683;,
         0.027857; 0.756153;,
         0.024939; 0.789411;,
         0.042389; 0.873111;,
         0.061515; 0.846807;,
         0.022960; 0.820171;,
         0.000669; 0.833980;,
         0.709465; 0.123690;,
         0.704069; 0.146337;,
         0.723814; 0.131961;,
         0.730748; 0.106597;,
         0.902712; 0.361458;,
         0.931522; 0.369149;,
         0.922254; 0.334768;,
         0.905088; 0.323065;,
         0.682451; 0.186584;,
         0.686694; 0.253259;,
         0.709514; 0.223906;,
         0.706327; 0.186371;,
         0.296519; 0.814029;,
         0.291483; 0.882442;,
         0.318400; 0.854146;,
         0.320869; 0.814135;,
         0.726908; 0.185581;,
         0.731164; 0.236678;,
         0.758983; 0.218276;,
         0.756861; 0.182997;,
         0.706327; 0.186371;,
         0.709514; 0.223906;,
         0.731164; 0.236678;,
         0.726908; 0.185581;,
         0.935008; 0.309453;,
         0.938530; 0.293483;,
         0.913561; 0.286916;,
         0.907103; 0.307090;,
         0.320869; 0.814135;,
         0.318400; 0.854146;,
         0.337840; 0.868682;,
         0.341207; 0.815096;,
         0.384970; 0.833984;,
         0.371517; 0.817636;,
         0.368411; 0.853688;,
         0.379704; 0.873184;,
         0.955406; 0.626375;,
         0.931522; 0.616859;,
         0.938417; 0.642457;,
         0.954588; 0.657444;,
         0.341207; 0.815096;,
         0.337840; 0.868682;,
         0.368411; 0.853688;,
         0.371517; 0.817636;,
         0.730748; 0.106597;,
         0.723814; 0.131961;,
         0.753976; 0.146935;,
         0.764769; 0.127223;,
         0.291483; 0.882442;,
         0.258382; 0.896314;,
         0.253278; 0.964899;,
         0.280698; 0.948174;,
         0.613530; 0.119289;,
         0.644932; 0.104209;,
         0.640036; 0.035518;,
         0.615988; 0.054470;,
         0.283518; 0.977059;,
         0.280698; 0.948174;,
         0.253278; 0.964899;,
         0.252753; 1.000000;,
         0.296519; 0.814029;,
         0.263866; 0.824644;,
         0.258382; 0.896314;,
         0.291483; 0.882442;,
         0.292689; 0.677114;,
         0.265507; 0.682002;,
         0.268598; 0.753173;,
         0.301244; 0.747341;,
         0.618153; 0.190059;,
         0.649976; 0.175898;,
         0.644932; 0.104209;,
         0.613530; 0.119289;,
         0.326568; 0.559248;,
         0.298711; 0.560061;,
         0.265507; 0.682002;,
         0.292689; 0.677114;,
         0.655466; 0.443723;,
         0.683042; 0.440537;,
         0.650554; 0.318465;,
         0.625729; 0.325582;,
         0.625729; 0.325582;,
         0.650554; 0.318465;,
         0.654247; 0.247375;,
         0.622662; 0.257133;,
         0.357990; 0.408765;,
         0.328206; 0.404366;,
         0.298711; 0.560061;,
         0.326568; 0.559248;,
         0.364786; 0.267323;,
         0.328427; 0.257812;,
         0.328206; 0.404366;,
         0.357990; 0.408765;,
         0.673217; 0.736703;,
         0.711243; 0.743030;,
         0.711659; 0.596370;,
         0.680290; 0.594587;,
         0.680290; 0.594587;,
         0.711659; 0.596370;,
         0.683042; 0.440537;,
         0.655466; 0.443723;,
         0.670213; 0.852553;,
         0.709037; 0.862768;,
         0.711243; 0.743030;,
         0.673217; 0.736703;,
         0.364195; 0.151551;,
         0.326931; 0.138077;,
         0.328427; 0.257812;,
         0.364786; 0.267323;,
         0.764769; 0.972666;,
         0.754596; 0.919348;,
         0.714050; 0.939232;,
         0.719704; 1.000000;,
         0.754596; 0.919348;,
         0.746195; 0.849352;,
         0.709037; 0.862768;,
         0.714050; 0.939232;,
         0.289056; 0.077834;,
         0.288166; 0.148102;,
         0.326931; 0.138077;,
         0.332334; 0.061664;,
         0.622662; 0.257133;,
         0.654247; 0.247375;,
         0.649976; 0.175898;,
         0.618153; 0.190059;,
         0.301244; 0.747341;,
         0.268598; 0.753173;,
         0.263866; 0.824644;,
         0.296519; 0.814029;,
         0.345848; 0.763985;,
         0.341207; 0.815096;,
         0.371517; 0.817636;,
         0.373867; 0.782360;,
         0.954588; 0.657444;,
         0.938417; 0.642457;,
         0.939340; 0.673978;,
         0.955692; 0.693242;,
         0.324333; 0.776591;,
         0.320869; 0.814135;,
         0.341207; 0.815096;,
         0.345848; 0.763985;,
         0.704069; 0.146337;,
         0.706327; 0.186371;,
         0.726908; 0.185581;,
         0.723814; 0.131961;,
         0.723814; 0.131961;,
         0.726908; 0.185581;,
         0.756861; 0.182997;,
         0.753976; 0.146935;,
         0.301244; 0.747341;,
         0.296519; 0.814029;,
         0.320869; 0.814135;,
         0.324333; 0.776591;,
         0.677783; 0.118133;,
         0.682451; 0.186584;,
         0.706327; 0.186371;,
         0.704069; 0.146337;,
         0.061515; 0.846807;,
         0.067061; 0.791429;,
         0.024939; 0.789411;,
         0.022960; 0.820171;,
         0.390688; 0.234345;,
         0.412952; 0.243282;,
         0.410237; 0.210015;,
         0.384970; 0.196567;,
         0.492368; 0.243531;,
         0.490802; 0.204948;,
         0.453012; 0.208416;,
         0.454634; 0.251136;,
         0.454634; 0.251136;,
         0.453012; 0.208416;,
         0.410237; 0.210015;,
         0.412952; 0.243282;,
         0.569968; 0.240936;,
         0.567694; 0.200958;,
         0.490802; 0.204948;,
         0.492368; 0.243531;,
         0.175397; 0.873598;,
         0.181522; 0.799374;,
         0.104590; 0.795132;,
         0.097905; 0.868686;,
         0.097905; 0.868686;,
         0.104590; 0.795132;,
         0.067061; 0.791429;,
         0.061515; 0.846807;,
         0.227143; 0.881092;,
         0.232139; 0.810364;,
         0.181522; 0.799374;,
         0.175397; 0.873598;,
         0.622662; 0.257133;,
         0.618153; 0.190059;,
         0.567694; 0.200958;,
         0.569968; 0.240936;,
         0.268598; 0.753173;,
         0.237142; 0.743272;,
         0.232139; 0.810364;,
         0.263866; 0.824644;,
         0.654247; 0.247375;,
         0.686694; 0.253259;,
         0.682451; 0.186584;,
         0.649976; 0.175898;,
         0.027857; 0.756153;,
         0.005958; 0.764837;,
         0.000000; 0.802599;,
         0.024939; 0.789411;,
         0.971219; 0.642457;,
         0.954588; 0.657444;,
         0.955692; 0.693242;,
         0.972430; 0.673978;,
         0.372897; 0.081638;,
         0.384970; 0.027712;,
         0.340035; 0.000230;,
         0.332334; 0.061664;,
         0.667271; 0.052309;,
         0.669317; 0.023040;,
         0.638722; 0.000000;,
         0.640036; 0.035518;,
         0.337840; 0.868682;,
         0.345524; 0.893700;,
         0.379704; 0.873184;,
         0.368411; 0.853688;,
         0.979762; 0.616859;,
         0.955406; 0.626375;,
         0.954588; 0.657444;,
         0.971219; 0.642457;,
         0.972430; 0.673978;,
         0.955692; 0.693242;,
         0.957004; 0.727442;,
         0.973410; 0.705974;,
         0.938530; 0.320289;,
         0.935008; 0.309453;,
         0.907103; 0.307090;,
         0.913561; 0.323065;,
         0.872748; 0.367145;,
         0.902712; 0.361458;,
         0.905088; 0.323065;,
         0.886517; 0.333549;,
         0.946299; 0.616859;,
         0.946299; 0.590649;,
         0.935049; 0.576652;,
         0.931522; 0.607607;,
         0.447745; 0.152993;,
         0.427759; 0.126196;,
         0.385834; 0.165189;,
         0.408458; 0.179253;,
         0.995824; 0.950436;,
         0.969903; 0.960663;,
         0.963523; 1.000000;,
         0.977746; 0.982151;,
         0.024939; 0.789411;,
         0.000000; 0.802599;,
         0.000669; 0.833980;,
         0.022960; 0.820171;,
         1.000000; 0.924711;,
         0.969150; 0.930218;,
         0.969903; 0.960663;,
         0.995824; 0.950436;,
         0.484494; 0.131340;,
         0.467649; 0.100338;,
         0.427759; 0.126196;,
         0.447745; 0.152993;,
         0.561949; 0.126681;,
         0.552433; 0.095506;,
         0.467649; 0.100338;,
         0.484494; 0.131340;,
         1.000000; 0.823808;,
         0.972179; 0.823356;,
         0.968146; 0.867579;,
         0.999180; 0.867461;,
         0.613530; 0.119289;,
         0.607108; 0.092213;,
         0.552433; 0.095506;,
         0.561949; 0.126681;,
         0.999180; 0.867461;,
         0.968146; 0.867579;,
         0.969150; 0.930218;,
         1.000000; 0.924711;,
         0.907103; 0.238824;,
         0.878126; 0.264629;,
         0.880611; 0.323065;,
         0.905478; 0.295590;,
         0.640036; 0.035518;,
         0.638722; 0.000000;,
         0.612296; 0.025442;,
         0.615988; 0.054470;,
         0.291483; 0.882442;,
         0.296848; 0.908603;,
         0.324329; 0.876536;,
         0.318400; 0.854146;,
         0.992471; 0.727442;,
         0.961996; 0.754362;,
         0.961996; 0.820940;,
         0.987545; 0.792097;,
         0.873985; 0.434109;,
         0.900233; 0.431061;,
         0.902712; 0.361458;,
         0.872748; 0.367145;,
         0.780636; 0.347772;,
         0.806507; 0.346482;,
         0.806508; 0.284495;,
         0.776048; 0.279227;,
         0.871483; 0.531333;,
         0.899375; 0.537272;,
         0.900233; 0.431061;,
         0.873985; 0.434109;,
         0.866845; 0.659114;,
         0.897443; 0.676840;,
         0.899375; 0.537272;,
         0.871483; 0.531333;,
         0.776055; 0.618150;,
         0.806506; 0.640996;,
         0.806507; 0.475613;,
         0.778920; 0.466688;,
         0.778920; 0.466688;,
         0.806507; 0.475613;,
         0.806507; 0.346482;,
         0.780636; 0.347772;,
         0.769457; 0.759902;,
         0.806506; 0.795829;,
         0.806506; 0.640996;,
         0.776055; 0.618150;,
         0.853268; 0.892185;,
         0.890787; 0.931450;,
         0.894038; 0.815643;,
         0.857110; 0.786163;,
         0.768593; 0.875583;,
         0.806505; 0.922166;,
         0.806506; 0.795829;,
         0.769457; 0.759902;,
         0.857110; 0.786163;,
         0.894038; 0.815643;,
         0.897443; 0.676840;,
         0.866845; 0.659114;,
         0.332334; 0.061664;,
         0.340035; 0.000230;,
         0.291126; 0.023454;,
         0.289056; 0.077834;,
         0.848242; 0.945842;,
         0.844418; 0.875583;,
         0.806505; 0.922166;,
         0.806505; 1.000000;,
         0.931522; 0.956152;,
         0.928919; 0.894765;,
         0.890787; 0.931450;,
         0.889318; 1.000000;;
      } // End of Cube_001 UV coordinates
      MeshMaterialList { // Cube_001 material list
        1;
        136;
        0,
        0,
        0,
        0,
        0,
        0,
        0,
        0,
        0,
        0,
        0,
        0,
        0,
        0,
        0,
        0,
        0,
        0,
        0,
        0,
        0,
        0,
        0,
        0,
        0,
        0,
        0,
        0,
        0,
        0,
        0,
        0,
        0,
        0,
        0,
        0,
        0,
        0,
        0,
        0,
        0,
        0,
        0,
        0,
        0,
        0,
        0,
        0,
        0,
        0,
        0,
        0,
        0,
        0,
        0,
        0,
        0,
        0,
        0,
        0,
        0,
        0,
        0,
        0,
        0,
        0,
        0,
        0,
        0,
        0,
        0,
        0,
        0,
        0,
        0,
        0,
        0,
        0,
        0,
        0,
        0,
        0,
        0,
        0,
        0,
        0,
        0,
        0,
        0,
        0,
        0,
        0,
        0,
        0,
        0,
        0,
        0,
        0,
        0,
        0,
        0,
        0,
        0,
        0,
        0,
        0,
        0,
        0,
        0,
        0,
        0,
        0,
        0,
        0,
        0,
        0,
        0,
        0,
        0,
        0,
        0,
        0,
        0,
        0,
        0,
        0,
        0,
        0,
        0,
        0,
        0,
        0,
        0,
        0,
        0,
        0;
        Material Material_002 {
           0.640000; 0.640000; 0.640000; 1.000000;;
           96.078431;
           0.500000; 0.500000; 0.500000;;
           0.000000; 0.000000; 0.000000;;
        }
      } // End of Cube_001 material list
    } // End of Cube_001 mesh
  } // End of Cube_001
} // End of Root
