xof 0303txt 0032

Frame Root {
  FrameTransformMatrix {
     1.000000, 0.000000, 0.000000, 0.000000,
     0.000000,-0.000000, 1.000000, 0.000000,
     0.000000, 1.000000, 0.000000, 0.000000,
     0.000000, 0.000000, 0.000000, 1.000000;;
  }
  Frame _0002 {
    FrameTransformMatrix {
       1.000000, 0.000000, 0.000000, 0.000000,
       0.000000, 1.000000, 0.000000, 0.000000,
       0.000000, 0.000000, 1.000000, 0.000000,
       0.000000, 0.000000, 0.000000, 1.000000;;
    }
    Mesh { // _0002 mesh
      381;
      -0.004302; 0.007841; 0.026216;,
      -0.006574; 0.000368;-0.085395;,
      -0.008373; 0.000368; 0.030828;,
      -0.006574; 0.000368;-0.085395;,
      -0.004302; 0.007841; 0.026216;,
      -0.002574; 0.007418;-0.081705;,
       0.003839; 0.007841; 0.026216;,
      -0.002574; 0.007418;-0.081705;,
      -0.004302; 0.007841; 0.026216;,
      -0.002574; 0.007418;-0.081705;,
       0.003839; 0.007841; 0.026216;,
       0.005424; 0.007418;-0.074325;,
       0.007909; 0.000368; 0.030828;,
       0.005424; 0.007418;-0.074325;,
       0.003839; 0.007841; 0.026216;,
       0.005424; 0.007418;-0.074325;,
       0.007909; 0.000368; 0.030828;,
       0.009423; 0.000368;-0.069983;,
       0.003839;-0.007106; 0.035440;,
       0.009423; 0.000368;-0.069983;,
       0.007909; 0.000368; 0.030828;,
       0.009423; 0.000368;-0.069983;,
       0.003839;-0.007106; 0.035440;,
       0.005424;-0.006682;-0.074325;,
      -0.004302;-0.007106; 0.035440;,
       0.005424;-0.006682;-0.074325;,
       0.003839;-0.007106; 0.035440;,
       0.005424;-0.006682;-0.074325;,
      -0.004302;-0.007106; 0.035440;,
      -0.002574;-0.006682;-0.079465;,
      -0.008373; 0.000368; 0.030828;,
      -0.002574;-0.006682;-0.079465;,
      -0.004302;-0.007106; 0.035440;,
      -0.002574;-0.006682;-0.079465;,
      -0.008373; 0.000368; 0.030828;,
      -0.006574; 0.000368;-0.085395;,
      -0.002567; 0.008541; 0.191390;,
      -0.008373; 0.000368; 0.030828;,
      -0.006638; 0.001491; 0.191390;,
      -0.008373; 0.000368; 0.030828;,
      -0.002567; 0.008541; 0.191390;,
      -0.004302; 0.007841; 0.026216;,
       0.005574; 0.008541; 0.191390;,
      -0.004302; 0.007841; 0.026216;,
      -0.002567; 0.008541; 0.191390;,
      -0.004302; 0.007841; 0.026216;,
       0.005574; 0.008541; 0.191390;,
       0.003839; 0.007841; 0.026216;,
       0.009644; 0.001491; 0.191390;,
       0.003839; 0.007841; 0.026216;,
       0.005574; 0.008541; 0.191390;,
       0.003839; 0.007841; 0.026216;,
       0.009644; 0.001491; 0.191390;,
       0.007909; 0.000368; 0.030828;,
       0.005574;-0.005559; 0.191390;,
       0.007909; 0.000368; 0.030828;,
       0.009644; 0.001491; 0.191390;,
       0.007909; 0.000368; 0.030828;,
       0.005574;-0.005559; 0.191390;,
       0.003839;-0.007106; 0.035440;,
      -0.002567;-0.005559; 0.191390;,
       0.003839;-0.007106; 0.035440;,
       0.005574;-0.005559; 0.191390;,
       0.003839;-0.007106; 0.035440;,
      -0.002567;-0.005559; 0.191390;,
      -0.004302;-0.007106; 0.035440;,
      -0.006638; 0.001491; 0.191390;,
      -0.004302;-0.007106; 0.035440;,
      -0.002567;-0.005559; 0.191390;,
      -0.004302;-0.007106; 0.035440;,
      -0.006638; 0.001491; 0.191390;,
      -0.008373; 0.000368; 0.030828;,
      -0.002047; 0.007351; 0.300913;,
      -0.006638; 0.001491; 0.191390;,
      -0.005695; 0.001636; 0.300913;,
      -0.006638; 0.001491; 0.191390;,
      -0.002047; 0.007351; 0.300913;,
      -0.002567; 0.008541; 0.191390;,
       0.005250; 0.007351; 0.300913;,
      -0.002567; 0.008541; 0.191390;,
      -0.002047; 0.007351; 0.300913;,
      -0.002567; 0.008541; 0.191390;,
       0.005250; 0.007351; 0.300913;,
       0.005574; 0.008541; 0.191390;,
       0.008899; 0.001636; 0.300913;,
       0.005574; 0.008541; 0.191390;,
       0.005250; 0.007351; 0.300913;,
       0.005574; 0.008541; 0.191390;,
       0.008899; 0.001636; 0.300913;,
       0.009644; 0.001491; 0.191390;,
       0.005250;-0.004080; 0.300913;,
       0.009644; 0.001491; 0.191390;,
       0.008899; 0.001636; 0.300913;,
       0.009644; 0.001491; 0.191390;,
       0.005250;-0.004080; 0.300913;,
       0.005574;-0.005559; 0.191390;,
      -0.002047;-0.004080; 0.300913;,
       0.005574;-0.005559; 0.191390;,
       0.005250;-0.004080; 0.300913;,
       0.005574;-0.005559; 0.191390;,
      -0.002047;-0.004080; 0.300913;,
      -0.002567;-0.005559; 0.191390;,
      -0.005695; 0.001636; 0.300913;,
      -0.002567;-0.005559; 0.191390;,
      -0.002047;-0.004080; 0.300913;,
      -0.002567;-0.005559; 0.191390;,
      -0.005695; 0.001636; 0.300913;,
      -0.006638; 0.001491; 0.191390;,
      -0.003816; 0.009074; 0.490259;,
      -0.005695; 0.001636; 0.300913;,
      -0.007547; 0.000301; 0.489179;,
      -0.005695; 0.001636; 0.300913;,
      -0.003816; 0.009074; 0.490259;,
      -0.002047; 0.007351; 0.300913;,
       0.003645; 0.009074; 0.490259;,
      -0.002047; 0.007351; 0.300913;,
      -0.003816; 0.009074; 0.490259;,
      -0.002047; 0.007351; 0.300913;,
       0.003645; 0.009074; 0.490259;,
       0.005250; 0.007351; 0.300913;,
       0.007375; 0.000301; 0.489179;,
       0.005250; 0.007351; 0.300913;,
       0.003645; 0.009074; 0.490259;,
       0.005250; 0.007351; 0.300913;,
       0.007375; 0.000301; 0.489179;,
       0.008899; 0.001636; 0.300913;,
       0.003645;-0.007148; 0.488098;,
       0.008899; 0.001636; 0.300913;,
       0.007375; 0.000301; 0.489179;,
       0.008899; 0.001636; 0.300913;,
       0.003645;-0.007148; 0.488098;,
       0.005250;-0.004080; 0.300913;,
      -0.003816;-0.007148; 0.488098;,
       0.005250;-0.004080; 0.300913;,
       0.003645;-0.007148; 0.488098;,
       0.005250;-0.004080; 0.300913;,
      -0.003816;-0.007148; 0.488098;,
      -0.002047;-0.004080; 0.300913;,
      -0.007547; 0.000301; 0.489179;,
      -0.002047;-0.004080; 0.300913;,
      -0.003816;-0.007148; 0.488098;,
      -0.002047;-0.004080; 0.300913;,
      -0.007547; 0.000301; 0.489179;,
      -0.005695; 0.001636; 0.300913;,
      -0.003018; 0.009584; 0.576908;,
      -0.007547; 0.000301; 0.489179;,
      -0.007080; 0.000231; 0.575114;,
      -0.007547; 0.000301; 0.489179;,
      -0.003018; 0.009584; 0.576908;,
      -0.003816; 0.009074; 0.490259;,
       0.002279; 0.009584; 0.579528;,
      -0.003816; 0.009074; 0.490259;,
      -0.003018; 0.009584; 0.576908;,
      -0.003816; 0.009074; 0.490259;,
       0.002279; 0.009584; 0.579528;,
       0.003645; 0.009074; 0.490259;,
       0.007568; 0.000231; 0.579798;,
       0.003645; 0.009074; 0.490259;,
       0.002279; 0.009584; 0.579528;,
       0.003645; 0.009074; 0.490259;,
       0.007568; 0.000231; 0.579798;,
       0.007375; 0.000301; 0.489179;,
       0.004489;-0.007658; 0.575817;,
       0.007375; 0.000301; 0.489179;,
       0.007568; 0.000231; 0.579798;,
       0.007375; 0.000301; 0.489179;,
       0.004489;-0.007658; 0.575817;,
       0.003645;-0.007148; 0.488098;,
      -0.004035;-0.007658; 0.579262;,
       0.003645;-0.007148; 0.488098;,
       0.004489;-0.007658; 0.575817;,
       0.003645;-0.007148; 0.488098;,
      -0.004035;-0.007658; 0.579262;,
      -0.003816;-0.007148; 0.488098;,
      -0.007080; 0.000231; 0.575114;,
      -0.003816;-0.007148; 0.488098;,
      -0.004035;-0.007658; 0.579262;,
      -0.003816;-0.007148; 0.488098;,
      -0.007080; 0.000231; 0.575114;,
      -0.007547; 0.000301; 0.489179;,
      -0.002574;-0.006682;-0.079465;,
       0.002453; 0.000416;-0.090480;,
       0.005424;-0.006682;-0.074325;,
       0.005424;-0.006682;-0.074325;,
       0.002453; 0.000416;-0.090480;,
       0.009423; 0.000368;-0.069983;,
       0.009423; 0.000368;-0.069983;,
       0.002453; 0.000416;-0.090480;,
       0.005424; 0.007418;-0.074325;,
       0.005424; 0.007418;-0.074325;,
       0.002453; 0.000416;-0.090480;,
      -0.002574; 0.007418;-0.081705;,
      -0.002574; 0.007418;-0.081705;,
       0.002453; 0.000416;-0.090480;,
      -0.006574; 0.000368;-0.085395;,
      -0.006574; 0.000368;-0.085395;,
       0.002453; 0.000416;-0.090480;,
      -0.002574;-0.006682;-0.079465;,
       0.007568; 0.000231; 0.579798;,
       0.002279; 0.009584; 0.579528;,
      -0.003018; 0.009584; 0.576908;,
      -0.007080; 0.000231; 0.575114;,
      -0.004035;-0.007658; 0.579262;,
      -0.004035;-0.007658; 0.579262;,
       0.004489;-0.007658; 0.575817;,
       0.000178;-0.002084; 0.656725;,
       0.000178;-0.000948; 0.692180;,
       0.000178;-0.050834; 0.692180;,
       0.000178;-0.075666; 0.656725;,
       0.000178;-0.075666; 0.656725;,
       0.000178;-0.050834; 0.692180;,
      -0.003507;-0.050834; 0.692180;,
      -0.003507;-0.075666; 0.656725;,
       0.000178;-0.000948; 0.564131;,
       0.000178;-0.050834; 0.564131;,
      -0.003507;-0.050834; 0.564131;,
      -0.003507;-0.000948; 0.564131;,
      -0.003507;-0.002084; 0.656725;,
       0.000178;-0.002084; 0.656725;,
       0.000178; 0.071498; 0.656725;,
      -0.003507; 0.071498; 0.656725;,
      -0.003507;-0.002084; 0.600858;,
      -0.003507;-0.002084; 0.628791;,
      -0.003507; 0.071498; 0.628791;,
      -0.003507; 0.071498; 0.600858;,
       0.000178;-0.075666; 0.600858;,
       0.000178;-0.075666; 0.628791;,
      -0.003507;-0.075666; 0.628791;,
      -0.003507;-0.075666; 0.600858;,
       0.000178;-0.002084; 0.600858;,
       0.000178;-0.002084; 0.628791;,
       0.000178;-0.075666; 0.628791;,
       0.000178;-0.075666; 0.600858;,
      -0.003507; 0.071498; 0.600858;,
      -0.003507; 0.071498; 0.628791;,
       0.000178; 0.071498; 0.628791;,
       0.000178; 0.071498; 0.600858;,
      -0.003507; 0.048937; 0.564131;,
      -0.003507; 0.071498; 0.600858;,
       0.000178; 0.071498; 0.600858;,
       0.000178; 0.048937; 0.564131;,
       0.000178;-0.000948; 0.564131;,
       0.000178;-0.002084; 0.600858;,
       0.000178;-0.075666; 0.600858;,
       0.000178;-0.050834; 0.564131;,
       0.000178;-0.050834; 0.564131;,
       0.000178;-0.075666; 0.600858;,
      -0.003507;-0.075666; 0.600858;,
      -0.003507;-0.050834; 0.564131;,
      -0.003507;-0.000948; 0.564131;,
      -0.003507;-0.002084; 0.600858;,
      -0.003507; 0.071498; 0.600858;,
      -0.003507; 0.048937; 0.564131;,
      -0.003507;-0.002084; 0.628791;,
      -0.003507;-0.002084; 0.656725;,
      -0.003507; 0.071498; 0.656725;,
      -0.003507; 0.071498; 0.628791;,
       0.000178;-0.075666; 0.628791;,
       0.000178;-0.075666; 0.656725;,
      -0.003507;-0.075666; 0.656725;,
      -0.003507;-0.075666; 0.628791;,
       0.000178;-0.002084; 0.628791;,
       0.000178;-0.002084; 0.656725;,
       0.000178;-0.075666; 0.656725;,
       0.000178;-0.075666; 0.628791;,
      -0.003507; 0.071498; 0.628791;,
      -0.003507; 0.071498; 0.656725;,
       0.000178; 0.071498; 0.656725;,
       0.000178; 0.071498; 0.628791;,
       0.000178; 0.071498; 0.628791;,
       0.000178; 0.071498; 0.656725;,
       0.000178;-0.002084; 0.656725;,
       0.000178;-0.002084; 0.628791;,
      -0.003507;-0.075666; 0.628791;,
      -0.003507;-0.075666; 0.656725;,
      -0.003507;-0.002084; 0.656725;,
      -0.003507;-0.002084; 0.628791;,
      -0.003507;-0.050834; 0.564131;,
      -0.003507;-0.075666; 0.600858;,
      -0.003507;-0.002084; 0.600858;,
      -0.003507;-0.000948; 0.564131;,
       0.000178; 0.048937; 0.564131;,
       0.000178; 0.071498; 0.600858;,
       0.000178;-0.002084; 0.600858;,
       0.000178;-0.000948; 0.564131;,
       0.000178; 0.071498; 0.600858;,
       0.000178; 0.071498; 0.628791;,
       0.000178;-0.002084; 0.628791;,
       0.000178;-0.002084; 0.600858;,
      -0.003507;-0.075666; 0.600858;,
      -0.003507;-0.075666; 0.628791;,
      -0.003507;-0.002084; 0.628791;,
      -0.003507;-0.002084; 0.600858;,
       0.000178;-0.050834; 0.692180;,
       0.000178;-0.000948; 0.692180;,
      -0.003507;-0.000948; 0.692180;,
      -0.003507;-0.050834; 0.692180;,
       0.000178; 0.048937; 0.564131;,
       0.000178;-0.000948; 0.564131;,
      -0.003507;-0.000948; 0.564131;,
      -0.003507; 0.048937; 0.564131;,
      -0.003507;-0.075666; 0.656725;,
      -0.003507;-0.050834; 0.692180;,
      -0.003507;-0.000948; 0.692180;,
      -0.003507;-0.002084; 0.656725;,
      -0.003507;-0.002084; 0.656725;,
      -0.003507;-0.000948; 0.692180;,
       0.000178;-0.000948; 0.692180;,
       0.000178;-0.002084; 0.656725;,
       0.002821; 0.090488; 0.656728;,
       0.006564; 0.090488; 0.656728;,
       0.006376; 0.094926; 0.653641;,
       0.003010; 0.094926; 0.653641;,
       0.006564; 0.090488; 0.595411;,
       0.006564; 0.090488; 0.656728;,
       0.006564;-0.059820; 0.656728;,
       0.006564;-0.059820; 0.595411;,
       0.006564;-0.059820; 0.595411;,
       0.006564;-0.059820; 0.656728;,
       0.002821;-0.059820; 0.656728;,
       0.002821;-0.059820; 0.595411;,
       0.002821;-0.059820; 0.595411;,
       0.002821;-0.059820; 0.656728;,
       0.002821; 0.090488; 0.656728;,
       0.002821; 0.090488; 0.595411;,
       0.006564; 0.090488; 0.595411;,
       0.006564;-0.059820; 0.595411;,
       0.002821;-0.059820; 0.595411;,
       0.002821; 0.090488; 0.595411;,
       0.006564;-0.059820; 0.656728;,
       0.006564; 0.090488; 0.656728;,
       0.002821; 0.090488; 0.656728;,
       0.002821;-0.059820; 0.656728;,
       0.006376; 0.094926; 0.653641;,
       0.006376; 0.094926; 0.598497;,
       0.005885; 0.108559; 0.606539;,
       0.005885; 0.108559; 0.645599;,
       0.006564; 0.090488; 0.595411;,
       0.002821; 0.090488; 0.595411;,
       0.003010; 0.094926; 0.598497;,
       0.006376; 0.094926; 0.598497;,
       0.006564; 0.090488; 0.656728;,
       0.006564; 0.090488; 0.595411;,
       0.006376; 0.094926; 0.598497;,
       0.006376; 0.094926; 0.653641;,
       0.002821; 0.090488; 0.595411;,
       0.002821; 0.090488; 0.656728;,
       0.003010; 0.094926; 0.653641;,
       0.003010; 0.094926; 0.598497;,
       0.003501; 0.108559; 0.606539;,
       0.003501; 0.108559; 0.645599;,
       0.004081; 0.117426; 0.636097;,
       0.004081; 0.117426; 0.616041;,
       0.003010; 0.094926; 0.598497;,
       0.003010; 0.094926; 0.653641;,
       0.003501; 0.108559; 0.645599;,
       0.003501; 0.108559; 0.606539;,
       0.003010; 0.094926; 0.653641;,
       0.006376; 0.094926; 0.653641;,
       0.005885; 0.108559; 0.645599;,
       0.003501; 0.108559; 0.645599;,
       0.006376; 0.094926; 0.598497;,
       0.003010; 0.094926; 0.598497;,
       0.003501; 0.108559; 0.606539;,
       0.005885; 0.108559; 0.606539;,
       0.004081; 0.117426; 0.616041;,
       0.004081; 0.117426; 0.636097;,
       0.005305; 0.117426; 0.636097;,
       0.005305; 0.117426; 0.616041;,
       0.003501; 0.108559; 0.645599;,
       0.005885; 0.108559; 0.645599;,
       0.005305; 0.117426; 0.636097;,
       0.004081; 0.117426; 0.636097;,
       0.005885; 0.108559; 0.606539;,
       0.003501; 0.108559; 0.606539;,
       0.004081; 0.117426; 0.616041;,
       0.005305; 0.117426; 0.616041;,
       0.005885; 0.108559; 0.645599;,
       0.005885; 0.108559; 0.606539;,
       0.005305; 0.117426; 0.616041;,
       0.005305; 0.117426; 0.636097;;
      111;
      3;2,1,0;,
      3;5,4,3;,
      3;8,7,6;,
      3;11,10,9;,
      3;14,13,12;,
      3;17,16,15;,
      3;20,19,18;,
      3;23,22,21;,
      3;26,25,24;,
      3;29,28,27;,
      3;32,31,30;,
      3;35,34,33;,
      3;38,37,36;,
      3;41,40,39;,
      3;44,43,42;,
      3;47,46,45;,
      3;50,49,48;,
      3;53,52,51;,
      3;56,55,54;,
      3;59,58,57;,
      3;62,61,60;,
      3;65,64,63;,
      3;68,67,66;,
      3;71,70,69;,
      3;74,73,72;,
      3;77,76,75;,
      3;80,79,78;,
      3;83,82,81;,
      3;86,85,84;,
      3;89,88,87;,
      3;92,91,90;,
      3;95,94,93;,
      3;98,97,96;,
      3;101,100,99;,
      3;104,103,102;,
      3;107,106,105;,
      3;110,109,108;,
      3;113,112,111;,
      3;116,115,114;,
      3;119,118,117;,
      3;122,121,120;,
      3;125,124,123;,
      3;128,127,126;,
      3;131,130,129;,
      3;134,133,132;,
      3;137,136,135;,
      3;140,139,138;,
      3;143,142,141;,
      3;146,145,144;,
      3;149,148,147;,
      3;152,151,150;,
      3;155,154,153;,
      3;158,157,156;,
      3;161,160,159;,
      3;164,163,162;,
      3;167,166,165;,
      3;170,169,168;,
      3;173,172,171;,
      3;176,175,174;,
      3;179,178,177;,
      3;182,181,180;,
      3;185,184,183;,
      3;188,187,186;,
      3;191,190,189;,
      3;194,193,192;,
      3;197,196,195;,
      7;204,203,202,201,200,199,198;,
      4;208,207,206,205;,
      4;212,211,210,209;,
      4;216,215,214,213;,
      4;220,219,218,217;,
      4;224,223,222,221;,
      4;228,227,226,225;,
      4;232,231,230,229;,
      4;236,235,234,233;,
      4;240,239,238,237;,
      4;244,243,242,241;,
      4;248,247,246,245;,
      4;252,251,250,249;,
      4;256,255,254,253;,
      4;260,259,258,257;,
      4;264,263,262,261;,
      4;268,267,266,265;,
      4;272,271,270,269;,
      4;276,275,274,273;,
      4;280,279,278,277;,
      4;284,283,282,281;,
      4;288,287,286,285;,
      4;292,291,290,289;,
      4;296,295,294,293;,
      4;300,299,298,297;,
      4;304,303,302,301;,
      4;308,307,306,305;,
      4;312,311,310,309;,
      4;316,315,314,313;,
      4;320,319,318,317;,
      4;324,323,322,321;,
      4;328,327,326,325;,
      4;332,331,330,329;,
      4;336,335,334,333;,
      4;340,339,338,337;,
      4;344,343,342,341;,
      4;348,347,346,345;,
      4;352,351,350,349;,
      4;356,355,354,353;,
      4;360,359,358,357;,
      4;364,363,362,361;,
      4;368,367,366,365;,
      4;372,371,370,369;,
      4;376,375,374,373;,
      4;380,379,378,377;;
      MeshNormals { // _0002 normals
        381;
        -0.515061; 0.857112;-0.006195;,
        -0.998383; 0.053774;-0.016877;,
        -0.999969;-0.002503;-0.003052;,
        -0.998383; 0.053774;-0.016877;,
        -0.515061; 0.857112;-0.006195;,
        -0.684011; 0.729301;-0.013886;,
         0.506607; 0.862148;-0.000427;,
        -0.684011; 0.729301;-0.013886;,
        -0.515061; 0.857112;-0.006195;,
        -0.684011; 0.729301;-0.013886;,
         0.506607; 0.862148;-0.000427;,
         0.318125; 0.948027; 0.001495;,
         0.999969;-0.000275; 0.001495;,
         0.318125; 0.948027; 0.001495;,
         0.506607; 0.862148;-0.000427;,
         0.318125; 0.948027; 0.001495;,
         0.999969;-0.000275; 0.001495;,
         0.999878; 0.001221; 0.013672;,
         0.506638;-0.862117; 0.002441;,
         0.999878; 0.001221; 0.013672;,
         0.999969;-0.000275; 0.001495;,
         0.999878; 0.001221; 0.013672;,
         0.506638;-0.862117; 0.002441;,
         0.334971;-0.942198; 0.001312;,
         0.000031;-0.999969; 0.003021;,
         0.334971;-0.942198; 0.001312;,
         0.506638;-0.862117; 0.002441;,
         0.334971;-0.942198; 0.001312;,
         0.000031;-0.999969; 0.003021;,
         0.002319;-0.999969;-0.003632;,
        -0.999969;-0.002503;-0.003052;,
        -0.865139;-0.501328;-0.013428;,
        -0.878750;-0.477218; 0.003327;,
        -0.865139;-0.501328;-0.013428;,
        -0.999969;-0.002503;-0.003052;,
        -0.998383; 0.053774;-0.016877;,
        -0.498367; 0.866909; 0.006317;,
        -0.999969;-0.002503;-0.003052;,
        -0.999908; 0.001617; 0.010926;,
        -0.999969;-0.002503;-0.003052;,
        -0.498367; 0.866909; 0.006317;,
        -0.515061; 0.857112;-0.006195;,
         0.500198; 0.865902; 0.000183;,
        -0.515061; 0.857112;-0.006195;,
        -0.498367; 0.866909; 0.006317;,
        -0.515061; 0.857112;-0.006195;,
         0.500198; 0.865902; 0.000183;,
         0.506607; 0.862148;-0.000427;,
         0.999969; 0.000183;-0.000763;,
         0.506607; 0.862148;-0.000427;,
         0.500198; 0.865902; 0.000183;,
         0.506607; 0.862148;-0.000427;,
         0.999969; 0.000183;-0.000763;,
         0.999969;-0.000275; 0.001495;,
         0.501602;-0.865047; 0.007691;,
         0.999969;-0.000275; 0.001495;,
         0.999969; 0.000183;-0.000763;,
         0.999969;-0.000275; 0.001495;,
         0.501602;-0.865047; 0.007691;,
         0.506638;-0.862117; 0.002441;,
         0.000000;-0.999908; 0.011689;,
         0.506638;-0.862117; 0.002441;,
         0.501602;-0.865047; 0.007691;,
         0.506638;-0.862117; 0.002441;,
         0.000000;-0.999908; 0.011689;,
         0.000031;-0.999969; 0.003021;,
        -0.999908; 0.001617; 0.010926;,
        -0.878750;-0.477218; 0.003327;,
        -0.865474;-0.500778; 0.011414;,
        -0.878750;-0.477218; 0.003327;,
        -0.999908; 0.001617; 0.010926;,
        -0.999969;-0.002503;-0.003052;,
        -0.480667; 0.876888;-0.001221;,
        -0.999908; 0.001617; 0.010926;,
        -0.999969; 0.000671;-0.002075;,
        -0.999908; 0.001617; 0.010926;,
        -0.480667; 0.876888;-0.001221;,
        -0.498367; 0.866909; 0.006317;,
         0.483627; 0.875240; 0.005890;,
        -0.498367; 0.866909; 0.006317;,
        -0.480667; 0.876888;-0.001221;,
        -0.498367; 0.866909; 0.006317;,
         0.483627; 0.875240; 0.005890;,
         0.500198; 0.865902; 0.000183;,
         0.999969; 0.001648; 0.007080;,
         0.500198; 0.865902; 0.000183;,
         0.483627; 0.875240; 0.005890;,
         0.500198; 0.865902; 0.000183;,
         0.999969; 0.001648; 0.007080;,
         0.999969; 0.000183;-0.000763;,
         0.483627;-0.875240; 0.000610;,
         0.999969; 0.000183;-0.000763;,
         0.999969; 0.001648; 0.007080;,
         0.999969; 0.000183;-0.000763;,
         0.483627;-0.875240; 0.000610;,
         0.501602;-0.865047; 0.007691;,
         0.000000;-0.999969;-0.001465;,
         0.501602;-0.865047; 0.007691;,
         0.483627;-0.875240; 0.000610;,
         0.501602;-0.865047; 0.007691;,
         0.000000;-0.999969;-0.001465;,
         0.000000;-0.999908; 0.011689;,
        -0.999969; 0.000671;-0.002075;,
        -0.865474;-0.500778; 0.011414;,
        -0.843745;-0.536729;-0.000458;,
        -0.865474;-0.500778; 0.011414;,
        -0.999969; 0.000671;-0.002075;,
        -0.999908; 0.001617; 0.010926;,
        -0.552843; 0.833247;-0.004181;,
        -0.999969; 0.000671;-0.002075;,
        -0.999481;-0.031983;-0.002899;,
        -0.999969; 0.000671;-0.002075;,
        -0.552843; 0.833247;-0.004181;,
        -0.480667; 0.876888;-0.001221;,
         0.550493; 0.834803;-0.003510;,
        -0.480667; 0.876888;-0.001221;,
        -0.552843; 0.833247;-0.004181;,
        -0.480667; 0.876888;-0.001221;,
         0.550493; 0.834803;-0.003510;,
         0.483627; 0.875240; 0.005890;,
         0.999542;-0.029420;-0.001282;,
         0.483627; 0.875240; 0.005890;,
         0.550493; 0.834803;-0.003510;,
         0.483627; 0.875240; 0.005890;,
         0.999542;-0.029420;-0.001282;,
         0.999969; 0.001648; 0.007080;,
         0.522080;-0.852840;-0.008271;,
         0.999969; 0.001648; 0.007080;,
         0.999542;-0.029420;-0.001282;,
         0.999969; 0.001648; 0.007080;,
         0.522080;-0.852840;-0.008271;,
         0.483627;-0.875240; 0.000610;,
         0.000000;-0.999847;-0.016358;,
         0.483627;-0.875240; 0.000610;,
         0.522080;-0.852840;-0.008271;,
         0.483627;-0.875240; 0.000610;,
         0.000000;-0.999847;-0.016358;,
         0.000000;-0.999969;-0.001465;,
        -0.999481;-0.031983;-0.002899;,
        -0.843745;-0.536729;-0.000458;,
        -0.895749;-0.444472;-0.006684;,
        -0.843745;-0.536729;-0.000458;,
        -0.999481;-0.031983;-0.002899;,
        -0.999969; 0.000671;-0.002075;,
        -0.468429; 0.694357; 0.546251;,
        -0.999481;-0.031983;-0.002899;,
        -0.880886;-0.033601; 0.472091;,
        -0.999481;-0.031983;-0.002899;,
        -0.468429; 0.694357; 0.546251;,
        -0.552843; 0.833247;-0.004181;,
         0.334788; 0.631794; 0.699088;,
        -0.552843; 0.833247;-0.004181;,
        -0.468429; 0.694357; 0.546251;,
        -0.552843; 0.833247;-0.004181;,
         0.334788; 0.631794; 0.699088;,
         0.550493; 0.834803;-0.003510;,
         0.674215; 0.082064; 0.733940;,
         0.550493; 0.834803;-0.003510;,
         0.334788; 0.631794; 0.699088;,
         0.550493; 0.834803;-0.003510;,
         0.674215; 0.082064; 0.733940;,
         0.999542;-0.029420;-0.001282;,
         0.424024;-0.776055; 0.466781;,
         0.999542;-0.029420;-0.001282;,
         0.674215; 0.082064; 0.733940;,
         0.999542;-0.029420;-0.001282;,
         0.424024;-0.776055; 0.466781;,
         0.522080;-0.852840;-0.008271;,
        -0.163030;-0.627003; 0.761742;,
         0.522080;-0.852840;-0.008271;,
         0.424024;-0.776055; 0.466781;,
         0.522080;-0.852840;-0.008271;,
        -0.163030;-0.627003; 0.761742;,
         0.000000;-0.999969;-0.005585;,
        -0.880886;-0.033601; 0.472091;,
        -0.895749;-0.444472;-0.006684;,
        -0.646931;-0.226325; 0.728172;,
        -0.895749;-0.444472;-0.006684;,
        -0.880886;-0.033601; 0.472091;,
        -0.999481;-0.031983;-0.002899;,
         0.076327;-0.853633;-0.515213;,
        -0.295175;-0.391583;-0.871487;,
         0.275491;-0.860408;-0.428694;,
         0.896603;-0.320353;-0.305643;,
         0.806665; 0.413373;-0.422315;,
         0.946745;-0.000214;-0.321940;,
         0.946745;-0.000214;-0.321940;,
         0.806665; 0.413373;-0.422315;,
         0.791101; 0.494583;-0.359844;,
         0.791101; 0.494583;-0.359844;,
         0.806665; 0.413373;-0.422315;,
         0.392682; 0.815271;-0.425550;,
        -0.397778; 0.592364;-0.700583;,
        -0.295175;-0.391583;-0.871487;,
        -0.486770;-0.119510;-0.865291;,
        -0.486770;-0.119510;-0.865291;,
        -0.295175;-0.391583;-0.871487;,
         0.076327;-0.853633;-0.515213;,
         0.674215; 0.082064; 0.733940;,
         0.334788; 0.631794; 0.699088;,
        -0.468429; 0.694357; 0.546251;,
        -0.880886;-0.033601; 0.472091;,
        -0.646931;-0.226325; 0.728172;,
        -0.163030;-0.627003; 0.761742;,
         0.424024;-0.776055; 0.466781;,
         0.908231; 0.300546; 0.291055;,
         0.575671; 0.587359; 0.568834;,
         0.616443;-0.363506; 0.698416;,
         0.645253;-0.728568; 0.229743;,
         0.645253;-0.728568; 0.229743;,
         0.616443;-0.363506; 0.698416;,
        -0.616443;-0.363506; 0.698416;,
        -0.645253;-0.728568; 0.229743;,
         0.707083; 0.000000;-0.707083;,
         0.615192;-0.369701;-0.696280;,
        -0.615192;-0.369701;-0.696280;,
        -0.707083; 0.000000;-0.707083;,
        -0.908231; 0.300546; 0.291055;,
         0.908231; 0.300546; 0.291055;,
         0.577349; 0.577349; 0.577349;,
        -0.577349; 0.577349; 0.577349;,
        -1.000000; 0.000000; 0.000000;,
        -1.000000; 0.000000; 0.000000;,
        -0.707083; 0.707083; 0.000000;,
        -0.650685; 0.730705;-0.206488;,
         0.646718;-0.729240;-0.223395;,
         0.707083;-0.707083; 0.000000;,
        -0.707083;-0.707083; 0.000000;,
        -0.646718;-0.729240;-0.223395;,
         1.000000; 0.000000; 0.000000;,
         1.000000; 0.000000; 0.000000;,
         0.707083;-0.707083; 0.000000;,
         0.646718;-0.729240;-0.223395;,
        -0.650685; 0.730705;-0.206488;,
        -0.707083; 0.707083; 0.000000;,
         0.707083; 0.707083; 0.000000;,
         0.650685; 0.730705;-0.206488;,
        -0.611957; 0.386059;-0.690237;,
        -0.650685; 0.730705;-0.206488;,
         0.650685; 0.730705;-0.206488;,
         0.611957; 0.386059;-0.690237;,
         0.707083; 0.000000;-0.707083;,
         1.000000; 0.000000; 0.000000;,
         0.646718;-0.729240;-0.223395;,
         0.615192;-0.369701;-0.696280;,
         0.615192;-0.369701;-0.696280;,
         0.646718;-0.729240;-0.223395;,
        -0.646718;-0.729240;-0.223395;,
        -0.615192;-0.369701;-0.696280;,
        -0.707083; 0.000000;-0.707083;,
        -1.000000; 0.000000; 0.000000;,
        -0.650685; 0.730705;-0.206488;,
        -0.611957; 0.386059;-0.690237;,
        -1.000000; 0.000000; 0.000000;,
        -0.908231; 0.300546; 0.291055;,
        -0.577349; 0.577349; 0.577349;,
        -0.707083; 0.707083; 0.000000;,
         0.707083;-0.707083; 0.000000;,
         0.645253;-0.728568; 0.229743;,
        -0.645253;-0.728568; 0.229743;,
        -0.707083;-0.707083; 0.000000;,
         1.000000; 0.000000; 0.000000;,
         0.908231; 0.300546; 0.291055;,
         0.645253;-0.728568; 0.229743;,
         0.707083;-0.707083; 0.000000;,
        -0.707083; 0.707083; 0.000000;,
        -0.577349; 0.577349; 0.577349;,
         0.577349; 0.577349; 0.577349;,
         0.707083; 0.707083; 0.000000;,
         0.707083; 0.707083; 0.000000;,
         0.577349; 0.577349; 0.577349;,
         0.908231; 0.300546; 0.291055;,
         1.000000; 0.000000; 0.000000;,
        -0.707083;-0.707083; 0.000000;,
        -0.645253;-0.728568; 0.229743;,
        -0.908231; 0.300546; 0.291055;,
        -1.000000; 0.000000; 0.000000;,
        -0.615192;-0.369701;-0.696280;,
        -0.646718;-0.729240;-0.223395;,
        -1.000000; 0.000000; 0.000000;,
        -0.707083; 0.000000;-0.707083;,
         0.611957; 0.386059;-0.690237;,
         0.650685; 0.730705;-0.206488;,
         1.000000; 0.000000; 0.000000;,
         0.707083; 0.000000;-0.707083;,
         0.650685; 0.730705;-0.206488;,
         0.707083; 0.707083; 0.000000;,
         1.000000; 0.000000; 0.000000;,
         1.000000; 0.000000; 0.000000;,
        -0.646718;-0.729240;-0.223395;,
        -0.707083;-0.707083; 0.000000;,
        -1.000000; 0.000000; 0.000000;,
        -1.000000; 0.000000; 0.000000;,
         0.616443;-0.363506; 0.698416;,
         0.575671; 0.587359; 0.568834;,
        -0.575671; 0.587359; 0.568834;,
        -0.616443;-0.363506; 0.698416;,
         0.611957; 0.386059;-0.690237;,
         0.707083; 0.000000;-0.707083;,
        -0.707083; 0.000000;-0.707083;,
        -0.611957; 0.386059;-0.690237;,
        -0.645253;-0.728568; 0.229743;,
        -0.616443;-0.363506; 0.698416;,
        -0.575671; 0.587359; 0.568834;,
        -0.908231; 0.300546; 0.291055;,
        -0.908231; 0.300546; 0.291055;,
        -0.575671; 0.587359; 0.568834;,
         0.575671; 0.587359; 0.568834;,
         0.908231; 0.300546; 0.291055;,
        -0.648091; 0.234840; 0.724418;,
         0.648091; 0.234840; 0.724418;,
         0.706931; 0.402326; 0.581683;,
        -0.706931; 0.402326; 0.581683;,
         0.648091; 0.234840;-0.724418;,
         0.648091; 0.234840; 0.724418;,
         0.577349;-0.577349; 0.577349;,
         0.577349;-0.577349;-0.577349;,
         0.577349;-0.577349;-0.577349;,
         0.577349;-0.577349; 0.577349;,
        -0.577349;-0.577349; 0.577349;,
        -0.577349;-0.577349;-0.577349;,
        -0.577349;-0.577349;-0.577349;,
        -0.577349;-0.577349; 0.577349;,
        -0.648091; 0.234840; 0.724418;,
        -0.648091; 0.234840;-0.724418;,
         0.648091; 0.234840;-0.724418;,
         0.577349;-0.577349;-0.577349;,
        -0.577349;-0.577349;-0.577349;,
        -0.648091; 0.234840;-0.724418;,
         0.577349;-0.577349; 0.577349;,
         0.648091; 0.234840; 0.724418;,
        -0.648091; 0.234840; 0.724418;,
        -0.577349;-0.577349; 0.577349;,
         0.706931; 0.402326; 0.581683;,
         0.706931; 0.402326;-0.581683;,
         0.668264; 0.481307;-0.567186;,
         0.668264; 0.481307; 0.567186;,
         0.648091; 0.234840;-0.724418;,
        -0.648091; 0.234840;-0.724418;,
        -0.706931; 0.402326;-0.581683;,
         0.706931; 0.402326;-0.581683;,
         0.648091; 0.234840; 0.724418;,
         0.648091; 0.234840;-0.724418;,
         0.706931; 0.402326;-0.581683;,
         0.706931; 0.402326; 0.581683;,
        -0.648091; 0.234840;-0.724418;,
        -0.648091; 0.234840; 0.724418;,
        -0.706931; 0.402326; 0.581683;,
        -0.706931; 0.402326;-0.581683;,
        -0.668264; 0.481307;-0.567186;,
        -0.668264; 0.481307; 0.567186;,
        -0.608509; 0.742027; 0.281228;,
        -0.608509; 0.742027;-0.281228;,
        -0.706931; 0.402326;-0.581683;,
        -0.706931; 0.402326; 0.581683;,
        -0.668264; 0.481307; 0.567186;,
        -0.668264; 0.481307;-0.567186;,
        -0.706931; 0.402326; 0.581683;,
         0.706931; 0.402326; 0.581683;,
         0.668264; 0.481307; 0.567186;,
        -0.668264; 0.481307; 0.567186;,
         0.706931; 0.402326;-0.581683;,
        -0.706931; 0.402326;-0.581683;,
        -0.668264; 0.481307;-0.567186;,
         0.668264; 0.481307;-0.567186;,
        -0.608509; 0.742027;-0.281228;,
        -0.608509; 0.742027; 0.281228;,
         0.608509; 0.742027; 0.281228;,
         0.608509; 0.742027;-0.281228;,
        -0.668264; 0.481307; 0.567186;,
         0.668264; 0.481307; 0.567186;,
         0.608509; 0.742027; 0.281228;,
        -0.608509; 0.742027; 0.281228;,
         0.668264; 0.481307;-0.567186;,
        -0.668264; 0.481307;-0.567186;,
        -0.608509; 0.742027;-0.281228;,
         0.608509; 0.742027;-0.281228;,
         0.668264; 0.481307; 0.567186;,
         0.668264; 0.481307;-0.567186;,
         0.608509; 0.742027;-0.281228;,
         0.608509; 0.742027; 0.281228;;
        111;
        3;2,1,0;,
        3;5,4,3;,
        3;8,7,6;,
        3;11,10,9;,
        3;14,13,12;,
        3;17,16,15;,
        3;20,19,18;,
        3;23,22,21;,
        3;26,25,24;,
        3;29,28,27;,
        3;32,31,30;,
        3;35,34,33;,
        3;38,37,36;,
        3;41,40,39;,
        3;44,43,42;,
        3;47,46,45;,
        3;50,49,48;,
        3;53,52,51;,
        3;56,55,54;,
        3;59,58,57;,
        3;62,61,60;,
        3;65,64,63;,
        3;68,67,66;,
        3;71,70,69;,
        3;74,73,72;,
        3;77,76,75;,
        3;80,79,78;,
        3;83,82,81;,
        3;86,85,84;,
        3;89,88,87;,
        3;92,91,90;,
        3;95,94,93;,
        3;98,97,96;,
        3;101,100,99;,
        3;104,103,102;,
        3;107,106,105;,
        3;110,109,108;,
        3;113,112,111;,
        3;116,115,114;,
        3;119,118,117;,
        3;122,121,120;,
        3;125,124,123;,
        3;128,127,126;,
        3;131,130,129;,
        3;134,133,132;,
        3;137,136,135;,
        3;140,139,138;,
        3;143,142,141;,
        3;146,145,144;,
        3;149,148,147;,
        3;152,151,150;,
        3;155,154,153;,
        3;158,157,156;,
        3;161,160,159;,
        3;164,163,162;,
        3;167,166,165;,
        3;170,169,168;,
        3;173,172,171;,
        3;176,175,174;,
        3;179,178,177;,
        3;182,181,180;,
        3;185,184,183;,
        3;188,187,186;,
        3;191,190,189;,
        3;194,193,192;,
        3;197,196,195;,
        7;204,203,202,201,200,199,198;,
        4;208,207,206,205;,
        4;212,211,210,209;,
        4;216,215,214,213;,
        4;220,219,218,217;,
        4;224,223,222,221;,
        4;228,227,226,225;,
        4;232,231,230,229;,
        4;236,235,234,233;,
        4;240,239,238,237;,
        4;244,243,242,241;,
        4;248,247,246,245;,
        4;252,251,250,249;,
        4;256,255,254,253;,
        4;260,259,258,257;,
        4;264,263,262,261;,
        4;268,267,266,265;,
        4;272,271,270,269;,
        4;276,275,274,273;,
        4;280,279,278,277;,
        4;284,283,282,281;,
        4;288,287,286,285;,
        4;292,291,290,289;,
        4;296,295,294,293;,
        4;300,299,298,297;,
        4;304,303,302,301;,
        4;308,307,306,305;,
        4;312,311,310,309;,
        4;316,315,314,313;,
        4;320,319,318,317;,
        4;324,323,322,321;,
        4;328,327,326,325;,
        4;332,331,330,329;,
        4;336,335,334,333;,
        4;340,339,338,337;,
        4;344,343,342,341;,
        4;348,347,346,345;,
        4;352,351,350,349;,
        4;356,355,354,353;,
        4;360,359,358,357;,
        4;364,363,362,361;,
        4;368,367,366,365;,
        4;372,371,370,369;,
        4;376,375,374,373;,
        4;380,379,378,377;;
      } // End of _0002 normals
      MeshTextureCoords { // _0002 UV coordinates
        381;
         0.064249; 0.865832;,
         0.069016; 0.936594;,
         0.068945; 0.862902;,
         0.069016; 0.936594;,
         0.064249; 0.865832;,
         0.064581; 0.934261;,
         0.340781; 0.594099;,
         0.336791; 0.527282;,
         0.335668; 0.594096;,
         0.336791; 0.527282;,
         0.340781; 0.594099;,
         0.341812; 0.531850;,
         0.205199; 0.869891;,
         0.209815; 0.936569;,
         0.209914; 0.872849;,
         0.209815; 0.936569;,
         0.205199; 0.869891;,
         0.205366; 0.933783;,
         0.200511; 0.867028;,
         0.205366; 0.933783;,
         0.205199; 0.869891;,
         0.205366; 0.933783;,
         0.200511; 0.867028;,
         0.200960; 0.936594;,
         0.467416; 0.863767;,
         0.473573; 0.933330;,
         0.472527; 0.863760;,
         0.473573; 0.933330;,
         0.467416; 0.863767;,
         0.468553; 0.936594;,
         0.068945; 0.862902;,
         0.073435; 0.932831;,
         0.073630; 0.859974;,
         0.073435; 0.932831;,
         0.068945; 0.862902;,
         0.069016; 0.936594;,
         0.063702; 0.761104;,
         0.068945; 0.862902;,
         0.068135; 0.761098;,
         0.068945; 0.862902;,
         0.063702; 0.761104;,
         0.064249; 0.865832;,
         0.341812; 0.696366;,
         0.335668; 0.594096;,
         0.336699; 0.696363;,
         0.335668; 0.594096;,
         0.341812; 0.696366;,
         0.340781; 0.594099;,
         0.205622; 0.768081;,
         0.209914; 0.872849;,
         0.210064; 0.768116;,
         0.209914; 0.872849;,
         0.205622; 0.768081;,
         0.205199; 0.869891;,
         0.201209; 0.768141;,
         0.205199; 0.869891;,
         0.205622; 0.768081;,
         0.205199; 0.869891;,
         0.201209; 0.768141;,
         0.200511; 0.867028;,
         0.468461; 0.764963;,
         0.472527; 0.863760;,
         0.473573; 0.764956;,
         0.472527; 0.863760;,
         0.468461; 0.764963;,
         0.467416; 0.863767;,
         0.068135; 0.761098;,
         0.073630; 0.859974;,
         0.072557; 0.761095;,
         0.073630; 0.859974;,
         0.068135; 0.761098;,
         0.068945; 0.862902;,
         0.064379; 0.691659;,
         0.068135; 0.761098;,
         0.067973; 0.691654;,
         0.068135; 0.761098;,
         0.064379; 0.691659;,
         0.063702; 0.761104;,
         0.341569; 0.763946;,
         0.336699; 0.696363;,
         0.336987; 0.763943;,
         0.336699; 0.696363;,
         0.341569; 0.763946;,
         0.341812; 0.696366;,
         0.205528; 0.698657;,
         0.210064; 0.768116;,
         0.209129; 0.698689;,
         0.210064; 0.768116;,
         0.205528; 0.698657;,
         0.205622; 0.768081;,
         0.201951; 0.698710;,
         0.205622; 0.768081;,
         0.205528; 0.698657;,
         0.205622; 0.768081;,
         0.201951; 0.698710;,
         0.201209; 0.768141;,
         0.468761; 0.695582;,
         0.473573; 0.764956;,
         0.473343; 0.695576;,
         0.473573; 0.764956;,
         0.468761; 0.695582;,
         0.468461; 0.764963;,
         0.067973; 0.691654;,
         0.072557; 0.761095;,
         0.071558; 0.691652;,
         0.072557; 0.761095;,
         0.067973; 0.691654;,
         0.068135; 0.761098;,
         0.063179; 0.571604;,
         0.067973; 0.691654;,
         0.068694; 0.572282;,
         0.067973; 0.691654;,
         0.063179; 0.571604;,
         0.064379; 0.691659;,
         0.340494; 0.881306;,
         0.336987; 0.763943;,
         0.335809; 0.881303;,
         0.336987; 0.763943;,
         0.340494; 0.881306;,
         0.341569; 0.763946;,
         0.204371; 0.579326;,
         0.209129; 0.698689;,
         0.209892; 0.578669;,
         0.209129; 0.698689;,
         0.204371; 0.579326;,
         0.205528; 0.698657;,
         0.199708; 0.580068;,
         0.205528; 0.698657;,
         0.204371; 0.579326;,
         0.205528; 0.698657;,
         0.199708; 0.580068;,
         0.201951; 0.698710;,
         0.467536; 0.576895;,
         0.473343; 0.695576;,
         0.472221; 0.576889;,
         0.473343; 0.695576;,
         0.467536; 0.576895;,
         0.468761; 0.695582;,
         0.068694; 0.572282;,
         0.071558; 0.691652;,
         0.073368; 0.572964;,
         0.071558; 0.691652;,
         0.068694; 0.572282;,
         0.067973; 0.691654;,
         0.062802; 0.516664;,
         0.068694; 0.572282;,
         0.068683; 0.517794;,
         0.068694; 0.572282;,
         0.062802; 0.516664;,
         0.063179; 0.571604;,
         0.339605; 0.936594;,
         0.335809; 0.881303;,
         0.336279; 0.934972;,
         0.335809; 0.881303;,
         0.339605; 0.936594;,
         0.340494; 0.881306;,
         0.204171; 0.521877;,
         0.209892; 0.578669;,
         0.210064; 0.522092;,
         0.209892; 0.578669;,
         0.204171; 0.521877;,
         0.204371; 0.579326;,
         0.199234; 0.524450;,
         0.204371; 0.579326;,
         0.204171; 0.521877;,
         0.204371; 0.579326;,
         0.199234; 0.524450;,
         0.199708; 0.580068;,
         0.806736; 0.260005;,
         0.802051; 0.202211;,
         0.801389; 0.257812;,
         0.802051; 0.202211;,
         0.806736; 0.260005;,
         0.806736; 0.202220;,
         0.068683; 0.517794;,
         0.073368; 0.572964;,
         0.073630; 0.515160;,
         0.073368; 0.572964;,
         0.068683; 0.517794;,
         0.068694; 0.572282;,
         0.931038; 0.443620;,
         0.935437; 0.450077;,
         0.935437; 0.439543;,
         0.809498; 0.074628;,
         0.809498; 0.063406;,
         0.804342; 0.075400;,
         0.804342; 0.075400;,
         0.809498; 0.063406;,
         0.801389; 0.071035;,
         0.936525; 0.260005;,
         0.936525; 0.248876;,
         0.932340; 0.254648;,
         0.933103; 0.930149;,
         0.936176; 0.936594;,
         0.937198; 0.930149;,
         0.929308; 0.447879;,
         0.935437; 0.450077;,
         0.931038; 0.443620;,
         0.900161; 0.708975;,
         0.894783; 0.704891;,
         0.891612; 0.706122;,
         0.891517; 0.712492;,
         0.895428; 0.716471;,
         0.895428; 0.716471;,
         0.900161; 0.714150;,
         0.657317; 0.889940;,
         0.679580; 0.890662;,
         0.679580; 0.859032;,
         0.657317; 0.843285;,
         0.765603; 0.657296;,
         0.765913; 0.635319;,
         0.763599; 0.635320;,
         0.763289; 0.657298;,
         0.801389; 0.418447;,
         0.801389; 0.450077;,
         0.803704; 0.450077;,
         0.803704; 0.418447;,
         0.467416; 0.229956;,
         0.469728; 0.229946;,
         0.469728; 0.183501;,
         0.467416; 0.183511;,
         0.524767; 0.403422;,
         0.507225; 0.403422;,
         0.507225; 0.450077;,
         0.524767; 0.450077;,
         0.765603; 0.692702;,
         0.765603; 0.674999;,
         0.763289; 0.675000;,
         0.763289; 0.692703;,
         0.622238; 0.889936;,
         0.639778; 0.889938;,
         0.639778; 0.843284;,
         0.622238; 0.843282;,
         0.805184; 0.902038;,
         0.805185; 0.919316;,
         0.807499; 0.919316;,
         0.807499; 0.902038;,
         0.805185; 0.876176;,
         0.805184; 0.902038;,
         0.807499; 0.902038;,
         0.807499; 0.876176;,
         0.599177; 0.890654;,
         0.622238; 0.889936;,
         0.622238; 0.843282;,
         0.599177; 0.859024;,
         0.765913; 0.716469;,
         0.765603; 0.692702;,
         0.763289; 0.692703;,
         0.763599; 0.716471;,
         0.547833; 0.404142;,
         0.524767; 0.403422;,
         0.524767; 0.450077;,
         0.547833; 0.435772;,
         0.507225; 0.403422;,
         0.489682; 0.403422;,
         0.489682; 0.450077;,
         0.507225; 0.450077;,
         0.765603; 0.674999;,
         0.765603; 0.657296;,
         0.763289; 0.657298;,
         0.763289; 0.675000;,
         0.639778; 0.889938;,
         0.657317; 0.889940;,
         0.657317; 0.843285;,
         0.639778; 0.843284;,
         0.805185; 0.919316;,
         0.805185; 0.936594;,
         0.807499; 0.936594;,
         0.807499; 0.919316;,
         0.639778; 0.936593;,
         0.657317; 0.936594;,
         0.657317; 0.889940;,
         0.639778; 0.889938;,
         0.507225; 0.356767;,
         0.489682; 0.356767;,
         0.489682; 0.403422;,
         0.507225; 0.403422;,
         0.547833; 0.372512;,
         0.524767; 0.356767;,
         0.524767; 0.403422;,
         0.547833; 0.404142;,
         0.599177; 0.922284;,
         0.622238; 0.936591;,
         0.622238; 0.889936;,
         0.599177; 0.890654;,
         0.622238; 0.936591;,
         0.639778; 0.936593;,
         0.639778; 0.889938;,
         0.622238; 0.889936;,
         0.524767; 0.356767;,
         0.507225; 0.356767;,
         0.507225; 0.403422;,
         0.524767; 0.403422;,
         0.201546; 0.155855;,
         0.201546; 0.124367;,
         0.199234; 0.124376;,
         0.199234; 0.155864;,
         0.801389; 0.386817;,
         0.801389; 0.418447;,
         0.803704; 0.418447;,
         0.803704; 0.386817;,
         0.489682; 0.356767;,
         0.467416; 0.372512;,
         0.467416; 0.404142;,
         0.489682; 0.403422;,
         0.327150; 0.133775;,
         0.327150; 0.155864;,
         0.329465; 0.155864;,
         0.329465; 0.133775;,
         0.675785; 0.431829;,
         0.673437; 0.431838;,
         0.673638; 0.434824;,
         0.675750; 0.434815;,
         0.199234; 0.377978;,
         0.237736; 0.377982;,
         0.237736; 0.282679;,
         0.199234; 0.282676;,
         0.673437; 0.171283;,
         0.673437; 0.210143;,
         0.675787; 0.210141;,
         0.675787; 0.171282;,
         0.637685; 0.604085;,
         0.599177; 0.604085;,
         0.599177; 0.699389;,
         0.637685; 0.699388;,
         0.065153; 0.376891;,
         0.065153; 0.281587;,
         0.062802; 0.281587;,
         0.062802; 0.376891;,
         0.673437; 0.336963;,
         0.673437; 0.431838;,
         0.675785; 0.431829;,
         0.675785; 0.336954;,
         0.235796; 0.380796;,
         0.201170; 0.380792;,
         0.206214; 0.389439;,
         0.230740; 0.389442;,
         0.065153; 0.376891;,
         0.062802; 0.376891;,
         0.062920; 0.379704;,
         0.065035; 0.379704;,
         0.237736; 0.377982;,
         0.199234; 0.377978;,
         0.201170; 0.380792;,
         0.235796; 0.380796;,
         0.637685; 0.699388;,
         0.599177; 0.699389;,
         0.601115; 0.702202;,
         0.635746; 0.702202;,
         0.630696; 0.710848;,
         0.606166; 0.710848;,
         0.612134; 0.716470;,
         0.624729; 0.716471;,
         0.635746; 0.702202;,
         0.601115; 0.702202;,
         0.606166; 0.710848;,
         0.630696; 0.710848;,
         0.675750; 0.434815;,
         0.673638; 0.434824;,
         0.674161; 0.443911;,
         0.675657; 0.443905;,
         0.065035; 0.379704;,
         0.062920; 0.379704;,
         0.063229; 0.388349;,
         0.064726; 0.388349;,
         0.063166; 0.142370;,
         0.063166; 0.154775;,
         0.063935; 0.154775;,
         0.063935; 0.142370;,
         0.675657; 0.443905;,
         0.674161; 0.443911;,
         0.674780; 0.450077;,
         0.675548; 0.450074;,
         0.064300; 0.135257;,
         0.062802; 0.135257;,
         0.063166; 0.142370;,
         0.063935; 0.142370;,
         0.230740; 0.389442;,
         0.206214; 0.389439;,
         0.212174; 0.395064;,
         0.224767; 0.395065;;
      } // End of _0002 UV coordinates
      MeshMaterialList { // _0002 material list
        1;
        111;
        0,
        0,
        0,
        0,
        0,
        0,
        0,
        0,
        0,
        0,
        0,
        0,
        0,
        0,
        0,
        0,
        0,
        0,
        0,
        0,
        0,
        0,
        0,
        0,
        0,
        0,
        0,
        0,
        0,
        0,
        0,
        0,
        0,
        0,
        0,
        0,
        0,
        0,
        0,
        0,
        0,
        0,
        0,
        0,
        0,
        0,
        0,
        0,
        0,
        0,
        0,
        0,
        0,
        0,
        0,
        0,
        0,
        0,
        0,
        0,
        0,
        0,
        0,
        0,
        0,
        0,
        0,
        0,
        0,
        0,
        0,
        0,
        0,
        0,
        0,
        0,
        0,
        0,
        0,
        0,
        0,
        0,
        0,
        0,
        0,
        0,
        0,
        0,
        0,
        0,
        0,
        0,
        0,
        0,
        0,
        0,
        0,
        0,
        0,
        0,
        0,
        0,
        0,
        0,
        0,
        0,
        0,
        0,
        0,
        0,
        0;
        Material Material_001 {
           0.640000; 0.640000; 0.640000; 1.000000;;
           96.078431;
           0.500000; 0.500000; 0.500000;;
           0.000000; 0.000000; 0.000000;;
        }
      } // End of _0002 material list
    } // End of _0002 mesh
  } // End of _0002
} // End of Root
