xof 0303txt 0032

Frame Root {
  FrameTransformMatrix {
     1.000000, 0.000000, 0.000000, 0.000000,
     0.000000,-0.000000, 1.000000, 0.000000,
     0.000000, 1.000000, 0.000000, 0.000000,
     0.000000, 0.000000, 0.000000, 1.000000;;
  }
  Frame Cube {
    FrameTransformMatrix {
       1.000000, 0.000000, 0.000000, 0.000000,
       0.000000, 1.000000, 0.000000, 0.000000,
       0.000000, 0.000000, 1.000000, 0.000000,
       0.000000, 0.000000, 0.000000, 1.000000;;
    }
    Mesh { // Cube mesh
      632;
       0.012456; 0.009714; 0.033916;,
       0.011669; 0.007931; 0.073038;,
       0.009108;-0.001227; 0.073038;,
       0.009101; 0.000570; 0.033916;,
      -0.000044;-0.004161; 0.033916;,
      -0.000050;-0.004839; 0.073038;,
      -0.009208;-0.001227; 0.073038;,
      -0.009188; 0.000570; 0.033916;,
      -0.012761; 0.009714; 0.033916;,
      -0.011935; 0.007931; 0.073038;,
      -0.009208; 0.017088; 0.073038;,
      -0.009188; 0.018859; 0.033916;,
      -0.000044; 0.023901; 0.033916;,
      -0.000050; 0.020938; 0.073038;,
       0.009108; 0.017088; 0.073038;,
       0.009101; 0.018859; 0.033916;,
      -0.000044; 0.023901; 0.033916;,
       0.009101; 0.018859; 0.033916;,
       0.009101; 0.018859;-0.043619;,
      -0.000044; 0.023901;-0.043619;,
      -0.000050;-0.004839; 0.073038;,
       0.009108;-0.001227; 0.073038;,
       0.009108;-0.007679; 0.093861;,
      -0.000050;-0.011291; 0.093861;,
      -0.011935; 0.001479; 0.093861;,
      -0.009208;-0.007679; 0.093861;,
      -0.009307;-0.009599; 0.259080;,
      -0.013551;-0.000331; 0.259080;,
      -0.011935; 0.007931; 0.073038;,
      -0.009208;-0.001227; 0.073038;,
      -0.009208;-0.007679; 0.093861;,
      -0.011935; 0.001479; 0.093861;,
       0.011669; 0.007931; 0.073038;,
       0.009108; 0.017088; 0.073038;,
       0.009108; 0.010636; 0.093861;,
       0.011669; 0.001479; 0.093861;,
      -0.000050; 0.020938; 0.073038;,
      -0.009208; 0.017088; 0.073038;,
      -0.009208; 0.010636; 0.093861;,
      -0.000050; 0.014486; 0.093861;,
      -0.000038; 0.014927; 0.259080;,
      -0.009307; 0.008938; 0.259080;,
      -0.010586; 0.010217; 0.261181;,
      -0.000038; 0.016206; 0.261181;,
       0.011669; 0.001479; 0.093861;,
       0.009108; 0.010636; 0.093861;,
       0.009230; 0.008938; 0.259080;,
       0.013216;-0.000331; 0.259080;,
      -0.000050; 0.014486; 0.093861;,
      -0.009208; 0.010636; 0.093861;,
      -0.009307; 0.008938; 0.259080;,
      -0.000038; 0.014927; 0.259080;,
      -0.000050;-0.011291; 0.093861;,
       0.009108;-0.007679; 0.093861;,
       0.009230;-0.009599; 0.259080;,
      -0.000038;-0.015219; 0.259080;,
      -0.014830;-0.000331; 0.261181;,
      -0.010586;-0.010879; 0.261181;,
      -0.010586;-0.010879; 0.290287;,
      -0.014830;-0.000331; 0.290287;,
      -0.000038;-0.015219; 0.259080;,
       0.009230;-0.009599; 0.259080;,
       0.010509;-0.010879; 0.261181;,
      -0.000038;-0.016498; 0.261181;,
      -0.013551;-0.000331; 0.259080;,
      -0.009307;-0.009599; 0.259080;,
      -0.010586;-0.010879; 0.261181;,
      -0.014830;-0.000331; 0.261181;,
       0.013216;-0.000331; 0.259080;,
       0.009230; 0.008938; 0.259080;,
       0.010509; 0.010217; 0.261181;,
       0.014495;-0.000331; 0.261181;,
      -0.014830;-0.000331; 0.290287;,
      -0.010586;-0.010879; 0.290287;,
      -0.009421;-0.009713; 0.292492;,
      -0.013664;-0.000331; 0.292492;,
       0.014495;-0.000331; 0.261181;,
       0.010509; 0.010217; 0.261181;,
       0.010509; 0.010217; 0.290287;,
       0.014495;-0.000331; 0.290287;,
      -0.000038; 0.016206; 0.261181;,
      -0.010586; 0.010217; 0.261181;,
      -0.010586; 0.010217; 0.290287;,
      -0.000038; 0.016206; 0.290287;,
      -0.000038;-0.016498; 0.261181;,
       0.010509;-0.010879; 0.261181;,
       0.010509;-0.010879; 0.290287;,
      -0.000038;-0.016498; 0.290287;,
      -0.000038; 0.015040; 0.292492;,
      -0.009421; 0.009051; 0.292492;,
      -0.009421; 0.009051; 0.421059;,
      -0.000038; 0.015040; 0.421059;,
       0.014495;-0.000331; 0.290287;,
       0.010509; 0.010217; 0.290287;,
       0.009344; 0.009051; 0.292492;,
       0.013329;-0.000331; 0.292492;,
      -0.000038; 0.016206; 0.290287;,
      -0.010586; 0.010217; 0.290287;,
      -0.009421; 0.009051; 0.292492;,
      -0.000038; 0.015040; 0.292492;,
      -0.000038;-0.016498; 0.290287;,
       0.010509;-0.010879; 0.290287;,
       0.009344;-0.009713; 0.292492;,
      -0.000038;-0.015333; 0.292492;,
      -0.000168;-0.000331; 0.421059;,
       0.013329;-0.000331; 0.421059;,
       0.009344; 0.009051; 0.421059;,
      -0.000038; 0.015040; 0.421059;,
      -0.000038;-0.015333; 0.292492;,
       0.009344;-0.009713; 0.292492;,
       0.009344;-0.009713; 0.421059;,
      -0.000038;-0.015333; 0.421059;,
      -0.013664;-0.000331; 0.292492;,
      -0.009421;-0.009713; 0.292492;,
      -0.009421;-0.009713; 0.421059;,
      -0.013664;-0.000331; 0.421059;,
       0.013329;-0.000331; 0.292492;,
       0.009344; 0.009051; 0.292492;,
       0.009344; 0.009051; 0.421059;,
       0.013329;-0.000331; 0.421059;,
       0.012456; 0.009714;-0.043619;,
       0.009101; 0.000570;-0.043619;,
       0.010253;-0.000584;-0.056771;,
       0.013621; 0.009714;-0.056771;,
      -0.000044;-0.004161; 0.033916;,
      -0.009188; 0.000570; 0.033916;,
      -0.009188; 0.000570;-0.043619;,
      -0.000044;-0.004161;-0.043619;,
       0.012456; 0.009714; 0.033916;,
       0.009101; 0.000570; 0.033916;,
       0.009101; 0.000570;-0.043619;,
       0.012456; 0.009714;-0.043619;,
      -0.012761; 0.009714; 0.033916;,
      -0.009188; 0.018859; 0.033916;,
      -0.009188; 0.018859;-0.043619;,
      -0.012761; 0.009714;-0.043619;,
      -0.000044; 0.025072;-0.056771;,
       0.010253; 0.020011;-0.056771;,
       0.010253; 0.020011;-0.061384;,
      -0.000044; 0.025072;-0.061384;,
      -0.000044; 0.023901;-0.043619;,
       0.009101; 0.018859;-0.043619;,
       0.010253; 0.020011;-0.056771;,
      -0.000044; 0.025072;-0.056771;,
      -0.000044;-0.004161;-0.043619;,
      -0.009188; 0.000570;-0.043619;,
      -0.010342;-0.000584;-0.056771;,
      -0.000044;-0.005332;-0.056771;,
      -0.012761; 0.009714;-0.043619;,
      -0.009188; 0.018859;-0.043619;,
      -0.010342; 0.020011;-0.056771;,
      -0.013928; 0.009714;-0.056771;,
      -0.000153; 0.009714;-0.061384;,
      -0.013928; 0.009714;-0.061384;,
      -0.010342; 0.020011;-0.061384;,
      -0.000044; 0.025072;-0.061384;,
      -0.000044;-0.005332;-0.056771;,
      -0.010342;-0.000584;-0.056771;,
      -0.010342;-0.000584;-0.061384;,
      -0.000044;-0.005332;-0.061384;,
      -0.013928; 0.009714;-0.056771;,
      -0.010342; 0.020011;-0.056771;,
      -0.010342; 0.020011;-0.061384;,
      -0.013928; 0.009714;-0.061384;,
       0.013621; 0.009714;-0.056771;,
       0.010253;-0.000584;-0.056771;,
       0.010253;-0.000584;-0.061384;,
       0.013621; 0.009714;-0.061384;,
       0.010253; 0.020011;-0.056771;,
       0.013621; 0.009714;-0.056771;,
       0.013621; 0.009714;-0.061384;,
       0.010253; 0.020011;-0.061384;,
      -0.010342;-0.000584;-0.056771;,
      -0.013928; 0.009714;-0.056771;,
      -0.013928; 0.009714;-0.061384;,
      -0.010342;-0.000584;-0.061384;,
      -0.000044;-0.005332;-0.061384;,
      -0.010342;-0.000584;-0.061384;,
      -0.013928; 0.009714;-0.061384;,
      -0.000153; 0.009714;-0.061384;,
      -0.009188; 0.000570;-0.043619;,
      -0.012761; 0.009714;-0.043619;,
      -0.013928; 0.009714;-0.056771;,
      -0.010342;-0.000584;-0.056771;,
      -0.009188; 0.000570; 0.033916;,
      -0.012761; 0.009714; 0.033916;,
      -0.012761; 0.009714;-0.043619;,
      -0.009188; 0.000570;-0.043619;,
       0.009101; 0.018859; 0.033916;,
       0.012456; 0.009714; 0.033916;,
       0.012456; 0.009714;-0.043619;,
       0.009101; 0.018859;-0.043619;,
       0.009101; 0.018859;-0.043619;,
       0.012456; 0.009714;-0.043619;,
       0.013621; 0.009714;-0.056771;,
       0.010253; 0.020011;-0.056771;,
       0.009344;-0.009713; 0.292492;,
       0.013329;-0.000331; 0.292492;,
       0.013329;-0.000331; 0.421059;,
       0.009344;-0.009713; 0.421059;,
      -0.009421; 0.009051; 0.292492;,
      -0.013664;-0.000331; 0.292492;,
      -0.013664;-0.000331; 0.421059;,
      -0.009421; 0.009051; 0.421059;,
      -0.000038;-0.015333; 0.421059;,
       0.009344;-0.009713; 0.421059;,
       0.013329;-0.000331; 0.421059;,
      -0.000168;-0.000331; 0.421059;,
       0.010509;-0.010879; 0.290287;,
       0.014495;-0.000331; 0.290287;,
       0.013329;-0.000331; 0.292492;,
       0.009344;-0.009713; 0.292492;,
       0.010509;-0.010879; 0.261181;,
       0.014495;-0.000331; 0.261181;,
       0.014495;-0.000331; 0.290287;,
       0.010509;-0.010879; 0.290287;,
      -0.010586; 0.010217; 0.290287;,
      -0.014830;-0.000331; 0.290287;,
      -0.013664;-0.000331; 0.292492;,
      -0.009421; 0.009051; 0.292492;,
       0.009230;-0.009599; 0.259080;,
       0.013216;-0.000331; 0.259080;,
       0.014495;-0.000331; 0.261181;,
       0.010509;-0.010879; 0.261181;,
      -0.009307; 0.008938; 0.259080;,
      -0.013551;-0.000331; 0.259080;,
      -0.014830;-0.000331; 0.261181;,
      -0.010586; 0.010217; 0.261181;,
      -0.010586; 0.010217; 0.261181;,
      -0.014830;-0.000331; 0.261181;,
      -0.014830;-0.000331; 0.290287;,
      -0.010586; 0.010217; 0.290287;,
       0.009108;-0.007679; 0.093861;,
       0.011669; 0.001479; 0.093861;,
       0.013216;-0.000331; 0.259080;,
       0.009230;-0.009599; 0.259080;,
       0.009108;-0.001227; 0.073038;,
       0.011669; 0.007931; 0.073038;,
       0.011669; 0.001479; 0.093861;,
       0.009108;-0.007679; 0.093861;,
      -0.009208; 0.017088; 0.073038;,
      -0.011935; 0.007931; 0.073038;,
      -0.011935; 0.001479; 0.093861;,
      -0.009208; 0.010636; 0.093861;,
      -0.009208; 0.010636; 0.093861;,
      -0.011935; 0.001479; 0.093861;,
      -0.013551;-0.000331; 0.259080;,
      -0.009307; 0.008938; 0.259080;,
      -0.009188; 0.000570; 0.033916;,
      -0.009208;-0.001227; 0.073038;,
      -0.011935; 0.007931; 0.073038;,
      -0.012761; 0.009714; 0.033916;,
       0.009101; 0.018859; 0.033916;,
       0.009108; 0.017088; 0.073038;,
       0.011669; 0.007931; 0.073038;,
       0.012456; 0.009714; 0.033916;,
      -0.009421;-0.009713; 0.421059;,
      -0.000038;-0.015333; 0.421059;,
      -0.000168;-0.000331; 0.421059;,
      -0.013664;-0.000331; 0.421059;,
       0.010253;-0.000584;-0.061384;,
      -0.000044;-0.005332;-0.061384;,
      -0.000153; 0.009714;-0.061384;,
       0.013621; 0.009714;-0.061384;,
       0.010253;-0.000584;-0.056771;,
      -0.000044;-0.005332;-0.056771;,
      -0.000044;-0.005332;-0.061384;,
       0.010253;-0.000584;-0.061384;,
       0.013621; 0.009714;-0.061384;,
      -0.000153; 0.009714;-0.061384;,
      -0.000044; 0.025072;-0.061384;,
       0.010253; 0.020011;-0.061384;,
       0.009101; 0.000570;-0.043619;,
      -0.000044;-0.004161;-0.043619;,
      -0.000044;-0.005332;-0.056771;,
       0.010253;-0.000584;-0.056771;,
      -0.009188; 0.018859;-0.043619;,
      -0.000044; 0.023901;-0.043619;,
      -0.000044; 0.025072;-0.056771;,
      -0.010342; 0.020011;-0.056771;,
      -0.010342; 0.020011;-0.056771;,
      -0.000044; 0.025072;-0.056771;,
      -0.000044; 0.025072;-0.061384;,
      -0.010342; 0.020011;-0.061384;,
       0.009101; 0.000570; 0.033916;,
      -0.000044;-0.004161; 0.033916;,
      -0.000044;-0.004161;-0.043619;,
       0.009101; 0.000570;-0.043619;,
      -0.009421;-0.009713; 0.292492;,
      -0.000038;-0.015333; 0.292492;,
      -0.000038;-0.015333; 0.421059;,
      -0.009421;-0.009713; 0.421059;,
      -0.013664;-0.000331; 0.421059;,
      -0.000168;-0.000331; 0.421059;,
      -0.000038; 0.015040; 0.421059;,
      -0.009421; 0.009051; 0.421059;,
      -0.010586;-0.010879; 0.290287;,
      -0.000038;-0.016498; 0.290287;,
      -0.000038;-0.015333; 0.292492;,
      -0.009421;-0.009713; 0.292492;,
       0.010509; 0.010217; 0.290287;,
      -0.000038; 0.016206; 0.290287;,
      -0.000038; 0.015040; 0.292492;,
       0.009344; 0.009051; 0.292492;,
       0.009344; 0.009051; 0.292492;,
      -0.000038; 0.015040; 0.292492;,
      -0.000038; 0.015040; 0.421059;,
       0.009344; 0.009051; 0.421059;,
      -0.010586;-0.010879; 0.261181;,
      -0.000038;-0.016498; 0.261181;,
      -0.000038;-0.016498; 0.290287;,
      -0.010586;-0.010879; 0.290287;,
       0.010509; 0.010217; 0.261181;,
      -0.000038; 0.016206; 0.261181;,
      -0.000038; 0.016206; 0.290287;,
       0.010509; 0.010217; 0.290287;,
      -0.009307;-0.009599; 0.259080;,
      -0.000038;-0.015219; 0.259080;,
      -0.000038;-0.016498; 0.261181;,
      -0.010586;-0.010879; 0.261181;,
      -0.009208;-0.007679; 0.093861;,
      -0.000050;-0.011291; 0.093861;,
      -0.000038;-0.015219; 0.259080;,
      -0.009307;-0.009599; 0.259080;,
       0.009108; 0.010636; 0.093861;,
      -0.000050; 0.014486; 0.093861;,
      -0.000038; 0.014927; 0.259080;,
       0.009230; 0.008938; 0.259080;,
       0.009230; 0.008938; 0.259080;,
      -0.000038; 0.014927; 0.259080;,
      -0.000038; 0.016206; 0.261181;,
       0.010509; 0.010217; 0.261181;,
       0.009108; 0.017088; 0.073038;,
      -0.000050; 0.020938; 0.073038;,
      -0.000050; 0.014486; 0.093861;,
       0.009108; 0.010636; 0.093861;,
      -0.009208;-0.001227; 0.073038;,
      -0.000050;-0.004839; 0.073038;,
      -0.000050;-0.011291; 0.093861;,
      -0.009208;-0.007679; 0.093861;,
      -0.009188; 0.018859; 0.033916;,
      -0.000044; 0.023901; 0.033916;,
      -0.000044; 0.023901;-0.043619;,
      -0.009188; 0.018859;-0.043619;,
      -0.009188; 0.018859; 0.033916;,
      -0.009208; 0.017088; 0.073038;,
      -0.000050; 0.020938; 0.073038;,
      -0.000044; 0.023901; 0.033916;,
       0.009101; 0.000570; 0.033916;,
       0.009108;-0.001227; 0.073038;,
      -0.000050;-0.004839; 0.073038;,
      -0.000044;-0.004161; 0.033916;,
       0.005808; 0.028501; 0.349438;,
       0.005808; 0.028501; 0.382480;,
       0.005808;-0.023794; 0.382480;,
       0.005808;-0.023794; 0.349438;,
      -0.005317;-0.023794; 0.382480;,
      -0.005317;-0.027755; 0.382480;,
      -0.002973;-0.026920; 0.396973;,
      -0.002973;-0.024628; 0.396973;,
      -0.005317;-0.023794; 0.349438;,
      -0.005317;-0.023794; 0.382480;,
      -0.005317; 0.028501; 0.382480;,
      -0.005317; 0.028501; 0.349438;,
      -0.005317; 0.028501; 0.382480;,
       0.005808; 0.028501; 0.382480;,
       0.003583; 0.036196; 0.375872;,
      -0.003092; 0.036196; 0.375872;,
       0.005808;-0.023794; 0.349438;,
      -0.005317;-0.023794; 0.349438;,
      -0.005317; 0.028501; 0.349438;,
       0.005808; 0.028501; 0.349438;,
      -0.005317;-0.023794; 0.382480;,
       0.005808;-0.023794; 0.382480;,
       0.005808; 0.028501; 0.382480;,
      -0.005317; 0.028501; 0.382480;,
      -0.003092; 0.036196; 0.356046;,
      -0.003092; 0.036196; 0.375872;,
       0.003583; 0.036196; 0.375872;,
       0.003583; 0.036196; 0.356046;,
      -0.005317; 0.028501; 0.349438;,
      -0.005317; 0.028501; 0.382480;,
      -0.003092; 0.036196; 0.375872;,
      -0.003092; 0.036196; 0.356046;,
       0.005808; 0.028501; 0.382480;,
       0.005808; 0.028501; 0.349438;,
       0.003583; 0.036196; 0.356046;,
       0.003583; 0.036196; 0.375872;,
       0.005808; 0.028501; 0.349438;,
      -0.005317; 0.028501; 0.349438;,
      -0.003092; 0.036196; 0.356046;,
       0.003583; 0.036196; 0.356046;,
       0.005808;-0.027755; 0.349438;,
       0.005808;-0.027755; 0.382480;,
       0.006877;-0.034817; 0.386889;,
       0.006877;-0.034817; 0.347494;,
       0.005808;-0.023794; 0.349438;,
       0.005808;-0.023794; 0.382480;,
       0.005808;-0.027755; 0.382480;,
       0.005808;-0.027755; 0.349438;,
      -0.005317;-0.023794; 0.382480;,
      -0.005317;-0.023794; 0.349438;,
      -0.005317;-0.027755; 0.349438;,
      -0.005317;-0.027755; 0.382480;,
      -0.005317;-0.027755; 0.349438;,
      -0.005317;-0.023794; 0.349438;,
      -0.003481;-0.024447; 0.315831;,
      -0.003481;-0.027101; 0.315831;,
      -0.003481;-0.024447; 0.315831;,
       0.003971;-0.024447; 0.315831;,
       0.003971;-0.027101; 0.315831;,
      -0.003481;-0.027101; 0.315831;,
       0.005808;-0.027755; 0.382480;,
       0.003464;-0.026920; 0.396973;,
       0.004083;-0.033822; 0.404169;,
       0.006877;-0.034817; 0.386889;,
      -0.005317;-0.023794; 0.349438;,
       0.005808;-0.023794; 0.349438;,
       0.003971;-0.024447; 0.315831;,
      -0.003481;-0.024447; 0.315831;,
       0.005808;-0.023794; 0.349438;,
       0.005808;-0.027755; 0.349438;,
       0.003971;-0.027101; 0.315831;,
       0.003971;-0.024447; 0.315831;,
       0.003464;-0.024628; 0.396973;,
      -0.002973;-0.024628; 0.396973;,
      -0.002973;-0.026920; 0.396973;,
       0.003464;-0.026920; 0.396973;,
      -0.005317;-0.027755; 0.349438;,
      -0.003481;-0.027101; 0.315831;,
      -0.004197;-0.034037; 0.307424;,
      -0.006387;-0.034817; 0.347494;,
       0.005808;-0.023794; 0.382480;,
      -0.005317;-0.023794; 0.382480;,
      -0.002973;-0.024628; 0.396973;,
       0.003464;-0.024628; 0.396973;,
       0.005808;-0.027755; 0.382480;,
       0.005808;-0.023794; 0.382480;,
       0.003464;-0.024628; 0.396973;,
       0.003464;-0.026920; 0.396973;,
       0.004083;-0.033822; 0.404169;,
      -0.003592;-0.033822; 0.404169;,
      -0.003592;-0.044659; 0.404307;,
       0.004083;-0.044659; 0.404307;,
       0.006877;-0.034817; 0.386889;,
       0.004083;-0.033822; 0.404169;,
       0.004083;-0.044659; 0.404307;,
       0.006877;-0.045654; 0.387027;,
       0.006877;-0.034817; 0.347494;,
       0.006877;-0.034817; 0.386889;,
       0.006877;-0.045654; 0.387027;,
       0.006877;-0.045654; 0.347631;,
      -0.002973;-0.026920; 0.396973;,
      -0.005317;-0.027755; 0.382480;,
      -0.006387;-0.034817; 0.386889;,
      -0.003592;-0.033822; 0.404169;,
      -0.003481;-0.027101; 0.315831;,
       0.003971;-0.027101; 0.315831;,
       0.004688;-0.034037; 0.307424;,
      -0.004197;-0.034037; 0.307424;,
       0.003971;-0.027101; 0.315831;,
       0.005808;-0.027755; 0.349438;,
       0.006877;-0.034817; 0.347494;,
       0.004688;-0.034037; 0.307424;,
      -0.005317;-0.027755; 0.382480;,
      -0.005317;-0.027755; 0.349438;,
      -0.006387;-0.034817; 0.347494;,
      -0.006387;-0.034817; 0.386889;,
       0.003464;-0.026920; 0.396973;,
      -0.002973;-0.026920; 0.396973;,
      -0.003592;-0.033822; 0.404169;,
       0.004083;-0.033822; 0.404169;,
      -0.004197;-0.044875; 0.307562;,
       0.004688;-0.044875; 0.307562;,
       0.004167;-0.052689; 0.313995;,
      -0.003677;-0.052689; 0.313995;,
       0.004688;-0.044875; 0.307562;,
       0.006877;-0.045654; 0.347631;,
       0.006100;-0.053378; 0.349370;,
       0.004167;-0.052689; 0.313995;,
      -0.003592;-0.044659; 0.404307;,
      -0.006387;-0.045654; 0.387027;,
      -0.005610;-0.053378; 0.384150;,
      -0.003143;-0.052499; 0.399406;,
      -0.006387;-0.034817; 0.347494;,
      -0.004197;-0.034037; 0.307424;,
      -0.004197;-0.044875; 0.307562;,
      -0.006387;-0.045654; 0.347631;,
      -0.006387;-0.034817; 0.386889;,
      -0.006387;-0.034817; 0.347494;,
      -0.006387;-0.045654; 0.347631;,
      -0.006387;-0.045654; 0.387027;,
      -0.003592;-0.033822; 0.404169;,
      -0.006387;-0.034817; 0.386889;,
      -0.006387;-0.045654; 0.387027;,
      -0.003592;-0.044659; 0.404307;,
       0.004688;-0.034037; 0.307424;,
       0.006877;-0.034817; 0.347494;,
       0.006877;-0.045654; 0.347631;,
       0.004688;-0.044875; 0.307562;,
      -0.004197;-0.034037; 0.307424;,
       0.004688;-0.034037; 0.307424;,
       0.004688;-0.044875; 0.307562;,
      -0.004197;-0.044875; 0.307562;,
       0.004167;-0.052689; 0.313995;,
       0.006100;-0.053378; 0.349370;,
       0.004329;-0.062028; 0.353220;,
       0.002981;-0.061548; 0.328545;,
      -0.003143;-0.052499; 0.399406;,
      -0.005610;-0.053378; 0.384150;,
      -0.003839;-0.062028; 0.377480;,
      -0.002118;-0.061415; 0.388121;,
      -0.005610;-0.053378; 0.384150;,
      -0.005610;-0.053378; 0.349370;,
      -0.003839;-0.062028; 0.353220;,
      -0.003839;-0.062028; 0.377480;,
       0.006877;-0.045654; 0.347631;,
       0.006877;-0.045654; 0.387027;,
       0.006100;-0.053378; 0.384150;,
       0.006100;-0.053378; 0.349370;,
       0.006877;-0.045654; 0.387027;,
       0.004083;-0.044659; 0.404307;,
       0.003633;-0.052499; 0.399406;,
       0.006100;-0.053378; 0.384150;,
       0.004083;-0.044659; 0.404307;,
      -0.003592;-0.044659; 0.404307;,
      -0.003143;-0.052499; 0.399406;,
       0.003633;-0.052499; 0.399406;,
      -0.006387;-0.045654; 0.347631;,
      -0.004197;-0.044875; 0.307562;,
      -0.003677;-0.052689; 0.313995;,
      -0.005610;-0.053378; 0.349370;,
      -0.006387;-0.045654; 0.387027;,
      -0.006387;-0.045654; 0.347631;,
      -0.005610;-0.053378; 0.349370;,
      -0.005610;-0.053378; 0.384150;,
      -0.003839;-0.062028; 0.353220;,
      -0.002491;-0.061548; 0.328545;,
      -0.001639;-0.065891; 0.338961;,
      -0.002568;-0.066222; 0.355958;,
       0.002608;-0.061415; 0.388121;,
      -0.002118;-0.061415; 0.388121;,
      -0.001383;-0.065800; 0.379997;,
       0.001873;-0.065800; 0.379997;,
       0.004329;-0.062028; 0.377480;,
       0.002608;-0.061415; 0.388121;,
       0.001873;-0.065800; 0.379997;,
       0.003058;-0.066222; 0.372668;,
      -0.003677;-0.052689; 0.313995;,
       0.004167;-0.052689; 0.313995;,
       0.002981;-0.061548; 0.328545;,
      -0.002491;-0.061548; 0.328545;,
       0.006100;-0.053378; 0.349370;,
       0.006100;-0.053378; 0.384150;,
       0.004329;-0.062028; 0.377480;,
       0.004329;-0.062028; 0.353220;,
       0.006100;-0.053378; 0.384150;,
       0.003633;-0.052499; 0.399406;,
       0.002608;-0.061415; 0.388121;,
       0.004329;-0.062028; 0.377480;,
       0.003633;-0.052499; 0.399406;,
      -0.003143;-0.052499; 0.399406;,
      -0.002118;-0.061415; 0.388121;,
       0.002608;-0.061415; 0.388121;,
      -0.005610;-0.053378; 0.349370;,
      -0.003677;-0.052689; 0.313995;,
      -0.002491;-0.061548; 0.328545;,
      -0.003839;-0.062028; 0.353220;,
       0.003058;-0.066222; 0.372668;,
       0.001873;-0.065800; 0.379997;,
       0.000874;-0.073450; 0.368981;,
       0.001331;-0.073613; 0.366151;,
       0.003058;-0.066222; 0.355958;,
       0.003058;-0.066222; 0.372668;,
       0.001331;-0.073613; 0.366151;,
       0.001331;-0.073613; 0.359698;,
      -0.001639;-0.065891; 0.338961;,
       0.002130;-0.065891; 0.338961;,
       0.000973;-0.073486; 0.353135;,
      -0.000482;-0.073486; 0.353135;,
      -0.003839;-0.062028; 0.377480;,
      -0.003839;-0.062028; 0.353220;,
      -0.002568;-0.066222; 0.355958;,
      -0.002568;-0.066222; 0.372668;,
      -0.002118;-0.061415; 0.388121;,
      -0.003839;-0.062028; 0.377480;,
      -0.002568;-0.066222; 0.372668;,
      -0.001383;-0.065800; 0.379997;,
       0.002981;-0.061548; 0.328545;,
       0.004329;-0.062028; 0.353220;,
       0.003058;-0.066222; 0.355958;,
       0.002130;-0.065891; 0.338961;,
      -0.002491;-0.061548; 0.328545;,
       0.002981;-0.061548; 0.328545;,
       0.002130;-0.065891; 0.338961;,
      -0.001639;-0.065891; 0.338961;,
       0.004329;-0.062028; 0.353220;,
       0.004329;-0.062028; 0.377480;,
       0.003058;-0.066222; 0.372668;,
       0.003058;-0.066222; 0.355958;,
       0.001331;-0.073613; 0.359698;,
       0.001331;-0.073613; 0.366151;,
      -0.000841;-0.073613; 0.366151;,
      -0.000841;-0.073613; 0.359698;,
       0.001331;-0.073613; 0.359698;,
      -0.000841;-0.073613; 0.359698;,
      -0.000482;-0.073486; 0.353135;,
       0.000973;-0.073486; 0.353135;,
      -0.000841;-0.073613; 0.366151;,
       0.001331;-0.073613; 0.366151;,
       0.000874;-0.073450; 0.368981;,
      -0.000383;-0.073450; 0.368981;,
       0.001873;-0.065800; 0.379997;,
      -0.001383;-0.065800; 0.379997;,
      -0.000383;-0.073450; 0.368981;,
       0.000874;-0.073450; 0.368981;,
      -0.002568;-0.066222; 0.355958;,
      -0.001639;-0.065891; 0.338961;,
      -0.000482;-0.073486; 0.353135;,
      -0.000841;-0.073613; 0.359698;,
      -0.002568;-0.066222; 0.372668;,
      -0.002568;-0.066222; 0.355958;,
      -0.000841;-0.073613; 0.359698;,
      -0.000841;-0.073613; 0.366151;,
      -0.001383;-0.065800; 0.379997;,
      -0.002568;-0.066222; 0.372668;,
      -0.000841;-0.073613; 0.366151;,
      -0.000383;-0.073450; 0.368981;,
       0.002130;-0.065891; 0.338961;,
       0.003058;-0.066222; 0.355958;,
       0.001331;-0.073613; 0.359698;,
       0.000973;-0.073486; 0.353135;;
      158;
      4;3,2,1,0;,
      4;7,6,5,4;,
      4;11,10,9,8;,
      4;15,14,13,12;,
      4;19,18,17,16;,
      4;23,22,21,20;,
      4;27,26,25,24;,
      4;31,30,29,28;,
      4;35,34,33,32;,
      4;39,38,37,36;,
      4;43,42,41,40;,
      4;47,46,45,44;,
      4;51,50,49,48;,
      4;55,54,53,52;,
      4;59,58,57,56;,
      4;63,62,61,60;,
      4;67,66,65,64;,
      4;71,70,69,68;,
      4;75,74,73,72;,
      4;79,78,77,76;,
      4;83,82,81,80;,
      4;87,86,85,84;,
      4;91,90,89,88;,
      4;95,94,93,92;,
      4;99,98,97,96;,
      4;103,102,101,100;,
      4;107,106,105,104;,
      4;111,110,109,108;,
      4;115,114,113,112;,
      4;119,118,117,116;,
      4;123,122,121,120;,
      4;127,126,125,124;,
      4;131,130,129,128;,
      4;135,134,133,132;,
      4;139,138,137,136;,
      4;143,142,141,140;,
      4;147,146,145,144;,
      4;151,150,149,148;,
      4;155,154,153,152;,
      4;159,158,157,156;,
      4;163,162,161,160;,
      4;167,166,165,164;,
      4;171,170,169,168;,
      4;175,174,173,172;,
      4;179,178,177,176;,
      4;183,182,181,180;,
      4;187,186,185,184;,
      4;191,190,189,188;,
      4;195,194,193,192;,
      4;199,198,197,196;,
      4;203,202,201,200;,
      4;207,206,205,204;,
      4;211,210,209,208;,
      4;215,214,213,212;,
      4;219,218,217,216;,
      4;223,222,221,220;,
      4;227,226,225,224;,
      4;231,230,229,228;,
      4;235,234,233,232;,
      4;239,238,237,236;,
      4;243,242,241,240;,
      4;247,246,245,244;,
      4;251,250,249,248;,
      4;255,254,253,252;,
      4;259,258,257,256;,
      4;263,262,261,260;,
      4;267,266,265,264;,
      4;271,270,269,268;,
      4;275,274,273,272;,
      4;279,278,277,276;,
      4;283,282,281,280;,
      4;287,286,285,284;,
      4;291,290,289,288;,
      4;295,294,293,292;,
      4;299,298,297,296;,
      4;303,302,301,300;,
      4;307,306,305,304;,
      4;311,310,309,308;,
      4;315,314,313,312;,
      4;319,318,317,316;,
      4;323,322,321,320;,
      4;327,326,325,324;,
      4;331,330,329,328;,
      4;335,334,333,332;,
      4;339,338,337,336;,
      4;343,342,341,340;,
      4;347,346,345,344;,
      4;351,350,349,348;,
      4;355,354,353,352;,
      4;359,358,357,356;,
      4;363,362,361,360;,
      4;367,366,365,364;,
      4;371,370,369,368;,
      4;375,374,373,372;,
      4;379,378,377,376;,
      4;383,382,381,380;,
      4;387,386,385,384;,
      4;391,390,389,388;,
      4;395,394,393,392;,
      4;399,398,397,396;,
      4;403,402,401,400;,
      4;407,406,405,404;,
      4;411,410,409,408;,
      4;415,414,413,412;,
      4;419,418,417,416;,
      4;423,422,421,420;,
      4;427,426,425,424;,
      4;431,430,429,428;,
      4;435,434,433,432;,
      4;439,438,437,436;,
      4;443,442,441,440;,
      4;447,446,445,444;,
      4;451,450,449,448;,
      4;455,454,453,452;,
      4;459,458,457,456;,
      4;463,462,461,460;,
      4;467,466,465,464;,
      4;471,470,469,468;,
      4;475,474,473,472;,
      4;479,478,477,476;,
      4;483,482,481,480;,
      4;487,486,485,484;,
      4;491,490,489,488;,
      4;495,494,493,492;,
      4;499,498,497,496;,
      4;503,502,501,500;,
      4;507,506,505,504;,
      4;511,510,509,508;,
      4;515,514,513,512;,
      4;519,518,517,516;,
      4;523,522,521,520;,
      4;527,526,525,524;,
      4;531,530,529,528;,
      4;535,534,533,532;,
      4;539,538,537,536;,
      4;543,542,541,540;,
      4;547,546,545,544;,
      4;551,550,549,548;,
      4;555,554,553,552;,
      4;559,558,557,556;,
      4;563,562,561,560;,
      4;567,566,565,564;,
      4;571,570,569,568;,
      4;575,574,573,572;,
      4;579,578,577,576;,
      4;583,582,581,580;,
      4;587,586,585,584;,
      4;591,590,589,588;,
      4;595,594,593,592;,
      4;599,598,597,596;,
      4;603,602,601,600;,
      4;607,606,605,604;,
      4;611,610,609,608;,
      4;615,614,613,612;,
      4;619,618,617,616;,
      4;623,622,621,620;,
      4;627,626,625,624;,
      4;631,630,629,628;;
      MeshNormals { // Cube normals
        632;
         0.999969; 0.004395; 0.005158;,
         0.999664; 0.021271; 0.012726;,
         0.760216;-0.641011;-0.105502;,
         0.751305;-0.659871;-0.008911;,
         0.000000;-0.999847;-0.016053;,
         0.000000;-0.985107;-0.171911;,
        -0.753899;-0.648213;-0.106845;,
        -0.744621;-0.667409;-0.009064;,
        -0.999969; 0.004669; 0.005341;,
        -0.999634; 0.022553; 0.013337;,
        -0.725913; 0.676260; 0.125217;,
        -0.747368; 0.664052; 0.021210;,
         0.000000; 0.999542; 0.030213;,
         0.000000; 0.984436; 0.175634;,
         0.731651; 0.670217; 0.124302;,
         0.753838; 0.656697; 0.021027;,
         0.000000; 0.999542; 0.030213;,
         0.753838; 0.656697; 0.021027;,
         0.757500; 0.650655; 0.053072;,
         0.000000; 0.998383; 0.056429;,
         0.000000;-0.985107;-0.171911;,
         0.760216;-0.641011;-0.105502;,
         0.723991;-0.680960;-0.110050;,
         0.000000;-0.987701;-0.156255;,
        -0.999573;-0.026246;-0.011139;,
        -0.717978;-0.687155;-0.110813;,
        -0.702384;-0.627979;-0.335093;,
        -0.941252;-0.001160;-0.337687;,
        -0.999634; 0.022553; 0.013337;,
        -0.753899;-0.648213;-0.106845;,
        -0.717978;-0.687155;-0.110813;,
        -0.999573;-0.026246;-0.011139;,
         0.999664; 0.021271; 0.012726;,
         0.731651; 0.670217; 0.124302;,
         0.771508; 0.629109; 0.094760;,
         0.999634;-0.024751;-0.010559;,
         0.000000; 0.984436; 0.175634;,
        -0.725913; 0.676260; 0.125217;,
        -0.765038; 0.636769; 0.095981;,
         0.000000; 0.987030; 0.160344;,
         0.000000; 0.933348;-0.358898;,
        -0.714713; 0.618732;-0.326029;,
        -0.719352; 0.632984;-0.285989;,
         0.000000; 0.952147;-0.305582;,
         0.999634;-0.024751;-0.010559;,
         0.771508; 0.629109; 0.094760;,
         0.721397; 0.610096;-0.327586;,
         0.942625;-0.001099;-0.333781;,
         0.000000; 0.987030; 0.160344;,
        -0.765038; 0.636769; 0.095981;,
        -0.714713; 0.618732;-0.326029;,
         0.000000; 0.933348;-0.358898;,
         0.000000;-0.987701;-0.156255;,
         0.723991;-0.680960;-0.110050;,
         0.709098;-0.619526;-0.336619;,
         0.000000;-0.931486;-0.363689;,
        -0.955412; 0.000000;-0.295175;,
        -0.711051;-0.642109;-0.286477;,
        -0.716971;-0.647237; 0.258858;,
        -0.963775; 0.000000; 0.266701;,
         0.000000;-0.931486;-0.363689;,
         0.709098;-0.619526;-0.336619;,
         0.717399;-0.634938;-0.286569;,
         0.000000;-0.952879;-0.303323;,
        -0.941252;-0.001160;-0.337687;,
        -0.702384;-0.627979;-0.335093;,
        -0.711051;-0.642109;-0.286477;,
        -0.955412; 0.000000;-0.295175;,
         0.942625;-0.001099;-0.333781;,
         0.721397; 0.610096;-0.327586;,
         0.725639; 0.625751;-0.286081;,
         0.955870; 0.000000;-0.293680;,
        -0.963775; 0.000000; 0.266701;,
        -0.716971;-0.647237; 0.258858;,
        -0.715629;-0.634968; 0.290902;,
        -0.953246; 0.000000; 0.302164;,
         0.955870; 0.000000;-0.293680;,
         0.725639; 0.625751;-0.286081;,
         0.731712; 0.630665; 0.258431;,
         0.964171; 0.000000; 0.265175;,
         0.000000; 0.952147;-0.305582;,
        -0.719352; 0.632984;-0.285989;,
        -0.725364; 0.638020; 0.258309;,
         0.000000; 0.960753; 0.277322;,
         0.000000;-0.952879;-0.303323;,
         0.717399;-0.634938;-0.286569;,
         0.723380;-0.639973; 0.259011;,
         0.000000;-0.961425; 0.275033;,
         0.000000; 0.944731; 0.327769;,
        -0.725303; 0.624836; 0.288888;,
        -0.575579; 0.498459; 0.648244;,
         0.000000; 0.797204; 0.603687;,
         0.964171; 0.000000; 0.265175;,
         0.731712; 0.630665; 0.258431;,
         0.732505; 0.615772; 0.290139;,
         0.954436; 0.000000; 0.298379;,
         0.000000; 0.960753; 0.277322;,
        -0.725364; 0.638020; 0.258309;,
        -0.725303; 0.624836; 0.288888;,
         0.000000; 0.944731; 0.327769;,
         0.000000;-0.961425; 0.275033;,
         0.723380;-0.639973; 0.259011;,
         0.722953;-0.626026; 0.292245;,
         0.000000;-0.946593; 0.322367;,
         0.000000; 0.000000; 1.000000;,
         0.777581; 0.000000; 0.628773;,
         0.582629; 0.492935; 0.646138;,
         0.000000; 0.797204; 0.603687;,
         0.000000;-0.946593; 0.322367;,
         0.722953;-0.626026; 0.292245;,
         0.577166;-0.502579; 0.643605;,
         0.000000;-0.794153; 0.607685;,
        -0.953246; 0.000000; 0.302164;,
        -0.715629;-0.634968; 0.290902;,
        -0.570055;-0.508042; 0.645650;,
        -0.780572; 0.000000; 0.625019;,
         0.954436; 0.000000; 0.298379;,
         0.732505; 0.615772; 0.290139;,
         0.582629; 0.492935; 0.646138;,
         0.777581; 0.000000; 0.628773;,
         0.998627; 0.000000; 0.052095;,
         0.748863;-0.660543; 0.053377;,
         0.746055;-0.663778; 0.052248;,
         0.998688; 0.000000; 0.050813;,
         0.000000;-0.999847;-0.016053;,
        -0.744621;-0.667409;-0.009064;,
        -0.741997;-0.668264; 0.053255;,
         0.000000;-0.998444; 0.055696;,
         0.999969; 0.004395; 0.005158;,
         0.751305;-0.659871;-0.008911;,
         0.748863;-0.660543; 0.053377;,
         0.998627; 0.000000; 0.052095;,
        -0.999969; 0.004669; 0.005341;,
        -0.747368; 0.664052; 0.021210;,
        -0.750725; 0.658467; 0.052950;,
        -0.998596; 0.000000; 0.052705;,
         0.000000; 0.998505; 0.054323;,
         0.754265; 0.654469; 0.051973;,
         0.586840; 0.509568;-0.629200;,
         0.000000; 0.784570;-0.619983;,
         0.000000; 0.998383; 0.056429;,
         0.757500; 0.650655; 0.053072;,
         0.754265; 0.654469; 0.051973;,
         0.000000; 0.998505; 0.054323;,
         0.000000;-0.998444; 0.055696;,
        -0.741997;-0.668264; 0.053255;,
        -0.739708;-0.670888; 0.052156;,
         0.000000;-0.998535; 0.053713;,
        -0.998596; 0.000000; 0.052705;,
        -0.750725; 0.658467; 0.052950;,
        -0.747978; 0.661672; 0.051912;,
        -0.998657; 0.000000; 0.051332;,
         0.000000; 0.000000;-1.000000;,
        -0.768334; 0.000000;-0.640034;,
        -0.581011; 0.514298;-0.630787;,
         0.000000; 0.784570;-0.619983;,
         0.000000;-0.998535; 0.053713;,
        -0.739708;-0.670888; 0.052156;,
        -0.575823;-0.522538;-0.628742;,
         0.000000;-0.781487;-0.623859;,
        -0.998657; 0.000000; 0.051332;,
        -0.747978; 0.661672; 0.051912;,
        -0.581011; 0.514298;-0.630787;,
        -0.768334; 0.000000;-0.640034;,
         0.998688; 0.000000; 0.050813;,
         0.746055;-0.663778; 0.052248;,
         0.581713;-0.517869;-0.627186;,
         0.765526; 0.000000;-0.643361;,
         0.754265; 0.654469; 0.051973;,
         0.998688; 0.000000; 0.050813;,
         0.765526; 0.000000;-0.643361;,
         0.586840; 0.509568;-0.629200;,
        -0.739708;-0.670888; 0.052156;,
        -0.998657; 0.000000; 0.051332;,
        -0.768334; 0.000000;-0.640034;,
        -0.575823;-0.522538;-0.628742;,
         0.000000;-0.781487;-0.623859;,
        -0.575823;-0.522538;-0.628742;,
        -0.768334; 0.000000;-0.640034;,
         0.000000; 0.000000;-1.000000;,
        -0.741997;-0.668264; 0.053255;,
        -0.998596; 0.000000; 0.052705;,
        -0.998657; 0.000000; 0.051332;,
        -0.739708;-0.670888; 0.052156;,
        -0.744621;-0.667409;-0.009064;,
        -0.999969; 0.004669; 0.005341;,
        -0.998596; 0.000000; 0.052705;,
        -0.741997;-0.668264; 0.053255;,
         0.753838; 0.656697; 0.021027;,
         0.999969; 0.004395; 0.005158;,
         0.998627; 0.000000; 0.052095;,
         0.757500; 0.650655; 0.053072;,
         0.757500; 0.650655; 0.053072;,
         0.998627; 0.000000; 0.052095;,
         0.998688; 0.000000; 0.050813;,
         0.754265; 0.654469; 0.051973;,
         0.722953;-0.626026; 0.292245;,
         0.954436; 0.000000; 0.298379;,
         0.777581; 0.000000; 0.628773;,
         0.577166;-0.502579; 0.643605;,
        -0.725303; 0.624836; 0.288888;,
        -0.953246; 0.000000; 0.302164;,
        -0.780572; 0.000000; 0.625019;,
        -0.575579; 0.498459; 0.648244;,
         0.000000;-0.794153; 0.607685;,
         0.577166;-0.502579; 0.643605;,
         0.777581; 0.000000; 0.628773;,
         0.000000; 0.000000; 1.000000;,
         0.723380;-0.639973; 0.259011;,
         0.964171; 0.000000; 0.265175;,
         0.954436; 0.000000; 0.298379;,
         0.722953;-0.626026; 0.292245;,
         0.717399;-0.634938;-0.286569;,
         0.955870; 0.000000;-0.293680;,
         0.964171; 0.000000; 0.265175;,
         0.723380;-0.639973; 0.259011;,
        -0.725364; 0.638020; 0.258309;,
        -0.963775; 0.000000; 0.266701;,
        -0.953246; 0.000000; 0.302164;,
        -0.725303; 0.624836; 0.288888;,
         0.709098;-0.619526;-0.336619;,
         0.942625;-0.001099;-0.333781;,
         0.955870; 0.000000;-0.293680;,
         0.717399;-0.634938;-0.286569;,
        -0.714713; 0.618732;-0.326029;,
        -0.941252;-0.001160;-0.337687;,
        -0.955412; 0.000000;-0.295175;,
        -0.719352; 0.632984;-0.285989;,
        -0.719352; 0.632984;-0.285989;,
        -0.955412; 0.000000;-0.295175;,
        -0.963775; 0.000000; 0.266701;,
        -0.725364; 0.638020; 0.258309;,
         0.723991;-0.680960;-0.110050;,
         0.999634;-0.024751;-0.010559;,
         0.942625;-0.001099;-0.333781;,
         0.709098;-0.619526;-0.336619;,
         0.760216;-0.641011;-0.105502;,
         0.999664; 0.021271; 0.012726;,
         0.999634;-0.024751;-0.010559;,
         0.723991;-0.680960;-0.110050;,
        -0.725913; 0.676260; 0.125217;,
        -0.999634; 0.022553; 0.013337;,
        -0.999573;-0.026246;-0.011139;,
        -0.765038; 0.636769; 0.095981;,
        -0.765038; 0.636769; 0.095981;,
        -0.999573;-0.026246;-0.011139;,
        -0.941252;-0.001160;-0.337687;,
        -0.714713; 0.618732;-0.326029;,
        -0.744621;-0.667409;-0.009064;,
        -0.753899;-0.648213;-0.106845;,
        -0.999634; 0.022553; 0.013337;,
        -0.999969; 0.004669; 0.005341;,
         0.753838; 0.656697; 0.021027;,
         0.731651; 0.670217; 0.124302;,
         0.999664; 0.021271; 0.012726;,
         0.999969; 0.004395; 0.005158;,
        -0.570055;-0.508042; 0.645650;,
         0.000000;-0.794153; 0.607685;,
         0.000000; 0.000000; 1.000000;,
        -0.780572; 0.000000; 0.625019;,
         0.581713;-0.517869;-0.627186;,
         0.000000;-0.781487;-0.623859;,
         0.000000; 0.000000;-1.000000;,
         0.765526; 0.000000;-0.643361;,
         0.746055;-0.663778; 0.052248;,
         0.000000;-0.998535; 0.053713;,
         0.000000;-0.781487;-0.623859;,
         0.581713;-0.517869;-0.627186;,
         0.765526; 0.000000;-0.643361;,
         0.000000; 0.000000;-1.000000;,
         0.000000; 0.784570;-0.619983;,
         0.586840; 0.509568;-0.629200;,
         0.748863;-0.660543; 0.053377;,
         0.000000;-0.998444; 0.055696;,
         0.000000;-0.998535; 0.053713;,
         0.746055;-0.663778; 0.052248;,
        -0.750725; 0.658467; 0.052950;,
         0.000000; 0.998383; 0.056429;,
         0.000000; 0.998505; 0.054323;,
        -0.747978; 0.661672; 0.051912;,
        -0.747978; 0.661672; 0.051912;,
         0.000000; 0.998505; 0.054323;,
         0.000000; 0.784570;-0.619983;,
        -0.581011; 0.514298;-0.630787;,
         0.751305;-0.659871;-0.008911;,
         0.000000;-0.999847;-0.016053;,
         0.000000;-0.998444; 0.055696;,
         0.748863;-0.660543; 0.053377;,
        -0.715629;-0.634968; 0.290902;,
         0.000000;-0.946593; 0.322367;,
         0.000000;-0.794153; 0.607685;,
        -0.570055;-0.508042; 0.645650;,
        -0.780572; 0.000000; 0.625019;,
         0.000000; 0.000000; 1.000000;,
         0.000000; 0.797204; 0.603687;,
        -0.575579; 0.498459; 0.648244;,
        -0.716971;-0.647237; 0.258858;,
         0.000000;-0.961425; 0.275033;,
         0.000000;-0.946593; 0.322367;,
        -0.715629;-0.634968; 0.290902;,
         0.731712; 0.630665; 0.258431;,
         0.000000; 0.960753; 0.277322;,
         0.000000; 0.944731; 0.327769;,
         0.732505; 0.615772; 0.290139;,
         0.732505; 0.615772; 0.290139;,
         0.000000; 0.944731; 0.327769;,
         0.000000; 0.797204; 0.603687;,
         0.582629; 0.492935; 0.646138;,
        -0.711051;-0.642109;-0.286477;,
         0.000000;-0.952879;-0.303323;,
         0.000000;-0.961425; 0.275033;,
        -0.716971;-0.647237; 0.258858;,
         0.725639; 0.625751;-0.286081;,
         0.000000; 0.952147;-0.305582;,
         0.000000; 0.960753; 0.277322;,
         0.731712; 0.630665; 0.258431;,
        -0.702384;-0.627979;-0.335093;,
         0.000000;-0.931486;-0.363689;,
         0.000000;-0.952879;-0.303323;,
        -0.711051;-0.642109;-0.286477;,
        -0.717978;-0.687155;-0.110813;,
         0.000000;-0.987701;-0.156255;,
         0.000000;-0.931486;-0.363689;,
        -0.702384;-0.627979;-0.335093;,
         0.771508; 0.629109; 0.094760;,
         0.000000; 0.987030; 0.160344;,
         0.000000; 0.933348;-0.358898;,
         0.721397; 0.610096;-0.327586;,
         0.721397; 0.610096;-0.327586;,
         0.000000; 0.933348;-0.358898;,
         0.000000; 0.952147;-0.305582;,
         0.725639; 0.625751;-0.286081;,
         0.731651; 0.670217; 0.124302;,
         0.000000; 0.984436; 0.175634;,
         0.000000; 0.987030; 0.160344;,
         0.771508; 0.629109; 0.094760;,
        -0.753899;-0.648213;-0.106845;,
         0.000000;-0.985107;-0.171911;,
         0.000000;-0.987701;-0.156255;,
        -0.717978;-0.687155;-0.110813;,
        -0.747368; 0.664052; 0.021210;,
         0.000000; 0.999542; 0.030213;,
         0.000000; 0.998383; 0.056429;,
        -0.750725; 0.658467; 0.052950;,
        -0.747368; 0.664052; 0.021210;,
        -0.725913; 0.676260; 0.125217;,
         0.000000; 0.984436; 0.175634;,
         0.000000; 0.999542; 0.030213;,
         0.751305;-0.659871;-0.008911;,
         0.760216;-0.641011;-0.105502;,
         0.000000;-0.985107;-0.171911;,
         0.000000;-0.999847;-0.016053;,
         0.649098; 0.302744;-0.697836;,
         0.649098; 0.302744; 0.697836;,
         0.891171; 0.270699; 0.363994;,
         0.900388; 0.290963;-0.323405;,
        -0.891171; 0.270699; 0.363994;,
        -0.993713; 0.092044; 0.063570;,
        -0.716849; 0.322672; 0.618030;,
        -0.527055; 0.566820; 0.633137;,
        -0.900388; 0.290963;-0.323405;,
        -0.891171; 0.270699; 0.363994;,
        -0.649098; 0.302744; 0.697836;,
        -0.649098; 0.302744;-0.697836;,
        -0.649098; 0.302744; 0.697836;,
         0.649098; 0.302744; 0.697836;,
         0.513840; 0.795648; 0.320719;,
        -0.513840; 0.795648; 0.320719;,
         0.900388; 0.290963;-0.323405;,
        -0.900388; 0.290963;-0.323405;,
        -0.649098; 0.302744;-0.697836;,
         0.649098; 0.302744;-0.697836;,
        -0.891171; 0.270699; 0.363994;,
         0.891171; 0.270699; 0.363994;,
         0.649098; 0.302744; 0.697836;,
        -0.649098; 0.302744; 0.697836;,
        -0.513840; 0.795648;-0.320719;,
        -0.513840; 0.795648; 0.320719;,
         0.513840; 0.795648; 0.320719;,
         0.513840; 0.795648;-0.320719;,
        -0.649098; 0.302744;-0.697836;,
        -0.649098; 0.302744; 0.697836;,
        -0.513840; 0.795648; 0.320719;,
        -0.513840; 0.795648;-0.320719;,
         0.649098; 0.302744; 0.697836;,
         0.649098; 0.302744;-0.697836;,
         0.513840; 0.795648;-0.320719;,
         0.513840; 0.795648; 0.320719;,
         0.649098; 0.302744;-0.697836;,
        -0.649098; 0.302744;-0.697836;,
        -0.513840; 0.795648;-0.320719;,
         0.513840; 0.795648;-0.320719;,
         0.996612; 0.078524;-0.024262;,
         0.993713; 0.092044; 0.063570;,
         0.990844; 0.102084; 0.088198;,
         0.996490; 0.078280;-0.028626;,
         0.900388; 0.290963;-0.323405;,
         0.891171; 0.270699; 0.363994;,
         0.993713; 0.092044; 0.063570;,
         0.996612; 0.078524;-0.024262;,
        -0.891171; 0.270699; 0.363994;,
        -0.900388; 0.290963;-0.323405;,
        -0.996612; 0.078524;-0.024262;,
        -0.993713; 0.092044; 0.063570;,
        -0.996612; 0.078524;-0.024262;,
        -0.900388; 0.290963;-0.323405;,
        -0.560839; 0.573992;-0.596637;,
        -0.771996; 0.321909;-0.548051;,
        -0.560839; 0.573992;-0.596637;,
         0.560839; 0.573992;-0.596637;,
         0.771996; 0.321909;-0.548051;,
        -0.771996; 0.321909;-0.548051;,
         0.993713; 0.092044; 0.063570;,
         0.716849; 0.322672; 0.618030;,
         0.580950; 0.327799; 0.744957;,
         0.990844; 0.102084; 0.088198;,
        -0.900388; 0.290963;-0.323405;,
         0.900388; 0.290963;-0.323405;,
         0.560839; 0.573992;-0.596637;,
        -0.560839; 0.573992;-0.596637;,
         0.900388; 0.290963;-0.323405;,
         0.996612; 0.078524;-0.024262;,
         0.771996; 0.321909;-0.548051;,
         0.560839; 0.573992;-0.596637;,
         0.527055; 0.566820; 0.633137;,
        -0.527055; 0.566820; 0.633137;,
        -0.716849; 0.322672; 0.618030;,
         0.716849; 0.322672; 0.618030;,
        -0.996612; 0.078524;-0.024262;,
        -0.771996; 0.321909;-0.548051;,
        -0.607868; 0.340465;-0.717307;,
        -0.996490; 0.078280;-0.028626;,
         0.891171; 0.270699; 0.363994;,
        -0.891171; 0.270699; 0.363994;,
        -0.527055; 0.566820; 0.633137;,
         0.527055; 0.566820; 0.633137;,
         0.993713; 0.092044; 0.063570;,
         0.891171; 0.270699; 0.363994;,
         0.527055; 0.566820; 0.633137;,
         0.716849; 0.322672; 0.618030;,
         0.580950; 0.327799; 0.744957;,
        -0.580950; 0.327799; 0.744957;,
        -0.597278;-0.220740; 0.771020;,
         0.597278;-0.220740; 0.771020;,
         0.990844; 0.102084; 0.088198;,
         0.580950; 0.327799; 0.744957;,
         0.597278;-0.220740; 0.771020;,
         0.993347;-0.069430; 0.091586;,
         0.996490; 0.078280;-0.028626;,
         0.990844; 0.102084; 0.088198;,
         0.993347;-0.069430; 0.091586;,
         0.998077;-0.054140;-0.029633;,
        -0.716849; 0.322672; 0.618030;,
        -0.993713; 0.092044; 0.063570;,
        -0.990844; 0.102084; 0.088198;,
        -0.580950; 0.327799; 0.744957;,
        -0.771996; 0.321909;-0.548051;,
         0.771996; 0.321909;-0.548051;,
         0.607868; 0.340465;-0.717307;,
        -0.607868; 0.340465;-0.717307;,
         0.771996; 0.321909;-0.548051;,
         0.996612; 0.078524;-0.024262;,
         0.996490; 0.078280;-0.028626;,
         0.607868; 0.340465;-0.717307;,
        -0.993713; 0.092044; 0.063570;,
        -0.996612; 0.078524;-0.024262;,
        -0.996490; 0.078280;-0.028626;,
        -0.990844; 0.102084; 0.088198;,
         0.716849; 0.322672; 0.618030;,
        -0.716849; 0.322672; 0.618030;,
        -0.580950; 0.327799; 0.744957;,
         0.580950; 0.327799; 0.744957;,
        -0.624714;-0.275155;-0.730735;,
         0.624714;-0.275124;-0.730735;,
         0.625355;-0.604907;-0.492904;,
        -0.625355;-0.604907;-0.492904;,
         0.624714;-0.275124;-0.730735;,
         0.998077;-0.054140;-0.029633;,
         0.986450;-0.161107;-0.030274;,
         0.625355;-0.604907;-0.492904;,
        -0.597278;-0.220740; 0.771020;,
        -0.993347;-0.069430; 0.091586;,
        -0.974029;-0.206671; 0.092441;,
        -0.581927;-0.555071; 0.594317;,
        -0.996490; 0.078280;-0.028626;,
        -0.607868; 0.340465;-0.717307;,
        -0.624714;-0.275155;-0.730735;,
        -0.998077;-0.054140;-0.029633;,
        -0.990844; 0.102084; 0.088198;,
        -0.996490; 0.078280;-0.028626;,
        -0.998077;-0.054140;-0.029633;,
        -0.993347;-0.069430; 0.091586;,
        -0.580950; 0.327799; 0.744957;,
        -0.990844; 0.102084; 0.088198;,
        -0.993347;-0.069430; 0.091586;,
        -0.597278;-0.220740; 0.771020;,
         0.607868; 0.340465;-0.717307;,
         0.996490; 0.078280;-0.028626;,
         0.998077;-0.054140;-0.029633;,
         0.624714;-0.275124;-0.730735;,
        -0.607868; 0.340465;-0.717307;,
         0.607868; 0.340465;-0.717307;,
         0.624714;-0.275124;-0.730735;,
        -0.624714;-0.275155;-0.730735;,
         0.625355;-0.604907;-0.492904;,
         0.986450;-0.161107;-0.030274;,
         0.964629;-0.261818;-0.030244;,
         0.602832;-0.725333;-0.332347;,
        -0.581927;-0.555071; 0.594317;,
        -0.974029;-0.206671; 0.092441;,
        -0.939573;-0.330302; 0.089663;,
        -0.543077;-0.715232; 0.439833;,
        -0.974029;-0.206671; 0.092441;,
        -0.986450;-0.161107;-0.030274;,
        -0.964629;-0.261818;-0.030244;,
        -0.939573;-0.330302; 0.089663;,
         0.998077;-0.054140;-0.029633;,
         0.993347;-0.069430; 0.091586;,
         0.974029;-0.206671; 0.092441;,
         0.986450;-0.161107;-0.030274;,
         0.993347;-0.069430; 0.091586;,
         0.597278;-0.220740; 0.771020;,
         0.581927;-0.555071; 0.594317;,
         0.974029;-0.206671; 0.092441;,
         0.597278;-0.220740; 0.771020;,
        -0.597278;-0.220740; 0.771020;,
        -0.581927;-0.555071; 0.594317;,
         0.581927;-0.555071; 0.594317;,
        -0.998077;-0.054140;-0.029633;,
        -0.624714;-0.275155;-0.730735;,
        -0.625355;-0.604907;-0.492904;,
        -0.986450;-0.161107;-0.030274;,
        -0.993347;-0.069430; 0.091586;,
        -0.998077;-0.054140;-0.029633;,
        -0.986450;-0.161107;-0.030274;,
        -0.974029;-0.206671; 0.092441;,
        -0.964629;-0.261818;-0.030244;,
        -0.602832;-0.725333;-0.332347;,
        -0.594226;-0.747612;-0.296487;,
        -0.961516;-0.273232;-0.027985;,
         0.543077;-0.715232; 0.439833;,
        -0.543077;-0.715232; 0.439833;,
        -0.523331;-0.752525; 0.399731;,
         0.523331;-0.752525; 0.399731;,
         0.939573;-0.330302; 0.089663;,
         0.543077;-0.715232; 0.439833;,
         0.523331;-0.752525; 0.399731;,
         0.940458;-0.329875; 0.081759;,
        -0.625355;-0.604907;-0.492904;,
         0.625355;-0.604907;-0.492904;,
         0.602832;-0.725333;-0.332347;,
        -0.602832;-0.725333;-0.332347;,
         0.986450;-0.161107;-0.030274;,
         0.974029;-0.206671; 0.092441;,
         0.939573;-0.330302; 0.089663;,
         0.964629;-0.261818;-0.030244;,
         0.974029;-0.206671; 0.092441;,
         0.581927;-0.555071; 0.594317;,
         0.543077;-0.715232; 0.439833;,
         0.939573;-0.330302; 0.089663;,
         0.581927;-0.555071; 0.594317;,
        -0.581927;-0.555071; 0.594317;,
        -0.543077;-0.715232; 0.439833;,
         0.543077;-0.715232; 0.439833;,
        -0.986450;-0.161107;-0.030274;,
        -0.625355;-0.604907;-0.492904;,
        -0.602832;-0.725333;-0.332347;,
        -0.964629;-0.261818;-0.030244;,
         0.940458;-0.329875; 0.081759;,
         0.523331;-0.752525; 0.399731;,
         0.479873;-0.823664; 0.302072;,
         0.618580;-0.784326; 0.046449;,
         0.961516;-0.273232;-0.027985;,
         0.940458;-0.329875; 0.081759;,
         0.618580;-0.784326; 0.046449;,
         0.622089;-0.782708;-0.019074;,
        -0.594226;-0.747612;-0.296487;,
         0.594226;-0.747612;-0.296487;,
         0.551836;-0.807825;-0.206977;,
        -0.551836;-0.807825;-0.206977;,
        -0.939573;-0.330302; 0.089663;,
        -0.964629;-0.261818;-0.030244;,
        -0.961516;-0.273232;-0.027985;,
        -0.940458;-0.329875; 0.081759;,
        -0.543077;-0.715232; 0.439833;,
        -0.939573;-0.330302; 0.089663;,
        -0.940458;-0.329875; 0.081759;,
        -0.523331;-0.752525; 0.399731;,
         0.602832;-0.725333;-0.332347;,
         0.964629;-0.261818;-0.030244;,
         0.961516;-0.273232;-0.027985;,
         0.594226;-0.747612;-0.296487;,
        -0.602832;-0.725333;-0.332347;,
         0.602832;-0.725333;-0.332347;,
         0.594226;-0.747612;-0.296487;,
        -0.594226;-0.747612;-0.296487;,
         0.964629;-0.261818;-0.030244;,
         0.939573;-0.330302; 0.089663;,
         0.940458;-0.329875; 0.081759;,
         0.961516;-0.273232;-0.027985;,
         0.622089;-0.782708;-0.019074;,
         0.618580;-0.784326; 0.046449;,
        -0.618580;-0.784326; 0.046449;,
        -0.622089;-0.782708;-0.019074;,
         0.622089;-0.782708;-0.019074;,
        -0.622089;-0.782708;-0.019074;,
        -0.551836;-0.807825;-0.206977;,
         0.551836;-0.807825;-0.206977;,
        -0.618580;-0.784326; 0.046449;,
         0.618580;-0.784326; 0.046449;,
         0.479873;-0.823664; 0.302072;,
        -0.479873;-0.823664; 0.302072;,
         0.523331;-0.752525; 0.399731;,
        -0.523331;-0.752525; 0.399731;,
        -0.479873;-0.823664; 0.302072;,
         0.479873;-0.823664; 0.302072;,
        -0.961516;-0.273232;-0.027985;,
        -0.594226;-0.747612;-0.296487;,
        -0.551836;-0.807825;-0.206977;,
        -0.622089;-0.782708;-0.019074;,
        -0.940458;-0.329875; 0.081759;,
        -0.961516;-0.273232;-0.027985;,
        -0.622089;-0.782708;-0.019074;,
        -0.618580;-0.784326; 0.046449;,
        -0.523331;-0.752525; 0.399731;,
        -0.940458;-0.329875; 0.081759;,
        -0.618580;-0.784326; 0.046449;,
        -0.479873;-0.823664; 0.302072;,
         0.594226;-0.747612;-0.296487;,
         0.961516;-0.273232;-0.027985;,
         0.622089;-0.782708;-0.019074;,
         0.551836;-0.807825;-0.206977;;
        158;
        4;3,2,1,0;,
        4;7,6,5,4;,
        4;11,10,9,8;,
        4;15,14,13,12;,
        4;19,18,17,16;,
        4;23,22,21,20;,
        4;27,26,25,24;,
        4;31,30,29,28;,
        4;35,34,33,32;,
        4;39,38,37,36;,
        4;43,42,41,40;,
        4;47,46,45,44;,
        4;51,50,49,48;,
        4;55,54,53,52;,
        4;59,58,57,56;,
        4;63,62,61,60;,
        4;67,66,65,64;,
        4;71,70,69,68;,
        4;75,74,73,72;,
        4;79,78,77,76;,
        4;83,82,81,80;,
        4;87,86,85,84;,
        4;91,90,89,88;,
        4;95,94,93,92;,
        4;99,98,97,96;,
        4;103,102,101,100;,
        4;107,106,105,104;,
        4;111,110,109,108;,
        4;115,114,113,112;,
        4;119,118,117,116;,
        4;123,122,121,120;,
        4;127,126,125,124;,
        4;131,130,129,128;,
        4;135,134,133,132;,
        4;139,138,137,136;,
        4;143,142,141,140;,
        4;147,146,145,144;,
        4;151,150,149,148;,
        4;155,154,153,152;,
        4;159,158,157,156;,
        4;163,162,161,160;,
        4;167,166,165,164;,
        4;171,170,169,168;,
        4;175,174,173,172;,
        4;179,178,177,176;,
        4;183,182,181,180;,
        4;187,186,185,184;,
        4;191,190,189,188;,
        4;195,194,193,192;,
        4;199,198,197,196;,
        4;203,202,201,200;,
        4;207,206,205,204;,
        4;211,210,209,208;,
        4;215,214,213,212;,
        4;219,218,217,216;,
        4;223,222,221,220;,
        4;227,226,225,224;,
        4;231,230,229,228;,
        4;235,234,233,232;,
        4;239,238,237,236;,
        4;243,242,241,240;,
        4;247,246,245,244;,
        4;251,250,249,248;,
        4;255,254,253,252;,
        4;259,258,257,256;,
        4;263,262,261,260;,
        4;267,266,265,264;,
        4;271,270,269,268;,
        4;275,274,273,272;,
        4;279,278,277,276;,
        4;283,282,281,280;,
        4;287,286,285,284;,
        4;291,290,289,288;,
        4;295,294,293,292;,
        4;299,298,297,296;,
        4;303,302,301,300;,
        4;307,306,305,304;,
        4;311,310,309,308;,
        4;315,314,313,312;,
        4;319,318,317,316;,
        4;323,322,321,320;,
        4;327,326,325,324;,
        4;331,330,329,328;,
        4;335,334,333,332;,
        4;339,338,337,336;,
        4;343,342,341,340;,
        4;347,346,345,344;,
        4;351,350,349,348;,
        4;355,354,353,352;,
        4;359,358,357,356;,
        4;363,362,361,360;,
        4;367,366,365,364;,
        4;371,370,369,368;,
        4;375,374,373,372;,
        4;379,378,377,376;,
        4;383,382,381,380;,
        4;387,386,385,384;,
        4;391,390,389,388;,
        4;395,394,393,392;,
        4;399,398,397,396;,
        4;403,402,401,400;,
        4;407,406,405,404;,
        4;411,410,409,408;,
        4;415,414,413,412;,
        4;419,418,417,416;,
        4;423,422,421,420;,
        4;427,426,425,424;,
        4;431,430,429,428;,
        4;435,434,433,432;,
        4;439,438,437,436;,
        4;443,442,441,440;,
        4;447,446,445,444;,
        4;451,450,449,448;,
        4;455,454,453,452;,
        4;459,458,457,456;,
        4;463,462,461,460;,
        4;467,466,465,464;,
        4;471,470,469,468;,
        4;475,474,473,472;,
        4;479,478,477,476;,
        4;483,482,481,480;,
        4;487,486,485,484;,
        4;491,490,489,488;,
        4;495,494,493,492;,
        4;499,498,497,496;,
        4;503,502,501,500;,
        4;507,506,505,504;,
        4;511,510,509,508;,
        4;515,514,513,512;,
        4;519,518,517,516;,
        4;523,522,521,520;,
        4;527,526,525,524;,
        4;531,530,529,528;,
        4;535,534,533,532;,
        4;539,538,537,536;,
        4;543,542,541,540;,
        4;547,546,545,544;,
        4;551,550,549,548;,
        4;555,554,553,552;,
        4;559,558,557,556;,
        4;563,562,561,560;,
        4;567,566,565,564;,
        4;571,570,569,568;,
        4;575,574,573,572;,
        4;579,578,577,576;,
        4;583,582,581,580;,
        4;587,586,585,584;,
        4;591,590,589,588;,
        4;595,594,593,592;,
        4;599,598,597,596;,
        4;603,602,601,600;,
        4;607,606,605,604;,
        4;611,610,609,608;,
        4;615,614,613,612;,
        4;619,618,617,616;,
        4;623,622,621,620;,
        4;627,626,625,624;,
        4;631,630,629,628;;
      } // End of Cube normals
      MeshTextureCoords { // Cube UV coordinates
        632;
         0.071216; 0.802378;,
         0.067494; 0.721278;,
         0.026255; 0.720687;,
         0.029831; 0.801743;,
         0.653102; 0.548821;,
         0.653131; 0.616250;,
         0.693789; 0.611994;,
         0.693701; 0.543246;,
         0.182135; 0.197611;,
         0.178403; 0.278713;,
         0.218271; 0.278415;,
         0.221725; 0.197361;,
         0.745627; 0.849178;,
         0.745656; 0.783900;,
         0.704997; 0.778682;,
         0.705028; 0.842344;,
         0.745627; 0.849178;,
         0.705028; 0.842344;,
         0.705028; 0.963760;,
         0.745627; 0.970594;,
         0.653131; 0.616250;,
         0.612472; 0.611994;,
         0.612472; 0.655062;,
         0.653131; 0.659318;,
         0.152149; 0.322127;,
         0.110865; 0.322728;,
         0.120901; 0.664762;,
         0.163070; 0.664071;,
         0.178403; 0.278713;,
         0.137119; 0.279314;,
         0.110865; 0.322728;,
         0.152149; 0.322127;,
         0.067494; 0.721278;,
         0.107407; 0.721587;,
         0.081153; 0.678172;,
         0.041239; 0.677864;,
         0.745656; 0.783900;,
         0.786314; 0.778682;,
         0.786314; 0.737330;,
         0.745656; 0.742547;,
         0.979070; 0.934467;,
         0.996716; 0.915272;,
         0.985970; 0.912622;,
         0.968324; 0.934467;,
         0.041239; 0.677864;,
         0.081153; 0.678172;,
         0.092177; 0.336150;,
         0.052140; 0.335915;,
         0.745656; 0.742547;,
         0.786314; 0.737330;,
         0.786755; 0.476304;,
         0.745604; 0.484420;,
         0.653131; 0.659318;,
         0.612472; 0.655062;,
         0.611928; 0.938720;,
         0.653079; 0.945341;,
         0.163637; 0.668347;,
         0.115800; 0.669101;,
         0.119062; 0.729342;,
         0.166900; 0.728588;,
         0.653079; 0.945341;,
         0.611928; 0.938720;,
         0.606248; 0.943805;,
         0.653079; 0.950426;,
         0.163070; 0.664071;,
         0.120901; 0.664762;,
         0.115800; 0.669101;,
         0.163637; 0.668347;,
         0.052140; 0.335915;,
         0.092177; 0.336150;,
         0.098412; 0.331936;,
         0.052707; 0.331638;,
         0.166900; 0.728588;,
         0.119062; 0.729342;,
         0.124172; 0.733911;,
         0.166844; 0.733215;,
         0.052707; 0.331638;,
         0.098412; 0.331936;,
         0.101675; 0.271695;,
         0.055969; 0.271397;,
         0.838182; 1.000000;,
         0.885013; 0.991883;,
         0.885013; 0.946303;,
         0.838182; 0.954420;,
         0.653079; 0.950426;,
         0.606248; 0.943805;,
         0.606248; 0.993379;,
         0.653079; 1.000000;,
         0.838182; 0.949388;,
         0.879837; 0.941272;,
         0.879837; 0.739942;,
         0.838182; 0.748059;,
         0.055969; 0.271397;,
         0.101675; 0.271695;,
         0.096455; 0.267011;,
         0.055915; 0.266771;,
         0.838182; 0.954420;,
         0.885013; 0.946303;,
         0.879837; 0.941272;,
         0.838182; 0.949388;,
         0.968324; 0.978156;,
         0.992118; 1.000000;,
         1.000000; 0.997586;,
         0.976206; 0.978156;,
         0.941808; 0.562047;,
         0.912086; 0.537776;,
         0.886371; 0.554134;,
         0.885013; 0.576872;,
         0.926669; 0.781029;,
         0.885013; 0.774408;,
         0.885013; 0.993379;,
         0.926669; 1.000000;,
         0.166844; 0.733215;,
         0.124172; 0.733911;,
         0.138583; 1.000000;,
         0.181255; 0.999304;,
         0.055915; 0.266771;,
         0.096455; 0.267011;,
         0.110865; 0.000922;,
         0.070325; 0.000681;,
         0.062526; 0.962849;,
         0.021140; 0.962214;,
         0.014851; 0.989443;,
         0.061350; 0.990135;,
         0.653102; 0.548821;,
         0.693701; 0.543246;,
         0.693701; 0.411191;,
         0.653102; 0.416765;,
         0.071216; 0.802378;,
         0.029831; 0.801743;,
         0.021140; 0.962214;,
         0.062526; 0.962849;,
         0.182135; 0.197611;,
         0.221725; 0.197361;,
         0.213034; 0.036890;,
         0.173444; 0.037141;,
         0.745631; 0.992778;,
         0.699911; 0.985919;,
         0.699911; 0.993142;,
         0.745631; 1.000000;,
         0.745627; 0.970594;,
         0.705028; 0.963760;,
         0.699911; 0.985919;,
         0.745631; 0.992778;,
         0.653102; 0.416765;,
         0.693701; 0.411191;,
         0.698826; 0.390149;,
         0.653106; 0.395744;,
         0.173444; 0.037141;,
         0.213034; 0.036890;,
         0.216967; 0.009548;,
         0.172271; 0.009855;,
         0.834521; 0.574546;,
         0.853482; 0.601667;,
         0.877391; 0.590219;,
         0.877391; 0.567787;,
         0.653106; 0.395744;,
         0.698826; 0.390149;,
         0.698826; 0.382294;,
         0.653106; 0.387889;,
         0.172271; 0.009855;,
         0.216967; 0.009548;,
         0.216450; 0.000003;,
         0.171754; 0.000309;,
         0.061350; 0.990135;,
         0.014851; 0.989443;,
         0.014334; 0.998988;,
         0.060833; 0.999680;,
         0.106107; 0.990454;,
         0.061350; 0.990135;,
         0.060833; 0.999680;,
         0.105590; 1.000000;,
         0.125713; 0.010559;,
         0.172271; 0.009855;,
         0.171754; 0.000309;,
         0.125196; 0.001014;,
         0.792224; 0.580743;,
         0.819701; 0.598994;,
         0.853482; 0.601667;,
         0.834521; 0.574546;,
         0.132001; 0.037788;,
         0.173444; 0.037141;,
         0.172271; 0.009855;,
         0.125713; 0.010559;,
         0.140691; 0.198259;,
         0.182135; 0.197611;,
         0.173444; 0.037141;,
         0.132001; 0.037788;,
         0.110865; 0.802642;,
         0.071216; 0.802378;,
         0.062526; 0.962849;,
         0.102174; 0.963113;,
         0.102174; 0.963113;,
         0.062526; 0.962849;,
         0.061350; 0.990135;,
         0.106107; 0.990454;,
         0.013312; 0.266089;,
         0.055915; 0.266771;,
         0.070325; 0.000681;,
         0.027722; 0.000000;,
         0.207314; 0.732990;,
         0.166844; 0.733215;,
         0.181255; 0.999304;,
         0.221725; 0.999079;,
         0.996677; 0.547121;,
         0.955356; 0.535754;,
         0.912086; 0.537776;,
         0.941808; 0.562047;,
         0.008201; 0.270659;,
         0.055969; 0.271397;,
         0.055915; 0.266771;,
         0.013312; 0.266089;,
         0.004939; 0.330900;,
         0.052707; 0.331638;,
         0.055969; 0.271397;,
         0.008201; 0.270659;,
         0.212535; 0.728306;,
         0.166900; 0.728588;,
         0.166844; 0.733215;,
         0.207314; 0.732990;,
         0.010041; 0.335239;,
         0.052140; 0.335915;,
         0.052707; 0.331638;,
         0.004939; 0.330900;,
         0.203036; 0.663852;,
         0.163070; 0.664071;,
         0.163637; 0.668347;,
         0.209272; 0.668065;,
         0.209272; 0.668065;,
         0.163637; 0.668347;,
         0.166900; 0.728588;,
         0.212535; 0.728306;,
         0.000000; 0.677272;,
         0.041239; 0.677864;,
         0.052140; 0.335915;,
         0.010041; 0.335239;,
         0.026255; 0.720687;,
         0.067494; 0.721278;,
         0.041239; 0.677864;,
         0.000000; 0.677272;,
         0.218271; 0.278415;,
         0.178403; 0.278713;,
         0.152149; 0.322127;,
         0.192017; 0.321829;,
         0.192017; 0.321829;,
         0.152149; 0.322127;,
         0.163070; 0.664071;,
         0.203036; 0.663852;,
         0.140691; 0.198259;,
         0.137119; 0.279314;,
         0.178403; 0.278713;,
         0.182135; 0.197611;,
         0.110865; 0.802642;,
         0.107407; 0.721587;,
         0.067494; 0.721278;,
         0.071216; 0.802378;,
         0.996677; 0.569497;,
         0.996677; 0.547121;,
         0.941808; 0.562047;,
         0.971530; 0.586319;,
         0.791351; 0.558444;,
         0.792224; 0.580743;,
         0.834521; 0.574546;,
         0.815559; 0.547425;,
         0.607386; 0.390149;,
         0.653106; 0.395744;,
         0.653106; 0.387889;,
         0.607386; 0.382294;,
         0.815559; 0.547425;,
         0.834521; 0.574546;,
         0.877391; 0.567787;,
         0.849040; 0.549669;,
         0.612503; 0.411191;,
         0.653102; 0.416765;,
         0.653106; 0.395744;,
         0.607386; 0.390149;,
         0.786226; 0.963760;,
         0.745627; 0.970594;,
         0.745631; 0.992778;,
         0.791351; 0.985919;,
         0.791351; 0.985919;,
         0.745631; 0.992778;,
         0.745631; 1.000000;,
         0.791351; 0.993142;,
         0.612503; 0.543246;,
         0.653102; 0.548821;,
         0.653102; 0.416765;,
         0.612503; 0.411191;,
         0.968324; 0.774408;,
         0.926669; 0.781029;,
         0.926669; 1.000000;,
         0.968324; 0.993379;,
         0.971530; 0.586319;,
         0.941808; 0.562047;,
         0.885013; 0.576872;,
         0.927692; 0.587877;,
         0.992118; 0.956311;,
         0.968324; 0.978156;,
         0.976206; 0.978156;,
         1.000000; 0.958725;,
         0.791351; 0.946303;,
         0.838182; 0.954420;,
         0.838182; 0.949388;,
         0.796527; 0.941272;,
         0.796527; 0.941272;,
         0.838182; 0.949388;,
         0.838182; 0.748059;,
         0.796527; 0.739942;,
         0.699911; 0.943805;,
         0.653079; 0.950426;,
         0.653079; 1.000000;,
         0.699911; 0.993379;,
         0.791351; 0.991883;,
         0.838182; 1.000000;,
         0.838182; 0.954420;,
         0.791351; 0.946303;,
         0.694230; 0.938720;,
         0.653079; 0.945341;,
         0.653079; 0.950426;,
         0.699911; 0.943805;,
         0.693789; 0.655062;,
         0.653131; 0.659318;,
         0.653079; 0.945341;,
         0.694230; 0.938720;,
         0.704997; 0.737330;,
         0.745656; 0.742547;,
         0.745604; 0.484420;,
         0.704453; 0.476304;,
         0.996716; 0.953661;,
         0.979070; 0.934467;,
         0.968324; 0.934467;,
         0.985970; 0.956311;,
         0.704997; 0.778682;,
         0.745656; 0.783900;,
         0.745656; 0.742547;,
         0.704997; 0.737330;,
         0.693789; 0.611994;,
         0.653131; 0.616250;,
         0.653131; 0.659318;,
         0.693789; 0.655062;,
         0.786226; 0.842344;,
         0.745627; 0.849178;,
         0.745627; 0.970594;,
         0.786226; 0.963760;,
         0.786226; 0.842344;,
         0.786314; 0.778682;,
         0.745656; 0.783900;,
         0.745627; 0.849178;,
         0.612503; 0.543246;,
         0.612472; 0.611994;,
         0.653131; 0.616250;,
         0.653102; 0.548821;,
         0.606248; 0.819522;,
         0.484586; 0.781325;,
         0.355451; 0.871104;,
         0.477113; 0.909301;,
         0.355451; 0.680725;,
         0.345669; 0.673924;,
         0.293804; 0.691942;,
         0.299464; 0.695877;,
         0.477112; 0.642528;,
         0.355451; 0.680725;,
         0.484584; 0.770504;,
         0.606245; 0.732306;,
         0.934406; 0.674206;,
         0.983798; 0.674206;,
         0.973920; 0.653430;,
         0.944283; 0.653430;,
         0.934406; 0.681726;,
         0.885013; 0.681726;,
         0.885013; 0.753596;,
         0.934406; 0.753596;,
         0.880192; 0.636665;,
         0.830799; 0.636665;,
         0.830799; 0.739942;,
         0.880192; 0.739942;,
         0.944283; 0.622383;,
         0.944283; 0.653430;,
         0.973920; 0.653430;,
         0.973920; 0.622383;,
         0.606245; 0.732306;,
         0.484584; 0.770504;,
         0.527381; 0.775914;,
         0.600382; 0.752994;,
         0.484586; 0.781325;,
         0.606248; 0.819522;,
         0.600386; 0.798834;,
         0.527385; 0.775914;,
         0.934406; 0.753596;,
         0.885013; 0.753596;,
         0.894891; 0.774408;,
         0.924528; 0.774408;,
         0.467331; 0.916102;,
         0.345669; 0.877905;,
         0.312249; 0.884854;,
         0.457306; 0.930396;,
         0.477113; 0.909301;,
         0.355451; 0.871104;,
         0.345669; 0.877905;,
         0.467331; 0.916102;,
         0.355451; 0.680725;,
         0.477112; 0.642528;,
         0.467330; 0.635727;,
         0.345669; 0.673924;,
         0.467330; 0.635727;,
         0.477112; 0.642528;,
         0.598800; 0.602421;,
         0.592248; 0.597866;,
         0.893166; 0.628761;,
         0.926253; 0.628761;,
         0.926253; 0.625114;,
         0.893166; 0.625114;,
         0.345669; 0.877905;,
         0.293806; 0.859887;,
         0.250413; 0.863371;,
         0.312249; 0.884854;,
         0.885013; 0.681726;,
         0.934406; 0.681726;,
         0.926253; 0.628761;,
         0.893166; 0.628761;,
         0.477113; 0.909301;,
         0.467331; 0.916102;,
         0.592251; 0.953963;,
         0.598804; 0.949407;,
         0.944111; 0.601760;,
         0.944111; 0.588429;,
         0.934406; 0.588429;,
         0.934406; 0.601760;,
         0.467330; 0.635727;,
         0.592248; 0.597866;,
         0.606245; 0.576291;,
         0.457306; 0.621433;,
         0.880192; 0.612839;,
         0.830799; 0.612839;,
         0.841206; 0.636665;,
         0.869785; 0.636665;,
         0.345669; 0.877905;,
         0.355451; 0.871104;,
         0.299466; 0.855952;,
         0.293806; 0.859887;,
         0.934406; 0.774408;,
         0.968481; 0.774408;,
         0.968481; 0.753091;,
         0.934406; 0.753091;,
         0.312249; 0.884854;,
         0.250413; 0.863371;,
         0.223145; 0.881818;,
         0.284981; 0.903300;,
         0.457306; 0.930396;,
         0.312249; 0.884854;,
         0.284981; 0.903300;,
         0.430039; 0.948843;,
         0.293804; 0.691942;,
         0.345669; 0.673924;,
         0.312250; 0.666975;,
         0.250412; 0.688458;,
         0.893166; 0.625114;,
         0.926253; 0.625114;,
         0.929434; 0.602558;,
         0.889985; 0.602558;,
         0.592251; 0.953963;,
         0.467331; 0.916102;,
         0.457306; 0.930396;,
         0.606248; 0.975537;,
         0.345669; 0.673924;,
         0.467330; 0.635727;,
         0.457306; 0.621433;,
         0.312250; 0.666975;,
         0.965733; 0.601760;,
         0.937154; 0.601760;,
         0.934406; 0.622383;,
         0.968481; 0.622383;,
         0.830799; 0.601667;,
         0.791351; 0.601667;,
         0.793661; 0.621832;,
         0.828488; 0.621832;,
         0.578980; 0.993984;,
         0.430039; 0.948843;,
         0.404378; 0.960148;,
         0.535870; 1.000000;,
         0.223145; 0.670012;,
         0.284984; 0.648529;,
         0.276318; 0.631888;,
         0.221725; 0.650854;,
         0.457306; 0.621433;,
         0.606245; 0.576291;,
         0.578978; 0.557845;,
         0.430039; 0.602987;,
         0.312250; 0.666975;,
         0.457306; 0.621433;,
         0.430039; 0.602987;,
         0.284984; 0.648529;,
         0.250412; 0.688458;,
         0.312250; 0.666975;,
         0.284984; 0.648529;,
         0.223145; 0.670012;,
         0.606248; 0.975537;,
         0.457306; 0.930396;,
         0.430039; 0.948843;,
         0.578980; 0.993984;,
         0.889985; 0.602558;,
         0.929434; 0.602558;,
         0.929434; 0.587877;,
         0.889985; 0.587877;,
         0.535870; 1.000000;,
         0.404378; 0.960148;,
         0.368419; 0.970676;,
         0.460139; 0.998474;,
         0.221725; 0.650854;,
         0.276318; 0.631888;,
         0.279091; 0.609199;,
         0.241011; 0.622428;,
         0.276318; 0.631888;,
         0.404379; 0.591682;,
         0.368419; 0.581153;,
         0.279091; 0.609199;,
         0.430039; 0.948843;,
         0.284981; 0.903300;,
         0.276316; 0.919941;,
         0.404378; 0.960148;,
         0.284981; 0.903300;,
         0.223145; 0.881818;,
         0.221725; 0.900976;,
         0.276316; 0.919941;,
         0.934406; 0.753091;,
         0.968481; 0.753091;,
         0.966485; 0.734552;,
         0.936402; 0.734552;,
         0.430039; 0.602987;,
         0.578978; 0.557845;,
         0.535867; 0.551829;,
         0.404379; 0.591682;,
         0.284984; 0.648529;,
         0.430039; 0.602987;,
         0.404379; 0.591682;,
         0.276318; 0.631888;,
         0.368419; 0.581153;,
         0.460137; 0.553354;,
         0.410853; 0.557878;,
         0.347678; 0.577026;,
         0.940951; 0.709908;,
         0.961936; 0.709908;,
         0.958670; 0.696183;,
         0.944217; 0.696183;,
         0.279091; 0.942631;,
         0.241012; 0.929401;,
         0.259923; 0.946374;,
         0.286152; 0.955486;,
         0.828488; 0.621832;,
         0.793661; 0.621832;,
         0.798928; 0.657049;,
         0.823222; 0.657049;,
         0.404378; 0.960148;,
         0.276316; 0.919941;,
         0.279091; 0.942631;,
         0.368419; 0.970676;,
         0.276316; 0.919941;,
         0.221725; 0.900976;,
         0.241012; 0.929401;,
         0.279091; 0.942631;,
         0.936402; 0.734552;,
         0.966485; 0.734552;,
         0.961936; 0.709908;,
         0.940951; 0.709908;,
         0.404379; 0.591682;,
         0.535867; 0.551829;,
         0.460137; 0.553354;,
         0.368419; 0.581153;,
         0.286152; 0.955486;,
         0.259923; 0.946374;,
         0.281355; 0.972315;,
         0.291483; 0.975834;,
         0.347680; 0.974803;,
         0.286152; 0.955486;,
         0.291483; 0.975834;,
         0.315242; 0.983293;,
         0.819441; 0.679908;,
         0.802709; 0.679908;,
         0.807844; 0.712996;,
         0.814306; 0.712996;,
         0.279091; 0.609199;,
         0.368419; 0.581153;,
         0.347678; 0.577026;,
         0.286151; 0.596343;,
         0.241011; 0.622428;,
         0.279091; 0.609199;,
         0.286151; 0.596343;,
         0.259921; 0.605455;,
         0.460139; 0.998474;,
         0.368419; 0.970676;,
         0.347680; 0.974803;,
         0.410855; 0.993951;,
         0.823222; 0.657049;,
         0.798928; 0.657049;,
         0.802709; 0.679908;,
         0.819441; 0.679908;,
         0.368419; 0.970676;,
         0.279091; 0.942631;,
         0.286152; 0.955486;,
         0.347680; 0.974803;,
         0.806252; 0.724324;,
         0.806252; 0.735314;,
         0.815898; 0.735314;,
         0.815898; 0.724324;,
         0.806252; 0.724324;,
         0.815898; 0.724324;,
         0.814306; 0.712996;,
         0.807844; 0.712996;,
         0.815898; 0.735314;,
         0.806252; 0.735314;,
         0.808284; 0.739942;,
         0.813865; 0.739942;,
         0.944217; 0.696183;,
         0.958670; 0.696183;,
         0.954234; 0.674206;,
         0.948653; 0.674206;,
         0.347678; 0.577026;,
         0.410853; 0.557878;,
         0.339634; 0.561142;,
         0.315240; 0.568536;,
         0.286151; 0.596343;,
         0.347678; 0.577026;,
         0.315240; 0.568536;,
         0.291481; 0.575995;,
         0.259921; 0.605455;,
         0.286151; 0.596343;,
         0.291481; 0.575995;,
         0.281353; 0.579514;,
         0.410855; 0.993951;,
         0.347680; 0.974803;,
         0.315242; 0.983293;,
         0.339637; 0.990686;;
      } // End of Cube UV coordinates
      MeshMaterialList { // Cube material list
        1;
        158;
        0,
        0,
        0,
        0,
        0,
        0,
        0,
        0,
        0,
        0,
        0,
        0,
        0,
        0,
        0,
        0,
        0,
        0,
        0,
        0,
        0,
        0,
        0,
        0,
        0,
        0,
        0,
        0,
        0,
        0,
        0,
        0,
        0,
        0,
        0,
        0,
        0,
        0,
        0,
        0,
        0,
        0,
        0,
        0,
        0,
        0,
        0,
        0,
        0,
        0,
        0,
        0,
        0,
        0,
        0,
        0,
        0,
        0,
        0,
        0,
        0,
        0,
        0,
        0,
        0,
        0,
        0,
        0,
        0,
        0,
        0,
        0,
        0,
        0,
        0,
        0,
        0,
        0,
        0,
        0,
        0,
        0,
        0,
        0,
        0,
        0,
        0,
        0,
        0,
        0,
        0,
        0,
        0,
        0,
        0,
        0,
        0,
        0,
        0,
        0,
        0,
        0,
        0,
        0,
        0,
        0,
        0,
        0,
        0,
        0,
        0,
        0,
        0,
        0,
        0,
        0,
        0,
        0,
        0,
        0,
        0,
        0,
        0,
        0,
        0,
        0,
        0,
        0,
        0,
        0,
        0,
        0,
        0,
        0,
        0,
        0,
        0,
        0,
        0,
        0,
        0,
        0,
        0,
        0,
        0,
        0,
        0,
        0,
        0,
        0,
        0,
        0,
        0,
        0,
        0,
        0,
        0,
        0;
        Material Material_001 {
           0.640000; 0.640000; 0.640000; 1.000000;;
           96.078431;
           0.500000; 0.500000; 0.500000;;
           0.000000; 0.000000; 0.000000;;
        }
      } // End of Cube material list
    } // End of Cube mesh
  } // End of Cube
} // End of Root
