xof 0303txt 0032

Frame Root {
  FrameTransformMatrix {
     1.000000, 0.000000, 0.000000, 0.000000,
     0.000000,-0.000000, 1.000000, 0.000000,
     0.000000, 1.000000, 0.000000, 0.000000,
     0.000000, 0.000000, 0.000000, 1.000000;;
  }
  Frame _0002 {
    FrameTransformMatrix {
       1.000000, 0.000000, 0.000000, 0.000000,
       0.000000, 1.000000, 0.000000, 0.000000,
       0.000000, 0.000000, 1.000000, 0.000000,
       0.000000, 0.000000, 0.000000, 1.000000;;
    }
    Mesh { // _0002 mesh
      501;
       0.004302;-0.007841; 0.026216;,
       0.006574;-0.000368;-0.085395;,
       0.008373;-0.000368; 0.030828;,
       0.006574;-0.000368;-0.085395;,
       0.004302;-0.007841; 0.026216;,
       0.002574;-0.007418;-0.081705;,
      -0.003839;-0.007841; 0.026216;,
       0.002574;-0.007418;-0.081705;,
       0.004302;-0.007841; 0.026216;,
       0.002574;-0.007418;-0.081705;,
      -0.003839;-0.007841; 0.026216;,
      -0.005424;-0.007418;-0.074325;,
      -0.007909;-0.000368; 0.030828;,
      -0.005424;-0.007418;-0.074325;,
      -0.003839;-0.007841; 0.026216;,
      -0.005424;-0.007418;-0.074325;,
      -0.007909;-0.000368; 0.030828;,
      -0.009423;-0.000368;-0.069983;,
      -0.003839; 0.007106; 0.035440;,
      -0.009423;-0.000368;-0.069983;,
      -0.007909;-0.000368; 0.030828;,
      -0.009423;-0.000368;-0.069983;,
      -0.003839; 0.007106; 0.035440;,
      -0.005424; 0.006682;-0.074325;,
       0.004302; 0.007106; 0.035440;,
      -0.005424; 0.006682;-0.074325;,
      -0.003839; 0.007106; 0.035440;,
      -0.005424; 0.006682;-0.074325;,
       0.004302; 0.007106; 0.035440;,
       0.002574; 0.006682;-0.079465;,
       0.008373;-0.000368; 0.030828;,
       0.002574; 0.006682;-0.079465;,
       0.004302; 0.007106; 0.035440;,
       0.002574; 0.006682;-0.079465;,
       0.008373;-0.000368; 0.030828;,
       0.006574;-0.000368;-0.085395;,
       0.002567;-0.008541; 0.191390;,
       0.008373;-0.000368; 0.030828;,
       0.006638;-0.001491; 0.191390;,
       0.008373;-0.000368; 0.030828;,
       0.002567;-0.008541; 0.191390;,
       0.004302;-0.007841; 0.026216;,
      -0.005574;-0.008541; 0.191390;,
       0.004302;-0.007841; 0.026216;,
       0.002567;-0.008541; 0.191390;,
       0.004302;-0.007841; 0.026216;,
      -0.005574;-0.008541; 0.191390;,
      -0.003839;-0.007841; 0.026216;,
      -0.009644;-0.001491; 0.191390;,
      -0.003839;-0.007841; 0.026216;,
      -0.005574;-0.008541; 0.191390;,
      -0.003839;-0.007841; 0.026216;,
      -0.009644;-0.001491; 0.191390;,
      -0.007909;-0.000368; 0.030828;,
      -0.005574; 0.005559; 0.191390;,
      -0.007909;-0.000368; 0.030828;,
      -0.009644;-0.001491; 0.191390;,
      -0.007909;-0.000368; 0.030828;,
      -0.005574; 0.005559; 0.191390;,
      -0.003839; 0.007106; 0.035440;,
       0.002567; 0.005559; 0.191390;,
      -0.003839; 0.007106; 0.035440;,
      -0.005574; 0.005559; 0.191390;,
      -0.003839; 0.007106; 0.035440;,
       0.002567; 0.005559; 0.191390;,
       0.004302; 0.007106; 0.035440;,
       0.006638;-0.001491; 0.191390;,
       0.004302; 0.007106; 0.035440;,
       0.002567; 0.005559; 0.191390;,
       0.004302; 0.007106; 0.035440;,
       0.006638;-0.001491; 0.191390;,
       0.008373;-0.000368; 0.030828;,
       0.002047;-0.007351; 0.300913;,
       0.006638;-0.001491; 0.191390;,
       0.005695;-0.001636; 0.300913;,
       0.006638;-0.001491; 0.191390;,
       0.002047;-0.007351; 0.300913;,
       0.002567;-0.008541; 0.191390;,
      -0.005250;-0.007351; 0.300913;,
       0.002567;-0.008541; 0.191390;,
       0.002047;-0.007351; 0.300913;,
       0.002567;-0.008541; 0.191390;,
      -0.005250;-0.007351; 0.300913;,
      -0.005574;-0.008541; 0.191390;,
      -0.008899;-0.001636; 0.300913;,
      -0.005574;-0.008541; 0.191390;,
      -0.005250;-0.007351; 0.300913;,
      -0.005574;-0.008541; 0.191390;,
      -0.008899;-0.001636; 0.300913;,
      -0.009644;-0.001491; 0.191390;,
      -0.005250; 0.004080; 0.300913;,
      -0.009644;-0.001491; 0.191390;,
      -0.008899;-0.001636; 0.300913;,
      -0.009644;-0.001491; 0.191390;,
      -0.005250; 0.004080; 0.300913;,
      -0.005574; 0.005559; 0.191390;,
       0.002047; 0.004080; 0.300913;,
      -0.005574; 0.005559; 0.191390;,
      -0.005250; 0.004080; 0.300913;,
      -0.005574; 0.005559; 0.191390;,
       0.002047; 0.004080; 0.300913;,
       0.002567; 0.005559; 0.191390;,
       0.005695;-0.001636; 0.300913;,
       0.002567; 0.005559; 0.191390;,
       0.002047; 0.004080; 0.300913;,
       0.002567; 0.005559; 0.191390;,
       0.005695;-0.001636; 0.300913;,
       0.006638;-0.001491; 0.191390;,
       0.003816;-0.009074; 0.490259;,
       0.005695;-0.001636; 0.300913;,
       0.007547;-0.000301; 0.489179;,
       0.005695;-0.001636; 0.300913;,
       0.003816;-0.009074; 0.490259;,
       0.002047;-0.007351; 0.300913;,
      -0.003645;-0.009074; 0.490259;,
       0.002047;-0.007351; 0.300913;,
       0.003816;-0.009074; 0.490259;,
       0.002047;-0.007351; 0.300913;,
      -0.003645;-0.009074; 0.490259;,
      -0.005250;-0.007351; 0.300913;,
      -0.007375;-0.000301; 0.489179;,
      -0.005250;-0.007351; 0.300913;,
      -0.003645;-0.009074; 0.490259;,
      -0.005250;-0.007351; 0.300913;,
      -0.007375;-0.000301; 0.489179;,
      -0.008899;-0.001636; 0.300913;,
      -0.003645; 0.007148; 0.488098;,
      -0.008899;-0.001636; 0.300913;,
      -0.007375;-0.000301; 0.489179;,
      -0.008899;-0.001636; 0.300913;,
      -0.003645; 0.007148; 0.488098;,
      -0.005250; 0.004080; 0.300913;,
       0.003816; 0.007148; 0.488098;,
      -0.005250; 0.004080; 0.300913;,
      -0.003645; 0.007148; 0.488098;,
      -0.005250; 0.004080; 0.300913;,
       0.003816; 0.007148; 0.488098;,
       0.002047; 0.004080; 0.300913;,
       0.007547;-0.000301; 0.489179;,
       0.002047; 0.004080; 0.300913;,
       0.003816; 0.007148; 0.488098;,
       0.002047; 0.004080; 0.300913;,
       0.007547;-0.000301; 0.489179;,
       0.005695;-0.001636; 0.300913;,
       0.003018;-0.009584; 0.576908;,
       0.007547;-0.000301; 0.489179;,
       0.007080;-0.000231; 0.575114;,
       0.007547;-0.000301; 0.489179;,
       0.003018;-0.009584; 0.576908;,
       0.003816;-0.009074; 0.490259;,
      -0.002279;-0.009584; 0.579528;,
       0.003816;-0.009074; 0.490259;,
       0.003018;-0.009584; 0.576908;,
       0.003816;-0.009074; 0.490259;,
      -0.002279;-0.009584; 0.579528;,
      -0.003645;-0.009074; 0.490259;,
      -0.007568;-0.000231; 0.579798;,
      -0.003645;-0.009074; 0.490259;,
      -0.002279;-0.009584; 0.579528;,
      -0.003645;-0.009074; 0.490259;,
      -0.007568;-0.000231; 0.579798;,
      -0.007375;-0.000301; 0.489179;,
      -0.004489; 0.007658; 0.575817;,
      -0.007375;-0.000301; 0.489179;,
      -0.007568;-0.000231; 0.579798;,
      -0.007375;-0.000301; 0.489179;,
      -0.004489; 0.007658; 0.575817;,
      -0.003645; 0.007148; 0.488098;,
       0.004035; 0.007658; 0.579262;,
      -0.003645; 0.007148; 0.488098;,
      -0.004489; 0.007658; 0.575817;,
      -0.003645; 0.007148; 0.488098;,
       0.004035; 0.007658; 0.579262;,
       0.003816; 0.007148; 0.488098;,
       0.007080;-0.000231; 0.575114;,
       0.003816; 0.007148; 0.488098;,
       0.004035; 0.007658; 0.579262;,
       0.003816; 0.007148; 0.488098;,
       0.007080;-0.000231; 0.575114;,
       0.007547;-0.000301; 0.489179;,
       0.002574; 0.006682;-0.079465;,
      -0.002453;-0.000416;-0.090480;,
      -0.005424; 0.006682;-0.074325;,
      -0.005424; 0.006682;-0.074325;,
      -0.002453;-0.000416;-0.090480;,
      -0.009423;-0.000368;-0.069983;,
      -0.009423;-0.000368;-0.069983;,
      -0.002453;-0.000416;-0.090480;,
      -0.005424;-0.007418;-0.074325;,
      -0.005424;-0.007418;-0.074325;,
      -0.002453;-0.000416;-0.090480;,
       0.002574;-0.007418;-0.081705;,
       0.002574;-0.007418;-0.081705;,
      -0.002453;-0.000416;-0.090480;,
       0.006574;-0.000368;-0.085395;,
       0.006574;-0.000368;-0.085395;,
      -0.002453;-0.000416;-0.090480;,
       0.002574; 0.006682;-0.079465;,
      -0.007568;-0.000231; 0.579798;,
      -0.002279;-0.009584; 0.579528;,
       0.003018;-0.009584; 0.576908;,
       0.007080;-0.000231; 0.575114;,
       0.004035; 0.007658; 0.579262;,
       0.004035; 0.007658; 0.579262;,
      -0.004489; 0.007658; 0.575817;,
       0.004363;-0.030402; 0.674733;,
      -0.005347;-0.030402; 0.674733;,
      -0.003804;-0.035827; 0.666586;,
       0.002820;-0.035827; 0.666586;,
      -0.005347;-0.021096; 0.611779;,
      -0.005347;-0.021096; 0.697901;,
      -0.005347; 0.021941; 0.697901;,
      -0.005347; 0.021941; 0.611779;,
       0.001911; 0.023985; 0.664621;,
       0.001911; 0.023985; 0.651233;,
       0.001221; 0.028939; 0.653156;,
       0.001221; 0.028939; 0.662698;,
       0.004363;-0.021096; 0.611779;,
       0.004363;-0.021096; 0.697901;,
       0.004363;-0.030402; 0.674733;,
       0.004363;-0.030206; 0.623585;,
      -0.005347; 0.021941; 0.611779;,
       0.004363; 0.021941; 0.611779;,
       0.002014; 0.011531; 0.568236;,
      -0.002998; 0.011531; 0.568236;,
      -0.005347;-0.021096; 0.697901;,
      -0.005347;-0.030402; 0.674733;,
       0.004363;-0.030402; 0.674733;,
       0.004363;-0.021096; 0.697901;,
      -0.005347; 0.021941; 0.697901;,
      -0.005347;-0.021096; 0.697901;,
      -0.003122;-0.011237; 0.708082;,
      -0.003122; 0.012081; 0.708082;,
      -0.005347;-0.030206; 0.623585;,
      -0.005347;-0.021096; 0.611779;,
       0.004363;-0.021096; 0.611779;,
       0.004363;-0.030206; 0.623585;,
       0.004363; 0.021941; 0.611779;,
       0.004363; 0.021941; 0.697901;,
       0.004363;-0.021096; 0.697901;,
       0.004363;-0.021096; 0.611779;,
      -0.005347;-0.030206; 0.623585;,
      -0.005347;-0.030402; 0.674733;,
      -0.005347;-0.021096; 0.697901;,
      -0.005347;-0.021096; 0.611779;,
       0.002138;-0.011237; 0.708082;,
       0.002138; 0.012081; 0.708082;,
       0.001191; 0.007881; 0.718833;,
       0.001191;-0.007037; 0.718833;,
      -0.005347;-0.021096; 0.697901;,
       0.004363;-0.021096; 0.697901;,
       0.002138;-0.011237; 0.708082;,
      -0.003122;-0.011237; 0.708082;,
       0.004363; 0.021941; 0.697901;,
      -0.005347; 0.021941; 0.697901;,
      -0.003122; 0.012081; 0.708082;,
       0.002138; 0.012081; 0.708082;,
       0.004363;-0.021096; 0.697901;,
       0.004363; 0.021941; 0.697901;,
       0.002138; 0.012081; 0.708082;,
       0.002138;-0.011237; 0.708082;,
      -0.002175;-0.007037; 0.718833;,
       0.001191;-0.007037; 0.718833;,
       0.000274;-0.002973; 0.749239;,
      -0.001258;-0.002973; 0.749239;,
      -0.003122; 0.012081; 0.708082;,
      -0.003122;-0.011237; 0.708082;,
      -0.002175;-0.007037; 0.718833;,
      -0.002175; 0.007881; 0.718833;,
      -0.003122;-0.011237; 0.708082;,
       0.002138;-0.011237; 0.708082;,
       0.001191;-0.007037; 0.718833;,
      -0.002175;-0.007037; 0.718833;,
       0.002138; 0.012081; 0.708082;,
      -0.003122; 0.012081; 0.708082;,
      -0.002175; 0.007881; 0.718833;,
       0.001191; 0.007881; 0.718833;,
       0.000274;-0.002973; 0.749239;,
       0.000274; 0.003818; 0.749239;,
      -0.000278; 0.001370; 0.757369;,
      -0.000278;-0.000525; 0.757369;,
       0.001191; 0.007881; 0.718833;,
      -0.002175; 0.007881; 0.718833;,
      -0.001258; 0.003818; 0.749239;,
       0.000274; 0.003818; 0.749239;,
       0.001191;-0.007037; 0.718833;,
       0.001191; 0.007881; 0.718833;,
       0.000274; 0.003818; 0.749239;,
       0.000274;-0.002973; 0.749239;,
      -0.002175; 0.007881; 0.718833;,
      -0.002175;-0.007037; 0.718833;,
      -0.001258;-0.002973; 0.749239;,
      -0.001258; 0.003818; 0.749239;,
       0.002820;-0.035827; 0.666586;,
      -0.003804;-0.035827; 0.666586;,
      -0.004285;-0.040164; 0.669060;,
       0.001309;-0.040164; 0.669060;,
      -0.005347;-0.030206; 0.623585;,
       0.004363;-0.030206; 0.623585;,
       0.002820;-0.035693; 0.631691;,
      -0.003804;-0.035693; 0.631691;,
      -0.005347;-0.030402; 0.674733;,
      -0.005347;-0.030206; 0.623585;,
      -0.003804;-0.035693; 0.631691;,
      -0.003804;-0.035827; 0.666586;,
       0.004363;-0.030206; 0.623585;,
       0.004363;-0.030402; 0.674733;,
       0.002820;-0.035827; 0.666586;,
       0.002820;-0.035693; 0.631691;,
      -0.004285;-0.040164; 0.669060;,
      -0.004285;-0.040011; 0.629093;,
      -0.002961;-0.043172; 0.622696;,
      -0.002961;-0.043374; 0.675404;,
      -0.003804;-0.035693; 0.631691;,
       0.002820;-0.035693; 0.631691;,
       0.001309;-0.040011; 0.629093;,
      -0.004285;-0.040011; 0.629093;,
      -0.003804;-0.035827; 0.666586;,
      -0.003804;-0.035693; 0.631691;,
      -0.004285;-0.040011; 0.629093;,
      -0.004285;-0.040164; 0.669060;,
       0.002820;-0.035693; 0.631691;,
       0.002820;-0.035827; 0.666586;,
       0.001309;-0.040164; 0.669060;,
       0.001309;-0.040011; 0.629093;,
      -0.000545;-0.043374; 0.675404;,
      -0.002961;-0.043374; 0.675404;,
      -0.003244;-0.058646; 0.692657;,
       0.000028;-0.058646; 0.692657;,
       0.001309;-0.040011; 0.629093;,
       0.001309;-0.040164; 0.669060;,
      -0.000545;-0.043374; 0.675404;,
      -0.000545;-0.043172; 0.622696;,
       0.001309;-0.040164; 0.669060;,
      -0.004285;-0.040164; 0.669060;,
      -0.002961;-0.043374; 0.675404;,
      -0.000545;-0.043374; 0.675404;,
      -0.004285;-0.040011; 0.629093;,
       0.001309;-0.040011; 0.629093;,
      -0.000545;-0.043172; 0.622696;,
      -0.002961;-0.043172; 0.622696;,
      -0.002541;-0.058311; 0.605326;,
       0.002156;-0.058311; 0.605326;,
      -0.000403;-0.071844; 0.596068;,
      -0.003470;-0.071844; 0.596068;,
      -0.002961;-0.043172; 0.622696;,
      -0.000545;-0.043172; 0.622696;,
       0.002156;-0.058311; 0.605326;,
      -0.002541;-0.058311; 0.605326;,
      -0.002961;-0.043374; 0.675404;,
      -0.002961;-0.043172; 0.622696;,
      -0.002541;-0.058311; 0.605326;,
      -0.003244;-0.058646; 0.692657;,
      -0.000545;-0.043172; 0.622696;,
      -0.000545;-0.043374; 0.675404;,
       0.000028;-0.058646; 0.692657;,
       0.002156;-0.058311; 0.605326;,
      -0.003470;-0.072249; 0.701811;,
      -0.003470;-0.071844; 0.596068;,
      -0.002923;-0.086649; 0.636019;,
      -0.002923;-0.086748; 0.661630;,
      -0.003244;-0.058646; 0.692657;,
      -0.002541;-0.058311; 0.605326;,
      -0.003470;-0.071844; 0.596068;,
      -0.003470;-0.072249; 0.701811;,
       0.002156;-0.058311; 0.605326;,
       0.000028;-0.058646; 0.692657;,
      -0.000403;-0.072249; 0.701811;,
      -0.000403;-0.071844; 0.596068;,
       0.000028;-0.058646; 0.692657;,
      -0.003244;-0.058646; 0.692657;,
      -0.003470;-0.072249; 0.701811;,
      -0.000403;-0.072249; 0.701811;,
       0.000362;-0.086748; 0.661630;,
      -0.002923;-0.086748; 0.661630;,
      -0.001506;-0.093702; 0.650558;,
      -0.001055;-0.093702; 0.650558;,
      -0.000403;-0.071844; 0.596068;,
      -0.000403;-0.072249; 0.701811;,
       0.000362;-0.086748; 0.661630;,
       0.000362;-0.086649; 0.636019;,
      -0.000403;-0.072249; 0.701811;,
      -0.003470;-0.072249; 0.701811;,
      -0.002923;-0.086748; 0.661630;,
       0.000362;-0.086748; 0.661630;,
      -0.003470;-0.071844; 0.596068;,
      -0.000403;-0.071844; 0.596068;,
       0.000362;-0.086649; 0.636019;,
      -0.002923;-0.086649; 0.636019;,
      -0.001055;-0.093688; 0.647037;,
      -0.001055;-0.093702; 0.650558;,
      -0.001506;-0.093702; 0.650558;,
      -0.001506;-0.093688; 0.647037;,
      -0.002923;-0.086649; 0.636019;,
       0.000362;-0.086649; 0.636019;,
      -0.001055;-0.093688; 0.647037;,
      -0.001506;-0.093688; 0.647037;,
      -0.002923;-0.086748; 0.661630;,
      -0.002923;-0.086649; 0.636019;,
      -0.001506;-0.093688; 0.647037;,
      -0.001506;-0.093702; 0.650558;,
       0.000362;-0.086649; 0.636019;,
       0.000362;-0.086748; 0.661630;,
      -0.001055;-0.093702; 0.650558;,
      -0.001055;-0.093688; 0.647037;,
      -0.002998;-0.010686; 0.568236;,
      -0.002998; 0.011531; 0.568236;,
       0.002014; 0.011531; 0.568236;,
       0.002014;-0.010686; 0.568236;,
      -0.005347;-0.021096; 0.611779;,
      -0.005347; 0.021941; 0.611779;,
      -0.002998; 0.011531; 0.568236;,
      -0.002998;-0.010686; 0.568236;,
       0.004363; 0.021941; 0.611779;,
       0.004363;-0.021096; 0.611779;,
       0.002014;-0.010686; 0.568236;,
       0.002014; 0.011531; 0.568236;,
       0.004363;-0.021096; 0.611779;,
      -0.005347;-0.021096; 0.611779;,
      -0.002998;-0.010686; 0.568236;,
       0.002014;-0.010686; 0.568236;,
      -0.002895; 0.023985; 0.664621;,
      -0.002895; 0.023985; 0.651233;,
      -0.005347; 0.021941; 0.611779;,
      -0.005347; 0.021941; 0.697901;,
      -0.002895; 0.023985; 0.651233;,
       0.001911; 0.023985; 0.651233;,
       0.004363; 0.021941; 0.611779;,
      -0.005347; 0.021941; 0.611779;,
       0.001911; 0.023985; 0.664621;,
      -0.002895; 0.023985; 0.664621;,
      -0.005347; 0.021941; 0.697901;,
       0.004363; 0.021941; 0.697901;,
       0.001911; 0.023985; 0.651233;,
       0.001911; 0.023985; 0.664621;,
       0.004363; 0.021941; 0.697901;,
       0.004363; 0.021941; 0.611779;,
      -0.002205; 0.028939; 0.662698;,
       0.001221; 0.028939; 0.662698;,
       0.002869; 0.035030; 0.667290;,
      -0.003853; 0.035030; 0.667290;,
       0.001911; 0.023985; 0.651233;,
      -0.002895; 0.023985; 0.651233;,
      -0.002205; 0.028939; 0.653156;,
       0.001221; 0.028939; 0.653156;,
      -0.002895; 0.023985; 0.664621;,
       0.001911; 0.023985; 0.664621;,
       0.001221; 0.028939; 0.662698;,
      -0.002205; 0.028939; 0.662698;,
      -0.002895; 0.023985; 0.651233;,
      -0.002895; 0.023985; 0.664621;,
      -0.002205; 0.028939; 0.662698;,
      -0.002205; 0.028939; 0.653156;,
      -0.003853; 0.035030; 0.667290;,
       0.002869; 0.035030; 0.667290;,
       0.000034; 0.075061; 0.659393;,
      -0.001018; 0.075061; 0.659393;,
      -0.002205; 0.028939; 0.653156;,
      -0.002205; 0.028939; 0.662698;,
      -0.003853; 0.035030; 0.667290;,
      -0.003853; 0.035030; 0.648564;,
       0.001221; 0.028939; 0.662698;,
       0.001221; 0.028939; 0.653156;,
       0.002869; 0.035030; 0.648564;,
       0.002869; 0.035030; 0.667290;,
       0.001221; 0.028939; 0.653156;,
      -0.002205; 0.028939; 0.653156;,
      -0.003853; 0.035030; 0.648564;,
       0.002869; 0.035030; 0.648564;,
      -0.001018; 0.075061; 0.656461;,
      -0.001018; 0.075061; 0.659393;,
       0.000034; 0.075061; 0.659393;,
       0.000034; 0.075061; 0.656461;,
      -0.003853; 0.035030; 0.648564;,
      -0.003853; 0.035030; 0.667290;,
      -0.001018; 0.075061; 0.659393;,
      -0.001018; 0.075061; 0.656461;,
       0.002869; 0.035030; 0.667290;,
       0.002869; 0.035030; 0.648564;,
       0.000034; 0.075061; 0.656461;,
       0.000034; 0.075061; 0.659393;,
       0.002869; 0.035030; 0.648564;,
      -0.003853; 0.035030; 0.648564;,
      -0.001018; 0.075061; 0.656461;,
       0.000034; 0.075061; 0.656461;,
      -0.000706; 0.001370; 0.757369;,
      -0.000706;-0.000525; 0.757369;,
      -0.000278;-0.000525; 0.757369;,
      -0.000278; 0.001370; 0.757369;,
      -0.001258; 0.003818; 0.749239;,
      -0.001258;-0.002973; 0.749239;,
      -0.000706;-0.000525; 0.757369;,
      -0.000706; 0.001370; 0.757369;,
      -0.001258;-0.002973; 0.749239;,
       0.000274;-0.002973; 0.749239;,
      -0.000278;-0.000525; 0.757369;,
      -0.000706;-0.000525; 0.757369;,
       0.000274; 0.003818; 0.749239;,
      -0.001258; 0.003818; 0.749239;,
      -0.000706; 0.001370; 0.757369;,
      -0.000278; 0.001370; 0.757369;;
      141;
      3;2,1,0;,
      3;5,4,3;,
      3;8,7,6;,
      3;11,10,9;,
      3;14,13,12;,
      3;17,16,15;,
      3;20,19,18;,
      3;23,22,21;,
      3;26,25,24;,
      3;29,28,27;,
      3;32,31,30;,
      3;35,34,33;,
      3;38,37,36;,
      3;41,40,39;,
      3;44,43,42;,
      3;47,46,45;,
      3;50,49,48;,
      3;53,52,51;,
      3;56,55,54;,
      3;59,58,57;,
      3;62,61,60;,
      3;65,64,63;,
      3;68,67,66;,
      3;71,70,69;,
      3;74,73,72;,
      3;77,76,75;,
      3;80,79,78;,
      3;83,82,81;,
      3;86,85,84;,
      3;89,88,87;,
      3;92,91,90;,
      3;95,94,93;,
      3;98,97,96;,
      3;101,100,99;,
      3;104,103,102;,
      3;107,106,105;,
      3;110,109,108;,
      3;113,112,111;,
      3;116,115,114;,
      3;119,118,117;,
      3;122,121,120;,
      3;125,124,123;,
      3;128,127,126;,
      3;131,130,129;,
      3;134,133,132;,
      3;137,136,135;,
      3;140,139,138;,
      3;143,142,141;,
      3;146,145,144;,
      3;149,148,147;,
      3;152,151,150;,
      3;155,154,153;,
      3;158,157,156;,
      3;161,160,159;,
      3;164,163,162;,
      3;167,166,165;,
      3;170,169,168;,
      3;173,172,171;,
      3;176,175,174;,
      3;179,178,177;,
      3;182,181,180;,
      3;185,184,183;,
      3;188,187,186;,
      3;191,190,189;,
      3;194,193,192;,
      3;197,196,195;,
      7;204,203,202,201,200,199,198;,
      4;208,207,206,205;,
      4;212,211,210,209;,
      4;216,215,214,213;,
      4;220,219,218,217;,
      4;224,223,222,221;,
      4;228,227,226,225;,
      4;232,231,230,229;,
      4;236,235,234,233;,
      4;240,239,238,237;,
      4;244,243,242,241;,
      4;248,247,246,245;,
      4;252,251,250,249;,
      4;256,255,254,253;,
      4;260,259,258,257;,
      4;264,263,262,261;,
      4;268,267,266,265;,
      4;272,271,270,269;,
      4;276,275,274,273;,
      4;280,279,278,277;,
      4;284,283,282,281;,
      4;288,287,286,285;,
      4;292,291,290,289;,
      4;296,295,294,293;,
      4;300,299,298,297;,
      4;304,303,302,301;,
      4;308,307,306,305;,
      4;312,311,310,309;,
      4;316,315,314,313;,
      4;320,319,318,317;,
      4;324,323,322,321;,
      4;328,327,326,325;,
      4;332,331,330,329;,
      4;336,335,334,333;,
      4;340,339,338,337;,
      4;344,343,342,341;,
      4;348,347,346,345;,
      4;352,351,350,349;,
      4;356,355,354,353;,
      4;360,359,358,357;,
      4;364,363,362,361;,
      4;368,367,366,365;,
      4;372,371,370,369;,
      4;376,375,374,373;,
      4;380,379,378,377;,
      4;384,383,382,381;,
      4;388,387,386,385;,
      4;392,391,390,389;,
      4;396,395,394,393;,
      4;400,399,398,397;,
      4;404,403,402,401;,
      4;408,407,406,405;,
      4;412,411,410,409;,
      4;416,415,414,413;,
      4;420,419,418,417;,
      4;424,423,422,421;,
      4;428,427,426,425;,
      4;432,431,430,429;,
      4;436,435,434,433;,
      4;440,439,438,437;,
      4;444,443,442,441;,
      4;448,447,446,445;,
      4;452,451,450,449;,
      4;456,455,454,453;,
      4;460,459,458,457;,
      4;464,463,462,461;,
      4;468,467,466,465;,
      4;472,471,470,469;,
      4;476,475,474,473;,
      4;480,479,478,477;,
      4;484,483,482,481;,
      4;488,487,486,485;,
      4;492,491,490,489;,
      4;496,495,494,493;,
      4;500,499,498,497;;
      MeshNormals { // _0002 normals
        501;
         0.515061;-0.857112;-0.006195;,
         0.998383;-0.053774;-0.016877;,
         0.999969; 0.002503;-0.003052;,
         0.998383;-0.053774;-0.016877;,
         0.515061;-0.857112;-0.006195;,
         0.684011;-0.729301;-0.013886;,
        -0.506607;-0.862148;-0.000427;,
         0.684011;-0.729301;-0.013886;,
         0.515061;-0.857112;-0.006195;,
         0.684011;-0.729301;-0.013886;,
        -0.506607;-0.862148;-0.000427;,
        -0.318125;-0.948027; 0.001495;,
        -0.999969; 0.000275; 0.001495;,
        -0.318125;-0.948027; 0.001495;,
        -0.506607;-0.862148;-0.000427;,
        -0.318125;-0.948027; 0.001495;,
        -0.999969; 0.000275; 0.001495;,
        -0.999878;-0.001221; 0.013672;,
        -0.506638; 0.862117; 0.002441;,
        -0.999878;-0.001221; 0.013672;,
        -0.999969; 0.000275; 0.001495;,
        -0.999878;-0.001221; 0.013672;,
        -0.506638; 0.862117; 0.002441;,
        -0.334971; 0.942198; 0.001312;,
        -0.000031; 0.999969; 0.003021;,
        -0.334971; 0.942198; 0.001312;,
        -0.506638; 0.862117; 0.002441;,
        -0.334971; 0.942198; 0.001312;,
        -0.000031; 0.999969; 0.003021;,
        -0.002319; 0.999969;-0.003632;,
         0.999969; 0.002503;-0.003052;,
         0.865139; 0.501328;-0.013428;,
         0.878750; 0.477218; 0.003327;,
         0.865139; 0.501328;-0.013428;,
         0.999969; 0.002503;-0.003052;,
         0.998383;-0.053774;-0.016877;,
         0.498367;-0.866909; 0.006317;,
         0.999969; 0.002503;-0.003052;,
         0.999908;-0.001617; 0.010926;,
         0.999969; 0.002503;-0.003052;,
         0.498367;-0.866909; 0.006317;,
         0.515061;-0.857112;-0.006195;,
        -0.500198;-0.865902; 0.000183;,
         0.515061;-0.857112;-0.006195;,
         0.498367;-0.866909; 0.006317;,
         0.515061;-0.857112;-0.006195;,
        -0.500198;-0.865902; 0.000183;,
        -0.506607;-0.862148;-0.000427;,
        -0.999969;-0.000183;-0.000763;,
        -0.506607;-0.862148;-0.000427;,
        -0.500198;-0.865902; 0.000183;,
        -0.506607;-0.862148;-0.000427;,
        -0.999969;-0.000183;-0.000763;,
        -0.999969; 0.000275; 0.001495;,
        -0.501602; 0.865047; 0.007691;,
        -0.999969; 0.000275; 0.001495;,
        -0.999969;-0.000183;-0.000763;,
        -0.999969; 0.000275; 0.001495;,
        -0.501602; 0.865047; 0.007691;,
        -0.506638; 0.862117; 0.002441;,
         0.000000; 0.999908; 0.011689;,
        -0.506638; 0.862117; 0.002441;,
        -0.501602; 0.865047; 0.007691;,
        -0.506638; 0.862117; 0.002441;,
         0.000000; 0.999908; 0.011689;,
        -0.000031; 0.999969; 0.003021;,
         0.999908;-0.001617; 0.010926;,
         0.878750; 0.477218; 0.003327;,
         0.865474; 0.500778; 0.011414;,
         0.878750; 0.477218; 0.003327;,
         0.999908;-0.001617; 0.010926;,
         0.999969; 0.002503;-0.003052;,
         0.480667;-0.876888;-0.001221;,
         0.999908;-0.001617; 0.010926;,
         0.999969;-0.000671;-0.002075;,
         0.999908;-0.001617; 0.010926;,
         0.480667;-0.876888;-0.001221;,
         0.498367;-0.866909; 0.006317;,
        -0.483627;-0.875240; 0.005890;,
         0.498367;-0.866909; 0.006317;,
         0.480667;-0.876888;-0.001221;,
         0.498367;-0.866909; 0.006317;,
        -0.483627;-0.875240; 0.005890;,
        -0.500198;-0.865902; 0.000183;,
        -0.999969;-0.001648; 0.007080;,
        -0.500198;-0.865902; 0.000183;,
        -0.483627;-0.875240; 0.005890;,
        -0.500198;-0.865902; 0.000183;,
        -0.999969;-0.001648; 0.007080;,
        -0.999969;-0.000183;-0.000763;,
        -0.483627; 0.875240; 0.000610;,
        -0.999969;-0.000183;-0.000763;,
        -0.999969;-0.001648; 0.007080;,
        -0.999969;-0.000183;-0.000763;,
        -0.483627; 0.875240; 0.000610;,
        -0.501602; 0.865047; 0.007691;,
         0.000000; 0.999969;-0.001465;,
        -0.501602; 0.865047; 0.007691;,
        -0.483627; 0.875240; 0.000610;,
        -0.501602; 0.865047; 0.007691;,
         0.000000; 0.999969;-0.001465;,
         0.000000; 0.999908; 0.011689;,
         0.999969;-0.000671;-0.002075;,
         0.865474; 0.500778; 0.011414;,
         0.843745; 0.536729;-0.000458;,
         0.865474; 0.500778; 0.011414;,
         0.999969;-0.000671;-0.002075;,
         0.999908;-0.001617; 0.010926;,
         0.552843;-0.833247;-0.004181;,
         0.999969;-0.000671;-0.002075;,
         0.999481; 0.031983;-0.002899;,
         0.999969;-0.000671;-0.002075;,
         0.552843;-0.833247;-0.004181;,
         0.480667;-0.876888;-0.001221;,
        -0.550493;-0.834803;-0.003510;,
         0.480667;-0.876888;-0.001221;,
         0.552843;-0.833247;-0.004181;,
         0.480667;-0.876888;-0.001221;,
        -0.550493;-0.834803;-0.003510;,
        -0.483627;-0.875240; 0.005890;,
        -0.999542; 0.029420;-0.001282;,
        -0.483627;-0.875240; 0.005890;,
        -0.550493;-0.834803;-0.003510;,
        -0.483627;-0.875240; 0.005890;,
        -0.999542; 0.029420;-0.001282;,
        -0.999969;-0.001648; 0.007080;,
        -0.522080; 0.852840;-0.008271;,
        -0.999969;-0.001648; 0.007080;,
        -0.999542; 0.029420;-0.001282;,
        -0.999969;-0.001648; 0.007080;,
        -0.522080; 0.852840;-0.008271;,
        -0.483627; 0.875240; 0.000610;,
         0.000000; 0.999847;-0.016358;,
        -0.483627; 0.875240; 0.000610;,
        -0.522080; 0.852840;-0.008271;,
        -0.483627; 0.875240; 0.000610;,
         0.000000; 0.999847;-0.016358;,
         0.000000; 0.999969;-0.001465;,
         0.999481; 0.031983;-0.002899;,
         0.843745; 0.536729;-0.000458;,
         0.895749; 0.444472;-0.006684;,
         0.843745; 0.536729;-0.000458;,
         0.999481; 0.031983;-0.002899;,
         0.999969;-0.000671;-0.002075;,
         0.468429;-0.694357; 0.546251;,
         0.999481; 0.031983;-0.002899;,
         0.880886; 0.033601; 0.472091;,
         0.999481; 0.031983;-0.002899;,
         0.468429;-0.694357; 0.546251;,
         0.552843;-0.833247;-0.004181;,
        -0.334788;-0.631794; 0.699088;,
         0.552843;-0.833247;-0.004181;,
         0.468429;-0.694357; 0.546251;,
         0.552843;-0.833247;-0.004181;,
        -0.334788;-0.631794; 0.699088;,
        -0.550493;-0.834803;-0.003510;,
        -0.674215;-0.082064; 0.733940;,
        -0.550493;-0.834803;-0.003510;,
        -0.334788;-0.631794; 0.699088;,
        -0.550493;-0.834803;-0.003510;,
        -0.674215;-0.082064; 0.733940;,
        -0.999542; 0.029420;-0.001282;,
        -0.424024; 0.776055; 0.466781;,
        -0.999542; 0.029420;-0.001282;,
        -0.674215;-0.082064; 0.733940;,
        -0.999542; 0.029420;-0.001282;,
        -0.424024; 0.776055; 0.466781;,
        -0.522080; 0.852840;-0.008271;,
         0.163030; 0.627003; 0.761742;,
        -0.522080; 0.852840;-0.008271;,
        -0.424024; 0.776055; 0.466781;,
        -0.522080; 0.852840;-0.008271;,
         0.163030; 0.627003; 0.761742;,
         0.000000; 0.999969;-0.005585;,
         0.880886; 0.033601; 0.472091;,
         0.895749; 0.444472;-0.006684;,
         0.646901; 0.226325; 0.728172;,
         0.895749; 0.444472;-0.006684;,
         0.880886; 0.033601; 0.472091;,
         0.999481; 0.031983;-0.002899;,
        -0.076327; 0.853633;-0.515213;,
         0.295175; 0.391583;-0.871487;,
        -0.275491; 0.860408;-0.428694;,
        -0.896603; 0.320353;-0.305643;,
        -0.806665;-0.413373;-0.422315;,
        -0.946745; 0.000214;-0.321940;,
        -0.946745; 0.000214;-0.321940;,
        -0.806665;-0.413373;-0.422315;,
        -0.791101;-0.494583;-0.359844;,
        -0.791101;-0.494583;-0.359844;,
        -0.806665;-0.413373;-0.422315;,
        -0.392682;-0.815271;-0.425550;,
         0.397778;-0.592364;-0.700583;,
         0.295175; 0.391583;-0.871487;,
         0.486770; 0.119510;-0.865291;,
         0.486770; 0.119510;-0.865291;,
         0.295175; 0.391583;-0.871487;,
        -0.076327; 0.853633;-0.515213;,
        -0.674215;-0.082064; 0.733940;,
        -0.334788;-0.631794; 0.699088;,
         0.468429;-0.694357; 0.546251;,
         0.880886; 0.033601; 0.472091;,
         0.646901; 0.226325; 0.728172;,
         0.163030; 0.627003; 0.761742;,
        -0.424024; 0.776055; 0.466781;,
         0.731254;-0.612812; 0.299478;,
        -0.731254;-0.612812; 0.299478;,
        -0.863979;-0.204718; 0.459975;,
         0.825861;-0.409314; 0.387768;,
        -0.759362;-0.579852;-0.295114;,
        -0.672048;-0.605274; 0.426527;,
        -0.645497; 0.687582; 0.332499;,
        -0.691733; 0.712455;-0.117679;,
         0.540941; 0.803430; 0.248634;,
         0.542405; 0.803339;-0.245735;,
         0.793085;-0.150151;-0.590289;,
         0.793085;-0.150151; 0.590289;,
         0.759362;-0.579852;-0.295114;,
         0.672048;-0.605274; 0.426527;,
         0.731254;-0.612812; 0.299478;,
         0.701895;-0.589160;-0.400220;,
        -0.691733; 0.712455;-0.117679;,
         0.691733; 0.712455;-0.117679;,
         0.572131; 0.501083;-0.649251;,
        -0.572131; 0.501083;-0.649251;,
        -0.672048;-0.605274; 0.426527;,
        -0.731254;-0.612812; 0.299478;,
         0.731254;-0.612812; 0.299478;,
         0.672048;-0.605274; 0.426527;,
        -0.645497; 0.687582; 0.332499;,
        -0.672048;-0.605274; 0.426527;,
        -0.701865;-0.531358; 0.474349;,
        -0.701865; 0.531358; 0.474349;,
        -0.701895;-0.589160;-0.400220;,
        -0.759362;-0.579852;-0.295114;,
         0.759362;-0.579852;-0.295114;,
         0.701895;-0.589160;-0.400220;,
         0.691733; 0.712455;-0.117679;,
         0.645497; 0.687582; 0.332499;,
         0.672048;-0.605274; 0.426527;,
         0.759362;-0.579852;-0.295114;,
        -0.701895;-0.589160;-0.400220;,
        -0.731254;-0.612812; 0.299478;,
        -0.672048;-0.605274; 0.426527;,
        -0.759362;-0.579852;-0.295114;,
         0.701865;-0.531358; 0.474349;,
         0.701865; 0.531358; 0.474349;,
         0.721915; 0.656636; 0.218238;,
         0.721915;-0.656636; 0.218238;,
        -0.672048;-0.605274; 0.426527;,
         0.672048;-0.605274; 0.426527;,
         0.701865;-0.531358; 0.474349;,
        -0.701865;-0.531358; 0.474349;,
         0.645497; 0.687582; 0.332499;,
        -0.645497; 0.687582; 0.332499;,
        -0.701865; 0.531358; 0.474349;,
         0.701865; 0.531358; 0.474349;,
         0.672048;-0.605274; 0.426527;,
         0.645497; 0.687582; 0.332499;,
         0.701865; 0.531358; 0.474349;,
         0.701865;-0.531358; 0.474349;,
        -0.721915;-0.656636; 0.218238;,
         0.721915;-0.656636; 0.218238;,
         0.689566;-0.701071; 0.181524;,
        -0.689566;-0.701071; 0.181524;,
        -0.701865; 0.531358; 0.474349;,
        -0.701865;-0.531358; 0.474349;,
        -0.721915;-0.656636; 0.218238;,
        -0.721915; 0.656636; 0.218238;,
        -0.701865;-0.531358; 0.474349;,
         0.701865;-0.531358; 0.474349;,
         0.721915;-0.656636; 0.218238;,
        -0.721915;-0.656636; 0.218238;,
         0.701865; 0.531358; 0.474349;,
        -0.701865; 0.531358; 0.474349;,
        -0.721915; 0.656636; 0.218238;,
         0.721915; 0.656636; 0.218238;,
         0.689566;-0.701071; 0.181524;,
         0.689566; 0.701071; 0.181524;,
         0.570513; 0.480850; 0.665761;,
         0.570513;-0.480850; 0.665761;,
         0.721915; 0.656636; 0.218238;,
        -0.721915; 0.656636; 0.218238;,
        -0.689566; 0.701071; 0.181524;,
         0.689566; 0.701071; 0.181524;,
         0.721915;-0.656636; 0.218238;,
         0.721915; 0.656636; 0.218238;,
         0.689566; 0.701071; 0.181524;,
         0.689566;-0.701071; 0.181524;,
        -0.721915; 0.656636; 0.218238;,
        -0.721915;-0.656636; 0.218238;,
        -0.689566;-0.701071; 0.181524;,
        -0.689566; 0.701071; 0.181524;,
         0.825861;-0.409314; 0.387768;,
        -0.863979;-0.204718; 0.459975;,
        -0.847560; 0.259865; 0.462691;,
         0.824335; 0.107669; 0.555712;,
        -0.701895;-0.589160;-0.400220;,
         0.701895;-0.589160;-0.400220;,
         0.828028;-0.403577;-0.389172;,
        -0.866573;-0.196600;-0.458663;,
        -0.731254;-0.612812; 0.299478;,
        -0.701895;-0.589160;-0.400220;,
        -0.866573;-0.196600;-0.458663;,
        -0.863979;-0.204718; 0.459975;,
         0.701895;-0.589160;-0.400220;,
         0.731254;-0.612812; 0.299478;,
         0.825861;-0.409314; 0.387768;,
         0.828028;-0.403577;-0.389172;,
        -0.847560; 0.259865; 0.462691;,
        -0.846767; 0.268929;-0.458937;,
        -0.677908; 0.598834;-0.426374;,
        -0.676199; 0.598651; 0.429334;,
        -0.866573;-0.196600;-0.458663;,
         0.828028;-0.403577;-0.389172;,
         0.824763; 0.119846;-0.552599;,
        -0.846767; 0.268929;-0.458937;,
        -0.863979;-0.204718; 0.459975;,
        -0.866573;-0.196600;-0.458663;,
        -0.846767; 0.268929;-0.458937;,
        -0.847560; 0.259865; 0.462691;,
         0.828028;-0.403577;-0.389172;,
         0.825861;-0.409314; 0.387768;,
         0.824335; 0.107669; 0.555712;,
         0.824763; 0.119846;-0.552599;,
         0.642689; 0.633320; 0.431043;,
        -0.676199; 0.598651; 0.429334;,
        -0.673299; 0.499435; 0.545152;,
         0.692862; 0.448592; 0.564501;,
         0.824763; 0.119846;-0.552599;,
         0.824335; 0.107669; 0.555712;,
         0.642689; 0.633320; 0.431043;,
         0.636067; 0.647603;-0.419538;,
         0.824335; 0.107669; 0.555712;,
        -0.847560; 0.259865; 0.462691;,
        -0.676199; 0.598651; 0.429334;,
         0.642689; 0.633320; 0.431043;,
        -0.846767; 0.268929;-0.458937;,
         0.824763; 0.119846;-0.552599;,
         0.636067; 0.647603;-0.419538;,
        -0.677908; 0.598834;-0.426374;,
        -0.662770; 0.506851;-0.551164;,
         0.725028; 0.440199;-0.529618;,
         0.542344;-0.246986;-0.803003;,
        -0.575274;-0.250557;-0.778619;,
        -0.677908; 0.598834;-0.426374;,
         0.636067; 0.647603;-0.419538;,
         0.725028; 0.440199;-0.529618;,
        -0.662770; 0.506851;-0.551164;,
        -0.676199; 0.598651; 0.429334;,
        -0.677908; 0.598834;-0.426374;,
        -0.662770; 0.506851;-0.551164;,
        -0.673299; 0.499435; 0.545152;,
         0.636067; 0.647603;-0.419538;,
         0.642689; 0.633320; 0.431043;,
         0.692862; 0.448592; 0.564501;,
         0.725028; 0.440199;-0.529618;,
        -0.570910;-0.244881; 0.783624;,
        -0.575274;-0.250557;-0.778619;,
        -0.720328;-0.631092;-0.287790;,
        -0.720420;-0.633320; 0.282571;,
        -0.673299; 0.499435; 0.545152;,
        -0.662770; 0.506851;-0.551164;,
        -0.575274;-0.250557;-0.778619;,
        -0.570910;-0.244881; 0.783624;,
         0.725028; 0.440199;-0.529618;,
         0.692862; 0.448592; 0.564501;,
         0.550951;-0.288736; 0.782983;,
         0.542344;-0.246986;-0.803003;,
         0.692862; 0.448592; 0.564501;,
        -0.673299; 0.499435; 0.545152;,
        -0.570910;-0.244881; 0.783624;,
         0.550951;-0.288736; 0.782983;,
         0.748222;-0.595935; 0.291543;,
        -0.720420;-0.633320; 0.282571;,
        -0.571673;-0.795465; 0.200995;,
         0.571673;-0.795465; 0.200995;,
         0.542344;-0.246986;-0.803003;,
         0.550951;-0.288736; 0.782983;,
         0.748222;-0.595935; 0.291543;,
         0.748100;-0.593646;-0.296457;,
         0.550951;-0.288736; 0.782983;,
        -0.570910;-0.244881; 0.783624;,
        -0.720420;-0.633320; 0.282571;,
         0.748222;-0.595935; 0.291543;,
        -0.575274;-0.250557;-0.778619;,
         0.542344;-0.246986;-0.803003;,
         0.748100;-0.593646;-0.296457;,
        -0.720328;-0.631092;-0.287790;,
         0.571673;-0.793878;-0.207068;,
         0.571673;-0.795465; 0.200995;,
        -0.571673;-0.795465; 0.200995;,
        -0.571673;-0.793878;-0.207068;,
        -0.720328;-0.631092;-0.287790;,
         0.748100;-0.593646;-0.296457;,
         0.571673;-0.793878;-0.207068;,
        -0.571673;-0.793878;-0.207068;,
        -0.720420;-0.633320; 0.282571;,
        -0.720328;-0.631092;-0.287790;,
        -0.571673;-0.793878;-0.207068;,
        -0.571673;-0.795465; 0.200995;,
         0.748100;-0.593646;-0.296457;,
         0.748222;-0.595935; 0.291543;,
         0.571673;-0.795465; 0.200995;,
         0.571673;-0.793878;-0.207068;,
        -0.572131;-0.501083;-0.649251;,
        -0.572131; 0.501083;-0.649251;,
         0.572131; 0.501083;-0.649251;,
         0.572131;-0.501083;-0.649251;,
        -0.759362;-0.579852;-0.295114;,
        -0.691733; 0.712455;-0.117679;,
        -0.572131; 0.501083;-0.649251;,
        -0.572131;-0.501083;-0.649251;,
         0.691733; 0.712455;-0.117679;,
         0.759362;-0.579852;-0.295114;,
         0.572131;-0.501083;-0.649251;,
         0.572131; 0.501083;-0.649251;,
         0.759362;-0.579852;-0.295114;,
        -0.759362;-0.579852;-0.295114;,
        -0.572131;-0.501083;-0.649251;,
         0.572131;-0.501083;-0.649251;,
        -0.540941; 0.803430; 0.248634;,
        -0.542405; 0.803339;-0.245735;,
        -0.691733; 0.712455;-0.117679;,
        -0.645497; 0.687582; 0.332499;,
        -0.542405; 0.803339;-0.245735;,
         0.542405; 0.803339;-0.245735;,
         0.691733; 0.712455;-0.117679;,
        -0.691733; 0.712455;-0.117679;,
         0.540941; 0.803430; 0.248634;,
        -0.540941; 0.803430; 0.248634;,
        -0.645497; 0.687582; 0.332499;,
         0.645497; 0.687582; 0.332499;,
         0.542405; 0.803339;-0.245735;,
         0.540941; 0.803430; 0.248634;,
         0.645497; 0.687582; 0.332499;,
         0.691733; 0.712455;-0.117679;,
        -0.793085;-0.150151; 0.590289;,
         0.793085;-0.150151; 0.590289;,
         0.653218;-0.193365; 0.732017;,
        -0.653218;-0.193365; 0.732017;,
         0.542405; 0.803339;-0.245735;,
        -0.542405; 0.803339;-0.245735;,
        -0.793085;-0.150151;-0.590289;,
         0.793085;-0.150151;-0.590289;,
        -0.540941; 0.803430; 0.248634;,
         0.540941; 0.803430; 0.248634;,
         0.793085;-0.150151; 0.590289;,
        -0.793085;-0.150151; 0.590289;,
        -0.542405; 0.803339;-0.245735;,
        -0.540941; 0.803430; 0.248634;,
        -0.793085;-0.150151; 0.590289;,
        -0.793085;-0.150151;-0.590289;,
        -0.653218;-0.193365; 0.732017;,
         0.653218;-0.193365; 0.732017;,
         0.564104; 0.644917; 0.515549;,
        -0.564104; 0.644917; 0.515549;,
        -0.793085;-0.150151;-0.590289;,
        -0.793085;-0.150151; 0.590289;,
        -0.653218;-0.193365; 0.732017;,
        -0.653218;-0.193365;-0.732017;,
         0.793085;-0.150151; 0.590289;,
         0.793085;-0.150151;-0.590289;,
         0.653218;-0.193365;-0.732017;,
         0.653218;-0.193365; 0.732017;,
         0.793085;-0.150151;-0.590289;,
        -0.793085;-0.150151;-0.590289;,
        -0.653218;-0.193365;-0.732017;,
         0.653218;-0.193365;-0.732017;,
        -0.564104; 0.644917;-0.515549;,
        -0.564104; 0.644917; 0.515549;,
         0.564104; 0.644917; 0.515549;,
         0.564104; 0.644917;-0.515549;,
        -0.653218;-0.193365;-0.732017;,
        -0.653218;-0.193365; 0.732017;,
        -0.564104; 0.644917; 0.515549;,
        -0.564104; 0.644917;-0.515549;,
         0.653218;-0.193365; 0.732017;,
         0.653218;-0.193365;-0.732017;,
         0.564104; 0.644917;-0.515549;,
         0.564104; 0.644917; 0.515549;,
         0.653218;-0.193365;-0.732017;,
        -0.653218;-0.193365;-0.732017;,
        -0.564104; 0.644917;-0.515549;,
         0.564104; 0.644917;-0.515549;,
        -0.570513; 0.480850; 0.665761;,
        -0.570513;-0.480850; 0.665761;,
         0.570513;-0.480850; 0.665761;,
         0.570513; 0.480850; 0.665761;,
        -0.689566; 0.701071; 0.181524;,
        -0.689566;-0.701071; 0.181524;,
        -0.570513;-0.480850; 0.665761;,
        -0.570513; 0.480850; 0.665761;,
        -0.689566;-0.701071; 0.181524;,
         0.689566;-0.701071; 0.181524;,
         0.570513;-0.480850; 0.665761;,
        -0.570513;-0.480850; 0.665761;,
         0.689566; 0.701071; 0.181524;,
        -0.689566; 0.701071; 0.181524;,
        -0.570513; 0.480850; 0.665761;,
         0.570513; 0.480850; 0.665761;;
        141;
        3;2,1,0;,
        3;5,4,3;,
        3;8,7,6;,
        3;11,10,9;,
        3;14,13,12;,
        3;17,16,15;,
        3;20,19,18;,
        3;23,22,21;,
        3;26,25,24;,
        3;29,28,27;,
        3;32,31,30;,
        3;35,34,33;,
        3;38,37,36;,
        3;41,40,39;,
        3;44,43,42;,
        3;47,46,45;,
        3;50,49,48;,
        3;53,52,51;,
        3;56,55,54;,
        3;59,58,57;,
        3;62,61,60;,
        3;65,64,63;,
        3;68,67,66;,
        3;71,70,69;,
        3;74,73,72;,
        3;77,76,75;,
        3;80,79,78;,
        3;83,82,81;,
        3;86,85,84;,
        3;89,88,87;,
        3;92,91,90;,
        3;95,94,93;,
        3;98,97,96;,
        3;101,100,99;,
        3;104,103,102;,
        3;107,106,105;,
        3;110,109,108;,
        3;113,112,111;,
        3;116,115,114;,
        3;119,118,117;,
        3;122,121,120;,
        3;125,124,123;,
        3;128,127,126;,
        3;131,130,129;,
        3;134,133,132;,
        3;137,136,135;,
        3;140,139,138;,
        3;143,142,141;,
        3;146,145,144;,
        3;149,148,147;,
        3;152,151,150;,
        3;155,154,153;,
        3;158,157,156;,
        3;161,160,159;,
        3;164,163,162;,
        3;167,166,165;,
        3;170,169,168;,
        3;173,172,171;,
        3;176,175,174;,
        3;179,178,177;,
        3;182,181,180;,
        3;185,184,183;,
        3;188,187,186;,
        3;191,190,189;,
        3;194,193,192;,
        3;197,196,195;,
        7;204,203,202,201,200,199,198;,
        4;208,207,206,205;,
        4;212,211,210,209;,
        4;216,215,214,213;,
        4;220,219,218,217;,
        4;224,223,222,221;,
        4;228,227,226,225;,
        4;232,231,230,229;,
        4;236,235,234,233;,
        4;240,239,238,237;,
        4;244,243,242,241;,
        4;248,247,246,245;,
        4;252,251,250,249;,
        4;256,255,254,253;,
        4;260,259,258,257;,
        4;264,263,262,261;,
        4;268,267,266,265;,
        4;272,271,270,269;,
        4;276,275,274,273;,
        4;280,279,278,277;,
        4;284,283,282,281;,
        4;288,287,286,285;,
        4;292,291,290,289;,
        4;296,295,294,293;,
        4;300,299,298,297;,
        4;304,303,302,301;,
        4;308,307,306,305;,
        4;312,311,310,309;,
        4;316,315,314,313;,
        4;320,319,318,317;,
        4;324,323,322,321;,
        4;328,327,326,325;,
        4;332,331,330,329;,
        4;336,335,334,333;,
        4;340,339,338,337;,
        4;344,343,342,341;,
        4;348,347,346,345;,
        4;352,351,350,349;,
        4;356,355,354,353;,
        4;360,359,358,357;,
        4;364,363,362,361;,
        4;368,367,366,365;,
        4;372,371,370,369;,
        4;376,375,374,373;,
        4;380,379,378,377;,
        4;384,383,382,381;,
        4;388,387,386,385;,
        4;392,391,390,389;,
        4;396,395,394,393;,
        4;400,399,398,397;,
        4;404,403,402,401;,
        4;408,407,406,405;,
        4;412,411,410,409;,
        4;416,415,414,413;,
        4;420,419,418,417;,
        4;424,423,422,421;,
        4;428,427,426,425;,
        4;432,431,430,429;,
        4;436,435,434,433;,
        4;440,439,438,437;,
        4;444,443,442,441;,
        4;448,447,446,445;,
        4;452,451,450,449;,
        4;456,455,454,453;,
        4;460,459,458,457;,
        4;464,463,462,461;,
        4;468,467,466,465;,
        4;472,471,470,469;,
        4;476,475,474,473;,
        4;480,479,478,477;,
        4;484,483,482,481;,
        4;488,487,486,485;,
        4;492,491,490,489;,
        4;496,495,494,493;,
        4;500,499,498,497;;
      } // End of _0002 normals
      MeshTextureCoords { // _0002 UV coordinates
        501;
         0.791747; 0.832067;,
         0.817689; 1.000000;,
         0.817515; 0.825176;,
         0.817689; 1.000000;,
         0.791747; 0.832067;,
         0.793333; 0.994402;,
         0.928377; 0.168509;,
         0.906866; 0.006330;,
         0.900808; 0.168502;,
         0.906866; 0.006330;,
         0.928377; 0.168509;,
         0.933937; 0.017429;,
         0.874524; 0.841743;,
         0.899608; 0.999936;,
         0.900182; 0.848685;,
         0.899608; 0.999936;,
         0.874524; 0.841743;,
         0.875391; 0.993399;,
         0.849488; 0.834875;,
         0.875391; 0.993399;,
         0.874524; 0.841743;,
         0.875391; 0.993399;,
         0.849488; 0.834875;,
         0.851872; 1.000000;,
         0.933937; 0.827132;,
         0.967122; 0.992261;,
         0.961503; 0.827125;,
         0.967122; 0.992261;,
         0.933937; 0.827132;,
         0.940051; 1.000000;,
         0.817515; 0.825176;,
         0.841044; 0.991003;,
         0.842300; 0.818159;,
         0.841044; 0.991003;,
         0.817515; 0.825176;,
         0.817689; 1.000000;,
         0.788610; 0.583546;,
         0.817515; 0.825176;,
         0.812962; 0.583593;,
         0.817515; 0.825176;,
         0.788610; 0.583546;,
         0.791747; 0.832067;,
         0.933937; 0.416714;,
         0.900808; 0.168502;,
         0.906368; 0.416707;,
         0.900808; 0.168502;,
         0.933937; 0.416714;,
         0.928377; 0.168509;,
         0.876627; 0.600157;,
         0.900182; 0.848685;,
         0.900808; 0.600162;,
         0.900182; 0.848685;,
         0.876627; 0.600157;,
         0.874524; 0.841743;,
         0.853072; 0.600226;,
         0.874524; 0.841743;,
         0.876627; 0.600157;,
         0.874524; 0.841743;,
         0.853072; 0.600226;,
         0.849488; 0.834875;,
         0.939556; 0.592488;,
         0.961503; 0.827125;,
         0.967122; 0.592482;,
         0.961503; 0.827125;,
         0.939556; 0.592488;,
         0.933937; 0.827132;,
         0.812962; 0.583593;,
         0.842300; 0.818159;,
         0.836329; 0.583517;,
         0.842300; 0.818159;,
         0.812962; 0.583593;,
         0.817515; 0.825176;,
         0.792205; 0.418763;,
         0.812962; 0.583593;,
         0.811988; 0.418807;,
         0.812962; 0.583593;,
         0.792205; 0.418763;,
         0.788610; 0.583546;,
         0.932632; 0.581405;,
         0.906368; 0.416707;,
         0.907921; 0.581399;,
         0.906368; 0.416707;,
         0.932632; 0.581405;,
         0.933937; 0.416714;,
         0.876107; 0.435386;,
         0.900808; 0.600162;,
         0.895736; 0.435394;,
         0.900808; 0.600162;,
         0.876107; 0.435386;,
         0.876627; 0.600157;,
         0.857036; 0.435445;,
         0.876627; 0.600157;,
         0.876107; 0.435386;,
         0.876627; 0.600157;,
         0.857036; 0.435445;,
         0.853072; 0.600226;,
         0.941156; 0.427696;,
         0.967122; 0.592482;,
         0.965864; 0.427690;,
         0.967122; 0.592482;,
         0.941156; 0.427696;,
         0.939556; 0.592488;,
         0.811988; 0.418807;,
         0.836329; 0.583517;,
         0.830890; 0.418740;,
         0.836329; 0.583517;,
         0.811988; 0.418807;,
         0.812962; 0.583593;,
         0.785949; 0.133932;,
         0.811988; 0.418807;,
         0.816095; 0.135596;,
         0.811988; 0.418807;,
         0.785949; 0.133932;,
         0.792205; 0.418763;,
         0.926834; 0.865867;,
         0.907921; 0.581399;,
         0.901568; 0.865861;,
         0.907921; 0.581399;,
         0.926834; 0.865867;,
         0.932632; 0.581405;,
         0.869869; 0.152161;,
         0.895736; 0.435394;,
         0.899847; 0.150530;,
         0.895736; 0.435394;,
         0.869869; 0.152161;,
         0.876107; 0.435386;,
         0.844947; 0.153855;,
         0.876107; 0.435386;,
         0.869869; 0.152161;,
         0.876107; 0.435386;,
         0.844947; 0.153855;,
         0.857036; 0.435445;,
         0.934624; 0.146111;,
         0.965864; 0.427690;,
         0.959887; 0.146105;,
         0.965864; 0.427690;,
         0.934624; 0.146111;,
         0.941156; 0.427696;,
         0.816095; 0.135596;,
         0.830890; 0.418740;,
         0.840856; 0.137150;,
         0.830890; 0.418740;,
         0.816095; 0.135596;,
         0.811988; 0.418807;,
         0.783834; 0.003561;,
         0.816095; 0.135596;,
         0.815985; 0.006303;,
         0.816095; 0.135596;,
         0.783834; 0.003561;,
         0.785949; 0.133932;,
         0.922037; 1.000000;,
         0.901568; 0.865861;,
         0.904104; 0.996058;,
         0.901568; 0.865861;,
         0.922037; 1.000000;,
         0.926834; 0.865867;,
         0.868734; 0.015823;,
         0.899847; 0.150530;,
         0.900808; 0.016235;,
         0.899847; 0.150530;,
         0.868734; 0.015823;,
         0.869869; 0.152161;,
         0.842301; 0.021876;,
         0.869869; 0.152161;,
         0.868734; 0.015823;,
         0.869869; 0.152161;,
         0.842301; 0.021876;,
         0.844947; 0.153855;,
         0.545249; 0.715467;,
         0.519985; 0.578287;,
         0.516415; 0.710251;,
         0.519985; 0.578287;,
         0.545249; 0.715467;,
         0.545249; 0.578316;,
         0.815985; 0.006303;,
         0.840856; 0.137150;,
         0.842301; 0.000000;,
         0.840856; 0.137150;,
         0.815985; 0.006303;,
         0.816095; 0.135596;,
         0.032851; 0.700527;,
         0.056459; 0.715416;,
         0.056459; 0.690804;,
         0.697987; 0.713698;,
         0.697987; 0.687087;,
         0.670455; 0.715467;,
         0.670455; 0.715467;,
         0.697987; 0.687087;,
         0.654338; 0.705112;,
         0.106514; 0.715416;,
         0.106514; 0.691199;,
         0.084498; 0.702295;,
         0.136205; 0.700820;,
         0.141597; 0.715416;,
         0.153900; 0.700820;,
         0.136205; 0.701415;,
         0.106514; 0.705303;,
         0.136205; 0.715416;,
         0.654338; 0.698437;,
         0.626622; 0.688462;,
         0.610154; 0.692104;,
         0.608460; 0.707643;,
         0.626823; 0.715467;,
         0.626823; 0.715467;,
         0.654338; 0.712199;,
         0.783834; 0.702850;,
         0.750953; 0.702848;,
         0.756180; 0.715465;,
         0.778612; 0.715467;,
         0.638129; 0.781007;,
         0.638129; 0.910576;,
         0.783834; 0.910567;,
         0.783834; 0.780998;,
         0.455752; 0.711536;,
         0.500215; 0.715467;,
         0.497054; 0.707632;,
         0.465363; 0.704830;,
         0.246373; 0.934532;,
         0.246374; 0.804967;,
         0.214881; 0.839826;,
         0.215545; 0.916776;,
         1.000000; 0.934599;,
         0.967122; 0.934597;,
         0.975573; 0.999999;,
         0.992546; 1.000000;,
         0.750953; 0.667391;,
         0.750953; 0.702848;,
         0.783834; 0.702850;,
         0.783834; 0.667393;,
         0.783834; 0.910567;,
         0.638129; 0.910576;,
         0.671338; 0.925871;,
         0.750283; 0.925866;,
         0.718072; 0.633616;,
         0.718072; 0.650736;,
         0.750953; 0.650731;,
         0.750953; 0.633612;,
         0.392023; 0.934508;,
         0.392023; 0.804943;,
         0.246374; 0.804967;,
         0.246373; 0.934532;,
         0.607288; 0.798771;,
         0.606624; 0.875723;,
         0.638129; 0.910576;,
         0.638129; 0.781007;,
         0.279471; 0.789611;,
         0.358386; 0.789598;,
         0.344058; 0.773410;,
         0.293570; 0.773418;,
         0.750953; 0.667391;,
         0.783834; 0.667393;,
         0.776294; 0.651415;,
         0.758479; 0.651414;,
         0.032851; 0.697518;,
         0.000000; 0.697518;,
         0.006423; 0.715416;,
         0.024223; 0.715416;,
         0.246374; 0.804967;,
         0.392023; 0.804943;,
         0.358386; 0.789598;,
         0.279471; 0.789611;,
         0.761688; 0.634967;,
         0.773086; 0.634968;,
         0.769991; 0.588991;,
         0.764802; 0.588990;,
         0.750283; 0.925866;,
         0.671338; 0.925871;,
         0.685485; 0.942037;,
         0.735991; 0.942034;,
         0.758479; 0.651414;,
         0.776294; 0.651415;,
         0.773086; 0.634968;,
         0.761688; 0.634967;,
         0.590647; 0.715467;,
         0.608460; 0.715467;,
         0.605449; 0.699247;,
         0.594053; 0.699247;,
         0.307212; 0.727658;,
         0.330194; 0.727654;,
         0.321843; 0.715416;,
         0.315429; 0.715417;,
         0.594053; 0.699247;,
         0.605449; 0.699247;,
         0.602529; 0.653458;,
         0.597341; 0.653458;,
         0.293570; 0.773418;,
         0.344058; 0.773410;,
         0.330194; 0.727654;,
         0.307212; 0.727658;,
         0.735991; 0.942034;,
         0.685485; 0.942037;,
         0.699172; 0.987774;,
         0.722163; 0.987773;,
         0.189315; 0.704643;,
         0.189315; 0.714601;,
         0.205511; 0.715416;,
         0.205511; 0.707006;,
         0.718072; 0.633616;,
         0.750953; 0.633612;,
         0.745728; 0.621806;,
         0.723295; 0.621809;,
         0.606624; 0.875723;,
         0.607288; 0.798771;,
         0.588593; 0.810952;,
         0.588140; 0.863452;,
         0.215545; 0.916776;,
         0.214881; 0.839826;,
         0.196335; 0.852063;,
         0.196788; 0.904561;,
         0.573491; 0.867180;,
         0.574010; 0.807050;,
         0.563209; 0.797414;,
         0.562524; 0.876714;,
         0.189315; 0.714691;,
         0.189315; 0.704725;,
         0.172844; 0.706998;,
         0.172844; 0.715416;,
         0.588140; 0.863452;,
         0.588593; 0.810952;,
         0.574010; 0.807050;,
         0.573491; 0.867180;,
         0.196788; 0.904561;,
         0.196335; 0.852063;,
         0.181472; 0.848320;,
         0.181991; 0.908448;,
         0.058446; 0.715416;,
         0.066617; 0.715304;,
         0.067524; 0.687053;,
         0.056459; 0.687205;,
         0.181991; 0.908448;,
         0.181472; 0.848320;,
         0.170386; 0.838748;,
         0.171071; 0.918045;,
         0.373079; 0.715416;,
         0.392023; 0.715416;,
         0.387691; 0.705836;,
         0.379510; 0.705836;,
         0.172844; 0.705824;,
         0.153900; 0.705824;,
         0.160333; 0.715416;,
         0.168515; 0.715416;,
         0.713891; 0.692058;,
         0.697987; 0.691955;,
         0.705883; 0.715399;,
         0.716268; 0.715467;,
         0.716268; 0.663018;,
         0.708087; 0.662965;,
         0.697987; 0.691955;,
         0.713891; 0.692058;,
         0.562524; 0.876714;,
         0.563209; 0.797414;,
         0.511920; 0.771280;,
         0.510840; 0.902676;,
         0.171071; 0.918045;,
         0.170386; 0.838748;,
         0.118770; 0.812809;,
         0.120161; 0.944227;,
         0.464803; 0.916453;,
         0.466176; 0.757363;,
         0.416008; 0.817466;,
         0.415675; 0.855998;,
         0.510840; 0.902676;,
         0.511920; 0.771280;,
         0.466176; 0.757363;,
         0.464803; 0.916453;,
         0.120161; 0.944227;,
         0.118770; 0.812809;,
         0.072681; 0.799038;,
         0.074054; 0.958123;,
         0.056459; 0.687205;,
         0.067524; 0.687053;,
         0.067524; 0.664004;,
         0.057153; 0.664147;,
         0.967122; 0.743644;,
         0.978246; 0.743643;,
         0.973440; 0.726526;,
         0.971911; 0.726526;,
         0.074054; 0.958123;,
         0.072681; 0.799038;,
         0.023707; 0.859509;,
         0.024039; 0.898040;,
         0.969730; 0.805028;,
         0.980115; 0.805028;,
         0.978246; 0.743643;,
         0.967122; 0.743644;,
         0.980115; 0.646128;,
         0.969730; 0.646128;,
         0.967122; 0.705158;,
         0.978245; 0.705158;,
         0.971911; 0.721236;,
         0.971911; 0.726526;,
         0.973440; 0.726526;,
         0.973440; 0.721236;,
         0.978245; 0.705158;,
         0.967122; 0.705158;,
         0.971911; 0.721236;,
         0.973440; 0.721236;,
         0.415675; 0.855998;,
         0.416008; 0.817466;,
         0.392068; 0.834032;,
         0.392023; 0.839329;,
         0.024039; 0.898040;,
         0.023707; 0.859509;,
         0.000000; 0.876149;,
         0.000046; 0.881445;,
         0.084498; 0.715416;,
         0.084498; 0.683261;,
         0.067524; 0.683261;,
         0.067524; 0.715416;,
         0.638129; 0.781007;,
         0.783834; 0.780998;,
         0.748410; 0.715467;,
         0.673192; 0.715471;,
         0.392023; 0.934508;,
         0.246373; 0.934532;,
         0.281319; 1.000000;,
         0.356508; 0.999988;,
         0.750953; 0.650731;,
         0.718072; 0.650736;,
         0.726054; 0.715467;,
         0.743028; 0.715464;,
         0.991600; 0.855120;,
         0.991600; 0.875262;,
         1.000000; 0.934599;,
         1.000000; 0.805030;,
         0.991600; 0.875262;,
         0.975327; 0.875261;,
         0.967122; 0.934597;,
         1.000000; 0.934599;,
         0.975327; 0.855119;,
         0.991600; 0.855120;,
         1.000000; 0.805030;,
         0.967122; 0.805028;,
         0.975327; 0.875261;,
         0.975327; 0.855119;,
         0.967122; 0.805028;,
         0.967122; 0.934597;,
         0.560412; 0.646693;,
         0.548850; 0.647043;,
         0.545249; 0.654547;,
         0.567939; 0.653861;,
         0.585080; 0.639275;,
         0.568845; 0.639778;,
         0.572423; 0.647645;,
         0.583994; 0.647287;,
         0.561641; 0.638726;,
         0.545419; 0.639217;,
         0.548850; 0.647043;,
         0.560412; 0.646693;,
         0.393589; 0.711551;,
         0.438060; 0.715467;,
         0.434907; 0.707618;,
         0.403211; 0.704827;,
         0.567939; 0.653861;,
         0.545249; 0.654547;,
         0.564386; 0.715467;,
         0.567939; 0.715359;,
         0.403211; 0.704827;,
         0.434907; 0.707618;,
         0.454224; 0.699920;,
         0.392023; 0.694443;,
         0.465363; 0.704830;,
         0.497054; 0.707632;,
         0.516415; 0.699914;,
         0.454224; 0.694416;,
         0.583994; 0.647287;,
         0.572423; 0.647645;,
         0.567939; 0.654730;,
         0.590647; 0.654027;,
         0.209075; 0.715416;,
         0.209075; 0.711004;,
         0.205511; 0.711004;,
         0.205511; 0.715415;,
         0.392023; 0.694443;,
         0.454224; 0.699920;,
         0.454224; 0.638636;,
         0.444485; 0.637779;,
         0.454224; 0.694416;,
         0.516415; 0.699914;,
         0.516415; 0.638701;,
         0.506677; 0.637840;,
         0.590647; 0.654027;,
         0.567939; 0.654730;,
         0.587091; 0.715467;,
         0.590647; 0.715356;,
         0.210522; 0.715416;,
         0.210522; 0.712637;,
         0.209075; 0.712631;,
         0.209075; 0.715409;,
         0.722163; 0.987773;,
         0.699172; 0.987774;,
         0.707417; 1.000000;,
         0.713833; 1.000000;,
         0.764802; 0.588990;,
         0.769991; 0.588991;,
         0.768121; 0.576603;,
         0.766673; 0.576604;,
         0.597341; 0.653458;,
         0.602529; 0.653458;,
         0.600773; 0.641201;,
         0.599326; 0.641201;;
      } // End of _0002 UV coordinates
      MeshMaterialList { // _0002 material list
        1;
        141;
        0,
        0,
        0,
        0,
        0,
        0,
        0,
        0,
        0,
        0,
        0,
        0,
        0,
        0,
        0,
        0,
        0,
        0,
        0,
        0,
        0,
        0,
        0,
        0,
        0,
        0,
        0,
        0,
        0,
        0,
        0,
        0,
        0,
        0,
        0,
        0,
        0,
        0,
        0,
        0,
        0,
        0,
        0,
        0,
        0,
        0,
        0,
        0,
        0,
        0,
        0,
        0,
        0,
        0,
        0,
        0,
        0,
        0,
        0,
        0,
        0,
        0,
        0,
        0,
        0,
        0,
        0,
        0,
        0,
        0,
        0,
        0,
        0,
        0,
        0,
        0,
        0,
        0,
        0,
        0,
        0,
        0,
        0,
        0,
        0,
        0,
        0,
        0,
        0,
        0,
        0,
        0,
        0,
        0,
        0,
        0,
        0,
        0,
        0,
        0,
        0,
        0,
        0,
        0,
        0,
        0,
        0,
        0,
        0,
        0,
        0,
        0,
        0,
        0,
        0,
        0,
        0,
        0,
        0,
        0,
        0,
        0,
        0,
        0,
        0,
        0,
        0,
        0,
        0,
        0,
        0,
        0,
        0,
        0,
        0,
        0,
        0,
        0,
        0,
        0,
        0;
        Material Material_001 {
           0.640000; 0.640000; 0.640000; 1.000000;;
           96.078431;
           0.500000; 0.500000; 0.500000;;
           0.000000; 0.000000; 0.000000;;
        }
      } // End of _0002 material list
    } // End of _0002 mesh
  } // End of _0002
} // End of Root
