xof 0303txt 0032

Frame Root {
  FrameTransformMatrix {
     1.000000, 0.000000, 0.000000, 0.000000,
     0.000000,-0.000000, 1.000000, 0.000000,
     0.000000, 1.000000, 0.000000, 0.000000,
     0.000000, 0.000000, 0.000000, 1.000000;;
  }
  Frame Cube {
    FrameTransformMatrix {
       1.000000, 0.000000, 0.000000, 0.000000,
       0.000000, 1.000000, 0.000000, 0.000000,
       0.000000, 0.000000, 1.000000, 0.000000,
       0.000000, 0.000000, 0.000000, 1.000000;;
    }
    Mesh { // Cube mesh
      640;
       0.003699; 0.005286; 0.040244;,
       0.009385; 0.005421; 0.040244;,
       0.007770; 0.073533; 0.025029;,
       0.002084; 0.073398; 0.025029;,
      -0.003970;-0.029526; 0.085736;,
      -0.003939;-0.030843; 0.008955;,
      -0.003052;-0.036184; 0.013607;,
      -0.003080;-0.034984; 0.083511;,
      -0.004371;-0.012613; 0.003610;,
      -0.003939;-0.030843; 0.008955;,
      -0.003970;-0.029526; 0.085736;,
      -0.004349;-0.013541; 0.084792;,
       0.003762; 0.002645; 0.083849;,
      -0.004662;-0.000365; 0.083928;,
      -0.004813; 0.005994; 0.101542;,
       0.003678; 0.006195; 0.101542;,
       0.012632;-0.013138; 0.084792;,
       0.013011;-0.029123; 0.085736;,
       0.013042;-0.030440; 0.008955;,
       0.012610;-0.012211; 0.003610;,
       0.003811; 0.000569;-0.001586;,
       0.012302; 0.000770;-0.001586;,
       0.012330;-0.000416;-0.006728;,
       0.003839;-0.000617;-0.006728;,
       0.012585;-0.011152;-0.005933;,
       0.012964;-0.027136;-0.004990;,
       0.009783;-0.022456;-0.008523;,
       0.009494;-0.010267;-0.009182;,
      -0.004371;-0.012613; 0.003610;,
      -0.004679; 0.000367;-0.001586;,
      -0.004651;-0.000819;-0.006728;,
      -0.004397;-0.011554;-0.005933;,
       0.012964;-0.027136;-0.004990;,
       0.013042;-0.030440; 0.008955;,
       0.012409;-0.035817; 0.013607;,
       0.012337;-0.032809; 0.000911;,
       0.012610;-0.012211; 0.003610;,
       0.013042;-0.030440; 0.008955;,
       0.012964;-0.027136;-0.004990;,
       0.012585;-0.011152;-0.005933;,
       0.004071;-0.010396;-0.009182;,
       0.003907;-0.003457;-0.009692;,
       0.009330;-0.003328;-0.009692;,
       0.009494;-0.010267;-0.009182;,
       0.003839;-0.000617;-0.006728;,
       0.012330;-0.000416;-0.006728;,
       0.009330;-0.003328;-0.009692;,
       0.003907;-0.003457;-0.009692;,
       0.004473;-0.027338;-0.004990;,
      -0.004018;-0.027539;-0.004990;,
      -0.001062;-0.022713;-0.008523;,
       0.004360;-0.022585;-0.008523;,
      -0.004397;-0.011554;-0.005933;,
      -0.004651;-0.000819;-0.006728;,
      -0.001516;-0.003585;-0.009692;,
      -0.001351;-0.010525;-0.009182;,
      -0.002322;-0.013401; 0.169878;,
      -0.002032;-0.025614; 0.169830;,
      -0.001657;-0.024870; 0.172013;,
      -0.001929;-0.013400; 0.172058;,
       0.013011;-0.029123; 0.085736;,
       0.012967;-0.027289; 0.169822;,
       0.012341;-0.032948; 0.160067;,
       0.012380;-0.034618; 0.083511;,
       0.012703;-0.016138; 0.116984;,
       0.012691;-0.015620; 0.138573;,
       0.010501;-0.015672; 0.138573;,
       0.010513;-0.016190; 0.116984;,
      -0.004349;-0.013541; 0.084792;,
      -0.003970;-0.029526; 0.085736;,
      -0.004014;-0.027692; 0.169822;,
      -0.004352;-0.013449; 0.169878;,
      -0.001986; 0.005151; 0.040244;,
      -0.001996; 0.005559; 0.001068;,
      -0.004679; 0.000367;-0.001586;,
      -0.004662;-0.000365; 0.083928;,
       0.003690; 0.005694; 0.001068;,
       0.009376; 0.005829; 0.001068;,
       0.012302; 0.000770;-0.001586;,
       0.003811; 0.000569;-0.001586;,
       0.003699; 0.005286; 0.040244;,
      -0.001986; 0.005151; 0.040244;,
      -0.004662;-0.000365; 0.083928;,
       0.003762; 0.002645; 0.083849;,
       0.009376; 0.005829; 0.001068;,
       0.009385; 0.005421; 0.040244;,
       0.012319; 0.000037; 0.083928;,
       0.012302; 0.000770;-0.001586;,
       0.002084; 0.073398; 0.025029;,
       0.007770; 0.073533; 0.025029;,
       0.005404; 0.079101; 0.016752;,
       0.001951; 0.079019; 0.016752;,
      -0.001996; 0.005559; 0.001068;,
      -0.001986; 0.005151; 0.040244;,
      -0.003601; 0.073263; 0.025029;,
      -0.003573; 0.072067;-0.016256;,
       0.009385; 0.005421; 0.040244;,
       0.009376; 0.005829; 0.001068;,
       0.007799; 0.072337;-0.016256;,
       0.007770; 0.073533; 0.025029;,
       0.003690; 0.005694; 0.001068;,
      -0.001996; 0.005559; 0.001068;,
      -0.003573; 0.072067;-0.016256;,
       0.002113; 0.072202;-0.016256;,
       0.003677; 0.006251; 0.112574;,
      -0.001121; 0.006138; 0.112574;,
      -0.003400; 0.102250; 0.121328;,
       0.001398; 0.102363; 0.121328;,
      -0.004662;-0.000365; 0.083928;,
      -0.004689; 0.000794; 0.169933;,
      -0.004755; 0.003575; 0.160445;,
      -0.004813; 0.005994; 0.101542;,
       0.003801; 0.000995; 0.169933;,
       0.012292; 0.001197; 0.169933;,
       0.012226; 0.003978; 0.160445;,
       0.003735; 0.003776; 0.160445;,
       0.012292; 0.001197; 0.169933;,
       0.012319; 0.000037; 0.083928;,
       0.012168; 0.006396; 0.101542;,
       0.012226; 0.003978; 0.160445;,
       0.003677; 0.006251; 0.112574;,
       0.008475; 0.006365; 0.112574;,
       0.012168; 0.006396; 0.101542;,
       0.003678; 0.006195; 0.101542;,
       0.003668; 0.006632; 0.141534;,
      -0.001130; 0.006518; 0.141534;,
      -0.004755; 0.003575; 0.160445;,
       0.003735; 0.003776; 0.160445;,
      -0.001130; 0.006518; 0.141534;,
      -0.001121; 0.006138; 0.112574;,
      -0.004813; 0.005994; 0.101542;,
      -0.004755; 0.003575; 0.160445;,
       0.008475; 0.006365; 0.112574;,
       0.008466; 0.006746; 0.141534;,
       0.012226; 0.003978; 0.160445;,
       0.012168; 0.006396; 0.101542;,
      -0.003400; 0.102250; 0.121328;,
      -0.003266; 0.096580; 0.150450;,
      -0.001781; 0.101314; 0.146338;,
      -0.001871; 0.105098; 0.126903;,
       0.008466; 0.006746; 0.141534;,
       0.008475; 0.006365; 0.112574;,
       0.006196; 0.102477; 0.121328;,
       0.006330; 0.096807; 0.150450;,
       0.003668; 0.006632; 0.141534;,
       0.008466; 0.006746; 0.141534;,
       0.006330; 0.096807; 0.150450;,
       0.001532; 0.096693; 0.150450;,
      -0.001121; 0.006138; 0.112574;,
      -0.001130; 0.006518; 0.141534;,
      -0.003266; 0.096580; 0.150450;,
      -0.003400; 0.102250; 0.121328;,
       0.010371;-0.035831; 0.015644;,
       0.010378;-0.036151; 0.030215;,
       0.010398;-0.037006; 0.030124;,
       0.010481;-0.040487; 0.015660;,
       0.004678;-0.036000; 0.013607;,
      -0.003052;-0.036184; 0.013607;,
      -0.003123;-0.033175; 0.000911;,
       0.004607;-0.032992; 0.000911;,
       0.006024;-0.033013; 0.148007;,
       0.006027;-0.033138; 0.156153;,
       0.006151;-0.038377; 0.156182;,
       0.006148;-0.038252; 0.148036;,
       0.004473;-0.027338;-0.004990;,
       0.012964;-0.027136;-0.004990;,
       0.012337;-0.032809; 0.000911;,
       0.004607;-0.032992; 0.000911;,
      -0.004014;-0.027692; 0.169822;,
      -0.003970;-0.029526; 0.085736;,
      -0.003080;-0.034984; 0.083511;,
      -0.003120;-0.033315; 0.160067;,
       0.013042;-0.030440; 0.008955;,
       0.013011;-0.029123; 0.085736;,
       0.012380;-0.034618; 0.083511;,
       0.012409;-0.035817; 0.013607;,
       0.004477;-0.027491; 0.169822;,
      -0.004014;-0.027692; 0.169822;,
      -0.003120;-0.033315; 0.160067;,
       0.004610;-0.033131; 0.160067;,
      -0.003939;-0.030843; 0.008955;,
      -0.004018;-0.027539;-0.004990;,
      -0.003123;-0.033175; 0.000911;,
      -0.003052;-0.036184; 0.013607;,
       0.003849;-0.001034; 0.169926;,
       0.010310;-0.000881; 0.169926;,
       0.012292; 0.001197; 0.169933;,
       0.003801; 0.000995; 0.169933;,
      -0.002322;-0.013401; 0.169878;,
      -0.002612;-0.001188; 0.169926;,
      -0.004689; 0.000794; 0.169933;,
      -0.004352;-0.013449; 0.169878;,
       0.010600;-0.013094; 0.169878;,
       0.010889;-0.025308; 0.169830;,
       0.012967;-0.027289; 0.169822;,
       0.012630;-0.013046; 0.169878;,
       0.004429;-0.025461; 0.169830;,
      -0.002032;-0.025614; 0.169830;,
      -0.004014;-0.027692; 0.169822;,
       0.004477;-0.027491; 0.169822;,
      -0.001441;-0.019567; 0.172232;,
      -0.000433;-0.023491; 0.171994;,
       0.000036;-0.022910; 0.194135;,
      -0.000962;-0.019382; 0.194350;,
       0.010600;-0.013094; 0.169878;,
       0.010310;-0.000881; 0.169926;,
       0.009935;-0.001642; 0.172102;,
       0.010207;-0.013112; 0.172058;,
       0.003849;-0.001034; 0.169926;,
      -0.002612;-0.001188; 0.169926;,
      -0.002201;-0.001930; 0.172102;,
       0.003867;-0.001786; 0.172102;,
       0.004429;-0.025461; 0.169830;,
       0.010889;-0.025308; 0.169830;,
       0.010479;-0.024582; 0.172013;,
       0.004411;-0.024726; 0.172013;,
       0.004155;-0.013926; 0.172427;,
       0.009005;-0.015372; 0.172471;,
       0.009935;-0.001642; 0.172102;,
       0.003867;-0.001786; 0.172102;,
      -0.001441;-0.019567; 0.172232;,
      -0.000620;-0.015600; 0.172471;,
      -0.002201;-0.001930; 0.172102;,
      -0.001929;-0.013400; 0.172058;,
       0.009875;-0.019299; 0.172232;,
       0.009192;-0.023263; 0.171994;,
       0.010479;-0.024582; 0.172013;,
       0.010207;-0.013112; 0.172058;,
       0.004404;-0.024438; 0.172024;,
      -0.000433;-0.023491; 0.171994;,
      -0.001657;-0.024870; 0.172013;,
       0.004411;-0.024726; 0.172013;,
       0.004281;-0.019258; 0.194350;,
       0.004391;-0.023869; 0.194165;,
       0.008695;-0.022705; 0.194135;,
       0.009388;-0.019136; 0.194350;,
       0.009875;-0.019299; 0.172232;,
       0.009005;-0.015372; 0.172471;,
       0.008527;-0.015605; 0.194564;,
       0.009388;-0.019136; 0.194350;,
       0.004155;-0.013926; 0.172427;,
      -0.000620;-0.015600; 0.172471;,
      -0.000132;-0.015810; 0.194564;,
       0.004160;-0.014148; 0.194520;,
       0.004404;-0.024438; 0.172024;,
       0.009192;-0.023263; 0.171994;,
       0.008695;-0.022705; 0.194135;,
       0.004391;-0.023869; 0.194165;,
      -0.001015;-0.036100; 0.015644;,
      -0.001008;-0.036421; 0.030215;,
      -0.003080;-0.034984; 0.083511;,
      -0.003052;-0.036184; 0.013607;,
       0.004678;-0.035965; 0.015644;,
      -0.001015;-0.036100; 0.015644;,
      -0.003052;-0.036184; 0.013607;,
       0.004678;-0.036000; 0.013607;,
       0.004685;-0.036286; 0.030215;,
       0.010378;-0.036151; 0.030215;,
       0.012380;-0.034618; 0.083511;,
       0.004650;-0.034801; 0.083511;,
       0.010378;-0.036151; 0.030215;,
       0.010371;-0.035831; 0.015644;,
       0.012409;-0.035817; 0.013607;,
       0.012380;-0.034618; 0.083511;,
       0.004702;-0.037012; 0.015558;,
       0.010481;-0.040487; 0.015660;,
       0.010398;-0.037006; 0.030124;,
       0.004706;-0.037141; 0.030124;,
       0.004678;-0.035965; 0.015644;,
       0.010371;-0.035831; 0.015644;,
       0.010481;-0.040487; 0.015660;,
       0.004702;-0.037012; 0.015558;,
       0.004685;-0.036286; 0.030215;,
      -0.001008;-0.036421; 0.030215;,
      -0.000987;-0.037276; 0.030124;,
       0.004706;-0.037141; 0.030124;,
      -0.001008;-0.036421; 0.030215;,
      -0.001015;-0.036100; 0.015644;,
      -0.000905;-0.040757; 0.015660;,
      -0.000987;-0.037276; 0.030124;,
       0.004604;-0.033046; 0.148007;,
       0.003185;-0.033080; 0.148007;,
      -0.003080;-0.034984; 0.083511;,
       0.004650;-0.034801; 0.083511;,
       0.004607;-0.033172; 0.156153;,
       0.006027;-0.033138; 0.156153;,
       0.012341;-0.032948; 0.160067;,
       0.004610;-0.033131; 0.160067;,
       0.006027;-0.033138; 0.156153;,
       0.006024;-0.033013; 0.148007;,
       0.012380;-0.034618; 0.083511;,
       0.012341;-0.032948; 0.160067;,
       0.003185;-0.033080; 0.148007;,
       0.003188;-0.033206; 0.156153;,
      -0.003120;-0.033315; 0.160067;,
      -0.003080;-0.034984; 0.083511;,
       0.004729;-0.038285; 0.148036;,
       0.006148;-0.038252; 0.148036;,
       0.006151;-0.038377; 0.156182;,
       0.004732;-0.038411; 0.156182;,
       0.004604;-0.033046; 0.148007;,
       0.006024;-0.033013; 0.148007;,
       0.006148;-0.038252; 0.148036;,
       0.004729;-0.038285; 0.148036;,
       0.003188;-0.033206; 0.156153;,
       0.003185;-0.033080; 0.148007;,
       0.003309;-0.038319; 0.148036;,
       0.003312;-0.038445; 0.156182;,
       0.004607;-0.033172; 0.156153;,
       0.003188;-0.033206; 0.156153;,
       0.003312;-0.038445; 0.156182;,
       0.004732;-0.038411; 0.156182;,
       0.012801;-0.020278; 0.117248;,
       0.012899;-0.024417; 0.117512;,
       0.013011;-0.029123; 0.085736;,
       0.012632;-0.013138; 0.084792;,
       0.012790;-0.019806; 0.138556;,
       0.012691;-0.015620; 0.138573;,
       0.012292; 0.001197; 0.169933;,
       0.012630;-0.013046; 0.169878;,
       0.012691;-0.015620; 0.138573;,
       0.012703;-0.016138; 0.116984;,
       0.012319; 0.000037; 0.083928;,
       0.012292; 0.001197; 0.169933;,
       0.012899;-0.024417; 0.117512;,
       0.012889;-0.023991; 0.138540;,
       0.012967;-0.027289; 0.169822;,
       0.013011;-0.029123; 0.085736;,
       0.010611;-0.020329; 0.117248;,
       0.010513;-0.016190; 0.116984;,
       0.010501;-0.015672; 0.138573;,
       0.010600;-0.019858; 0.138556;,
       0.012801;-0.020278; 0.117248;,
       0.012703;-0.016138; 0.116984;,
       0.010513;-0.016190; 0.116984;,
       0.010611;-0.020329; 0.117248;,
       0.012889;-0.023991; 0.138540;,
       0.012899;-0.024417; 0.117512;,
       0.010709;-0.024469; 0.117512;,
       0.010699;-0.024043; 0.138540;,
       0.012790;-0.019806; 0.138556;,
       0.012889;-0.023991; 0.138540;,
       0.010699;-0.024043; 0.138540;,
       0.010600;-0.019858; 0.138556;,
       0.001968; 0.078293;-0.008319;,
       0.001951; 0.079019; 0.016752;,
       0.005404; 0.079101; 0.016752;,
       0.005421; 0.078375;-0.008319;,
      -0.003573; 0.072067;-0.016256;,
      -0.003601; 0.073263; 0.025029;,
      -0.001502; 0.078938; 0.016752;,
      -0.001484; 0.078211;-0.008319;,
       0.007770; 0.073533; 0.025029;,
       0.007799; 0.072337;-0.016256;,
       0.005421; 0.078375;-0.008319;,
       0.005404; 0.079101; 0.016752;,
       0.002113; 0.072202;-0.016256;,
      -0.003573; 0.072067;-0.016256;,
      -0.001484; 0.078211;-0.008319;,
       0.001968; 0.078293;-0.008319;,
       0.001331; 0.105174; 0.126903;,
      -0.001871; 0.105098; 0.126903;,
      -0.001781; 0.101314; 0.146338;,
       0.001421; 0.101390; 0.146338;,
       0.001398; 0.102363; 0.121328;,
      -0.003400; 0.102250; 0.121328;,
      -0.001871; 0.105098; 0.126903;,
       0.001331; 0.105174; 0.126903;,
       0.006330; 0.096807; 0.150450;,
       0.006196; 0.102477; 0.121328;,
       0.004533; 0.105250; 0.126903;,
       0.004623; 0.101466; 0.146338;,
       0.001532; 0.096693; 0.150450;,
       0.006330; 0.096807; 0.150450;,
       0.004623; 0.101466; 0.146338;,
       0.001421; 0.101390; 0.146338;,
       0.012691;-0.015620; 0.138573;,
       0.012790;-0.019806; 0.138556;,
       0.010600;-0.019858; 0.138556;,
       0.010501;-0.015672; 0.138573;,
       0.012899;-0.024417; 0.117512;,
       0.012801;-0.020278; 0.117248;,
       0.010611;-0.020329; 0.117248;,
       0.010709;-0.024469; 0.117512;,
       0.010709;-0.024469; 0.117512;,
       0.010611;-0.020329; 0.117248;,
       0.010600;-0.019858; 0.138556;,
       0.010699;-0.024043; 0.138540;,
       0.012889;-0.023991; 0.138540;,
       0.012790;-0.019806; 0.138556;,
       0.012630;-0.013046; 0.169878;,
       0.012967;-0.027289; 0.169822;,
       0.012703;-0.016138; 0.116984;,
       0.012801;-0.020278; 0.117248;,
       0.012632;-0.013138; 0.084792;,
       0.012319; 0.000037; 0.083928;,
       0.009192;-0.023263; 0.171994;,
       0.009875;-0.019299; 0.172232;,
       0.009388;-0.019136; 0.194350;,
       0.008695;-0.022705; 0.194135;,
       0.004160;-0.014148; 0.194520;,
       0.004281;-0.019258; 0.194350;,
       0.009388;-0.019136; 0.194350;,
       0.008527;-0.015605; 0.194564;,
       0.009005;-0.015372; 0.172471;,
       0.009875;-0.019299; 0.172232;,
       0.010207;-0.013112; 0.172058;,
       0.009935;-0.001642; 0.172102;,
      -0.000433;-0.023491; 0.171994;,
      -0.001441;-0.019567; 0.172232;,
      -0.001929;-0.013400; 0.172058;,
      -0.001657;-0.024870; 0.172013;,
       0.010889;-0.025308; 0.169830;,
       0.010600;-0.013094; 0.169878;,
       0.010207;-0.013112; 0.172058;,
       0.010479;-0.024582; 0.172013;,
      -0.000620;-0.015600; 0.172471;,
      -0.001441;-0.019567; 0.172232;,
      -0.000962;-0.019382; 0.194350;,
      -0.000132;-0.015810; 0.194564;,
       0.010310;-0.000881; 0.169926;,
       0.010600;-0.013094; 0.169878;,
       0.012630;-0.013046; 0.169878;,
       0.012292; 0.001197; 0.169933;,
      -0.002032;-0.025614; 0.169830;,
      -0.002322;-0.013401; 0.169878;,
      -0.004352;-0.013449; 0.169878;,
      -0.004014;-0.027692; 0.169822;,
      -0.004662;-0.000365; 0.083928;,
      -0.004349;-0.013541; 0.084792;,
      -0.004352;-0.013449; 0.169878;,
      -0.004689; 0.000794; 0.169933;,
      -0.002612;-0.001188; 0.169926;,
      -0.002322;-0.013401; 0.169878;,
      -0.001929;-0.013400; 0.172058;,
      -0.002201;-0.001930; 0.172102;,
      -0.004018;-0.027539;-0.004990;,
      -0.004397;-0.011554;-0.005933;,
      -0.001351;-0.010525;-0.009182;,
      -0.001062;-0.022713;-0.008523;,
       0.004360;-0.022585;-0.008523;,
       0.004071;-0.010396;-0.009182;,
       0.009494;-0.010267;-0.009182;,
       0.009783;-0.022456;-0.008523;,
       0.012302; 0.000770;-0.001586;,
       0.012610;-0.012211; 0.003610;,
       0.012585;-0.011152;-0.005933;,
       0.012330;-0.000416;-0.006728;,
      -0.003939;-0.030843; 0.008955;,
      -0.004371;-0.012613; 0.003610;,
      -0.004397;-0.011554;-0.005933;,
      -0.004018;-0.027539;-0.004990;,
       0.012330;-0.000416;-0.006728;,
       0.012585;-0.011152;-0.005933;,
       0.009494;-0.010267;-0.009182;,
       0.009330;-0.003328;-0.009692;,
       0.012319; 0.000037; 0.083928;,
       0.012632;-0.013138; 0.084792;,
       0.012610;-0.012211; 0.003610;,
       0.012302; 0.000770;-0.001586;,
      -0.004679; 0.000367;-0.001586;,
      -0.004371;-0.012613; 0.003610;,
      -0.004349;-0.013541; 0.084792;,
      -0.004662;-0.000365; 0.083928;,
      -0.001062;-0.022713;-0.008523;,
      -0.001351;-0.010525;-0.009182;,
       0.004071;-0.010396;-0.009182;,
       0.004360;-0.022585;-0.008523;,
      -0.000132;-0.015810; 0.194564;,
      -0.000962;-0.019382; 0.194350;,
       0.004281;-0.019258; 0.194350;,
       0.004160;-0.014148; 0.194520;,
      -0.003266; 0.096580; 0.150450;,
       0.001532; 0.096693; 0.150450;,
       0.001421; 0.101390; 0.146338;,
      -0.001781; 0.101314; 0.146338;,
       0.006196; 0.102477; 0.121328;,
       0.001398; 0.102363; 0.121328;,
       0.001331; 0.105174; 0.126903;,
       0.004533; 0.105250; 0.126903;,
       0.004533; 0.105250; 0.126903;,
       0.001331; 0.105174; 0.126903;,
       0.001421; 0.101390; 0.146338;,
       0.004623; 0.101466; 0.146338;,
       0.007799; 0.072337;-0.016256;,
       0.002113; 0.072202;-0.016256;,
       0.001968; 0.078293;-0.008319;,
       0.005421; 0.078375;-0.008319;,
      -0.001484; 0.078211;-0.008319;,
      -0.001502; 0.078938; 0.016752;,
       0.001951; 0.079019; 0.016752;,
       0.001968; 0.078293;-0.008319;,
       0.006027;-0.033138; 0.156153;,
       0.004607;-0.033172; 0.156153;,
       0.004732;-0.038411; 0.156182;,
       0.006151;-0.038377; 0.156182;,
       0.003185;-0.033080; 0.148007;,
       0.004604;-0.033046; 0.148007;,
       0.004729;-0.038285; 0.148036;,
       0.003309;-0.038319; 0.148036;,
       0.003309;-0.038319; 0.148036;,
       0.004729;-0.038285; 0.148036;,
       0.004732;-0.038411; 0.156182;,
       0.003312;-0.038445; 0.156182;,
       0.003188;-0.033206; 0.156153;,
       0.004607;-0.033172; 0.156153;,
       0.004610;-0.033131; 0.160067;,
      -0.003120;-0.033315; 0.160067;,
       0.006024;-0.033013; 0.148007;,
       0.004604;-0.033046; 0.148007;,
       0.004650;-0.034801; 0.083511;,
       0.012380;-0.034618; 0.083511;,
       0.010378;-0.036151; 0.030215;,
       0.004685;-0.036286; 0.030215;,
       0.004706;-0.037141; 0.030124;,
       0.010398;-0.037006; 0.030124;,
      -0.001015;-0.036100; 0.015644;,
       0.004678;-0.035965; 0.015644;,
       0.004702;-0.037012; 0.015558;,
      -0.000905;-0.040757; 0.015660;,
      -0.000905;-0.040757; 0.015660;,
       0.004702;-0.037012; 0.015558;,
       0.004706;-0.037141; 0.030124;,
      -0.000987;-0.037276; 0.030124;,
      -0.001008;-0.036421; 0.030215;,
       0.004685;-0.036286; 0.030215;,
       0.004650;-0.034801; 0.083511;,
      -0.003080;-0.034984; 0.083511;,
       0.010371;-0.035831; 0.015644;,
       0.004678;-0.035965; 0.015644;,
       0.004678;-0.036000; 0.013607;,
       0.012409;-0.035817; 0.013607;,
      -0.000433;-0.023491; 0.171994;,
       0.004404;-0.024438; 0.172024;,
       0.004391;-0.023869; 0.194165;,
       0.000036;-0.022910; 0.194135;,
       0.009005;-0.015372; 0.172471;,
       0.004155;-0.013926; 0.172427;,
       0.004160;-0.014148; 0.194520;,
       0.008527;-0.015605; 0.194564;,
      -0.000962;-0.019382; 0.194350;,
       0.000036;-0.022910; 0.194135;,
       0.004391;-0.023869; 0.194165;,
       0.004281;-0.019258; 0.194350;,
       0.009192;-0.023263; 0.171994;,
       0.004404;-0.024438; 0.172024;,
       0.004411;-0.024726; 0.172013;,
       0.010479;-0.024582; 0.172013;,
      -0.000620;-0.015600; 0.172471;,
       0.004155;-0.013926; 0.172427;,
       0.003867;-0.001786; 0.172102;,
      -0.002201;-0.001930; 0.172102;,
      -0.002032;-0.025614; 0.169830;,
       0.004429;-0.025461; 0.169830;,
       0.004411;-0.024726; 0.172013;,
      -0.001657;-0.024870; 0.172013;,
       0.010310;-0.000881; 0.169926;,
       0.003849;-0.001034; 0.169926;,
       0.003867;-0.001786; 0.172102;,
       0.009935;-0.001642; 0.172102;,
       0.010889;-0.025308; 0.169830;,
       0.004429;-0.025461; 0.169830;,
       0.004477;-0.027491; 0.169822;,
       0.012967;-0.027289; 0.169822;,
      -0.002612;-0.001188; 0.169926;,
       0.003849;-0.001034; 0.169926;,
       0.003801; 0.000995; 0.169933;,
      -0.004689; 0.000794; 0.169933;,
       0.012967;-0.027289; 0.169822;,
       0.004477;-0.027491; 0.169822;,
       0.004610;-0.033131; 0.160067;,
       0.012341;-0.032948; 0.160067;,
      -0.004018;-0.027539;-0.004990;,
       0.004473;-0.027338;-0.004990;,
       0.004607;-0.032992; 0.000911;,
      -0.003123;-0.033175; 0.000911;,
       0.012409;-0.035817; 0.013607;,
       0.004678;-0.036000; 0.013607;,
       0.004607;-0.032992; 0.000911;,
       0.012337;-0.032809; 0.000911;,
      -0.001130; 0.006518; 0.141534;,
       0.003668; 0.006632; 0.141534;,
       0.001532; 0.096693; 0.150450;,
      -0.003266; 0.096580; 0.150450;,
       0.008466; 0.006746; 0.141534;,
       0.003668; 0.006632; 0.141534;,
       0.003735; 0.003776; 0.160445;,
       0.012226; 0.003978; 0.160445;,
      -0.001121; 0.006138; 0.112574;,
       0.003677; 0.006251; 0.112574;,
       0.003678; 0.006195; 0.101542;,
      -0.004813; 0.005994; 0.101542;,
      -0.004689; 0.000794; 0.169933;,
       0.003801; 0.000995; 0.169933;,
       0.003735; 0.003776; 0.160445;,
      -0.004755; 0.003575; 0.160445;,
       0.008475; 0.006365; 0.112574;,
       0.003677; 0.006251; 0.112574;,
       0.001398; 0.102363; 0.121328;,
       0.006196; 0.102477; 0.121328;,
       0.009376; 0.005829; 0.001068;,
       0.003690; 0.005694; 0.001068;,
       0.002113; 0.072202;-0.016256;,
       0.007799; 0.072337;-0.016256;,
      -0.003601; 0.073263; 0.025029;,
       0.002084; 0.073398; 0.025029;,
       0.001951; 0.079019; 0.016752;,
      -0.001502; 0.078938; 0.016752;,
       0.009385; 0.005421; 0.040244;,
       0.003699; 0.005286; 0.040244;,
       0.003762; 0.002645; 0.083849;,
       0.012319; 0.000037; 0.083928;,
      -0.001996; 0.005559; 0.001068;,
       0.003690; 0.005694; 0.001068;,
       0.003811; 0.000569;-0.001586;,
      -0.004679; 0.000367;-0.001586;,
       0.012964;-0.027136;-0.004990;,
       0.004473;-0.027338;-0.004990;,
       0.004360;-0.022585;-0.008523;,
       0.009783;-0.022456;-0.008523;,
      -0.004651;-0.000819;-0.006728;,
       0.003839;-0.000617;-0.006728;,
       0.003907;-0.003457;-0.009692;,
      -0.001516;-0.003585;-0.009692;,
      -0.001351;-0.010525;-0.009182;,
      -0.001516;-0.003585;-0.009692;,
       0.003907;-0.003457;-0.009692;,
       0.004071;-0.010396;-0.009182;,
      -0.004679; 0.000367;-0.001586;,
       0.003811; 0.000569;-0.001586;,
       0.003839;-0.000617;-0.006728;,
      -0.004651;-0.000819;-0.006728;,
       0.012319; 0.000037; 0.083928;,
       0.003762; 0.002645; 0.083849;,
       0.003678; 0.006195; 0.101542;,
       0.012168; 0.006396; 0.101542;,
      -0.001986; 0.005151; 0.040244;,
       0.003699; 0.005286; 0.040244;,
       0.002084; 0.073398; 0.025029;,
      -0.003601; 0.073263; 0.025029;;
      160;
      4;3,2,1,0;,
      4;7,6,5,4;,
      4;11,10,9,8;,
      4;15,14,13,12;,
      4;19,18,17,16;,
      4;23,22,21,20;,
      4;27,26,25,24;,
      4;31,30,29,28;,
      4;35,34,33,32;,
      4;39,38,37,36;,
      4;43,42,41,40;,
      4;47,46,45,44;,
      4;51,50,49,48;,
      4;55,54,53,52;,
      4;59,58,57,56;,
      4;63,62,61,60;,
      4;67,66,65,64;,
      4;71,70,69,68;,
      4;75,74,73,72;,
      4;79,78,77,76;,
      4;83,82,81,80;,
      4;87,86,85,84;,
      4;91,90,89,88;,
      4;95,94,93,92;,
      4;99,98,97,96;,
      4;103,102,101,100;,
      4;107,106,105,104;,
      4;111,110,109,108;,
      4;115,114,113,112;,
      4;119,118,117,116;,
      4;123,122,121,120;,
      4;127,126,125,124;,
      4;131,130,129,128;,
      4;135,134,133,132;,
      4;139,138,137,136;,
      4;143,142,141,140;,
      4;147,146,145,144;,
      4;151,150,149,148;,
      4;155,154,153,152;,
      4;159,158,157,156;,
      4;163,162,161,160;,
      4;167,166,165,164;,
      4;171,170,169,168;,
      4;175,174,173,172;,
      4;179,178,177,176;,
      4;183,182,181,180;,
      4;187,186,185,184;,
      4;191,190,189,188;,
      4;195,194,193,192;,
      4;199,198,197,196;,
      4;203,202,201,200;,
      4;207,206,205,204;,
      4;211,210,209,208;,
      4;215,214,213,212;,
      4;219,218,217,216;,
      4;223,222,221,220;,
      4;227,226,225,224;,
      4;231,230,229,228;,
      4;235,234,233,232;,
      4;239,238,237,236;,
      4;243,242,241,240;,
      4;247,246,245,244;,
      4;251,250,249,248;,
      4;255,254,253,252;,
      4;259,258,257,256;,
      4;263,262,261,260;,
      4;267,266,265,264;,
      4;271,270,269,268;,
      4;275,274,273,272;,
      4;279,278,277,276;,
      4;283,282,281,280;,
      4;287,286,285,284;,
      4;291,290,289,288;,
      4;295,294,293,292;,
      4;299,298,297,296;,
      4;303,302,301,300;,
      4;307,306,305,304;,
      4;311,310,309,308;,
      4;315,314,313,312;,
      4;319,318,317,316;,
      4;323,322,321,320;,
      4;327,326,325,324;,
      4;331,330,329,328;,
      4;335,334,333,332;,
      4;339,338,337,336;,
      4;343,342,341,340;,
      4;347,346,345,344;,
      4;351,350,349,348;,
      4;355,354,353,352;,
      4;359,358,357,356;,
      4;363,362,361,360;,
      4;367,366,365,364;,
      4;371,370,369,368;,
      4;375,374,373,372;,
      4;379,378,377,376;,
      4;383,382,381,380;,
      4;387,386,385,384;,
      4;391,390,389,388;,
      4;395,394,393,392;,
      4;399,398,397,396;,
      4;403,402,401,400;,
      4;407,406,405,404;,
      4;411,410,409,408;,
      4;415,414,413,412;,
      4;419,418,417,416;,
      4;423,422,421,420;,
      4;427,426,425,424;,
      4;431,430,429,428;,
      4;435,434,433,432;,
      4;439,438,437,436;,
      4;443,442,441,440;,
      4;447,446,445,444;,
      4;451,450,449,448;,
      4;455,454,453,452;,
      4;459,458,457,456;,
      4;463,462,461,460;,
      4;467,466,465,464;,
      4;471,470,469,468;,
      4;475,474,473,472;,
      4;479,478,477,476;,
      4;483,482,481,480;,
      4;487,486,485,484;,
      4;491,490,489,488;,
      4;495,494,493,492;,
      4;499,498,497,496;,
      4;503,502,501,500;,
      4;507,506,505,504;,
      4;511,510,509,508;,
      4;515,514,513,512;,
      4;519,518,517,516;,
      4;523,522,521,520;,
      4;527,526,525,524;,
      4;531,530,529,528;,
      4;535,534,533,532;,
      4;539,538,537,536;,
      4;543,542,541,540;,
      4;547,546,545,544;,
      4;551,550,549,548;,
      4;555,554,553,552;,
      4;559,558,557,556;,
      4;563,562,561,560;,
      4;567,566,565,564;,
      4;571,570,569,568;,
      4;575,574,573,572;,
      4;579,578,577,576;,
      4;583,582,581,580;,
      4;587,586,585,584;,
      4;591,590,589,588;,
      4;595,594,593,592;,
      4;599,598,597,596;,
      4;603,602,601,600;,
      4;607,606,605,604;,
      4;611,610,609,608;,
      4;615,614,613,612;,
      4;619,618,617,616;,
      4;623,622,621,620;,
      4;627,626,625,624;,
      4;631,630,629,628;,
      4;635,634,633,632;,
      4;639,638,637,636;;
      MeshNormals { // Cube normals
        160;
        -0.005167; 0.217893; 0.975959;,
        -0.986802;-0.161912; 0.002377;,
        -0.999719;-0.023706; 0.000000;,
        -0.180992; 0.946584;-0.266870;,
         0.999719; 0.023706;-0.000000;,
        -0.023099; 0.974127;-0.224817;,
         0.724989;-0.021959;-0.688410;,
        -0.999719;-0.023705; 0.000001;,
         0.987448;-0.152352;-0.041649;,
         0.999719; 0.023706;-0.000001;,
         0.001737;-0.073265;-0.997311;,
        -0.017115; 0.721765;-0.691926;,
         0.014140;-0.596316;-0.802625;,
        -0.716736;-0.068236;-0.693998;,
        -0.983817;-0.024021; 0.177558;,
         0.993336;-0.115217; 0.003026;,
         0.023698;-0.999432; 0.023975;,
        -0.999719;-0.023706; 0.000000;,
        -0.887394; 0.460991; 0.004410;,
        -0.010899; 0.459638;-0.888039;,
        -0.216341; 0.972661; 0.084417;,
         0.864547; 0.502533; 0.004410;,
        -0.019609; 0.826950; 0.561934;,
        -0.999719;-0.023706; 0.000000;,
         0.999719; 0.023706;-0.000000;,
         0.005974;-0.251934;-0.967726;,
        -0.002150; 0.090656;-0.995880;,
        -0.999719;-0.023706; 0.000000;,
        -0.022748; 0.959342; 0.281327;,
         0.999719; 0.023706;-0.000000;,
        -0.023705; 0.999706;-0.005093;,
        -0.023440; 0.988505; 0.149363;,
        -0.368697; 0.929295; 0.021760;,
         0.324236; 0.945726; 0.021760;,
        -0.931574; 0.356020; 0.073616;,
         0.999719; 0.023706;-0.000001;,
         0.002335;-0.098467; 0.995138;,
        -0.999719;-0.023706; 0.000001;,
         0.999719; 0.023706;-0.000000;,
         0.023066;-0.972767;-0.230633;,
         0.999719; 0.023706;-0.000002;,
         0.017113;-0.721708;-0.691986;,
        -0.986758;-0.162170; 0.003027;,
         0.993368;-0.114958; 0.002377;,
         0.020520;-0.865389; 0.500680;,
        -0.979118;-0.198983;-0.041648;,
         0.000093;-0.003904; 0.999992;,
         0.000095;-0.003899; 0.999992;,
         0.000094;-0.003900; 0.999992;,
         0.000093;-0.003900; 0.999992;,
        -0.964936;-0.261274; 0.025189;,
         0.983850; 0.022637; 0.177556;,
        -0.022406; 0.944933; 0.326496;,
         0.022466;-0.947451; 0.319111;,
        -0.000848; 0.026799; 0.999641;,
        -0.311036;-0.006385; 0.950377;,
         0.162383;-0.022428; 0.986473;,
        -0.002285; 0.006334; 0.999977;,
         0.009939;-0.049442; 0.998728;,
         0.974176; 0.224752; 0.021609;,
        -0.345180; 0.938446; 0.013040;,
         0.249242;-0.968050; 0.027520;,
        -0.196447;-0.980462; 0.010148;,
         0.023702;-0.999572; 0.017162;,
         0.023697;-0.999331; 0.027867;,
         0.242698;-0.970049; 0.010148;,
        -0.278718;-0.954122; 0.109396;,
         0.012571; 0.012591;-0.999842;,
         0.002525;-0.106465; 0.994313;,
        -0.999719;-0.023706; 0.000001;,
         0.023697;-0.999349; 0.027204;,
         0.023704;-0.999665; 0.010356;,
        -0.024535;-0.999533; 0.018210;,
         0.071945;-0.997242; 0.018210;,
         0.023703;-0.999600;-0.015423;,
         0.000131;-0.005540;-0.999985;,
        -0.999719;-0.023706; 0.000002;,
        -0.000131; 0.005543; 0.999985;,
         0.999719; 0.023706;-0.000000;,
         0.999719; 0.023706;-0.000000;,
         0.999719; 0.023706;-0.000000;,
         0.999719; 0.023706;-0.000000;,
         0.999719; 0.023706;-0.000001;,
        -0.001507; 0.063562; 0.997977;,
        -0.023701; 0.999514;-0.020261;,
        -0.000092; 0.003896;-0.999992;,
        -0.023695; 0.999300;-0.028964;,
        -0.942598; 0.333770;-0.010316;,
         0.925719; 0.378071;-0.010316;,
        -0.018804; 0.793033;-0.608888;,
        -0.023268; 0.981284; 0.191157;,
        -0.021165; 0.892601;-0.450350;,
         0.913653; 0.399775; 0.073615;,
        -0.015613; 0.658420; 0.752489;,
        -0.000092; 0.003900;-0.999992;,
        -0.001507; 0.063564; 0.997977;,
         0.999719; 0.023706;-0.000001;,
         0.999719; 0.023706;-0.000000;,
         0.999719; 0.023706;-0.000000;,
         0.983168;-0.181013; 0.024784;,
        -0.011111;-0.045767; 0.998890;,
         0.315126; 0.005916; 0.949031;,
        -0.182650;-0.033261; 0.982615;,
         0.983850; 0.022637; 0.177557;,
        -0.976906; 0.212585; 0.021481;,
         0.000091;-0.003900; 0.999992;,
         0.000091;-0.003900; 0.999992;,
        -0.999719;-0.023706; 0.000000;,
        -0.983817;-0.024021; 0.177557;,
        -0.723134;-0.056298;-0.688410;,
         0.001278;-0.053932;-0.998544;,
         0.999719; 0.023705;-0.000001;,
        -0.999719;-0.023705; 0.000001;,
         0.719164;-0.034188;-0.693999;,
         0.999719; 0.023706;-0.000000;,
        -0.999719;-0.023706; 0.000000;,
         0.001279;-0.053932;-0.998544;,
         0.013126;-0.045370; 0.998884;,
        -0.015613; 0.658420; 0.752489;,
        -0.021166; 0.892601;-0.450350;,
        -0.023269; 0.981284; 0.191157;,
        -0.018804; 0.793034;-0.608888;,
        -0.023695; 0.999300;-0.028964;,
        -0.000131; 0.005543; 0.999985;,
         0.000131;-0.005540;-0.999985;,
         0.023702;-0.999600;-0.015423;,
         0.023704;-0.999665; 0.010355;,
         0.023697;-0.999349; 0.027204;,
         0.002525;-0.106466; 0.994313;,
        -0.013155; 0.011980;-0.999842;,
         0.323628;-0.939839; 0.109395;,
         0.023696;-0.999331; 0.027867;,
         0.023702;-0.999572; 0.017163;,
        -0.203079;-0.978776; 0.027521;,
         0.300312; 0.953752; 0.013039;,
        -0.007468;-0.049987; 0.998722;,
         0.001985; 0.006437; 0.999977;,
        -0.000423; 0.026809; 0.999641;,
         0.022467;-0.947451; 0.319111;,
        -0.022406; 0.944933; 0.326496;,
         0.000093;-0.003899; 0.999992;,
         0.000093;-0.003904; 0.999992;,
         0.020521;-0.865389; 0.500680;,
         0.017113;-0.721708;-0.691986;,
         0.023066;-0.972767;-0.230633;,
         0.002335;-0.098467; 0.995138;,
        -0.023440; 0.988505; 0.149363;,
        -0.023705; 0.999706;-0.005093;,
        -0.022748; 0.959342; 0.281327;,
        -0.002150; 0.090656;-0.995880;,
         0.005973;-0.251934;-0.967726;,
        -0.019609; 0.826950; 0.561934;,
         0.169996; 0.981822; 0.084417;,
        -0.010900; 0.459639;-0.888039;,
         0.014139;-0.596316;-0.802625;,
        -0.017115; 0.721765;-0.691926;,
         0.001737;-0.073264;-0.997311;,
        -0.023099; 0.974127;-0.224817;,
         0.135923; 0.954099;-0.266870;,
        -0.005167; 0.217893; 0.975959;;
        160;
        4;0,0,0,0;,
        4;1,1,1,1;,
        4;2,2,2,2;,
        4;3,3,3,3;,
        4;4,4,4,4;,
        4;5,5,5,5;,
        4;6,6,6,6;,
        4;7,7,7,7;,
        4;8,8,8,8;,
        4;9,9,9,9;,
        4;10,10,10,10;,
        4;11,11,11,11;,
        4;12,12,12,12;,
        4;13,13,13,13;,
        4;14,14,14,14;,
        4;15,15,15,15;,
        4;16,16,16,16;,
        4;17,17,17,17;,
        4;18,18,18,18;,
        4;19,19,19,19;,
        4;20,20,20,20;,
        4;21,21,21,21;,
        4;22,22,22,22;,
        4;23,23,23,23;,
        4;24,24,24,24;,
        4;25,25,25,25;,
        4;26,26,26,26;,
        4;27,27,27,27;,
        4;28,28,28,28;,
        4;29,29,29,29;,
        4;30,30,30,30;,
        4;31,31,31,31;,
        4;32,32,32,32;,
        4;33,33,33,33;,
        4;34,34,34,34;,
        4;35,35,35,35;,
        4;36,36,36,36;,
        4;37,37,37,37;,
        4;38,38,38,38;,
        4;39,39,39,39;,
        4;40,40,40,40;,
        4;41,41,41,41;,
        4;42,42,42,42;,
        4;43,43,43,43;,
        4;44,44,44,44;,
        4;45,45,45,45;,
        4;46,46,46,46;,
        4;47,47,47,47;,
        4;48,48,48,48;,
        4;49,49,49,49;,
        4;50,50,50,50;,
        4;51,51,51,51;,
        4;52,52,52,52;,
        4;53,53,53,53;,
        4;54,54,54,54;,
        4;55,55,55,55;,
        4;56,56,56,56;,
        4;57,57,57,57;,
        4;58,58,58,58;,
        4;59,59,59,59;,
        4;60,60,60,60;,
        4;61,61,61,61;,
        4;62,62,62,62;,
        4;63,63,63,63;,
        4;64,64,64,64;,
        4;65,65,65,65;,
        4;66,66,66,66;,
        4;67,67,67,67;,
        4;68,68,68,68;,
        4;69,69,69,69;,
        4;70,70,70,70;,
        4;71,71,71,71;,
        4;72,72,72,72;,
        4;73,73,73,73;,
        4;74,74,74,74;,
        4;75,75,75,75;,
        4;76,76,76,76;,
        4;77,77,77,77;,
        4;78,78,78,78;,
        4;79,79,79,79;,
        4;80,80,80,80;,
        4;81,81,81,81;,
        4;82,82,82,82;,
        4;83,83,83,83;,
        4;84,84,84,84;,
        4;85,85,85,85;,
        4;86,86,86,86;,
        4;87,87,87,87;,
        4;88,88,88,88;,
        4;89,89,89,89;,
        4;90,90,90,90;,
        4;91,91,91,91;,
        4;92,92,92,92;,
        4;93,93,93,93;,
        4;94,94,94,94;,
        4;95,95,95,95;,
        4;96,96,96,96;,
        4;97,97,97,97;,
        4;98,98,98,98;,
        4;99,99,99,99;,
        4;100,100,100,100;,
        4;101,101,101,101;,
        4;102,102,102,102;,
        4;103,103,103,103;,
        4;104,104,104,104;,
        4;105,105,105,105;,
        4;106,106,106,106;,
        4;107,107,107,107;,
        4;108,108,108,108;,
        4;109,109,109,109;,
        4;110,110,110,110;,
        4;111,111,111,111;,
        4;112,112,112,112;,
        4;113,113,113,113;,
        4;114,114,114,114;,
        4;115,115,115,115;,
        4;116,116,116,116;,
        4;117,117,117,117;,
        4;118,118,118,118;,
        4;119,119,119,119;,
        4;120,120,120,120;,
        4;121,121,121,121;,
        4;122,122,122,122;,
        4;123,123,123,123;,
        4;124,124,124,124;,
        4;125,125,125,125;,
        4;126,126,126,126;,
        4;127,127,127,127;,
        4;128,128,128,128;,
        4;129,129,129,129;,
        4;130,130,130,130;,
        4;131,131,131,131;,
        4;132,132,132,132;,
        4;133,133,133,133;,
        4;134,134,134,134;,
        4;135,135,135,135;,
        4;136,136,136,136;,
        4;137,137,137,137;,
        4;138,138,138,138;,
        4;139,139,139,139;,
        4;140,140,140,140;,
        4;141,141,141,141;,
        4;142,142,142,142;,
        4;143,143,143,143;,
        4;144,144,144,144;,
        4;145,145,145,145;,
        4;146,146,146,146;,
        4;147,147,147,147;,
        4;148,148,148,148;,
        4;149,149,149,149;,
        4;150,150,150,150;,
        4;151,151,151,151;,
        4;152,152,152,152;,
        4;153,153,153,153;,
        4;154,154,154,154;,
        4;155,155,155,155;,
        4;156,156,156,156;,
        4;157,157,157,157;,
        4;158,158,158,158;,
        4;159,159,159,159;;
      } // End of Cube normals
      MeshTextureCoords { // Cube UV coordinates
        640;
         0.471202; 0.075351;,
         0.450641; 0.075349;,
         0.450641; 0.318862;,
         0.471202; 0.318865;,
         0.812349; 0.641629;,
         0.812349; 0.916130;,
         0.831899; 0.899759;,
         0.831899; 0.649842;,
         0.746150; 0.934166;,
         0.812349; 0.916130;,
         0.812349; 0.641629;,
         0.754535; 0.644066;,
         0.969297; 0.247443;,
         0.938594; 0.242186;,
         0.938594; 0.307349;,
         0.969297; 0.307349;,
         0.338534; 0.694814;,
         0.396363; 0.697233;,
         0.396363; 0.422707;,
         0.330146; 0.404690;,
         0.032493; 0.308531;,
         0.032493; 0.278165;,
         0.014585; 0.278165;,
         0.014585; 0.308531;,
         0.325727; 0.370641;,
         0.383557; 0.373060;,
         0.365847; 0.360898;,
         0.321754; 0.359271;,
         0.746150; 0.934166;,
         0.698926; 0.951977;,
         0.702893; 0.970425;,
         0.741732; 0.968213;,
         0.383557; 0.373060;,
         0.396363; 0.422707;,
         0.415941; 0.439060;,
         0.404282; 0.393860;,
         0.330146; 0.404690;,
         0.396363; 0.422707;,
         0.383557; 0.373060;,
         0.325727; 0.370641;,
         0.969297; 0.521192;,
         0.969297; 0.501897;,
         0.949688; 0.501897;,
         0.949688; 0.521192;,
         0.014585; 0.308531;,
         0.014585; 0.278165;,
         0.000000; 0.289137;,
         0.000000; 0.308531;,
         0.969297; 0.575532;,
         1.000000; 0.575532;,
         0.988907; 0.554500;,
         0.969297; 0.554500;,
         0.741732; 0.968213;,
         0.702893; 0.970425;,
         0.712564; 0.980946;,
         0.737669; 0.979529;,
         0.752152; 0.295273;,
         0.752152; 0.251623;,
         0.744244; 0.254325;,
         0.744244; 0.295319;,
         0.396363; 0.697233;,
         0.394950; 0.997903;,
         0.414654; 0.962742;,
         0.415941; 0.689000;,
         0.287739; 0.265556;,
         0.287739; 0.317210;,
         0.295658; 0.317210;,
         0.295658; 0.265556;,
         0.754535; 0.644066;,
         0.812349; 0.641629;,
         0.810936; 0.340988;,
         0.759477; 0.339956;,
         0.684106; 0.801979;,
         0.680204; 0.941974;,
         0.698926; 0.951977;,
         0.706875; 0.646383;,
         0.050661; 0.308531;,
         0.050661; 0.288196;,
         0.032493; 0.278165;,
         0.032493; 0.308531;,
         0.969297; 0.122084;,
         0.948736; 0.122084;,
         0.938594; 0.242186;,
         0.969297; 0.247443;,
         0.264266; 0.396852;,
         0.268170; 0.536860;,
         0.290861; 0.692512;,
         0.282910; 0.386891;,
         0.471202; 0.318865;,
         0.450641; 0.318862;,
         0.458732; 0.338920;,
         0.471217; 0.338922;,
         0.680204; 0.941974;,
         0.684106; 0.801979;,
         0.437059; 0.852373;,
         0.438821; 1.000000;,
         0.268170; 0.536860;,
         0.264266; 0.396852;,
         0.022819; 0.338897;,
         0.021057; 0.486538;,
         0.512324; 0.338924;,
         0.532885; 0.338924;,
         0.532885; 0.123465;,
         0.512324; 0.123465;,
         0.550235; 0.338924;,
         0.567585; 0.338924;,
         0.567585; 0.110517;,
         0.550235; 0.110517;,
         0.706875; 0.646383;,
         0.708018; 0.338924;,
         0.697382; 0.372674;,
         0.684990; 0.583057;,
         0.969297; 0.501897;,
         1.000000; 0.501897;,
         1.000000; 0.478934;,
         0.969297; 0.478934;,
         0.292005; 1.000000;,
         0.290861; 0.692512;,
         0.268971; 0.755851;,
         0.281366; 0.966250;,
         0.969297; 0.340481;,
         0.986647; 0.340481;,
         1.000000; 0.307349;,
         0.969297; 0.307349;,
         0.969297; 0.427912;,
         0.951947; 0.427912;,
         0.938594; 0.478934;,
         0.969297; 0.478934;,
         0.951947; 0.427912;,
         0.951947; 0.340481;,
         0.938594; 0.307349;,
         0.938594; 0.478934;,
         0.986647; 0.340481;,
         0.986647; 0.427912;,
         1.000000; 0.478934;,
         1.000000; 0.307349;,
         0.938587; 0.631001;,
         0.831899; 0.620185;,
         0.848139; 0.635800;,
         0.919342; 0.643018;,
         0.834468; 0.989301;,
         0.938594; 1.000000;,
         0.938594; 0.654994;,
         0.831899; 0.665785;,
         0.433291; 0.000001;,
         0.415941; 0.000002;,
         0.415941; 0.322150;,
         0.433291; 0.322149;,
         0.938587; 0.286098;,
         0.834467; 0.296766;,
         0.831899; 0.620185;,
         0.938587; 0.631001;,
         0.246186; 0.286811;,
         0.247551; 0.338897;,
         0.250640; 0.338559;,
         0.263016; 0.286811;,
         0.969297; 0.643710;,
         0.997250; 0.643710;,
         0.997250; 0.604721;,
         0.969297; 0.604721;,
         0.314591; 0.338897;,
         0.314591; 0.309774;,
         0.295658; 0.309373;,
         0.295658; 0.338495;,
         0.969297; 0.575532;,
         0.938594; 0.575532;,
         0.941344; 0.604721;,
         0.969297; 0.604721;,
         0.810936; 0.340988;,
         0.812349; 0.641629;,
         0.831899; 0.649842;,
         0.830613; 0.376126;,
         0.396363; 0.422707;,
         0.396363; 0.697233;,
         0.415941; 0.689000;,
         0.415941; 0.439060;,
         0.598288; 0.237046;,
         0.628991; 0.237046;,
         0.626262; 0.216817;,
         0.598309; 0.216817;,
         0.812349; 0.916130;,
         0.799546; 0.965776;,
         0.820243; 0.944958;,
         0.831899; 0.899759;,
         0.598288; 0.331665;,
         0.574924; 0.331665;,
         0.567585; 0.338924;,
         0.598288; 0.338924;,
         0.621651; 0.287985;,
         0.621651; 0.331665;,
         0.628991; 0.338923;,
         0.628991; 0.287985;,
         0.574924; 0.287985;,
         0.574924; 0.244305;,
         0.567585; 0.237046;,
         0.567585; 0.287985;,
         0.598288; 0.244305;,
         0.621651; 0.244305;,
         0.628991; 0.237046;,
         0.598288; 0.237046;,
         0.162849; 0.259101;,
         0.148706; 0.258458;,
         0.151568; 0.337617;,
         0.164280; 0.338189;,
         0.279837; 0.295235;,
         0.279837; 0.338897;,
         0.287739; 0.336276;,
         0.287739; 0.295271;,
         0.341437; 0.315790;,
         0.341437; 0.338897;,
         0.346539; 0.337490;,
         0.346539; 0.315790;,
         0.368210; 0.315790;,
         0.368210; 0.292683;,
         0.364723; 0.294089;,
         0.364723; 0.315790;,
         0.692053; 0.295509;,
         0.674650; 0.289930;,
         0.670112; 0.338924;,
         0.692054; 0.338924;,
         0.712762; 0.275818;,
         0.709455; 0.289930;,
         0.713995; 0.338924;,
         0.713995; 0.297902;,
         0.671843; 0.275818;,
         0.674651; 0.261705;,
         0.670112; 0.256880;,
         0.670112; 0.297902;,
         0.692054; 0.257910;,
         0.709456; 0.261705;,
         0.713995; 0.256880;,
         0.692054; 0.256880;,
         0.229990; 0.320681;,
         0.246186; 0.316756;,
         0.238732; 0.302620;,
         0.225594; 0.302944;,
         0.134356; 0.338228;,
         0.148706; 0.337470;,
         0.148706; 0.258455;,
         0.135787; 0.259141;,
         0.102764; 0.273197;,
         0.085362; 0.270278;,
         0.087107; 0.335978;,
         0.102764; 0.338897;,
         0.194639; 0.286020;,
         0.177237; 0.283187;,
         0.178982; 0.336064;,
         0.194639; 0.338897;,
         0.989883; 0.648622;,
         0.989883; 0.685228;,
         0.997250; 0.812208;,
         0.997250; 0.643710;,
         0.969297; 0.648622;,
         0.989883; 0.648622;,
         0.997250; 0.643710;,
         0.969297; 0.643710;,
         0.969297; 0.685228;,
         0.948710; 0.685228;,
         0.941344; 0.812208;,
         0.969297; 0.812208;,
         0.948710; 0.685228;,
         0.948710; 0.648622;,
         0.941344; 0.643710;,
         0.941344; 0.812208;,
         0.969297; 0.651132;,
         0.948710; 0.660767;,
         0.948710; 0.687226;,
         0.969297; 0.687226;,
         0.969297; 0.648622;,
         0.948710; 0.648622;,
         0.948710; 0.660767;,
         0.969297; 0.651132;,
         0.368210; 0.318536;,
         0.368210; 0.338896;,
         0.371302; 0.338897;,
         0.371302; 0.318536;,
         0.279837; 0.338897;,
         0.279837; 0.286797;,
         0.263016; 0.287234;,
         0.276741; 0.338639;,
         0.969312; 0.965984;,
         0.974444; 0.965984;,
         0.997250; 0.812208;,
         0.969297; 0.812208;,
         0.969311; 0.986307;,
         0.964179; 0.986307;,
         0.941344; 0.995812;,
         0.969297; 0.995812;,
         0.964179; 0.986307;,
         0.964179; 0.965984;,
         0.941344; 0.812208;,
         0.941344; 0.995812;,
         0.974444; 0.965984;,
         0.974444; 0.986307;,
         0.997250; 0.995812;,
         0.997250; 0.812208;,
         0.969312; 0.979677;,
         0.964179; 0.979677;,
         0.964179; 1.000000;,
         0.969311; 1.000000;,
         0.969312; 0.965984;,
         0.964179; 0.965984;,
         0.964179; 0.979677;,
         0.969312; 0.979677;,
         0.314591; 0.309776;,
         0.314591; 0.338897;,
         0.333518; 0.338490;,
         0.333518; 0.309369;,
         0.359591; 0.320160;,
         0.354458; 0.320160;,
         0.354458; 0.338897;,
         0.359591; 0.338897;,
         0.366348; 0.810399;,
         0.381327; 0.811095;,
         0.396363; 0.697233;,
         0.338534; 0.694814;,
         0.365965; 0.886591;,
         0.350838; 0.886900;,
         0.292005; 1.000000;,
         0.343477; 0.998951;,
         0.350838; 0.886900;,
         0.351370; 0.809703;,
         0.290861; 0.692512;,
         0.292005; 1.000000;,
         0.381327; 0.811095;,
         0.381092; 0.886283;,
         0.394950; 0.997903;,
         0.396363; 0.697233;,
         0.729261; 0.338329;,
         0.744244; 0.338924;,
         0.744244; 0.261725;,
         0.729120; 0.262135;,
         0.346539; 0.324091;,
         0.346539; 0.338896;,
         0.354458; 0.338897;,
         0.354458; 0.324092;,
         0.341437; 0.338897;,
         0.341437; 0.275119;,
         0.333518; 0.275119;,
         0.333518; 0.338897;,
         0.287739; 0.328053;,
         0.287739; 0.338897;,
         0.295658; 0.338897;,
         0.295658; 0.328053;,
         0.649551; 0.262458;,
         0.649551; 0.338924;,
         0.662037; 0.338924;,
         0.662037; 0.262458;,
         0.438821; 1.000000;,
         0.437059; 0.852373;,
         0.415941; 0.881454;,
         0.417011; 0.971101;,
         0.021057; 0.486538;,
         0.022819; 0.338897;,
         0.001070; 0.367766;,
         0.000000; 0.457422;,
         0.649552; 0.226785;,
         0.628991; 0.226785;,
         0.637066; 0.262458;,
         0.649551; 0.262458;,
         0.068012; 0.316713;,
         0.079591; 0.316713;,
         0.079591; 0.265936;,
         0.068012; 0.265936;,
         0.068012; 0.338897;,
         0.085362; 0.338897;,
         0.079591; 0.316713;,
         0.068012; 0.316713;,
         0.831899; 0.665785;,
         0.938594; 0.654994;,
         0.919370; 0.643018;,
         0.848163; 0.650220;,
         0.433291; 0.322149;,
         0.415941; 0.322150;,
         0.421722; 0.338924;,
         0.433301; 0.338923;,
         0.287739; 0.317210;,
         0.287739; 0.328053;,
         0.295658; 0.328053;,
         0.295658; 0.317210;,
         0.346539; 0.309287;,
         0.346539; 0.324091;,
         0.354458; 0.324092;,
         0.354458; 0.309287;,
         0.714278; 0.337734;,
         0.729261; 0.338329;,
         0.729120; 0.262135;,
         0.713995; 0.262545;,
         0.381092; 0.886283;,
         0.365965; 0.886591;,
         0.343477; 0.998951;,
         0.394950; 0.997903;,
         0.351370; 0.809703;,
         0.366348; 0.810399;,
         0.338534; 0.694814;,
         0.290861; 0.692512;,
         0.120167; 0.338897;,
         0.134356; 0.338228;,
         0.135787; 0.259141;,
         0.123029; 0.259739;,
         0.212042; 0.325031;,
         0.229990; 0.320681;,
         0.225594; 0.302944;,
         0.213794; 0.308663;,
         0.674650; 0.289930;,
         0.671843; 0.275818;,
         0.670112; 0.297902;,
         0.670112; 0.338924;,
         0.709456; 0.261705;,
         0.712762; 0.275818;,
         0.713995; 0.297902;,
         0.713995; 0.256880;,
         0.279837; 0.251572;,
         0.279837; 0.295235;,
         0.287739; 0.295271;,
         0.287739; 0.254266;,
         0.177237; 0.259880;,
         0.162849; 0.259101;,
         0.164280; 0.338189;,
         0.177237; 0.338897;,
         0.574924; 0.331665;,
         0.574924; 0.287985;,
         0.567585; 0.287985;,
         0.567585; 0.338924;,
         0.621651; 0.244305;,
         0.621651; 0.287985;,
         0.628991; 0.287985;,
         0.628991; 0.237046;,
         0.706875; 0.646383;,
         0.754535; 0.644066;,
         0.759477; 0.339956;,
         0.708018; 0.338924;,
         0.752152; 0.338924;,
         0.752152; 0.295273;,
         0.744244; 0.295319;,
         0.744244; 0.336313;,
         0.799546; 0.965776;,
         0.741732; 0.968213;,
         0.737669; 0.979529;,
         0.781749; 0.977889;,
         0.969297; 0.554500;,
         0.969297; 0.521192;,
         0.949688; 0.521192;,
         0.949688; 0.554500;,
         0.282910; 0.386891;,
         0.330146; 0.404690;,
         0.325727; 0.370641;,
         0.286878; 0.368441;,
         0.812349; 0.916130;,
         0.746150; 0.934166;,
         0.741732; 0.968213;,
         0.799546; 0.965776;,
         0.286878; 0.368441;,
         0.325727; 0.370641;,
         0.321754; 0.359271;,
         0.296643; 0.357862;,
         0.290861; 0.692512;,
         0.338534; 0.694814;,
         0.330146; 0.404690;,
         0.282910; 0.386891;,
         0.698926; 0.951977;,
         0.746150; 0.934166;,
         0.754535; 0.644066;,
         0.706875; 0.646383;,
         0.988907; 0.554500;,
         0.988907; 0.521192;,
         0.969297; 0.521192;,
         0.969297; 0.554500;,
         0.221247; 0.338743;,
         0.234503; 0.338897;,
         0.229990; 0.320681;,
         0.212042; 0.325031;,
         0.450641; 0.322148;,
         0.433291; 0.322149;,
         0.433301; 0.338923;,
         0.444880; 0.338922;,
         0.050661; 0.338897;,
         0.068012; 0.338897;,
         0.068012; 0.316713;,
         0.056432; 0.316713;,
         0.056432; 0.316713;,
         0.068012; 0.316713;,
         0.068012; 0.265936;,
         0.056432; 0.265936;,
         0.670112; 0.226785;,
         0.649552; 0.226785;,
         0.649551; 0.262458;,
         0.662037; 0.262458;,
         0.637066; 0.262458;,
         0.637066; 0.338924;,
         0.649551; 0.338924;,
         0.649551; 0.262458;,
         0.364723; 0.320160;,
         0.359591; 0.320160;,
         0.359591; 0.338897;,
         0.364723; 0.338897;,
         0.974444; 0.965984;,
         0.969312; 0.965984;,
         0.969312; 0.979677;,
         0.974444; 0.979677;,
         0.974444; 0.979677;,
         0.969312; 0.979677;,
         0.969311; 1.000000;,
         0.974444; 1.000000;,
         0.974444; 0.986307;,
         0.969311; 0.986307;,
         0.969297; 0.995812;,
         0.997250; 0.995812;,
         0.964179; 0.965984;,
         0.969312; 0.965984;,
         0.969297; 0.812208;,
         0.941344; 0.812208;,
         0.368210; 0.298175;,
         0.368210; 0.318536;,
         0.371302; 0.318536;,
         0.371302; 0.298176;,
         0.989883; 0.648622;,
         0.969297; 0.648622;,
         0.969297; 0.651132;,
         0.989883; 0.660767;,
         0.989883; 0.660767;,
         0.969297; 0.651132;,
         0.969297; 0.687226;,
         0.989883; 0.687226;,
         0.989883; 0.685228;,
         0.969297; 0.685228;,
         0.969297; 0.812208;,
         0.997250; 0.812208;,
         0.948710; 0.648622;,
         0.969297; 0.648622;,
         0.969297; 0.643710;,
         0.941344; 0.643710;,
         0.212042; 0.283187;,
         0.194639; 0.286020;,
         0.194639; 0.338897;,
         0.210296; 0.336064;,
         0.120167; 0.270278;,
         0.102764; 0.273197;,
         0.102764; 0.338897;,
         0.118421; 0.335978;,
         0.234503; 0.338897;,
         0.246186; 0.332699;,
         0.246186; 0.316756;,
         0.229990; 0.320681;,
         0.674651; 0.261705;,
         0.692054; 0.257910;,
         0.692054; 0.256880;,
         0.670112; 0.256880;,
         0.709455; 0.289930;,
         0.692053; 0.295509;,
         0.692054; 0.338924;,
         0.713995; 0.338924;,
         0.368210; 0.338897;,
         0.368210; 0.315790;,
         0.364723; 0.315790;,
         0.364723; 0.337490;,
         0.341437; 0.292683;,
         0.341437; 0.315790;,
         0.346539; 0.315790;,
         0.346539; 0.294089;,
         0.574924; 0.244305;,
         0.598288; 0.244305;,
         0.598288; 0.237046;,
         0.567585; 0.237046;,
         0.621651; 0.331665;,
         0.598288; 0.331665;,
         0.598288; 0.338924;,
         0.628991; 0.338923;,
         0.567585; 0.237046;,
         0.598288; 0.237046;,
         0.598309; 0.216817;,
         0.570355; 0.216817;,
         1.000000; 0.575532;,
         0.969297; 0.575532;,
         0.969297; 0.604721;,
         0.997250; 0.604721;,
         0.941344; 0.643710;,
         0.969297; 0.643710;,
         0.969297; 0.604721;,
         0.941344; 0.604721;,
         0.450641; 0.000000;,
         0.433291; 0.000001;,
         0.433291; 0.322149;,
         0.450641; 0.322148;,
         0.986647; 0.427912;,
         0.969297; 0.427912;,
         0.969297; 0.478934;,
         1.000000; 0.478934;,
         0.951947; 0.340481;,
         0.969297; 0.340481;,
         0.969297; 0.307349;,
         0.938594; 0.307349;,
         0.938594; 0.501897;,
         0.969297; 0.501897;,
         0.969297; 0.478934;,
         0.938594; 0.478934;,
         0.532885; 0.338924;,
         0.550235; 0.338924;,
         0.550235; 0.110517;,
         0.532885; 0.110517;,
         0.491763; 0.338924;,
         0.512324; 0.338924;,
         0.512324; 0.123465;,
         0.491763; 0.123465;,
         0.491763; 0.318867;,
         0.471202; 0.318865;,
         0.471217; 0.338922;,
         0.483703; 0.338924;,
         0.989858; 0.122084;,
         0.969297; 0.122084;,
         0.969297; 0.247443;,
         1.000000; 0.242186;,
         0.050661; 0.328866;,
         0.050661; 0.308531;,
         0.032493; 0.308531;,
         0.032493; 0.338897;,
         0.938594; 0.575532;,
         0.969297; 0.575532;,
         0.969297; 0.554500;,
         0.949688; 0.554500;,
         0.014585; 0.338897;,
         0.014585; 0.308531;,
         0.000000; 0.308531;,
         0.000000; 0.327925;,
         0.988907; 0.521192;,
         0.988907; 0.501897;,
         0.969297; 0.501897;,
         0.969297; 0.521192;,
         0.032493; 0.338897;,
         0.032493; 0.308531;,
         0.014585; 0.308531;,
         0.014585; 0.338897;,
         1.000000; 0.242186;,
         0.969297; 0.247443;,
         0.969297; 0.307349;,
         1.000000; 0.307349;,
         0.491763; 0.075354;,
         0.471202; 0.075351;,
         0.471202; 0.318865;,
         0.491763; 0.318867;;
      } // End of Cube UV coordinates
      MeshMaterialList { // Cube material list
        1;
        160;
        0,
        0,
        0,
        0,
        0,
        0,
        0,
        0,
        0,
        0,
        0,
        0,
        0,
        0,
        0,
        0,
        0,
        0,
        0,
        0,
        0,
        0,
        0,
        0,
        0,
        0,
        0,
        0,
        0,
        0,
        0,
        0,
        0,
        0,
        0,
        0,
        0,
        0,
        0,
        0,
        0,
        0,
        0,
        0,
        0,
        0,
        0,
        0,
        0,
        0,
        0,
        0,
        0,
        0,
        0,
        0,
        0,
        0,
        0,
        0,
        0,
        0,
        0,
        0,
        0,
        0,
        0,
        0,
        0,
        0,
        0,
        0,
        0,
        0,
        0,
        0,
        0,
        0,
        0,
        0,
        0,
        0,
        0,
        0,
        0,
        0,
        0,
        0,
        0,
        0,
        0,
        0,
        0,
        0,
        0,
        0,
        0,
        0,
        0,
        0,
        0,
        0,
        0,
        0,
        0,
        0,
        0,
        0,
        0,
        0,
        0,
        0,
        0,
        0,
        0,
        0,
        0,
        0,
        0,
        0,
        0,
        0,
        0,
        0,
        0,
        0,
        0,
        0,
        0,
        0,
        0,
        0,
        0,
        0,
        0,
        0,
        0,
        0,
        0,
        0,
        0,
        0,
        0,
        0,
        0,
        0,
        0,
        0,
        0,
        0,
        0,
        0,
        0,
        0,
        0,
        0,
        0,
        0,
        0,
        0;
        Material Material_001 {
           0.640000; 0.640000; 0.640000; 1.000000;;
           96.078431;
           0.500000; 0.500000; 0.500000;;
           0.000000; 0.000000; 0.000000;;
        }
      } // End of Cube material list
    } // End of Cube mesh
  } // End of Cube
} // End of Root
