xof 0303txt 0032

Frame Root {
  FrameTransformMatrix {
     1.000000, 0.000000, 0.000000, 0.000000,
     0.000000,-0.000000, 1.000000, 0.000000,
     0.000000, 1.000000, 0.000000, 0.000000,
     0.000000, 0.000000, 0.000000, 1.000000;;
  }
  Frame Cube {
    FrameTransformMatrix {
       1.000000, 0.000000, 0.000000, 0.000000,
       0.000000, 1.000000, 0.000000, 0.000000,
       0.000000, 0.000000, 1.000000, 0.000000,
       0.000000, 0.000000, 0.000000, 1.000000;;
    }
    Mesh { // Cube mesh
      232;
      -0.022613; 0.083771; 0.201363;,
      -0.035504; 0.080257; 0.201363;,
      -0.054689; 0.138915; 0.184692;,
      -0.035847; 0.144051; 0.184692;,
      -0.001184; 0.005150; 0.223577;,
      -0.022613; 0.083771; 0.223577;,
      -0.035504; 0.080257; 0.223577;,
      -0.014075; 0.001637; 0.223577;,
      -0.014075; 0.001637; 0.223577;,
      -0.035504; 0.080257; 0.223577;,
      -0.035504; 0.080257; 0.201363;,
      -0.014075; 0.001637; 0.201363;,
      -0.014075; 0.001637; 0.201363;,
      -0.001184; 0.005150; 0.201363;,
      -0.001184; 0.005150; 0.223577;,
      -0.014075; 0.001637; 0.223577;,
      -0.001184; 0.005150; 0.201363;,
      -0.022613; 0.083771; 0.201363;,
      -0.022613; 0.083771; 0.223577;,
      -0.001184; 0.005150; 0.223577;,
      -0.014075; 0.001637; 0.201363;,
      -0.035504; 0.080257; 0.201363;,
      -0.022613; 0.083771; 0.201363;,
      -0.001184; 0.005150; 0.201363;,
      -0.054689; 0.138915; 0.184692;,
      -0.054689; 0.138915; 0.217159;,
      -0.067209; 0.184850; 0.198926;,
      -0.067209; 0.184850; 0.166459;,
      -0.035504; 0.080257; 0.223577;,
      -0.022613; 0.083771; 0.223577;,
      -0.035847; 0.144051; 0.217159;,
      -0.054689; 0.138915; 0.217159;,
      -0.035504; 0.080257; 0.201363;,
      -0.035504; 0.080257; 0.223577;,
      -0.054689; 0.138915; 0.217159;,
      -0.054689; 0.138915; 0.184692;,
      -0.022613; 0.083771; 0.223577;,
      -0.022613; 0.083771; 0.201363;,
      -0.035847; 0.144051; 0.184692;,
      -0.035847; 0.144051; 0.217159;,
      -0.067209; 0.184850; 0.166459;,
      -0.067209; 0.184850; 0.198926;,
      -0.077090; 0.234583; 0.157743;,
      -0.077090; 0.234583; 0.132366;,
      -0.054689; 0.138915; 0.217159;,
      -0.035847; 0.144051; 0.217159;,
      -0.048367; 0.189985; 0.198926;,
      -0.067209; 0.184850; 0.198926;,
      -0.035847; 0.144051; 0.184692;,
      -0.054689; 0.138915; 0.184692;,
      -0.067209; 0.184850; 0.166459;,
      -0.048367; 0.189985; 0.166459;,
      -0.035847; 0.144051; 0.217159;,
      -0.035847; 0.144051; 0.184692;,
      -0.048367; 0.189985; 0.166459;,
      -0.048367; 0.189985; 0.198926;,
      -0.065088; 0.237854; 0.132366;,
      -0.077090; 0.234583; 0.132366;,
      -0.086235; 0.281745; 0.090213;,
      -0.081139; 0.283134; 0.090213;,
      -0.067209; 0.184850; 0.198926;,
      -0.048367; 0.189985; 0.198926;,
      -0.065088; 0.237854; 0.157743;,
      -0.077090; 0.234583; 0.157743;,
      -0.048367; 0.189985; 0.166459;,
      -0.067209; 0.184850; 0.166459;,
      -0.077090; 0.234583; 0.132366;,
      -0.065088; 0.237854; 0.132366;,
      -0.048367; 0.189985; 0.198926;,
      -0.048367; 0.189985; 0.166459;,
      -0.065088; 0.237854; 0.132366;,
      -0.065088; 0.237854; 0.157743;,
      -0.086235; 0.281745; 0.090213;,
      -0.086235; 0.281745; 0.108433;,
      -0.095916; 0.335447; 0.076671;,
      -0.095916; 0.335447; 0.068014;,
      -0.065088; 0.237854; 0.157743;,
      -0.065088; 0.237854; 0.132366;,
      -0.081139; 0.283134; 0.090213;,
      -0.081139; 0.283134; 0.108433;,
      -0.077090; 0.234583; 0.132366;,
      -0.077090; 0.234583; 0.157743;,
      -0.086235; 0.281745; 0.108433;,
      -0.086235; 0.281745; 0.090213;,
      -0.077090; 0.234583; 0.157743;,
      -0.065088; 0.237854; 0.157743;,
      -0.081139; 0.283134; 0.108433;,
      -0.086235; 0.281745; 0.108433;,
      -0.087564; 0.337724; 0.068014;,
      -0.095916; 0.335447; 0.068014;,
      -0.095916; 0.335447; 0.076671;,
      -0.087564; 0.337724; 0.076671;,
      -0.086235; 0.281745; 0.108433;,
      -0.081139; 0.283134; 0.108433;,
      -0.087564; 0.337724; 0.076671;,
      -0.095916; 0.335447; 0.076671;,
      -0.081139; 0.283134; 0.090213;,
      -0.086235; 0.281745; 0.090213;,
      -0.095916; 0.335447; 0.068014;,
      -0.087564; 0.337724; 0.068014;,
      -0.081139; 0.283134; 0.108433;,
      -0.081139; 0.283134; 0.090213;,
      -0.087564; 0.337724; 0.068014;,
      -0.087564; 0.337724; 0.076671;,
       0.020290;-0.073635; 0.201364;,
       0.039474;-0.132292; 0.184692;,
       0.020632;-0.137428; 0.184692;,
       0.007398;-0.077149; 0.201364;,
      -0.001139; 0.004986; 0.223577;,
      -0.014031; 0.001472; 0.223577;,
       0.007398;-0.077149; 0.223577;,
       0.020290;-0.073635; 0.223577;,
      -0.014031; 0.001472; 0.223577;,
      -0.014031; 0.001472; 0.201363;,
       0.007398;-0.077149; 0.201364;,
       0.007398;-0.077149; 0.223577;,
      -0.014031; 0.001472; 0.201363;,
      -0.014031; 0.001472; 0.223577;,
      -0.001139; 0.004986; 0.223577;,
      -0.001139; 0.004986; 0.201363;,
      -0.001139; 0.004986; 0.201363;,
      -0.001139; 0.004986; 0.223577;,
       0.020290;-0.073635; 0.223577;,
       0.020290;-0.073635; 0.201364;,
      -0.014031; 0.001472; 0.201363;,
      -0.001139; 0.004986; 0.201363;,
       0.020290;-0.073635; 0.201364;,
       0.007398;-0.077149; 0.201364;,
       0.020632;-0.137428; 0.184692;,
       0.033152;-0.183363; 0.166459;,
       0.033152;-0.183363; 0.198926;,
       0.020632;-0.137428; 0.217159;,
       0.007398;-0.077149; 0.223577;,
       0.020632;-0.137428; 0.217159;,
       0.039474;-0.132292; 0.217159;,
       0.020290;-0.073635; 0.223577;,
       0.007398;-0.077149; 0.201364;,
       0.020632;-0.137428; 0.184692;,
       0.020632;-0.137428; 0.217159;,
       0.007398;-0.077149; 0.223577;,
       0.020290;-0.073635; 0.223577;,
       0.039474;-0.132292; 0.217159;,
       0.039474;-0.132292; 0.184692;,
       0.020290;-0.073635; 0.201364;,
       0.033152;-0.183363; 0.166459;,
       0.049873;-0.231232; 0.132366;,
       0.049873;-0.231232; 0.157743;,
       0.033152;-0.183363; 0.198926;,
       0.020632;-0.137428; 0.217159;,
       0.033152;-0.183363; 0.198926;,
       0.051994;-0.178227; 0.198926;,
       0.039474;-0.132292; 0.217159;,
       0.039474;-0.132292; 0.184692;,
       0.051994;-0.178227; 0.166459;,
       0.033152;-0.183363; 0.166459;,
       0.020632;-0.137428; 0.184692;,
       0.039474;-0.132292; 0.217159;,
       0.051994;-0.178227; 0.198926;,
       0.051994;-0.178227; 0.166459;,
       0.039474;-0.132292; 0.184692;,
       0.061875;-0.227961; 0.132366;,
       0.071020;-0.275122; 0.090214;,
       0.065924;-0.276511; 0.090214;,
       0.049873;-0.231232; 0.132366;,
       0.033152;-0.183363; 0.198926;,
       0.049873;-0.231232; 0.157743;,
       0.061875;-0.227961; 0.157743;,
       0.051994;-0.178227; 0.198926;,
       0.051994;-0.178227; 0.166459;,
       0.061875;-0.227961; 0.132366;,
       0.049873;-0.231232; 0.132366;,
       0.033152;-0.183363; 0.166459;,
       0.051994;-0.178227; 0.198926;,
       0.061875;-0.227961; 0.157743;,
       0.061875;-0.227961; 0.132366;,
       0.051994;-0.178227; 0.166459;,
       0.065924;-0.276511; 0.090214;,
       0.084832;-0.327699; 0.068014;,
       0.084832;-0.327699; 0.076671;,
       0.065924;-0.276511; 0.108433;,
       0.061875;-0.227961; 0.157743;,
       0.071020;-0.275122; 0.108433;,
       0.071020;-0.275122; 0.090214;,
       0.061875;-0.227961; 0.132366;,
       0.049873;-0.231232; 0.132366;,
       0.065924;-0.276511; 0.090214;,
       0.065924;-0.276511; 0.108433;,
       0.049873;-0.231232; 0.157743;,
       0.049873;-0.231232; 0.157743;,
       0.065924;-0.276511; 0.108433;,
       0.071020;-0.275122; 0.108433;,
       0.061875;-0.227961; 0.157743;,
       0.093184;-0.325423; 0.068014;,
       0.093184;-0.325423; 0.076671;,
       0.084832;-0.327699; 0.076671;,
       0.084832;-0.327699; 0.068014;,
       0.065924;-0.276511; 0.108433;,
       0.084832;-0.327699; 0.076671;,
       0.093184;-0.325423; 0.076671;,
       0.071020;-0.275122; 0.108433;,
       0.071020;-0.275122; 0.090214;,
       0.093184;-0.325423; 0.068014;,
       0.084832;-0.327699; 0.068014;,
       0.065924;-0.276511; 0.090214;,
       0.071020;-0.275122; 0.108433;,
       0.093184;-0.325423; 0.076671;,
       0.093184;-0.325423; 0.068014;,
       0.071020;-0.275122; 0.090214;,
       0.069380;-0.281776; 0.092704;,
      -0.084898; 0.284253; 0.092704;,
      -0.084898; 0.284253; 0.089822;,
       0.069380;-0.281776; 0.089822;,
       0.069380;-0.281776; 0.089822;,
      -0.084898; 0.284253; 0.089822;,
      -0.082117; 0.285011; 0.089822;,
       0.072160;-0.281018; 0.089822;,
       0.072160;-0.281018; 0.089822;,
      -0.082117; 0.285011; 0.089822;,
      -0.082117; 0.285011; 0.092704;,
       0.072160;-0.281018; 0.092704;,
       0.072160;-0.281018; 0.092704;,
      -0.082117; 0.285011; 0.092704;,
      -0.084898; 0.284253; 0.092704;,
       0.069380;-0.281776; 0.092704;,
       0.069380;-0.281776; 0.089822;,
       0.072160;-0.281018; 0.089822;,
       0.072160;-0.281018; 0.092704;,
       0.069380;-0.281776; 0.092704;,
      -0.082117; 0.285011; 0.089822;,
      -0.084898; 0.284253; 0.089822;,
      -0.084898; 0.284253; 0.092704;,
      -0.082117; 0.285011; 0.092704;;
      58;
      4;3,2,1,0;,
      4;7,6,5,4;,
      4;11,10,9,8;,
      4;15,14,13,12;,
      4;19,18,17,16;,
      4;23,22,21,20;,
      4;27,26,25,24;,
      4;31,30,29,28;,
      4;35,34,33,32;,
      4;39,38,37,36;,
      4;43,42,41,40;,
      4;47,46,45,44;,
      4;51,50,49,48;,
      4;55,54,53,52;,
      4;59,58,57,56;,
      4;63,62,61,60;,
      4;67,66,65,64;,
      4;71,70,69,68;,
      4;75,74,73,72;,
      4;79,78,77,76;,
      4;83,82,81,80;,
      4;87,86,85,84;,
      4;91,90,89,88;,
      4;95,94,93,92;,
      4;99,98,97,96;,
      4;103,102,101,100;,
      4;107,106,105,104;,
      4;111,110,109,108;,
      4;115,114,113,112;,
      4;119,118,117,116;,
      4;123,122,121,120;,
      4;127,126,125,124;,
      4;131,130,129,128;,
      4;135,134,133,132;,
      4;139,138,137,136;,
      4;143,142,141,140;,
      4;147,146,145,144;,
      4;151,150,149,148;,
      4;155,154,153,152;,
      4;159,158,157,156;,
      4;163,162,161,160;,
      4;167,166,165,164;,
      4;171,170,169,168;,
      4;175,174,173,172;,
      4;179,178,177,176;,
      4;183,182,181,180;,
      4;187,186,185,184;,
      4;191,190,189,188;,
      4;195,194,193,192;,
      4;199,198,197,196;,
      4;203,202,201,200;,
      4;207,206,205,204;,
      4;211,210,209,208;,
      4;215,214,213,212;,
      4;219,218,217,216;,
      4;223,222,221,220;,
      4;227,226,225,224;,
      4;231,230,229,228;;
      MeshNormals { // Cube normals
        232;
         0.734428; 0.085635;-0.673208;,
        -0.676321;-0.298868;-0.673208;,
        -0.636219;-0.409772;-0.653645;,
         0.756157;-0.030274;-0.653645;,
         0.708853;-0.405194; 0.577349;,
         0.660146; 0.202185; 0.723380;,
        -0.671438;-0.160741; 0.723380;,
        -0.405194;-0.708853; 0.577349;,
        -0.405194;-0.708853; 0.577349;,
        -0.671438;-0.160741; 0.723380;,
        -0.676321;-0.298868;-0.673208;,
        -0.405194;-0.708853;-0.577349;,
        -0.405194;-0.708853;-0.577349;,
         0.708853;-0.405194;-0.577349;,
         0.708853;-0.405194; 0.577349;,
        -0.405194;-0.708853; 0.577349;,
         0.708853;-0.405194;-0.577349;,
         0.734428; 0.085635;-0.673208;,
         0.660146; 0.202185; 0.723380;,
         0.708853;-0.405194; 0.577349;,
        -0.405194;-0.708853;-0.577349;,
        -0.676321;-0.298868;-0.673208;,
         0.734428; 0.085635;-0.673208;,
         0.708853;-0.405194;-0.577349;,
        -0.636219;-0.409772;-0.653645;,
        -0.702292;-0.034211; 0.711020;,
        -0.751427; 0.187475; 0.632557;,
        -0.646870;-0.465316;-0.604114;,
        -0.671438;-0.160741; 0.723380;,
         0.660146; 0.202185; 0.723380;,
         0.622547; 0.326884; 0.711020;,
        -0.702292;-0.034211; 0.711020;,
        -0.676321;-0.298868;-0.673208;,
        -0.671438;-0.160741; 0.723380;,
        -0.702292;-0.034211; 0.711020;,
        -0.636219;-0.409772;-0.653645;,
         0.660146; 0.202185; 0.723380;,
         0.734428; 0.085635;-0.673208;,
         0.756157;-0.030274;-0.653645;,
         0.622547; 0.326884; 0.711020;,
        -0.646870;-0.465316;-0.604114;,
        -0.751427; 0.187475; 0.632557;,
        -0.789758; 0.326029; 0.519578;,
        -0.611042;-0.557756;-0.561663;,
        -0.702292;-0.034211; 0.711020;,
         0.622547; 0.326884; 0.711020;,
         0.552355; 0.542863; 0.632557;,
        -0.751427; 0.187475; 0.632557;,
         0.756157;-0.030274;-0.653645;,
        -0.636219;-0.409772;-0.653645;,
        -0.646870;-0.465316;-0.604114;,
         0.793542;-0.072726;-0.604114;,
         0.622547; 0.326884; 0.711020;,
         0.756157;-0.030274;-0.653645;,
         0.793542;-0.072726;-0.604114;,
         0.552355; 0.542863; 0.632557;,
         0.809564;-0.170537;-0.561663;,
        -0.611042;-0.557756;-0.561663;,
        -0.572710;-0.513443;-0.639027;,
         0.725730;-0.260598;-0.636677;,
        -0.751427; 0.187475; 0.632557;,
         0.552355; 0.542863; 0.632557;,
         0.515091; 0.681661; 0.519578;,
        -0.789758; 0.326029; 0.519578;,
         0.793542;-0.072726;-0.604114;,
        -0.646870;-0.465316;-0.604114;,
        -0.611042;-0.557756;-0.561663;,
         0.809564;-0.170537;-0.561663;,
         0.552355; 0.542863; 0.632557;,
         0.793542;-0.072726;-0.604114;,
         0.809564;-0.170537;-0.561663;,
         0.515091; 0.681661; 0.519578;,
        -0.572710;-0.513443;-0.639027;,
        -0.818323; 0.257637; 0.513718;,
        -0.745689; 0.537858; 0.393200;,
        -0.643330; 0.319620;-0.695639;,
         0.515091; 0.681661; 0.519578;,
         0.809564;-0.170537;-0.561663;,
         0.725730;-0.260598;-0.636677;,
         0.578265; 0.604236; 0.548143;,
        -0.611042;-0.557756;-0.561663;,
        -0.789758; 0.326029; 0.519578;,
        -0.818323; 0.257637; 0.513718;,
        -0.572710;-0.513443;-0.639027;,
        -0.789758; 0.326029; 0.519578;,
         0.515091; 0.681661; 0.519578;,
         0.578265; 0.604236; 0.548143;,
        -0.818323; 0.257637; 0.513718;,
         0.461959; 0.575610;-0.674703;,
        -0.643330; 0.319620;-0.695639;,
        -0.745689; 0.537858; 0.393200;,
         0.471694; 0.786859; 0.397870;,
        -0.818323; 0.257637; 0.513718;,
         0.578265; 0.604236; 0.548143;,
         0.471694; 0.786859; 0.397870;,
        -0.745689; 0.537858; 0.393200;,
         0.725730;-0.260598;-0.636677;,
        -0.572710;-0.513443;-0.639027;,
        -0.643330; 0.319620;-0.695639;,
         0.461959; 0.575610;-0.674703;,
         0.578265; 0.604236; 0.548143;,
         0.725730;-0.260598;-0.636677;,
         0.461959; 0.575610;-0.674703;,
         0.471694; 0.786859; 0.397870;,
         0.676321; 0.298868;-0.673208;,
         0.636219; 0.409772;-0.653645;,
        -0.756157; 0.030274;-0.653645;,
        -0.734428;-0.085635;-0.673208;,
         0.405194; 0.708853; 0.577349;,
        -0.708853; 0.405194; 0.577349;,
        -0.660146;-0.202185; 0.723380;,
         0.671438; 0.160741; 0.723380;,
        -0.708853; 0.405194; 0.577349;,
        -0.708853; 0.405194;-0.577349;,
        -0.734428;-0.085635;-0.673208;,
        -0.660146;-0.202185; 0.723380;,
        -0.708853; 0.405194;-0.577349;,
        -0.708853; 0.405194; 0.577349;,
         0.405194; 0.708853; 0.577349;,
         0.405194; 0.708853;-0.577349;,
         0.405194; 0.708853;-0.577349;,
         0.405194; 0.708853; 0.577349;,
         0.671438; 0.160741; 0.723380;,
         0.676321; 0.298868;-0.673208;,
        -0.708853; 0.405194;-0.577349;,
         0.405194; 0.708853;-0.577349;,
         0.676321; 0.298868;-0.673208;,
        -0.734428;-0.085635;-0.673208;,
        -0.756157; 0.030274;-0.653645;,
        -0.793542; 0.072726;-0.604114;,
        -0.552355;-0.542863; 0.632557;,
        -0.622547;-0.326884; 0.711020;,
        -0.660146;-0.202185; 0.723380;,
        -0.622547;-0.326884; 0.711020;,
         0.702292; 0.034211; 0.711020;,
         0.671438; 0.160741; 0.723380;,
        -0.734428;-0.085635;-0.673208;,
        -0.756157; 0.030274;-0.653645;,
        -0.622547;-0.326884; 0.711020;,
        -0.660146;-0.202185; 0.723380;,
         0.671438; 0.160741; 0.723380;,
         0.702292; 0.034211; 0.711020;,
         0.636219; 0.409772;-0.653645;,
         0.676321; 0.298868;-0.673208;,
        -0.793542; 0.072726;-0.604114;,
        -0.809564; 0.170537;-0.561663;,
        -0.515091;-0.681661; 0.519578;,
        -0.552355;-0.542863; 0.632557;,
        -0.622547;-0.326884; 0.711020;,
        -0.552355;-0.542863; 0.632557;,
         0.751427;-0.187475; 0.632557;,
         0.702292; 0.034211; 0.711020;,
         0.636219; 0.409772;-0.653645;,
         0.646870; 0.465316;-0.604114;,
        -0.793542; 0.072726;-0.604114;,
        -0.756157; 0.030274;-0.653645;,
         0.702292; 0.034211; 0.711020;,
         0.751427;-0.187475; 0.632557;,
         0.646870; 0.465316;-0.604114;,
         0.636219; 0.409772;-0.653645;,
         0.611042; 0.557756;-0.561663;,
         0.493118; 0.592822;-0.636677;,
        -0.754021; 0.151799;-0.639027;,
        -0.809564; 0.170537;-0.561663;,
        -0.552355;-0.542863; 0.632557;,
        -0.515091;-0.681661; 0.519578;,
         0.789758;-0.326029; 0.519578;,
         0.751427;-0.187475; 0.632557;,
         0.646870; 0.465316;-0.604114;,
         0.611042; 0.557756;-0.561663;,
        -0.809564; 0.170537;-0.561663;,
        -0.793542; 0.072726;-0.604114;,
         0.751427;-0.187475; 0.632557;,
         0.789758;-0.326029; 0.519578;,
         0.611042; 0.557756;-0.561663;,
         0.646870; 0.465316;-0.604114;,
        -0.754021; 0.151799;-0.639027;,
        -0.392163;-0.601886;-0.695639;,
        -0.369610;-0.841853; 0.393200;,
        -0.574419;-0.637257; 0.513718;,
         0.789758;-0.326029; 0.519578;,
         0.804895;-0.227210; 0.548143;,
         0.493118; 0.592822;-0.636677;,
         0.611042; 0.557756;-0.561663;,
        -0.809564; 0.170537;-0.561663;,
        -0.754021; 0.151799;-0.639027;,
        -0.574419;-0.637257; 0.513718;,
        -0.515091;-0.681661; 0.519578;,
        -0.515091;-0.681661; 0.519578;,
        -0.574419;-0.637257; 0.513718;,
         0.804895;-0.227210; 0.548143;,
         0.789758;-0.326029; 0.519578;,
         0.690146;-0.261574;-0.674703;,
         0.805750;-0.438673; 0.397870;,
        -0.369610;-0.841853; 0.393200;,
        -0.392163;-0.601886;-0.695639;,
        -0.574419;-0.637257; 0.513718;,
        -0.369610;-0.841853; 0.393200;,
         0.805750;-0.438673; 0.397870;,
         0.804895;-0.227210; 0.548143;,
         0.493118; 0.592822;-0.636677;,
         0.690146;-0.261574;-0.674703;,
        -0.392163;-0.601886;-0.695639;,
        -0.754021; 0.151799;-0.639027;,
         0.804895;-0.227210; 0.548143;,
         0.805750;-0.438673; 0.397870;,
         0.690146;-0.261574;-0.674703;,
         0.493118; 0.592822;-0.636677;,
        -0.405194;-0.708823; 0.577349;,
        -0.708853; 0.405194; 0.577349;,
        -0.708853; 0.405194;-0.577349;,
        -0.405194;-0.708823;-0.577349;,
        -0.405194;-0.708823;-0.577349;,
        -0.708853; 0.405194;-0.577349;,
         0.405194; 0.708823;-0.577349;,
         0.708853;-0.405194;-0.577349;,
         0.708853;-0.405194;-0.577349;,
         0.405194; 0.708823;-0.577349;,
         0.405194; 0.708823; 0.577349;,
         0.708853;-0.405194; 0.577349;,
         0.708853;-0.405194; 0.577349;,
         0.405194; 0.708823; 0.577349;,
        -0.708853; 0.405194; 0.577349;,
        -0.405194;-0.708823; 0.577349;,
        -0.405194;-0.708823;-0.577349;,
         0.708853;-0.405194;-0.577349;,
         0.708853;-0.405194; 0.577349;,
        -0.405194;-0.708823; 0.577349;,
         0.405194; 0.708823;-0.577349;,
        -0.708853; 0.405194;-0.577349;,
        -0.708853; 0.405194; 0.577349;,
         0.405194; 0.708823; 0.577349;;
        58;
        4;3,2,1,0;,
        4;7,6,5,4;,
        4;11,10,9,8;,
        4;15,14,13,12;,
        4;19,18,17,16;,
        4;23,22,21,20;,
        4;27,26,25,24;,
        4;31,30,29,28;,
        4;35,34,33,32;,
        4;39,38,37,36;,
        4;43,42,41,40;,
        4;47,46,45,44;,
        4;51,50,49,48;,
        4;55,54,53,52;,
        4;59,58,57,56;,
        4;63,62,61,60;,
        4;67,66,65,64;,
        4;71,70,69,68;,
        4;75,74,73,72;,
        4;79,78,77,76;,
        4;83,82,81,80;,
        4;87,86,85,84;,
        4;91,90,89,88;,
        4;95,94,93,92;,
        4;99,98,97,96;,
        4;103,102,101,100;,
        4;107,106,105,104;,
        4;111,110,109,108;,
        4;115,114,113,112;,
        4;119,118,117,116;,
        4;123,122,121,120;,
        4;127,126,125,124;,
        4;131,130,129,128;,
        4;135,134,133,132;,
        4;139,138,137,136;,
        4;143,142,141,140;,
        4;147,146,145,144;,
        4;151,150,149,148;,
        4;155,154,153,152;,
        4;159,158,157,156;,
        4;163,162,161,160;,
        4;167,166,165,164;,
        4;171,170,169,168;,
        4;175,174,173,172;,
        4;179,178,177,176;,
        4;183,182,181,180;,
        4;187,186,185,184;,
        4;191,190,189,188;,
        4;195,194,193,192;,
        4;199,198,197,196;,
        4;203,202,201,200;,
        4;207,206,205,204;,
        4;211,210,209,208;,
        4;215,214,213,212;,
        4;219,218,217,216;,
        4;223,222,221,220;,
        4;227,226,225,224;,
        4;231,230,229,228;;
      } // End of Cube normals
      MeshTextureCoords { // Cube UV coordinates
        232;
         0.921882; 0.864742;,
         0.959194; 0.864742;,
         0.967806; 0.768898;,
         0.913270; 0.768898;,
         0.867346; 0.588669;,
         0.867346; 0.727568;,
         0.904658; 0.727568;,
         0.904658; 0.588669;,
         0.691177; 0.358096;,
         0.608842; 0.487584;,
         0.666670; 0.501284;,
         0.749005; 0.371795;,
         0.828251; 0.466758;,
         0.865563; 0.466758;,
         0.865563; 0.428896;,
         0.828251; 0.428896;,
         0.184717; 0.986418;,
         0.103085; 0.856764;,
         0.045183; 0.870346;,
         0.126815; 1.000000;,
         0.959194; 1.000000;,
         0.959194; 0.864742;,
         0.921882; 0.864742;,
         0.921882; 1.000000;,
         0.647793; 0.609510;,
         0.563271; 0.589487;,
         0.562632; 0.676386;,
         0.647155; 0.696410;,
         0.904658; 0.727568;,
         0.867346; 0.727568;,
         0.858734; 0.832631;,
         0.913270; 0.832631;,
         0.666670; 0.501284;,
         0.608842; 0.487584;,
         0.563271; 0.589487;,
         0.647793; 0.609510;,
         0.045183; 0.870346;,
         0.103085; 0.856764;,
         0.084797; 0.748500;,
         0.000166; 0.768352;,
         0.647155; 0.696410;,
         0.562632; 0.676386;,
         0.618739; 0.782160;,
         0.684804; 0.797811;,
         0.913270; 0.832631;,
         0.858734; 0.832631;,
         0.858734; 0.913784;,
         0.913270; 0.913784;,
         0.913270; 0.768898;,
         0.967806; 0.768898;,
         0.967806; 0.696941;,
         0.913270; 0.696941;,
         0.000166; 0.768352;,
         0.084797; 0.748500;,
         0.084631; 0.661599;,
         0.000000; 0.681451;,
         0.908410; 0.516820;,
         0.873673; 0.516820;,
         0.883666; 0.588669;,
         0.898417; 0.588669;,
         0.913270; 0.913784;,
         0.858734; 0.913784;,
         0.868633; 1.000000;,
         0.903371; 1.000000;,
         0.913270; 0.696941;,
         0.967806; 0.696941;,
         0.957907; 0.626204;,
         0.923169; 0.626204;,
         0.000000; 0.681451;,
         0.084631; 0.661599;,
         0.122831; 0.560275;,
         0.056681; 0.575792;,
         0.746136; 0.899932;,
         0.698704; 0.888695;,
         0.726470; 0.994661;,
         0.749005; 1.000000;,
         0.056681; 0.575792;,
         0.122831; 0.560275;,
         0.184717; 0.458278;,
         0.137224; 0.469419;,
         0.684804; 0.797811;,
         0.618739; 0.782160;,
         0.698704; 0.888695;,
         0.746136; 0.899932;,
         0.838935; 0.504621;,
         0.804198; 0.504621;,
         0.814191; 0.588669;,
         0.828942; 0.588669;,
         0.932584; 0.479609;,
         0.908410; 0.479609;,
         0.908410; 0.494364;,
         0.932584; 0.494364;,
         0.897753; 0.422515;,
         0.883059; 0.423304;,
         0.873673; 0.516820;,
         0.897753; 0.515527;,
         0.813574; 0.503726;,
         0.828251; 0.504621;,
         0.828251; 0.422596;,
         0.804198; 0.421130;,
         0.137224; 0.469419;,
         0.184717; 0.458278;,
         0.188130; 0.358217;,
         0.165565; 0.363510;,
         0.796415; 0.864638;,
         0.804198; 0.755842;,
         0.749662; 0.755997;,
         0.759104; 0.864744;,
         0.812809; 1.000000;,
         0.850122; 1.000000;,
         0.850122; 0.861101;,
         0.812810; 0.861101;,
         0.314945; 1.000000;,
         0.372847; 0.986418;,
         0.291215; 0.856764;,
         0.233313; 0.870346;,
         0.828251; 0.466758;,
         0.828251; 0.504621;,
         0.865563; 0.504621;,
         0.865563; 0.466758;,
         0.562632; 0.371795;,
         0.504804; 0.358096;,
         0.422469; 0.487584;,
         0.480297; 0.501284;,
         0.760135; 1.000000;,
         0.797447; 0.999894;,
         0.796415; 0.864638;,
         0.759104; 0.864744;,
         0.272927; 0.748500;,
         0.272761; 0.661599;,
         0.188130; 0.681451;,
         0.188296; 0.768352;,
         0.850122; 0.861101;,
         0.858734; 0.756039;,
         0.804198; 0.756039;,
         0.812810; 0.861101;,
         0.291215; 0.856764;,
         0.272927; 0.748500;,
         0.188296; 0.768352;,
         0.233313; 0.870346;,
         0.422469; 0.487584;,
         0.376898; 0.589487;,
         0.461420; 0.609510;,
         0.480297; 0.501284;,
         0.272761; 0.661599;,
         0.310961; 0.560275;,
         0.244811; 0.575792;,
         0.188130; 0.681451;,
         0.858734; 0.756039;,
         0.858734; 0.674886;,
         0.804198; 0.674886;,
         0.804198; 0.756039;,
         0.804198; 0.755842;,
         0.803541; 0.669748;,
         0.749005; 0.669903;,
         0.749662; 0.755997;,
         0.376898; 0.589487;,
         0.376260; 0.676387;,
         0.460782; 0.696410;,
         0.461420; 0.609510;,
         0.792900; 0.572602;,
         0.782176; 0.476772;,
         0.767425; 0.476814;,
         0.758163; 0.572701;,
         0.858734; 0.674886;,
         0.848835; 0.588669;,
         0.814097; 0.588669;,
         0.804198; 0.674886;,
         0.803541; 0.669748;,
         0.792900; 0.572602;,
         0.758163; 0.572701;,
         0.749005; 0.669903;,
         0.376260; 0.676387;,
         0.432366; 0.782160;,
         0.498432; 0.797811;,
         0.460782; 0.696410;,
         0.372847; 0.458278;,
         0.376260; 0.358217;,
         0.353695; 0.363510;,
         0.325354; 0.469419;,
         0.432366; 0.782160;,
         0.512331; 0.888695;,
         0.559763; 0.899932;,
         0.498432; 0.797811;,
         0.310961; 0.560275;,
         0.372847; 0.458278;,
         0.325354; 0.469419;,
         0.244811; 0.575792;,
         0.838935; 0.504621;,
         0.848929; 0.588669;,
         0.863679; 0.588669;,
         0.873673; 0.504621;,
         0.932584; 0.479609;,
         0.932584; 0.464854;,
         0.908410; 0.464854;,
         0.908410; 0.479609;,
         0.932491; 0.588669;,
         0.932491; 0.495657;,
         0.908410; 0.494364;,
         0.917797; 0.587880;,
         0.782176; 0.476772;,
         0.804198; 0.377875;,
         0.780025; 0.377944;,
         0.767425; 0.476814;,
         0.512331; 0.888695;,
         0.540097; 0.994661;,
         0.562632; 1.000000;,
         0.559763; 0.899932;,
         0.991952; 1.000000;,
         0.991951; 0.000000;,
         0.983903; 0.000000;,
         0.983903; 1.000000;,
         0.991952; 0.026214;,
         0.991952; 1.000000;,
         1.000000; 1.000000;,
         1.000000; 0.026214;,
         0.975855; 1.000000;,
         0.975855; 0.000000;,
         0.967806; 0.000000;,
         0.967806; 1.000000;,
         0.975855; 0.000000;,
         0.975855; 1.000000;,
         0.983903; 1.000000;,
         0.983903; 0.000000;,
         0.865563; 0.499708;,
         0.873612; 0.499708;,
         0.873612; 0.494795;,
         0.865563; 0.494795;,
         0.873612; 0.499708;,
         0.865563; 0.499708;,
         0.865563; 0.504621;,
         0.873612; 0.504621;;
      } // End of Cube UV coordinates
      MeshMaterialList { // Cube material list
        1;
        58;
        0,
        0,
        0,
        0,
        0,
        0,
        0,
        0,
        0,
        0,
        0,
        0,
        0,
        0,
        0,
        0,
        0,
        0,
        0,
        0,
        0,
        0,
        0,
        0,
        0,
        0,
        0,
        0,
        0,
        0,
        0,
        0,
        0,
        0,
        0,
        0,
        0,
        0,
        0,
        0,
        0,
        0,
        0,
        0,
        0,
        0,
        0,
        0,
        0,
        0,
        0,
        0,
        0,
        0,
        0,
        0,
        0,
        0;
        Material Material_002 {
           0.640000; 0.640000; 0.640000; 1.000000;;
           96.078431;
           0.500000; 0.500000; 0.500000;;
           0.000000; 0.000000; 0.000000;;
        }
      } // End of Cube material list
    } // End of Cube mesh
  } // End of Cube
} // End of Root
