xof 0303txt 0032

Frame Root {
  FrameTransformMatrix {
     1.000000, 0.000000, 0.000000, 0.000000,
     0.000000,-0.000000, 1.000000, 0.000000,
     0.000000, 1.000000, 0.000000, 0.000000,
     0.000000, 0.000000, 0.000000, 1.000000;;
  }
  Frame Cube_001 {
    FrameTransformMatrix {
       1.000000, 0.000000, 0.000000, 0.000000,
       0.000000, 1.000000, 0.000000, 0.000000,
       0.000000, 0.000000, 1.000000, 0.000000,
       0.000000, 0.000000, 0.000000, 1.000000;;
    }
    Mesh { // Cube_001 mesh
      336;
      -0.010738;-0.000699; 0.065518;,
      -0.010886;-0.000847; 0.324887;,
      -0.010886; 0.004130; 0.324887;,
      -0.010738; 0.003982; 0.065518;,
      -0.010738; 0.003982; 0.065518;,
      -0.010886; 0.004130; 0.324887;,
      -0.005909; 0.004130; 0.324887;,
      -0.006058; 0.003982; 0.065518;,
      -0.006058; 0.003982; 0.065518;,
      -0.005909; 0.004130; 0.324887;,
      -0.005909;-0.000847; 0.324887;,
      -0.006058;-0.000699; 0.065518;,
      -0.006058;-0.000699; 0.065518;,
      -0.005909;-0.000847; 0.324887;,
      -0.010886;-0.000847; 0.324887;,
      -0.010738;-0.000699; 0.065518;,
      -0.006058;-0.000699; 0.065518;,
      -0.010738;-0.000699; 0.065518;,
      -0.011758;-0.001719; 0.061994;,
      -0.005038;-0.001719; 0.061994;,
      -0.005909;-0.000847; 0.324887;,
      -0.005909; 0.004130; 0.324887;,
      -0.004796; 0.005244; 0.327471;,
      -0.004796;-0.001961; 0.327471;,
      -0.012000;-0.001961; 0.327471;,
      -0.004796;-0.001961; 0.327471;,
      -0.006838; 0.000082; 0.339510;,
      -0.009958; 0.000082; 0.339510;,
      -0.010886; 0.004130; 0.324887;,
      -0.010886;-0.000847; 0.324887;,
      -0.012000;-0.001961; 0.327471;,
      -0.012000; 0.005244; 0.327471;,
      -0.010886;-0.000847; 0.324887;,
      -0.005909;-0.000847; 0.324887;,
      -0.004796;-0.001961; 0.327471;,
      -0.012000;-0.001961; 0.327471;,
      -0.005909; 0.004130; 0.324887;,
      -0.010886; 0.004130; 0.324887;,
      -0.012000; 0.005244; 0.327471;,
      -0.004796; 0.005244; 0.327471;,
      -0.006838; 0.003201; 0.339510;,
      -0.009958; 0.003201; 0.339510;,
      -0.009958; 0.000082; 0.339510;,
      -0.006838; 0.000082; 0.339510;,
      -0.004796; 0.005244; 0.327471;,
      -0.012000; 0.005244; 0.327471;,
      -0.009958; 0.003201; 0.339510;,
      -0.006838; 0.003201; 0.339510;,
      -0.004796;-0.001961; 0.327471;,
      -0.004796; 0.005244; 0.327471;,
      -0.006838; 0.003201; 0.339510;,
      -0.006838; 0.000082; 0.339510;,
      -0.012000; 0.005244; 0.327471;,
      -0.012000;-0.001961; 0.327471;,
      -0.009958; 0.000082; 0.339510;,
      -0.009958; 0.003201; 0.339510;,
      -0.005038; 0.005002; 0.061994;,
      -0.005038;-0.001719; 0.061994;,
      -0.005038;-0.001719; 0.042906;,
      -0.005038; 0.005002; 0.042906;,
      -0.010738; 0.003982; 0.065518;,
      -0.006058; 0.003982; 0.065518;,
      -0.005038; 0.005002; 0.061994;,
      -0.011758; 0.005002; 0.061994;,
      -0.010738;-0.000699; 0.065518;,
      -0.010738; 0.003982; 0.065518;,
      -0.011758; 0.005002; 0.061994;,
      -0.011758;-0.001719; 0.061994;,
      -0.006058; 0.003982; 0.065518;,
      -0.006058;-0.000699; 0.065518;,
      -0.005038;-0.001719; 0.061994;,
      -0.005038; 0.005002; 0.061994;,
      -0.011758; 0.005002; 0.042906;,
      -0.005038; 0.005002; 0.042906;,
      -0.005038;-0.001719; 0.042906;,
      -0.011758;-0.001719; 0.042906;,
      -0.011758;-0.001719; 0.061994;,
      -0.011758; 0.005002; 0.061994;,
      -0.011758; 0.005002; 0.042906;,
      -0.011758;-0.001719; 0.042906;,
      -0.005038;-0.001719; 0.061994;,
      -0.011758;-0.001719; 0.061994;,
      -0.011758;-0.001719; 0.042906;,
      -0.005038;-0.001719; 0.042906;,
      -0.011758; 0.005002; 0.061994;,
      -0.005038; 0.005002; 0.061994;,
      -0.005038; 0.005002; 0.042906;,
      -0.011758; 0.005002; 0.042906;,
      -0.022613; 0.083771; 0.201363;,
      -0.035504; 0.080257; 0.201363;,
      -0.054689; 0.138915; 0.184692;,
      -0.035847; 0.144051; 0.184692;,
      -0.001184; 0.005150; 0.223577;,
      -0.022613; 0.083771; 0.223577;,
      -0.035504; 0.080257; 0.223577;,
      -0.014075; 0.001637; 0.223577;,
      -0.014075; 0.001637; 0.223577;,
      -0.035504; 0.080257; 0.223577;,
      -0.035504; 0.080257; 0.201363;,
      -0.014075; 0.001637; 0.201363;,
      -0.014075; 0.001637; 0.201363;,
      -0.001184; 0.005150; 0.201363;,
      -0.001184; 0.005150; 0.223577;,
      -0.014075; 0.001637; 0.223577;,
      -0.001184; 0.005150; 0.201363;,
      -0.022613; 0.083771; 0.201363;,
      -0.022613; 0.083771; 0.223577;,
      -0.001184; 0.005150; 0.223577;,
      -0.014075; 0.001637; 0.201363;,
      -0.035504; 0.080257; 0.201363;,
      -0.022613; 0.083771; 0.201363;,
      -0.001184; 0.005150; 0.201363;,
      -0.054689; 0.138915; 0.184692;,
      -0.054689; 0.138915; 0.217159;,
      -0.067209; 0.184850; 0.198926;,
      -0.067209; 0.184850; 0.166459;,
      -0.035504; 0.080257; 0.223577;,
      -0.022613; 0.083771; 0.223577;,
      -0.035847; 0.144051; 0.217159;,
      -0.054689; 0.138915; 0.217159;,
      -0.035504; 0.080257; 0.201363;,
      -0.035504; 0.080257; 0.223577;,
      -0.054689; 0.138915; 0.217159;,
      -0.054689; 0.138915; 0.184692;,
      -0.022613; 0.083771; 0.223577;,
      -0.022613; 0.083771; 0.201363;,
      -0.035847; 0.144051; 0.184692;,
      -0.035847; 0.144051; 0.217159;,
      -0.067209; 0.184850; 0.166459;,
      -0.067209; 0.184850; 0.198926;,
      -0.077090; 0.234583; 0.157743;,
      -0.077090; 0.234583; 0.132365;,
      -0.054689; 0.138915; 0.217159;,
      -0.035847; 0.144051; 0.217159;,
      -0.048367; 0.189985; 0.198926;,
      -0.067209; 0.184850; 0.198926;,
      -0.035847; 0.144051; 0.184692;,
      -0.054689; 0.138915; 0.184692;,
      -0.067209; 0.184850; 0.166459;,
      -0.048367; 0.189985; 0.166459;,
      -0.035847; 0.144051; 0.217159;,
      -0.035847; 0.144051; 0.184692;,
      -0.048367; 0.189985; 0.166459;,
      -0.048367; 0.189985; 0.198926;,
      -0.065088; 0.237854; 0.132366;,
      -0.077090; 0.234583; 0.132365;,
      -0.086235; 0.281745; 0.090213;,
      -0.081139; 0.283134; 0.090213;,
      -0.067209; 0.184850; 0.198926;,
      -0.048367; 0.189985; 0.198926;,
      -0.065088; 0.237854; 0.157743;,
      -0.077090; 0.234583; 0.157743;,
      -0.048367; 0.189985; 0.166459;,
      -0.067209; 0.184850; 0.166459;,
      -0.077090; 0.234583; 0.132365;,
      -0.065088; 0.237854; 0.132366;,
      -0.048367; 0.189985; 0.198926;,
      -0.048367; 0.189985; 0.166459;,
      -0.065088; 0.237854; 0.132366;,
      -0.065088; 0.237854; 0.157743;,
      -0.086235; 0.281745; 0.090213;,
      -0.086235; 0.281745; 0.108433;,
      -0.095916; 0.335447; 0.076671;,
      -0.095916; 0.335447; 0.068014;,
      -0.065088; 0.237854; 0.157743;,
      -0.065088; 0.237854; 0.132366;,
      -0.081139; 0.283134; 0.090213;,
      -0.081139; 0.283134; 0.108433;,
      -0.077090; 0.234583; 0.132365;,
      -0.077090; 0.234583; 0.157743;,
      -0.086235; 0.281745; 0.108433;,
      -0.086235; 0.281745; 0.090213;,
      -0.077090; 0.234583; 0.157743;,
      -0.065088; 0.237854; 0.157743;,
      -0.081139; 0.283134; 0.108433;,
      -0.086235; 0.281745; 0.108433;,
      -0.087564; 0.337724; 0.068014;,
      -0.095916; 0.335447; 0.068014;,
      -0.095916; 0.335447; 0.076671;,
      -0.087564; 0.337724; 0.076671;,
      -0.086235; 0.281745; 0.108433;,
      -0.081139; 0.283134; 0.108433;,
      -0.087564; 0.337724; 0.076671;,
      -0.095916; 0.335447; 0.076671;,
      -0.081139; 0.283134; 0.090213;,
      -0.086235; 0.281745; 0.090213;,
      -0.095916; 0.335447; 0.068014;,
      -0.087564; 0.337724; 0.068014;,
      -0.081139; 0.283134; 0.108433;,
      -0.081139; 0.283134; 0.090213;,
      -0.087564; 0.337724; 0.068014;,
      -0.087564; 0.337724; 0.076671;,
       0.020290;-0.073635; 0.201364;,
       0.039474;-0.132292; 0.184692;,
       0.020632;-0.137428; 0.184692;,
       0.007398;-0.077149; 0.201364;,
      -0.001139; 0.004986; 0.223577;,
      -0.014031; 0.001472; 0.223577;,
       0.007398;-0.077149; 0.223577;,
       0.020290;-0.073635; 0.223577;,
      -0.014031; 0.001472; 0.223577;,
      -0.014031; 0.001472; 0.201363;,
       0.007398;-0.077149; 0.201364;,
       0.007398;-0.077149; 0.223577;,
      -0.014031; 0.001472; 0.201363;,
      -0.014031; 0.001472; 0.223577;,
      -0.001139; 0.004986; 0.223577;,
      -0.001139; 0.004986; 0.201363;,
      -0.001139; 0.004986; 0.201363;,
      -0.001139; 0.004986; 0.223577;,
       0.020290;-0.073635; 0.223577;,
       0.020290;-0.073635; 0.201364;,
      -0.014031; 0.001472; 0.201363;,
      -0.001139; 0.004986; 0.201363;,
       0.020290;-0.073635; 0.201364;,
       0.007398;-0.077149; 0.201364;,
       0.020632;-0.137428; 0.184692;,
       0.033152;-0.183363; 0.166459;,
       0.033152;-0.183363; 0.198926;,
       0.020632;-0.137428; 0.217159;,
       0.007398;-0.077149; 0.223577;,
       0.020632;-0.137428; 0.217159;,
       0.039474;-0.132292; 0.217159;,
       0.020290;-0.073635; 0.223577;,
       0.007398;-0.077149; 0.201364;,
       0.020632;-0.137428; 0.184692;,
       0.020632;-0.137428; 0.217159;,
       0.007398;-0.077149; 0.223577;,
       0.020290;-0.073635; 0.223577;,
       0.039474;-0.132292; 0.217159;,
       0.039474;-0.132292; 0.184692;,
       0.020290;-0.073635; 0.201364;,
       0.033152;-0.183363; 0.166459;,
       0.049873;-0.231232; 0.132366;,
       0.049873;-0.231232; 0.157743;,
       0.033152;-0.183363; 0.198926;,
       0.020632;-0.137428; 0.217159;,
       0.033152;-0.183363; 0.198926;,
       0.051994;-0.178227; 0.198926;,
       0.039474;-0.132292; 0.217159;,
       0.039474;-0.132292; 0.184692;,
       0.051994;-0.178227; 0.166459;,
       0.033152;-0.183363; 0.166459;,
       0.020632;-0.137428; 0.184692;,
       0.039474;-0.132292; 0.217159;,
       0.051994;-0.178227; 0.198926;,
       0.051994;-0.178227; 0.166459;,
       0.039474;-0.132292; 0.184692;,
       0.061875;-0.227961; 0.132366;,
       0.071020;-0.275122; 0.090214;,
       0.065924;-0.276511; 0.090214;,
       0.049873;-0.231232; 0.132366;,
       0.033152;-0.183363; 0.198926;,
       0.049873;-0.231232; 0.157743;,
       0.061875;-0.227961; 0.157743;,
       0.051994;-0.178227; 0.198926;,
       0.051994;-0.178227; 0.166459;,
       0.061875;-0.227961; 0.132366;,
       0.049873;-0.231232; 0.132366;,
       0.033152;-0.183363; 0.166459;,
       0.051994;-0.178227; 0.198926;,
       0.061875;-0.227961; 0.157743;,
       0.061875;-0.227961; 0.132366;,
       0.051994;-0.178227; 0.166459;,
       0.065924;-0.276511; 0.090214;,
       0.084832;-0.327699; 0.068014;,
       0.084832;-0.327699; 0.076671;,
       0.065924;-0.276511; 0.108434;,
       0.061875;-0.227961; 0.157743;,
       0.071020;-0.275122; 0.108434;,
       0.071020;-0.275122; 0.090214;,
       0.061875;-0.227961; 0.132366;,
       0.049873;-0.231232; 0.132366;,
       0.065924;-0.276511; 0.090214;,
       0.065924;-0.276511; 0.108434;,
       0.049873;-0.231232; 0.157743;,
       0.049873;-0.231232; 0.157743;,
       0.065924;-0.276511; 0.108434;,
       0.071020;-0.275122; 0.108434;,
       0.061875;-0.227961; 0.157743;,
       0.093184;-0.325423; 0.068014;,
       0.093184;-0.325423; 0.076671;,
       0.084832;-0.327699; 0.076671;,
       0.084832;-0.327699; 0.068014;,
       0.065924;-0.276511; 0.108434;,
       0.084832;-0.327699; 0.076671;,
       0.093184;-0.325423; 0.076671;,
       0.071020;-0.275122; 0.108434;,
       0.071020;-0.275122; 0.090214;,
       0.093184;-0.325423; 0.068014;,
       0.084832;-0.327699; 0.068014;,
       0.065924;-0.276511; 0.090214;,
       0.071020;-0.275122; 0.108434;,
       0.093184;-0.325423; 0.076671;,
       0.093184;-0.325423; 0.068014;,
       0.071020;-0.275122; 0.090214;,
      -0.007925; 0.001847; 0.049076;,
      -0.084898; 0.284253; 0.092704;,
      -0.084898; 0.284253; 0.089822;,
      -0.007925; 0.001847; 0.046193;,
      -0.007925; 0.001847; 0.046193;,
      -0.084898; 0.284253; 0.089822;,
      -0.082117; 0.285011; 0.089822;,
      -0.005145; 0.002605; 0.046193;,
      -0.005145; 0.002605; 0.046193;,
      -0.082117; 0.285011; 0.089822;,
      -0.082117; 0.285011; 0.092704;,
      -0.005145; 0.002605; 0.049076;,
      -0.005145; 0.002605; 0.049076;,
      -0.082117; 0.285011; 0.092704;,
      -0.084898; 0.284253; 0.092704;,
      -0.007925; 0.001847; 0.049076;,
       0.069380;-0.281776; 0.089822;,
       0.072160;-0.281018; 0.089822;,
       0.072160;-0.281018; 0.092704;,
       0.069380;-0.281776; 0.092704;,
      -0.082117; 0.285011; 0.089822;,
      -0.084898; 0.284253; 0.089822;,
      -0.084898; 0.284253; 0.092704;,
      -0.082117; 0.285011; 0.092704;,
       0.072160;-0.281018; 0.092704;,
      -0.005145; 0.002605; 0.049076;,
      -0.007925; 0.001847; 0.049076;,
       0.069380;-0.281776; 0.092704;,
       0.072160;-0.281018; 0.089822;,
      -0.005145; 0.002605; 0.046193;,
      -0.005145; 0.002605; 0.049076;,
       0.072160;-0.281018; 0.092704;,
       0.069380;-0.281776; 0.089822;,
      -0.007925; 0.001847; 0.046193;,
      -0.005145; 0.002605; 0.046193;,
       0.072160;-0.281018; 0.089822;,
       0.069380;-0.281776; 0.092704;,
      -0.007925; 0.001847; 0.049076;,
      -0.007925; 0.001847; 0.046193;,
       0.069380;-0.281776; 0.089822;;
      84;
      4;3,2,1,0;,
      4;7,6,5,4;,
      4;11,10,9,8;,
      4;15,14,13,12;,
      4;19,18,17,16;,
      4;23,22,21,20;,
      4;27,26,25,24;,
      4;31,30,29,28;,
      4;35,34,33,32;,
      4;39,38,37,36;,
      4;43,42,41,40;,
      4;47,46,45,44;,
      4;51,50,49,48;,
      4;55,54,53,52;,
      4;59,58,57,56;,
      4;63,62,61,60;,
      4;67,66,65,64;,
      4;71,70,69,68;,
      4;75,74,73,72;,
      4;79,78,77,76;,
      4;83,82,81,80;,
      4;87,86,85,84;,
      4;91,90,89,88;,
      4;95,94,93,92;,
      4;99,98,97,96;,
      4;103,102,101,100;,
      4;107,106,105,104;,
      4;111,110,109,108;,
      4;115,114,113,112;,
      4;119,118,117,116;,
      4;123,122,121,120;,
      4;127,126,125,124;,
      4;131,130,129,128;,
      4;135,134,133,132;,
      4;139,138,137,136;,
      4;143,142,141,140;,
      4;147,146,145,144;,
      4;151,150,149,148;,
      4;155,154,153,152;,
      4;159,158,157,156;,
      4;163,162,161,160;,
      4;167,166,165,164;,
      4;171,170,169,168;,
      4;175,174,173,172;,
      4;179,178,177,176;,
      4;183,182,181,180;,
      4;187,186,185,184;,
      4;191,190,189,188;,
      4;195,194,193,192;,
      4;199,198,197,196;,
      4;203,202,201,200;,
      4;207,206,205,204;,
      4;211,210,209,208;,
      4;215,214,213,212;,
      4;219,218,217,216;,
      4;223,222,221,220;,
      4;227,226,225,224;,
      4;231,230,229,228;,
      4;235,234,233,232;,
      4;239,238,237,236;,
      4;243,242,241,240;,
      4;247,246,245,244;,
      4;251,250,249,248;,
      4;255,254,253,252;,
      4;259,258,257,256;,
      4;263,262,261,260;,
      4;267,266,265,264;,
      4;271,270,269,268;,
      4;275,274,273,272;,
      4;279,278,277,276;,
      4;283,282,281,280;,
      4;287,286,285,284;,
      4;291,290,289,288;,
      4;295,294,293,292;,
      4;299,298,297,296;,
      4;303,302,301,300;,
      4;307,306,305,304;,
      4;311,310,309,308;,
      4;315,314,313,312;,
      4;319,318,317,316;,
      4;323,322,321,320;,
      4;327,326,325,324;,
      4;331,330,329,328;,
      4;335,334,333,332;;
      MeshNormals { // Cube_001 normals
        270;
        -1.000000; 0.000000;-0.000572;,
         0.000000; 1.000000;-0.000572;,
         1.000000; 0.000000;-0.000572;,
         0.000000;-1.000000;-0.000572;,
         0.000000;-0.960585; 0.277988;,
         0.918341; 0.000000;-0.395790;,
         0.000000;-0.985913; 0.167262;,
        -0.918341; 0.000000;-0.395790;,
         0.000000;-0.918341;-0.395790;,
         0.000000; 0.918341;-0.395790;,
         0.000000;-0.000000; 1.000000;,
         0.000000; 0.985913; 0.167262;,
         0.985913; 0.000000; 0.167262;,
        -0.985913; 0.000000; 0.167262;,
         1.000000; 0.000000;-0.000000;,
         0.000000; 0.960585; 0.277988;,
        -0.960585; 0.000000; 0.277988;,
         0.960585; 0.000000; 0.277988;,
         0.000000; 0.000000;-1.000000;,
        -1.000000; 0.000000; 0.000000;,
         0.000000;-1.000000; 0.000000;,
         0.000000; 1.000000;-0.000000;,
         0.734428; 0.085635;-0.673208;,
        -0.676321;-0.298868;-0.673208;,
        -0.636219;-0.409772;-0.653645;,
         0.756157;-0.030274;-0.653645;,
         0.708853;-0.405194; 0.577349;,
         0.660146; 0.202185; 0.723380;,
        -0.671438;-0.160741; 0.723380;,
        -0.405194;-0.708853; 0.577349;,
        -0.405194;-0.708853; 0.577349;,
        -0.671438;-0.160741; 0.723380;,
        -0.676321;-0.298868;-0.673208;,
        -0.405194;-0.708853;-0.577349;,
        -0.405194;-0.708853;-0.577349;,
         0.708853;-0.405194;-0.577349;,
         0.708853;-0.405194; 0.577349;,
        -0.405194;-0.708853; 0.577349;,
         0.708853;-0.405194;-0.577349;,
         0.734428; 0.085635;-0.673208;,
         0.660146; 0.202185; 0.723380;,
         0.708853;-0.405194; 0.577349;,
        -0.405194;-0.708853;-0.577349;,
        -0.676321;-0.298868;-0.673208;,
         0.734428; 0.085635;-0.673208;,
         0.708853;-0.405194;-0.577349;,
        -0.636219;-0.409772;-0.653645;,
        -0.702292;-0.034211; 0.711020;,
        -0.751427; 0.187475; 0.632557;,
        -0.646870;-0.465316;-0.604114;,
        -0.671438;-0.160741; 0.723380;,
         0.660146; 0.202185; 0.723380;,
         0.622547; 0.326884; 0.711020;,
        -0.702292;-0.034211; 0.711020;,
        -0.676321;-0.298868;-0.673208;,
        -0.671438;-0.160741; 0.723380;,
        -0.702292;-0.034211; 0.711020;,
        -0.636219;-0.409772;-0.653645;,
         0.660146; 0.202185; 0.723380;,
         0.734428; 0.085635;-0.673208;,
         0.756157;-0.030274;-0.653645;,
         0.622547; 0.326884; 0.711020;,
        -0.646870;-0.465316;-0.604114;,
        -0.751427; 0.187475; 0.632557;,
        -0.789758; 0.326029; 0.519578;,
        -0.611042;-0.557756;-0.561663;,
        -0.702292;-0.034211; 0.711020;,
         0.622547; 0.326884; 0.711020;,
         0.552355; 0.542863; 0.632557;,
        -0.751427; 0.187475; 0.632557;,
         0.756157;-0.030274;-0.653645;,
        -0.636219;-0.409772;-0.653645;,
        -0.646870;-0.465316;-0.604114;,
         0.793542;-0.072726;-0.604114;,
         0.622547; 0.326884; 0.711020;,
         0.756157;-0.030274;-0.653645;,
         0.793542;-0.072726;-0.604114;,
         0.552355; 0.542863; 0.632557;,
         0.809564;-0.170537;-0.561663;,
        -0.611042;-0.557756;-0.561663;,
        -0.572710;-0.513443;-0.639027;,
         0.725730;-0.260598;-0.636677;,
        -0.751427; 0.187475; 0.632557;,
         0.552355; 0.542863; 0.632557;,
         0.515091; 0.681661; 0.519578;,
        -0.789758; 0.326029; 0.519578;,
         0.793542;-0.072726;-0.604114;,
        -0.646870;-0.465316;-0.604114;,
        -0.611042;-0.557756;-0.561663;,
         0.809564;-0.170537;-0.561663;,
         0.552355; 0.542863; 0.632557;,
         0.793542;-0.072726;-0.604114;,
         0.809564;-0.170537;-0.561663;,
         0.515091; 0.681661; 0.519578;,
        -0.572710;-0.513443;-0.639027;,
        -0.818323; 0.257637; 0.513718;,
        -0.745689; 0.537858; 0.393200;,
        -0.643330; 0.319620;-0.695639;,
         0.515091; 0.681661; 0.519578;,
         0.809564;-0.170537;-0.561663;,
         0.725730;-0.260598;-0.636677;,
         0.578265; 0.604236; 0.548143;,
        -0.611042;-0.557756;-0.561663;,
        -0.789758; 0.326029; 0.519578;,
        -0.818323; 0.257637; 0.513718;,
        -0.572710;-0.513443;-0.639027;,
        -0.789758; 0.326029; 0.519578;,
         0.515091; 0.681661; 0.519578;,
         0.578265; 0.604236; 0.548143;,
        -0.818323; 0.257637; 0.513718;,
         0.461959; 0.575610;-0.674703;,
        -0.643330; 0.319620;-0.695639;,
        -0.745689; 0.537858; 0.393200;,
         0.471694; 0.786859; 0.397870;,
        -0.818323; 0.257637; 0.513718;,
         0.578265; 0.604236; 0.548143;,
         0.471694; 0.786859; 0.397870;,
        -0.745689; 0.537858; 0.393200;,
         0.725730;-0.260598;-0.636677;,
        -0.572710;-0.513443;-0.639027;,
        -0.643330; 0.319620;-0.695639;,
         0.461959; 0.575610;-0.674703;,
         0.578265; 0.604236; 0.548143;,
         0.725730;-0.260598;-0.636677;,
         0.461959; 0.575610;-0.674703;,
         0.471694; 0.786859; 0.397870;,
         0.676321; 0.298868;-0.673208;,
         0.636219; 0.409772;-0.653645;,
        -0.756157; 0.030274;-0.653645;,
        -0.734428;-0.085635;-0.673208;,
         0.405194; 0.708853; 0.577349;,
        -0.708853; 0.405194; 0.577349;,
        -0.660146;-0.202185; 0.723380;,
         0.671438; 0.160741; 0.723380;,
        -0.708853; 0.405194; 0.577349;,
        -0.708853; 0.405194;-0.577349;,
        -0.734428;-0.085635;-0.673208;,
        -0.660146;-0.202185; 0.723380;,
        -0.708853; 0.405194;-0.577349;,
        -0.708853; 0.405194; 0.577349;,
         0.405194; 0.708853; 0.577349;,
         0.405194; 0.708853;-0.577349;,
         0.405194; 0.708853;-0.577349;,
         0.405194; 0.708853; 0.577349;,
         0.671438; 0.160741; 0.723380;,
         0.676321; 0.298868;-0.673208;,
        -0.708853; 0.405194;-0.577349;,
         0.405194; 0.708853;-0.577349;,
         0.676321; 0.298868;-0.673208;,
        -0.734428;-0.085635;-0.673208;,
        -0.756157; 0.030274;-0.653645;,
        -0.793542; 0.072726;-0.604114;,
        -0.552355;-0.542863; 0.632557;,
        -0.622547;-0.326884; 0.711020;,
        -0.660146;-0.202185; 0.723380;,
        -0.622547;-0.326884; 0.711020;,
         0.702292; 0.034211; 0.711020;,
         0.671438; 0.160741; 0.723380;,
        -0.734428;-0.085635;-0.673208;,
        -0.756157; 0.030274;-0.653645;,
        -0.622547;-0.326884; 0.711020;,
        -0.660146;-0.202185; 0.723380;,
         0.671438; 0.160741; 0.723380;,
         0.702292; 0.034211; 0.711020;,
         0.636219; 0.409772;-0.653645;,
         0.676321; 0.298868;-0.673208;,
        -0.793542; 0.072726;-0.604114;,
        -0.809564; 0.170537;-0.561663;,
        -0.515091;-0.681661; 0.519578;,
        -0.552355;-0.542863; 0.632557;,
        -0.622547;-0.326884; 0.711020;,
        -0.552355;-0.542863; 0.632557;,
         0.751427;-0.187475; 0.632557;,
         0.702292; 0.034211; 0.711020;,
         0.636219; 0.409772;-0.653645;,
         0.646870; 0.465316;-0.604114;,
        -0.793542; 0.072726;-0.604114;,
        -0.756157; 0.030274;-0.653645;,
         0.702292; 0.034211; 0.711020;,
         0.751427;-0.187475; 0.632557;,
         0.646870; 0.465316;-0.604114;,
         0.636219; 0.409772;-0.653645;,
         0.611042; 0.557756;-0.561663;,
         0.493118; 0.592822;-0.636677;,
        -0.754021; 0.151799;-0.639027;,
        -0.809564; 0.170537;-0.561663;,
        -0.552355;-0.542863; 0.632557;,
        -0.515091;-0.681661; 0.519578;,
         0.789758;-0.326029; 0.519578;,
         0.751427;-0.187475; 0.632557;,
         0.646870; 0.465316;-0.604114;,
         0.611042; 0.557756;-0.561663;,
        -0.809564; 0.170537;-0.561663;,
        -0.793542; 0.072726;-0.604114;,
         0.751427;-0.187475; 0.632557;,
         0.789758;-0.326029; 0.519578;,
         0.611042; 0.557756;-0.561663;,
         0.646870; 0.465316;-0.604114;,
        -0.754021; 0.151799;-0.639027;,
        -0.392163;-0.601886;-0.695639;,
        -0.369610;-0.841853; 0.393200;,
        -0.574419;-0.637257; 0.513718;,
         0.789758;-0.326029; 0.519578;,
         0.804895;-0.227210; 0.548143;,
         0.493118; 0.592822;-0.636677;,
         0.611042; 0.557756;-0.561663;,
        -0.809564; 0.170537;-0.561663;,
        -0.754021; 0.151799;-0.639027;,
        -0.574419;-0.637257; 0.513718;,
        -0.515091;-0.681661; 0.519578;,
        -0.515091;-0.681661; 0.519578;,
        -0.574419;-0.637257; 0.513718;,
         0.804895;-0.227210; 0.548143;,
         0.789758;-0.326029; 0.519578;,
         0.690146;-0.261574;-0.674703;,
         0.805750;-0.438673; 0.397870;,
        -0.369610;-0.841853; 0.393200;,
        -0.392163;-0.601886;-0.695639;,
        -0.574419;-0.637257; 0.513718;,
        -0.369610;-0.841853; 0.393200;,
         0.805750;-0.438673; 0.397870;,
         0.804895;-0.227210; 0.548143;,
         0.493118; 0.592822;-0.636677;,
         0.690146;-0.261574;-0.674703;,
        -0.392163;-0.601886;-0.695639;,
        -0.754021; 0.151799;-0.639027;,
         0.804895;-0.227210; 0.548143;,
         0.805750;-0.438673; 0.397870;,
         0.690146;-0.261574;-0.674703;,
         0.493118; 0.592822;-0.636677;,
        -0.715598;-0.195257; 0.670644;,
        -0.690970; 0.367687; 0.622333;,
        -0.726371; 0.438429;-0.529252;,
        -0.651723;-0.177374;-0.737388;,
        -0.651723;-0.177374;-0.737388;,
        -0.726371; 0.438429;-0.529252;,
         0.403455; 0.746361;-0.529252;,
         0.651601; 0.177831;-0.737388;,
         0.651601; 0.177831;-0.737388;,
         0.403455; 0.746361;-0.529252;,
         0.408826; 0.667470; 0.622333;,
         0.715690; 0.194830; 0.670644;,
         0.715690; 0.194830; 0.670644;,
         0.408826; 0.667470; 0.622333;,
        -0.690970; 0.367687; 0.622333;,
        -0.715598;-0.195257; 0.670644;,
        -0.403455;-0.746208;-0.529466;,
         0.726310;-0.438276;-0.529466;,
         0.691031;-0.367870; 0.622150;,
        -0.408795;-0.667653; 0.622150;,
         0.403455; 0.746361;-0.529252;,
        -0.726371; 0.438429;-0.529252;,
        -0.690970; 0.367687; 0.622333;,
         0.408826; 0.667470; 0.622333;,
         0.691031;-0.367870; 0.622150;,
         0.715690; 0.194830; 0.670644;,
        -0.715598;-0.195257; 0.670644;,
        -0.408795;-0.667653; 0.622150;,
         0.726310;-0.438276;-0.529466;,
         0.651601; 0.177831;-0.737388;,
         0.715690; 0.194830; 0.670644;,
         0.691031;-0.367870; 0.622150;,
        -0.403455;-0.746208;-0.529466;,
        -0.651723;-0.177374;-0.737388;,
         0.651601; 0.177831;-0.737388;,
         0.726310;-0.438276;-0.529466;,
        -0.408795;-0.667653; 0.622150;,
        -0.715598;-0.195257; 0.670644;,
        -0.651723;-0.177374;-0.737388;,
        -0.403455;-0.746208;-0.529466;;
        84;
        4;0,0,0,0;,
        4;1,1,1,1;,
        4;2,2,2,2;,
        4;3,3,3,3;,
        4;4,4,4,4;,
        4;5,5,5,5;,
        4;6,6,6,6;,
        4;7,7,7,7;,
        4;8,8,8,8;,
        4;9,9,9,9;,
        4;10,10,10,10;,
        4;11,11,11,11;,
        4;12,12,12,12;,
        4;13,13,13,13;,
        4;14,14,14,14;,
        4;15,15,15,15;,
        4;16,16,16,16;,
        4;17,17,17,17;,
        4;18,18,18,18;,
        4;19,19,19,19;,
        4;20,20,20,20;,
        4;21,21,21,21;,
        4;25,24,23,22;,
        4;29,28,27,26;,
        4;33,32,31,30;,
        4;37,36,35,34;,
        4;41,40,39,38;,
        4;45,44,43,42;,
        4;49,48,47,46;,
        4;53,52,51,50;,
        4;57,56,55,54;,
        4;61,60,59,58;,
        4;65,64,63,62;,
        4;69,68,67,66;,
        4;73,72,71,70;,
        4;77,76,75,74;,
        4;81,80,79,78;,
        4;85,84,83,82;,
        4;89,88,87,86;,
        4;93,92,91,90;,
        4;97,96,95,94;,
        4;101,100,99,98;,
        4;105,104,103,102;,
        4;109,108,107,106;,
        4;113,112,111,110;,
        4;117,116,115,114;,
        4;121,120,119,118;,
        4;125,124,123,122;,
        4;129,128,127,126;,
        4;133,132,131,130;,
        4;137,136,135,134;,
        4;141,140,139,138;,
        4;145,144,143,142;,
        4;149,148,147,146;,
        4;153,152,151,150;,
        4;157,156,155,154;,
        4;161,160,159,158;,
        4;165,164,163,162;,
        4;169,168,167,166;,
        4;173,172,171,170;,
        4;177,176,175,174;,
        4;181,180,179,178;,
        4;185,184,183,182;,
        4;189,188,187,186;,
        4;193,192,191,190;,
        4;197,196,195,194;,
        4;201,200,199,198;,
        4;205,204,203,202;,
        4;209,208,207,206;,
        4;213,212,211,210;,
        4;217,216,215,214;,
        4;221,220,219,218;,
        4;225,224,223,222;,
        4;229,228,227,226;,
        4;233,232,231,230;,
        4;237,236,235,234;,
        4;241,240,239,238;,
        4;245,244,243,242;,
        4;249,248,247,246;,
        4;253,252,251,250;,
        4;257,256,255,254;,
        4;261,260,259,258;,
        4;265,264,263,262;,
        4;269,268,267,266;;
      } // End of Cube_001 normals
      MeshTextureCoords { // Cube_001 UV coordinates
        336;
         0.974664; 0.532975;,
         0.974705; 0.975070;,
         0.985029; 0.975070;,
         0.984373; 0.532975;,
         0.940716; 0.961447;,
         0.940649; 0.519360;,
         0.930175; 0.519360;,
         0.930865; 0.961447;,
         0.959720; 0.532975;,
         0.959761; 0.975070;,
         0.970084; 0.975070;,
         0.969428; 0.532975;,
         0.955888; 0.961446;,
         0.955813; 0.519360;,
         0.945338; 0.519360;,
         0.946038; 0.961447;,
         0.955888; 0.961446;,
         0.946038; 0.961447;,
         0.943678; 0.967465;,
         0.957822; 0.967465;,
         0.970084; 0.975070;,
         0.959761; 0.975070;,
         0.957916; 0.979470;,
         0.972860; 0.979470;,
         0.942752; 0.514967;,
         0.957915; 0.514966;,
         0.954037; 0.494425;,
         0.947471; 0.494425;,
         0.985029; 0.975070;,
         0.974705; 0.975070;,
         0.972860; 0.979470;,
         0.987805; 0.979470;,
         0.945338; 0.519360;,
         0.955813; 0.519360;,
         0.957915; 0.514966;,
         0.942752; 0.514967;,
         0.930175; 0.519360;,
         0.940649; 0.519360;,
         0.942752; 0.514967;,
         0.927588; 0.514967;,
         0.793755; 0.402730;,
         0.793755; 0.397413;,
         0.787155; 0.397413;,
         0.787155; 0.402730;,
         0.927588; 0.514967;,
         0.942752; 0.514967;,
         0.938874; 0.494425;,
         0.932308; 0.494425;,
         0.972860; 0.979470;,
         0.957916; 0.979470;,
         0.961317; 1.000000;,
         0.967789; 1.000000;,
         0.987805; 0.979470;,
         0.972860; 0.979470;,
         0.976262; 1.000000;,
         0.982733; 1.000000;,
         0.958024; 0.526963;,
         0.971964; 0.526963;,
         0.971943; 0.494428;,
         0.958003; 0.494428;,
         0.940716; 0.961447;,
         0.930865; 0.961447;,
         0.928505; 0.967465;,
         0.942649; 0.967465;,
         0.974664; 0.532975;,
         0.984373; 0.532975;,
         0.986908; 0.526963;,
         0.972969; 0.526963;,
         0.959720; 0.532975;,
         0.969428; 0.532975;,
         0.971964; 0.526963;,
         0.958024; 0.526963;,
         0.787155; 0.402730;,
         0.787155; 0.414185;,
         0.801372; 0.414185;,
         0.801372; 0.402730;,
         0.972969; 0.526963;,
         0.986908; 0.526963;,
         0.986887; 0.494428;,
         0.972947; 0.494428;,
         0.957822; 0.967465;,
         0.943678; 0.967465;,
         0.943704; 1.000000;,
         0.957848; 1.000000;,
         0.942649; 0.967465;,
         0.928505; 0.967465;,
         0.928531; 1.000000;,
         0.942675; 1.000000;,
         0.839106; 0.553252;,
         0.810839; 0.553135;,
         0.803643; 0.658166;,
         0.844958; 0.658337;,
         0.921064; 1.000000;,
         0.921064; 0.861101;,
         0.892797; 0.861101;,
         0.892797; 1.000000;,
         0.717488; 0.358381;,
         0.655240; 0.487561;,
         0.699044; 0.501271;,
         0.761291; 0.372091;,
         0.393764; 0.322457;,
         0.365880; 0.322480;,
         0.365880; 0.360342;,
         0.393764; 0.360318;,
         0.337996; 0.986287;,
         0.275677; 0.857130;,
         0.231875; 0.870843;,
         0.294194; 1.000000;,
         0.811727; 0.414238;,
         0.810839; 0.553135;,
         0.839106; 0.553252;,
         0.839993; 0.414355;,
         0.685014; 0.608941;,
         0.620989; 0.588903;,
         0.620576; 0.675631;,
         0.684600; 0.695669;,
         0.892797; 0.861101;,
         0.921064; 0.861101;,
         0.927588; 0.756040;,
         0.886273; 0.756040;,
         0.699044; 0.501271;,
         0.655240; 0.487561;,
         0.620989; 0.588903;,
         0.685014; 0.608941;,
         0.231875; 0.870843;,
         0.275677; 0.857130;,
         0.261268; 0.748805;,
         0.197246; 0.768848;,
         0.684600; 0.695669;,
         0.620576; 0.675631;,
         0.662947; 0.781611;,
         0.712990; 0.797274;,
         0.886273; 0.756040;,
         0.927588; 0.756040;,
         0.927588; 0.674890;,
         0.886273; 0.674890;,
         0.844958; 0.658337;,
         0.803643; 0.658166;,
         0.803125; 0.739314;,
         0.844439; 0.739485;,
         0.197246; 0.768848;,
         0.261268; 0.748805;,
         0.260811; 0.662088;,
         0.196789; 0.682131;,
         0.836389; 0.825663;,
         0.810073; 0.825554;,
         0.817122; 0.907233;,
         0.828296; 0.907279;,
         0.886273; 0.674890;,
         0.927588; 0.674890;,
         0.920089; 0.588682;,
         0.893773; 0.588682;,
         0.844439; 0.739485;,
         0.803125; 0.739314;,
         0.810073; 0.825554;,
         0.836389; 0.825663;,
         0.196789; 0.682131;,
         0.260811; 0.662088;,
         0.289525; 0.561263;,
         0.239484; 0.576929;,
         0.759313; 0.899616;,
         0.723383; 0.888371;,
         0.744221; 0.994657;,
         0.761291; 1.000000;,
         0.239484; 0.576929;,
         0.289525; 0.561263;,
         0.336178; 0.459705;,
         0.300250; 0.470953;,
         0.712990; 0.797274;,
         0.662947; 0.781611;,
         0.723383; 0.888371;,
         0.759313; 0.899616;,
         0.828989; 0.329359;,
         0.803125; 0.327562;,
         0.818006; 0.413475;,
         0.828989; 0.414238;,
         0.411829; 0.345572;,
         0.393764; 0.345587;,
         0.393764; 0.360342;,
         0.411829; 0.360326;,
         0.863201; 0.494357;,
         0.852069; 0.495146;,
         0.844958; 0.588656;,
         0.863201; 0.587363;,
         0.828296; 0.907279;,
         0.817122; 0.907233;,
         0.826645; 0.999924;,
         0.844958; 1.000000;,
         0.300250; 0.470953;,
         0.336178; 0.459705;,
         0.337996; 0.358946;,
         0.320927; 0.364290;,
         0.797272; 0.860986;,
         0.803125; 0.755894;,
         0.761810; 0.756066;,
         0.769006; 0.861103;,
         0.879749; 0.588656;,
         0.851482; 0.588656;,
         0.851482; 0.727555;,
         0.879749; 0.727555;,
         0.435711; 1.000000;,
         0.479500; 0.986259;,
         0.417055; 0.857142;,
         0.373266; 0.870882;,
         0.337996; 0.322480;,
         0.337996; 0.360342;,
         0.365880; 0.360318;,
         0.365880; 0.322456;,
         0.620576; 0.373477;,
         0.576788; 0.359734;,
         0.514387; 0.488865;,
         0.558175; 0.502608;,
         0.769894; 1.000000;,
         0.798160; 0.999883;,
         0.797272; 0.860986;,
         0.769006; 0.861103;,
         0.402540; 0.748825;,
         0.401999; 0.662108;,
         0.337996; 0.682192;,
         0.338537; 0.768909;,
         0.851482; 0.727555;,
         0.844958; 0.832619;,
         0.886273; 0.832619;,
         0.879749; 0.727555;,
         0.417055; 0.857142;,
         0.402540; 0.748825;,
         0.338537; 0.768909;,
         0.373266; 0.870882;,
         0.514387; 0.488865;,
         0.480016; 0.590180;,
         0.544017; 0.610268;,
         0.558175; 0.502608;,
         0.401999; 0.662108;,
         0.430614; 0.561264;,
         0.380588; 0.576962;,
         0.337996; 0.682192;,
         0.844958; 0.832619;,
         0.844958; 0.913775;,
         0.886273; 0.913775;,
         0.886273; 0.832619;,
         0.803125; 0.755894;,
         0.802606; 0.674739;,
         0.761291; 0.674910;,
         0.761810; 0.756066;,
         0.480016; 0.590180;,
         0.479500; 0.676907;,
         0.543501; 0.696995;,
         0.544017; 0.610268;,
         0.794556; 0.588548;,
         0.786463; 0.506914;,
         0.775288; 0.506961;,
         0.768240; 0.588657;,
         0.844958; 0.913775;,
         0.852458; 1.000000;,
         0.878774; 1.000000;,
         0.886273; 0.913775;,
         0.802606; 0.674739;,
         0.794556; 0.588548;,
         0.768240; 0.588657;,
         0.761291; 0.674910;,
         0.479500; 0.676907;,
         0.521745; 0.782920;,
         0.571770; 0.798621;,
         0.543501; 0.696995;,
         0.477168; 0.459677;,
         0.479500; 0.360342;,
         0.462436; 0.365696;,
         0.441250; 0.470947;,
         0.521745; 0.782920;,
         0.582055; 0.889726;,
         0.617971; 0.900999;,
         0.571770; 0.798621;,
         0.430614; 0.561264;,
         0.477168; 0.459677;,
         0.441250; 0.470947;,
         0.380588; 0.576962;,
         0.761291; 0.327510;,
         0.776173; 0.413422;,
         0.787155; 0.414185;,
         0.787155; 0.329306;,
         0.411829; 0.345587;,
         0.411829; 0.360342;,
         0.429894; 0.360327;,
         0.429894; 0.345572;,
         0.847231; 0.414238;,
         0.847231; 0.321219;,
         0.828989; 0.319926;,
         0.836100; 0.413449;,
         0.786463; 0.506914;,
         0.803125; 0.414185;,
         0.784812; 0.414261;,
         0.775288; 0.506961;,
         0.582055; 0.889726;,
         0.603512; 0.994644;,
         0.620576; 1.000000;,
         0.617971; 0.900999;,
         0.006097; 0.500083;,
         0.098395; 0.002339;,
         0.092298; 0.002338;,
         0.000000; 0.500082;,
         0.993903; 0.501067;,
         0.993903; 1.000000;,
         1.000000; 1.000000;,
         1.000000; 0.501067;,
         0.098395; 0.502230;,
         0.190692; 0.999999;,
         0.196789; 1.000000;,
         0.104492; 0.502231;,
         0.993902; 0.498933;,
         0.993902; 0.000000;,
         0.987805; 0.000000;,
         0.987805; 0.498933;,
         0.793170; 0.392495;,
         0.787155; 0.392500;,
         0.787155; 0.397413;,
         0.793170; 0.397408;,
         0.793170; 0.387578;,
         0.787155; 0.387583;,
         0.787155; 0.392495;,
         0.793170; 0.392490;,
         0.993903; 1.000000;,
         0.993902; 0.498933;,
         0.987805; 0.498933;,
         0.987805; 1.000000;,
         0.190692; 0.002342;,
         0.098395; 0.502230;,
         0.104492; 0.502231;,
         0.196789; 0.002343;,
         0.993903; 0.000000;,
         0.993903; 0.501067;,
         1.000000; 0.501067;,
         1.000000; 0.000000;,
         0.098395; 1.000000;,
         0.006097; 0.500083;,
         0.000000; 0.500082;,
         0.092297; 0.999999;;
      } // End of Cube_001 UV coordinates
      MeshMaterialList { // Cube_001 material list
        1;
        84;
        0,
        0,
        0,
        0,
        0,
        0,
        0,
        0,
        0,
        0,
        0,
        0,
        0,
        0,
        0,
        0,
        0,
        0,
        0,
        0,
        0,
        0,
        0,
        0,
        0,
        0,
        0,
        0,
        0,
        0,
        0,
        0,
        0,
        0,
        0,
        0,
        0,
        0,
        0,
        0,
        0,
        0,
        0,
        0,
        0,
        0,
        0,
        0,
        0,
        0,
        0,
        0,
        0,
        0,
        0,
        0,
        0,
        0,
        0,
        0,
        0,
        0,
        0,
        0,
        0,
        0,
        0,
        0,
        0,
        0,
        0,
        0,
        0,
        0,
        0,
        0,
        0,
        0,
        0,
        0,
        0,
        0,
        0,
        0;
        Material Material_002 {
           0.640000; 0.640000; 0.640000; 1.000000;;
           96.078431;
           0.500000; 0.500000; 0.500000;;
           0.000000; 0.000000; 0.000000;;
        }
      } // End of Cube_001 material list
    } // End of Cube_001 mesh
  } // End of Cube_001
} // End of Root
