xof 0303txt 0032

Frame Root {
  FrameTransformMatrix {
     1.000000, 0.000000, 0.000000, 0.000000,
     0.000000,-0.000000, 1.000000, 0.000000,
     0.000000, 1.000000, 0.000000, 0.000000,
     0.000000, 0.000000, 0.000000, 1.000000;;
  }
  Frame _0002 {
    FrameTransformMatrix {
       1.000000, 0.000000, 0.000000, 0.000000,
       0.000000,-0.000000, 1.000000, 0.000000,
       0.000000,-1.000000,-0.000000, 0.000000,
       0.000000, 0.000000, 0.000000, 1.000000;;
    }
    Mesh { // _0002 mesh
      544;
      -0.022315;-0.196933; 0.019563;,
      -0.022315;-0.226083; 0.021012;,
      -0.032977;-0.216817; 0.061616;,
      -0.032977;-0.191544; 0.060359;,
      -0.005944;-0.196714; 0.023961;,
      -0.022315;-0.196933; 0.019563;,
      -0.032977;-0.191544; 0.060359;,
      -0.008281;-0.191214; 0.066994;,
      -0.005944;-0.225865; 0.025411;,
      -0.005944;-0.196714; 0.023961;,
      -0.008281;-0.191214; 0.066994;,
      -0.008281;-0.216487; 0.068251;,
      -0.022315;-0.226083; 0.021012;,
      -0.005944;-0.225865; 0.025411;,
      -0.008281;-0.216487; 0.068251;,
      -0.032977;-0.216817; 0.061616;,
      -0.022315;-0.226083; 0.021012;,
      -0.022315;-0.196933; 0.019563;,
      -0.005944;-0.196714; 0.023961;,
      -0.005944;-0.225865; 0.025411;,
      -0.014130;-0.197768; 0.106259;,
      -0.008281;-0.191214; 0.066994;,
      -0.032977;-0.191544; 0.060359;,
      -0.049041;-0.198235; 0.096880;,
      -0.015670;-0.213321; 0.112764;,
      -0.014130;-0.216539; 0.107193;,
      -0.014130;-0.197768; 0.106259;,
      -0.015670;-0.195867; 0.111896;,
      -0.014130;-0.216539; 0.107193;,
      -0.008281;-0.216487; 0.068251;,
      -0.008281;-0.191214; 0.066994;,
      -0.014130;-0.197768; 0.106259;,
      -0.049041;-0.198235; 0.096880;,
      -0.032977;-0.191544; 0.060359;,
      -0.032977;-0.216817; 0.061616;,
      -0.049041;-0.217006; 0.097813;,
      -0.049041;-0.217006; 0.097813;,
      -0.032977;-0.216817; 0.061616;,
      -0.008281;-0.216487; 0.068251;,
      -0.014130;-0.216539; 0.107193;,
      -0.050459;-0.200590; 0.108747;,
      -0.050581;-0.196333; 0.102517;,
      -0.050581;-0.213787; 0.103385;,
      -0.050459;-0.214943; 0.109461;,
      -0.050581;-0.196333; 0.102517;,
      -0.049041;-0.198235; 0.096880;,
      -0.049041;-0.217006; 0.097813;,
      -0.050581;-0.213787; 0.103385;,
      -0.050581;-0.213787; 0.103385;,
      -0.049041;-0.217006; 0.097813;,
      -0.014130;-0.216539; 0.107193;,
      -0.015670;-0.213321; 0.112764;,
      -0.015670;-0.195867; 0.111896;,
      -0.014130;-0.197768; 0.106259;,
      -0.049041;-0.198235; 0.096880;,
      -0.050581;-0.196333; 0.102517;,
      -0.052580;-0.216697; 0.118571;,
      -0.050459;-0.214943; 0.109461;,
      -0.018791;-0.214520; 0.117969;,
      -0.021479;-0.216282; 0.126927;,
      -0.050459;-0.214943; 0.109461;,
      -0.050581;-0.213787; 0.103385;,
      -0.015670;-0.213321; 0.112764;,
      -0.018791;-0.214520; 0.117969;,
      -0.018791;-0.200167; 0.117255;,
      -0.015670;-0.195867; 0.111896;,
      -0.050581;-0.196333; 0.102517;,
      -0.050459;-0.200590; 0.108747;,
      -0.018791;-0.214520; 0.117969;,
      -0.015670;-0.213321; 0.112764;,
      -0.015670;-0.195867; 0.111896;,
      -0.018791;-0.200167; 0.117255;,
      -0.071717;-0.193920; 0.188301;,
      -0.052580;-0.216697; 0.118571;,
      -0.021479;-0.216282; 0.126927;,
      -0.040464;-0.193502; 0.196698;,
      -0.021479;-0.206078; 0.126419;,
      -0.018791;-0.200167; 0.117255;,
      -0.050459;-0.200590; 0.108747;,
      -0.052580;-0.206493; 0.118063;,
      -0.021479;-0.216282; 0.126927;,
      -0.018791;-0.214520; 0.117969;,
      -0.018791;-0.200167; 0.117255;,
      -0.021479;-0.206078; 0.126419;,
      -0.052580;-0.206493; 0.118063;,
      -0.050459;-0.200590; 0.108747;,
      -0.050459;-0.214943; 0.109461;,
      -0.052580;-0.216697; 0.118571;,
      -0.070021;-0.131760; 0.290589;,
      -0.063146;-0.144622; 0.275694;,
      -0.063146;-0.139474; 0.275438;,
      -0.070021;-0.127484; 0.290376;,
      -0.040464;-0.188096; 0.196429;,
      -0.021479;-0.206078; 0.126419;,
      -0.052580;-0.206493; 0.118063;,
      -0.071717;-0.188513; 0.188032;,
      -0.040464;-0.193502; 0.196698;,
      -0.021479;-0.216282; 0.126927;,
      -0.021479;-0.206078; 0.126419;,
      -0.040464;-0.188096; 0.196429;,
      -0.071717;-0.188513; 0.188032;,
      -0.052580;-0.206493; 0.118063;,
      -0.052580;-0.216697; 0.118571;,
      -0.071717;-0.193920; 0.188301;,
      -0.098783;-0.111043; 0.305598;,
      -0.094737;-0.132090; 0.283948;,
      -0.070021;-0.131760; 0.290589;,
      -0.077894;-0.110764; 0.311211;,
      -0.094737;-0.127814; 0.283736;,
      -0.092900;-0.139872; 0.267444;,
      -0.092900;-0.145019; 0.267700;,
      -0.094737;-0.132090; 0.283948;,
      -0.094737;-0.132090; 0.283948;,
      -0.092900;-0.145019; 0.267700;,
      -0.063146;-0.144622; 0.275694;,
      -0.070021;-0.131760; 0.290589;,
      -0.070021;-0.127484; 0.290376;,
      -0.063146;-0.139474; 0.275438;,
      -0.092900;-0.139872; 0.267444;,
      -0.094737;-0.127814; 0.283736;,
      -0.077033;-0.109475; 0.307941;,
      -0.070021;-0.127484; 0.290376;,
      -0.094737;-0.127814; 0.283736;,
      -0.097922;-0.109755; 0.302329;,
      -0.077894;-0.110764; 0.311211;,
      -0.070021;-0.131760; 0.290589;,
      -0.070021;-0.127484; 0.290376;,
      -0.077033;-0.109475; 0.307941;,
      -0.097922;-0.109755; 0.302329;,
      -0.094737;-0.127814; 0.283736;,
      -0.094737;-0.132090; 0.283948;,
      -0.098783;-0.111043; 0.305598;,
      -0.086039;-0.093339; 0.333967;,
      -0.077033;-0.109475; 0.307941;,
      -0.097922;-0.109755; 0.302329;,
      -0.103574;-0.093574; 0.329256;,
      -0.056686;-0.155225; 0.252814;,
      -0.040464;-0.188096; 0.196429;,
      -0.071717;-0.188513; 0.188032;,
      -0.086759;-0.155627; 0.244735;,
      -0.086759;-0.160829; 0.244993;,
      -0.071717;-0.193920; 0.188301;,
      -0.040464;-0.193502; 0.196698;,
      -0.056686;-0.160428; 0.253073;,
      -0.086759;-0.155627; 0.244735;,
      -0.071717;-0.188513; 0.188032;,
      -0.071717;-0.193920; 0.188301;,
      -0.086759;-0.160829; 0.244993;,
      -0.056686;-0.160428; 0.253073;,
      -0.040464;-0.193502; 0.196698;,
      -0.040464;-0.188096; 0.196429;,
      -0.056686;-0.155225; 0.252814;,
      -0.106286;-0.088474; 0.357289;,
      -0.103736;-0.094759; 0.329921;,
      -0.086202;-0.094524; 0.334632;,
      -0.097868;-0.088362; 0.359551;,
      -0.086202;-0.094524; 0.334632;,
      -0.077894;-0.110764; 0.311211;,
      -0.077033;-0.109475; 0.307941;,
      -0.086039;-0.093339; 0.333967;,
      -0.103574;-0.093574; 0.329256;,
      -0.097922;-0.109755; 0.302329;,
      -0.098783;-0.111043; 0.305598;,
      -0.103736;-0.094759; 0.329921;,
      -0.103736;-0.094759; 0.329921;,
      -0.098783;-0.111043; 0.305598;,
      -0.077894;-0.110764; 0.311211;,
      -0.086202;-0.094524; 0.334632;,
      -0.063146;-0.139474; 0.275438;,
      -0.056686;-0.155225; 0.252814;,
      -0.086759;-0.155627; 0.244735;,
      -0.092900;-0.139872; 0.267444;,
      -0.092900;-0.145019; 0.267700;,
      -0.086759;-0.160829; 0.244993;,
      -0.056686;-0.160428; 0.253073;,
      -0.063146;-0.144622; 0.275694;,
      -0.092900;-0.139872; 0.267444;,
      -0.086759;-0.155627; 0.244735;,
      -0.086759;-0.160829; 0.244993;,
      -0.092900;-0.145019; 0.267700;,
      -0.063146;-0.144622; 0.275694;,
      -0.056686;-0.160428; 0.253073;,
      -0.056686;-0.155225; 0.252814;,
      -0.063146;-0.139474; 0.275438;,
      -0.106207;-0.087905; 0.356970;,
      -0.106286;-0.088474; 0.357289;,
      -0.097868;-0.088362; 0.359551;,
      -0.097789;-0.087793; 0.359231;,
      -0.097789;-0.087793; 0.359231;,
      -0.086039;-0.093339; 0.333967;,
      -0.103574;-0.093574; 0.329256;,
      -0.106207;-0.087905; 0.356970;,
      -0.097868;-0.088362; 0.359551;,
      -0.086202;-0.094524; 0.334632;,
      -0.086039;-0.093339; 0.333967;,
      -0.097789;-0.087793; 0.359231;,
      -0.106207;-0.087905; 0.356970;,
      -0.103574;-0.093574; 0.329256;,
      -0.103736;-0.094759; 0.329921;,
      -0.106286;-0.088474; 0.357289;,
      -0.010603;-0.220948;-0.021455;,
      -0.022338;-0.226079; 0.021098;,
      -0.022338;-0.196929; 0.019649;,
      -0.010603;-0.195675;-0.022712;,
      -0.010603;-0.195675;-0.022712;,
      -0.022338;-0.196929; 0.019649;,
      -0.006524;-0.196718; 0.023898;,
       0.004120;-0.195478;-0.018756;,
       0.004120;-0.195478;-0.018756;,
      -0.006524;-0.196718; 0.023898;,
      -0.006524;-0.225868; 0.025347;,
       0.004120;-0.220752;-0.017499;,
       0.004120;-0.220752;-0.017499;,
      -0.006524;-0.225868; 0.025347;,
      -0.022338;-0.226079; 0.021098;,
      -0.010603;-0.220948;-0.021455;,
      -0.006524;-0.196718; 0.023898;,
      -0.022338;-0.196929; 0.019649;,
      -0.022338;-0.226079; 0.021098;,
      -0.006524;-0.225868; 0.025347;,
      -0.010603;-0.195675;-0.022712;,
       0.004120;-0.195478;-0.018756;,
       0.009953;-0.203909;-0.022410;,
      -0.010600;-0.204183;-0.027932;,
       0.009953;-0.203909;-0.022410;,
       0.009953;-0.227695;-0.021227;,
       0.021349;-0.226744;-0.024352;,
       0.021349;-0.203353;-0.025515;,
       0.004120;-0.195478;-0.018756;,
       0.004120;-0.220752;-0.017499;,
       0.009953;-0.227695;-0.021227;,
       0.009953;-0.203909;-0.022410;,
      -0.010603;-0.220948;-0.021455;,
      -0.010603;-0.195675;-0.022712;,
      -0.010600;-0.204183;-0.027932;,
      -0.010600;-0.227970;-0.026749;,
       0.004120;-0.220752;-0.017499;,
      -0.010603;-0.220948;-0.021455;,
      -0.010600;-0.227970;-0.026749;,
       0.009953;-0.227695;-0.021227;,
      -0.013562;-0.227210;-0.033732;,
      -0.013562;-0.203820;-0.034895;,
       0.005988;-0.193031;-0.101725;,
       0.005988;-0.213321;-0.100716;,
      -0.010600;-0.227970;-0.026749;,
      -0.010600;-0.204183;-0.027932;,
      -0.013562;-0.203820;-0.034895;,
      -0.013562;-0.227210;-0.033732;,
       0.009953;-0.227695;-0.021227;,
      -0.010600;-0.227970;-0.026749;,
      -0.013562;-0.227210;-0.033732;,
       0.021349;-0.226744;-0.024352;,
      -0.010600;-0.204183;-0.027932;,
       0.009953;-0.203909;-0.022410;,
       0.021349;-0.203353;-0.025515;,
      -0.013562;-0.203820;-0.034895;,
       0.037656;-0.212898;-0.092207;,
       0.005988;-0.213321;-0.100716;,
       0.007889;-0.216338;-0.108458;,
       0.039964;-0.215909;-0.099840;,
       0.021349;-0.226744;-0.024352;,
      -0.013562;-0.227210;-0.033732;,
       0.005988;-0.213321;-0.100716;,
       0.037656;-0.212898;-0.092207;,
      -0.013562;-0.203820;-0.034895;,
       0.021349;-0.203353;-0.025515;,
       0.037656;-0.192608;-0.093216;,
       0.005988;-0.193031;-0.101725;,
       0.021349;-0.203353;-0.025515;,
       0.021349;-0.226744;-0.024352;,
       0.037656;-0.212898;-0.092207;,
       0.037656;-0.192608;-0.093216;,
       0.039964;-0.215909;-0.099840;,
       0.007889;-0.216338;-0.108458;,
       0.033744;-0.194822;-0.200831;,
       0.063317;-0.194427;-0.192885;,
       0.005988;-0.193031;-0.101725;,
       0.037656;-0.192608;-0.093216;,
       0.039964;-0.205386;-0.100364;,
       0.007889;-0.205814;-0.108981;,
       0.037656;-0.192608;-0.093216;,
       0.037656;-0.212898;-0.092207;,
       0.039964;-0.215909;-0.099840;,
       0.039964;-0.205386;-0.100364;,
       0.005988;-0.213321;-0.100716;,
       0.005988;-0.193031;-0.101725;,
       0.007889;-0.205814;-0.108981;,
       0.007889;-0.216338;-0.108458;,
       0.083496;-0.152830;-0.269699;,
       0.083496;-0.157977;-0.269443;,
       0.086597;-0.143703;-0.291753;,
       0.086597;-0.139427;-0.291966;,
       0.007889;-0.205814;-0.108981;,
       0.039964;-0.205386;-0.100364;,
       0.063317;-0.189311;-0.193140;,
       0.033744;-0.189706;-0.201085;,
       0.039964;-0.205386;-0.100364;,
       0.039964;-0.215909;-0.099840;,
       0.063317;-0.194427;-0.192885;,
       0.063317;-0.189311;-0.193140;,
       0.007889;-0.216338;-0.108458;,
       0.007889;-0.205814;-0.108981;,
       0.033744;-0.189706;-0.201085;,
       0.033744;-0.194822;-0.200831;,
       0.086597;-0.143703;-0.291753;,
       0.061881;-0.144033;-0.298394;,
       0.069754;-0.125187;-0.320997;,
       0.090643;-0.124908;-0.315384;,
       0.053741;-0.158375;-0.277438;,
       0.053741;-0.153227;-0.277694;,
       0.061881;-0.139757;-0.298606;,
       0.061881;-0.144033;-0.298394;,
       0.083496;-0.157977;-0.269443;,
       0.053741;-0.158375;-0.277438;,
       0.061881;-0.144033;-0.298394;,
       0.086597;-0.143703;-0.291753;,
       0.053741;-0.153227;-0.277694;,
       0.083496;-0.152830;-0.269699;,
       0.086597;-0.139427;-0.291966;,
       0.061881;-0.139757;-0.298606;,
       0.061881;-0.139757;-0.298606;,
       0.086597;-0.139427;-0.291966;,
       0.089782;-0.123301;-0.312259;,
       0.068893;-0.123580;-0.317871;,
       0.086597;-0.139427;-0.291966;,
       0.086597;-0.143703;-0.291753;,
       0.090643;-0.124908;-0.315384;,
       0.089782;-0.123301;-0.312259;,
       0.061881;-0.144033;-0.298394;,
       0.061881;-0.139757;-0.298606;,
       0.068893;-0.123580;-0.317871;,
       0.069754;-0.125187;-0.320997;,
       0.068893;-0.123580;-0.317871;,
       0.089782;-0.123301;-0.312259;,
       0.095434;-0.109871;-0.340658;,
       0.077900;-0.110105;-0.345369;,
       0.033744;-0.189706;-0.201085;,
       0.063317;-0.189311;-0.193140;,
       0.077354;-0.166254;-0.245539;,
       0.047282;-0.166656;-0.253619;,
       0.063317;-0.194427;-0.192885;,
       0.033744;-0.194822;-0.200831;,
       0.047282;-0.171859;-0.253360;,
       0.077354;-0.171457;-0.245280;,
       0.033744;-0.194822;-0.200831;,
       0.033744;-0.189706;-0.201085;,
       0.047282;-0.166656;-0.253619;,
       0.047282;-0.171859;-0.253360;,
       0.063317;-0.189311;-0.193140;,
       0.063317;-0.194427;-0.192885;,
       0.077354;-0.171457;-0.245280;,
       0.077354;-0.166254;-0.245539;,
       0.095597;-0.111116;-0.341202;,
       0.078063;-0.111351;-0.345913;,
       0.089728;-0.107691;-0.371321;,
       0.098146;-0.107578;-0.369059;,
       0.089782;-0.123301;-0.312259;,
       0.090643;-0.124908;-0.315384;,
       0.095597;-0.111116;-0.341202;,
       0.095434;-0.109871;-0.340658;,
       0.069754;-0.125187;-0.320997;,
       0.068893;-0.123580;-0.317871;,
       0.077900;-0.110105;-0.345369;,
       0.078063;-0.111351;-0.345913;,
       0.090643;-0.124908;-0.315384;,
       0.069754;-0.125187;-0.320997;,
       0.078063;-0.111351;-0.345913;,
       0.095597;-0.111116;-0.341202;,
       0.047282;-0.166656;-0.253619;,
       0.077354;-0.166254;-0.245539;,
       0.083496;-0.152830;-0.269699;,
       0.053741;-0.153227;-0.277694;,
       0.077354;-0.171457;-0.245280;,
       0.047282;-0.171859;-0.253360;,
       0.053741;-0.158375;-0.277438;,
       0.083496;-0.157977;-0.269443;,
       0.047282;-0.171859;-0.253360;,
       0.047282;-0.166656;-0.253619;,
       0.053741;-0.153227;-0.277694;,
       0.053741;-0.158375;-0.277438;,
       0.077354;-0.166254;-0.245539;,
       0.077354;-0.171457;-0.245280;,
       0.083496;-0.157977;-0.269443;,
       0.083496;-0.152830;-0.269699;,
       0.098146;-0.107578;-0.369059;,
       0.089728;-0.107691;-0.371321;,
       0.089650;-0.107093;-0.371059;,
       0.098068;-0.106980;-0.368798;,
       0.077900;-0.110105;-0.345369;,
       0.095434;-0.109871;-0.340658;,
       0.098068;-0.106980;-0.368798;,
       0.089650;-0.107093;-0.371059;,
       0.095434;-0.109871;-0.340658;,
       0.095597;-0.111116;-0.341202;,
       0.098146;-0.107578;-0.369059;,
       0.098068;-0.106980;-0.368798;,
       0.078063;-0.111351;-0.345913;,
       0.077900;-0.110105;-0.345369;,
       0.089650;-0.107093;-0.371059;,
       0.089728;-0.107691;-0.371321;,
      -0.012591;-0.035315; 0.013752;,
      -0.012591;-0.040170; 0.013993;,
      -0.097645;-0.101202; 0.324234;,
      -0.097645;-0.096347; 0.323993;,
      -0.008025;-0.035241; 0.015487;,
      -0.012719;-0.035304; 0.014226;,
      -0.097645;-0.096347; 0.323993;,
      -0.092951;-0.096284; 0.325254;,
      -0.008014;-0.040097; 0.015687;,
      -0.008014;-0.035242; 0.015446;,
      -0.092951;-0.096284; 0.325254;,
      -0.092951;-0.101139; 0.325495;,
      -0.012581;-0.040171; 0.013957;,
      -0.007887;-0.040108; 0.015218;,
      -0.092951;-0.101139; 0.325495;,
      -0.097645;-0.101202; 0.324234;,
       0.080436;-0.117009;-0.337802;,
       0.080436;-0.112154;-0.338044;,
       0.085130;-0.112091;-0.336783;,
       0.085130;-0.116946;-0.336541;,
      -0.092951;-0.101139; 0.325495;,
      -0.092951;-0.096284; 0.325254;,
      -0.097645;-0.096347; 0.323993;,
      -0.097645;-0.101202; 0.324234;,
       0.085130;-0.116946;-0.336541;,
       0.085130;-0.112091;-0.336783;,
      -0.008014;-0.035242; 0.015446;,
      -0.008014;-0.040097; 0.015687;,
       0.080436;-0.112154;-0.338044;,
       0.080436;-0.117009;-0.337802;,
      -0.012591;-0.040170; 0.013993;,
      -0.012591;-0.035315; 0.013752;,
       0.085130;-0.112091;-0.336783;,
       0.080436;-0.112154;-0.338044;,
      -0.012719;-0.035304; 0.014226;,
      -0.008025;-0.035241; 0.015487;,
       0.080436;-0.117009;-0.337802;,
       0.085130;-0.116946;-0.336541;,
      -0.007887;-0.040108; 0.015218;,
      -0.012581;-0.040171; 0.013957;,
      -0.006991;-0.062909; 0.013566;,
      -0.006991;-0.062909; 0.019836;,
       0.000964;-0.238344; 0.019836;,
       0.000964;-0.238344; 0.013566;,
      -0.006991;-0.062909; 0.019836;,
      -0.013262;-0.062909; 0.019836;,
      -0.005306;-0.238344; 0.019836;,
       0.000964;-0.238344; 0.019836;,
      -0.013262;-0.062909; 0.019836;,
      -0.013262;-0.062909; 0.013566;,
      -0.005306;-0.238344; 0.013566;,
      -0.005306;-0.238344; 0.019836;,
      -0.013262;-0.062909; 0.013566;,
      -0.006991;-0.062909; 0.013566;,
       0.000964;-0.238344; 0.013566;,
      -0.005306;-0.238344; 0.013566;,
      -0.006991;-0.062909; 0.013566;,
      -0.005526;-0.061033; 0.012101;,
      -0.005526;-0.061033; 0.021301;,
      -0.006991;-0.062909; 0.019836;,
       0.000964;-0.238344; 0.019836;,
       0.001803;-0.239871; 0.020675;,
       0.001803;-0.239871; 0.012727;,
       0.000964;-0.238344; 0.013566;,
      -0.005526;-0.061033; 0.021301;,
      -0.004529;-0.038936; 0.022298;,
      -0.015724;-0.038936; 0.022298;,
      -0.014727;-0.061033; 0.021301;,
      -0.013262;-0.062909; 0.019836;,
      -0.014727;-0.061033; 0.021301;,
      -0.014727;-0.061033; 0.012101;,
      -0.013262;-0.062909; 0.013566;,
      -0.013262;-0.062909; 0.013566;,
      -0.014727;-0.061033; 0.012101;,
      -0.005526;-0.061033; 0.012101;,
      -0.006991;-0.062909; 0.013566;,
      -0.006991;-0.062909; 0.019836;,
      -0.005526;-0.061033; 0.021301;,
      -0.014727;-0.061033; 0.021301;,
      -0.013262;-0.062909; 0.019836;,
      -0.004529;-0.038936; 0.022298;,
      -0.004529;-0.038936; 0.011103;,
      -0.015724;-0.038936; 0.011103;,
      -0.015724;-0.038936; 0.022298;,
      -0.014727;-0.061033; 0.021301;,
      -0.015724;-0.038936; 0.022298;,
      -0.015724;-0.038936; 0.011103;,
      -0.014727;-0.061033; 0.012101;,
      -0.005526;-0.061033; 0.012101;,
      -0.004529;-0.038936; 0.011103;,
      -0.004529;-0.038936; 0.022298;,
      -0.005526;-0.061033; 0.021301;,
      -0.014727;-0.061033; 0.012101;,
      -0.015724;-0.038936; 0.011103;,
      -0.004529;-0.038936; 0.011103;,
      -0.005526;-0.061033; 0.012101;,
       0.001803;-0.239871; 0.012727;,
       0.000642;-0.245427; 0.013888;,
      -0.004983;-0.245427; 0.013888;,
      -0.006145;-0.239871; 0.012727;,
       0.000964;-0.238344; 0.013566;,
       0.001803;-0.239871; 0.012727;,
      -0.006145;-0.239871; 0.012727;,
      -0.005306;-0.238344; 0.013566;,
      -0.005306;-0.238344; 0.019836;,
      -0.006145;-0.239871; 0.020675;,
       0.001803;-0.239871; 0.020675;,
       0.000964;-0.238344; 0.019836;,
      -0.005306;-0.238344; 0.013566;,
      -0.006145;-0.239871; 0.012727;,
      -0.006145;-0.239871; 0.020675;,
      -0.005306;-0.238344; 0.019836;,
      -0.004983;-0.245427; 0.013888;,
      -0.003946;-0.249965; 0.014925;,
      -0.003946;-0.249965; 0.018476;,
      -0.004983;-0.245427; 0.019513;,
      -0.006145;-0.239871; 0.020675;,
      -0.004983;-0.245427; 0.019513;,
       0.000642;-0.245427; 0.019513;,
       0.001803;-0.239871; 0.020675;,
      -0.006145;-0.239871; 0.012727;,
      -0.004983;-0.245427; 0.013888;,
      -0.004983;-0.245427; 0.019513;,
      -0.006145;-0.239871; 0.020675;,
       0.001803;-0.239871; 0.020675;,
       0.000642;-0.245427; 0.019513;,
       0.000642;-0.245427; 0.013888;,
       0.001803;-0.239871; 0.012727;,
      -0.003946;-0.249965; 0.018476;,
      -0.003946;-0.249965; 0.014925;,
      -0.000395;-0.249965; 0.014925;,
      -0.000395;-0.249965; 0.018476;,
       0.000642;-0.245427; 0.019513;,
      -0.000395;-0.249965; 0.018476;,
      -0.000395;-0.249965; 0.014925;,
       0.000642;-0.245427; 0.013888;,
       0.000642;-0.245427; 0.013888;,
      -0.000395;-0.249965; 0.014925;,
      -0.003946;-0.249965; 0.014925;,
      -0.004983;-0.245427; 0.013888;,
      -0.004983;-0.245427; 0.019513;,
      -0.003946;-0.249965; 0.018476;,
      -0.000395;-0.249965; 0.018476;,
       0.000642;-0.245427; 0.019513;;
      136;
      4;3,2,1,0;,
      4;7,6,5,4;,
      4;11,10,9,8;,
      4;15,14,13,12;,
      4;19,18,17,16;,
      4;23,22,21,20;,
      4;27,26,25,24;,
      4;31,30,29,28;,
      4;35,34,33,32;,
      4;39,38,37,36;,
      4;43,42,41,40;,
      4;47,46,45,44;,
      4;51,50,49,48;,
      4;55,54,53,52;,
      4;59,58,57,56;,
      4;63,62,61,60;,
      4;67,66,65,64;,
      4;71,70,69,68;,
      4;75,74,73,72;,
      4;79,78,77,76;,
      4;83,82,81,80;,
      4;87,86,85,84;,
      4;91,90,89,88;,
      4;95,94,93,92;,
      4;99,98,97,96;,
      4;103,102,101,100;,
      4;107,106,105,104;,
      4;111,110,109,108;,
      4;115,114,113,112;,
      4;119,118,117,116;,
      4;123,122,121,120;,
      4;127,126,125,124;,
      4;131,130,129,128;,
      4;135,134,133,132;,
      4;139,138,137,136;,
      4;143,142,141,140;,
      4;147,146,145,144;,
      4;151,150,149,148;,
      4;155,154,153,152;,
      4;159,158,157,156;,
      4;163,162,161,160;,
      4;167,166,165,164;,
      4;171,170,169,168;,
      4;175,174,173,172;,
      4;179,178,177,176;,
      4;183,182,181,180;,
      4;187,186,185,184;,
      4;191,190,189,188;,
      4;195,194,193,192;,
      4;199,198,197,196;,
      4;203,202,201,200;,
      4;207,206,205,204;,
      4;211,210,209,208;,
      4;215,214,213,212;,
      4;219,218,217,216;,
      4;223,222,221,220;,
      4;227,226,225,224;,
      4;231,230,229,228;,
      4;235,234,233,232;,
      4;239,238,237,236;,
      4;243,242,241,240;,
      4;247,246,245,244;,
      4;251,250,249,248;,
      4;255,254,253,252;,
      4;259,258,257,256;,
      4;263,262,261,260;,
      4;267,266,265,264;,
      4;271,270,269,268;,
      4;275,274,273,272;,
      4;279,278,277,276;,
      4;283,282,281,280;,
      4;287,286,285,284;,
      4;291,290,289,288;,
      4;295,294,293,292;,
      4;299,298,297,296;,
      4;303,302,301,300;,
      4;307,306,305,304;,
      4;311,310,309,308;,
      4;315,314,313,312;,
      4;319,318,317,316;,
      4;323,322,321,320;,
      4;327,326,325,324;,
      4;331,330,329,328;,
      4;335,334,333,332;,
      4;339,338,337,336;,
      4;343,342,341,340;,
      4;347,346,345,344;,
      4;351,350,349,348;,
      4;355,354,353,352;,
      4;359,358,357,356;,
      4;363,362,361,360;,
      4;367,366,365,364;,
      4;371,370,369,368;,
      4;375,374,373,372;,
      4;379,378,377,376;,
      4;383,382,381,380;,
      4;387,386,385,384;,
      4;391,390,389,388;,
      4;395,394,393,392;,
      4;399,398,397,396;,
      4;403,402,401,400;,
      4;407,406,405,404;,
      4;411,410,409,408;,
      4;415,414,413,412;,
      4;419,418,417,416;,
      4;423,422,421,420;,
      4;427,426,425,424;,
      4;431,430,429,428;,
      4;435,434,433,432;,
      4;439,438,437,436;,
      4;443,442,441,440;,
      4;447,446,445,444;,
      4;451,450,449,448;,
      4;455,454,453,452;,
      4;459,458,457,456;,
      4;463,462,461,460;,
      4;467,466,465,464;,
      4;471,470,469,468;,
      4;475,474,473,472;,
      4;479,478,477,476;,
      4;483,482,481,480;,
      4;487,486,485,484;,
      4;491,490,489,488;,
      4;495,494,493,492;,
      4;499,498,497,496;,
      4;503,502,501,500;,
      4;507,506,505,504;,
      4;511,510,509,508;,
      4;515,514,513,512;,
      4;519,518,517,516;,
      4;523,522,521,520;,
      4;527,526,525,524;,
      4;531,530,529,528;,
      4;535,534,533,532;,
      4;539,538,537,536;,
      4;543,542,541,540;;
      MeshNormals { // _0002 normals
        466;
        -0.967803;-0.012482;-0.251259;,
        -0.967803;-0.012482;-0.251259;,
        -0.967803;-0.012482;-0.251259;,
        -0.967803;-0.012482;-0.251259;,
         0.020478; 0.991852;-0.125645;,
         0.020478; 0.991852;-0.125645;,
         0.020478; 0.991852;-0.125645;,
         0.020478; 0.991852;-0.125645;,
         0.998535; 0.002655; 0.053865;,
         0.998535; 0.002655; 0.053865;,
         0.998535; 0.002655; 0.053865;,
         0.998535; 0.002655; 0.053865;,
        -0.043733;-0.976409; 0.211341;,
        -0.043733;-0.976409; 0.211341;,
        -0.043733;-0.976409; 0.211341;,
        -0.043733;-0.976409; 0.211341;,
         0.259743;-0.047945;-0.964476;,
         0.259743;-0.047945;-0.964476;,
         0.259743;-0.047945;-0.964476;,
         0.259743;-0.047945;-0.964476;,
        -0.055177; 0.986145; 0.156377;,
        -0.055177; 0.986145; 0.156377;,
        -0.055177; 0.986145; 0.156377;,
        -0.055177; 0.986145; 0.156377;,
         0.965636; 0.012879; 0.259468;,
         0.965636; 0.012879; 0.259468;,
         0.965636; 0.012879; 0.259468;,
         0.965636; 0.012879; 0.259468;,
         0.988861; 0.007385; 0.148534;,
         0.988861; 0.007385; 0.148534;,
         0.988861; 0.007385; 0.148534;,
         0.988861; 0.007385; 0.148534;,
        -0.913785;-0.020142;-0.405621;,
        -0.913785;-0.020142;-0.405621;,
        -0.913785;-0.020142;-0.405621;,
        -0.913785;-0.020142;-0.405621;,
         0.013184;-0.999908; 0.000641;,
         0.013184;-0.999908; 0.000641;,
         0.013184;-0.999908; 0.000641;,
         0.013184;-0.999908; 0.000641;,
        -0.999786; 0.001007; 0.020264;,
        -0.999786; 0.001007; 0.020264;,
        -0.999786; 0.001007; 0.020264;,
        -0.999786; 0.001007; 0.020264;,
        -0.965667;-0.012879;-0.259438;,
        -0.965667;-0.012879;-0.259438;,
        -0.965667;-0.012879;-0.259438;,
        -0.965667;-0.012879;-0.259438;,
        -0.115329;-0.873592; 0.472762;,
        -0.115329;-0.873592; 0.472762;,
        -0.115329;-0.873592; 0.472762;,
        -0.115329;-0.873592; 0.472762;,
         0.068422; 0.950804;-0.302042;,
         0.068422; 0.950804;-0.302042;,
         0.068422; 0.950804;-0.302042;,
         0.068422; 0.950804;-0.302042;,
         0.060183;-0.982665;-0.175207;,
         0.060183;-0.982665;-0.175207;,
         0.060183;-0.982665;-0.175207;,
         0.060183;-0.982665;-0.175207;,
         0.063509;-0.980163;-0.187719;,
         0.063509;-0.980163;-0.187719;,
         0.063509;-0.980163;-0.187719;,
         0.063509;-0.980163;-0.187719;,
        -0.161016; 0.813410; 0.558916;,
        -0.161016; 0.813410; 0.558916;,
        -0.161016; 0.813410; 0.558916;,
        -0.161016; 0.813410; 0.558916;,
         0.854701; 0.025758; 0.518448;,
         0.854701; 0.025758; 0.518448;,
         0.854701; 0.025758; 0.518448;,
         0.854701; 0.025758; 0.518448;,
        -0.066073;-0.953703; 0.293374;,
        -0.066073;-0.953703; 0.293374;,
        -0.066073;-0.953703; 0.293374;,
        -0.066073;-0.953703; 0.293374;,
        -0.147099; 0.850307; 0.505295;,
        -0.147099; 0.850307; 0.505295;,
        -0.147099; 0.850307; 0.505295;,
        -0.147099; 0.850307; 0.505295;,
         0.956908; 0.014405; 0.289956;,
         0.956908; 0.014405; 0.289956;,
         0.956908; 0.014405; 0.289956;,
         0.956908; 0.014405; 0.289956;,
        -0.973388;-0.011383;-0.228797;,
        -0.973388;-0.011383;-0.228797;,
        -0.973388;-0.011383;-0.228797;,
        -0.973388;-0.011383;-0.228797;,
         0.914243; 0.020112; 0.404584;,
         0.914243; 0.020112; 0.404584;,
         0.914243; 0.020112; 0.404584;,
         0.914243; 0.020112; 0.404584;,
         0.050356; 0.970519;-0.235603;,
         0.050356; 0.970519;-0.235603;,
         0.050356; 0.970519;-0.235603;,
         0.050356; 0.970519;-0.235603;,
         0.965880; 0.012848; 0.258614;,
         0.965880; 0.012848; 0.258614;,
         0.965880; 0.012848; 0.258614;,
         0.965880; 0.012848; 0.258614;,
        -0.965331;-0.012970;-0.260689;,
        -0.965331;-0.012970;-0.260689;,
        -0.965331;-0.012970;-0.260689;,
        -0.965331;-0.012970;-0.260689;,
        -0.170446;-0.722251; 0.670278;,
        -0.170446;-0.722251; 0.670278;,
        -0.170446;-0.722251; 0.670278;,
        -0.170446;-0.722251; 0.670278;,
        -0.994110;-0.005341;-0.108097;,
        -0.994110;-0.005341;-0.108097;,
        -0.994110;-0.005341;-0.108097;,
        -0.994110;-0.005341;-0.108097;,
        -0.152043;-0.781701; 0.604816;,
        -0.152043;-0.781701; 0.604816;,
        -0.152043;-0.781701; 0.604816;,
        -0.152043;-0.781701; 0.604816;,
         0.144566; 0.803064;-0.578051;,
         0.144566; 0.803064;-0.578051;,
         0.144566; 0.803064;-0.578051;,
         0.144566; 0.803064;-0.578051;,
         0.170690; 0.721244;-0.671285;,
         0.170690; 0.721244;-0.671285;,
         0.170690; 0.721244;-0.671285;,
         0.170690; 0.721244;-0.671285;,
         0.947172; 0.051546; 0.316507;,
         0.947172; 0.051546; 0.316507;,
         0.947172; 0.051546; 0.316507;,
         0.947172; 0.051546; 0.316507;,
        -0.979247; 0.025758;-0.200995;,
        -0.979247; 0.025758;-0.200995;,
        -0.979247; 0.025758;-0.200995;,
        -0.979247; 0.025758;-0.200995;,
         0.120762; 0.861843;-0.492538;,
         0.120762; 0.861843;-0.492538;,
         0.120762; 0.861843;-0.492538;,
         0.120762; 0.861843;-0.492538;,
         0.115970; 0.872219;-0.475112;,
         0.115970; 0.872219;-0.475112;,
         0.115970; 0.872219;-0.475112;,
         0.115970; 0.872219;-0.475112;,
        -0.116611;-0.870907; 0.477371;,
        -0.116611;-0.870907; 0.477371;,
        -0.116611;-0.870907; 0.477371;,
        -0.116611;-0.870907; 0.477371;,
        -0.968230;-0.012391;-0.249641;,
        -0.968230;-0.012391;-0.249641;,
        -0.968230;-0.012391;-0.249641;,
        -0.968230;-0.012391;-0.249641;,
         0.962951; 0.013398; 0.269234;,
         0.962951; 0.013398; 0.269234;,
         0.962951; 0.013398; 0.269234;,
         0.962951; 0.013398; 0.269234;,
        -0.045930;-0.974517; 0.219489;,
        -0.045930;-0.974517; 0.219489;,
        -0.045930;-0.974517; 0.219489;,
        -0.045930;-0.974517; 0.219489;,
         0.954527; 0.066866; 0.290445;,
         0.954527; 0.066866; 0.290445;,
         0.954527; 0.066866; 0.290445;,
         0.954527; 0.066866; 0.290445;,
        -0.972961; 0.040925;-0.227271;,
        -0.972961; 0.040925;-0.227271;,
        -0.972961; 0.040925;-0.227271;,
        -0.972961; 0.040925;-0.227271;,
        -0.131962;-0.835902; 0.532762;,
        -0.131962;-0.835902; 0.532762;,
        -0.131962;-0.835902; 0.532762;,
        -0.131962;-0.835902; 0.532762;,
         0.134007; 0.830805;-0.540147;,
         0.134007; 0.830805;-0.540147;,
         0.134007; 0.830805;-0.540147;,
         0.134007; 0.830805;-0.540147;,
        -0.134404;-0.829890; 0.541459;,
        -0.134404;-0.829890; 0.541459;,
        -0.134404;-0.829890; 0.541459;,
        -0.134404;-0.829890; 0.541459;,
        -0.967406;-0.012543;-0.252876;,
        -0.967406;-0.012543;-0.252876;,
        -0.967406;-0.012543;-0.252876;,
        -0.967406;-0.012543;-0.252876;,
         0.963866; 0.013215; 0.265999;,
         0.963866; 0.013215; 0.265999;,
         0.963866; 0.013215; 0.265999;,
         0.963866; 0.013215; 0.265999;,
        -0.230811; 0.500534; 0.834346;,
        -0.230811; 0.500534; 0.834346;,
        -0.230811; 0.500534; 0.834346;,
        -0.230811; 0.500534; 0.834346;,
         0.039705; 0.979675;-0.196600;,
         0.039705; 0.979675;-0.196600;,
         0.039705; 0.979675;-0.196600;,
         0.039705; 0.979675;-0.196600;,
         0.910367; 0.099857; 0.401502;,
         0.910367; 0.099857; 0.401502;,
         0.910367; 0.099857; 0.401502;,
         0.910367; 0.099857; 0.401502;,
        -0.991150; 0.074740;-0.109470;,
        -0.991150; 0.074740;-0.109470;,
        -0.991150; 0.074740;-0.109470;,
        -0.991150; 0.074740;-0.109470;,
        -0.963500;-0.013276;-0.267312;,
        -0.963500;-0.013276;-0.267312;,
        -0.963500;-0.013276;-0.267312;,
        -0.963500;-0.013276;-0.267312;,
        -0.019807; 0.999512; 0.024079;,
        -0.019807; 0.999512; 0.024079;,
        -0.019807; 0.999512; 0.024079;,
        -0.019807; 0.999512; 0.024079;,
         0.970092; 0.012024; 0.242409;,
         0.970092; 0.012024; 0.242409;,
         0.970092; 0.012024; 0.242409;,
         0.970092; 0.012024; 0.242409;,
         0.042268;-0.993225;-0.108097;,
         0.042268;-0.993225;-0.108097;,
         0.042268;-0.993225;-0.108097;,
         0.042268;-0.993225;-0.108097;,
        -0.259774; 0.047914; 0.964476;,
        -0.259774; 0.047914; 0.964476;,
        -0.259774; 0.047914; 0.964476;,
        -0.259774; 0.047914; 0.964476;,
         0.216742; 0.510575;-0.832057;,
         0.216742; 0.510575;-0.832057;,
         0.216742; 0.510575;-0.832057;,
         0.216742; 0.510575;-0.832057;,
         0.260384; 0.047945; 0.964293;,
         0.260384; 0.047945; 0.964293;,
         0.260384; 0.047945; 0.964293;,
         0.260384; 0.047945; 0.964293;,
         0.572039; 0.040742; 0.819178;,
         0.572039; 0.040742; 0.819178;,
         0.572039; 0.040742; 0.819178;,
         0.572039; 0.040742; 0.819178;,
        -0.999969; 0.000000;-0.000519;,
        -0.999969; 0.000000;-0.000519;,
        -0.999969; 0.000000;-0.000519;,
        -0.999969; 0.000000;-0.000519;,
        -0.202185;-0.589648; 0.781915;,
        -0.202185;-0.589648; 0.781915;,
        -0.202185;-0.589648; 0.781915;,
        -0.202185;-0.589648; 0.781915;,
        -0.959044;-0.014039;-0.282815;,
        -0.959044;-0.014039;-0.282815;,
        -0.959044;-0.014039;-0.282815;,
        -0.959044;-0.014039;-0.282815;,
        -0.919645; 0.019501; 0.392224;,
        -0.919645; 0.019501; 0.392224;,
        -0.919645; 0.019501; 0.392224;,
        -0.919645; 0.019501; 0.392224;,
         0.047609;-0.990631;-0.127934;,
         0.047609;-0.990631;-0.127934;,
         0.047609;-0.990631;-0.127934;,
         0.047609;-0.990631;-0.127934;,
        -0.030824; 0.997375; 0.065188;,
        -0.030824; 0.997375; 0.065188;,
        -0.030824; 0.997375; 0.065188;,
        -0.030824; 0.997375; 0.065188;,
        -0.080111;-0.935240; 0.344737;,
        -0.080111;-0.935240; 0.344737;,
        -0.080111;-0.935240; 0.344737;,
        -0.080111;-0.935240; 0.344737;,
         0.062807;-0.980712;-0.185003;,
         0.062807;-0.980712;-0.185003;,
         0.062807;-0.980712;-0.185003;,
         0.062807;-0.980712;-0.185003;,
        -0.051973; 0.988159; 0.144292;,
        -0.051973; 0.988159; 0.144292;,
        -0.051973; 0.988159; 0.144292;,
        -0.051973; 0.988159; 0.144292;,
         0.971679; 0.011719; 0.235908;,
         0.971679; 0.011719; 0.235908;,
         0.971679; 0.011719; 0.235908;,
         0.971679; 0.011719; 0.235908;,
         0.068911;-0.975677;-0.207953;,
         0.068911;-0.975677;-0.207953;,
         0.068911;-0.975677;-0.207953;,
         0.068911;-0.975677;-0.207953;,
         0.217475; 0.506088;-0.834590;,
         0.217475; 0.506088;-0.834590;,
         0.217475; 0.506088;-0.834590;,
         0.217475; 0.506088;-0.834590;,
         0.958617; 0.014130; 0.284249;,
         0.958617; 0.014130; 0.284249;,
         0.958617; 0.014130; 0.284249;,
         0.958617; 0.014130; 0.284249;,
        -0.972106;-0.011628;-0.234169;,
        -0.972106;-0.011628;-0.234169;,
        -0.972106;-0.011628;-0.234169;,
        -0.972106;-0.011628;-0.234169;,
         0.989807; 0.007050; 0.142094;,
         0.989807; 0.007050; 0.142094;,
         0.989807; 0.007050; 0.142094;,
         0.989807; 0.007050; 0.142094;,
        -0.055300; 0.986053; 0.156896;,
        -0.055300; 0.986053; 0.156896;,
        -0.055300; 0.986053; 0.156896;,
        -0.055300; 0.986053; 0.156896;,
         0.969146; 0.012238; 0.246071;,
         0.969146; 0.012238; 0.246071;,
         0.969146; 0.012238; 0.246071;,
         0.969146; 0.012238; 0.246071;,
        -0.962066;-0.013520;-0.272408;,
        -0.962066;-0.013520;-0.272408;,
        -0.962066;-0.013520;-0.272408;,
        -0.962066;-0.013520;-0.272408;,
         0.170446;-0.785180;-0.595294;,
         0.170446;-0.785180;-0.595294;,
         0.170446;-0.785180;-0.595294;,
         0.170446;-0.785180;-0.595294;,
        -0.927641;-0.018494;-0.372997;,
        -0.927641;-0.018494;-0.372997;,
        -0.927641;-0.018494;-0.372997;,
        -0.927641;-0.018494;-0.372997;,
         0.150395;-0.842097;-0.517869;,
         0.150395;-0.842097;-0.517869;,
         0.150395;-0.842097;-0.517869;,
         0.150395;-0.842097;-0.517869;,
        -0.144536; 0.856502; 0.495437;,
        -0.144536; 0.856502; 0.495437;,
        -0.144536; 0.856502; 0.495437;,
        -0.144536; 0.856502; 0.495437;,
        -0.170690; 0.784265; 0.596423;,
        -0.170690; 0.784265; 0.596423;,
        -0.170690; 0.784265; 0.596423;,
        -0.170690; 0.784265; 0.596423;,
         0.979247; 0.045564; 0.197424;,
         0.979247; 0.045564; 0.197424;,
         0.979247; 0.045564; 0.197424;,
         0.979247; 0.045564; 0.197424;,
        -0.947172; 0.019898;-0.320078;,
        -0.947172; 0.019898;-0.320078;,
        -0.947172; 0.019898;-0.320078;,
        -0.947172; 0.019898;-0.320078;,
        -0.120792; 0.906461; 0.404614;,
        -0.120792; 0.906461; 0.404614;,
        -0.120792; 0.906461; 0.404614;,
        -0.120792; 0.906461; 0.404614;,
        -0.112949; 0.920225; 0.374645;,
        -0.112949; 0.920225; 0.374645;,
        -0.112949; 0.920225; 0.374645;,
        -0.112949; 0.920225; 0.374645;,
         0.112644;-0.920743;-0.373455;,
         0.112644;-0.920743;-0.373455;,
         0.112644;-0.920743;-0.373455;,
         0.112644;-0.920743;-0.373455;,
        -0.966918;-0.012635;-0.254707;,
        -0.966918;-0.012635;-0.254707;,
        -0.966918;-0.012635;-0.254707;,
        -0.966918;-0.012635;-0.254707;,
         0.964385; 0.013153; 0.264107;,
         0.964385; 0.013153; 0.264107;,
         0.964385; 0.013153; 0.264107;,
         0.964385; 0.013153; 0.264107;,
         0.045991;-0.991485;-0.121708;,
         0.045991;-0.991485;-0.121708;,
         0.045991;-0.991485;-0.121708;,
         0.045991;-0.991485;-0.121708;,
         0.972930; 0.063448; 0.222175;,
         0.972930; 0.063448; 0.222175;,
         0.972930; 0.063448; 0.222175;,
         0.972930; 0.063448; 0.222175;,
        -0.954527; 0.037721;-0.295663;,
        -0.954527; 0.037721;-0.295663;,
        -0.954527; 0.037721;-0.295663;,
        -0.954527; 0.037721;-0.295663;,
         0.131993;-0.884610;-0.447218;,
         0.131993;-0.884610;-0.447218;,
         0.131993;-0.884610;-0.447218;,
         0.131993;-0.884610;-0.447218;,
        -0.134007; 0.880306; 0.455061;,
        -0.134007; 0.880306; 0.455061;,
        -0.134007; 0.880306; 0.455061;,
        -0.134007; 0.880306; 0.455061;,
         0.134404;-0.879513;-0.456465;,
         0.134404;-0.879513;-0.456465;,
         0.134404;-0.879513;-0.456465;,
         0.134404;-0.879513;-0.456465;,
        -0.963866;-0.013215;-0.265969;,
        -0.963866;-0.013215;-0.265969;,
        -0.963866;-0.013215;-0.265969;,
        -0.963866;-0.013215;-0.265969;,
         0.967376; 0.012574; 0.252907;,
         0.967376; 0.012574; 0.252907;,
         0.967376; 0.012574; 0.252907;,
         0.967376; 0.012574; 0.252907;,
         0.230842; 0.414930;-0.880062;,
         0.230842; 0.414930;-0.880062;,
         0.230842; 0.414930;-0.880062;,
         0.230842; 0.414930;-0.880062;,
        -0.039735; 0.994324; 0.098422;,
        -0.039735; 0.994324; 0.098422;,
        -0.039735; 0.994324; 0.098422;,
        -0.039735; 0.994324; 0.098422;,
         0.991150; 0.085238; 0.101505;,
         0.991150; 0.085238; 0.101505;,
         0.991150; 0.085238; 0.101505;,
         0.991150; 0.085238; 0.101505;,
        -0.910398; 0.059908;-0.409345;,
        -0.910398; 0.059908;-0.409345;,
        -0.910398; 0.059908;-0.409345;,
        -0.910398; 0.059908;-0.409345;,
        -0.965575;-0.012909;-0.259743;,
        -0.965484;-0.012909;-0.260079;,
        -0.963652;-0.013245;-0.266793;,
        -0.963652;-0.013245;-0.266793;,
        -0.009888; 0.999847;-0.013092;,
        -0.009919; 0.999847;-0.012970;,
        -0.060701; 0.982330; 0.176916;,
        -0.060701; 0.982330; 0.176916;,
         0.965484; 0.012909; 0.260079;,
         0.965575; 0.012909; 0.259743;,
         0.963652; 0.013245; 0.266793;,
         0.963652; 0.013245; 0.266793;,
         0.009827;-0.999847; 0.013276;,
         0.009796;-0.999847; 0.013398;,
         0.060610;-0.982391;-0.176611;,
         0.060610;-0.982391;-0.176611;,
         0.259743;-0.048067;-0.964476;,
         0.259743;-0.048067;-0.964476;,
         0.259743;-0.048067;-0.964476;,
         0.259743;-0.048067;-0.964476;,
        -0.259743; 0.047853; 0.964476;,
        -0.259743; 0.047853; 0.964476;,
        -0.259743; 0.047853; 0.964476;,
        -0.259743; 0.047853; 0.964476;,
         0.967345; 0.012574; 0.253059;,
         0.967345; 0.012574; 0.253059;,
         0.965575; 0.012909; 0.259743;,
         0.965484; 0.012909; 0.260079;,
        -0.967345;-0.012574;-0.253029;,
        -0.967345;-0.012574;-0.253029;,
        -0.965484;-0.012909;-0.260079;,
        -0.965575;-0.012909;-0.259743;,
         0.041261; 0.978393;-0.202521;,
         0.041261; 0.978393;-0.202521;,
        -0.009919; 0.999847;-0.012970;,
        -0.009888; 0.999847;-0.013092;,
        -0.041322;-0.978332; 0.202765;,
        -0.041322;-0.978332; 0.202765;,
         0.009796;-0.999847; 0.013398;,
         0.009827;-0.999847; 0.013276;,
         0.998973; 0.045301; 0.000000;,
         0.000000; 0.000000; 1.000000;,
        -0.998973;-0.045301; 0.000000;,
         0.000000;-0.000000;-1.000000;,
         0.788200;-0.615419; 0.000000;,
         0.876615; 0.481193; 0.000000;,
         0.000000;-0.045094; 0.998983;,
        -0.788200;-0.615418; 0.000000;,
         0.000000;-0.615419;-0.788200;,
         0.000000;-0.615419; 0.788200;,
        -0.000000; 1.000000; 0.000000;,
        -0.998983;-0.045094; 0.000000;,
         0.998983;-0.045094; 0.000000;,
         0.000000;-0.045094;-0.998983;,
         0.000000;-0.204594;-0.978847;,
         0.000000; 0.481192;-0.876615;,
         0.000000; 0.481193; 0.876615;,
        -0.876615; 0.481193; 0.000000;,
        -0.974863;-0.222806; 0.000000;,
         0.000000;-0.204594; 0.978847;,
        -0.978847;-0.204594; 0.000000;,
         0.978847;-0.204595; 0.000000;,
        -0.000000;-1.000000; 0.000000;,
         0.974863;-0.222806; 0.000000;,
         0.000000;-0.222806;-0.974863;,
         0.000000;-0.222806; 0.974863;;
        136;
        4;3,2,1,0;,
        4;7,6,5,4;,
        4;11,10,9,8;,
        4;15,14,13,12;,
        4;19,18,17,16;,
        4;23,22,21,20;,
        4;27,26,25,24;,
        4;31,30,29,28;,
        4;35,34,33,32;,
        4;39,38,37,36;,
        4;43,42,41,40;,
        4;47,46,45,44;,
        4;51,50,49,48;,
        4;55,54,53,52;,
        4;59,58,57,56;,
        4;63,62,61,60;,
        4;67,66,65,64;,
        4;71,70,69,68;,
        4;75,74,73,72;,
        4;79,78,77,76;,
        4;83,82,81,80;,
        4;87,86,85,84;,
        4;91,90,89,88;,
        4;95,94,93,92;,
        4;99,98,97,96;,
        4;103,102,101,100;,
        4;107,106,105,104;,
        4;111,110,109,108;,
        4;115,114,113,112;,
        4;119,118,117,116;,
        4;123,122,121,120;,
        4;127,126,125,124;,
        4;131,130,129,128;,
        4;135,134,133,132;,
        4;139,138,137,136;,
        4;143,142,141,140;,
        4;147,146,145,144;,
        4;151,150,149,148;,
        4;155,154,153,152;,
        4;159,158,157,156;,
        4;163,162,161,160;,
        4;167,166,165,164;,
        4;171,170,169,168;,
        4;175,174,173,172;,
        4;179,178,177,176;,
        4;183,182,181,180;,
        4;187,186,185,184;,
        4;191,190,189,188;,
        4;195,194,193,192;,
        4;199,198,197,196;,
        4;203,202,201,200;,
        4;207,206,205,204;,
        4;211,210,209,208;,
        4;215,214,213,212;,
        4;219,218,217,216;,
        4;223,222,221,220;,
        4;227,226,225,224;,
        4;231,230,229,228;,
        4;235,234,233,232;,
        4;239,238,237,236;,
        4;243,242,241,240;,
        4;247,246,245,244;,
        4;251,250,249,248;,
        4;255,254,253,252;,
        4;259,258,257,256;,
        4;263,262,261,260;,
        4;267,266,265,264;,
        4;271,270,269,268;,
        4;275,274,273,272;,
        4;279,278,277,276;,
        4;283,282,281,280;,
        4;287,286,285,284;,
        4;291,290,289,288;,
        4;295,294,293,292;,
        4;299,298,297,296;,
        4;303,302,301,300;,
        4;307,306,305,304;,
        4;311,310,309,308;,
        4;315,314,313,312;,
        4;319,318,317,316;,
        4;323,322,321,320;,
        4;327,326,325,324;,
        4;331,330,329,328;,
        4;335,334,333,332;,
        4;339,338,337,336;,
        4;343,342,341,340;,
        4;347,346,345,344;,
        4;351,350,349,348;,
        4;355,354,353,352;,
        4;359,358,357,356;,
        4;363,362,361,360;,
        4;367,366,365,364;,
        4;371,370,369,368;,
        4;375,374,373,372;,
        4;379,378,377,376;,
        4;383,382,381,380;,
        4;387,386,385,384;,
        4;391,390,389,388;,
        4;395,394,393,392;,
        4;399,398,397,396;,
        4;403,402,401,400;,
        4;407,406,405,404;,
        4;411,410,409,408;,
        4;415,414,413,412;,
        4;419,418,417,416;,
        4;423,422,421,420;,
        4;427,426,425,424;,
        4;431,430,429,428;,
        4;435,434,433,432;,
        4;439,438,437,436;,
        4;440,440,440,440;,
        4;441,441,441,441;,
        4;442,442,442,442;,
        4;443,443,443,443;,
        4;444,444,444,444;,
        4;445,445,445,445;,
        4;446,446,446,446;,
        4;447,447,447,447;,
        4;448,448,448,448;,
        4;449,449,449,449;,
        4;450,450,450,450;,
        4;451,451,451,451;,
        4;452,452,452,452;,
        4;453,453,453,453;,
        4;454,454,454,454;,
        4;455,455,455,455;,
        4;456,456,456,456;,
        4;457,457,457,457;,
        4;458,458,458,458;,
        4;459,459,459,459;,
        4;460,460,460,460;,
        4;461,461,461,461;,
        4;462,462,462,462;,
        4;463,463,463,463;,
        4;464,464,464,464;,
        4;465,465,465,465;;
      } // End of _0002 normals
      MeshTextureCoords { // _0002 UV coordinates
        544;
         0.404948; 0.531439;,
         0.329468; 0.542544;,
         0.318540; 0.480151;,
         0.383981; 0.470523;,
         0.764980; 0.399131;,
         0.719559; 0.399131;,
         0.720519; 0.337672;,
         0.789039; 0.337672;,
         0.192514; 0.000000;,
         0.267995; 0.011102;,
         0.246711; 0.071966;,
         0.181269; 0.062341;,
         0.688665; 0.493918;,
         0.643243; 0.493918;,
         0.619185; 0.433514;,
         0.687705; 0.433514;,
         0.652672; 0.493918;,
         0.652672; 0.535946;,
         0.607251; 0.535946;,
         0.607251; 0.493918;,
         0.800972; 0.280150;,
         0.789039; 0.337672;,
         0.720519; 0.337672;,
         0.704112; 0.280150;,
         0.152103; 0.126018;,
         0.148649; 0.116557;,
         0.197254; 0.123705;,
         0.197297; 0.132665;,
         0.148649; 0.116557;,
         0.181269; 0.062341;,
         0.246711; 0.071966;,
         0.197254; 0.123705;,
         0.334521; 0.418969;,
         0.383981; 0.470523;,
         0.318540; 0.480151;,
         0.285917; 0.426119;,
         0.704112; 0.376541;,
         0.687705; 0.433514;,
         0.619185; 0.433514;,
         0.607251; 0.376541;,
         0.318764; 0.403569;,
         0.334559; 0.410011;,
         0.289366; 0.416660;,
         0.281597; 0.409037;,
         0.334559; 0.410011;,
         0.334521; 0.418969;,
         0.285917; 0.426119;,
         0.289366; 0.416660;,
         0.704112; 0.368374;,
         0.704112; 0.376541;,
         0.607251; 0.376541;,
         0.607251; 0.368374;,
         0.800972; 0.271636;,
         0.800972; 0.280150;,
         0.704112; 0.280150;,
         0.704112; 0.271636;,
         0.698829; 0.346039;,
         0.699612; 0.359786;,
         0.611750; 0.359786;,
         0.612540; 0.346039;,
         0.699612; 0.359786;,
         0.704112; 0.368374;,
         0.607251; 0.368374;,
         0.611750; 0.359786;,
         0.796473; 0.262895;,
         0.800972; 0.271636;,
         0.704112; 0.271636;,
         0.708611; 0.262895;,
         0.144363; 0.133600;,
         0.152103; 0.126018;,
         0.197297; 0.132665;,
         0.181530; 0.139066;,
         0.699082; 0.242525;,
         0.698829; 0.346039;,
         0.612540; 0.346039;,
         0.612372; 0.242525;,
         0.795683; 0.248955;,
         0.796473; 0.262895;,
         0.708611; 0.262895;,
         0.709394; 0.248955;,
         0.132206; 0.145787;,
         0.144363; 0.133600;,
         0.181530; 0.139066;,
         0.158627; 0.149673;,
         0.295850; 0.392959;,
         0.318764; 0.403569;,
         0.281597; 0.409037;,
         0.269429; 0.396846;,
         0.207629; 0.420450;,
         0.187945; 0.392227;,
         0.201274; 0.394188;,
         0.218701; 0.422079;,
         0.795852; 0.143256;,
         0.795683; 0.248955;,
         0.709394; 0.248955;,
         0.709141; 0.143256;,
         0.130825; 0.256316;,
         0.132206; 0.145787;,
         0.158627; 0.149673;,
         0.144825; 0.258375;,
         0.281994; 0.284286;,
         0.295850; 0.392959;,
         0.269429; 0.396846;,
         0.267995; 0.286345;,
         0.684708; 0.073776;,
         0.690018; 0.104120;,
         0.621442; 0.104120;,
         0.626752; 0.073776;,
         0.355745; 0.120527;,
         0.338369; 0.148480;,
         0.325040; 0.150441;,
         0.344673; 0.122156;,
         0.690018; 0.104120;,
         0.697007; 0.126664;,
         0.614452; 0.126664;,
         0.621442; 0.104120;,
         0.786781; 0.000000;,
         0.793771; 0.023594;,
         0.711216; 0.023594;,
         0.718205; 0.000000;,
         0.800972; 0.475351;,
         0.854496; 0.472461;,
         0.854496; 0.509779;,
         0.800972; 0.506889;,
         0.243250; 0.460339;,
         0.207629; 0.420450;,
         0.218701; 0.422079;,
         0.249316; 0.456224;,
         0.386316; 0.086336;,
         0.355745; 0.120527;,
         0.344673; 0.122156;,
         0.380247; 0.082223;,
         0.995346; 0.040000;,
         1.000000; 0.079997;,
         0.942044; 0.079997;,
         0.946698; 0.040000;,
         0.794212; 0.057839;,
         0.795852; 0.143256;,
         0.709141; 0.143256;,
         0.710775; 0.057839;,
         0.697448; 0.159688;,
         0.699082; 0.242525;,
         0.612372; 0.242525;,
         0.614011; 0.159688;,
         0.317560; 0.188171;,
         0.281994; 0.284286;,
         0.267995; 0.286345;,
         0.304088; 0.190153;,
         0.166973; 0.352513;,
         0.130825; 0.256316;,
         0.144825; 0.258375;,
         0.180445; 0.354494;,
         0.667407; 0.000000;,
         0.680054; 0.038963;,
         0.631405; 0.038963;,
         0.644052; 0.000000;,
         0.264409; 0.502005;,
         0.243250; 0.460339;,
         0.249316; 0.456224;,
         0.267994; 0.501585;,
         0.404948; 0.040940;,
         0.386316; 0.086336;,
         0.380247; 0.082223;,
         0.401363; 0.040520;,
         0.680054; 0.038963;,
         0.684708; 0.073776;,
         0.626752; 0.073776;,
         0.631405; 0.038963;,
         0.793771; 0.023594;,
         0.794212; 0.057839;,
         0.710775; 0.057839;,
         0.711216; 0.023594;,
         0.697007; 0.126664;,
         0.697448; 0.159688;,
         0.614011; 0.159688;,
         0.614452; 0.126664;,
         0.338369; 0.148480;,
         0.317560; 0.188171;,
         0.304088; 0.190153;,
         0.325040; 0.150441;,
         0.187945; 0.392227;,
         0.166973; 0.352513;,
         0.180445; 0.354494;,
         0.201274; 0.394188;,
         0.887150; 0.413043;,
         0.888801; 0.413000;,
         0.888801; 0.425599;,
         0.887150; 0.425642;,
         0.982700; 0.000000;,
         0.995346; 0.040000;,
         0.946698; 0.040000;,
         0.959344; 0.000000;,
         0.258179; 0.542413;,
         0.264409; 0.502005;,
         0.267994; 0.501585;,
         0.259900; 0.542211;,
         0.396764; 0.000201;,
         0.404948; 0.040940;,
         0.401363; 0.040520;,
         0.395043; 0.000000;,
         0.042508; 0.064382;,
         0.055548; 0.000000;,
         0.130825; 0.011505;,
         0.107773; 0.074357;,
         0.943003; 0.208750;,
         0.942044; 0.144660;,
         0.985920; 0.144660;,
         0.983853; 0.208750;,
         0.800972; 0.464628;,
         0.808964; 0.400663;,
         0.887150; 0.400290;,
         0.868760; 0.464304;,
         0.944111; 0.144660;,
         0.942044; 0.079997;,
         0.985920; 0.079997;,
         0.984960; 0.144660;,
         0.985533; 0.250995;,
         0.942044; 0.251375;,
         0.942044; 0.209130;,
         0.985533; 0.208750;,
         0.652672; 0.522818;,
         0.652672; 0.500589;,
         0.676757; 0.493918;,
         0.676757; 0.524949;,
         0.854496; 0.506934;,
         0.854496; 0.472461;,
         0.883706; 0.474854;,
         0.883706; 0.508752;,
         0.800972; 0.464628;,
         0.868760; 0.464304;,
         0.887150; 0.472157;,
         0.823350; 0.472461;,
         0.042508; 0.064382;,
         0.107773; 0.074357;,
         0.082512; 0.078782;,
         0.021086; 0.069394;,
         0.958228; 0.307609;,
         0.958228; 0.329645;,
         0.942044; 0.330563;,
         0.942044; 0.299801;,
         0.019414; 0.078248;,
         0.079817; 0.087479;,
         0.066312; 0.189868;,
         0.013915; 0.181860;,
         0.021086; 0.069394;,
         0.082512; 0.078782;,
         0.079817; 0.087479;,
         0.019414; 0.078248;,
         0.537736; 0.000000;,
         0.594760; 0.000000;,
         0.607251; 0.008762;,
         0.510391; 0.008762;,
         0.716603; 0.399131;,
         0.773627; 0.399131;,
         0.800972; 0.407816;,
         0.704112; 0.407816;,
         0.514890; 0.111405;,
         0.602752; 0.111405;,
         0.603318; 0.122776;,
         0.514328; 0.122776;,
         0.510391; 0.008762;,
         0.607251; 0.008762;,
         0.602752; 0.111405;,
         0.514890; 0.111405;,
         0.704112; 0.407816;,
         0.800972; 0.407816;,
         0.796473; 0.509349;,
         0.708611; 0.509349;,
         0.510391; 0.531546;,
         0.451035; 0.542608;,
         0.434780; 0.439275;,
         0.486268; 0.429679;,
         0.514328; 0.122776;,
         0.603318; 0.122776;,
         0.599892; 0.264090;,
         0.517842; 0.264090;,
         0.942044; 0.299493;,
         0.942044; 0.251681;,
         0.978277; 0.251375;,
         0.978277; 0.299801;,
         0.486268; 0.429679;,
         0.434780; 0.439275;,
         0.421075; 0.429336;,
         0.447779; 0.424360;,
         0.013915; 0.181860;,
         0.066312; 0.189868;,
         0.028436; 0.196359;,
         0.001261; 0.192206;,
         0.452785; 0.158188;,
         0.439723; 0.160623;,
         0.459981; 0.123502;,
         0.470831; 0.121480;,
         0.800972; 0.000000;,
         0.889962; 0.000000;,
         0.886449; 0.139524;,
         0.804398; 0.139524;,
         0.447779; 0.424360;,
         0.421075; 0.429336;,
         0.404948; 0.286281;,
         0.417931; 0.283862;,
         0.001261; 0.192206;,
         0.028436; 0.196359;,
         0.013212; 0.337499;,
         0.000000; 0.335480;,
         0.524581; 0.415826;,
         0.593157; 0.415826;,
         0.587848; 0.452038;,
         0.529891; 0.452038;,
         0.047739; 0.459870;,
         0.061032; 0.461901;,
         0.082883; 0.497930;,
         0.071841; 0.496242;,
         0.517592; 0.382179;,
         0.600147; 0.382179;,
         0.593157; 0.415826;,
         0.524581; 0.415826;,
         0.804144; 0.255083;,
         0.886698; 0.255083;,
         0.879709; 0.287655;,
         0.811133; 0.287655;,
         0.811133; 0.287655;,
         0.879709; 0.287655;,
         0.874399; 0.317489;,
         0.816443; 0.317489;,
         0.470831; 0.121480;,
         0.459981; 0.123502;,
         0.490694; 0.082424;,
         0.497245; 0.086312;,
         0.071841; 0.496242;,
         0.082883; 0.497930;,
         0.112921; 0.532180;,
         0.106784; 0.536262;,
         0.816443; 0.317489;,
         0.874399; 0.317489;,
         0.869745; 0.359661;,
         0.821097; 0.359661;,
         0.804398; 0.139524;,
         0.886449; 0.139524;,
         0.887140; 0.218695;,
         0.803702; 0.218695;,
         0.517842; 0.264090;,
         0.599892; 0.264090;,
         0.600588; 0.344841;,
         0.517151; 0.344841;,
         0.000000; 0.335480;,
         0.013212; 0.337499;,
         0.040897; 0.422106;,
         0.027462; 0.420053;,
         0.417931; 0.283862;,
         0.404948; 0.286281;,
         0.423606; 0.201003;,
         0.436808; 0.198543;,
         0.534545; 0.491280;,
         0.583194; 0.491280;,
         0.570547; 0.531690;,
         0.547192; 0.531690;,
         0.497245; 0.086312;,
         0.490694; 0.082424;,
         0.506762; 0.040092;,
         0.510390; 0.040382;,
         0.106784; 0.536262;,
         0.112921; 0.532180;,
         0.130825; 0.577587;,
         0.127234; 0.577988;,
         0.529891; 0.452038;,
         0.587848; 0.452038;,
         0.583194; 0.491280;,
         0.534545; 0.491280;,
         0.803702; 0.218695;,
         0.887140; 0.218695;,
         0.886698; 0.255083;,
         0.804144; 0.255083;,
         0.517151; 0.344841;,
         0.600588; 0.344841;,
         0.600147; 0.382179;,
         0.517592; 0.382179;,
         0.027462; 0.420053;,
         0.040897; 0.422106;,
         0.061032; 0.461901;,
         0.047739; 0.459870;,
         0.436808; 0.198543;,
         0.423606; 0.201003;,
         0.439723; 0.160623;,
         0.452785; 0.158188;,
         0.887150; 0.413000;,
         0.887150; 0.400290;,
         0.888822; 0.400290;,
         0.888822; 0.413000;,
         0.821097; 0.359661;,
         0.869745; 0.359661;,
         0.857099; 0.400290;,
         0.833743; 0.400290;,
         0.510390; 0.040382;,
         0.506762; 0.040092;,
         0.495654; 0.000000;,
         0.497396; 0.000139;,
         0.127234; 0.577988;,
         0.130825; 0.577587;,
         0.122079; 0.618035;,
         0.120355; 0.618227;,
         0.916003; 0.499825;,
         0.929020; 0.500003;,
         0.929020; 0.999829;,
         0.916003; 0.999651;,
         0.916003; 0.499750;,
         0.902980; 0.499750;,
         0.902980; 0.000000;,
         0.916003; 0.000000;,
         0.889962; 0.500089;,
         0.902979; 0.499911;,
         0.902980; 0.999823;,
         0.889962; 1.000000;,
         0.942044; 0.498464;,
         0.929021; 0.498464;,
         0.929020; 0.000000;,
         0.942043; 0.000000;,
         0.689665; 0.493918;,
         0.702527; 0.493918;,
         0.702527; 0.501005;,
         0.689665; 0.501005;,
         0.676757; 0.501066;,
         0.676757; 0.494031;,
         0.689665; 0.493918;,
         0.689665; 0.500953;,
         0.889962; 0.000177;,
         0.902979; 0.000000;,
         0.902979; 0.499911;,
         0.889962; 0.500089;,
         0.916003; 0.000000;,
         0.929020; 0.000178;,
         0.929020; 0.500003;,
         0.916003; 0.499825;,
         0.916003; 0.999501;,
         0.902980; 0.999501;,
         0.902980; 0.499750;,
         0.916003; 0.499750;,
         0.942044; 0.996928;,
         0.929021; 0.996928;,
         0.929021; 0.498464;,
         0.942044; 0.498464;,
         0.000000; 1.000000;,
         0.000000; 1.000000;,
         0.000000; 1.000000;,
         0.000000; 1.000000;,
         0.000000; 1.000000;,
         0.000000; 1.000000;,
         0.000000; 1.000000;,
         0.000000; 1.000000;,
         0.000000; 1.000000;,
         0.000000; 1.000000;,
         0.000000; 1.000000;,
         0.000000; 1.000000;,
         0.000000; 1.000000;,
         0.000000; 1.000000;,
         0.000000; 1.000000;,
         0.000000; 1.000000;,
         0.000000; 1.000000;,
         0.000000; 1.000000;,
         0.000000; 1.000000;,
         0.000000; 1.000000;,
         0.000000; 1.000000;,
         0.000000; 1.000000;,
         0.000000; 1.000000;,
         0.000000; 1.000000;,
         0.000000; 1.000000;,
         0.000000; 1.000000;,
         0.000000; 1.000000;,
         0.000000; 1.000000;,
         0.000000; 1.000000;,
         0.000000; 1.000000;,
         0.000000; 1.000000;,
         0.000000; 1.000000;,
         0.000000; 1.000000;,
         0.000000; 1.000000;,
         0.000000; 1.000000;,
         0.000000; 1.000000;,
         0.000000; 1.000000;,
         0.000000; 1.000000;,
         0.000000; 1.000000;,
         0.000000; 1.000000;,
         0.000000; 1.000000;,
         0.000000; 1.000000;,
         0.000000; 1.000000;,
         0.000000; 1.000000;,
         0.000000; 1.000000;,
         0.000000; 1.000000;,
         0.000000; 1.000000;,
         0.000000; 1.000000;,
         0.000000; 1.000000;,
         0.000000; 1.000000;,
         0.000000; 1.000000;,
         0.000000; 1.000000;,
         0.000000; 1.000000;,
         0.000000; 1.000000;,
         0.000000; 1.000000;,
         0.000000; 1.000000;,
         0.000000; 1.000000;,
         0.000000; 1.000000;,
         0.000000; 1.000000;,
         0.000000; 1.000000;,
         0.000000; 1.000000;,
         0.000000; 1.000000;,
         0.000000; 1.000000;,
         0.000000; 1.000000;,
         0.000000; 1.000000;,
         0.000000; 1.000000;,
         0.000000; 1.000000;,
         0.000000; 1.000000;,
         0.000000; 1.000000;,
         0.000000; 1.000000;,
         0.000000; 1.000000;,
         0.000000; 1.000000;,
         0.000000; 1.000000;,
         0.000000; 1.000000;,
         0.000000; 1.000000;,
         0.000000; 1.000000;,
         0.000000; 1.000000;,
         0.000000; 1.000000;,
         0.000000; 1.000000;,
         0.000000; 1.000000;,
         0.000000; 1.000000;,
         0.000000; 1.000000;,
         0.000000; 1.000000;,
         0.000000; 1.000000;,
         0.000000; 1.000000;,
         0.000000; 1.000000;,
         0.000000; 1.000000;,
         0.000000; 1.000000;,
         0.000000; 1.000000;,
         0.000000; 1.000000;,
         0.000000; 1.000000;,
         0.000000; 1.000000;,
         0.000000; 1.000000;,
         0.000000; 1.000000;,
         0.000000; 1.000000;,
         0.000000; 1.000000;,
         0.000000; 1.000000;,
         0.000000; 1.000000;,
         0.000000; 1.000000;,
         0.000000; 1.000000;,
         0.000000; 1.000000;,
         0.000000; 1.000000;,
         0.000000; 1.000000;,
         0.000000; 1.000000;;
      } // End of _0002 UV coordinates
      MeshMaterialList { // _0002 material list
        1;
        136;
        0,
        0,
        0,
        0,
        0,
        0,
        0,
        0,
        0,
        0,
        0,
        0,
        0,
        0,
        0,
        0,
        0,
        0,
        0,
        0,
        0,
        0,
        0,
        0,
        0,
        0,
        0,
        0,
        0,
        0,
        0,
        0,
        0,
        0,
        0,
        0,
        0,
        0,
        0,
        0,
        0,
        0,
        0,
        0,
        0,
        0,
        0,
        0,
        0,
        0,
        0,
        0,
        0,
        0,
        0,
        0,
        0,
        0,
        0,
        0,
        0,
        0,
        0,
        0,
        0,
        0,
        0,
        0,
        0,
        0,
        0,
        0,
        0,
        0,
        0,
        0,
        0,
        0,
        0,
        0,
        0,
        0,
        0,
        0,
        0,
        0,
        0,
        0,
        0,
        0,
        0,
        0,
        0,
        0,
        0,
        0,
        0,
        0,
        0,
        0,
        0,
        0,
        0,
        0,
        0,
        0,
        0,
        0,
        0,
        0,
        0,
        0,
        0,
        0,
        0,
        0,
        0,
        0,
        0,
        0,
        0,
        0,
        0,
        0,
        0,
        0,
        0,
        0,
        0,
        0,
        0,
        0,
        0,
        0,
        0,
        0;
        Material Material_001 {
           0.640000; 0.640000; 0.640000; 1.000000;;
           96.078431;
           0.500000; 0.500000; 0.500000;;
           0.000000; 0.000000; 0.000000;;
        }
      } // End of _0002 material list
    } // End of _0002 mesh
  } // End of _0002
} // End of Root
