xof 0303txt 0032

Frame Root {
  FrameTransformMatrix {
     1.000000, 0.000000, 0.000000, 0.000000,
     0.000000,-0.000000, 1.000000, 0.000000,
     0.000000, 1.000000, 0.000000, 0.000000,
     0.000000, 0.000000, 0.000000, 1.000000;;
  }
  Frame Cube {
    FrameTransformMatrix {
       1.000000, 0.000000, 0.000000, 0.000000,
       0.000000, 1.000000, 0.000000, 0.000000,
       0.000000, 0.000000, 1.000000, 0.000000,
       0.000000, 0.000000, 0.000000, 1.000000;;
    }
    Mesh { // Cube mesh
      424;
      -0.022315; 0.021012; 0.226083;,
      -0.032977; 0.061616; 0.216817;,
      -0.032977; 0.060359; 0.191544;,
      -0.022315; 0.019563; 0.196933;,
      -0.022315; 0.019563; 0.196933;,
      -0.032977; 0.060359; 0.191544;,
      -0.008280; 0.066994; 0.191214;,
      -0.005944; 0.023961; 0.196714;,
      -0.005944; 0.023961; 0.196714;,
      -0.008280; 0.066994; 0.191214;,
      -0.008280; 0.068251; 0.216487;,
      -0.005944; 0.025411; 0.225865;,
      -0.005944; 0.025411; 0.225865;,
      -0.008280; 0.068251; 0.216487;,
      -0.032977; 0.061616; 0.216817;,
      -0.022315; 0.021012; 0.226083;,
      -0.022315; 0.019563; 0.196933;,
      -0.005944; 0.023961; 0.196714;,
      -0.005944; 0.025411; 0.225865;,
      -0.022315; 0.021012; 0.226083;,
      -0.008280; 0.066994; 0.191214;,
      -0.032977; 0.060359; 0.191544;,
      -0.049041; 0.096880; 0.198235;,
      -0.014130; 0.106259; 0.197768;,
      -0.014130; 0.107193; 0.216539;,
      -0.014130; 0.106259; 0.197768;,
      -0.015670; 0.111896; 0.195867;,
      -0.015670; 0.112764; 0.213321;,
      -0.008280; 0.068251; 0.216487;,
      -0.008280; 0.066994; 0.191214;,
      -0.014130; 0.106259; 0.197768;,
      -0.014130; 0.107193; 0.216539;,
      -0.032977; 0.060359; 0.191544;,
      -0.032977; 0.061616; 0.216817;,
      -0.049041; 0.097813; 0.217006;,
      -0.049041; 0.096880; 0.198235;,
      -0.032977; 0.061616; 0.216817;,
      -0.008280; 0.068251; 0.216487;,
      -0.014130; 0.107193; 0.216539;,
      -0.049041; 0.097813; 0.217006;,
      -0.050581; 0.102517; 0.196333;,
      -0.050581; 0.103385; 0.213787;,
      -0.050459; 0.109461; 0.214943;,
      -0.050459; 0.108747; 0.200590;,
      -0.049041; 0.096880; 0.198235;,
      -0.049041; 0.097813; 0.217006;,
      -0.050581; 0.103385; 0.213787;,
      -0.050581; 0.102517; 0.196333;,
      -0.049041; 0.097813; 0.217006;,
      -0.014130; 0.107193; 0.216539;,
      -0.015670; 0.112764; 0.213321;,
      -0.050581; 0.103385; 0.213787;,
      -0.014130; 0.106259; 0.197768;,
      -0.049041; 0.096880; 0.198235;,
      -0.050581; 0.102517; 0.196333;,
      -0.015670; 0.111896; 0.195867;,
      -0.050459; 0.109461; 0.214943;,
      -0.018791; 0.117969; 0.214520;,
      -0.021479; 0.126927; 0.216282;,
      -0.052580; 0.118571; 0.216697;,
      -0.050581; 0.103385; 0.213787;,
      -0.015670; 0.112764; 0.213321;,
      -0.018791; 0.117969; 0.214520;,
      -0.050459; 0.109461; 0.214943;,
      -0.015670; 0.111896; 0.195867;,
      -0.050581; 0.102517; 0.196333;,
      -0.050459; 0.108747; 0.200590;,
      -0.018791; 0.117255; 0.200167;,
      -0.015670; 0.112764; 0.213321;,
      -0.015670; 0.111896; 0.195867;,
      -0.018791; 0.117255; 0.200167;,
      -0.018791; 0.117969; 0.214520;,
      -0.052580; 0.118571; 0.216697;,
      -0.021479; 0.126927; 0.216282;,
      -0.040464; 0.196698; 0.193502;,
      -0.071717; 0.188301; 0.193920;,
      -0.018791; 0.117255; 0.200167;,
      -0.050459; 0.108747; 0.200590;,
      -0.052580; 0.118063; 0.206493;,
      -0.021479; 0.126419; 0.206078;,
      -0.018791; 0.117969; 0.214520;,
      -0.018791; 0.117255; 0.200167;,
      -0.021479; 0.126419; 0.206078;,
      -0.021479; 0.126927; 0.216282;,
      -0.050459; 0.108747; 0.200590;,
      -0.050459; 0.109461; 0.214943;,
      -0.052580; 0.118571; 0.216697;,
      -0.052580; 0.118063; 0.206493;,
      -0.063146; 0.275694; 0.144622;,
      -0.063146; 0.275438; 0.139474;,
      -0.070021; 0.290376; 0.127484;,
      -0.070021; 0.290589; 0.131760;,
      -0.021479; 0.126419; 0.206078;,
      -0.052580; 0.118063; 0.206493;,
      -0.071717; 0.188032; 0.188513;,
      -0.040464; 0.196429; 0.188096;,
      -0.021479; 0.126927; 0.216282;,
      -0.021479; 0.126419; 0.206078;,
      -0.040464; 0.196429; 0.188096;,
      -0.040464; 0.196698; 0.193502;,
      -0.052580; 0.118063; 0.206493;,
      -0.052580; 0.118571; 0.216697;,
      -0.071717; 0.188301; 0.193920;,
      -0.071717; 0.188032; 0.188513;,
      -0.094737; 0.283948; 0.132090;,
      -0.070021; 0.290589; 0.131760;,
      -0.077894; 0.311211; 0.110764;,
      -0.098783; 0.305598; 0.111043;,
      -0.092900; 0.267444; 0.139872;,
      -0.092900; 0.267700; 0.145019;,
      -0.094737; 0.283948; 0.132090;,
      -0.094737; 0.283736; 0.127814;,
      -0.092900; 0.267700; 0.145019;,
      -0.063146; 0.275694; 0.144622;,
      -0.070021; 0.290589; 0.131760;,
      -0.094737; 0.283948; 0.132090;,
      -0.063146; 0.275438; 0.139474;,
      -0.092900; 0.267444; 0.139872;,
      -0.094737; 0.283736; 0.127814;,
      -0.070021; 0.290376; 0.127484;,
      -0.070021; 0.290376; 0.127484;,
      -0.094737; 0.283736; 0.127814;,
      -0.097922; 0.302329; 0.109755;,
      -0.077033; 0.307941; 0.109475;,
      -0.070021; 0.290589; 0.131760;,
      -0.070021; 0.290376; 0.127484;,
      -0.077033; 0.307941; 0.109475;,
      -0.077894; 0.311211; 0.110764;,
      -0.094737; 0.283736; 0.127814;,
      -0.094737; 0.283948; 0.132090;,
      -0.098783; 0.305598; 0.111043;,
      -0.097922; 0.302329; 0.109755;,
      -0.077033; 0.307941; 0.109475;,
      -0.097922; 0.302329; 0.109755;,
      -0.103574; 0.329256; 0.093574;,
      -0.086039; 0.333967; 0.093339;,
      -0.040464; 0.196429; 0.188096;,
      -0.071717; 0.188032; 0.188513;,
      -0.086759; 0.244735; 0.155627;,
      -0.056686; 0.252814; 0.155225;,
      -0.071717; 0.188301; 0.193920;,
      -0.040464; 0.196698; 0.193502;,
      -0.056686; 0.253073; 0.160428;,
      -0.086759; 0.244993; 0.160829;,
      -0.071717; 0.188032; 0.188513;,
      -0.071717; 0.188301; 0.193920;,
      -0.086759; 0.244993; 0.160829;,
      -0.086759; 0.244735; 0.155627;,
      -0.040464; 0.196698; 0.193502;,
      -0.040464; 0.196429; 0.188096;,
      -0.056686; 0.252814; 0.155225;,
      -0.056686; 0.253073; 0.160428;,
      -0.103736; 0.329921; 0.094759;,
      -0.086202; 0.334632; 0.094524;,
      -0.097868; 0.359551; 0.088362;,
      -0.106286; 0.357289; 0.088474;,
      -0.077894; 0.311211; 0.110764;,
      -0.077033; 0.307941; 0.109475;,
      -0.086039; 0.333967; 0.093339;,
      -0.086202; 0.334632; 0.094524;,
      -0.097922; 0.302329; 0.109755;,
      -0.098783; 0.305598; 0.111043;,
      -0.103736; 0.329921; 0.094759;,
      -0.103574; 0.329256; 0.093574;,
      -0.098783; 0.305598; 0.111043;,
      -0.077894; 0.311211; 0.110764;,
      -0.086202; 0.334632; 0.094524;,
      -0.103736; 0.329921; 0.094759;,
      -0.056686; 0.252814; 0.155225;,
      -0.086759; 0.244735; 0.155627;,
      -0.092900; 0.267444; 0.139872;,
      -0.063146; 0.275438; 0.139474;,
      -0.086759; 0.244993; 0.160829;,
      -0.056686; 0.253073; 0.160428;,
      -0.063146; 0.275694; 0.144622;,
      -0.092900; 0.267700; 0.145019;,
      -0.086759; 0.244735; 0.155627;,
      -0.086759; 0.244993; 0.160829;,
      -0.092900; 0.267700; 0.145019;,
      -0.092900; 0.267444; 0.139872;,
      -0.056686; 0.253073; 0.160428;,
      -0.056686; 0.252814; 0.155225;,
      -0.063146; 0.275438; 0.139474;,
      -0.063146; 0.275694; 0.144622;,
      -0.106286; 0.357289; 0.088474;,
      -0.097868; 0.359551; 0.088362;,
      -0.097789; 0.359231; 0.087793;,
      -0.106207; 0.356970; 0.087905;,
      -0.086039; 0.333967; 0.093339;,
      -0.103574; 0.329256; 0.093574;,
      -0.106207; 0.356970; 0.087905;,
      -0.097789; 0.359231; 0.087793;,
      -0.086202; 0.334632; 0.094524;,
      -0.086039; 0.333967; 0.093339;,
      -0.097789; 0.359231; 0.087793;,
      -0.097868; 0.359551; 0.088362;,
      -0.103574; 0.329256; 0.093574;,
      -0.103736; 0.329921; 0.094759;,
      -0.106286; 0.357289; 0.088474;,
      -0.106207; 0.356970; 0.087905;,
      -0.022338; 0.021098; 0.226079;,
      -0.022338; 0.019649; 0.196929;,
      -0.010603;-0.022712; 0.195675;,
      -0.010603;-0.021455; 0.220948;,
      -0.022338; 0.019649; 0.196929;,
      -0.006524; 0.023898; 0.196718;,
       0.004120;-0.018756; 0.195478;,
      -0.010603;-0.022712; 0.195675;,
      -0.006524; 0.023898; 0.196718;,
      -0.006524; 0.025347; 0.225868;,
       0.004120;-0.017499; 0.220752;,
       0.004120;-0.018756; 0.195478;,
      -0.006524; 0.025347; 0.225868;,
      -0.022338; 0.021098; 0.226079;,
      -0.010603;-0.021455; 0.220948;,
       0.004120;-0.017499; 0.220752;,
      -0.022338; 0.019649; 0.196929;,
      -0.022338; 0.021098; 0.226079;,
      -0.006524; 0.025347; 0.225868;,
      -0.006524; 0.023898; 0.196718;,
       0.004120;-0.018756; 0.195478;,
       0.009953;-0.022410; 0.203909;,
      -0.010600;-0.027932; 0.204183;,
      -0.010603;-0.022712; 0.195675;,
       0.009953;-0.021227; 0.227695;,
       0.021349;-0.024352; 0.226744;,
       0.021349;-0.025515; 0.203353;,
       0.009953;-0.022410; 0.203909;,
       0.004120;-0.017499; 0.220752;,
       0.009953;-0.021227; 0.227695;,
       0.009953;-0.022410; 0.203909;,
       0.004120;-0.018756; 0.195478;,
      -0.010603;-0.022712; 0.195675;,
      -0.010600;-0.027932; 0.204183;,
      -0.010600;-0.026749; 0.227970;,
      -0.010603;-0.021455; 0.220948;,
      -0.010603;-0.021455; 0.220948;,
      -0.010600;-0.026749; 0.227970;,
       0.009953;-0.021227; 0.227695;,
       0.004120;-0.017499; 0.220752;,
      -0.013562;-0.034895; 0.203820;,
       0.005988;-0.101725; 0.193031;,
       0.005988;-0.100716; 0.213321;,
      -0.013562;-0.033732; 0.227210;,
      -0.010600;-0.027932; 0.204183;,
      -0.013562;-0.034895; 0.203820;,
      -0.013562;-0.033732; 0.227210;,
      -0.010600;-0.026749; 0.227970;,
      -0.010600;-0.026749; 0.227970;,
      -0.013562;-0.033732; 0.227210;,
       0.021349;-0.024352; 0.226744;,
       0.009953;-0.021227; 0.227695;,
       0.009953;-0.022410; 0.203909;,
       0.021349;-0.025515; 0.203353;,
      -0.013562;-0.034895; 0.203820;,
      -0.010600;-0.027932; 0.204183;,
       0.005988;-0.100716; 0.213321;,
       0.007890;-0.108458; 0.216338;,
       0.039964;-0.099840; 0.215909;,
       0.037656;-0.092207; 0.212898;,
      -0.013562;-0.033732; 0.227210;,
       0.005988;-0.100716; 0.213321;,
       0.037656;-0.092207; 0.212898;,
       0.021349;-0.024352; 0.226744;,
       0.021349;-0.025515; 0.203353;,
       0.037656;-0.093216; 0.192608;,
       0.005988;-0.101725; 0.193031;,
      -0.013562;-0.034895; 0.203820;,
       0.021349;-0.024352; 0.226744;,
       0.037656;-0.092207; 0.212898;,
       0.037656;-0.093216; 0.192608;,
       0.021349;-0.025515; 0.203353;,
       0.007890;-0.108458; 0.216338;,
       0.033744;-0.200831; 0.194822;,
       0.063317;-0.192885; 0.194427;,
       0.039964;-0.099840; 0.215909;,
       0.037656;-0.093216; 0.192608;,
       0.039964;-0.100364; 0.205386;,
       0.007890;-0.108981; 0.205814;,
       0.005988;-0.101725; 0.193031;,
       0.037656;-0.092207; 0.212898;,
       0.039964;-0.099840; 0.215909;,
       0.039964;-0.100364; 0.205386;,
       0.037656;-0.093216; 0.192608;,
       0.005988;-0.101725; 0.193031;,
       0.007890;-0.108981; 0.205814;,
       0.007890;-0.108458; 0.216338;,
       0.005988;-0.100716; 0.213321;,
       0.083496;-0.269443; 0.157978;,
       0.086597;-0.291753; 0.143703;,
       0.086597;-0.291966; 0.139427;,
       0.083496;-0.269699; 0.152830;,
       0.039964;-0.100364; 0.205386;,
       0.063317;-0.193140; 0.189311;,
       0.033744;-0.201085; 0.189706;,
       0.007890;-0.108981; 0.205814;,
       0.039964;-0.099840; 0.215909;,
       0.063317;-0.192885; 0.194427;,
       0.063317;-0.193140; 0.189311;,
       0.039964;-0.100364; 0.205386;,
       0.007890;-0.108981; 0.205814;,
       0.033744;-0.201085; 0.189706;,
       0.033744;-0.200831; 0.194822;,
       0.007890;-0.108458; 0.216338;,
       0.061881;-0.298394; 0.144033;,
       0.069754;-0.320997; 0.125187;,
       0.090643;-0.315384; 0.124908;,
       0.086597;-0.291753; 0.143703;,
       0.053741;-0.277694; 0.153227;,
       0.061881;-0.298606; 0.139757;,
       0.061881;-0.298394; 0.144033;,
       0.053741;-0.277438; 0.158375;,
       0.053741;-0.277438; 0.158375;,
       0.061881;-0.298394; 0.144033;,
       0.086597;-0.291753; 0.143703;,
       0.083496;-0.269443; 0.157978;,
       0.083496;-0.269699; 0.152830;,
       0.086597;-0.291966; 0.139427;,
       0.061881;-0.298606; 0.139757;,
       0.053741;-0.277694; 0.153227;,
       0.086597;-0.291966; 0.139427;,
       0.089782;-0.312259; 0.123301;,
       0.068893;-0.317871; 0.123580;,
       0.061881;-0.298606; 0.139757;,
       0.086597;-0.291753; 0.143703;,
       0.090643;-0.315384; 0.124908;,
       0.089782;-0.312259; 0.123301;,
       0.086597;-0.291966; 0.139427;,
       0.061881;-0.298606; 0.139757;,
       0.068893;-0.317871; 0.123580;,
       0.069754;-0.320997; 0.125187;,
       0.061881;-0.298394; 0.144033;,
       0.089782;-0.312259; 0.123301;,
       0.095434;-0.340658; 0.109871;,
       0.077900;-0.345369; 0.110105;,
       0.068893;-0.317871; 0.123580;,
       0.063317;-0.193140; 0.189311;,
       0.077354;-0.245539; 0.166254;,
       0.047282;-0.253619; 0.166656;,
       0.033744;-0.201085; 0.189706;,
       0.033744;-0.200831; 0.194822;,
       0.047282;-0.253360; 0.171859;,
       0.077354;-0.245280; 0.171457;,
       0.063317;-0.192885; 0.194427;,
       0.033744;-0.201085; 0.189706;,
       0.047282;-0.253619; 0.166656;,
       0.047282;-0.253360; 0.171859;,
       0.033744;-0.200831; 0.194822;,
       0.063317;-0.192885; 0.194427;,
       0.077354;-0.245280; 0.171457;,
       0.077354;-0.245539; 0.166254;,
       0.063317;-0.193140; 0.189311;,
       0.078063;-0.345913; 0.111351;,
       0.089728;-0.371321; 0.107691;,
       0.098146;-0.369059; 0.107578;,
       0.095597;-0.341202; 0.111116;,
       0.090643;-0.315384; 0.124908;,
       0.095597;-0.341202; 0.111116;,
       0.095434;-0.340658; 0.109871;,
       0.089782;-0.312259; 0.123301;,
       0.068893;-0.317871; 0.123580;,
       0.077900;-0.345369; 0.110105;,
       0.078063;-0.345913; 0.111351;,
       0.069754;-0.320997; 0.125187;,
       0.069754;-0.320997; 0.125187;,
       0.078063;-0.345913; 0.111351;,
       0.095597;-0.341202; 0.111116;,
       0.090643;-0.315384; 0.124908;,
       0.077354;-0.245539; 0.166254;,
       0.083496;-0.269699; 0.152830;,
       0.053741;-0.277694; 0.153227;,
       0.047282;-0.253619; 0.166656;,
       0.047282;-0.253360; 0.171859;,
       0.053741;-0.277438; 0.158375;,
       0.083496;-0.269443; 0.157978;,
       0.077354;-0.245280; 0.171457;,
       0.047282;-0.253619; 0.166656;,
       0.053741;-0.277694; 0.153227;,
       0.053741;-0.277438; 0.158375;,
       0.047282;-0.253360; 0.171859;,
       0.077354;-0.245280; 0.171457;,
       0.083496;-0.269443; 0.157978;,
       0.083496;-0.269699; 0.152830;,
       0.077354;-0.245539; 0.166254;,
       0.089728;-0.371321; 0.107691;,
       0.089650;-0.371059; 0.107093;,
       0.098068;-0.368798; 0.106980;,
       0.098146;-0.369059; 0.107578;,
       0.095434;-0.340658; 0.109871;,
       0.098068;-0.368798; 0.106980;,
       0.089650;-0.371059; 0.107093;,
       0.077900;-0.345369; 0.110105;,
       0.095597;-0.341202; 0.111116;,
       0.098146;-0.369059; 0.107578;,
       0.098068;-0.368798; 0.106980;,
       0.095434;-0.340658; 0.109871;,
       0.077900;-0.345369; 0.110105;,
       0.089650;-0.371059; 0.107093;,
       0.089728;-0.371321; 0.107691;,
       0.078063;-0.345913; 0.111351;,
       0.080436;-0.337802; 0.117009;,
      -0.097645; 0.324234; 0.101202;,
      -0.097645; 0.323993; 0.096347;,
       0.080436;-0.338044; 0.112154;,
       0.080436;-0.338044; 0.112154;,
      -0.097645; 0.323993; 0.096347;,
      -0.092951; 0.325254; 0.096284;,
       0.085130;-0.336783; 0.112091;,
       0.085130;-0.336783; 0.112091;,
      -0.092951; 0.325254; 0.096284;,
      -0.092951; 0.325495; 0.101139;,
       0.085130;-0.336541; 0.116946;,
       0.085130;-0.336541; 0.116946;,
      -0.092951; 0.325495; 0.101139;,
      -0.097645; 0.324234; 0.101202;,
       0.080436;-0.337802; 0.117009;,
       0.080436;-0.338044; 0.112154;,
       0.085130;-0.336783; 0.112091;,
       0.085130;-0.336541; 0.116946;,
       0.080436;-0.337802; 0.117009;,
      -0.092951; 0.325254; 0.096284;,
      -0.097645; 0.323993; 0.096347;,
      -0.097645; 0.324234; 0.101202;,
      -0.092951; 0.325495; 0.101139;;
      106;
      4;3,2,1,0;,
      4;7,6,5,4;,
      4;11,10,9,8;,
      4;15,14,13,12;,
      4;19,18,17,16;,
      4;23,22,21,20;,
      4;27,26,25,24;,
      4;31,30,29,28;,
      4;35,34,33,32;,
      4;39,38,37,36;,
      4;43,42,41,40;,
      4;47,46,45,44;,
      4;51,50,49,48;,
      4;55,54,53,52;,
      4;59,58,57,56;,
      4;63,62,61,60;,
      4;67,66,65,64;,
      4;71,70,69,68;,
      4;75,74,73,72;,
      4;79,78,77,76;,
      4;83,82,81,80;,
      4;87,86,85,84;,
      4;91,90,89,88;,
      4;95,94,93,92;,
      4;99,98,97,96;,
      4;103,102,101,100;,
      4;107,106,105,104;,
      4;111,110,109,108;,
      4;115,114,113,112;,
      4;119,118,117,116;,
      4;123,122,121,120;,
      4;127,126,125,124;,
      4;131,130,129,128;,
      4;135,134,133,132;,
      4;139,138,137,136;,
      4;143,142,141,140;,
      4;147,146,145,144;,
      4;151,150,149,148;,
      4;155,154,153,152;,
      4;159,158,157,156;,
      4;163,162,161,160;,
      4;167,166,165,164;,
      4;171,170,169,168;,
      4;175,174,173,172;,
      4;179,178,177,176;,
      4;183,182,181,180;,
      4;187,186,185,184;,
      4;191,190,189,188;,
      4;195,194,193,192;,
      4;199,198,197,196;,
      4;203,202,201,200;,
      4;207,206,205,204;,
      4;211,210,209,208;,
      4;215,214,213,212;,
      4;219,218,217,216;,
      4;223,222,221,220;,
      4;227,226,225,224;,
      4;231,230,229,228;,
      4;235,234,233,232;,
      4;239,238,237,236;,
      4;243,242,241,240;,
      4;247,246,245,244;,
      4;251,250,249,248;,
      4;255,254,253,252;,
      4;259,258,257,256;,
      4;263,262,261,260;,
      4;267,266,265,264;,
      4;271,270,269,268;,
      4;275,274,273,272;,
      4;279,278,277,276;,
      4;283,282,281,280;,
      4;287,286,285,284;,
      4;291,290,289,288;,
      4;295,294,293,292;,
      4;299,298,297,296;,
      4;303,302,301,300;,
      4;307,306,305,304;,
      4;311,310,309,308;,
      4;315,314,313,312;,
      4;319,318,317,316;,
      4;323,322,321,320;,
      4;327,326,325,324;,
      4;331,330,329,328;,
      4;335,334,333,332;,
      4;339,338,337,336;,
      4;343,342,341,340;,
      4;347,346,345,344;,
      4;351,350,349,348;,
      4;355,354,353,352;,
      4;359,358,357,356;,
      4;363,362,361,360;,
      4;367,366,365,364;,
      4;371,370,369,368;,
      4;375,374,373,372;,
      4;379,378,377,376;,
      4;383,382,381,380;,
      4;387,386,385,384;,
      4;391,390,389,388;,
      4;395,394,393,392;,
      4;399,398,397,396;,
      4;403,402,401,400;,
      4;407,406,405,404;,
      4;411,410,409,408;,
      4;415,414,413,412;,
      4;419,418,417,416;,
      4;423,422,421,420;;
      MeshNormals { // Cube normals
        424;
        -0.414563;-0.626637; 0.659871;,
        -0.685812;-0.162267; 0.709433;,
        -0.636433;-0.198035;-0.745445;,
        -0.409680;-0.752983;-0.514878;,
        -0.409680;-0.752983;-0.514878;,
        -0.636433;-0.198035;-0.745445;,
         0.672567; 0.090823;-0.734397;,
         0.662343;-0.522752;-0.536637;,
         0.662343;-0.522752;-0.536637;,
         0.672567; 0.090823;-0.734397;,
         0.732719; 0.138554; 0.666219;,
         0.637257;-0.391034; 0.664052;,
         0.637257;-0.391034; 0.664052;,
         0.732719; 0.138554; 0.666219;,
        -0.685812;-0.162267; 0.709433;,
        -0.414563;-0.626637; 0.659871;,
        -0.409680;-0.752983;-0.514878;,
         0.662343;-0.522752;-0.536637;,
         0.637257;-0.391034; 0.664052;,
        -0.414563;-0.626637; 0.659871;,
         0.672567; 0.090823;-0.734397;,
        -0.636433;-0.198035;-0.745445;,
        -0.727287;-0.313059;-0.610736;,
         0.763939; 0.106174;-0.636464;,
         0.617725; 0.321787; 0.717521;,
         0.763939; 0.106174;-0.636464;,
         0.562548; 0.317698;-0.763268;,
         0.725364; 0.417982; 0.546892;,
         0.732719; 0.138554; 0.666219;,
         0.672567; 0.090823;-0.734397;,
         0.763939; 0.106174;-0.636464;,
         0.617725; 0.321787; 0.717521;,
        -0.636433;-0.198035;-0.745445;,
        -0.685812;-0.162267; 0.709433;,
        -0.679037;-0.041749; 0.732871;,
        -0.727287;-0.313059;-0.610736;,
        -0.685812;-0.162267; 0.709433;,
         0.732719; 0.138554; 0.666219;,
         0.617725; 0.321787; 0.717521;,
        -0.679037;-0.041749; 0.732871;,
        -0.664846;-0.012055;-0.746849;,
        -0.823298; 0.001892; 0.567583;,
        -0.636525;-0.221564; 0.738731;,
        -0.754662; 0.329691;-0.567217;,
        -0.727287;-0.313059;-0.610736;,
        -0.679037;-0.041749; 0.732871;,
        -0.823298; 0.001892; 0.567583;,
        -0.664846;-0.012055;-0.746849;,
        -0.679037;-0.041749; 0.732871;,
         0.617725; 0.321787; 0.717521;,
         0.725364; 0.417982; 0.546892;,
        -0.823298; 0.001892; 0.567583;,
         0.763939; 0.106174;-0.636464;,
        -0.727287;-0.313059;-0.610736;,
        -0.664846;-0.012055;-0.746849;,
         0.562548; 0.317698;-0.763268;,
        -0.636525;-0.221564; 0.738731;,
         0.680044; 0.132237; 0.721122;,
         0.625446; 0.223518; 0.747520;,
        -0.634358;-0.115116; 0.764397;,
        -0.823298; 0.001892; 0.567583;,
         0.725364; 0.417982; 0.546892;,
         0.680044; 0.132237; 0.721122;,
        -0.636525;-0.221564; 0.738731;,
         0.562548; 0.317698;-0.763268;,
        -0.664846;-0.012055;-0.746849;,
        -0.754662; 0.329691;-0.567217;,
         0.473464; 0.659688;-0.583605;,
         0.725364; 0.417982; 0.546892;,
         0.562548; 0.317698;-0.763268;,
         0.473464; 0.659688;-0.583605;,
         0.680044; 0.132237; 0.721122;,
        -0.634358;-0.115116; 0.764397;,
         0.625446; 0.223518; 0.747520;,
         0.594256; 0.461684; 0.658498;,
        -0.729026; 0.105960; 0.676199;,
         0.473464; 0.659688;-0.583605;,
        -0.754662; 0.329691;-0.567217;,
        -0.809473;-0.106082;-0.577471;,
         0.738914; 0.310221;-0.598102;,
         0.680044; 0.132237; 0.721122;,
         0.473464; 0.659688;-0.583605;,
         0.738914; 0.310221;-0.598102;,
         0.625446; 0.223518; 0.747520;,
        -0.754662; 0.329691;-0.567217;,
        -0.636525;-0.221564; 0.738731;,
        -0.634358;-0.115116; 0.764397;,
        -0.809473;-0.106082;-0.577471;,
         0.567980; 0.613636; 0.548479;,
         0.794824;-0.126774;-0.593432;,
         0.795068;-0.192419;-0.575152;,
         0.503159; 0.698538; 0.508744;,
         0.738914; 0.310221;-0.598102;,
        -0.809473;-0.106082;-0.577471;,
        -0.659322;-0.429456;-0.617084;,
         0.770135;-0.045259;-0.636250;,
         0.625446; 0.223518; 0.747520;,
         0.738914; 0.310221;-0.598102;,
         0.770135;-0.045259;-0.636250;,
         0.594256; 0.461684; 0.658498;,
        -0.809473;-0.106082;-0.577471;,
        -0.634358;-0.115116; 0.764397;,
        -0.729026; 0.105960; 0.676199;,
        -0.659322;-0.429456;-0.617084;,
        -0.772607; 0.355785; 0.525773;,
         0.503159; 0.698538; 0.508744;,
         0.591388; 0.637867; 0.493301;,
        -0.818903; 0.258950; 0.512131;,
        -0.638783;-0.511948;-0.574267;,
        -0.785119; 0.250069; 0.566546;,
        -0.772607; 0.355785; 0.525773;,
        -0.605670;-0.568743;-0.556444;,
        -0.785119; 0.250069; 0.566546;,
         0.567980; 0.613636; 0.548479;,
         0.503159; 0.698538; 0.508744;,
        -0.772607; 0.355785; 0.525773;,
         0.794824;-0.126774;-0.593432;,
        -0.638783;-0.511948;-0.574267;,
        -0.605670;-0.568743;-0.556444;,
         0.795068;-0.192419;-0.575152;,
         0.795068;-0.192419;-0.575152;,
        -0.605670;-0.568743;-0.556444;,
        -0.554582;-0.573901;-0.602527;,
         0.752281;-0.222785;-0.619983;,
         0.503159; 0.698538; 0.508744;,
         0.795068;-0.192419;-0.575152;,
         0.752281;-0.222785;-0.619983;,
         0.591388; 0.637867; 0.493301;,
        -0.605670;-0.568743;-0.556444;,
        -0.772607; 0.355785; 0.525773;,
        -0.818903; 0.258950; 0.512131;,
        -0.554582;-0.573901;-0.602527;,
         0.752281;-0.222785;-0.619983;,
        -0.554582;-0.573901;-0.602527;,
        -0.602313;-0.376446;-0.703909;,
         0.692099;-0.028657;-0.721213;,
         0.770135;-0.045259;-0.636250;,
        -0.659322;-0.429456;-0.617084;,
        -0.606464;-0.535905;-0.587329;,
         0.778497;-0.163793;-0.605853;,
        -0.729026; 0.105960; 0.676199;,
         0.594256; 0.461684; 0.658498;,
         0.581225; 0.550920; 0.598834;,
        -0.763939; 0.189489; 0.616810;,
        -0.659322;-0.429456;-0.617084;,
        -0.729026; 0.105960; 0.676199;,
        -0.763939; 0.189489; 0.616810;,
        -0.606464;-0.535905;-0.587329;,
         0.594256; 0.461684; 0.658498;,
         0.770135;-0.045259;-0.636250;,
         0.778497;-0.163793;-0.605853;,
         0.581225; 0.550920; 0.598834;,
        -0.819697; 0.132878; 0.557146;,
         0.656362; 0.529466; 0.537400;,
         0.294137; 0.900906; 0.319071;,
        -0.697928; 0.634358; 0.332347;,
         0.591388; 0.637867; 0.493301;,
         0.752281;-0.222785;-0.619983;,
         0.692099;-0.028657;-0.721213;,
         0.656362; 0.529466; 0.537400;,
        -0.554582;-0.573901;-0.602527;,
        -0.818903; 0.258950; 0.512131;,
        -0.819697; 0.132878; 0.557146;,
        -0.602313;-0.376446;-0.703909;,
        -0.818903; 0.258950; 0.512131;,
         0.591388; 0.637867; 0.493301;,
         0.656362; 0.529466; 0.537400;,
        -0.819697; 0.132878; 0.557146;,
         0.778497;-0.163793;-0.605853;,
        -0.606464;-0.535905;-0.587329;,
        -0.638783;-0.511948;-0.574267;,
         0.794824;-0.126774;-0.593432;,
        -0.763939; 0.189489; 0.616810;,
         0.581225; 0.550920; 0.598834;,
         0.567980; 0.613636; 0.548479;,
        -0.785119; 0.250069; 0.566546;,
        -0.606464;-0.535905;-0.587329;,
        -0.763939; 0.189489; 0.616810;,
        -0.785119; 0.250069; 0.566546;,
        -0.638783;-0.511948;-0.574267;,
         0.581225; 0.550920; 0.598834;,
         0.778497;-0.163793;-0.605853;,
         0.794824;-0.126774;-0.593432;,
         0.567980; 0.613636; 0.548479;,
        -0.697928; 0.634358; 0.332347;,
         0.294137; 0.900906; 0.319071;,
         0.408399; 0.494858;-0.766991;,
        -0.620380; 0.218451;-0.753258;,
         0.692099;-0.028657;-0.721213;,
        -0.602313;-0.376446;-0.703909;,
        -0.620380; 0.218451;-0.753258;,
         0.408399; 0.494858;-0.766991;,
         0.656362; 0.529466; 0.537400;,
         0.692099;-0.028657;-0.721213;,
         0.408399; 0.494858;-0.766991;,
         0.294137; 0.900906; 0.319071;,
        -0.602313;-0.376446;-0.703909;,
        -0.819697; 0.132878; 0.557146;,
        -0.697928; 0.634358; 0.332347;,
        -0.620380; 0.218451;-0.753258;,
        -0.689657; 0.393994; 0.607501;,
        -0.718497; 0.394452;-0.572832;,
        -0.489914;-0.516434;-0.702292;,
        -0.851161; 0.139866; 0.505875;,
        -0.718497; 0.394452;-0.572832;,
         0.413221; 0.695822;-0.587420;,
         0.635639;-0.192389;-0.747612;,
        -0.489914;-0.516434;-0.702292;,
         0.413221; 0.695822;-0.587420;,
         0.417524; 0.689169; 0.592181;,
         0.500076; 0.706015; 0.501419;,
         0.635639;-0.192389;-0.747612;,
         0.417524; 0.689169; 0.592181;,
        -0.689657; 0.393994; 0.607501;,
        -0.851161; 0.139866; 0.505875;,
         0.500076; 0.706015; 0.501419;,
        -0.718497; 0.394452;-0.572832;,
        -0.689657; 0.393994; 0.607501;,
         0.417524; 0.689169; 0.592181;,
         0.413221; 0.695822;-0.587420;,
         0.635639;-0.192389;-0.747612;,
         0.412915; 0.581103;-0.701254;,
        -0.786187;-0.079470;-0.612812;,
        -0.489914;-0.516434;-0.702292;,
         0.182348; 0.630085; 0.754784;,
         0.593829; 0.503128; 0.627827;,
         0.554674; 0.585986;-0.590686;,
         0.412915; 0.581103;-0.701254;,
         0.500076; 0.706015; 0.501419;,
         0.182348; 0.630085; 0.754784;,
         0.412915; 0.581103;-0.701254;,
         0.635639;-0.192389;-0.747612;,
        -0.489914;-0.516434;-0.702292;,
        -0.786187;-0.079470;-0.612812;,
        -0.551256; 0.346019; 0.759178;,
        -0.851161; 0.139866; 0.505875;,
        -0.851161; 0.139866; 0.505875;,
        -0.551256; 0.346019; 0.759178;,
         0.182348; 0.630085; 0.754784;,
         0.500076; 0.706015; 0.501419;,
        -0.789117; 0.089846;-0.607593;,
        -0.492386;-0.492813;-0.717399;,
        -0.749321;-0.145604; 0.645955;,
        -0.747398;-0.028962; 0.663717;,
        -0.786187;-0.079470;-0.612812;,
        -0.789117; 0.089846;-0.607593;,
        -0.747398;-0.028962; 0.663717;,
        -0.551256; 0.346019; 0.759178;,
        -0.551256; 0.346019; 0.759178;,
        -0.747398;-0.028962; 0.663717;,
         0.593829; 0.503128; 0.627827;,
         0.182348; 0.630085; 0.754784;,
         0.412915; 0.581103;-0.701254;,
         0.554674; 0.585986;-0.590686;,
        -0.789117; 0.089846;-0.607593;,
        -0.786187;-0.079470;-0.612812;,
        -0.749321;-0.145604; 0.645955;,
        -0.635121;-0.112247; 0.764183;,
         0.624744; 0.226081; 0.747368;,
         0.737297; 0.253670; 0.626087;,
        -0.747398;-0.028962; 0.663717;,
        -0.749321;-0.145604; 0.645955;,
         0.737297; 0.253670; 0.626087;,
         0.593829; 0.503128; 0.627827;,
         0.554674; 0.585986;-0.590686;,
         0.654988;-0.184545;-0.732719;,
        -0.492386;-0.492813;-0.717399;,
        -0.789117; 0.089846;-0.607593;,
         0.593829; 0.503128; 0.627827;,
         0.737297; 0.253670; 0.626087;,
         0.654988;-0.184545;-0.732719;,
         0.554674; 0.585986;-0.590686;,
        -0.635121;-0.112247; 0.764183;,
        -0.593677;-0.394055; 0.701590;,
         0.728477;-0.039003; 0.683920;,
         0.624744; 0.226081; 0.747368;,
         0.654988;-0.184545;-0.732719;,
         0.880978; 0.022431;-0.472579;,
        -0.785180;-0.424940;-0.450392;,
        -0.492386;-0.492813;-0.717399;,
         0.737297; 0.253670; 0.626087;,
         0.624744; 0.226081; 0.747368;,
         0.880978; 0.022431;-0.472579;,
         0.654988;-0.184545;-0.732719;,
        -0.492386;-0.492813;-0.717399;,
        -0.785180;-0.424940;-0.450392;,
        -0.635121;-0.112247; 0.764183;,
        -0.749321;-0.145604; 0.645955;,
         0.783441;-0.185614; 0.593066;,
         0.777490;-0.283761; 0.561174;,
         0.605945; 0.515580;-0.605762;,
         0.628620; 0.467513;-0.621448;,
         0.880978; 0.022431;-0.472579;,
         0.650563; 0.370312;-0.663015;,
        -0.764885;-0.009857;-0.644063;,
        -0.785180;-0.424940;-0.450392;,
         0.624744; 0.226081; 0.747368;,
         0.728477;-0.039003; 0.683920;,
         0.650563; 0.370312;-0.663015;,
         0.880978; 0.022431;-0.472579;,
        -0.785180;-0.424940;-0.450392;,
        -0.764885;-0.009857;-0.644063;,
        -0.593677;-0.394055; 0.701590;,
        -0.635121;-0.112247; 0.764183;,
        -0.516373;-0.631397; 0.578478;,
        -0.591388;-0.585772; 0.554155;,
         0.818903;-0.206854; 0.535295;,
         0.777490;-0.283761; 0.561174;,
        -0.793542; 0.085391;-0.602466;,
        -0.797601; 0.138493;-0.587024;,
        -0.516373;-0.631397; 0.578478;,
        -0.569903;-0.549211; 0.611164;,
        -0.569903;-0.549211; 0.611164;,
        -0.516373;-0.631397; 0.578478;,
         0.777490;-0.283761; 0.561174;,
         0.783441;-0.185614; 0.593066;,
         0.628620; 0.467513;-0.621448;,
         0.605945; 0.515580;-0.605762;,
        -0.797601; 0.138493;-0.587024;,
        -0.793542; 0.085391;-0.602466;,
         0.605945; 0.515580;-0.605762;,
         0.554582; 0.511277;-0.656484;,
        -0.752281; 0.160161;-0.639027;,
        -0.797601; 0.138493;-0.587024;,
         0.777490;-0.283761; 0.561174;,
         0.818903;-0.206854; 0.535295;,
         0.554582; 0.511277;-0.656484;,
         0.605945; 0.515580;-0.605762;,
        -0.797601; 0.138493;-0.587024;,
        -0.752281; 0.160161;-0.639027;,
        -0.591388;-0.585772; 0.554155;,
        -0.516373;-0.631397; 0.578478;,
         0.554582; 0.511277;-0.656484;,
         0.602283; 0.304727;-0.737785;,
        -0.692099;-0.043001;-0.720481;,
        -0.752281; 0.160161;-0.639027;,
         0.650563; 0.370312;-0.663015;,
         0.609027; 0.473617;-0.636189;,
        -0.780023; 0.100406;-0.617634;,
        -0.764885;-0.009857;-0.644063;,
        -0.593677;-0.394055; 0.701590;,
        -0.585467;-0.478072; 0.654683;,
         0.762322;-0.115970; 0.636677;,
         0.728477;-0.039003; 0.683920;,
        -0.764885;-0.009857;-0.644063;,
        -0.780023; 0.100406;-0.617634;,
        -0.585467;-0.478072; 0.654683;,
        -0.593677;-0.394055; 0.701590;,
         0.728477;-0.039003; 0.683920;,
         0.762322;-0.115970; 0.636677;,
         0.609027; 0.473617;-0.636189;,
         0.650563; 0.370312;-0.663015;,
        -0.656362;-0.473525; 0.587298;,
        -0.294137;-0.864803; 0.406873;,
         0.697928;-0.598254; 0.393628;,
         0.819697;-0.076968; 0.567553;,
         0.818903;-0.206854; 0.535295;,
         0.819697;-0.076968; 0.567553;,
         0.602283; 0.304727;-0.737785;,
         0.554582; 0.511277;-0.656484;,
        -0.752281; 0.160161;-0.639027;,
        -0.692099;-0.043001;-0.720481;,
        -0.656362;-0.473525; 0.587298;,
        -0.591388;-0.585772; 0.554155;,
        -0.591388;-0.585772; 0.554155;,
        -0.656362;-0.473525; 0.587298;,
         0.819697;-0.076968; 0.567553;,
         0.818903;-0.206854; 0.535295;,
         0.609027; 0.473617;-0.636189;,
         0.628620; 0.467513;-0.621448;,
        -0.793542; 0.085391;-0.602466;,
        -0.780023; 0.100406;-0.617634;,
        -0.585467;-0.478072; 0.654683;,
        -0.569903;-0.549211; 0.611164;,
         0.783441;-0.185614; 0.593066;,
         0.762322;-0.115970; 0.636677;,
        -0.780023; 0.100406;-0.617634;,
        -0.793542; 0.085391;-0.602466;,
        -0.569903;-0.549211; 0.611164;,
        -0.585467;-0.478072; 0.654683;,
         0.762322;-0.115970; 0.636677;,
         0.783441;-0.185614; 0.593066;,
         0.628620; 0.467513;-0.621448;,
         0.609027; 0.473617;-0.636189;,
        -0.294137;-0.864803; 0.406873;,
        -0.408429;-0.568499;-0.714103;,
         0.620350;-0.292093;-0.727866;,
         0.697928;-0.598254; 0.393628;,
         0.602283; 0.304727;-0.737785;,
         0.620350;-0.292093;-0.727866;,
        -0.408429;-0.568499;-0.714103;,
        -0.692099;-0.043001;-0.720481;,
         0.819697;-0.076968; 0.567553;,
         0.697928;-0.598254; 0.393628;,
         0.620350;-0.292093;-0.727866;,
         0.602283; 0.304727;-0.737785;,
        -0.692099;-0.043001;-0.720481;,
        -0.408429;-0.568499;-0.714103;,
        -0.294137;-0.864803; 0.406873;,
        -0.656362;-0.473525; 0.587298;,
        -0.407117;-0.684927; 0.604205;,
        -0.704520; 0.430067; 0.564470;,
        -0.710440; 0.384655;-0.589282;,
        -0.408002;-0.728996;-0.549608;,
        -0.408002;-0.728996;-0.549608;,
        -0.710440; 0.384655;-0.589282;,
         0.407147; 0.684927;-0.604205;,
         0.704520;-0.430067;-0.564470;,
         0.704520;-0.430067;-0.564470;,
         0.407147; 0.684927;-0.604205;,
         0.408002; 0.728965; 0.549608;,
         0.710440;-0.384655; 0.589282;,
         0.710440;-0.384655; 0.589282;,
         0.408002; 0.728965; 0.549608;,
        -0.704520; 0.430067; 0.564470;,
        -0.407117;-0.684927; 0.604205;,
        -0.408002;-0.728996;-0.549608;,
         0.704520;-0.430067;-0.564470;,
         0.710440;-0.384655; 0.589282;,
        -0.407117;-0.684927; 0.604205;,
         0.407147; 0.684927;-0.604205;,
        -0.710440; 0.384655;-0.589282;,
        -0.704520; 0.430067; 0.564470;,
         0.408002; 0.728965; 0.549608;;
        106;
        4;3,2,1,0;,
        4;7,6,5,4;,
        4;11,10,9,8;,
        4;15,14,13,12;,
        4;19,18,17,16;,
        4;23,22,21,20;,
        4;27,26,25,24;,
        4;31,30,29,28;,
        4;35,34,33,32;,
        4;39,38,37,36;,
        4;43,42,41,40;,
        4;47,46,45,44;,
        4;51,50,49,48;,
        4;55,54,53,52;,
        4;59,58,57,56;,
        4;63,62,61,60;,
        4;67,66,65,64;,
        4;71,70,69,68;,
        4;75,74,73,72;,
        4;79,78,77,76;,
        4;83,82,81,80;,
        4;87,86,85,84;,
        4;91,90,89,88;,
        4;95,94,93,92;,
        4;99,98,97,96;,
        4;103,102,101,100;,
        4;107,106,105,104;,
        4;111,110,109,108;,
        4;115,114,113,112;,
        4;119,118,117,116;,
        4;123,122,121,120;,
        4;127,126,125,124;,
        4;131,130,129,128;,
        4;135,134,133,132;,
        4;139,138,137,136;,
        4;143,142,141,140;,
        4;147,146,145,144;,
        4;151,150,149,148;,
        4;155,154,153,152;,
        4;159,158,157,156;,
        4;163,162,161,160;,
        4;167,166,165,164;,
        4;171,170,169,168;,
        4;175,174,173,172;,
        4;179,178,177,176;,
        4;183,182,181,180;,
        4;187,186,185,184;,
        4;191,190,189,188;,
        4;195,194,193,192;,
        4;199,198,197,196;,
        4;203,202,201,200;,
        4;207,206,205,204;,
        4;211,210,209,208;,
        4;215,214,213,212;,
        4;219,218,217,216;,
        4;223,222,221,220;,
        4;227,226,225,224;,
        4;231,230,229,228;,
        4;235,234,233,232;,
        4;239,238,237,236;,
        4;243,242,241,240;,
        4;247,246,245,244;,
        4;251,250,249,248;,
        4;255,254,253,252;,
        4;259,258,257,256;,
        4;263,262,261,260;,
        4;267,266,265,264;,
        4;271,270,269,268;,
        4;275,274,273,272;,
        4;279,278,277,276;,
        4;283,282,281,280;,
        4;287,286,285,284;,
        4;291,290,289,288;,
        4;295,294,293,292;,
        4;299,298,297,296;,
        4;303,302,301,300;,
        4;307,306,305,304;,
        4;311,310,309,308;,
        4;315,314,313,312;,
        4;319,318,317,316;,
        4;323,322,321,320;,
        4;327,326,325,324;,
        4;331,330,329,328;,
        4;335,334,333,332;,
        4;339,338,337,336;,
        4;343,342,341,340;,
        4;347,346,345,344;,
        4;351,350,349,348;,
        4;355,354,353,352;,
        4;359,358,357,356;,
        4;363,362,361,360;,
        4;367,366,365,364;,
        4;371,370,369,368;,
        4;375,374,373,372;,
        4;379,378,377,376;,
        4;383,382,381,380;,
        4;387,386,385,384;,
        4;391,390,389,388;,
        4;395,394,393,392;,
        4;399,398,397,396;,
        4;403,402,401,400;,
        4;407,406,405,404;,
        4;411,410,409,408;,
        4;415,414,413,412;,
        4;419,418,417,416;,
        4;423,422,421,420;;
      } // End of Cube normals
      MeshTextureCoords { // Cube UV coordinates
        424;
         0.329468; 0.457456;,
         0.318540; 0.519849;,
         0.383981; 0.529477;,
         0.404948; 0.468561;,
         0.719559; 0.600869;,
         0.720519; 0.662328;,
         0.789039; 0.662328;,
         0.764980; 0.600869;,
         0.267995; 0.988898;,
         0.246711; 0.928034;,
         0.181269; 0.937659;,
         0.192514; 1.000000;,
         0.643243; 0.506082;,
         0.619185; 0.566486;,
         0.687705; 0.566486;,
         0.688665; 0.506082;,
         0.652672; 0.464054;,
         0.607251; 0.464054;,
         0.607251; 0.506082;,
         0.652672; 0.506082;,
         0.789039; 0.662328;,
         0.720519; 0.662328;,
         0.704112; 0.719850;,
         0.800972; 0.719850;,
         0.148649; 0.883443;,
         0.197254; 0.876295;,
         0.197297; 0.867335;,
         0.152103; 0.873982;,
         0.181269; 0.937659;,
         0.246711; 0.928034;,
         0.197254; 0.876295;,
         0.148649; 0.883443;,
         0.383981; 0.529477;,
         0.318540; 0.519849;,
         0.285917; 0.573881;,
         0.334521; 0.581031;,
         0.687705; 0.566486;,
         0.619185; 0.566486;,
         0.607251; 0.623459;,
         0.704112; 0.623459;,
         0.334559; 0.589989;,
         0.289366; 0.583340;,
         0.281597; 0.590963;,
         0.318764; 0.596431;,
         0.334521; 0.581031;,
         0.285917; 0.573881;,
         0.289366; 0.583340;,
         0.334559; 0.589989;,
         0.704112; 0.623459;,
         0.607251; 0.623459;,
         0.607251; 0.631626;,
         0.704112; 0.631626;,
         0.800972; 0.719850;,
         0.704112; 0.719850;,
         0.704112; 0.728364;,
         0.800972; 0.728364;,
         0.699612; 0.640214;,
         0.611750; 0.640214;,
         0.612540; 0.653961;,
         0.698829; 0.653961;,
         0.704112; 0.631626;,
         0.607251; 0.631626;,
         0.611750; 0.640214;,
         0.699612; 0.640214;,
         0.800972; 0.728364;,
         0.704112; 0.728364;,
         0.708611; 0.737105;,
         0.796473; 0.737105;,
         0.152103; 0.873982;,
         0.197297; 0.867335;,
         0.181530; 0.860934;,
         0.144363; 0.866400;,
         0.698829; 0.653961;,
         0.612540; 0.653961;,
         0.612372; 0.757475;,
         0.699082; 0.757475;,
         0.796473; 0.737105;,
         0.708611; 0.737105;,
         0.709394; 0.751045;,
         0.795683; 0.751045;,
         0.144363; 0.866400;,
         0.181530; 0.860934;,
         0.158627; 0.850327;,
         0.132206; 0.854213;,
         0.318764; 0.596431;,
         0.281597; 0.590963;,
         0.269429; 0.603154;,
         0.295850; 0.607041;,
         0.187945; 0.607773;,
         0.201274; 0.605812;,
         0.218701; 0.577921;,
         0.207629; 0.579550;,
         0.795683; 0.751045;,
         0.709394; 0.751045;,
         0.709141; 0.856744;,
         0.795852; 0.856744;,
         0.132206; 0.854213;,
         0.158627; 0.850327;,
         0.144825; 0.741625;,
         0.130825; 0.743684;,
         0.295850; 0.607041;,
         0.269429; 0.603154;,
         0.267995; 0.713655;,
         0.281994; 0.715714;,
         0.690018; 0.895880;,
         0.621442; 0.895880;,
         0.626752; 0.926224;,
         0.684708; 0.926224;,
         0.338369; 0.851520;,
         0.325040; 0.849559;,
         0.344673; 0.877844;,
         0.355745; 0.879473;,
         0.697007; 0.873336;,
         0.614452; 0.873336;,
         0.621442; 0.895880;,
         0.690018; 0.895880;,
         0.793771; 0.976406;,
         0.711216; 0.976406;,
         0.718205; 1.000000;,
         0.786781; 1.000000;,
         0.854496; 0.527539;,
         0.854496; 0.490221;,
         0.800972; 0.493111;,
         0.800972; 0.524649;,
         0.207629; 0.579550;,
         0.218701; 0.577921;,
         0.249316; 0.543776;,
         0.243250; 0.539661;,
         0.355745; 0.879473;,
         0.344673; 0.877844;,
         0.380247; 0.917777;,
         0.386316; 0.913664;,
         1.000000; 0.920003;,
         0.942044; 0.920003;,
         0.946698; 0.960000;,
         0.995346; 0.960000;,
         0.795852; 0.856744;,
         0.709141; 0.856744;,
         0.710775; 0.942161;,
         0.794212; 0.942161;,
         0.699082; 0.757475;,
         0.612372; 0.757475;,
         0.614011; 0.840312;,
         0.697448; 0.840312;,
         0.281994; 0.715714;,
         0.267995; 0.713655;,
         0.304088; 0.809847;,
         0.317560; 0.811829;,
         0.130825; 0.743684;,
         0.144825; 0.741625;,
         0.180445; 0.645506;,
         0.166973; 0.647487;,
         0.680054; 0.961037;,
         0.631405; 0.961037;,
         0.644052; 1.000000;,
         0.667407; 1.000000;,
         0.243250; 0.539661;,
         0.249316; 0.543776;,
         0.267994; 0.498415;,
         0.264409; 0.497995;,
         0.386316; 0.913664;,
         0.380247; 0.917777;,
         0.401363; 0.959480;,
         0.404948; 0.959060;,
         0.684708; 0.926224;,
         0.626752; 0.926224;,
         0.631405; 0.961037;,
         0.680054; 0.961037;,
         0.794212; 0.942161;,
         0.710775; 0.942161;,
         0.711216; 0.976406;,
         0.793771; 0.976406;,
         0.697448; 0.840312;,
         0.614011; 0.840312;,
         0.614452; 0.873336;,
         0.697007; 0.873336;,
         0.317560; 0.811829;,
         0.304088; 0.809847;,
         0.325040; 0.849559;,
         0.338369; 0.851520;,
         0.166973; 0.647487;,
         0.180445; 0.645506;,
         0.201274; 0.605812;,
         0.187945; 0.607773;,
         0.888801; 0.587000;,
         0.888801; 0.574401;,
         0.887150; 0.574358;,
         0.887150; 0.586957;,
         0.995346; 0.960000;,
         0.946698; 0.960000;,
         0.959344; 1.000000;,
         0.982700; 1.000000;,
         0.264409; 0.497995;,
         0.267994; 0.498415;,
         0.259900; 0.457789;,
         0.258179; 0.457587;,
         0.404948; 0.959060;,
         0.401363; 0.959480;,
         0.395043; 1.000000;,
         0.396764; 0.999799;,
         0.055548; 1.000000;,
         0.130825; 0.988495;,
         0.107773; 0.925643;,
         0.042508; 0.935618;,
         0.942044; 0.855340;,
         0.985920; 0.855340;,
         0.983853; 0.791250;,
         0.943003; 0.791250;,
         0.808964; 0.599337;,
         0.887150; 0.599710;,
         0.868760; 0.535696;,
         0.800972; 0.535372;,
         0.942044; 0.920003;,
         0.985920; 0.920003;,
         0.984960; 0.855340;,
         0.944111; 0.855340;,
         0.942044; 0.748625;,
         0.942044; 0.790870;,
         0.985533; 0.791250;,
         0.985533; 0.749005;,
         0.652672; 0.499411;,
         0.676757; 0.506082;,
         0.676757; 0.475051;,
         0.652672; 0.477182;,
         0.854496; 0.527539;,
         0.883706; 0.525146;,
         0.883706; 0.491248;,
         0.854496; 0.493066;,
         0.868760; 0.535696;,
         0.887150; 0.527843;,
         0.823350; 0.527539;,
         0.800972; 0.535372;,
         0.107773; 0.925643;,
         0.082512; 0.921218;,
         0.021086; 0.930606;,
         0.042508; 0.935618;,
         0.958228; 0.670355;,
         0.942044; 0.669437;,
         0.942044; 0.700199;,
         0.958228; 0.692391;,
         0.079817; 0.912521;,
         0.066312; 0.810132;,
         0.013915; 0.818140;,
         0.019414; 0.921752;,
         0.082512; 0.921218;,
         0.079817; 0.912521;,
         0.019414; 0.921752;,
         0.021086; 0.930606;,
         0.594760; 1.000000;,
         0.607251; 0.991238;,
         0.510391; 0.991238;,
         0.537736; 1.000000;,
         0.773627; 0.600869;,
         0.800972; 0.592184;,
         0.704112; 0.592184;,
         0.716603; 0.600869;,
         0.602752; 0.888595;,
         0.603318; 0.877224;,
         0.514328; 0.877224;,
         0.514890; 0.888595;,
         0.607251; 0.991238;,
         0.602752; 0.888595;,
         0.514890; 0.888595;,
         0.510391; 0.991238;,
         0.800972; 0.592184;,
         0.796473; 0.490651;,
         0.708611; 0.490651;,
         0.704112; 0.592184;,
         0.451035; 0.457392;,
         0.434780; 0.560725;,
         0.486268; 0.570321;,
         0.510391; 0.468454;,
         0.603318; 0.877224;,
         0.599892; 0.735910;,
         0.517842; 0.735910;,
         0.514328; 0.877224;,
         0.942044; 0.748319;,
         0.978277; 0.748625;,
         0.978277; 0.700199;,
         0.942044; 0.700507;,
         0.434780; 0.560725;,
         0.421075; 0.570664;,
         0.447779; 0.575640;,
         0.486268; 0.570321;,
         0.066312; 0.810132;,
         0.028436; 0.803641;,
         0.001261; 0.807794;,
         0.013915; 0.818140;,
         0.439723; 0.839377;,
         0.459981; 0.876498;,
         0.470831; 0.878520;,
         0.452785; 0.841812;,
         0.889962; 1.000000;,
         0.886449; 0.860476;,
         0.804398; 0.860476;,
         0.800972; 1.000000;,
         0.421075; 0.570664;,
         0.404948; 0.713719;,
         0.417931; 0.716138;,
         0.447779; 0.575640;,
         0.028436; 0.803641;,
         0.013212; 0.662501;,
         0.000000; 0.664520;,
         0.001261; 0.807794;,
         0.593157; 0.584174;,
         0.587848; 0.547962;,
         0.529891; 0.547962;,
         0.524581; 0.584174;,
         0.061032; 0.538099;,
         0.082883; 0.502070;,
         0.071841; 0.503758;,
         0.047739; 0.540130;,
         0.600147; 0.617821;,
         0.593157; 0.584174;,
         0.524581; 0.584174;,
         0.517592; 0.617821;,
         0.886698; 0.744917;,
         0.879709; 0.712345;,
         0.811133; 0.712345;,
         0.804144; 0.744917;,
         0.879709; 0.712345;,
         0.874399; 0.682511;,
         0.816443; 0.682511;,
         0.811133; 0.712345;,
         0.459981; 0.876498;,
         0.490694; 0.917576;,
         0.497245; 0.913688;,
         0.470831; 0.878520;,
         0.082883; 0.502070;,
         0.112921; 0.467820;,
         0.106784; 0.463738;,
         0.071841; 0.503758;,
         0.874399; 0.682511;,
         0.869745; 0.640339;,
         0.821097; 0.640339;,
         0.816443; 0.682511;,
         0.886449; 0.860476;,
         0.887140; 0.781305;,
         0.803702; 0.781305;,
         0.804398; 0.860476;,
         0.599892; 0.735910;,
         0.600588; 0.655159;,
         0.517151; 0.655159;,
         0.517842; 0.735910;,
         0.013212; 0.662501;,
         0.040897; 0.577894;,
         0.027462; 0.579947;,
         0.000000; 0.664520;,
         0.404948; 0.713719;,
         0.423606; 0.798997;,
         0.436808; 0.801457;,
         0.417931; 0.716138;,
         0.583194; 0.508720;,
         0.570547; 0.468310;,
         0.547192; 0.468310;,
         0.534545; 0.508720;,
         0.490694; 0.917576;,
         0.506762; 0.959908;,
         0.510390; 0.959618;,
         0.497245; 0.913688;,
         0.112921; 0.467820;,
         0.130825; 0.422413;,
         0.127234; 0.422012;,
         0.106784; 0.463738;,
         0.587848; 0.547962;,
         0.583194; 0.508720;,
         0.534545; 0.508720;,
         0.529891; 0.547962;,
         0.887140; 0.781305;,
         0.886698; 0.744917;,
         0.804144; 0.744917;,
         0.803702; 0.781305;,
         0.600588; 0.655159;,
         0.600147; 0.617821;,
         0.517592; 0.617821;,
         0.517151; 0.655159;,
         0.040897; 0.577894;,
         0.061032; 0.538099;,
         0.047739; 0.540130;,
         0.027462; 0.579947;,
         0.423606; 0.798997;,
         0.439723; 0.839377;,
         0.452785; 0.841812;,
         0.436808; 0.801457;,
         0.887150; 0.599710;,
         0.888822; 0.599710;,
         0.888822; 0.587000;,
         0.887150; 0.587000;,
         0.869745; 0.640339;,
         0.857099; 0.599710;,
         0.833743; 0.599710;,
         0.821097; 0.640339;,
         0.506762; 0.959908;,
         0.495654; 1.000000;,
         0.497396; 0.999861;,
         0.510390; 0.959618;,
         0.130825; 0.422413;,
         0.122079; 0.381965;,
         0.120355; 0.381773;,
         0.127234; 0.422012;,
         0.929020; 0.999822;,
         0.929020; 0.000171;,
         0.916003; 0.000349;,
         0.916003; 1.000000;,
         0.902980; 0.000499;,
         0.902980; 1.000000;,
         0.916003; 1.000000;,
         0.916003; 0.000499;,
         0.902979; 1.000000;,
         0.902980; 0.000177;,
         0.889962; 0.000000;,
         0.889962; 0.999823;,
         0.929021; 0.003072;,
         0.929020; 1.000000;,
         0.942043; 1.000000;,
         0.942044; 0.003072;,
         0.702527; 0.506082;,
         0.702527; 0.498995;,
         0.689665; 0.498995;,
         0.689665; 0.506082;,
         0.676757; 0.505969;,
         0.689665; 0.506082;,
         0.689665; 0.499047;,
         0.676757; 0.498934;;
      } // End of Cube UV coordinates
      MeshMaterialList { // Cube material list
        1;
        106;
        0,
        0,
        0,
        0,
        0,
        0,
        0,
        0,
        0,
        0,
        0,
        0,
        0,
        0,
        0,
        0,
        0,
        0,
        0,
        0,
        0,
        0,
        0,
        0,
        0,
        0,
        0,
        0,
        0,
        0,
        0,
        0,
        0,
        0,
        0,
        0,
        0,
        0,
        0,
        0,
        0,
        0,
        0,
        0,
        0,
        0,
        0,
        0,
        0,
        0,
        0,
        0,
        0,
        0,
        0,
        0,
        0,
        0,
        0,
        0,
        0,
        0,
        0,
        0,
        0,
        0,
        0,
        0,
        0,
        0,
        0,
        0,
        0,
        0,
        0,
        0,
        0,
        0,
        0,
        0,
        0,
        0,
        0,
        0,
        0,
        0,
        0,
        0,
        0,
        0,
        0,
        0,
        0,
        0,
        0,
        0,
        0,
        0,
        0,
        0,
        0,
        0,
        0,
        0,
        0,
        0;
        Material Material_001 {
           0.640000; 0.640000; 0.640000; 1.000000;;
           96.078431;
           0.500000; 0.500000; 0.500000;;
           0.000000; 0.000000; 0.000000;;
        }
      } // End of Cube material list
    } // End of Cube mesh
  } // End of Cube
} // End of Root
