xof 0303txt 0032

Frame Root {
  FrameTransformMatrix {
     1.000000, 0.000000, 0.000000, 0.000000,
     0.000000,-0.000000, 1.000000, 0.000000,
     0.000000, 1.000000, 0.000000, 0.000000,
     0.000000, 0.000000, 0.000000, 1.000000;;
  }
  Frame Cube_001 {
    FrameTransformMatrix {
       1.000000, 0.000000, 0.000000, 0.000000,
       0.000000, 1.000000, 0.000000, 0.000000,
       0.000000, 0.000000, 1.000000, 0.000000,
       0.000000, 0.000000, 0.000000, 1.000000;;
    }
    Mesh { // Cube_001 mesh
      288;
      -0.005055;-0.029672; 0.062765;,
      -0.005055;-0.032882; 0.062762;,
      -0.005055;-0.032958; 0.153851;,
      -0.005055;-0.029748; 0.153854;,
      -0.005055;-0.029748; 0.153854;,
      -0.005055;-0.032958; 0.153851;,
       0.008094;-0.032958; 0.153851;,
       0.008094;-0.029748; 0.153854;,
       0.008094;-0.029628; 0.010016;,
       0.008094;-0.032838; 0.010014;,
       0.008094;-0.032816;-0.016631;,
       0.008094;-0.029606;-0.016628;,
       0.008094;-0.029606;-0.016628;,
       0.008094;-0.032816;-0.016631;,
      -0.005055;-0.032816;-0.016631;,
      -0.005055;-0.029606;-0.016628;,
      -0.005055;-0.019689; 0.010025;,
       0.008094;-0.019689; 0.010025;,
       0.008094;-0.019667;-0.016620;,
      -0.005055;-0.019667;-0.016620;,
       0.008094;-0.032838; 0.010014;,
      -0.005055;-0.032838; 0.010014;,
      -0.005055;-0.032816;-0.016631;,
       0.008094;-0.032816;-0.016631;,
      -0.005055;-0.032866; 0.043639;,
       0.008094;-0.032866; 0.043639;,
       0.008094;-0.029945; 0.043641;,
      -0.005055;-0.029945; 0.043641;,
      -0.005055;-0.019733; 0.062773;,
       0.008094;-0.019733; 0.062773;,
       0.008094;-0.019717; 0.043650;,
      -0.005055;-0.019717; 0.043650;,
      -0.005055;-0.029628; 0.010016;,
      -0.005055;-0.032838; 0.010014;,
      -0.005055;-0.032866; 0.043639;,
      -0.005055;-0.029656; 0.043641;,
       0.008094;-0.029748; 0.153854;,
       0.008094;-0.032958; 0.153851;,
       0.008094;-0.032882; 0.062762;,
       0.008094;-0.029672; 0.062765;,
      -0.005055;-0.019809; 0.153862;,
       0.008094;-0.019809; 0.153862;,
       0.008094;-0.019733; 0.062773;,
      -0.005055;-0.019733; 0.062773;,
       0.008094;-0.032958; 0.153851;,
      -0.005055;-0.032958; 0.153851;,
      -0.005055;-0.032882; 0.062762;,
       0.008094;-0.032882; 0.062762;,
      -0.005055;-0.029606;-0.016628;,
      -0.005055;-0.032816;-0.016631;,
      -0.005055;-0.032838; 0.010014;,
      -0.005055;-0.029628; 0.010016;,
       0.008094;-0.032866; 0.043639;,
      -0.005055;-0.032866; 0.043639;,
      -0.005055;-0.032838; 0.010014;,
       0.008094;-0.032838; 0.010014;,
      -0.005055;-0.019717; 0.043650;,
       0.008094;-0.019717; 0.043650;,
       0.008094;-0.019689; 0.010025;,
      -0.005055;-0.019689; 0.010025;,
       0.008094;-0.029656; 0.043641;,
       0.008094;-0.032866; 0.043639;,
       0.008094;-0.032838; 0.010014;,
       0.008094;-0.029628; 0.010016;,
       0.009282;-0.024686; 0.042364;,
       0.008094;-0.029656; 0.043641;,
       0.008094;-0.029628; 0.010016;,
       0.009282;-0.024653; 0.002661;,
      -0.006244;-0.024638;-0.014397;,
      -0.005055;-0.029606;-0.016628;,
      -0.005055;-0.029628; 0.010016;,
      -0.006244;-0.024653; 0.002661;,
      -0.006244;-0.024686; 0.042364;,
      -0.005055;-0.029656; 0.043641;,
      -0.005055;-0.029672; 0.062765;,
      -0.006244;-0.024705; 0.064945;,
       0.009282;-0.024777; 0.151527;,
       0.008094;-0.029748; 0.153854;,
       0.008094;-0.029672; 0.062765;,
       0.009282;-0.024705; 0.064945;,
      -0.006244;-0.024653; 0.002661;,
      -0.005055;-0.029628; 0.010016;,
      -0.005055;-0.029656; 0.043641;,
      -0.006244;-0.024686; 0.042364;,
       0.009282;-0.024705; 0.064945;,
       0.008094;-0.029672; 0.062765;,
       0.008094;-0.029656; 0.043641;,
       0.009282;-0.024686; 0.042364;,
       0.009282;-0.024638;-0.014397;,
       0.008094;-0.029606;-0.016628;,
      -0.005055;-0.029606;-0.016628;,
      -0.006244;-0.024638;-0.014397;,
       0.009282;-0.024653; 0.002661;,
       0.008094;-0.029628; 0.010016;,
       0.008094;-0.029606;-0.016628;,
       0.009282;-0.024638;-0.014397;,
      -0.006244;-0.024777; 0.151527;,
      -0.005055;-0.029748; 0.153854;,
       0.008094;-0.029748; 0.153854;,
       0.009282;-0.024777; 0.151527;,
      -0.006244;-0.024705; 0.064945;,
      -0.005055;-0.029672; 0.062765;,
      -0.005055;-0.029748; 0.153854;,
      -0.006244;-0.024777; 0.151527;,
       0.008094;-0.029961; 0.062765;,
      -0.005055;-0.029961; 0.062765;,
      -0.005055;-0.029945; 0.043641;,
       0.008094;-0.029945; 0.043641;,
       0.008094;-0.032882; 0.062762;,
      -0.005055;-0.032882; 0.062762;,
      -0.005055;-0.029961; 0.062765;,
       0.008094;-0.029961; 0.062765;,
      -0.005055;-0.019733; 0.062773;,
      -0.006244;-0.024705; 0.064945;,
      -0.006244;-0.024777; 0.151527;,
      -0.005055;-0.019809; 0.153862;,
      -0.005055;-0.019809; 0.153862;,
      -0.006244;-0.024777; 0.151527;,
       0.009282;-0.024777; 0.151527;,
       0.008094;-0.019809; 0.153862;,
       0.008094;-0.019689; 0.010025;,
       0.009282;-0.024653; 0.002661;,
       0.009282;-0.024638;-0.014397;,
       0.008094;-0.019667;-0.016620;,
       0.008094;-0.019667;-0.016620;,
       0.009282;-0.024638;-0.014397;,
      -0.006244;-0.024638;-0.014397;,
      -0.005055;-0.019667;-0.016620;,
       0.008094;-0.019733; 0.062773;,
       0.009282;-0.024705; 0.064945;,
       0.009282;-0.024686; 0.042364;,
       0.008094;-0.019717; 0.043650;,
      -0.005055;-0.019689; 0.010025;,
      -0.006244;-0.024653; 0.002661;,
      -0.006244;-0.024686; 0.042364;,
      -0.005055;-0.019717; 0.043650;,
       0.008094;-0.019809; 0.153862;,
       0.009282;-0.024777; 0.151527;,
       0.009282;-0.024705; 0.064945;,
       0.008094;-0.019733; 0.062773;,
      -0.005055;-0.019717; 0.043650;,
      -0.006244;-0.024686; 0.042364;,
      -0.006244;-0.024705; 0.064945;,
      -0.005055;-0.019733; 0.062773;,
      -0.005055;-0.019667;-0.016620;,
      -0.006244;-0.024638;-0.014397;,
      -0.006244;-0.024653; 0.002661;,
      -0.005055;-0.019689; 0.010025;,
       0.008094;-0.019717; 0.043650;,
       0.009282;-0.024686; 0.042364;,
       0.009282;-0.024653; 0.002661;,
       0.008094;-0.019689; 0.010025;,
      -0.009941; 0.057550;-0.005283;,
      -0.009941; 0.022983; 0.005034;,
      -0.009941; 0.022954; 0.039592;,
      -0.009941; 0.057521; 0.029275;,
      -0.009941; 0.057521; 0.029275;,
      -0.009941; 0.022954; 0.039592;,
       0.013425; 0.022954; 0.039592;,
       0.013425; 0.057521; 0.029275;,
       0.013425; 0.057521; 0.029275;,
       0.013425; 0.022954; 0.039592;,
       0.013425; 0.022983; 0.005034;,
       0.013425; 0.057550;-0.005283;,
       0.013425; 0.057550;-0.005283;,
       0.013425; 0.022983; 0.005034;,
      -0.009941; 0.022983; 0.005034;,
      -0.009941; 0.057550;-0.005283;,
      -0.009941; 0.057550;-0.005283;,
      -0.009941; 0.057521; 0.029275;,
      -0.006735; 0.063352; 0.024538;,
      -0.006735; 0.063373;-0.000536;,
      -0.009941; 0.022983; 0.005034;,
       0.013425; 0.022983; 0.005034;,
       0.013425;-0.000762; 0.012414;,
      -0.009941;-0.000762; 0.012414;,
       0.013425;-0.000762; 0.012414;,
       0.013425;-0.000791; 0.046972;,
       0.013425;-0.019904; 0.046956;,
       0.013425;-0.019876; 0.012398;,
       0.005857; 0.015728; 0.041838;,
      -0.002374; 0.015728; 0.041838;,
      -0.000040; 0.011331; 0.055998;,
       0.003524; 0.011331; 0.055998;,
       0.013425; 0.022983; 0.005034;,
       0.013425; 0.022954; 0.039592;,
       0.013425;-0.000791; 0.046972;,
       0.013425;-0.000762; 0.012414;,
      -0.009941; 0.022954; 0.039592;,
      -0.009941; 0.022983; 0.005034;,
      -0.009941;-0.000762; 0.012414;,
      -0.009941;-0.000791; 0.046972;,
       0.013425;-0.019904; 0.046956;,
      -0.009941;-0.019904; 0.046956;,
      -0.009941;-0.019876; 0.012398;,
       0.013425;-0.019876; 0.012398;,
      -0.009941;-0.000791; 0.046972;,
      -0.009941;-0.000762; 0.012414;,
      -0.009941;-0.019876; 0.012398;,
      -0.009941;-0.019904; 0.046956;,
       0.013425;-0.000762; 0.012414;,
       0.013425;-0.019876; 0.012398;,
       0.008568;-0.019598;-0.000289;,
       0.008568;-0.008430;-0.000280;,
      -0.009941;-0.000791; 0.046972;,
      -0.009941;-0.019904; 0.046956;,
      -0.006846;-0.019582; 0.067070;,
      -0.006846;-0.005532; 0.067081;,
      -0.005084;-0.008430;-0.000280;,
       0.008568;-0.008430;-0.000280;,
       0.008568;-0.019598;-0.000289;,
      -0.005084;-0.019598;-0.000289;,
       0.013425;-0.019876; 0.012398;,
      -0.009941;-0.019876; 0.012398;,
      -0.005084;-0.019598;-0.000289;,
       0.008568;-0.019598;-0.000289;,
      -0.009941;-0.000762; 0.012414;,
       0.013425;-0.000762; 0.012414;,
       0.008568;-0.008430;-0.000280;,
      -0.005084;-0.008430;-0.000280;,
      -0.009941;-0.019876; 0.012398;,
      -0.009941;-0.000762; 0.012414;,
      -0.005084;-0.008430;-0.000280;,
      -0.005084;-0.019598;-0.000289;,
      -0.006735; 0.063352; 0.024538;,
       0.010218; 0.063352; 0.024538;,
       0.010218; 0.063373;-0.000536;,
      -0.006735; 0.063373;-0.000536;,
       0.013425; 0.057521; 0.029275;,
       0.013425; 0.057550;-0.005283;,
       0.010218; 0.063373;-0.000536;,
       0.010218; 0.063352; 0.024538;,
       0.013425; 0.057550;-0.005283;,
      -0.009941; 0.057550;-0.005283;,
      -0.006735; 0.063373;-0.000536;,
       0.010218; 0.063373;-0.000536;,
      -0.009941; 0.057521; 0.029275;,
       0.013425; 0.057521; 0.029275;,
       0.010218; 0.063352; 0.024538;,
      -0.006735; 0.063352; 0.024538;,
       0.010330;-0.005532; 0.067081;,
      -0.006846;-0.005532; 0.067081;,
      -0.006846;-0.019582; 0.067070;,
       0.010330;-0.019582; 0.067070;,
      -0.009941;-0.019904; 0.046956;,
       0.013425;-0.019904; 0.046956;,
       0.010330;-0.019582; 0.067070;,
      -0.006846;-0.019582; 0.067070;,
       0.013425;-0.000791; 0.046972;,
      -0.009941;-0.000791; 0.046972;,
      -0.006846;-0.005532; 0.067081;,
       0.010330;-0.005532; 0.067081;,
       0.013425;-0.019904; 0.046956;,
       0.013425;-0.000791; 0.046972;,
       0.010330;-0.005532; 0.067081;,
       0.010330;-0.019582; 0.067070;,
      -0.002374; 0.015728; 0.041838;,
       0.005857; 0.015728; 0.041838;,
       0.013425; 0.022954; 0.039592;,
      -0.009941; 0.022954; 0.039592;,
       0.005857; 0.006435; 0.044726;,
      -0.002374; 0.006435; 0.044726;,
      -0.009941;-0.000791; 0.046972;,
       0.013425;-0.000791; 0.046972;,
      -0.002374; 0.006435; 0.044726;,
      -0.002374; 0.015728; 0.041838;,
      -0.009941; 0.022954; 0.039592;,
      -0.009941;-0.000791; 0.046972;,
       0.005857; 0.015728; 0.041838;,
       0.005857; 0.006435; 0.044726;,
       0.013425;-0.000791; 0.046972;,
       0.013425; 0.022954; 0.039592;,
       0.003524; 0.011331; 0.055998;,
      -0.000040; 0.011331; 0.055998;,
      -0.000040; 0.007225; 0.055053;,
       0.003524; 0.007225; 0.055053;,
       0.005857; 0.006435; 0.044726;,
       0.005857; 0.015728; 0.041838;,
       0.003524; 0.011331; 0.055998;,
       0.003524; 0.007225; 0.055053;,
      -0.002374; 0.006435; 0.044726;,
       0.005857; 0.006435; 0.044726;,
       0.003524; 0.007225; 0.055053;,
      -0.000040; 0.007225; 0.055053;,
      -0.002374; 0.015728; 0.041838;,
      -0.002374; 0.006435; 0.044726;,
      -0.000040; 0.007225; 0.055053;,
      -0.000040; 0.011331; 0.055998;;
      72;
      4;3,2,1,0;,
      4;7,6,5,4;,
      4;11,10,9,8;,
      4;15,14,13,12;,
      4;19,18,17,16;,
      4;23,22,21,20;,
      4;27,26,25,24;,
      4;31,30,29,28;,
      4;35,34,33,32;,
      4;39,38,37,36;,
      4;43,42,41,40;,
      4;47,46,45,44;,
      4;51,50,49,48;,
      4;55,54,53,52;,
      4;59,58,57,56;,
      4;63,62,61,60;,
      4;67,66,65,64;,
      4;71,70,69,68;,
      4;75,74,73,72;,
      4;79,78,77,76;,
      4;83,82,81,80;,
      4;87,86,85,84;,
      4;91,90,89,88;,
      4;95,94,93,92;,
      4;99,98,97,96;,
      4;103,102,101,100;,
      4;107,106,105,104;,
      4;111,110,109,108;,
      4;115,114,113,112;,
      4;119,118,117,116;,
      4;123,122,121,120;,
      4;127,126,125,124;,
      4;131,130,129,128;,
      4;135,134,133,132;,
      4;139,138,137,136;,
      4;143,142,141,140;,
      4;147,146,145,144;,
      4;151,150,149,148;,
      4;155,154,153,152;,
      4;159,158,157,156;,
      4;163,162,161,160;,
      4;167,166,165,164;,
      4;171,170,169,168;,
      4;175,174,173,172;,
      4;179,178,177,176;,
      4;183,182,181,180;,
      4;187,186,185,184;,
      4;191,190,189,188;,
      4;195,194,193,192;,
      4;199,198,197,196;,
      4;203,202,201,200;,
      4;207,206,205,204;,
      4;211,210,209,208;,
      4;215,214,213,212;,
      4;219,218,217,216;,
      4;223,222,221,220;,
      4;227,226,225,224;,
      4;231,230,229,228;,
      4;235,234,233,232;,
      4;239,238,237,236;,
      4;243,242,241,240;,
      4;247,246,245,244;,
      4;251,250,249,248;,
      4;255,254,253,252;,
      4;259,258,257,256;,
      4;263,262,261,260;,
      4;267,266,265,264;,
      4;271,270,269,268;,
      4;275,274,273,272;,
      4;279,278,277,276;,
      4;283,282,281,280;,
      4;287,286,285,284;;
      MeshNormals { // Cube_001 normals
        288;
        -0.987732;-0.156011;-0.000122;,
        -0.577349;-0.576861;-0.577807;,
        -0.577349;-0.577807; 0.576861;,
        -0.639576; 0.116611; 0.759789;,
        -0.639576; 0.116611; 0.759789;,
        -0.577349;-0.577807; 0.576861;,
         0.577349;-0.577807; 0.576861;,
         0.639576; 0.116611; 0.759789;,
         0.993103;-0.117100;-0.000092;,
         0.707083;-0.707083;-0.000580;,
         0.577349;-0.576861;-0.577807;,
         0.640767; 0.109958;-0.759789;,
         0.640767; 0.109958;-0.759789;,
         0.577349;-0.576861;-0.577807;,
        -0.577349;-0.576861;-0.577807;,
        -0.640767; 0.109958;-0.759789;,
        -0.619404; 0.785028; 0.000641;,
         0.619404; 0.785028; 0.000641;,
         0.496506; 0.489334;-0.716910;,
        -0.496506; 0.489334;-0.716910;,
         0.707083;-0.707083;-0.000580;,
        -0.707083;-0.707083;-0.000580;,
        -0.577349;-0.576861;-0.577807;,
         0.577349;-0.576861;-0.577807;,
        -0.577349;-0.577807; 0.576861;,
         0.577349;-0.577807; 0.576861;,
         0.000000;-0.707694; 0.706504;,
         0.000000;-0.707694; 0.706504;,
        -0.619404; 0.785028; 0.000641;,
         0.619404; 0.785028; 0.000641;,
         0.619404; 0.785028; 0.000641;,
        -0.619404; 0.785028; 0.000641;,
        -0.993103;-0.117100;-0.000092;,
        -0.707083;-0.707083;-0.000580;,
        -0.577349;-0.577807; 0.576861;,
        -0.987732;-0.156011;-0.000122;,
         0.639576; 0.116611; 0.759789;,
         0.577349;-0.577807; 0.576861;,
         0.577349;-0.576861;-0.577807;,
         0.987732;-0.156011;-0.000122;,
        -0.496628; 0.481521; 0.722098;,
         0.496628; 0.481521; 0.722098;,
         0.619404; 0.785028; 0.000641;,
        -0.619404; 0.785028; 0.000641;,
         0.577349;-0.577807; 0.576861;,
        -0.577349;-0.577807; 0.576861;,
        -0.577349;-0.576861;-0.577807;,
         0.577349;-0.576861;-0.577807;,
        -0.640767; 0.109958;-0.759789;,
        -0.577349;-0.576861;-0.577807;,
        -0.707083;-0.707083;-0.000580;,
        -0.993103;-0.117100;-0.000092;,
         0.577349;-0.577807; 0.576861;,
        -0.577349;-0.577807; 0.576861;,
        -0.707083;-0.707083;-0.000580;,
         0.707083;-0.707083;-0.000580;,
        -0.619404; 0.785028; 0.000641;,
         0.619404; 0.785028; 0.000641;,
         0.619404; 0.785028; 0.000641;,
        -0.619404; 0.785028; 0.000641;,
         0.987732;-0.156011;-0.000122;,
         0.577349;-0.577807; 0.576861;,
         0.707083;-0.707083;-0.000580;,
         0.993103;-0.117100;-0.000092;,
         1.000000; 0.000000; 0.000000;,
         0.987732;-0.156011;-0.000122;,
         0.993103;-0.117100;-0.000092;,
         1.000000; 0.000000; 0.000000;,
        -0.841517; 0.000427;-0.540208;,
        -0.640767; 0.109958;-0.759789;,
        -0.993103;-0.117100;-0.000092;,
        -1.000000; 0.000000; 0.000000;,
        -0.999969; 0.000000; 0.000000;,
        -0.987732;-0.156011;-0.000122;,
        -0.987732;-0.156011;-0.000122;,
        -1.000000; 0.000000; 0.000000;,
         0.845210;-0.000427; 0.534379;,
         0.639576; 0.116611; 0.759789;,
         0.987732;-0.156011;-0.000122;,
         1.000000; 0.000000; 0.000000;,
        -1.000000; 0.000000; 0.000000;,
        -0.993103;-0.117100;-0.000092;,
        -0.987732;-0.156011;-0.000122;,
        -0.999969; 0.000000; 0.000000;,
         1.000000; 0.000000; 0.000000;,
         0.987732;-0.156011;-0.000122;,
         0.987732;-0.156011;-0.000122;,
         1.000000; 0.000000; 0.000000;,
         0.841517; 0.000427;-0.540208;,
         0.640767; 0.109958;-0.759789;,
        -0.640767; 0.109958;-0.759789;,
        -0.841517; 0.000427;-0.540208;,
         1.000000; 0.000000; 0.000000;,
         0.993103;-0.117100;-0.000092;,
         0.640767; 0.109958;-0.759789;,
         0.841517; 0.000427;-0.540208;,
        -0.845210;-0.000427; 0.534379;,
        -0.639576; 0.116611; 0.759789;,
         0.639576; 0.116611; 0.759789;,
         0.845210;-0.000427; 0.534379;,
        -1.000000; 0.000000; 0.000000;,
        -0.987732;-0.156011;-0.000122;,
        -0.639576; 0.116611; 0.759789;,
        -0.845210;-0.000427; 0.534379;,
         0.000000;-0.706504;-0.707694;,
         0.000000;-0.706504;-0.707694;,
         0.000000;-0.707694; 0.706504;,
         0.000000;-0.707694; 0.706504;,
         0.577349;-0.576861;-0.577807;,
        -0.577349;-0.576861;-0.577807;,
         0.000000;-0.706504;-0.707694;,
         0.000000;-0.706504;-0.707694;,
        -0.619404; 0.785028; 0.000641;,
        -1.000000; 0.000000; 0.000000;,
        -0.845210;-0.000427; 0.534379;,
        -0.496628; 0.481521; 0.722098;,
        -0.496628; 0.481521; 0.722098;,
        -0.845210;-0.000427; 0.534379;,
         0.845210;-0.000427; 0.534379;,
         0.496628; 0.481521; 0.722098;,
         0.619404; 0.785028; 0.000641;,
         1.000000; 0.000000; 0.000000;,
         0.841517; 0.000427;-0.540208;,
         0.496506; 0.489334;-0.716910;,
         0.496506; 0.489334;-0.716910;,
         0.841517; 0.000427;-0.540208;,
        -0.841517; 0.000427;-0.540208;,
        -0.496506; 0.489334;-0.716910;,
         0.619404; 0.785028; 0.000641;,
         1.000000; 0.000000; 0.000000;,
         1.000000; 0.000000; 0.000000;,
         0.619404; 0.785028; 0.000641;,
        -0.619404; 0.785028; 0.000641;,
        -1.000000; 0.000000; 0.000000;,
        -0.999969; 0.000000; 0.000000;,
        -0.619404; 0.785028; 0.000641;,
         0.496628; 0.481521; 0.722098;,
         0.845210;-0.000427; 0.534379;,
         1.000000; 0.000000; 0.000000;,
         0.619404; 0.785028; 0.000641;,
        -0.619404; 0.785028; 0.000641;,
        -0.999969; 0.000000; 0.000000;,
        -1.000000; 0.000000; 0.000000;,
        -0.619404; 0.785028; 0.000641;,
        -0.496506; 0.489334;-0.716910;,
        -0.841517; 0.000427;-0.540208;,
        -1.000000; 0.000000; 0.000000;,
        -0.619404; 0.785028; 0.000641;,
         0.619404; 0.785028; 0.000641;,
         1.000000; 0.000000; 0.000000;,
         1.000000; 0.000000; 0.000000;,
         0.619404; 0.785028; 0.000641;,
        -0.642170; 0.226997;-0.732170;,
        -0.705832;-0.206397;-0.677602;,
        -0.708365; 0.205664; 0.675192;,
        -0.678396; 0.413800; 0.607044;,
        -0.678396; 0.413800; 0.607044;,
        -0.708365; 0.205664; 0.675192;,
         0.708365; 0.205664; 0.675192;,
         0.678396; 0.413800; 0.607044;,
         0.678396; 0.413800; 0.607044;,
         0.708365; 0.205664; 0.675192;,
         0.705832;-0.206397;-0.677602;,
         0.642170; 0.226997;-0.732170;,
         0.642170; 0.226997;-0.732170;,
         0.705832;-0.206397;-0.677602;,
        -0.705832;-0.206397;-0.677602;,
        -0.642170; 0.226997;-0.732170;,
        -0.642170; 0.226997;-0.732170;,
        -0.678396; 0.413800; 0.607044;,
        -0.418470; 0.844325; 0.334635;,
        -0.418470; 0.844874;-0.333201;,
        -0.705832;-0.206397;-0.677602;,
         0.705832;-0.206397;-0.677602;,
         0.862575; 0.118320;-0.491836;,
        -0.862575; 0.118320;-0.491836;,
         0.862575; 0.118320;-0.491836;,
         0.834864; 0.370739; 0.406842;,
         0.719352;-0.692038; 0.059664;,
         0.728904;-0.670003;-0.140538;,
         0.162664; 0.471358; 0.866787;,
        -0.162664; 0.471358; 0.866787;,
        -0.511277; 0.425306; 0.746788;,
         0.511277; 0.425306; 0.746788;,
         0.705832;-0.206397;-0.677602;,
         0.708365; 0.205664; 0.675192;,
         0.834864; 0.370739; 0.406842;,
         0.862575; 0.118320;-0.491836;,
        -0.708365; 0.205664; 0.675192;,
        -0.705832;-0.206397;-0.677602;,
        -0.862575; 0.118320;-0.491836;,
        -0.834864; 0.370739; 0.406842;,
         0.719352;-0.692038; 0.059664;,
        -0.719352;-0.692038; 0.059664;,
        -0.728904;-0.670003;-0.140538;,
         0.728904;-0.670003;-0.140538;,
        -0.834864; 0.370739; 0.406842;,
        -0.862575; 0.118320;-0.491836;,
        -0.728904;-0.670003;-0.140538;,
        -0.719352;-0.692038; 0.059664;,
         0.862575; 0.118320;-0.491836;,
         0.728904;-0.670003;-0.140538;,
         0.453932;-0.591052;-0.666768;,
         0.468917; 0.389477;-0.792688;,
        -0.834864; 0.370739; 0.406842;,
        -0.719352;-0.692038; 0.059664;,
        -0.528245;-0.580676; 0.619434;,
        -0.536790; 0.504837; 0.675985;,
        -0.468917; 0.389477;-0.792688;,
         0.468917; 0.389477;-0.792688;,
         0.453932;-0.591052;-0.666768;,
        -0.453932;-0.591052;-0.666768;,
         0.728904;-0.670003;-0.140538;,
        -0.728904;-0.670003;-0.140538;,
        -0.453932;-0.591052;-0.666768;,
         0.453932;-0.591052;-0.666768;,
        -0.862575; 0.118320;-0.491836;,
         0.862575; 0.118320;-0.491836;,
         0.468917; 0.389477;-0.792688;,
        -0.468917; 0.389477;-0.792688;,
        -0.728904;-0.670003;-0.140538;,
        -0.862575; 0.118320;-0.491836;,
        -0.468917; 0.389477;-0.792688;,
        -0.453932;-0.591052;-0.666768;,
        -0.418470; 0.844325; 0.334635;,
         0.418470; 0.844325; 0.334635;,
         0.418470; 0.844874;-0.333201;,
        -0.418470; 0.844874;-0.333201;,
         0.678396; 0.413800; 0.607044;,
         0.642170; 0.226997;-0.732170;,
         0.418470; 0.844874;-0.333201;,
         0.418470; 0.844325; 0.334635;,
         0.642170; 0.226997;-0.732170;,
        -0.642170; 0.226997;-0.732170;,
        -0.418470; 0.844874;-0.333201;,
         0.418470; 0.844874;-0.333201;,
        -0.678396; 0.413800; 0.607044;,
         0.678396; 0.413800; 0.607044;,
         0.418470; 0.844325; 0.334635;,
        -0.418470; 0.844325; 0.334635;,
         0.536790; 0.504837; 0.675985;,
        -0.536790; 0.504837; 0.675985;,
        -0.528245;-0.580676; 0.619434;,
         0.528245;-0.580676; 0.619434;,
        -0.719352;-0.692038; 0.059664;,
         0.719352;-0.692038; 0.059664;,
         0.528245;-0.580676; 0.619434;,
        -0.528245;-0.580676; 0.619434;,
         0.834864; 0.370739; 0.406842;,
        -0.834864; 0.370739; 0.406842;,
        -0.536790; 0.504837; 0.675985;,
         0.536790; 0.504837; 0.675985;,
         0.719352;-0.692038; 0.059664;,
         0.834864; 0.370739; 0.406842;,
         0.536790; 0.504837; 0.675985;,
         0.528245;-0.580676; 0.619434;,
        -0.162664; 0.471358; 0.866787;,
         0.162664; 0.471358; 0.866787;,
         0.708365; 0.205664; 0.675192;,
        -0.708365; 0.205664; 0.675192;,
         0.334666; 0.019593; 0.942106;,
        -0.334635; 0.019593; 0.942106;,
        -0.834864; 0.370739; 0.406842;,
         0.834864; 0.370739; 0.406842;,
        -0.334635; 0.019593; 0.942106;,
        -0.162664; 0.471358; 0.866787;,
        -0.708365; 0.205664; 0.675192;,
        -0.834864; 0.370739; 0.406842;,
         0.162664; 0.471358; 0.866787;,
         0.334666; 0.019593; 0.942106;,
         0.834864; 0.370739; 0.406842;,
         0.708365; 0.205664; 0.675192;,
         0.511277; 0.425306; 0.746788;,
        -0.511277; 0.425306; 0.746788;,
        -0.532762;-0.607624; 0.589007;,
         0.532762;-0.607624; 0.589007;,
         0.334666; 0.019593; 0.942106;,
         0.162664; 0.471358; 0.866787;,
         0.511277; 0.425306; 0.746788;,
         0.532762;-0.607624; 0.589007;,
        -0.334635; 0.019593; 0.942106;,
         0.334666; 0.019593; 0.942106;,
         0.532762;-0.607624; 0.589007;,
        -0.532762;-0.607624; 0.589007;,
        -0.162664; 0.471358; 0.866787;,
        -0.334635; 0.019593; 0.942106;,
        -0.532762;-0.607624; 0.589007;,
        -0.511277; 0.425306; 0.746788;;
        72;
        4;3,2,1,0;,
        4;7,6,5,4;,
        4;11,10,9,8;,
        4;15,14,13,12;,
        4;19,18,17,16;,
        4;23,22,21,20;,
        4;27,26,25,24;,
        4;31,30,29,28;,
        4;35,34,33,32;,
        4;39,38,37,36;,
        4;43,42,41,40;,
        4;47,46,45,44;,
        4;51,50,49,48;,
        4;55,54,53,52;,
        4;59,58,57,56;,
        4;63,62,61,60;,
        4;67,66,65,64;,
        4;71,70,69,68;,
        4;75,74,73,72;,
        4;79,78,77,76;,
        4;83,82,81,80;,
        4;87,86,85,84;,
        4;91,90,89,88;,
        4;95,94,93,92;,
        4;99,98,97,96;,
        4;103,102,101,100;,
        4;107,106,105,104;,
        4;111,110,109,108;,
        4;115,114,113,112;,
        4;119,118,117,116;,
        4;123,122,121,120;,
        4;127,126,125,124;,
        4;131,130,129,128;,
        4;135,134,133,132;,
        4;139,138,137,136;,
        4;143,142,141,140;,
        4;147,146,145,144;,
        4;151,150,149,148;,
        4;155,154,153,152;,
        4;159,158,157,156;,
        4;163,162,161,160;,
        4;167,166,165,164;,
        4;171,170,169,168;,
        4;175,174,173,172;,
        4;179,178,177,176;,
        4;183,182,181,180;,
        4;187,186,185,184;,
        4;191,190,189,188;,
        4;195,194,193,192;,
        4;199,198,197,196;,
        4;203,202,201,200;,
        4;207,206,205,204;,
        4;211,210,209,208;,
        4;215,214,213,212;,
        4;219,218,217,216;,
        4;223,222,221,220;,
        4;227,226,225,224;,
        4;231,230,229,228;,
        4;235,234,233,232;,
        4;239,238,237,236;,
        4;243,242,241,240;,
        4;247,246,245,244;,
        4;251,250,249,248;,
        4;255,254,253,252;,
        4;259,258,257,256;,
        4;263,262,261,260;,
        4;267,266,265,264;,
        4;271,270,269,268;,
        4;275,274,273,272;,
        4;279,278,277,276;,
        4;283,282,281,280;,
        4;287,286,285,284;;
      } // End of Cube_001 normals
      MeshTextureCoords { // Cube_001 UV coordinates
        288;
         0.906936; 0.554489;,
         0.925197; 0.554489;,
         0.925198; 0.043345;,
         0.906936; 0.043344;,
         0.491909; 0.092482;,
         0.473767; 0.092482;,
         0.473767; 0.166268;,
         0.491909; 0.166268;,
         0.943459; 0.850484;,
         0.925198; 0.850485;,
         0.925198; 1.000000;,
         0.943459; 1.000000;,
         0.566802; 0.168437;,
         0.548601; 0.168437;,
         0.548601; 0.242223;,
         0.566802; 0.242223;,
         0.850395; 0.850485;,
         0.775561; 0.850485;,
         0.775561; 1.000000;,
         0.850395; 1.000000;,
         0.548601; 0.361614;,
         0.473767; 0.361614;,
         0.473767; 0.511124;,
         0.548601; 0.511124;,
         0.637337; 0.306222;,
         0.637337; 0.380008;,
         0.653849; 0.380008;,
         0.653849; 0.306222;,
         0.850395; 0.554489;,
         0.775561; 0.554489;,
         0.775561; 0.661800;,
         0.850395; 0.661800;,
         0.906936; 0.850484;,
         0.925197; 0.850485;,
         0.925197; 0.661800;,
         0.906936; 0.661800;,
         0.943459; 0.043345;,
         0.925198; 0.043345;,
         0.925198; 0.554490;,
         0.943459; 0.554489;,
         0.850395; 0.043345;,
         0.775561; 0.043345;,
         0.775561; 0.554489;,
         0.850395; 0.554489;,
         0.473767; 0.000000;,
         0.398933; 0.000000;,
         0.398933; 0.511124;,
         0.473767; 0.511124;,
         0.906936; 1.000000;,
         0.925197; 1.000000;,
         0.925197; 0.850485;,
         0.906936; 0.850484;,
         0.548601; 0.172938;,
         0.473767; 0.172938;,
         0.473767; 0.361614;,
         0.548601; 0.361614;,
         0.850395; 0.661800;,
         0.775561; 0.661800;,
         0.775561; 0.850485;,
         0.850395; 0.850485;,
         0.943459; 0.661800;,
         0.925198; 0.661800;,
         0.925198; 0.850485;,
         0.943459; 0.850484;,
         0.971533; 0.668985;,
         0.943459; 0.661800;,
         0.943459; 0.850484;,
         0.971533; 0.891779;,
         0.878862; 0.987496;,
         0.906936; 1.000000;,
         0.906936; 0.850484;,
         0.878862; 0.891779;,
         0.878862; 0.668985;,
         0.906936; 0.661800;,
         0.906936; 0.554489;,
         0.878862; 0.542274;,
         0.971533; 0.056418;,
         0.943459; 0.043345;,
         0.943459; 0.554489;,
         0.971533; 0.542274;,
         0.878862; 0.891779;,
         0.906936; 0.850484;,
         0.906936; 0.661800;,
         0.878862; 0.668985;,
         0.971533; 0.542274;,
         0.943459; 0.554489;,
         0.943459; 0.661800;,
         0.971533; 0.668985;,
         0.593884; 0.161768;,
         0.566802; 0.168437;,
         0.566802; 0.242223;,
         0.593883; 0.248893;,
         0.971533; 0.891779;,
         0.943459; 0.850484;,
         0.943459; 1.000000;,
         0.971533; 0.987496;,
         0.521558; 0.085813;,
         0.491909; 0.092482;,
         0.491909; 0.166268;,
         0.521558; 0.172938;,
         0.878862; 0.542274;,
         0.906936; 0.554489;,
         0.906936; 0.043344;,
         0.878862; 0.056418;,
         0.737927; 0.263117;,
         0.663093; 0.263117;,
         0.663093; 0.370423;,
         0.737927; 0.370423;,
         0.637337; 0.380008;,
         0.637337; 0.306222;,
         0.620772; 0.306222;,
         0.620772; 0.380008;,
         0.850395; 0.554488;,
         0.878862; 0.542274;,
         0.878862; 0.056418;,
         0.850395; 0.043343;,
         0.548079; 0.092482;,
         0.521558; 0.085813;,
         0.521558; 0.172938;,
         0.548079; 0.166268;,
         1.000000; 0.850483;,
         0.971533; 0.891779;,
         0.971533; 0.987496;,
         1.000000; 0.999998;,
         0.623155; 0.168437;,
         0.593884; 0.161768;,
         0.593883; 0.248893;,
         0.623155; 0.242223;,
         1.000000; 0.554488;,
         0.971533; 0.542274;,
         0.971533; 0.668985;,
         1.000000; 0.661799;,
         0.850395; 0.850483;,
         0.878862; 0.891779;,
         0.878862; 0.668985;,
         0.850395; 0.661799;,
         1.000000; 0.043343;,
         0.971533; 0.056418;,
         0.971533; 0.542274;,
         1.000000; 0.554488;,
         0.850395; 0.661799;,
         0.878862; 0.668985;,
         0.878862; 0.542274;,
         0.850395; 0.554488;,
         0.850395; 0.999998;,
         0.878862; 0.987496;,
         0.878862; 0.891779;,
         0.850395; 0.850483;,
         1.000000; 0.661799;,
         0.971533; 0.668985;,
         0.971533; 0.891779;,
         1.000000; 0.850483;,
         0.387780; 0.968607;,
         0.341911; 0.771383;,
         0.145658; 0.758683;,
         0.191528; 0.955907;,
         0.265955; 0.475518;,
         0.265955; 0.276107;,
         0.132978; 0.276107;,
         0.132978; 0.475518;,
         0.579309; 0.555217;,
         0.533439; 0.752441;,
         0.729691; 0.739741;,
         0.775561; 0.542517;,
         0.265955; 0.176609;,
         0.265955; 0.374820;,
         0.398933; 0.374820;,
         0.398933; 0.176609;,
         0.387780; 0.968607;,
         0.191528; 0.955907;,
         0.216266; 0.990785;,
         0.358659; 1.000000;,
         0.398933; 0.374820;,
         0.265955; 0.374820;,
         0.265955; 0.511124;,
         0.398933; 0.511124;,
         0.696514; 0.875331;,
         0.500261; 0.888032;,
         0.507385; 0.995009;,
         0.703637; 0.982309;,
         0.641201; 0.082265;,
         0.594356; 0.082265;,
         0.607635; 0.161768;,
         0.627922; 0.161768;,
         0.729691; 0.739741;,
         0.533439; 0.752441;,
         0.500261; 0.888032;,
         0.696514; 0.875331;,
         0.145658; 0.758683;,
         0.341911; 0.771383;,
         0.308733; 0.635793;,
         0.112481; 0.623092;,
         0.132978; 0.246031;,
         0.000000; 0.246031;,
         0.000000; 0.439943;,
         0.132978; 0.439943;,
         0.112481; 0.623092;,
         0.308733; 0.635793;,
         0.315857; 0.528815;,
         0.119605; 0.516115;,
         0.696514; 0.875331;,
         0.703637; 0.982309;,
         0.775561; 0.975358;,
         0.771399; 0.912851;,
         0.112481; 0.623092;,
         0.119605; 0.516115;,
         0.005237; 0.511124;,
         0.000000; 0.589765;,
         0.663093; 0.090121;,
         0.663093; 0.166732;,
         0.726413; 0.166732;,
         0.726413; 0.090121;,
         0.132978; 0.439943;,
         0.000000; 0.439943;,
         0.027639; 0.511124;,
         0.105338; 0.511124;,
         0.620772; 0.380008;,
         0.620772; 0.248893;,
         0.548601; 0.276145;,
         0.548601; 0.352756;,
         0.315857; 0.528815;,
         0.308733; 0.635793;,
         0.383618; 0.598273;,
         0.387780; 0.535766;,
         0.663093; 0.511124;,
         0.759576; 0.511124;,
         0.759576; 0.370423;,
         0.663093; 0.370423;,
         0.579309; 0.555217;,
         0.775561; 0.542517;,
         0.746440; 0.511124;,
         0.604047; 0.520339;,
         0.265955; 0.176609;,
         0.398933; 0.176609;,
         0.380686; 0.146334;,
         0.284203; 0.146334;,
         0.265955; 0.475518;,
         0.132978; 0.475518;,
         0.151225; 0.511124;,
         0.247708; 0.511124;,
         0.742499; 0.263117;,
         0.742499; 0.166732;,
         0.663093; 0.166732;,
         0.663093; 0.263117;,
         0.000000; 0.246031;,
         0.132978; 0.246031;,
         0.115366; 0.133153;,
         0.017612; 0.133153;,
         0.663093; 0.511124;,
         0.663093; 0.380008;,
         0.548601; 0.397374;,
         0.548601; 0.493759;,
         0.507385; 0.995009;,
         0.500261; 0.888032;,
         0.387781; 0.921359;,
         0.393017; 1.000000;,
         0.222889; 0.234361;,
         0.176044; 0.234361;,
         0.132978; 0.276107;,
         0.265955; 0.276107;,
         0.176044; 0.180674;,
         0.222889; 0.180674;,
         0.265955; 0.138928;,
         0.132978; 0.138928;,
         0.222889; 0.180674;,
         0.222889; 0.234361;,
         0.265955; 0.276107;,
         0.265955; 0.138928;,
         0.176044; 0.234361;,
         0.176044; 0.180674;,
         0.132978; 0.138928;,
         0.132978; 0.276107;,
         0.641058; 0.283955;,
         0.620772; 0.283955;,
         0.620772; 0.306222;,
         0.641058; 0.306222;,
         0.548601; 0.131033;,
         0.594356; 0.161768;,
         0.594356; 0.078690;,
         0.570440; 0.077030;,
         0.265955; 0.146334;,
         0.312801; 0.146334;,
         0.299521; 0.088351;,
         0.279235; 0.088351;,
         0.772168; 0.081994;,
         0.726413; 0.112729;,
         0.748252; 0.166732;,
         0.772168; 0.165072;;
      } // End of Cube_001 UV coordinates
      MeshMaterialList { // Cube_001 material list
        1;
        72;
        0,
        0,
        0,
        0,
        0,
        0,
        0,
        0,
        0,
        0,
        0,
        0,
        0,
        0,
        0,
        0,
        0,
        0,
        0,
        0,
        0,
        0,
        0,
        0,
        0,
        0,
        0,
        0,
        0,
        0,
        0,
        0,
        0,
        0,
        0,
        0,
        0,
        0,
        0,
        0,
        0,
        0,
        0,
        0,
        0,
        0,
        0,
        0,
        0,
        0,
        0,
        0,
        0,
        0,
        0,
        0,
        0,
        0,
        0,
        0,
        0,
        0,
        0,
        0,
        0,
        0,
        0,
        0,
        0,
        0,
        0,
        0;
        Material Material_001 {
           0.640000; 0.640000; 0.640000; 1.000000;;
           96.078431;
           0.500000; 0.500000; 0.500000;;
           0.000000; 0.000000; 0.000000;;
        }
      } // End of Cube_001 material list
    } // End of Cube_001 mesh
  } // End of Cube_001
} // End of Root
