xof 0303txt 0032

Frame Root {
  FrameTransformMatrix {
     1.000000, 0.000000, 0.000000, 0.000000,
     0.000000,-0.000000, 1.000000, 0.000000,
     0.000000, 1.000000, 0.000000, 0.000000,
     0.000000, 0.000000, 0.000000, 1.000000;;
  }
  Frame Cylinder {
    FrameTransformMatrix {
       1.000000, 0.000000, 0.000000, 0.000000,
       0.000000, 1.000000, 0.000000, 0.000000,
       0.000000, 0.000000, 1.000000, 0.000000,
       0.000000, 0.000000, 0.000000, 1.000000;;
    }
    Mesh { // Cylinder mesh
      588;
      -0.006221;-0.038202; 0.148814;,
      -0.006221;-0.038202; 0.150050;,
      -0.006221;-0.032797; 0.150050;,
      -0.006221;-0.032797; 0.148814;,
      -0.002399;-0.028976; 0.148814;,
      -0.002399;-0.028976; 0.150050;,
       0.003005;-0.028976; 0.150050;,
       0.003005;-0.028976; 0.148814;,
      -0.003296;-0.043443; 0.145719;,
      -0.002134;-0.047036; 0.146676;,
      -0.001237;-0.046981; 0.148120;,
      -0.002399;-0.042023; 0.148814;,
       0.006826;-0.032797; 0.148814;,
       0.006826;-0.032797; 0.150050;,
       0.006826;-0.038202; 0.150050;,
       0.006826;-0.038202; 0.148814;,
       0.006826;-0.038202; 0.148814;,
       0.006826;-0.038202; 0.150050;,
       0.003005;-0.042023; 0.150050;,
       0.003005;-0.042023; 0.148814;,
      -0.002399;-0.042023; 0.148814;,
      -0.002399;-0.042023; 0.150050;,
      -0.006221;-0.038202; 0.150050;,
      -0.006221;-0.038202; 0.148814;,
      -0.006221;-0.032797; 0.148814;,
      -0.006221;-0.032797; 0.150050;,
      -0.002399;-0.028976; 0.150050;,
      -0.002399;-0.028976; 0.148814;,
       0.003005;-0.028976; 0.148814;,
       0.003005;-0.028976; 0.150050;,
       0.006826;-0.032797; 0.150050;,
       0.006826;-0.032797; 0.148814;,
      -0.006221;-0.038202; 0.150050;,
      -0.005286;-0.037815; 0.150386;,
      -0.005286;-0.033184; 0.150386;,
      -0.006221;-0.032797; 0.150050;,
       0.003005;-0.042023; 0.148814;,
       0.001873;-0.046981; 0.148120;,
       0.002770;-0.047036; 0.146676;,
       0.003902;-0.043443; 0.145719;,
       0.004992;-0.010903; 0.087242;,
       0.011316;-0.012338; 0.084222;,
       0.003152;-0.010488; 0.062534;,
      -0.002856;-0.010488; 0.062534;,
      -0.011021;-0.012338; 0.084222;,
      -0.004386;-0.010903; 0.087242;,
       0.006826;-0.032797; 0.148814;,
       0.011516;-0.025020; 0.145719;,
       0.003902;-0.018778; 0.145719;,
       0.003005;-0.028976; 0.148814;,
      -0.002399;-0.028976; 0.148814;,
      -0.003296;-0.018778; 0.145719;,
      -0.011037;-0.025020; 0.145719;,
      -0.006221;-0.032797; 0.148814;,
      -0.006221;-0.038202; 0.148814;,
      -0.011037;-0.038353; 0.145719;,
      -0.003296;-0.043443; 0.145719;,
      -0.002399;-0.042023; 0.148814;,
       0.003005;-0.042023; 0.148814;,
       0.003902;-0.043443; 0.145719;,
       0.011516;-0.038353; 0.145719;,
       0.006826;-0.038202; 0.148814;,
       0.006826;-0.038202; 0.148814;,
       0.011516;-0.038353; 0.145719;,
       0.011516;-0.025020; 0.145719;,
       0.006826;-0.032797; 0.148814;,
       0.003005;-0.028976; 0.148814;,
       0.003902;-0.018778; 0.145719;,
      -0.003296;-0.018778; 0.145719;,
      -0.002399;-0.028976; 0.148814;,
      -0.006221;-0.032797; 0.148814;,
      -0.011037;-0.025020; 0.145719;,
      -0.011037;-0.038353; 0.145719;,
      -0.006221;-0.038202; 0.148814;,
       0.011623;-0.015898; 0.003149;,
       0.011316;-0.015848; 0.018049;,
       0.011316;-0.015869; 0.051200;,
       0.011316;-0.012338; 0.084222;,
       0.011623;-0.020940; 0.089312;,
       0.011516;-0.025020; 0.145719;,
       0.011516;-0.038353; 0.145719;,
       0.011623;-0.036834; 0.014684;,
       0.011623;-0.018275;-0.000112;,
       0.011623;-0.016990;-0.000112;,
       0.003902;-0.018778; 0.145719;,
       0.003902;-0.017341; 0.117579;,
      -0.003296;-0.017341; 0.117579;,
      -0.003296;-0.018778; 0.145719;,
       0.003902;-0.017341; 0.117579;,
       0.004992;-0.011193; 0.095235;,
      -0.004386;-0.011193; 0.095235;,
      -0.003296;-0.017341; 0.117579;,
       0.004992;-0.011193; 0.095235;,
       0.003902;-0.017341; 0.117579;,
       0.003902;-0.018778; 0.145719;,
       0.011516;-0.025020; 0.145719;,
       0.011623;-0.020940; 0.089312;,
       0.004992;-0.010903; 0.087242;,
       0.003152;-0.010488; 0.062534;,
       0.003152;-0.003051; 0.062793;,
      -0.002856;-0.003051; 0.062793;,
      -0.002856;-0.010488; 0.062534;,
      -0.002856;-0.010488; 0.062534;,
      -0.002856;-0.003051; 0.062793;,
      -0.002856;-0.003051; 0.058513;,
      -0.002856;-0.010488; 0.056928;,
       0.011623;-0.036834; 0.014684;,
       0.004992;-0.043465; 0.014684;,
       0.004992;-0.037190; 0.009545;,
       0.004992;-0.027300; 0.004413;,
       0.004992;-0.022785;-0.000112;,
       0.011623;-0.018275;-0.000112;,
      -0.011021;-0.012338; 0.084222;,
      -0.002856;-0.010488; 0.062534;,
      -0.002856;-0.010488; 0.056928;,
      -0.011021;-0.015869; 0.051200;,
       0.003152;-0.003051; 0.058513;,
       0.003152; 0.003339; 0.066710;,
       0.003152; 0.002107; 0.069352;,
       0.003152;-0.003051; 0.062793;,
       0.011623;-0.020940; 0.089312;,
       0.011316;-0.012338; 0.084222;,
       0.004992;-0.010903; 0.087242;,
      -0.004386;-0.010903; 0.087242;,
      -0.011021;-0.012338; 0.084222;,
      -0.011017;-0.020940; 0.089312;,
       0.003902;-0.043443; 0.145719;,
      -0.003296;-0.043443; 0.145719;,
      -0.004386;-0.043465; 0.014684;,
       0.004992;-0.043465; 0.014684;,
       0.011316;-0.015869; 0.051200;,
       0.003152;-0.010488; 0.056928;,
       0.003152;-0.010488; 0.062534;,
       0.011316;-0.012338; 0.084222;,
       0.011516;-0.038353; 0.145719;,
       0.003902;-0.043443; 0.145719;,
       0.004992;-0.043465; 0.014684;,
       0.011623;-0.036834; 0.014684;,
       0.003671;-0.010329; 0.011964;,
       0.003451;-0.006418; 0.013068;,
       0.008243;-0.009904; 0.016705;,
       0.011316;-0.014504; 0.018049;,
       0.011316;-0.015848; 0.018049;,
       0.003699;-0.011668; 0.009235;,
      -0.003296;-0.043443; 0.145719;,
      -0.011037;-0.038353; 0.145719;,
      -0.011017;-0.036834; 0.014684;,
      -0.004386;-0.043465; 0.014684;,
      -0.002916;-0.015468; 0.000879;,
      -0.011017;-0.015898; 0.003149;,
      -0.011021;-0.015848; 0.018049;,
      -0.003428;-0.011668; 0.009235;,
       0.011623;-0.016990;-0.000112;,
      -0.011017;-0.016990;-0.000112;,
      -0.011017;-0.015898; 0.003149;,
      -0.002916;-0.015468; 0.000879;,
       0.002332;-0.015468; 0.000879;,
       0.011623;-0.015898; 0.003149;,
       0.011316; 0.007399; 0.049178;,
       0.011316;-0.009863; 0.051200;,
       0.011316;-0.015869; 0.051200;,
       0.011316;-0.015848; 0.018049;,
       0.011316;-0.014504; 0.018049;,
       0.011316; 0.007399; 0.018296;,
       0.011316; 0.054612; 0.016814;,
       0.011316; 0.054612; 0.039287;,
      -0.004386;-0.043465; 0.014684;,
      -0.004386;-0.037190; 0.009545;,
       0.004992;-0.037190; 0.009545;,
       0.004992;-0.043465; 0.014684;,
       0.007601;-0.007967; 0.051563;,
       0.011316;-0.009863; 0.051200;,
       0.011316; 0.007399; 0.049178;,
       0.007639; 0.015313; 0.049542;,
       0.004992; 0.012059; 0.051898;,
       0.004992; 0.007834; 0.052032;,
      -0.004386;-0.027300; 0.004413;,
      -0.004386;-0.034632; 0.001849;,
      -0.004386;-0.037219; 0.003973;,
      -0.004386;-0.037190; 0.009545;,
      -0.004386;-0.027300; 0.004413;,
      -0.004386;-0.037190; 0.009545;,
      -0.004386;-0.043465; 0.014684;,
      -0.011017;-0.036834; 0.014684;,
      -0.011017;-0.018275;-0.000112;,
      -0.004386;-0.022785;-0.000112;,
      -0.004386;-0.027300; 0.004413;,
      -0.004386;-0.022785;-0.000112;,
       0.004992;-0.022785;-0.000112;,
       0.004992;-0.027300; 0.004413;,
      -0.007973; 0.040441; 0.004552;,
      -0.007973; 0.055042; 0.005927;,
       0.008269; 0.055042; 0.005927;,
       0.008269; 0.040441; 0.004552;,
      -0.011021;-0.015869; 0.051200;,
      -0.011021;-0.009863; 0.051200;,
      -0.011021; 0.007399; 0.049178;,
      -0.011021; 0.054612; 0.039287;,
      -0.011021; 0.054612; 0.016814;,
      -0.011021; 0.007399; 0.018296;,
      -0.011021;-0.014504; 0.018049;,
      -0.011021;-0.015848; 0.018049;,
       0.011316; 0.054612; 0.039287;,
       0.009399; 0.054924; 0.039062;,
       0.007417; 0.055018; 0.043100;,
       0.007715; 0.054710; 0.045980;,
      -0.011021; 0.007399; 0.018296;,
      -0.007967; 0.008767; 0.009564;,
      -0.007948;-0.009904; 0.016705;,
      -0.011021;-0.014504; 0.018049;,
      -0.011037;-0.025020; 0.145719;,
      -0.003296;-0.018778; 0.145719;,
      -0.003296;-0.017341; 0.117579;,
      -0.004386;-0.011193; 0.095235;,
      -0.004386;-0.010903; 0.087242;,
      -0.011017;-0.020940; 0.089312;,
       0.011316; 0.007399; 0.018296;,
       0.008262; 0.008767; 0.009564;,
       0.008269; 0.040441; 0.004552;,
       0.008269; 0.055042; 0.005927;,
       0.011316; 0.054612; 0.016814;,
       0.008262; 0.008767; 0.009564;,
       0.011316; 0.007399; 0.018296;,
       0.011316;-0.014504; 0.018049;,
       0.008243;-0.009904; 0.016705;,
      -0.003331;-0.010329; 0.011964;,
      -0.003428;-0.011668; 0.009235;,
      -0.011021;-0.015848; 0.018049;,
      -0.011021;-0.014504; 0.018049;,
      -0.007948;-0.009904; 0.016705;,
      -0.002951;-0.006418; 0.013068;,
       0.011316; 0.054612; 0.016814;,
       0.008269; 0.055042; 0.005927;,
      -0.007973; 0.055042; 0.005927;,
      -0.011021; 0.054612; 0.016814;,
      -0.007967; 0.008767; 0.009564;,
      -0.011021; 0.007399; 0.018296;,
      -0.011021; 0.054612; 0.016814;,
      -0.007973; 0.055042; 0.005927;,
      -0.007973; 0.040441; 0.004552;,
      -0.007343; 0.015313; 0.049542;,
      -0.004386; 0.012059; 0.051898;,
       0.004992; 0.012059; 0.051898;,
       0.007639; 0.015313; 0.049542;,
       0.011316; 0.007399; 0.049178;,
       0.011316; 0.054612; 0.039287;,
       0.007715; 0.054710; 0.045980;,
       0.007639; 0.015313; 0.049542;,
       0.003152;-0.010488; 0.056928;,
       0.003152;-0.003051; 0.058513;,
       0.003152;-0.003051; 0.062793;,
       0.003152;-0.010488; 0.062534;,
      -0.007420; 0.054710; 0.045980;,
      -0.007121; 0.055018; 0.043100;,
      -0.008793; 0.054924; 0.039062;,
      -0.011021; 0.054612; 0.039287;,
      -0.007343; 0.015313; 0.049542;,
      -0.007420; 0.054710; 0.045980;,
      -0.011021; 0.054612; 0.039287;,
      -0.011021; 0.007399; 0.049178;,
      -0.007948;-0.009904; 0.016705;,
      -0.007967; 0.008767; 0.009564;,
       0.008262; 0.008767; 0.009564;,
       0.008243;-0.009904; 0.016705;,
       0.003451;-0.006418; 0.013068;,
      -0.002951;-0.006418; 0.013068;,
      -0.004386;-0.037219; 0.003973;,
      -0.004386;-0.034632; 0.001849;,
       0.004992;-0.034632; 0.001849;,
       0.004992;-0.037219; 0.003973;,
       0.004992;-0.027300; 0.004413;,
       0.004992;-0.034632; 0.001849;,
      -0.004386;-0.034632; 0.001849;,
      -0.004386;-0.027300; 0.004413;,
       0.004992;-0.037190; 0.009545;,
       0.004992;-0.037219; 0.003973;,
       0.004992;-0.034632; 0.001849;,
       0.004992;-0.027300; 0.004413;,
      -0.004386;-0.037190; 0.009545;,
      -0.004386;-0.037219; 0.003973;,
       0.004992;-0.037219; 0.003973;,
       0.004992;-0.037190; 0.009545;,
      -0.008793; 0.098788; 0.038915;,
      -0.009966; 0.102340; 0.038903;,
      -0.009966; 0.102340; 0.017416;,
      -0.008793; 0.098788; 0.018752;,
      -0.007121; 0.055018; 0.043100;,
      -0.007121; 0.098882; 0.042953;,
      -0.008793; 0.098788; 0.038915;,
      -0.008793; 0.054924; 0.039062;,
       0.011316; 0.054612; 0.016814;,
       0.009399; 0.054924; 0.018899;,
       0.009399; 0.054924; 0.039062;,
       0.011316; 0.054612; 0.039287;,
       0.007715; 0.054710; 0.045980;,
       0.007417; 0.055018; 0.043100;,
      -0.007121; 0.055018; 0.043100;,
      -0.007420; 0.054710; 0.045980;,
      -0.011021; 0.054612; 0.016814;,
      -0.008793; 0.054924; 0.018899;,
       0.009399; 0.054924; 0.018899;,
       0.011316; 0.054612; 0.016814;,
      -0.011021; 0.054612; 0.039287;,
      -0.008793; 0.054924; 0.039062;,
      -0.008793; 0.054924; 0.018899;,
      -0.011021; 0.054612; 0.016814;,
       0.009399; 0.054924; 0.018899;,
       0.009399; 0.098788; 0.018752;,
       0.009399; 0.098788; 0.038915;,
       0.009399; 0.054924; 0.039062;,
       0.009399; 0.054924; 0.039062;,
       0.009399; 0.098788; 0.038915;,
       0.007417; 0.098882; 0.042953;,
       0.007417; 0.055018; 0.043100;,
      -0.008793; 0.054924; 0.039062;,
      -0.008793; 0.098788; 0.038915;,
      -0.008793; 0.098788; 0.018752;,
      -0.008793; 0.054924; 0.018899;,
       0.007417; 0.055018; 0.043100;,
       0.007417; 0.098882; 0.042953;,
      -0.007121; 0.098882; 0.042953;,
      -0.007121; 0.055018; 0.043100;,
      -0.008793; 0.054924; 0.018899;,
      -0.008793; 0.098788; 0.018752;,
       0.009399; 0.098788; 0.018752;,
       0.009399; 0.054924; 0.018899;,
       0.010388; 0.102340; 0.017416;,
       0.010388; 0.105266; 0.017407;,
       0.010388; 0.105266; 0.038893;,
       0.010388; 0.102340; 0.038903;,
      -0.007121; 0.098882; 0.042953;,
      -0.007121; 0.102434; 0.045909;,
      -0.009966; 0.102340; 0.038903;,
      -0.008793; 0.098788; 0.038915;,
       0.009399; 0.098788; 0.038915;,
       0.010388; 0.102340; 0.038903;,
       0.007417; 0.102434; 0.045909;,
       0.007417; 0.098882; 0.042953;,
       0.009399; 0.098788; 0.018752;,
       0.010388; 0.102340; 0.017416;,
       0.010388; 0.102340; 0.038903;,
       0.009399; 0.098788; 0.038915;,
      -0.008793; 0.098788; 0.018752;,
      -0.009966; 0.102340; 0.017416;,
       0.010388; 0.102340; 0.017416;,
       0.009399; 0.098788; 0.018752;,
       0.007417; 0.098882; 0.042953;,
       0.007417; 0.102434; 0.045909;,
      -0.007121; 0.102434; 0.045909;,
      -0.007121; 0.098882; 0.042953;,
       0.007417; 0.105360; 0.045899;,
       0.010388; 0.105266; 0.038893;,
       0.010388; 0.105266; 0.017407;,
      -0.009966; 0.105266; 0.017407;,
      -0.009966; 0.105266; 0.038893;,
      -0.007121; 0.105360; 0.045899;,
       0.007417; 0.102434; 0.045909;,
       0.007417; 0.105360; 0.045899;,
      -0.007121; 0.105360; 0.045899;,
      -0.007121; 0.102434; 0.045909;,
      -0.009966; 0.102340; 0.017416;,
      -0.009966; 0.105266; 0.017407;,
       0.010388; 0.105266; 0.017407;,
       0.010388; 0.102340; 0.017416;,
      -0.009966; 0.102340; 0.038903;,
      -0.009966; 0.105266; 0.038893;,
      -0.009966; 0.105266; 0.017407;,
      -0.009966; 0.102340; 0.017416;,
      -0.007121; 0.102434; 0.045909;,
      -0.007121; 0.105360; 0.045899;,
      -0.009966; 0.105266; 0.038893;,
      -0.009966; 0.102340; 0.038903;,
       0.010388; 0.102340; 0.038903;,
       0.010388; 0.105266; 0.038893;,
       0.007417; 0.105360; 0.045899;,
       0.007417; 0.102434; 0.045909;,
       0.004992;-0.011193; 0.095235;,
       0.004992;-0.010903; 0.087242;,
       0.004992; 0.006214; 0.085021;,
       0.004992; 0.009710; 0.087435;,
      -0.004386;-0.011193; 0.095235;,
      -0.004386; 0.009710; 0.087435;,
      -0.004386; 0.006214; 0.085021;,
      -0.004386;-0.010903; 0.087242;,
       0.004992;-0.010903; 0.087242;,
      -0.004386;-0.010903; 0.087242;,
      -0.004386; 0.006214; 0.085021;,
       0.004992; 0.006214; 0.085021;,
       0.004992; 0.006214; 0.085021;,
       0.004992; 0.008339; 0.078567;,
       0.004992; 0.012717; 0.079972;,
       0.004992; 0.009710; 0.087435;,
      -0.004386; 0.012717; 0.079972;,
      -0.004386; 0.012059; 0.051898;,
      -0.004386; 0.007834; 0.052032;,
      -0.004386; 0.008339; 0.078567;,
      -0.004386; 0.006214; 0.085021;,
      -0.004386; 0.008339; 0.078567;,
       0.004992; 0.008339; 0.078567;,
       0.004992; 0.006214; 0.085021;,
      -0.004386; 0.009710; 0.087435;,
      -0.004386; 0.012717; 0.079972;,
      -0.004386; 0.008339; 0.078567;,
      -0.004386; 0.006214; 0.085021;,
       0.004992; 0.009710; 0.087435;,
       0.004992; 0.012717; 0.079972;,
      -0.004386; 0.012717; 0.079972;,
      -0.004386; 0.009710; 0.087435;,
       0.004992; 0.012717; 0.079972;,
       0.004992; 0.012059; 0.051898;,
      -0.004386; 0.012059; 0.051898;,
      -0.004386; 0.012717; 0.079972;,
       0.004992; 0.008339; 0.078567;,
       0.004992; 0.007834; 0.052032;,
       0.004992; 0.012059; 0.051898;,
       0.004992; 0.012717; 0.079972;,
      -0.004386; 0.008339; 0.078567;,
      -0.004386; 0.007834; 0.052032;,
       0.004992; 0.007834; 0.052032;,
       0.004992; 0.008339; 0.078567;,
      -0.007305;-0.007967; 0.051563;,
       0.007601;-0.007967; 0.051563;,
       0.004992; 0.007834; 0.052032;,
      -0.004386; 0.007834; 0.052032;,
      -0.002856;-0.010488; 0.056928;,
      -0.002856;-0.003051; 0.058513;,
       0.003152;-0.003051; 0.058513;,
       0.003152;-0.010488; 0.056928;,
       0.003152; 0.002107; 0.069352;,
       0.003152; 0.003339; 0.066710;,
      -0.002856; 0.003339; 0.066710;,
      -0.002856; 0.002107; 0.069352;,
      -0.002856;-0.003051; 0.058513;,
      -0.002856; 0.003339; 0.066710;,
       0.003152; 0.003339; 0.066710;,
       0.003152;-0.003051; 0.058513;,
       0.003152;-0.003051; 0.062793;,
       0.003152; 0.002107; 0.069352;,
      -0.002856; 0.002107; 0.069352;,
      -0.002856;-0.003051; 0.062793;,
      -0.002856;-0.003051; 0.062793;,
      -0.002856; 0.002107; 0.069352;,
      -0.002856; 0.003339; 0.066710;,
      -0.002856;-0.003051; 0.058513;,
       0.003902;-0.043443; 0.145719;,
       0.002770;-0.047036; 0.146676;,
      -0.002134;-0.047036; 0.146676;,
      -0.003296;-0.043443; 0.145719;,
      -0.002399;-0.042023; 0.148814;,
      -0.001237;-0.046981; 0.148120;,
       0.001873;-0.046981; 0.148120;,
       0.003005;-0.042023; 0.148814;,
      -0.001237;-0.046981; 0.148120;,
      -0.002134;-0.047036; 0.146676;,
       0.002770;-0.047036; 0.146676;,
       0.001873;-0.046981; 0.148120;,
       0.003005;-0.042023; 0.148814;,
       0.003005;-0.042023; 0.150050;,
      -0.002399;-0.042023; 0.150050;,
      -0.002399;-0.042023; 0.148814;,
       0.003671;-0.010329; 0.011964;,
      -0.003331;-0.010329; 0.011964;,
      -0.002951;-0.006418; 0.013068;,
       0.003451;-0.006418; 0.013068;,
      -0.003331;-0.010329; 0.011964;,
       0.003671;-0.010329; 0.011964;,
       0.003699;-0.011668; 0.009235;,
       0.002332;-0.015468; 0.000879;,
      -0.002916;-0.015468; 0.000879;,
      -0.003428;-0.011668; 0.009235;,
      -0.011017;-0.036834; 0.014684;,
      -0.011037;-0.038353; 0.145719;,
      -0.011037;-0.025020; 0.145719;,
      -0.011017;-0.020940; 0.089312;,
      -0.011021;-0.012338; 0.084222;,
      -0.011021;-0.015869; 0.051200;,
      -0.011021;-0.015848; 0.018049;,
      -0.011017;-0.015898; 0.003149;,
      -0.011017;-0.016990;-0.000112;,
      -0.011017;-0.018275;-0.000112;,
       0.003699;-0.011668; 0.009235;,
       0.011316;-0.015848; 0.018049;,
       0.011623;-0.015898; 0.003149;,
       0.002332;-0.015468; 0.000879;,
       0.003152;-0.010488; 0.056928;,
       0.011316;-0.015869; 0.051200;,
       0.011316;-0.009863; 0.051200;,
       0.007601;-0.007967; 0.051563;,
      -0.007343; 0.015313; 0.049542;,
      -0.011021; 0.007399; 0.049178;,
      -0.011021;-0.009863; 0.051200;,
      -0.007305;-0.007967; 0.051563;,
      -0.004386; 0.007834; 0.052032;,
      -0.004386; 0.012059; 0.051898;,
       0.003152;-0.010488; 0.056928;,
       0.007601;-0.007967; 0.051563;,
      -0.007305;-0.007967; 0.051563;,
      -0.002856;-0.010488; 0.056928;,
       0.005892;-0.037815; 0.150386;,
       0.000803;-0.035707; 0.131547;,
       0.000510;-0.036000; 0.131547;,
       0.002618;-0.041089; 0.150386;,
      -0.002399;-0.028976; 0.150050;,
      -0.002012;-0.029910; 0.150386;,
       0.002618;-0.029910; 0.150386;,
       0.003005;-0.028976; 0.150050;,
       0.006826;-0.032797; 0.150050;,
       0.005892;-0.033184; 0.150386;,
       0.005892;-0.037815; 0.150386;,
       0.006826;-0.038202; 0.150050;,
       0.006826;-0.038202; 0.150050;,
       0.005892;-0.037815; 0.150386;,
       0.002618;-0.041089; 0.150386;,
       0.003005;-0.042023; 0.150050;,
      -0.002399;-0.042023; 0.150050;,
      -0.002012;-0.041089; 0.150386;,
      -0.005286;-0.037815; 0.150386;,
      -0.006221;-0.038202; 0.150050;,
      -0.006221;-0.032797; 0.150050;,
      -0.005286;-0.033184; 0.150386;,
      -0.002012;-0.029910; 0.150386;,
      -0.002399;-0.028976; 0.150050;,
       0.003005;-0.028976; 0.150050;,
       0.002618;-0.029910; 0.150386;,
       0.005892;-0.033184; 0.150386;,
       0.006826;-0.032797; 0.150050;,
       0.003005;-0.042023; 0.150050;,
       0.002618;-0.041089; 0.150386;,
      -0.002012;-0.041089; 0.150386;,
      -0.002399;-0.042023; 0.150050;,
       0.000510;-0.036000; 0.131547;,
       0.000803;-0.035707; 0.131547;,
       0.000803;-0.035292; 0.131547;,
       0.000510;-0.035000; 0.131547;,
       0.000096;-0.035000; 0.131547;,
      -0.000197;-0.035292; 0.131547;,
      -0.000197;-0.035707; 0.131547;,
       0.000096;-0.036000; 0.131547;,
      -0.002012;-0.041089; 0.150386;,
       0.000096;-0.036000; 0.131547;,
      -0.000197;-0.035707; 0.131547;,
      -0.005286;-0.037815; 0.150386;,
      -0.005286;-0.033184; 0.150386;,
      -0.000197;-0.035292; 0.131547;,
       0.000096;-0.035000; 0.131547;,
      -0.002012;-0.029910; 0.150386;,
       0.002618;-0.029910; 0.150386;,
       0.000510;-0.035000; 0.131547;,
       0.000803;-0.035292; 0.131547;,
       0.005892;-0.033184; 0.150386;,
       0.002618;-0.041089; 0.150386;,
       0.000510;-0.036000; 0.131547;,
       0.000096;-0.036000; 0.131547;,
      -0.002012;-0.041089; 0.150386;,
      -0.005286;-0.037815; 0.150386;,
      -0.000197;-0.035707; 0.131547;,
      -0.000197;-0.035292; 0.131547;,
      -0.005286;-0.033184; 0.150386;,
      -0.002012;-0.029910; 0.150386;,
       0.000096;-0.035000; 0.131547;,
       0.000510;-0.035000; 0.131547;,
       0.002618;-0.029910; 0.150386;,
       0.005892;-0.033184; 0.150386;,
       0.000803;-0.035292; 0.131547;,
       0.000803;-0.035707; 0.131547;,
       0.005892;-0.037815; 0.150386;,
      -0.011017;-0.018275;-0.000112;,
      -0.011017;-0.016990;-0.000112;,
       0.011623;-0.016990;-0.000112;,
       0.011623;-0.018275;-0.000112;,
       0.004992;-0.022785;-0.000112;,
      -0.004386;-0.022785;-0.000112;,
       0.008269; 0.040441; 0.004552;,
       0.008262; 0.008767; 0.009564;,
      -0.007967; 0.008767; 0.009564;,
      -0.007973; 0.040441; 0.004552;,
      -0.011021;-0.009863; 0.051200;,
      -0.011021;-0.015869; 0.051200;,
      -0.002856;-0.010488; 0.056928;,
      -0.007305;-0.007967; 0.051563;,
      -0.004386;-0.011193; 0.095235;,
       0.004992;-0.011193; 0.095235;,
       0.004992; 0.009710; 0.087435;,
      -0.004386; 0.009710; 0.087435;,
       0.007639; 0.015313; 0.049542;,
       0.007715; 0.054710; 0.045980;,
      -0.007420; 0.054710; 0.045980;,
      -0.007343; 0.015313; 0.049542;;
      134;
      4;3,2,1,0;,
      4;7,6,5,4;,
      4;11,10,9,8;,
      4;15,14,13,12;,
      4;19,18,17,16;,
      4;23,22,21,20;,
      4;27,26,25,24;,
      4;31,30,29,28;,
      4;35,34,33,32;,
      4;39,38,37,36;,
      6;45,44,43,42,41,40;,
      4;49,48,47,46;,
      4;53,52,51,50;,
      4;57,56,55,54;,
      4;61,60,59,58;,
      4;65,64,63,62;,
      4;69,68,67,66;,
      4;73,72,71,70;,
      10;83,82,81,80,79,78,77,76,75,74;,
      4;87,86,85,84;,
      4;91,90,89,88;,
      6;97,96,95,94,93,92;,
      4;101,100,99,98;,
      4;105,104,103,102;,
      6;111,110,109,108,107,106;,
      4;115,114,113,112;,
      4;119,118,117,116;,
      3;122,121,120;,
      3;125,124,123;,
      4;129,128,127,126;,
      4;133,132,131,130;,
      4;137,136,135,134;,
      6;143,142,141,140,139,138;,
      4;147,146,145,144;,
      4;151,150,149,148;,
      6;157,156,155,154,153,152;,
      8;165,164,163,162,161,160,159,158;,
      4;169,168,167,166;,
      6;175,174,173,172,171,170;,
      4;179,178,177,176;,
      6;185,184,183,182,181,180;,
      4;189,188,187,186;,
      4;193,192,191,190;,
      8;201,200,199,198,197,196,195,194;,
      4;205,204,203,202;,
      4;209,208,207,206;,
      6;215,214,213,212,211,210;,
      5;220,219,218,217,216;,
      4;224,223,222,221;,
      6;230,229,228,227,226,225;,
      4;234,233,232,231;,
      5;239,238,237,236,235;,
      4;243,242,241,240;,
      4;247,246,245,244;,
      4;251,250,249,248;,
      4;255,254,253,252;,
      4;259,258,257,256;,
      6;265,264,263,262,261,260;,
      4;269,268,267,266;,
      4;273,272,271,270;,
      4;277,276,275,274;,
      4;281,280,279,278;,
      4;285,284,283,282;,
      4;289,288,287,286;,
      4;293,292,291,290;,
      4;297,296,295,294;,
      4;301,300,299,298;,
      4;305,304,303,302;,
      4;309,308,307,306;,
      4;313,312,311,310;,
      4;317,316,315,314;,
      4;321,320,319,318;,
      4;325,324,323,322;,
      4;329,328,327,326;,
      4;333,332,331,330;,
      4;337,336,335,334;,
      4;341,340,339,338;,
      4;345,344,343,342;,
      4;349,348,347,346;,
      6;355,354,353,352,351,350;,
      4;359,358,357,356;,
      4;363,362,361,360;,
      4;367,366,365,364;,
      4;371,370,369,368;,
      4;375,374,373,372;,
      4;379,378,377,376;,
      4;383,382,381,380;,
      4;387,386,385,384;,
      4;391,390,389,388;,
      4;395,394,393,392;,
      4;399,398,397,396;,
      4;403,402,401,400;,
      4;407,406,405,404;,
      4;411,410,409,408;,
      4;415,414,413,412;,
      4;419,418,417,416;,
      4;423,422,421,420;,
      4;427,426,425,424;,
      4;431,430,429,428;,
      4;435,434,433,432;,
      4;439,438,437,436;,
      4;443,442,441,440;,
      4;447,446,445,444;,
      4;451,450,449,448;,
      4;455,454,453,452;,
      4;459,458,457,456;,
      4;463,462,461,460;,
      6;469,468,467,466,465,464;,
      10;479,478,477,476,475,474,473,472,471,470;,
      4;483,482,481,480;,
      4;487,486,485,484;,
      6;493,492,491,490,489,488;,
      4;497,496,495,494;,
      4;501,500,499,498;,
      4;505,504,503,502;,
      4;509,508,507,506;,
      4;513,512,511,510;,
      4;517,516,515,514;,
      4;521,520,519,518;,
      4;525,524,523,522;,
      4;529,528,527,526;,
      8;537,536,535,534,533,532,531,530;,
      4;541,540,539,538;,
      4;545,544,543,542;,
      4;549,548,547,546;,
      4;553,552,551,550;,
      4;557,556,555,554;,
      4;561,560,559,558;,
      4;565,564,563,562;,
      6;571,570,569,568,567,566;,
      4;575,574,573,572;,
      4;579,578,577,576;,
      4;583,582,581,580;,
      4;587,586,585,584;;
      MeshNormals { // Cylinder normals
        588;
        -0.783776;-0.423048; 0.454604;,
        -0.785852;-0.325510; 0.525742;,
        -0.785852; 0.325510; 0.525742;,
        -0.762230; 0.255654; 0.594623;,
        -0.292550; 0.680074; 0.672201;,
        -0.325510; 0.785852; 0.525742;,
         0.325510; 0.785852; 0.525742;,
         0.293649; 0.680074; 0.671743;,
        -0.579730;-0.811304; 0.075350;,
        -0.614582;-0.705161;-0.353526;,
        -0.352245;-0.686514; 0.636067;,
        -0.498520;-0.718802; 0.484512;,
         0.766259; 0.254738; 0.589831;,
         0.785852; 0.325510; 0.525742;,
         0.785852;-0.325510; 0.525742;,
         0.787103;-0.421918; 0.449873;,
         0.787103;-0.421918; 0.449873;,
         0.785852;-0.325510; 0.525742;,
         0.325510;-0.785852; 0.525742;,
         0.500290;-0.718009; 0.483871;,
        -0.498520;-0.718802; 0.484512;,
        -0.325510;-0.785852; 0.525742;,
        -0.785852;-0.325510; 0.525742;,
        -0.783776;-0.423048; 0.454604;,
        -0.762230; 0.255654; 0.594623;,
        -0.785852; 0.325510; 0.525742;,
        -0.325510; 0.785852; 0.525742;,
        -0.292550; 0.680074; 0.672201;,
         0.293649; 0.680074; 0.671743;,
         0.325510; 0.785852; 0.525742;,
         0.785852; 0.325510; 0.525742;,
         0.766259; 0.254738; 0.589831;,
        -0.785852;-0.325510; 0.525742;,
         0.278359; 0.115299; 0.953520;,
         0.278359;-0.115299; 0.953520;,
        -0.785852; 0.325510; 0.525742;,
         0.500290;-0.718009; 0.483871;,
         0.354503;-0.685598; 0.635823;,
         0.617206;-0.702872;-0.353526;,
         0.583087;-0.809168; 0.072237;,
         0.623920; 0.769097;-0.138340;,
         0.700674; 0.656728; 0.278726;,
         0.540056; 0.802393; 0.253914;,
        -0.540056; 0.802393; 0.253914;,
        -0.702200; 0.653157; 0.283334;,
        -0.620167; 0.772576;-0.135990;,
         0.766259; 0.254738; 0.589831;,
         0.783654; 0.349071; 0.513810;,
         0.300974; 0.759758; 0.576312;,
         0.293649; 0.680074; 0.671743;,
        -0.292550; 0.680074; 0.672201;,
        -0.299142; 0.759972; 0.576983;,
        -0.783746; 0.347636; 0.514664;,
        -0.762230; 0.255654; 0.594623;,
        -0.783776;-0.423048; 0.454604;,
        -0.835322;-0.382427; 0.394910;,
        -0.579730;-0.811304; 0.075350;,
        -0.498520;-0.718802; 0.484512;,
         0.500290;-0.718009; 0.483871;,
         0.583087;-0.809168; 0.072237;,
         0.838221;-0.379162; 0.391858;,
         0.787103;-0.421918; 0.449873;,
         0.787103;-0.421918; 0.449873;,
         0.838221;-0.379162; 0.391858;,
         0.783654; 0.349071; 0.513810;,
         0.766259; 0.254738; 0.589831;,
         0.293649; 0.680074; 0.671743;,
         0.300974; 0.759758; 0.576312;,
        -0.299142; 0.759972; 0.576983;,
        -0.292550; 0.680074; 0.672201;,
        -0.762230; 0.255654; 0.594623;,
        -0.783746; 0.347636; 0.514664;,
        -0.835322;-0.382427; 0.394910;,
        -0.783776;-0.423048; 0.454604;,
         0.759239; 0.604633;-0.240699;,
         0.969726; 0.196783;-0.144444;,
         0.971648; 0.193487; 0.135746;,
         0.700674; 0.656728; 0.278726;,
         0.909635; 0.386853; 0.151311;,
         0.783654; 0.349071; 0.513810;,
         0.838221;-0.379162; 0.391858;,
         0.828639;-0.467635;-0.307627;,
         0.698202;-0.138951;-0.702261;,
         0.559526; 0.379254;-0.736930;,
         0.300974; 0.759758; 0.576312;,
         0.361888; 0.922758; 0.132359;,
        -0.360027; 0.923521; 0.131932;,
        -0.299142; 0.759972; 0.576983;,
         0.361888; 0.922758; 0.132359;,
         0.572314; 0.728324; 0.376751;,
        -0.570696; 0.729789; 0.376415;,
        -0.360027; 0.923521; 0.131932;,
         0.572314; 0.728324; 0.376751;,
         0.361888; 0.922758; 0.132359;,
         0.300974; 0.759758; 0.576312;,
         0.783654; 0.349071; 0.513810;,
         0.909635; 0.386853; 0.151311;,
         0.623920; 0.769097;-0.138340;,
         0.540056; 0.802393; 0.253914;,
         0.815241;-0.262032; 0.516404;,
        -0.815241;-0.262032; 0.516404;,
        -0.540056; 0.802393; 0.253914;,
        -0.540056; 0.802393; 0.253914;,
        -0.815241;-0.262032; 0.516404;,
        -0.637562; 0.408734;-0.652974;,
        -0.542772; 0.839778;-0.010315;,
         0.828639;-0.467635;-0.307627;,
         0.289865;-0.873501;-0.391095;,
         0.406720;-0.714011;-0.569842;,
         0.371960;-0.388012;-0.843257;,
         0.153264;-0.390667;-0.907651;,
         0.698202;-0.138951;-0.702261;,
        -0.702200; 0.653157; 0.283334;,
        -0.540056; 0.802393; 0.253914;,
        -0.542772; 0.839778;-0.010315;,
        -0.972381; 0.189947; 0.135441;,
         0.637562; 0.408734;-0.652974;,
         0.606311; 0.790124;-0.089633;,
         0.556627; 0.095370; 0.825251;,
         0.815241;-0.262032; 0.516404;,
         0.909635; 0.386853; 0.151311;,
         0.700674; 0.656728; 0.278726;,
         0.623920; 0.769097;-0.138340;,
        -0.620167; 0.772576;-0.135990;,
        -0.702200; 0.653157; 0.283334;,
        -0.908719; 0.386273; 0.158055;,
         0.583087;-0.809168; 0.072237;,
        -0.579730;-0.811304; 0.075350;,
        -0.288675;-0.873928;-0.391003;,
         0.289865;-0.873501;-0.391095;,
         0.971648; 0.193487; 0.135746;,
         0.542772; 0.839778;-0.010315;,
         0.540056; 0.802393; 0.253914;,
         0.700674; 0.656728; 0.278726;,
         0.838221;-0.379162; 0.391858;,
         0.583087;-0.809168; 0.072237;,
         0.289865;-0.873501;-0.391095;,
         0.828639;-0.467635;-0.307627;,
         0.349620; 0.565264;-0.747124;,
         0.183721; 0.048616;-0.981750;,
         0.718558; 0.084292;-0.690329;,
         0.936216; 0.142247;-0.321299;,
         0.969726; 0.196783;-0.144444;,
         0.268319; 0.880184;-0.391430;,
        -0.579730;-0.811304; 0.075350;,
        -0.835322;-0.382427; 0.394910;,
        -0.826624;-0.471114;-0.307688;,
        -0.288675;-0.873928;-0.391003;,
        -0.087283; 0.884243;-0.458785;,
        -0.765862; 0.598895;-0.233955;,
        -0.971160; 0.191137;-0.142491;,
        -0.272103; 0.879055;-0.391369;,
         0.559526; 0.379254;-0.736930;,
        -0.560198; 0.375744;-0.738212;,
        -0.765862; 0.598895;-0.233955;,
        -0.087283; 0.884243;-0.458785;,
         0.077609; 0.882900;-0.463057;,
         0.759239; 0.604633;-0.240699;,
         0.840999; 0.053560; 0.538347;,
         0.856960; 0.102939; 0.504990;,
         0.971648; 0.193487; 0.135746;,
         0.969726; 0.196783;-0.144444;,
         0.936216; 0.142247;-0.321299;,
         0.974853;-0.030457;-0.220649;,
         0.747032; 0.654286;-0.117496;,
         0.744102; 0.627430; 0.229347;,
        -0.288675;-0.873928;-0.391003;,
        -0.406720;-0.714011;-0.569842;,
         0.406720;-0.714011;-0.569842;,
         0.289865;-0.873501;-0.391095;,
         0.319712; 0.239784; 0.916654;,
         0.856960; 0.102939; 0.504990;,
         0.840999; 0.053560; 0.538347;,
         0.414960; 0.186132; 0.890561;,
         0.439711; 0.553758; 0.707083;,
         0.490829;-0.252510; 0.833827;,
        -0.371960;-0.388012;-0.843257;,
        -0.611652;-0.138249;-0.778924;,
        -0.621967;-0.708792;-0.332774;,
        -0.406720;-0.714011;-0.569842;,
        -0.371960;-0.388012;-0.843257;,
        -0.406720;-0.714011;-0.569842;,
        -0.288675;-0.873928;-0.391003;,
        -0.826624;-0.471114;-0.307688;,
        -0.697562;-0.142918;-0.702078;,
        -0.153264;-0.390667;-0.907651;,
        -0.371960;-0.388012;-0.843257;,
        -0.153264;-0.390667;-0.907651;,
         0.153264;-0.390667;-0.907651;,
         0.371960;-0.388012;-0.843257;,
        -0.582263;-0.029389;-0.812433;,
        -0.494278; 0.621113;-0.608142;,
         0.494278; 0.621113;-0.608142;,
         0.582263;-0.029389;-0.812433;,
        -0.972381; 0.189947; 0.135441;,
        -0.855892; 0.103122; 0.506729;,
        -0.838191; 0.053713; 0.542680;,
        -0.739464; 0.633320; 0.228126;,
        -0.746513; 0.655293;-0.115085;,
        -0.974853;-0.030457;-0.220649;,
        -0.935575; 0.147038;-0.320994;,
        -0.971160; 0.191137;-0.142491;,
         0.744102; 0.627430; 0.229347;,
         0.699789; 0.695791; 0.161626;,
         0.353252; 0.792169; 0.497635;,
         0.338816; 0.602161; 0.722892;,
        -0.974853;-0.030457;-0.220649;,
        -0.535600;-0.160161;-0.829127;,
        -0.716208; 0.088260;-0.692251;,
        -0.935575; 0.147038;-0.320994;,
        -0.783746; 0.347636; 0.514664;,
        -0.299142; 0.759972; 0.576983;,
        -0.360027; 0.923521; 0.131932;,
        -0.570696; 0.729789; 0.376415;,
        -0.620167; 0.772576;-0.135990;,
        -0.908719; 0.386273; 0.158055;,
         0.974853;-0.030457;-0.220649;,
         0.535600;-0.160161;-0.829127;,
         0.582263;-0.029389;-0.812433;,
         0.494278; 0.621113;-0.608142;,
         0.747032; 0.654286;-0.117496;,
         0.535600;-0.160161;-0.829127;,
         0.974853;-0.030457;-0.220649;,
         0.936216; 0.142247;-0.321299;,
         0.718558; 0.084292;-0.690329;,
        -0.348186; 0.573504;-0.741508;,
        -0.272103; 0.879055;-0.391369;,
        -0.971160; 0.191137;-0.142491;,
        -0.935575; 0.147038;-0.320994;,
        -0.716208; 0.088260;-0.692251;,
        -0.177770; 0.050264;-0.982757;,
         0.747032; 0.654286;-0.117496;,
         0.494278; 0.621113;-0.608142;,
        -0.494278; 0.621113;-0.608142;,
        -0.746513; 0.655293;-0.115085;,
        -0.535600;-0.160161;-0.829127;,
        -0.974853;-0.030457;-0.220649;,
        -0.746513; 0.655293;-0.115085;,
        -0.494278; 0.621113;-0.608142;,
        -0.582263;-0.029389;-0.812433;,
        -0.415265; 0.181646; 0.891354;,
        -0.431532; 0.557421; 0.709250;,
         0.439711; 0.553758; 0.707083;,
         0.414960; 0.186132; 0.890561;,
         0.840999; 0.053560; 0.538347;,
         0.744102; 0.627430; 0.229347;,
         0.338816; 0.602161; 0.722892;,
         0.414960; 0.186132; 0.890561;,
         0.542772; 0.839778;-0.010315;,
         0.637562; 0.408734;-0.652974;,
         0.815241;-0.262032; 0.516404;,
         0.540056; 0.802393; 0.253914;,
        -0.337870; 0.603290; 0.722373;,
        -0.358196; 0.803400; 0.475600;,
        -0.704764; 0.695120; 0.141636;,
        -0.739464; 0.633320; 0.228126;,
        -0.415265; 0.181646; 0.891354;,
        -0.337870; 0.603290; 0.722373;,
        -0.739464; 0.633320; 0.228126;,
        -0.838191; 0.053713; 0.542680;,
        -0.716208; 0.088260;-0.692251;,
        -0.535600;-0.160161;-0.829127;,
         0.535600;-0.160161;-0.829127;,
         0.718558; 0.084292;-0.690329;,
         0.183721; 0.048616;-0.981750;,
        -0.177770; 0.050264;-0.982757;,
        -0.621967;-0.708792;-0.332774;,
        -0.611652;-0.138249;-0.778924;,
         0.611652;-0.138249;-0.778924;,
         0.621967;-0.708792;-0.332774;,
         0.371960;-0.388012;-0.843257;,
         0.611652;-0.138249;-0.778924;,
        -0.611652;-0.138249;-0.778924;,
        -0.371960;-0.388012;-0.843257;,
         0.406720;-0.714011;-0.569842;,
         0.621967;-0.708792;-0.332774;,
         0.611652;-0.138249;-0.778924;,
         0.371960;-0.388012;-0.843257;,
        -0.406720;-0.714011;-0.569842;,
        -0.621967;-0.708792;-0.332774;,
         0.621967;-0.708792;-0.332774;,
         0.406720;-0.714011;-0.569842;,
        -0.967498;-0.158971; 0.196509;,
        -0.969909;-0.154912; 0.187719;,
        -0.688681;-0.210547;-0.693808;,
        -0.689627;-0.257515;-0.676809;,
        -0.358196; 0.803400; 0.475600;,
        -0.602100;-0.294107; 0.742241;,
        -0.967498;-0.158971; 0.196509;,
        -0.704764; 0.695120; 0.141636;,
         0.747032; 0.654286;-0.117496;,
         0.363506; 0.861263;-0.355022;,
         0.699789; 0.695791; 0.161626;,
         0.744102; 0.627430; 0.229347;,
         0.338816; 0.602161; 0.722892;,
         0.353252; 0.792169; 0.497635;,
        -0.358196; 0.803400; 0.475600;,
        -0.337870; 0.603290; 0.722373;,
        -0.746513; 0.655293;-0.115085;,
        -0.352580; 0.864650;-0.357768;,
         0.363506; 0.861263;-0.355022;,
         0.747032; 0.654286;-0.117496;,
        -0.739464; 0.633320; 0.228126;,
        -0.704764; 0.695120; 0.141636;,
        -0.352580; 0.864650;-0.357768;,
        -0.746513; 0.655293;-0.115085;,
         0.363506; 0.861263;-0.355022;,
         0.700491;-0.238380;-0.672628;,
         0.964629;-0.144749; 0.220191;,
         0.699789; 0.695791; 0.161626;,
         0.699789; 0.695791; 0.161626;,
         0.964629;-0.144749; 0.220191;,
         0.582171;-0.285562; 0.761254;,
         0.353252; 0.792169; 0.497635;,
        -0.704764; 0.695120; 0.141636;,
        -0.967498;-0.158971; 0.196509;,
        -0.689627;-0.257515;-0.676809;,
        -0.352580; 0.864650;-0.357768;,
         0.353252; 0.792169; 0.497635;,
         0.582171;-0.285562; 0.761254;,
        -0.602100;-0.294107; 0.742241;,
        -0.358196; 0.803400; 0.475600;,
        -0.352580; 0.864650;-0.357768;,
        -0.689627;-0.257515;-0.676809;,
         0.700491;-0.238380;-0.672628;,
         0.363506; 0.861263;-0.355022;,
         0.686728;-0.198706;-0.699179;,
         0.576586; 0.575884;-0.579516;,
         0.733177; 0.663839; 0.147374;,
         0.969787;-0.140477; 0.199377;,
        -0.602100;-0.294107; 0.742241;,
        -0.502365;-0.280435; 0.817896;,
        -0.969909;-0.154912; 0.187719;,
        -0.967498;-0.158971; 0.196509;,
         0.964629;-0.144749; 0.220191;,
         0.969787;-0.140477; 0.199377;,
         0.495651;-0.276315; 0.823359;,
         0.582171;-0.285562; 0.761254;,
         0.700491;-0.238380;-0.672628;,
         0.686728;-0.198706;-0.699179;,
         0.969787;-0.140477; 0.199377;,
         0.964629;-0.144749; 0.220191;,
        -0.689627;-0.257515;-0.676809;,
        -0.688681;-0.210547;-0.693808;,
         0.686728;-0.198706;-0.699179;,
         0.700491;-0.238380;-0.672628;,
         0.582171;-0.285562; 0.761254;,
         0.495651;-0.276315; 0.823359;,
        -0.502365;-0.280435; 0.817896;,
        -0.602100;-0.294107; 0.742241;,
         0.439192; 0.604663; 0.664388;,
         0.733177; 0.663839; 0.147374;,
         0.576586; 0.575884;-0.579516;,
        -0.576586; 0.575884;-0.579516;,
        -0.732994; 0.665304; 0.141484;,
        -0.444685; 0.603626; 0.661672;,
         0.495651;-0.276315; 0.823359;,
         0.439192; 0.604663; 0.664388;,
        -0.444685; 0.603626; 0.661672;,
        -0.502365;-0.280435; 0.817896;,
        -0.688681;-0.210547;-0.693808;,
        -0.576586; 0.575884;-0.579516;,
         0.576586; 0.575884;-0.579516;,
         0.686728;-0.198706;-0.699179;,
        -0.969909;-0.154912; 0.187719;,
        -0.732994; 0.665304; 0.141484;,
        -0.576586; 0.575884;-0.579516;,
        -0.688681;-0.210547;-0.693808;,
        -0.502365;-0.280435; 0.817896;,
        -0.444685; 0.603626; 0.661672;,
        -0.732994; 0.665304; 0.141484;,
        -0.969909;-0.154912; 0.187719;,
         0.969787;-0.140477; 0.199377;,
         0.733177; 0.663839; 0.147374;,
         0.439192; 0.604663; 0.664388;,
         0.495651;-0.276315; 0.823359;,
         0.572314; 0.728324; 0.376751;,
         0.623920; 0.769097;-0.138340;,
         0.848628;-0.337046;-0.407666;,
         0.626545; 0.543931; 0.558153;,
        -0.570696; 0.729789; 0.376415;,
        -0.626545; 0.543931; 0.558153;,
        -0.848628;-0.337046;-0.407666;,
        -0.620167; 0.772576;-0.135990;,
         0.623920; 0.769097;-0.138340;,
        -0.620167; 0.772576;-0.135990;,
        -0.848628;-0.337046;-0.407666;,
         0.848628;-0.337046;-0.407666;,
         0.848628;-0.337046;-0.407666;,
         0.746879;-0.657521;-0.099033;,
         0.664357; 0.735343; 0.133641;,
         0.626545; 0.543931; 0.558153;,
        -0.664357; 0.735343; 0.133610;,
        -0.431532; 0.557421; 0.709250;,
        -0.483840;-0.253212; 0.837703;,
        -0.746879;-0.657521;-0.099033;,
        -0.848628;-0.337046;-0.407666;,
        -0.746879;-0.657521;-0.099033;,
         0.746879;-0.657521;-0.099033;,
         0.848628;-0.337046;-0.407666;,
        -0.626545; 0.543931; 0.558153;,
        -0.664357; 0.735343; 0.133610;,
        -0.746879;-0.657521;-0.099033;,
        -0.848628;-0.337046;-0.407666;,
         0.626545; 0.543931; 0.558153;,
         0.664357; 0.735343; 0.133641;,
        -0.664357; 0.735343; 0.133610;,
        -0.626545; 0.543931; 0.558153;,
         0.664357; 0.735343; 0.133641;,
         0.439711; 0.553758; 0.707083;,
        -0.431532; 0.557421; 0.709250;,
        -0.664357; 0.735343; 0.133610;,
         0.746879;-0.657521;-0.099033;,
         0.490829;-0.252510; 0.833827;,
         0.439711; 0.553758; 0.707083;,
         0.664357; 0.735343; 0.133641;,
        -0.746879;-0.657521;-0.099033;,
        -0.483840;-0.253212; 0.837703;,
         0.490829;-0.252510; 0.833827;,
         0.746879;-0.657521;-0.099033;,
        -0.316385; 0.240028; 0.917722;,
         0.319712; 0.239784; 0.916654;,
         0.490829;-0.252510; 0.833827;,
        -0.483840;-0.253212; 0.837703;,
        -0.542772; 0.839778;-0.010315;,
        -0.637562; 0.408734;-0.652974;,
         0.637562; 0.408734;-0.652974;,
         0.542772; 0.839778;-0.010315;,
         0.556627; 0.095370; 0.825251;,
         0.606311; 0.790124;-0.089633;,
        -0.606311; 0.790124;-0.089633;,
        -0.556627; 0.095370; 0.825251;,
        -0.637562; 0.408734;-0.652974;,
        -0.606311; 0.790124;-0.089633;,
         0.606311; 0.790124;-0.089633;,
         0.637562; 0.408734;-0.652974;,
         0.815241;-0.262032; 0.516404;,
         0.556627; 0.095370; 0.825251;,
        -0.556627; 0.095370; 0.825251;,
        -0.815241;-0.262032; 0.516404;,
        -0.815241;-0.262032; 0.516404;,
        -0.556627; 0.095370; 0.825251;,
        -0.606311; 0.790124;-0.089633;,
        -0.637562; 0.408734;-0.652974;,
         0.583087;-0.809168; 0.072237;,
         0.617206;-0.702872;-0.353526;,
        -0.614582;-0.705161;-0.353526;,
        -0.579730;-0.811304; 0.075350;,
        -0.498520;-0.718802; 0.484512;,
        -0.352245;-0.686514; 0.636067;,
         0.354503;-0.685598; 0.635823;,
         0.500290;-0.718009; 0.483871;,
        -0.352245;-0.686514; 0.636067;,
        -0.614582;-0.705161;-0.353526;,
         0.617206;-0.702872;-0.353526;,
         0.354503;-0.685598; 0.635823;,
         0.500290;-0.718009; 0.483871;,
         0.325510;-0.785852; 0.525742;,
        -0.325510;-0.785852; 0.525742;,
        -0.498520;-0.718802; 0.484512;,
         0.349620; 0.565264;-0.747124;,
        -0.348186; 0.573504;-0.741508;,
        -0.177770; 0.050264;-0.982757;,
         0.183721; 0.048616;-0.981750;,
        -0.348186; 0.573504;-0.741508;,
         0.349620; 0.565264;-0.747124;,
         0.268319; 0.880184;-0.391430;,
         0.077609; 0.882900;-0.463057;,
        -0.087283; 0.884243;-0.458785;,
        -0.272103; 0.879055;-0.391369;,
        -0.826624;-0.471114;-0.307688;,
        -0.835322;-0.382427; 0.394910;,
        -0.783746; 0.347636; 0.514664;,
        -0.908719; 0.386273; 0.158055;,
        -0.702200; 0.653157; 0.283334;,
        -0.972381; 0.189947; 0.135441;,
        -0.971160; 0.191137;-0.142491;,
        -0.765862; 0.598895;-0.233955;,
        -0.560198; 0.375744;-0.738212;,
        -0.697562;-0.142918;-0.702078;,
         0.268319; 0.880184;-0.391430;,
         0.969726; 0.196783;-0.144444;,
         0.759239; 0.604633;-0.240699;,
         0.077609; 0.882900;-0.463057;,
         0.542772; 0.839778;-0.010315;,
         0.971648; 0.193487; 0.135746;,
         0.856960; 0.102939; 0.504990;,
         0.319712; 0.239784; 0.916654;,
        -0.415265; 0.181646; 0.891354;,
        -0.838191; 0.053713; 0.542680;,
        -0.855892; 0.103122; 0.506729;,
        -0.316385; 0.240028; 0.917722;,
        -0.483840;-0.253212; 0.837703;,
        -0.431532; 0.557421; 0.709250;,
         0.542772; 0.839778;-0.010315;,
         0.319712; 0.239784; 0.916654;,
        -0.316385; 0.240028; 0.917722;,
        -0.542772; 0.839778;-0.010315;,
        -0.278359; 0.115299; 0.953520;,
        -0.627857; 0.260079; 0.733543;,
        -0.260048; 0.627857; 0.733543;,
        -0.115299; 0.278359; 0.953520;,
        -0.325510; 0.785852; 0.525742;,
         0.115299;-0.278359; 0.953520;,
        -0.115299;-0.278359; 0.953520;,
         0.325510; 0.785852; 0.525742;,
         0.785852; 0.325510; 0.525742;,
        -0.278359;-0.115299; 0.953520;,
        -0.278359; 0.115299; 0.953520;,
         0.785852;-0.325510; 0.525742;,
         0.785852;-0.325510; 0.525742;,
        -0.278359; 0.115299; 0.953520;,
        -0.115299; 0.278359; 0.953520;,
         0.325510;-0.785852; 0.525742;,
        -0.325510;-0.785852; 0.525742;,
         0.115299; 0.278359; 0.953520;,
         0.278359; 0.115299; 0.953520;,
        -0.785852;-0.325510; 0.525742;,
        -0.785852; 0.325510; 0.525742;,
         0.278359;-0.115299; 0.953520;,
         0.115299;-0.278359; 0.953520;,
        -0.325510; 0.785852; 0.525742;,
         0.325510; 0.785852; 0.525742;,
        -0.115299;-0.278359; 0.953520;,
        -0.278359;-0.115299; 0.953520;,
         0.785852; 0.325510; 0.525742;,
         0.325510;-0.785852; 0.525742;,
        -0.115299; 0.278359; 0.953520;,
         0.115299; 0.278359; 0.953520;,
        -0.325510;-0.785852; 0.525742;,
        -0.260048; 0.627857; 0.733543;,
        -0.627857; 0.260079; 0.733543;,
        -0.627857;-0.260079; 0.733543;,
        -0.260048;-0.627857; 0.733543;,
         0.260079;-0.627857; 0.733543;,
         0.627888;-0.260048; 0.733543;,
         0.627888; 0.260048; 0.733543;,
         0.260079; 0.627857; 0.733543;,
         0.115299; 0.278359; 0.953520;,
         0.260079; 0.627857; 0.733543;,
         0.627888; 0.260048; 0.733543;,
         0.278359; 0.115299; 0.953520;,
         0.278359;-0.115299; 0.953520;,
         0.627888;-0.260048; 0.733543;,
         0.260079;-0.627857; 0.733543;,
         0.115299;-0.278359; 0.953520;,
        -0.115299;-0.278359; 0.953520;,
        -0.260048;-0.627857; 0.733543;,
        -0.627857;-0.260079; 0.733543;,
        -0.278359;-0.115299; 0.953520;,
        -0.115299; 0.278359; 0.953520;,
        -0.260048; 0.627857; 0.733543;,
         0.260079; 0.627857; 0.733543;,
         0.115299; 0.278359; 0.953520;,
         0.278359; 0.115299; 0.953520;,
         0.627888; 0.260048; 0.733543;,
         0.627888;-0.260048; 0.733543;,
         0.278359;-0.115299; 0.953520;,
         0.115299;-0.278359; 0.953520;,
         0.260079;-0.627857; 0.733543;,
        -0.260048;-0.627857; 0.733543;,
        -0.115299;-0.278359; 0.953520;,
        -0.278359;-0.115299; 0.953520;,
        -0.627857;-0.260079; 0.733543;,
        -0.627857; 0.260079; 0.733543;,
        -0.278359; 0.115299; 0.953520;,
        -0.697562;-0.142918;-0.702078;,
        -0.560198; 0.375744;-0.738212;,
         0.559526; 0.379254;-0.736930;,
         0.698202;-0.138951;-0.702261;,
         0.153264;-0.390667;-0.907651;,
        -0.153264;-0.390667;-0.907651;,
         0.582263;-0.029389;-0.812433;,
         0.535600;-0.160161;-0.829127;,
        -0.535600;-0.160161;-0.829127;,
        -0.582263;-0.029389;-0.812433;,
        -0.855892; 0.103122; 0.506729;,
        -0.972381; 0.189947; 0.135441;,
        -0.542772; 0.839778;-0.010315;,
        -0.316385; 0.240028; 0.917722;,
        -0.570696; 0.729789; 0.376415;,
         0.572314; 0.728324; 0.376751;,
         0.626545; 0.543931; 0.558153;,
        -0.626545; 0.543931; 0.558153;,
         0.414960; 0.186132; 0.890561;,
         0.338816; 0.602161; 0.722892;,
        -0.337870; 0.603290; 0.722373;,
        -0.415265; 0.181646; 0.891354;;
        134;
        4;3,2,1,0;,
        4;7,6,5,4;,
        4;11,10,9,8;,
        4;15,14,13,12;,
        4;19,18,17,16;,
        4;23,22,21,20;,
        4;27,26,25,24;,
        4;31,30,29,28;,
        4;35,34,33,32;,
        4;39,38,37,36;,
        6;45,44,43,42,41,40;,
        4;49,48,47,46;,
        4;53,52,51,50;,
        4;57,56,55,54;,
        4;61,60,59,58;,
        4;65,64,63,62;,
        4;69,68,67,66;,
        4;73,72,71,70;,
        10;83,82,81,80,79,78,77,76,75,74;,
        4;87,86,85,84;,
        4;91,90,89,88;,
        6;97,96,95,94,93,92;,
        4;101,100,99,98;,
        4;105,104,103,102;,
        6;111,110,109,108,107,106;,
        4;115,114,113,112;,
        4;119,118,117,116;,
        3;122,121,120;,
        3;125,124,123;,
        4;129,128,127,126;,
        4;133,132,131,130;,
        4;137,136,135,134;,
        6;143,142,141,140,139,138;,
        4;147,146,145,144;,
        4;151,150,149,148;,
        6;157,156,155,154,153,152;,
        8;165,164,163,162,161,160,159,158;,
        4;169,168,167,166;,
        6;175,174,173,172,171,170;,
        4;179,178,177,176;,
        6;185,184,183,182,181,180;,
        4;189,188,187,186;,
        4;193,192,191,190;,
        8;201,200,199,198,197,196,195,194;,
        4;205,204,203,202;,
        4;209,208,207,206;,
        6;215,214,213,212,211,210;,
        5;220,219,218,217,216;,
        4;224,223,222,221;,
        6;230,229,228,227,226,225;,
        4;234,233,232,231;,
        5;239,238,237,236,235;,
        4;243,242,241,240;,
        4;247,246,245,244;,
        4;251,250,249,248;,
        4;255,254,253,252;,
        4;259,258,257,256;,
        6;265,264,263,262,261,260;,
        4;269,268,267,266;,
        4;273,272,271,270;,
        4;277,276,275,274;,
        4;281,280,279,278;,
        4;285,284,283,282;,
        4;289,288,287,286;,
        4;293,292,291,290;,
        4;297,296,295,294;,
        4;301,300,299,298;,
        4;305,304,303,302;,
        4;309,308,307,306;,
        4;313,312,311,310;,
        4;317,316,315,314;,
        4;321,320,319,318;,
        4;325,324,323,322;,
        4;329,328,327,326;,
        4;333,332,331,330;,
        4;337,336,335,334;,
        4;341,340,339,338;,
        4;345,344,343,342;,
        4;349,348,347,346;,
        6;355,354,353,352,351,350;,
        4;359,358,357,356;,
        4;363,362,361,360;,
        4;367,366,365,364;,
        4;371,370,369,368;,
        4;375,374,373,372;,
        4;379,378,377,376;,
        4;383,382,381,380;,
        4;387,386,385,384;,
        4;391,390,389,388;,
        4;395,394,393,392;,
        4;399,398,397,396;,
        4;403,402,401,400;,
        4;407,406,405,404;,
        4;411,410,409,408;,
        4;415,414,413,412;,
        4;419,418,417,416;,
        4;423,422,421,420;,
        4;427,426,425,424;,
        4;431,430,429,428;,
        4;435,434,433,432;,
        4;439,438,437,436;,
        4;443,442,441,440;,
        4;447,446,445,444;,
        4;451,450,449,448;,
        4;455,454,453,452;,
        4;459,458,457,456;,
        4;463,462,461,460;,
        6;469,468,467,466,465,464;,
        10;479,478,477,476,475,474,473,472,471,470;,
        4;483,482,481,480;,
        4;487,486,485,484;,
        6;493,492,491,490,489,488;,
        4;497,496,495,494;,
        4;501,500,499,498;,
        4;505,504,503,502;,
        4;509,508,507,506;,
        4;513,512,511,510;,
        4;517,516,515,514;,
        4;521,520,519,518;,
        4;525,524,523,522;,
        4;529,528,527,526;,
        8;537,536,535,534,533,532,531,530;,
        4;541,540,539,538;,
        4;545,544,543,542;,
        4;549,548,547,546;,
        4;553,552,551,550;,
        4;557,556,555,554;,
        4;561,560,559,558;,
        4;565,564,563,562;,
        6;571,570,569,568,567,566;,
        4;575,574,573,572;,
        4;579,578,577,576;,
        4;583,582,581,580;,
        4;587,586,585,584;;
      } // End of Cylinder normals
      MeshTextureCoords { // Cylinder UV coordinates
        588;
         0.975520; 0.067214;,
         0.979869; 0.067350;,
         0.980548; 0.048288;,
         0.976200; 0.048152;,
         0.446587; 0.141939;,
         0.450933; 0.141948;,
         0.450933; 0.122857;,
         0.446587; 0.122847;,
         0.538803; 0.029532;,
         0.544009; 0.041872;,
         0.549326; 0.041184;,
         0.549326; 0.023354;,
         0.447314; 0.073174;,
         0.451659; 0.073027;,
         0.450933; 0.053963;,
         0.446587; 0.054111;,
         0.446587; 0.054111;,
         0.450933; 0.053963;,
         0.451659; 0.039839;,
         0.447314; 0.039986;,
         0.976200; 0.081384;,
         0.980548; 0.081520;,
         0.979869; 0.067350;,
         0.975520; 0.067214;,
         0.447928; 0.155140;,
         0.452273; 0.155150;,
         0.450933; 0.141948;,
         0.446587; 0.141939;,
         0.446587; 0.122847;,
         0.450933; 0.122857;,
         0.452273; 0.109058;,
         0.447928; 0.109048;,
         0.284335; 0.108001;,
         0.285770; 0.104726;,
         0.274220; 0.093175;,
         0.270855; 0.094520;,
         0.502929; 0.041872;,
         0.502929; 0.024062;,
         0.497598; 0.023364;,
         0.492391; 0.035688;,
         0.663654; 0.218664;,
         0.686086; 0.208445;,
         0.656910; 0.131672;,
         0.635686; 0.131771;,
         0.607176; 0.208812;,
         0.630524; 0.218818;,
         0.289986; 0.207251;,
         0.318077; 0.223546;,
         0.340058; 0.196647;,
         0.303448; 0.193752;,
         0.303420; 0.174662;,
         0.340021; 0.171220;,
         0.317962; 0.143875;,
         0.289920; 0.161163;,
         0.800284; 0.982063;,
         0.817305; 0.971128;,
         0.789952; 0.971097;,
         0.786781; 0.982041;,
         0.767685; 0.982038;,
         0.764517; 0.971094;,
         0.737610; 0.971116;,
         0.754182; 0.982056;,
         0.270922; 0.207251;,
         0.271041; 0.223546;,
         0.318077; 0.223546;,
         0.289986; 0.207251;,
         0.303448; 0.193752;,
         0.340058; 0.196647;,
         0.340021; 0.171220;,
         0.303420; 0.174662;,
         0.289920; 0.161163;,
         0.317962; 0.143875;,
         0.270926; 0.143875;,
         0.270855; 0.161163;,
         0.627997; 0.479882;,
         0.627256; 0.532397;,
         0.625970; 0.649022;,
         0.612149; 0.765098;,
         0.642258; 0.783130;,
         0.654361; 0.981710;,
         0.701428; 0.982063;,
         0.701428; 0.521013;,
         0.636523; 0.468472;,
         0.631984; 0.468438;,
         0.182696; 0.223954;,
         0.182684; 0.323404;,
         0.208112; 0.323380;,
         0.208125; 0.223930;,
         0.182684; 0.323404;,
         0.179216; 0.404129;,
         0.212346; 0.404097;,
         0.208112; 0.323380;,
         0.179216; 0.404129;,
         0.182684; 0.323404;,
         0.182696; 0.223954;,
         0.155305; 0.221790;,
         0.154998; 0.421560;,
         0.179204; 0.432337;,
         0.810363; 0.065387;,
         0.810363; 0.039205;,
         0.789140; 0.039254;,
         0.789140; 0.065437;,
         0.965551; 0.972631;,
         0.953904; 0.949086;,
         0.940671; 0.956287;,
         0.948216; 0.982063;,
         0.737302; 0.163031;,
         0.760735; 0.186212;,
         0.760735; 0.166931;,
         0.760735; 0.135014;,
         0.760735; 0.121568;,
         0.737302; 0.105805;,
         0.607176; 0.208812;,
         0.635686; 0.131771;,
         0.635638; 0.112058;,
         0.607176; 0.093937;,
         0.940671; 0.851900;,
         0.955313; 0.885537;,
         0.965542; 0.886148;,
         0.953900; 0.859091;,
         0.968624; 0.326836;,
         0.952626; 0.353876;,
         0.968624; 0.369715;,
         0.939646; 0.038785;,
         0.922192; 0.055436;,
         0.939646; 0.081520;,
         0.764517; 0.971094;,
         0.789952; 0.971097;,
         0.793873; 0.508065;,
         0.760735; 0.508060;,
         0.686086; 0.093570;,
         0.656862; 0.111959;,
         0.656910; 0.131672;,
         0.686086; 0.208445;,
         0.737610; 0.971116;,
         0.764517; 0.971094;,
         0.760735; 0.508060;,
         0.737302; 0.508091;,
         0.404602; 0.416415;,
         0.405381; 0.402174;,
         0.388445; 0.412478;,
         0.377586; 0.427864;,
         0.377586; 0.432564;,
         0.404501; 0.422509;,
         0.789952; 0.971097;,
         0.817305; 0.971128;,
         0.817305; 0.508103;,
         0.793873; 0.508065;,
         0.157948; 0.157104;,
         0.166082; 0.185709;,
         0.218453; 0.185840;,
         0.185995; 0.159276;,
         0.154998; 0.105615;,
         0.154998; 0.185598;,
         0.166082; 0.185709;,
         0.157948; 0.157104;,
         0.157948; 0.138564;,
         0.166082; 0.105726;,
         0.543912; 0.641291;,
         0.604765; 0.648863;,
         0.625970; 0.649022;,
         0.627256; 0.532397;,
         0.622510; 0.532361;,
         0.545180; 0.532650;,
         0.378576; 0.526188;,
         0.377654; 0.605246;,
         0.793873; 0.186212;,
         0.793873; 0.166931;,
         0.760735; 0.166931;,
         0.760735; 0.186212;,
         0.750382; 0.249898;,
         0.737302; 0.243277;,
         0.737348; 0.304585;,
         0.750246; 0.332437;,
         0.759415; 0.320486;,
         0.759436; 0.305553;,
         0.941086; 0.224218;,
         0.921141; 0.243069;,
         0.923590; 0.254587;,
         0.941086; 0.263454;,
         0.793873; 0.135014;,
         0.793873; 0.166931;,
         0.793873; 0.186212;,
         0.817305; 0.163031;,
         0.817305; 0.105805;,
         0.793873; 0.121568;,
         0.737303; 0.065436;,
         0.753266; 0.065436;,
         0.753266; 0.032298;,
         0.737303; 0.032298;,
         0.445749; 0.242774;,
         0.445749; 0.191024;,
         0.388354; 0.191024;,
         0.388354; 0.242774;,
         0.266225; 0.801484;,
         0.245024; 0.801640;,
         0.184182; 0.809208;,
         0.017952; 0.845249;,
         0.018872; 0.924350;,
         0.185445; 0.917907;,
         0.262762; 0.918207;,
         0.267507; 0.918172;,
         0.571302; 0.195172;,
         0.564504; 0.194287;,
         0.557493; 0.208466;,
         0.558572; 0.218700;,
         0.185445; 0.917907;,
         0.181489; 0.947729;,
         0.247095; 0.922102;,
         0.262762; 0.918207;,
         0.234981; 0.221714;,
         0.208125; 0.223930;,
         0.208112; 0.323380;,
         0.212346; 0.404097;,
         0.212334; 0.432306;,
         0.234981; 0.421484;,
         0.545180; 0.532650;,
         0.541181; 0.502908;,
         0.429573; 0.484438;,
         0.377975; 0.488889;,
         0.378576; 0.526188;,
         0.541181; 0.502908;,
         0.545180; 0.532650;,
         0.622510; 0.532361;,
         0.606798; 0.528530;,
         0.429343; 0.416415;,
         0.429688; 0.422509;,
         0.456517; 0.432564;,
         0.456517; 0.427864;,
         0.445658; 0.412478;,
         0.428000; 0.402174;,
         0.571302; 0.116154;,
         0.560503; 0.077746;,
         0.503122; 0.077873;,
         0.492391; 0.116329;,
         0.181489; 0.947729;,
         0.185445; 0.917907;,
         0.018872; 0.924350;,
         0.018312; 0.961733;,
         0.069901; 0.966193;,
         0.803171; 0.332476;,
         0.792543; 0.320510;,
         0.759415; 0.320486;,
         0.750246; 0.332437;,
         0.543912; 0.641291;,
         0.377654; 0.605246;,
         0.377586; 0.629983;,
         0.516527; 0.643582;,
         0.948213; 0.826119;,
         0.940671; 0.851900;,
         0.953900; 0.859091;,
         0.965542; 0.835540;,
         0.505105; 0.218818;,
         0.506135; 0.208580;,
         0.500236; 0.194429;,
         0.492391; 0.195347;,
         0.156854; 0.806989;,
         0.017937; 0.820574;,
         0.017952; 0.845249;,
         0.184182; 0.809208;,
         0.445658; 0.412478;,
         0.445726; 0.350905;,
         0.388377; 0.350905;,
         0.388445; 0.412478;,
         0.405381; 0.402174;,
         0.428000; 0.402174;,
         0.852128; 0.228556;,
         0.852128; 0.236498;,
         0.885267; 0.236498;,
         0.885267; 0.228556;,
         0.885267; 0.263454;,
         0.885267; 0.236498;,
         0.852128; 0.236498;,
         0.852128; 0.263454;,
         0.174935; 0.030503;,
         0.157447; 0.039361;,
         0.154998; 0.050879;,
         0.174935; 0.069741;,
         0.210809; 0.069741;,
         0.230499; 0.069741;,
         0.230499; 0.036603;,
         0.210809; 0.036603;,
         0.043137; 0.409270;,
         0.043488; 0.422009;,
         0.119124; 0.422009;,
         0.114112; 0.409270;,
         0.028547; 0.254498;,
         0.028406; 0.409316;,
         0.043137; 0.409270;,
         0.043278; 0.254452;,
         0.571302; 0.116154;,
         0.564504; 0.123389;,
         0.564504; 0.194287;,
         0.571302; 0.195172;,
         0.558572; 0.218700;,
         0.557493; 0.208466;,
         0.506135; 0.208580;,
         0.505105; 0.218818;,
         0.492391; 0.116329;,
         0.500236; 0.123532;,
         0.564504; 0.123389;,
         0.571302; 0.116154;,
         0.492391; 0.195347;,
         0.500236; 0.194429;,
         0.500236; 0.123532;,
         0.492391; 0.116329;,
         0.497236; 0.254692;,
         0.497365; 0.409538;,
         0.568302; 0.409538;,
         0.568173; 0.254692;,
         0.568173; 0.254692;,
         0.568302; 0.409538;,
         0.583162; 0.409558;,
         0.583034; 0.254712;,
         0.043278; 0.254452;,
         0.043137; 0.409270;,
         0.114112; 0.409270;,
         0.114253; 0.254452;,
         0.853442; 0.805037;,
         0.853442; 0.959809;,
         0.904796; 0.959739;,
         0.904796; 0.804967;,
         0.697277; 0.432564;,
         0.697277; 0.279307;,
         0.632993; 0.279307;,
         0.632993; 0.432564;,
         0.492391; 0.422235;,
         0.492400; 0.432564;,
         0.567994; 0.432564;,
         0.567986; 0.422235;,
         0.028406; 0.409316;,
         0.017946; 0.421854;,
         0.043488; 0.422009;,
         0.043137; 0.409270;,
         0.568302; 0.409538;,
         0.567986; 0.422235;,
         0.593616; 0.422099;,
         0.583162; 0.409558;,
         0.497365; 0.409538;,
         0.492391; 0.422235;,
         0.567986; 0.422235;,
         0.568302; 0.409538;,
         0.697277; 0.279307;,
         0.701423; 0.267580;,
         0.629498; 0.267580;,
         0.632993; 0.279307;,
         0.853442; 0.959809;,
         0.853179; 0.971738;,
         0.904534; 0.971668;,
         0.904796; 0.959739;,
         0.028442; 0.118402;,
         0.017937; 0.143026;,
         0.017937; 0.218579;,
         0.089844; 0.218419;,
         0.089844; 0.142867;,
         0.079800; 0.118288;,
         0.853179; 0.971738;,
         0.853179; 0.982063;,
         0.904534; 0.981993;,
         0.904534; 0.971668;,
         0.701423; 0.267580;,
         0.701423; 0.257356;,
         0.629498; 0.257356;,
         0.629498; 0.267580;,
         0.043488; 0.422009;,
         0.043479; 0.432337;,
         0.119115; 0.432337;,
         0.119124; 0.422009;,
         0.017946; 0.421854;,
         0.017937; 0.432181;,
         0.043479; 0.432337;,
         0.043488; 0.422009;,
         0.567986; 0.422235;,
         0.567994; 0.432564;,
         0.593624; 0.432428;,
         0.593616; 0.422099;,
         0.904386; 0.472186;,
         0.916752; 0.446912;,
         0.867043; 0.411732;,
         0.852128; 0.413443;,
         0.323113; 0.259420;,
         0.270855; 0.318149;,
         0.285770; 0.319870;,
         0.335480; 0.284710;,
         0.927196; 0.607415;,
         0.960334; 0.607415;,
         0.960334; 0.548726;,
         0.927196; 0.548726;,
         0.867043; 0.411732;,
         0.871128; 0.388200;,
         0.855139; 0.385324;,
         0.852128; 0.413443;,
         0.273865; 0.346280;,
         0.322521; 0.432337;,
         0.335480; 0.424945;,
         0.289855; 0.343413;,
         0.853179; 0.069649;,
         0.853179; 0.092444;,
         0.886318; 0.092444;,
         0.886318; 0.069649;,
         0.270855; 0.318149;,
         0.273865; 0.346280;,
         0.289855; 0.343413;,
         0.285770; 0.319870;,
         0.886506; 0.769068;,
         0.886309; 0.741772;,
         0.853179; 0.741797;,
         0.853376; 0.769093;,
         0.886309; 0.741772;,
         0.886506; 0.643289;,
         0.853376; 0.643314;,
         0.853179; 0.741797;,
         0.871128; 0.388200;,
         0.916752; 0.306726;,
         0.903794; 0.299328;,
         0.855139; 0.385324;,
         0.853179; 0.092444;,
         0.853179; 0.186212;,
         0.886318; 0.186212;,
         0.886318; 0.092444;,
         0.803036; 0.249936;,
         0.750382; 0.249898;,
         0.759436; 0.305553;,
         0.792563; 0.305577;,
         0.017937; 0.029023;,
         0.017937; 0.055838;,
         0.039166; 0.055838;,
         0.039166; 0.029023;,
         0.387310; 0.022385;,
         0.377586; 0.022461;,
         0.377586; 0.043685;,
         0.387310; 0.043609;,
         0.017937; 0.055838;,
         0.017937; 0.082414;,
         0.039166; 0.082414;,
         0.039166; 0.055838;,
         0.628405; 0.057696;,
         0.628405; 0.034492;,
         0.607176; 0.034492;,
         0.607176; 0.057696;,
         0.953904; 0.949086;,
         0.965551; 0.922022;,
         0.955318; 0.922639;,
         0.940671; 0.956287;,
         0.676343; 0.032261;,
         0.664279; 0.036260;,
         0.664279; 0.053588;,
         0.676343; 0.057696;,
         0.939730; 0.646147;,
         0.922381; 0.650168;,
         0.922381; 0.661154;,
         0.939730; 0.665238;,
         0.982063; 0.249295;,
         0.976960; 0.246126;,
         0.976960; 0.263454;,
         0.982063; 0.260285;,
         0.979972; 0.646141;,
         0.975604; 0.646141;,
         0.975604; 0.665238;,
         0.979972; 0.665238;,
         0.404602; 0.416415;,
         0.429343; 0.416415;,
         0.428000; 0.402174;,
         0.405381; 0.402174;,
         0.195123; 0.159058;,
         0.195123; 0.134322;,
         0.185995; 0.134096;,
         0.157948; 0.138564;,
         0.157948; 0.157104;,
         0.185995; 0.159276;,
         0.341712; 0.929469;,
         0.341712; 0.468211;,
         0.294653; 0.468558;,
         0.282563; 0.667202;,
         0.252412; 0.685343;,
         0.266225; 0.801484;,
         0.267507; 0.918172;,
         0.268292; 0.970613;,
         0.272278; 0.982063;,
         0.276816; 0.982029;,
         0.185995; 0.134096;,
         0.218453; 0.106929;,
         0.166082; 0.105726;,
         0.157948; 0.138564;,
         0.765644; 0.239923;,
         0.737348; 0.222086;,
         0.737302; 0.243277;,
         0.750382; 0.249898;,
         0.803171; 0.332476;,
         0.816254; 0.304643;,
         0.816208; 0.243334;,
         0.803036; 0.249936;,
         0.792563; 0.305577;,
         0.792543; 0.320510;,
         0.075040; 0.066852;,
         0.094791; 0.082414;,
         0.094791; 0.029756;,
         0.075040; 0.045628;,
         0.853179; 0.547381;,
         0.887910; 0.607415;,
         0.888860; 0.607054;,
         0.863806; 0.543342;,
         0.270855; 0.075428;,
         0.274220; 0.076818;,
         0.285770; 0.065237;,
         0.284335; 0.061911;,
         0.303399; 0.061885;,
         0.302103; 0.065214;,
         0.313653; 0.076765;,
         0.316879; 0.075366;,
         0.316879; 0.075366;,
         0.313653; 0.076765;,
         0.313653; 0.093122;,
         0.316879; 0.094457;,
         0.303399; 0.107975;,
         0.302103; 0.104704;,
         0.285770; 0.104726;,
         0.284335; 0.108001;,
         0.270855; 0.094520;,
         0.274220; 0.093175;,
         0.274220; 0.076818;,
         0.270855; 0.075428;,
         0.284335; 0.061911;,
         0.285770; 0.065237;,
         0.302103; 0.065214;,
         0.303399; 0.061885;,
         0.316879; 0.094457;,
         0.313653; 0.093122;,
         0.302103; 0.104704;,
         0.303399; 0.107975;,
         0.930724; 0.511814;,
         0.930724; 0.510351;,
         0.929691; 0.509317;,
         0.928230; 0.509319;,
         0.927196; 0.510355;,
         0.927196; 0.511819;,
         0.928230; 0.512852;,
         0.929691; 0.512850;,
         0.879606; 0.539106;,
         0.890274; 0.606675;,
         0.891322; 0.606500;,
         0.891322; 0.537153;,
         0.934053; 0.184310;,
         0.948835; 0.117616;,
         0.947773; 0.117394;,
         0.922192; 0.181831;,
         0.922381; 0.702126;,
         0.940266; 0.769093;,
         0.941350; 0.769002;,
         0.934493; 0.701112;,
         0.863806; 0.543342;,
         0.888860; 0.607054;,
         0.890274; 0.606675;,
         0.879606; 0.539106;,
         0.950287; 0.186212;,
         0.950287; 0.117786;,
         0.948835; 0.117616;,
         0.934053; 0.184310;,
         0.952626; 0.405589;,
         0.960075; 0.472186;,
         0.961539; 0.472186;,
         0.968988; 0.405589;,
         0.934493; 0.701112;,
         0.941350; 0.769002;,
         0.942812; 0.769002;,
         0.950835; 0.701112;,
         0.817305; 0.105805;,
         0.817305; 0.101311;,
         0.737302; 0.101311;,
         0.737302; 0.105805;,
         0.760735; 0.121568;,
         0.793873; 0.121568;,
         0.388354; 0.242774;,
         0.388377; 0.350905;,
         0.445726; 0.350905;,
         0.445749; 0.242774;,
         0.816208; 0.243334;,
         0.816254; 0.222143;,
         0.786867; 0.239939;,
         0.803036; 0.249936;,
         0.377586; 0.154894;,
         0.410713; 0.155150;,
         0.410713; 0.079814;,
         0.377586; 0.079559;,
         0.750246; 0.332437;,
         0.749989; 0.472147;,
         0.803453; 0.472186;,
         0.803171; 0.332476;;
      } // End of Cylinder UV coordinates
      MeshMaterialList { // Cylinder material list
        1;
        134;
        0,
        0,
        0,
        0,
        0,
        0,
        0,
        0,
        0,
        0,
        0,
        0,
        0,
        0,
        0,
        0,
        0,
        0,
        0,
        0,
        0,
        0,
        0,
        0,
        0,
        0,
        0,
        0,
        0,
        0,
        0,
        0,
        0,
        0,
        0,
        0,
        0,
        0,
        0,
        0,
        0,
        0,
        0,
        0,
        0,
        0,
        0,
        0,
        0,
        0,
        0,
        0,
        0,
        0,
        0,
        0,
        0,
        0,
        0,
        0,
        0,
        0,
        0,
        0,
        0,
        0,
        0,
        0,
        0,
        0,
        0,
        0,
        0,
        0,
        0,
        0,
        0,
        0,
        0,
        0,
        0,
        0,
        0,
        0,
        0,
        0,
        0,
        0,
        0,
        0,
        0,
        0,
        0,
        0,
        0,
        0,
        0,
        0,
        0,
        0,
        0,
        0,
        0,
        0,
        0,
        0,
        0,
        0,
        0,
        0,
        0,
        0,
        0,
        0,
        0,
        0,
        0,
        0,
        0,
        0,
        0,
        0,
        0,
        0,
        0,
        0,
        0,
        0,
        0,
        0,
        0,
        0,
        0,
        0;
        Material Material_011 {
           0.640000; 0.640000; 0.640000; 1.000000;;
           249.019608;
           0.400000; 0.400000; 0.400000;;
           0.000000; 0.000000; 0.000000;;
          TextureFilename {"Revolver_Long.png";}
        }
      } // End of Cylinder material list
    } // End of Cylinder mesh
  } // End of Cylinder
} // End of Root
