xof 0303txt 0032

Frame Root {
  FrameTransformMatrix {
     1.000000, 0.000000, 0.000000, 0.000000,
     0.000000,-0.000000, 1.000000, 0.000000,
     0.000000, 1.000000, 0.000000, 0.000000,
     0.000000, 0.000000, 0.000000, 1.000000;;
  }
  Frame Cube_002 {
    FrameTransformMatrix {
       1.000000, 0.000000, 0.000000, 0.000000,
       0.000000, 1.000000, 0.000000, 0.000000,
       0.000000, 0.000000, 1.000000, 0.000000,
       0.000000, 0.000000, 0.000000, 1.000000;;
    }
    Mesh { // Cube_002 mesh
      736;
       0.099023;-0.248003; 0.054931;,
       0.093374;-0.233598; 0.054931;,
       0.094386;-0.235882; 0.041972;,
       0.099023;-0.248003; 0.039274;,
       0.099023;-0.248003; 0.039274;,
       0.094386;-0.235882; 0.041972;,
       0.100257;-0.233282; 0.041972;,
       0.106117;-0.244861; 0.039274;,
       0.106117;-0.244861; 0.054931;,
       0.099245;-0.230997; 0.054931;,
       0.100257;-0.233282; 0.067891;,
       0.106117;-0.244861; 0.070589;,
       0.106117;-0.244861; 0.070589;,
       0.100257;-0.233282; 0.067891;,
       0.094386;-0.235882; 0.067891;,
       0.099023;-0.248003; 0.070589;,
       0.105866;-0.261801; 0.054931;,
       0.111737;-0.259201; 0.054931;,
       0.110754;-0.256981; 0.067891;,
       0.104882;-0.259582; 0.067891;,
       0.099245;-0.230997; 0.054931;,
       0.093374;-0.233598; 0.054931;,
       0.094386;-0.235882; 0.067891;,
       0.100257;-0.233282; 0.067891;,
       0.100257;-0.233282; 0.041972;,
       0.094386;-0.235882; 0.041972;,
       0.093374;-0.233598; 0.054931;,
       0.099245;-0.230997; 0.054931;,
       0.104882;-0.259582; 0.041972;,
       0.110754;-0.256981; 0.041972;,
       0.111737;-0.259201; 0.054931;,
       0.105866;-0.261801; 0.054931;,
       0.106117;-0.244861; 0.039274;,
       0.100257;-0.233282; 0.041972;,
       0.099245;-0.230997; 0.054931;,
       0.106117;-0.244861; 0.054931;,
       0.099023;-0.248003; 0.070589;,
       0.094386;-0.235882; 0.067891;,
       0.093374;-0.233598; 0.054931;,
       0.099023;-0.248003; 0.054931;,
       0.104882;-0.259582; 0.067891;,
       0.099023;-0.248003; 0.070589;,
       0.099023;-0.248003; 0.054931;,
       0.105866;-0.261801; 0.054931;,
       0.110754;-0.256981; 0.041972;,
       0.106117;-0.244861; 0.039274;,
       0.106117;-0.244861; 0.054931;,
       0.111737;-0.259201; 0.054931;,
       0.110754;-0.256981; 0.067891;,
       0.106117;-0.244861; 0.070589;,
       0.099023;-0.248003; 0.070589;,
       0.104882;-0.259582; 0.067891;,
       0.111737;-0.259201; 0.054931;,
       0.106117;-0.244861; 0.054931;,
       0.106117;-0.244861; 0.070589;,
       0.110754;-0.256981; 0.067891;,
       0.104882;-0.259582; 0.041972;,
       0.099023;-0.248003; 0.039274;,
       0.106117;-0.244861; 0.039274;,
       0.110754;-0.256981; 0.041972;,
       0.105866;-0.261801; 0.054931;,
       0.099023;-0.248003; 0.054931;,
       0.099023;-0.248003; 0.039274;,
       0.104882;-0.259582; 0.041972;,
      -0.023325; 0.003733; 0.239073;,
      -0.042675; 0.047423; 0.239073;,
      -0.042675; 0.047423; 0.204875;,
      -0.023325; 0.003733; 0.204875;,
      -0.023325; 0.003733; 0.204875;,
      -0.042675; 0.047423; 0.204875;,
      -0.027799; 0.054012; 0.204875;,
      -0.008448; 0.010322; 0.204875;,
      -0.008448; 0.010322; 0.204875;,
      -0.027799; 0.054012; 0.204875;,
      -0.027799; 0.054012; 0.239073;,
      -0.008448; 0.010322; 0.239073;,
      -0.008448; 0.010322; 0.239073;,
      -0.027799; 0.054012; 0.239073;,
      -0.042675; 0.047423; 0.239073;,
      -0.023325; 0.003733; 0.239073;,
      -0.023325; 0.003733; 0.204875;,
      -0.008448; 0.010322; 0.204875;,
      -0.008448; 0.010322; 0.239073;,
      -0.023325; 0.003733; 0.239073;,
      -0.042675; 0.047423; 0.204875;,
      -0.042675; 0.047423; 0.239073;,
      -0.043485; 0.049251; 0.245457;,
      -0.046001; 0.054932; 0.198360;,
      -0.043485; 0.049251; 0.245457;,
      -0.028608; 0.055840; 0.245457;,
      -0.048069; 0.099777; 0.245457;,
      -0.062945; 0.093188; 0.245457;,
      -0.028608; 0.055840; 0.245457;,
      -0.043485; 0.049251; 0.245457;,
      -0.040718; 0.043004; 0.283399;,
      -0.025842; 0.049593; 0.283399;,
      -0.031124; 0.061521; 0.198360;,
      -0.027799; 0.054012; 0.204875;,
      -0.030190; 0.053204; 0.177979;,
      -0.032488; 0.058394; 0.177979;,
      -0.027799; 0.054012; 0.239073;,
      -0.027799; 0.054012; 0.204875;,
      -0.031124; 0.061521; 0.198360;,
      -0.028608; 0.055840; 0.245457;,
      -0.048069; 0.099777; 0.245457;,
      -0.048069; 0.099777; 0.196878;,
      -0.054887; 0.115172; 0.196878;,
      -0.054887; 0.115172; 0.245457;,
      -0.031124; 0.061521; 0.198360;,
      -0.046001; 0.054932; 0.198360;,
      -0.062945; 0.093188; 0.196878;,
      -0.048069; 0.099777; 0.196878;,
      -0.028608; 0.055840; 0.245457;,
      -0.031124; 0.061521; 0.198360;,
      -0.048069; 0.099777; 0.196878;,
      -0.048069; 0.099777; 0.245457;,
      -0.046001; 0.054932; 0.198360;,
      -0.043485; 0.049251; 0.245457;,
      -0.062945; 0.093188; 0.245457;,
      -0.062945; 0.093188; 0.196878;,
      -0.054887; 0.115172; 0.245457;,
      -0.054887; 0.115172; 0.196878;,
      -0.055293; 0.120699; 0.191304;,
      -0.055293; 0.120699; 0.251032;,
      -0.062945; 0.093188; 0.196878;,
      -0.062945; 0.093188; 0.245457;,
      -0.069764; 0.108583; 0.245457;,
      -0.069764; 0.108583; 0.196878;,
      -0.062945; 0.093188; 0.245457;,
      -0.048069; 0.099777; 0.245457;,
      -0.054887; 0.115172; 0.245457;,
      -0.069764; 0.108583; 0.245457;,
      -0.048069; 0.099777; 0.196878;,
      -0.062945; 0.093188; 0.196878;,
      -0.069764; 0.108583; 0.196878;,
      -0.054887; 0.115172; 0.196878;,
      -0.038477; 0.037944; 0.286196;,
      -0.023600; 0.044533; 0.286196;,
      -0.008752; 0.011008; 0.286196;,
      -0.023628; 0.004419; 0.286196;,
      -0.042675; 0.047423; 0.239073;,
      -0.027799; 0.054012; 0.239073;,
      -0.023600; 0.044533; 0.286196;,
      -0.038477; 0.037944; 0.286196;,
      -0.027799; 0.054012; 0.239073;,
      -0.028608; 0.055840; 0.245457;,
      -0.025842; 0.049593; 0.283399;,
      -0.023600; 0.044533; 0.286196;,
      -0.043485; 0.049251; 0.245457;,
      -0.042675; 0.047423; 0.239073;,
      -0.038477; 0.037944; 0.286196;,
      -0.040718; 0.043004; 0.283399;,
      -0.036205; 0.035389; 0.291989;,
      -0.023235; 0.041134; 0.291989;,
      -0.025697; 0.046694; 0.291989;,
      -0.038668; 0.040949; 0.291989;,
      -0.023600; 0.044533; 0.286196;,
      -0.025842; 0.049593; 0.283399;,
      -0.025697; 0.046694; 0.291989;,
      -0.023235; 0.041134; 0.291989;,
      -0.025842; 0.049593; 0.283399;,
      -0.040718; 0.043004; 0.283399;,
      -0.038668; 0.040949; 0.291989;,
      -0.025697; 0.046694; 0.291989;,
      -0.040718; 0.043004; 0.283399;,
      -0.038477; 0.037944; 0.286196;,
      -0.036205; 0.035389; 0.291989;,
      -0.038668; 0.040949; 0.291989;,
      -0.023628; 0.004419; 0.286196;,
      -0.008752; 0.011008; 0.286196;,
      -0.009633; 0.010424; 0.291989;,
      -0.022604; 0.004679; 0.291989;,
      -0.023600; 0.044533; 0.286196;,
      -0.023235; 0.041134; 0.291989;,
      -0.009633; 0.010424; 0.291989;,
      -0.008752; 0.011008; 0.286196;,
      -0.023235; 0.041134; 0.291989;,
      -0.036205; 0.035389; 0.291989;,
      -0.022604; 0.004679; 0.291989;,
      -0.009633; 0.010424; 0.291989;,
      -0.036205; 0.035389; 0.291989;,
      -0.038477; 0.037944; 0.286196;,
      -0.023628; 0.004419; 0.286196;,
      -0.022604; 0.004679; 0.291989;,
      -0.032488; 0.058394; 0.177979;,
      -0.030190; 0.053204; 0.177979;,
      -0.030190; 0.053204; 0.175149;,
      -0.032488; 0.058394; 0.175149;,
      -0.042675; 0.047423; 0.204875;,
      -0.046001; 0.054932; 0.198360;,
      -0.042769; 0.053840; 0.177979;,
      -0.040471; 0.048651; 0.177979;,
      -0.046001; 0.054932; 0.198360;,
      -0.031124; 0.061521; 0.198360;,
      -0.032488; 0.058394; 0.177979;,
      -0.042769; 0.053840; 0.177979;,
      -0.027799; 0.054012; 0.204875;,
      -0.042675; 0.047423; 0.204875;,
      -0.040471; 0.048651; 0.177979;,
      -0.030190; 0.053204; 0.177979;,
      -0.030190; 0.053204; 0.175149;,
      -0.040471; 0.048651; 0.175149;,
      -0.042769; 0.053840; 0.175149;,
      -0.032488; 0.058394; 0.175149;,
      -0.042769; 0.053840; 0.177979;,
      -0.032488; 0.058394; 0.177979;,
      -0.032488; 0.058394; 0.175149;,
      -0.042769; 0.053840; 0.175149;,
      -0.040471; 0.048651; 0.177979;,
      -0.042769; 0.053840; 0.177979;,
      -0.042769; 0.053840; 0.175149;,
      -0.040471; 0.048651; 0.175149;,
      -0.030190; 0.053204; 0.175149;,
      -0.030190; 0.053204; 0.177979;,
      -0.028517; 0.049427; 0.177979;,
      -0.028517; 0.049427; 0.175149;,
      -0.028517; 0.049427; 0.177979;,
      -0.038798; 0.044874; 0.177979;,
      -0.038798; 0.044874; 0.175149;,
      -0.028517; 0.049427; 0.175149;,
      -0.040471; 0.048651; 0.175149;,
      -0.030190; 0.053204; 0.175149;,
      -0.028517; 0.049427; 0.175149;,
      -0.038798; 0.044874; 0.175149;,
      -0.040471; 0.048651; 0.177979;,
      -0.040471; 0.048651; 0.175149;,
      -0.038798; 0.044874; 0.175149;,
      -0.038798; 0.044874; 0.177979;,
      -0.030190; 0.053204; 0.177979;,
      -0.040471; 0.048651; 0.177979;,
      -0.038798; 0.044874; 0.177979;,
      -0.028517; 0.049427; 0.177979;,
      -0.073584; 0.112597; 0.251032;,
      -0.055293; 0.120699; 0.251032;,
      -0.068914; 0.151451; 0.243714;,
      -0.087205; 0.143350; 0.243714;,
      -0.069764; 0.108583; 0.196878;,
      -0.069764; 0.108583; 0.245457;,
      -0.073584; 0.112597; 0.251032;,
      -0.073584; 0.112597; 0.191304;,
      -0.069764; 0.108583; 0.245457;,
      -0.054887; 0.115172; 0.245457;,
      -0.055293; 0.120699; 0.251032;,
      -0.073584; 0.112597; 0.251032;,
      -0.054887; 0.115172; 0.196878;,
      -0.069764; 0.108583; 0.196878;,
      -0.073584; 0.112597; 0.191304;,
      -0.055293; 0.120699; 0.191304;,
      -0.087205; 0.143350; 0.243714;,
      -0.068914; 0.151451; 0.243714;,
      -0.077934; 0.171815; 0.247895;,
      -0.096224; 0.163714; 0.247895;,
      -0.055293; 0.120699; 0.191304;,
      -0.073584; 0.112597; 0.191304;,
      -0.087205; 0.143350; 0.183986;,
      -0.068914; 0.151451; 0.183986;,
      -0.055293; 0.120699; 0.251032;,
      -0.055293; 0.120699; 0.191304;,
      -0.068914; 0.151451; 0.183986;,
      -0.068914; 0.151451; 0.243714;,
      -0.073584; 0.112597; 0.191304;,
      -0.073584; 0.112597; 0.251032;,
      -0.087205; 0.143350; 0.243714;,
      -0.087205; 0.143350; 0.183986;,
      -0.077934; 0.171815; 0.247895;,
      -0.077934; 0.171815; 0.188167;,
      -0.092773; 0.205319; 0.214932;,
      -0.084555; 0.186764; 0.271796;,
      -0.068914; 0.151451; 0.183986;,
      -0.087205; 0.143350; 0.183986;,
      -0.096224; 0.163714; 0.188167;,
      -0.077934; 0.171815; 0.188167;,
      -0.068914; 0.151451; 0.243714;,
      -0.068914; 0.151451; 0.183986;,
      -0.077934; 0.171815; 0.188167;,
      -0.077934; 0.171815; 0.247895;,
      -0.087205; 0.143350; 0.183986;,
      -0.087205; 0.143350; 0.243714;,
      -0.096224; 0.163714; 0.247895;,
      -0.096224; 0.163714; 0.188167;,
      -0.111064; 0.197217; 0.214932;,
      -0.102846; 0.178663; 0.271796;,
      -0.107551; 0.182476; 0.281582;,
      -0.118036; 0.206148; 0.209033;,
      -0.096224; 0.163714; 0.188167;,
      -0.096224; 0.163714; 0.247895;,
      -0.102846; 0.178663; 0.271796;,
      -0.111064; 0.197217; 0.214932;,
      -0.096224; 0.163714; 0.247895;,
      -0.077934; 0.171815; 0.247895;,
      -0.084555; 0.186764; 0.271796;,
      -0.102846; 0.178663; 0.271796;,
      -0.077934; 0.171815; 0.188167;,
      -0.096224; 0.163714; 0.188167;,
      -0.111064; 0.197217; 0.214932;,
      -0.092773; 0.205319; 0.214932;,
      -0.094701; 0.216483; 0.209033;,
      -0.118036; 0.206148; 0.209033;,
      -0.107551; 0.182476; 0.281582;,
      -0.084216; 0.192811; 0.281582;,
      -0.084216; 0.192811; 0.281582;,
      -0.107551; 0.182476; 0.281582;,
      -0.106283; 0.177510; 0.296838;,
      -0.081390; 0.188535; 0.296838;,
      -0.118036; 0.206148; 0.209033;,
      -0.094701; 0.216483; 0.209033;,
      -0.116724; 0.276922; 0.057644;,
      -0.140933; 0.266199; 0.057644;,
      -0.084555; 0.186764; 0.271796;,
      -0.092773; 0.205319; 0.214932;,
      -0.094701; 0.216483; 0.209033;,
      -0.084216; 0.192811; 0.281582;,
      -0.113760; 0.270229; 0.053526;,
      -0.137969; 0.259507; 0.053526;,
      -0.140933; 0.266199; 0.057644;,
      -0.116724; 0.276922; 0.057644;,
      -0.092773; 0.205319; 0.214932;,
      -0.111064; 0.197217; 0.214932;,
      -0.137969; 0.259507; 0.053526;,
      -0.113760; 0.270229; 0.053526;,
      -0.094701; 0.216483; 0.209033;,
      -0.092773; 0.205319; 0.214932;,
      -0.113760; 0.270229; 0.053526;,
      -0.116724; 0.276922; 0.057644;,
      -0.111064; 0.197217; 0.214932;,
      -0.118036; 0.206148; 0.209033;,
      -0.140933; 0.266199; 0.057644;,
      -0.137969; 0.259507; 0.053526;,
      -0.104480; 0.173439; 0.294193;,
      -0.079587; 0.184464; 0.294193;,
      -0.081390; 0.188535; 0.296838;,
      -0.106283; 0.177510; 0.296838;,
      -0.102846; 0.178663; 0.271796;,
      -0.084555; 0.186764; 0.271796;,
      -0.079587; 0.184464; 0.294193;,
      -0.104480; 0.173439; 0.294193;,
      -0.084555; 0.186764; 0.271796;,
      -0.084216; 0.192811; 0.281582;,
      -0.081390; 0.188535; 0.296838;,
      -0.079587; 0.184464; 0.294193;,
      -0.107551; 0.182476; 0.281582;,
      -0.102846; 0.178663; 0.271796;,
      -0.104480; 0.173439; 0.294193;,
      -0.106283; 0.177510; 0.296838;,
      -0.023460; 0.004040; 0.239073;,
      -0.023460; 0.004040; 0.204875;,
      -0.004387;-0.039023; 0.204875;,
      -0.004387;-0.039023; 0.239073;,
      -0.023460; 0.004040; 0.204875;,
      -0.008584; 0.010629; 0.204875;,
       0.010489;-0.032434; 0.204875;,
      -0.004387;-0.039023; 0.204875;,
      -0.008584; 0.010629; 0.204875;,
      -0.008584; 0.010629; 0.239073;,
       0.010489;-0.032433; 0.239073;,
       0.010489;-0.032434; 0.204875;,
      -0.008584; 0.010629; 0.239073;,
      -0.023460; 0.004040; 0.239073;,
      -0.004387;-0.039023; 0.239073;,
       0.010489;-0.032433; 0.239073;,
      -0.023460; 0.004040; 0.204875;,
      -0.023460; 0.004040; 0.239073;,
      -0.008584; 0.010629; 0.239073;,
      -0.008584; 0.010629; 0.204875;,
      -0.004387;-0.039023; 0.204875;,
      -0.001062;-0.046531; 0.198360;,
      -0.003578;-0.040851; 0.245457;,
      -0.004387;-0.039023; 0.239073;,
      -0.003578;-0.040851; 0.245457;,
       0.015883;-0.084787; 0.245457;,
       0.030759;-0.078198; 0.245457;,
       0.011299;-0.034262; 0.245457;,
       0.011299;-0.034262; 0.245457;,
       0.008532;-0.028015; 0.283399;,
      -0.006344;-0.034604; 0.283399;,
      -0.003578;-0.040851; 0.245457;,
       0.013815;-0.039942; 0.198360;,
       0.010583;-0.038851; 0.177979;,
       0.008285;-0.033662; 0.177979;,
       0.010489;-0.032434; 0.204875;,
       0.010489;-0.032433; 0.239073;,
       0.011299;-0.034262; 0.245457;,
       0.013815;-0.039942; 0.198360;,
       0.010489;-0.032434; 0.204875;,
       0.030759;-0.078198; 0.245457;,
       0.037578;-0.093593; 0.245457;,
       0.037578;-0.093593; 0.196878;,
       0.030759;-0.078198; 0.196878;,
       0.013815;-0.039942; 0.198360;,
       0.030759;-0.078198; 0.196878;,
       0.015883;-0.084787; 0.196878;,
      -0.001062;-0.046531; 0.198360;,
       0.011299;-0.034262; 0.245457;,
       0.030759;-0.078198; 0.245457;,
       0.030759;-0.078198; 0.196878;,
       0.013815;-0.039942; 0.198360;,
      -0.001062;-0.046531; 0.198360;,
       0.015883;-0.084787; 0.196878;,
       0.015883;-0.084787; 0.245457;,
      -0.003578;-0.040851; 0.245457;,
       0.037578;-0.093593; 0.245457;,
       0.041398;-0.097608; 0.251032;,
       0.041398;-0.097608; 0.191304;,
       0.037578;-0.093593; 0.196878;,
       0.015883;-0.084787; 0.196878;,
       0.022701;-0.100182; 0.196878;,
       0.022701;-0.100182; 0.245457;,
       0.015883;-0.084787; 0.245457;,
       0.015883;-0.084787; 0.245457;,
       0.022701;-0.100182; 0.245457;,
       0.037578;-0.093593; 0.245457;,
       0.030759;-0.078198; 0.245457;,
       0.030759;-0.078198; 0.196878;,
       0.037578;-0.093593; 0.196878;,
       0.022701;-0.100182; 0.196878;,
       0.015883;-0.084787; 0.196878;,
      -0.008586;-0.029544; 0.286196;,
      -0.023434; 0.003981; 0.286196;,
      -0.008558; 0.010570; 0.286196;,
       0.006291;-0.022954; 0.286196;,
      -0.004387;-0.039023; 0.239073;,
      -0.008586;-0.029544; 0.286196;,
       0.006291;-0.022954; 0.286196;,
       0.010489;-0.032433; 0.239073;,
       0.010489;-0.032433; 0.239073;,
       0.006291;-0.022954; 0.286196;,
       0.008532;-0.028015; 0.283399;,
       0.011299;-0.034262; 0.245457;,
      -0.003578;-0.040851; 0.245457;,
      -0.006344;-0.034604; 0.283399;,
      -0.008586;-0.029544; 0.286196;,
      -0.004387;-0.039023; 0.239073;,
      -0.008951;-0.026144; 0.291989;,
      -0.006489;-0.031705; 0.291989;,
       0.006482;-0.025960; 0.291989;,
       0.004019;-0.020399; 0.291989;,
       0.006291;-0.022954; 0.286196;,
       0.004019;-0.020399; 0.291989;,
       0.006482;-0.025960; 0.291989;,
       0.008532;-0.028015; 0.283399;,
       0.008532;-0.028015; 0.283399;,
       0.006482;-0.025960; 0.291989;,
      -0.006489;-0.031705; 0.291989;,
      -0.006344;-0.034604; 0.283399;,
      -0.006344;-0.034604; 0.283399;,
      -0.006489;-0.031705; 0.291989;,
      -0.008951;-0.026144; 0.291989;,
      -0.008586;-0.029544; 0.286196;,
      -0.023434; 0.003981; 0.286196;,
      -0.022553; 0.004565; 0.291989;,
      -0.009582; 0.010310; 0.291989;,
      -0.008558; 0.010570; 0.286196;,
       0.006291;-0.022954; 0.286196;,
      -0.008558; 0.010570; 0.286196;,
      -0.009582; 0.010310; 0.291989;,
       0.004019;-0.020399; 0.291989;,
       0.004019;-0.020399; 0.291989;,
      -0.009582; 0.010310; 0.291989;,
      -0.022553; 0.004565; 0.291989;,
      -0.008951;-0.026144; 0.291989;,
      -0.008951;-0.026144; 0.291989;,
      -0.022553; 0.004565; 0.291989;,
      -0.023434; 0.003981; 0.286196;,
      -0.008586;-0.029544; 0.286196;,
       0.010583;-0.038851; 0.177979;,
       0.010583;-0.038851; 0.175149;,
       0.008285;-0.033662; 0.175149;,
       0.008285;-0.033662; 0.177979;,
      -0.004387;-0.039023; 0.204875;,
      -0.001996;-0.038215; 0.177979;,
       0.000302;-0.043404; 0.177979;,
      -0.001062;-0.046531; 0.198360;,
      -0.001062;-0.046531; 0.198360;,
       0.000302;-0.043404; 0.177979;,
       0.010583;-0.038851; 0.177979;,
       0.013815;-0.039942; 0.198360;,
       0.010489;-0.032434; 0.204875;,
       0.008285;-0.033662; 0.177979;,
      -0.001996;-0.038215; 0.177979;,
      -0.004387;-0.039023; 0.204875;,
       0.008285;-0.033662; 0.175149;,
       0.010583;-0.038851; 0.175149;,
       0.000302;-0.043404; 0.175149;,
      -0.001996;-0.038215; 0.175149;,
       0.000302;-0.043404; 0.177979;,
       0.000302;-0.043404; 0.175149;,
       0.010583;-0.038851; 0.175149;,
       0.010583;-0.038851; 0.177979;,
      -0.001996;-0.038215; 0.177979;,
      -0.001996;-0.038215; 0.175149;,
       0.000302;-0.043404; 0.175149;,
       0.000302;-0.043404; 0.177979;,
       0.008285;-0.033662; 0.175149;,
       0.006612;-0.029884; 0.175149;,
       0.006612;-0.029884; 0.177979;,
       0.008285;-0.033662; 0.177979;,
       0.006612;-0.029884; 0.177979;,
       0.006612;-0.029884; 0.175149;,
      -0.003669;-0.034438; 0.175149;,
      -0.003669;-0.034438; 0.177979;,
      -0.001996;-0.038215; 0.175149;,
      -0.003669;-0.034438; 0.175149;,
       0.006612;-0.029884; 0.175149;,
       0.008285;-0.033662; 0.175149;,
      -0.001996;-0.038215; 0.177979;,
      -0.003669;-0.034438; 0.177979;,
      -0.003669;-0.034438; 0.175149;,
      -0.001996;-0.038215; 0.175149;,
       0.008285;-0.033662; 0.177979;,
       0.006612;-0.029884; 0.177979;,
      -0.003669;-0.034438; 0.177979;,
      -0.001996;-0.038215; 0.177979;,
       0.023107;-0.105709; 0.251032;,
       0.036728;-0.136462; 0.243714;,
       0.055019;-0.128361; 0.243714;,
       0.041398;-0.097608; 0.251032;,
       0.022701;-0.100182; 0.196878;,
       0.023107;-0.105709; 0.191304;,
       0.023107;-0.105709; 0.251032;,
       0.022701;-0.100182; 0.245457;,
       0.022701;-0.100182; 0.245457;,
       0.023107;-0.105709; 0.251032;,
       0.041398;-0.097608; 0.251032;,
       0.037578;-0.093593; 0.245457;,
       0.037578;-0.093593; 0.196878;,
       0.041398;-0.097608; 0.191304;,
       0.023107;-0.105709; 0.191304;,
       0.022701;-0.100182; 0.196878;,
       0.036728;-0.136462; 0.243714;,
       0.045748;-0.156826; 0.247895;,
       0.064038;-0.148724; 0.247895;,
       0.055019;-0.128361; 0.243714;,
       0.041398;-0.097608; 0.191304;,
       0.055019;-0.128361; 0.183986;,
       0.036728;-0.136462; 0.183986;,
       0.023107;-0.105709; 0.191304;,
       0.041398;-0.097608; 0.251032;,
       0.055019;-0.128361; 0.243714;,
       0.055019;-0.128361; 0.183986;,
       0.041398;-0.097608; 0.191304;,
       0.023107;-0.105709; 0.191304;,
       0.036728;-0.136462; 0.183986;,
       0.036728;-0.136462; 0.243714;,
       0.023107;-0.105709; 0.251032;,
       0.064038;-0.148724; 0.247895;,
       0.070660;-0.163674; 0.271796;,
       0.078878;-0.182228; 0.214932;,
       0.064038;-0.148724; 0.188167;,
       0.055019;-0.128361; 0.183986;,
       0.064038;-0.148724; 0.188167;,
       0.045748;-0.156826; 0.188167;,
       0.036728;-0.136462; 0.183986;,
       0.055019;-0.128361; 0.243714;,
       0.064038;-0.148724; 0.247895;,
       0.064038;-0.148724; 0.188167;,
       0.055019;-0.128361; 0.183986;,
       0.036728;-0.136462; 0.183986;,
       0.045748;-0.156826; 0.188167;,
       0.045748;-0.156826; 0.247895;,
       0.036728;-0.136462; 0.243714;,
       0.060587;-0.190329; 0.214932;,
       0.062515;-0.201494; 0.209033;,
       0.052030;-0.177822; 0.281582;,
       0.052369;-0.171775; 0.271796;,
       0.045748;-0.156826; 0.188167;,
       0.060587;-0.190329; 0.214932;,
       0.052369;-0.171775; 0.271796;,
       0.045748;-0.156826; 0.247895;,
       0.045748;-0.156826; 0.247895;,
       0.052369;-0.171775; 0.271796;,
       0.070660;-0.163674; 0.271796;,
       0.064038;-0.148724; 0.247895;,
       0.064038;-0.148724; 0.188167;,
       0.078878;-0.182228; 0.214932;,
       0.060587;-0.190329; 0.214932;,
       0.045748;-0.156826; 0.188167;,
       0.085850;-0.191158; 0.209033;,
       0.075366;-0.167486; 0.281582;,
       0.052030;-0.177822; 0.281582;,
       0.062515;-0.201494; 0.209033;,
       0.075366;-0.167486; 0.281582;,
       0.074097;-0.162520; 0.296838;,
       0.049205;-0.173546; 0.296838;,
       0.052030;-0.177822; 0.281582;,
       0.062515;-0.201494; 0.209033;,
       0.091600;-0.258805; 0.057644;,
       0.115808;-0.248082; 0.057644;,
       0.085850;-0.191158; 0.209033;,
       0.070660;-0.163674; 0.271796;,
       0.075366;-0.167486; 0.281582;,
       0.085850;-0.191158; 0.209033;,
       0.078878;-0.182228; 0.214932;,
       0.112844;-0.241390; 0.053526;,
       0.115808;-0.248082; 0.057644;,
       0.091600;-0.258805; 0.057644;,
       0.088635;-0.252112; 0.053526;,
       0.078878;-0.182228; 0.214932;,
       0.112844;-0.241390; 0.053526;,
       0.088635;-0.252112; 0.053526;,
       0.060587;-0.190329; 0.214932;,
       0.085850;-0.191158; 0.209033;,
       0.115808;-0.248082; 0.057644;,
       0.112844;-0.241390; 0.053526;,
       0.078878;-0.182228; 0.214932;,
       0.060587;-0.190329; 0.214932;,
       0.088635;-0.252112; 0.053526;,
       0.091600;-0.258805; 0.057644;,
       0.062515;-0.201494; 0.209033;,
       0.047401;-0.169475; 0.294193;,
       0.049205;-0.173546; 0.296838;,
       0.074097;-0.162520; 0.296838;,
       0.072294;-0.158449; 0.294193;,
       0.052369;-0.171775; 0.271796;,
       0.047401;-0.169475; 0.294193;,
       0.072294;-0.158449; 0.294193;,
       0.070660;-0.163674; 0.271796;,
       0.070660;-0.163674; 0.271796;,
       0.072294;-0.158449; 0.294193;,
       0.074097;-0.162520; 0.296838;,
       0.075366;-0.167486; 0.281582;,
       0.052030;-0.177822; 0.281582;,
       0.049205;-0.173546; 0.296838;,
       0.047401;-0.169475; 0.294193;,
       0.052369;-0.171775; 0.271796;,
      -0.130339; 0.269843; 0.054931;,
      -0.135988; 0.284248; 0.054931;,
      -0.134976; 0.281964; 0.041971;,
      -0.130339; 0.269843; 0.039274;,
      -0.130339; 0.269843; 0.039274;,
      -0.134976; 0.281964; 0.041971;,
      -0.129105; 0.284564; 0.041971;,
      -0.123245; 0.272985; 0.039274;,
      -0.123245; 0.272985; 0.054931;,
      -0.130117; 0.286849; 0.054931;,
      -0.129105; 0.284564; 0.067891;,
      -0.123245; 0.272985; 0.070589;,
      -0.123245; 0.272985; 0.070589;,
      -0.129105; 0.284564; 0.067891;,
      -0.134976; 0.281964; 0.067891;,
      -0.130339; 0.269843; 0.070589;,
      -0.123496; 0.256044; 0.054931;,
      -0.117625; 0.258645; 0.054931;,
      -0.118608; 0.260865; 0.067891;,
      -0.124480; 0.258264; 0.067891;,
      -0.130117; 0.286849; 0.054931;,
      -0.135988; 0.284248; 0.054931;,
      -0.134976; 0.281964; 0.067891;,
      -0.129105; 0.284564; 0.067891;,
      -0.129105; 0.284564; 0.041971;,
      -0.134976; 0.281964; 0.041971;,
      -0.135988; 0.284248; 0.054931;,
      -0.130117; 0.286849; 0.054931;,
      -0.124480; 0.258264; 0.041971;,
      -0.118608; 0.260865; 0.041971;,
      -0.117625; 0.258645; 0.054931;,
      -0.123496; 0.256044; 0.054931;,
      -0.123245; 0.272985; 0.039274;,
      -0.129105; 0.284564; 0.041971;,
      -0.130117; 0.286849; 0.054931;,
      -0.123245; 0.272985; 0.054931;,
      -0.130339; 0.269843; 0.070589;,
      -0.134976; 0.281964; 0.067891;,
      -0.135988; 0.284248; 0.054931;,
      -0.130339; 0.269843; 0.054931;,
      -0.124480; 0.258264; 0.067891;,
      -0.130339; 0.269843; 0.070589;,
      -0.130339; 0.269843; 0.054931;,
      -0.123496; 0.256044; 0.054931;,
      -0.118608; 0.260865; 0.041971;,
      -0.123245; 0.272985; 0.039274;,
      -0.123245; 0.272985; 0.054931;,
      -0.117625; 0.258645; 0.054931;,
      -0.118608; 0.260865; 0.067891;,
      -0.123245; 0.272985; 0.070589;,
      -0.130339; 0.269843; 0.070589;,
      -0.124480; 0.258264; 0.067891;,
      -0.117625; 0.258645; 0.054931;,
      -0.123245; 0.272985; 0.054931;,
      -0.123245; 0.272985; 0.070589;,
      -0.118608; 0.260865; 0.067891;,
      -0.124480; 0.258264; 0.041971;,
      -0.130339; 0.269843; 0.039274;,
      -0.123245; 0.272985; 0.039274;,
      -0.118608; 0.260865; 0.041971;,
      -0.123496; 0.256044; 0.054931;,
      -0.130339; 0.269843; 0.054931;,
      -0.130339; 0.269843; 0.039274;,
      -0.124480; 0.258264; 0.041971;,
       0.095725;-0.240273; 0.064568;,
      -0.127025; 0.261347; 0.065094;,
      -0.127025; 0.261347; 0.060133;,
       0.095725;-0.240273; 0.060659;,
       0.095725;-0.240273; 0.060659;,
      -0.127025; 0.261347; 0.060133;,
      -0.122489; 0.263355; 0.060133;,
       0.099299;-0.238690; 0.060659;,
       0.099299;-0.238690; 0.060659;,
      -0.122489; 0.263355; 0.060133;,
      -0.122489; 0.263355; 0.065094;,
       0.099299;-0.238690; 0.064568;,
       0.099299;-0.238690; 0.064568;,
      -0.122489; 0.263355; 0.065094;,
      -0.127025; 0.261347; 0.065094;,
       0.095725;-0.240273; 0.064568;,
       0.095725;-0.240273; 0.060659;,
       0.099299;-0.238690; 0.060659;,
       0.099299;-0.238690; 0.064568;,
       0.095725;-0.240273; 0.064568;,
      -0.122489; 0.263355; 0.060133;,
      -0.127025; 0.261347; 0.060133;,
      -0.127025; 0.261347; 0.065094;,
      -0.122489; 0.263355; 0.065094;,
       0.096423;-0.239964; 0.047075;,
      -0.126327; 0.261656; 0.047601;,
      -0.126327; 0.261656; 0.042640;,
       0.096423;-0.239964; 0.043166;,
       0.096423;-0.239964; 0.043166;,
      -0.126327; 0.261656; 0.042640;,
      -0.121792; 0.263664; 0.042640;,
       0.099997;-0.238381; 0.043166;,
       0.099997;-0.238381; 0.043166;,
      -0.121792; 0.263664; 0.042640;,
      -0.121792; 0.263664; 0.047601;,
       0.099997;-0.238381; 0.047075;,
       0.099997;-0.238381; 0.047075;,
      -0.121792; 0.263664; 0.047601;,
      -0.126327; 0.261656; 0.047601;,
       0.096423;-0.239964; 0.047075;,
       0.096423;-0.239964; 0.043166;,
       0.099997;-0.238381; 0.043166;,
       0.099997;-0.238381; 0.047075;,
       0.096423;-0.239964; 0.047075;,
      -0.121792; 0.263664; 0.042640;,
      -0.126327; 0.261656; 0.042640;,
      -0.126327; 0.261656; 0.047601;,
      -0.121792; 0.263664; 0.047601;;
      184;
      4;3,2,1,0;,
      4;7,6,5,4;,
      4;11,10,9,8;,
      4;15,14,13,12;,
      4;19,18,17,16;,
      4;23,22,21,20;,
      4;27,26,25,24;,
      4;31,30,29,28;,
      4;35,34,33,32;,
      4;39,38,37,36;,
      4;43,42,41,40;,
      4;47,46,45,44;,
      4;51,50,49,48;,
      4;55,54,53,52;,
      4;59,58,57,56;,
      4;63,62,61,60;,
      4;67,66,65,64;,
      4;71,70,69,68;,
      4;75,74,73,72;,
      4;79,78,77,76;,
      4;83,82,81,80;,
      4;87,86,85,84;,
      4;91,90,89,88;,
      4;95,94,93,92;,
      4;99,98,97,96;,
      4;103,102,101,100;,
      4;107,106,105,104;,
      4;111,110,109,108;,
      4;115,114,113,112;,
      4;119,118,117,116;,
      4;123,122,121,120;,
      4;127,126,125,124;,
      4;131,130,129,128;,
      4;135,134,133,132;,
      4;139,138,137,136;,
      4;143,142,141,140;,
      4;147,146,145,144;,
      4;151,150,149,148;,
      4;155,154,153,152;,
      4;159,158,157,156;,
      4;163,162,161,160;,
      4;167,166,165,164;,
      4;171,170,169,168;,
      4;175,174,173,172;,
      4;179,178,177,176;,
      4;183,182,181,180;,
      4;187,186,185,184;,
      4;191,190,189,188;,
      4;195,194,193,192;,
      4;199,198,197,196;,
      4;203,202,201,200;,
      4;207,206,205,204;,
      4;211,210,209,208;,
      4;215,214,213,212;,
      4;219,218,217,216;,
      4;223,222,221,220;,
      4;227,226,225,224;,
      4;231,230,229,228;,
      4;235,234,233,232;,
      4;239,238,237,236;,
      4;243,242,241,240;,
      4;247,246,245,244;,
      4;251,250,249,248;,
      4;255,254,253,252;,
      4;259,258,257,256;,
      4;263,262,261,260;,
      4;267,266,265,264;,
      4;271,270,269,268;,
      4;275,274,273,272;,
      4;279,278,277,276;,
      4;283,282,281,280;,
      4;287,286,285,284;,
      4;291,290,289,288;,
      4;295,294,293,292;,
      4;299,298,297,296;,
      4;303,302,301,300;,
      4;307,306,305,304;,
      4;311,310,309,308;,
      4;315,314,313,312;,
      4;319,318,317,316;,
      4;323,322,321,320;,
      4;327,326,325,324;,
      4;331,330,329,328;,
      4;335,334,333,332;,
      4;339,338,337,336;,
      4;343,342,341,340;,
      4;347,346,345,344;,
      4;351,350,349,348;,
      4;355,354,353,352;,
      4;359,358,357,356;,
      4;363,362,361,360;,
      4;367,366,365,364;,
      4;371,370,369,368;,
      4;375,374,373,372;,
      4;379,378,377,376;,
      4;383,382,381,380;,
      4;387,386,385,384;,
      4;391,390,389,388;,
      4;395,394,393,392;,
      4;399,398,397,396;,
      4;403,402,401,400;,
      4;407,406,405,404;,
      4;411,410,409,408;,
      4;415,414,413,412;,
      4;419,418,417,416;,
      4;423,422,421,420;,
      4;427,426,425,424;,
      4;431,430,429,428;,
      4;435,434,433,432;,
      4;439,438,437,436;,
      4;443,442,441,440;,
      4;447,446,445,444;,
      4;451,450,449,448;,
      4;455,454,453,452;,
      4;459,458,457,456;,
      4;463,462,461,460;,
      4;467,466,465,464;,
      4;471,470,469,468;,
      4;475,474,473,472;,
      4;479,478,477,476;,
      4;483,482,481,480;,
      4;487,486,485,484;,
      4;491,490,489,488;,
      4;495,494,493,492;,
      4;499,498,497,496;,
      4;503,502,501,500;,
      4;507,506,505,504;,
      4;511,510,509,508;,
      4;515,514,513,512;,
      4;519,518,517,516;,
      4;523,522,521,520;,
      4;527,526,525,524;,
      4;531,530,529,528;,
      4;535,534,533,532;,
      4;539,538,537,536;,
      4;543,542,541,540;,
      4;547,546,545,544;,
      4;551,550,549,548;,
      4;555,554,553,552;,
      4;559,558,557,556;,
      4;563,562,561,560;,
      4;567,566,565,564;,
      4;571,570,569,568;,
      4;575,574,573,572;,
      4;579,578,577,576;,
      4;583,582,581,580;,
      4;587,586,585,584;,
      4;591,590,589,588;,
      4;595,594,593,592;,
      4;599,598,597,596;,
      4;603,602,601,600;,
      4;607,606,605,604;,
      4;611,610,609,608;,
      4;615,614,613,612;,
      4;619,618,617,616;,
      4;623,622,621,620;,
      4;627,626,625,624;,
      4;631,630,629,628;,
      4;635,634,633,632;,
      4;639,638,637,636;,
      4;643,642,641,640;,
      4;647,646,645,644;,
      4;651,650,649,648;,
      4;655,654,653,652;,
      4;659,658,657,656;,
      4;663,662,661,660;,
      4;667,666,665,664;,
      4;671,670,669,668;,
      4;675,674,673,672;,
      4;679,678,677,676;,
      4;683,682,681,680;,
      4;687,686,685,684;,
      4;691,690,689,688;,
      4;695,694,693,692;,
      4;699,698,697,696;,
      4;703,702,701,700;,
      4;707,706,705,704;,
      4;711,710,709,708;,
      4;715,714,713,712;,
      4;719,718,717,716;,
      4;723,722,721,720;,
      4;727,726,725,724;,
      4;731,730,729,728;,
      4;735,734,733,732;;
      MeshNormals { // Cube_002 normals
        736;
        -0.914304;-0.405011; 0.000000;,
        -0.902646; 0.430372; 0.000000;,
        -0.770837; 0.298074;-0.562944;,
        -0.616535;-0.273110;-0.738426;,
        -0.616535;-0.273110;-0.738426;,
        -0.770837; 0.298074;-0.562944;,
         0.297220; 0.771172;-0.562944;,
         0.616565; 0.273019;-0.738426;,
         0.914335; 0.404920; 0.000000;,
         0.287851; 0.957671; 0.000000;,
         0.297220; 0.771172; 0.562944;,
         0.616565; 0.273019; 0.738426;,
         0.616565; 0.273019; 0.738426;,
         0.297220; 0.771172; 0.562944;,
        -0.770837; 0.298105; 0.562944;,
        -0.616535;-0.273110; 0.738426;,
        -0.289071;-0.957274; 0.000000;,
         0.903195;-0.429212; 0.000000;,
         0.771172;-0.299753; 0.561602;,
        -0.296213;-0.772515; 0.561602;,
         0.287851; 0.957671; 0.000000;,
        -0.902646; 0.430372; 0.000000;,
        -0.770837; 0.298105; 0.562944;,
         0.297220; 0.771172; 0.562944;,
         0.297220; 0.771172;-0.562944;,
        -0.770837; 0.298074;-0.562944;,
        -0.902646; 0.430372; 0.000000;,
         0.287851; 0.957671; 0.000000;,
        -0.296213;-0.772515;-0.561602;,
         0.771172;-0.299753;-0.561602;,
         0.903195;-0.429212; 0.000000;,
        -0.289071;-0.957274; 0.000000;,
         0.616565; 0.273019;-0.738426;,
         0.297220; 0.771172;-0.562944;,
         0.287851; 0.957671; 0.000000;,
         0.914335; 0.404920; 0.000000;,
        -0.616535;-0.273110; 0.738426;,
        -0.770837; 0.298105; 0.562944;,
        -0.902646; 0.430372; 0.000000;,
        -0.914304;-0.405011; 0.000000;,
        -0.296213;-0.772515; 0.561602;,
        -0.616535;-0.273110; 0.738426;,
        -0.914304;-0.405011; 0.000000;,
        -0.289071;-0.957274; 0.000000;,
         0.771172;-0.299753;-0.561602;,
         0.616565; 0.273019;-0.738426;,
         0.914335; 0.404920; 0.000000;,
         0.903195;-0.429212; 0.000000;,
         0.771172;-0.299753; 0.561602;,
         0.616565; 0.273019; 0.738426;,
        -0.616535;-0.273110; 0.738426;,
        -0.296213;-0.772515; 0.561602;,
         0.903195;-0.429212; 0.000000;,
         0.914335; 0.404920; 0.000000;,
         0.616565; 0.273019; 0.738426;,
         0.771172;-0.299753; 0.561602;,
        -0.296213;-0.772515;-0.561602;,
        -0.616535;-0.273110;-0.738426;,
         0.616565; 0.273019;-0.738426;,
         0.771172;-0.299753;-0.561602;,
        -0.289071;-0.957274; 0.000000;,
        -0.914304;-0.405011; 0.000000;,
        -0.616535;-0.273110;-0.738426;,
        -0.296213;-0.772515;-0.561602;,
        -0.294076;-0.761681; 0.577349;,
        -0.732047;-0.640370; 0.232368;,
        -0.705771;-0.631397;-0.321207;,
        -0.294076;-0.761681;-0.577349;,
        -0.294076;-0.761681;-0.577349;,
        -0.705771;-0.631397;-0.321207;,
         0.941862; 0.098331;-0.321207;,
         0.761681;-0.294076;-0.577349;,
         0.761681;-0.294076;-0.577349;,
         0.941862; 0.098331;-0.321207;,
         0.966155; 0.111789; 0.232368;,
         0.761681;-0.294076; 0.577349;,
         0.761681;-0.294076; 0.577349;,
         0.966155; 0.111789; 0.232368;,
        -0.732047;-0.640370; 0.232368;,
        -0.294076;-0.761681; 0.577349;,
        -0.294076;-0.761681;-0.577349;,
         0.761681;-0.294076;-0.577349;,
         0.761681;-0.294076; 0.577349;,
        -0.294076;-0.761681; 0.577349;,
        -0.705771;-0.631397;-0.321207;,
        -0.732047;-0.640370; 0.232368;,
        -0.929258;-0.082308; 0.360088;,
        -0.916135;-0.134983;-0.377392;,
        -0.929258;-0.082308; 0.360088;,
         0.685415; 0.632832; 0.360088;,
         0.646504; 0.286355; 0.707083;,
        -0.646504;-0.286355; 0.707083;,
         0.685415; 0.632832; 0.360088;,
        -0.929258;-0.082308; 0.360088;,
        -0.917447; 0.346294; 0.195868;,
         0.360057; 0.912107; 0.195868;,
         0.715598; 0.587725;-0.377392;,
         0.941862; 0.098331;-0.321207;,
         0.961669; 0.060640; 0.267312;,
         0.369335; 0.925810;-0.080111;,
         0.966155; 0.111789; 0.232368;,
         0.941862; 0.098331;-0.321207;,
         0.715598; 0.587725;-0.377392;,
         0.685415; 0.632832; 0.360088;,
         0.646504; 0.286355; 0.707083;,
         0.648000; 0.273232;-0.710929;,
         0.836146;-0.077273;-0.542985;,
         0.836146;-0.077273; 0.542985;,
         0.715598; 0.587725;-0.377392;,
        -0.916135;-0.134983;-0.377392;,
        -0.637806;-0.296243;-0.710929;,
         0.648000; 0.273232;-0.710929;,
         0.685415; 0.632832; 0.360088;,
         0.715598; 0.587725;-0.377392;,
         0.648000; 0.273232;-0.710929;,
         0.646504; 0.286355; 0.707083;,
        -0.916135;-0.134983;-0.377392;,
        -0.929258;-0.082308; 0.360088;,
        -0.646504;-0.286355; 0.707083;,
        -0.637806;-0.296243;-0.710929;,
         0.836146;-0.077273; 0.542985;,
         0.836146;-0.077273;-0.542985;,
         0.764580;-0.107517;-0.635456;,
         0.681906; 0.007019; 0.731376;,
        -0.637806;-0.296243;-0.710929;,
        -0.646504;-0.286355; 0.707083;,
        -0.504654;-0.671163; 0.542985;,
        -0.504654;-0.671163;-0.542985;,
        -0.646504;-0.286355; 0.707083;,
         0.646504; 0.286355; 0.707083;,
         0.836146;-0.077273; 0.542985;,
        -0.504654;-0.671163; 0.542985;,
         0.648000; 0.273232;-0.710929;,
        -0.637806;-0.296243;-0.710929;,
        -0.504654;-0.671163;-0.542985;,
         0.836146;-0.077273;-0.542985;,
        -0.716819;-0.642018;-0.271981;,
         0.957152; 0.099399;-0.271981;,
         0.805658;-0.255165;-0.534593;,
        -0.352428;-0.768090;-0.534593;,
        -0.732047;-0.640370; 0.232368;,
         0.966155; 0.111789; 0.232368;,
         0.957152; 0.099399;-0.271981;,
        -0.716819;-0.642018;-0.271981;,
         0.966155; 0.111789; 0.232368;,
         0.685415; 0.632832; 0.360088;,
         0.360057; 0.912107; 0.195868;,
         0.957152; 0.099399;-0.271981;,
        -0.929258;-0.082308; 0.360088;,
        -0.732047;-0.640370; 0.232368;,
        -0.716819;-0.642018;-0.271981;,
        -0.917447; 0.346294; 0.195868;,
        -0.591998;-0.252937; 0.765191;,
         0.585131; 0.268441; 0.765191;,
         0.293130; 0.662679; 0.689108;,
        -0.687735; 0.228248; 0.689108;,
         0.957152; 0.099399;-0.271981;,
         0.360057; 0.912107; 0.195868;,
         0.293130; 0.662679; 0.689108;,
         0.585131; 0.268441; 0.765191;,
         0.360057; 0.912107; 0.195868;,
        -0.917447; 0.346294; 0.195868;,
        -0.687735; 0.228248; 0.689108;,
         0.293130; 0.662679; 0.689108;,
        -0.917447; 0.346294; 0.195868;,
        -0.716819;-0.642018;-0.271981;,
        -0.591998;-0.252937; 0.765191;,
        -0.687735; 0.228248; 0.689108;,
        -0.352428;-0.768090;-0.534593;,
         0.805658;-0.255165;-0.534593;,
         0.715873;-0.336375; 0.611835;,
        -0.231941;-0.756188; 0.611835;,
         0.957152; 0.099399;-0.271981;,
         0.585131; 0.268441; 0.765191;,
         0.715873;-0.336375; 0.611835;,
         0.805658;-0.255165;-0.534593;,
         0.585131; 0.268441; 0.765191;,
        -0.591998;-0.252937; 0.765191;,
        -0.231941;-0.756188; 0.611835;,
         0.715873;-0.336375; 0.611835;,
        -0.591998;-0.252937; 0.765191;,
        -0.716819;-0.642018;-0.271981;,
        -0.352428;-0.768090;-0.534593;,
        -0.231941;-0.756188; 0.611835;,
         0.369335; 0.925810;-0.080111;,
         0.961669; 0.060640; 0.267312;,
         0.646504; 0.286355;-0.707083;,
         0.294076; 0.761681;-0.577349;,
        -0.705771;-0.631397;-0.321207;,
        -0.916135;-0.134983;-0.377392;,
        -0.933805; 0.348643;-0.080111;,
        -0.691183;-0.671407; 0.267312;,
        -0.916135;-0.134983;-0.377392;,
         0.715598; 0.587725;-0.377392;,
         0.369335; 0.925810;-0.080111;,
        -0.933805; 0.348643;-0.080111;,
         0.941862; 0.098331;-0.321207;,
        -0.705771;-0.631397;-0.321207;,
        -0.691183;-0.671407; 0.267312;,
         0.961669; 0.060640; 0.267312;,
         0.646504; 0.286355;-0.707083;,
        -0.646504;-0.286355;-0.707083;,
        -0.761681; 0.294076;-0.577349;,
         0.294076; 0.761681;-0.577349;,
        -0.933805; 0.348643;-0.080111;,
         0.369335; 0.925810;-0.080111;,
         0.294076; 0.761681;-0.577349;,
        -0.761681; 0.294076;-0.577349;,
        -0.691183;-0.671407; 0.267312;,
        -0.933805; 0.348643;-0.080111;,
        -0.761681; 0.294076;-0.577349;,
        -0.646504;-0.286355;-0.707083;,
         0.646504; 0.286355;-0.707083;,
         0.961669; 0.060640; 0.267312;,
         0.761681;-0.294076; 0.577349;,
         0.761681;-0.294076;-0.577349;,
         0.761681;-0.294076; 0.577349;,
        -0.294076;-0.761681; 0.577349;,
        -0.294076;-0.761681;-0.577349;,
         0.761681;-0.294076;-0.577349;,
        -0.646504;-0.286355;-0.707083;,
         0.646504; 0.286355;-0.707083;,
         0.761681;-0.294076;-0.577349;,
        -0.294076;-0.761681;-0.577349;,
        -0.691183;-0.671407; 0.267312;,
        -0.646504;-0.286355;-0.707083;,
        -0.294076;-0.761681;-0.577349;,
        -0.294076;-0.761681; 0.577349;,
         0.961669; 0.060640; 0.267312;,
        -0.691183;-0.671407; 0.267312;,
        -0.294076;-0.761681; 0.577349;,
         0.761681;-0.294076; 0.577349;,
        -0.463454;-0.500229; 0.731376;,
         0.681906; 0.007019; 0.731376;,
         0.686178; 0.314188; 0.656056;,
        -0.693777;-0.297006; 0.656056;,
        -0.504654;-0.671163;-0.542985;,
        -0.504654;-0.671163; 0.542985;,
        -0.463454;-0.500229; 0.731376;,
        -0.434187;-0.638478;-0.635456;,
        -0.504654;-0.671163; 0.542985;,
         0.836146;-0.077273; 0.542985;,
         0.681906; 0.007019; 0.731376;,
        -0.463454;-0.500229; 0.731376;,
         0.836146;-0.077273;-0.542985;,
        -0.504654;-0.671163;-0.542985;,
        -0.434187;-0.638478;-0.635456;,
         0.764580;-0.107517;-0.635456;,
        -0.693777;-0.297006; 0.656056;,
         0.686178; 0.314188; 0.656056;,
         0.866817; 0.028626; 0.497757;,
        -0.603717;-0.622669; 0.497757;,
         0.764580;-0.107517;-0.635456;,
        -0.434187;-0.638478;-0.635456;,
        -0.603717;-0.279092;-0.746727;,
         0.612354; 0.259529;-0.746727;,
         0.681906; 0.007019; 0.731376;,
         0.764580;-0.107517;-0.635456;,
         0.612354; 0.259529;-0.746727;,
         0.686178; 0.314188; 0.656056;,
        -0.434187;-0.638478;-0.635456;,
        -0.463454;-0.500229; 0.731376;,
        -0.693777;-0.297006; 0.656056;,
        -0.603717;-0.279092;-0.746727;,
         0.866817; 0.028626; 0.497757;,
         0.483322; 0.539994;-0.689016;,
         0.908750; 0.128056;-0.397137;,
         0.933470;-0.355754; 0.045320;,
         0.612354; 0.259529;-0.746727;,
        -0.603717;-0.279092;-0.746727;,
        -0.724693; 0.004944;-0.689016;,
         0.483322; 0.539994;-0.689016;,
         0.686178; 0.314188; 0.656056;,
         0.612354; 0.259529;-0.746727;,
         0.483322; 0.539994;-0.689016;,
         0.866817; 0.028626; 0.497757;,
        -0.603717;-0.279092;-0.746727;,
        -0.693777;-0.297006; 0.656056;,
        -0.603717;-0.622669; 0.497757;,
        -0.724693; 0.004944;-0.689016;,
        -0.708884;-0.580859;-0.400006;,
        -0.363811;-0.930357; 0.045320;,
        -0.952696; 0.262307; 0.153447;,
        -0.952574; 0.212928; 0.217292;,
        -0.724693; 0.004944;-0.689016;,
        -0.603717;-0.622669; 0.497757;,
        -0.363811;-0.930357; 0.045320;,
        -0.708884;-0.580859;-0.400006;,
        -0.603717;-0.622669; 0.497757;,
         0.866817; 0.028626; 0.497757;,
         0.933470;-0.355754; 0.045320;,
        -0.363811;-0.930357; 0.045320;,
         0.483322; 0.539994;-0.689016;,
        -0.724693; 0.004944;-0.689016;,
        -0.708884;-0.580859;-0.400006;,
         0.908750; 0.128056;-0.397137;,
         0.472945; 0.845515; 0.247719;,
        -0.952574; 0.212928; 0.217292;,
        -0.952696; 0.262307; 0.153447;,
         0.445936; 0.881771; 0.153447;,
         0.445936; 0.881771; 0.153447;,
        -0.952696; 0.262307; 0.153447;,
        -0.656117;-0.036195; 0.753746;,
         0.467727; 0.461562; 0.753746;,
        -0.952574; 0.212928; 0.217292;,
         0.472945; 0.845515; 0.247719;,
         0.274453; 0.912412;-0.303507;,
        -0.849849; 0.416242;-0.323222;,
         0.933470;-0.355754; 0.045320;,
         0.908750; 0.128056;-0.397137;,
         0.472945; 0.845515; 0.247719;,
         0.445936; 0.881771; 0.153447;,
         0.637226;-0.078372;-0.766656;,
        -0.349956;-0.523606;-0.776727;,
        -0.849849; 0.416242;-0.323222;,
         0.274453; 0.912412;-0.303507;,
         0.908750; 0.128056;-0.397137;,
        -0.708884;-0.580859;-0.400006;,
        -0.349956;-0.523606;-0.776727;,
         0.637226;-0.078372;-0.766656;,
         0.472945; 0.845515; 0.247719;,
         0.908750; 0.128056;-0.397137;,
         0.637226;-0.078372;-0.766656;,
         0.274453; 0.912412;-0.303507;,
        -0.708884;-0.580859;-0.400006;,
        -0.952574; 0.212928; 0.217292;,
        -0.849849; 0.416242;-0.323222;,
        -0.349956;-0.523606;-0.776727;,
        -0.242897;-0.934049; 0.261696;,
         0.854946;-0.447798; 0.261696;,
         0.467727; 0.461562; 0.753746;,
        -0.656117;-0.036195; 0.753746;,
        -0.363811;-0.930357; 0.045320;,
         0.933470;-0.355754; 0.045320;,
         0.854946;-0.447798; 0.261696;,
        -0.242897;-0.934049; 0.261696;,
         0.933470;-0.355754; 0.045320;,
         0.445936; 0.881771; 0.153447;,
         0.467727; 0.461562; 0.753746;,
         0.854946;-0.447798; 0.261696;,
        -0.952696; 0.262307; 0.153447;,
        -0.363811;-0.930357; 0.045320;,
        -0.242897;-0.934049; 0.261696;,
        -0.656117;-0.036195; 0.753746;,
        -0.761681; 0.294076; 0.577349;,
        -0.761681; 0.294076;-0.577349;,
        -0.941862;-0.098331;-0.321207;,
        -0.966155;-0.111789; 0.232368;,
        -0.761681; 0.294076;-0.577349;,
         0.294076; 0.761681;-0.577349;,
         0.705771; 0.631397;-0.321207;,
        -0.941862;-0.098331;-0.321207;,
         0.294076; 0.761681;-0.577349;,
         0.294076; 0.761681; 0.577349;,
         0.732047; 0.640370; 0.232368;,
         0.705771; 0.631397;-0.321207;,
         0.294076; 0.761681; 0.577349;,
        -0.761681; 0.294076; 0.577349;,
        -0.966155;-0.111789; 0.232368;,
         0.732047; 0.640370; 0.232368;,
        -0.761681; 0.294076;-0.577349;,
        -0.761681; 0.294076; 0.577349;,
         0.294076; 0.761681; 0.577349;,
         0.294076; 0.761681;-0.577349;,
        -0.941862;-0.098331;-0.321207;,
        -0.715598;-0.587725;-0.377392;,
        -0.685415;-0.632832; 0.360088;,
        -0.966155;-0.111789; 0.232368;,
        -0.685415;-0.632832; 0.360088;,
        -0.646504;-0.286355; 0.707083;,
         0.646504; 0.286355; 0.707083;,
         0.929258; 0.082308; 0.360088;,
         0.929258; 0.082308; 0.360088;,
         0.917447;-0.346294; 0.195868;,
        -0.360057;-0.912107; 0.195868;,
        -0.685415;-0.632832; 0.360088;,
         0.916135; 0.134983;-0.377392;,
         0.933805;-0.348643;-0.080111;,
         0.691183; 0.671407; 0.267312;,
         0.705771; 0.631397;-0.321207;,
         0.732047; 0.640370; 0.232368;,
         0.929258; 0.082308; 0.360088;,
         0.916135; 0.134983;-0.377392;,
         0.705771; 0.631397;-0.321207;,
         0.646504; 0.286355; 0.707083;,
         0.504654; 0.671163; 0.542985;,
         0.504654; 0.671163;-0.542985;,
         0.637806; 0.296243;-0.710929;,
         0.916135; 0.134983;-0.377392;,
         0.637806; 0.296243;-0.710929;,
        -0.648000;-0.273232;-0.710929;,
        -0.715598;-0.587725;-0.377392;,
         0.929258; 0.082308; 0.360088;,
         0.646504; 0.286355; 0.707083;,
         0.637806; 0.296243;-0.710929;,
         0.916135; 0.134983;-0.377392;,
        -0.715598;-0.587725;-0.377392;,
        -0.648000;-0.273232;-0.710929;,
        -0.646504;-0.286355; 0.707083;,
        -0.685415;-0.632832; 0.360088;,
         0.504654; 0.671163; 0.542985;,
         0.463454; 0.500229; 0.731376;,
         0.434187; 0.638478;-0.635456;,
         0.504654; 0.671163;-0.542985;,
        -0.648000;-0.273232;-0.710929;,
        -0.836146; 0.077273;-0.542985;,
        -0.836146; 0.077273; 0.542985;,
        -0.646504;-0.286355; 0.707083;,
        -0.646504;-0.286355; 0.707083;,
        -0.836146; 0.077273; 0.542985;,
         0.504654; 0.671163; 0.542985;,
         0.646504; 0.286355; 0.707083;,
         0.637806; 0.296243;-0.710929;,
         0.504654; 0.671163;-0.542985;,
        -0.836146; 0.077273;-0.542985;,
        -0.648000;-0.273232;-0.710929;,
        -0.957152;-0.099399;-0.271981;,
        -0.805658; 0.255165;-0.534593;,
         0.352428; 0.768090;-0.534593;,
         0.716819; 0.642018;-0.271981;,
        -0.966155;-0.111789; 0.232368;,
        -0.957152;-0.099399;-0.271981;,
         0.716819; 0.642018;-0.271981;,
         0.732047; 0.640370; 0.232368;,
         0.732047; 0.640370; 0.232368;,
         0.716819; 0.642018;-0.271981;,
         0.917447;-0.346294; 0.195868;,
         0.929258; 0.082308; 0.360088;,
        -0.685415;-0.632832; 0.360088;,
        -0.360057;-0.912107; 0.195868;,
        -0.957152;-0.099399;-0.271981;,
        -0.966155;-0.111789; 0.232368;,
        -0.585131;-0.268441; 0.765191;,
        -0.293130;-0.662679; 0.689108;,
         0.687735;-0.228248; 0.689108;,
         0.591998; 0.252937; 0.765191;,
         0.716819; 0.642018;-0.271981;,
         0.591998; 0.252937; 0.765191;,
         0.687735;-0.228248; 0.689108;,
         0.917447;-0.346294; 0.195868;,
         0.917447;-0.346294; 0.195868;,
         0.687735;-0.228248; 0.689108;,
        -0.293130;-0.662679; 0.689108;,
        -0.360057;-0.912107; 0.195868;,
        -0.360057;-0.912107; 0.195868;,
        -0.293130;-0.662679; 0.689108;,
        -0.585131;-0.268441; 0.765191;,
        -0.957152;-0.099399;-0.271981;,
        -0.805658; 0.255165;-0.534593;,
        -0.715873; 0.336375; 0.611835;,
         0.231941; 0.756188; 0.611835;,
         0.352428; 0.768090;-0.534593;,
         0.716819; 0.642018;-0.271981;,
         0.352428; 0.768090;-0.534593;,
         0.231941; 0.756188; 0.611835;,
         0.591998; 0.252937; 0.765191;,
         0.591998; 0.252937; 0.765191;,
         0.231941; 0.756188; 0.611835;,
        -0.715873; 0.336375; 0.611835;,
        -0.585131;-0.268441; 0.765191;,
        -0.585131;-0.268441; 0.765191;,
        -0.715873; 0.336375; 0.611835;,
        -0.805658; 0.255165;-0.534593;,
        -0.957152;-0.099399;-0.271981;,
         0.933805;-0.348643;-0.080111;,
         0.761681;-0.294076;-0.577349;,
         0.646504; 0.286355;-0.707083;,
         0.691183; 0.671407; 0.267312;,
        -0.941862;-0.098331;-0.321207;,
        -0.961669;-0.060640; 0.267312;,
        -0.369335;-0.925810;-0.080111;,
        -0.715598;-0.587725;-0.377392;,
        -0.715598;-0.587725;-0.377392;,
        -0.369335;-0.925810;-0.080111;,
         0.933805;-0.348643;-0.080111;,
         0.916135; 0.134983;-0.377392;,
         0.705771; 0.631397;-0.321207;,
         0.691183; 0.671407; 0.267312;,
        -0.961669;-0.060640; 0.267312;,
        -0.941862;-0.098331;-0.321207;,
         0.646504; 0.286355;-0.707083;,
         0.761681;-0.294076;-0.577349;,
        -0.294076;-0.761681;-0.577349;,
        -0.646504;-0.286355;-0.707083;,
        -0.369335;-0.925810;-0.080111;,
        -0.294076;-0.761681;-0.577349;,
         0.761681;-0.294076;-0.577349;,
         0.933805;-0.348643;-0.080111;,
        -0.961669;-0.060640; 0.267312;,
        -0.646504;-0.286355;-0.707083;,
        -0.294076;-0.761681;-0.577349;,
        -0.369335;-0.925810;-0.080111;,
         0.646504; 0.286355;-0.707083;,
         0.294076; 0.761681;-0.577349;,
         0.294076; 0.761681; 0.577349;,
         0.691183; 0.671407; 0.267312;,
         0.294076; 0.761681; 0.577349;,
         0.294076; 0.761681;-0.577349;,
        -0.761681; 0.294076;-0.577349;,
        -0.761681; 0.294076; 0.577349;,
        -0.646504;-0.286355;-0.707083;,
        -0.761681; 0.294076;-0.577349;,
         0.294076; 0.761681;-0.577349;,
         0.646504; 0.286355;-0.707083;,
        -0.961669;-0.060640; 0.267312;,
        -0.761681; 0.294076; 0.577349;,
        -0.761681; 0.294076;-0.577349;,
        -0.646504;-0.286355;-0.707083;,
         0.691183; 0.671407; 0.267312;,
         0.294076; 0.761681; 0.577349;,
        -0.761681; 0.294076; 0.577349;,
        -0.961669;-0.060640; 0.267312;,
        -0.681906;-0.007019; 0.731376;,
        -0.686178;-0.314188; 0.656056;,
         0.693777; 0.297006; 0.656056;,
         0.463454; 0.500229; 0.731376;,
        -0.836146; 0.077273;-0.542985;,
        -0.764580; 0.107517;-0.635456;,
        -0.681906;-0.007019; 0.731376;,
        -0.836146; 0.077273; 0.542985;,
        -0.836146; 0.077273; 0.542985;,
        -0.681906;-0.007019; 0.731376;,
         0.463454; 0.500229; 0.731376;,
         0.504654; 0.671163; 0.542985;,
         0.504654; 0.671163;-0.542985;,
         0.434187; 0.638478;-0.635456;,
        -0.764580; 0.107517;-0.635456;,
        -0.836146; 0.077273;-0.542985;,
        -0.686178;-0.314188; 0.656056;,
        -0.866817;-0.028626; 0.497757;,
         0.603717; 0.622669; 0.497757;,
         0.693777; 0.297006; 0.656056;,
         0.434187; 0.638478;-0.635456;,
         0.603717; 0.279092;-0.746727;,
        -0.612354;-0.259529;-0.746727;,
        -0.764580; 0.107517;-0.635456;,
         0.463454; 0.500229; 0.731376;,
         0.693777; 0.297006; 0.656056;,
         0.603717; 0.279092;-0.746727;,
         0.434187; 0.638478;-0.635456;,
        -0.764580; 0.107517;-0.635456;,
        -0.612354;-0.259529;-0.746727;,
        -0.686178;-0.314188; 0.656056;,
        -0.681906;-0.007019; 0.731376;,
         0.603717; 0.622669; 0.497757;,
         0.363811; 0.930357; 0.045320;,
         0.705527; 0.586932;-0.397137;,
         0.724693;-0.004944;-0.689016;,
         0.603717; 0.279092;-0.746727;,
         0.724693;-0.004944;-0.689016;,
        -0.483322;-0.539994;-0.689016;,
        -0.612354;-0.259529;-0.746727;,
         0.693777; 0.297006; 0.656056;,
         0.603717; 0.622669; 0.497757;,
         0.724693;-0.004944;-0.689016;,
         0.603717; 0.279092;-0.746727;,
        -0.612354;-0.259529;-0.746727;,
        -0.483322;-0.539994;-0.689016;,
        -0.866817;-0.028626; 0.497757;,
        -0.686178;-0.314188; 0.656056;,
        -0.906552;-0.134617;-0.400006;,
        -0.482437;-0.848506; 0.217292;,
        -0.445936;-0.881771; 0.153447;,
        -0.933470; 0.355754; 0.045320;,
        -0.483322;-0.539994;-0.689016;,
        -0.906552;-0.134617;-0.400006;,
        -0.933470; 0.355754; 0.045320;,
        -0.866817;-0.028626; 0.497757;,
        -0.866817;-0.028626; 0.497757;,
        -0.933470; 0.355754; 0.045320;,
         0.363811; 0.930357; 0.045320;,
         0.603717; 0.622669; 0.497757;,
         0.724693;-0.004944;-0.689016;,
         0.705527; 0.586932;-0.397137;,
        -0.906552;-0.134617;-0.400006;,
        -0.483322;-0.539994;-0.689016;,
         0.943968;-0.217933; 0.247719;,
         0.952696;-0.262307; 0.153447;,
        -0.445936;-0.881771; 0.153447;,
        -0.482437;-0.848506; 0.217292;,
         0.952696;-0.262307; 0.153447;,
         0.656117; 0.036195; 0.753746;,
        -0.467727;-0.461562; 0.753746;,
        -0.445936;-0.881771; 0.153447;,
        -0.482437;-0.848506; 0.217292;,
        -0.262856;-0.909055;-0.323222;,
         0.860134;-0.409864;-0.303507;,
         0.943968;-0.217933; 0.247719;,
         0.363811; 0.930357; 0.045320;,
         0.952696;-0.262307; 0.153447;,
         0.943968;-0.217933; 0.247719;,
         0.705527; 0.586932;-0.397137;,
         0.370159; 0.524552;-0.766656;,
         0.860134;-0.409864;-0.303507;,
        -0.262856;-0.909055;-0.323222;,
        -0.622944; 0.092685;-0.776727;,
         0.705527; 0.586932;-0.397137;,
         0.370159; 0.524552;-0.766656;,
        -0.622944; 0.092685;-0.776727;,
        -0.906552;-0.134617;-0.400006;,
         0.943968;-0.217933; 0.247719;,
         0.860134;-0.409864;-0.303507;,
         0.370159; 0.524552;-0.766656;,
         0.705527; 0.586932;-0.397137;,
        -0.906552;-0.134617;-0.400006;,
        -0.622944; 0.092685;-0.776727;,
        -0.262856;-0.909055;-0.323222;,
        -0.482437;-0.848506; 0.217292;,
        -0.854946; 0.447798; 0.261696;,
        -0.467727;-0.461562; 0.753746;,
         0.656117; 0.036195; 0.753746;,
         0.242897; 0.934049; 0.261696;,
        -0.933470; 0.355754; 0.045320;,
        -0.854946; 0.447798; 0.261696;,
         0.242897; 0.934049; 0.261696;,
         0.363811; 0.930357; 0.045320;,
         0.363811; 0.930357; 0.045320;,
         0.242897; 0.934049; 0.261696;,
         0.656117; 0.036195; 0.753746;,
         0.952696;-0.262307; 0.153447;,
        -0.445936;-0.881771; 0.153447;,
        -0.467727;-0.461562; 0.753746;,
        -0.854946; 0.447798; 0.261696;,
        -0.933470; 0.355754; 0.045320;,
        -0.914304;-0.405011; 0.000000;,
        -0.902646; 0.430372; 0.000000;,
        -0.770837; 0.298074;-0.562944;,
        -0.616535;-0.273110;-0.738426;,
        -0.616535;-0.273110;-0.738426;,
        -0.770837; 0.298074;-0.562944;,
         0.297220; 0.771172;-0.562944;,
         0.616565; 0.273019;-0.738426;,
         0.914335; 0.404920; 0.000000;,
         0.287851; 0.957671; 0.000000;,
         0.297220; 0.771172; 0.562944;,
         0.616565; 0.273019; 0.738426;,
         0.616565; 0.273019; 0.738426;,
         0.297220; 0.771172; 0.562944;,
        -0.770837; 0.298074; 0.562944;,
        -0.616535;-0.273110; 0.738426;,
        -0.289071;-0.957274; 0.000000;,
         0.903195;-0.429212; 0.000000;,
         0.771172;-0.299753; 0.561602;,
        -0.296213;-0.772515; 0.561602;,
         0.287851; 0.957671; 0.000000;,
        -0.902646; 0.430372; 0.000000;,
        -0.770837; 0.298074; 0.562944;,
         0.297220; 0.771172; 0.562944;,
         0.297220; 0.771172;-0.562944;,
        -0.770837; 0.298074;-0.562944;,
        -0.902646; 0.430372; 0.000000;,
         0.287851; 0.957671; 0.000000;,
        -0.296213;-0.772515;-0.561602;,
         0.771172;-0.299753;-0.561602;,
         0.903195;-0.429212; 0.000000;,
        -0.289071;-0.957274; 0.000000;,
         0.616565; 0.273019;-0.738426;,
         0.297220; 0.771172;-0.562944;,
         0.287851; 0.957671; 0.000000;,
         0.914335; 0.404920; 0.000000;,
        -0.616535;-0.273110; 0.738426;,
        -0.770837; 0.298074; 0.562944;,
        -0.902646; 0.430372; 0.000000;,
        -0.914304;-0.405011; 0.000000;,
        -0.296213;-0.772515; 0.561602;,
        -0.616535;-0.273110; 0.738426;,
        -0.914304;-0.405011; 0.000000;,
        -0.289071;-0.957274; 0.000000;,
         0.771172;-0.299753;-0.561602;,
         0.616565; 0.273019;-0.738426;,
         0.914335; 0.404920; 0.000000;,
         0.903195;-0.429212; 0.000000;,
         0.771172;-0.299753; 0.561602;,
         0.616565; 0.273019; 0.738426;,
        -0.616535;-0.273110; 0.738426;,
        -0.296213;-0.772515; 0.561602;,
         0.903195;-0.429212; 0.000000;,
         0.914335; 0.404920; 0.000000;,
         0.616565; 0.273019; 0.738426;,
         0.771172;-0.299753; 0.561602;,
        -0.296213;-0.772515;-0.561602;,
        -0.616535;-0.273110;-0.738426;,
         0.616565; 0.273019;-0.738426;,
         0.771172;-0.299753;-0.561602;,
        -0.289071;-0.957274; 0.000000;,
        -0.914304;-0.405011; 0.000000;,
        -0.616535;-0.273110;-0.738426;,
        -0.296213;-0.772515;-0.561602;,
        -0.293619;-0.762047; 0.577074;,
        -0.761711; 0.293497; 0.577593;,
        -0.761711; 0.293497;-0.577593;,
        -0.293619;-0.762047;-0.577074;,
        -0.293619;-0.762047;-0.577074;,
        -0.761711; 0.293497;-0.577593;,
         0.294504; 0.761315;-0.577593;,
         0.761650;-0.294626;-0.577074;,
         0.761650;-0.294626;-0.577074;,
         0.294504; 0.761315;-0.577593;,
         0.294504; 0.761315; 0.577593;,
         0.761650;-0.294626; 0.577074;,
         0.761650;-0.294626; 0.577074;,
         0.294504; 0.761315; 0.577593;,
        -0.761711; 0.293497; 0.577593;,
        -0.293619;-0.762047; 0.577074;,
        -0.293619;-0.762047;-0.577074;,
         0.761650;-0.294626;-0.577074;,
         0.761650;-0.294626; 0.577074;,
        -0.293619;-0.762047; 0.577074;,
         0.294504; 0.761315;-0.577593;,
        -0.761711; 0.293497;-0.577593;,
        -0.761711; 0.293497; 0.577593;,
         0.294504; 0.761315; 0.577593;,
        -0.293619;-0.762047; 0.577074;,
        -0.761711; 0.293497; 0.577593;,
        -0.761711; 0.293497;-0.577593;,
        -0.293619;-0.762047;-0.577074;,
        -0.293619;-0.762047;-0.577074;,
        -0.761711; 0.293497;-0.577593;,
         0.294504; 0.761315;-0.577593;,
         0.761650;-0.294626;-0.577074;,
         0.761650;-0.294626;-0.577074;,
         0.294504; 0.761315;-0.577593;,
         0.294504; 0.761315; 0.577593;,
         0.761650;-0.294626; 0.577074;,
         0.761650;-0.294626; 0.577074;,
         0.294504; 0.761315; 0.577593;,
        -0.761711; 0.293497; 0.577593;,
        -0.293619;-0.762047; 0.577074;,
        -0.293619;-0.762047;-0.577074;,
         0.761650;-0.294626;-0.577074;,
         0.761650;-0.294626; 0.577074;,
        -0.293619;-0.762047; 0.577074;,
         0.294504; 0.761315;-0.577593;,
        -0.761711; 0.293497;-0.577593;,
        -0.761711; 0.293497; 0.577593;,
         0.294504; 0.761315; 0.577593;;
        184;
        4;3,2,1,0;,
        4;7,6,5,4;,
        4;11,10,9,8;,
        4;15,14,13,12;,
        4;19,18,17,16;,
        4;23,22,21,20;,
        4;27,26,25,24;,
        4;31,30,29,28;,
        4;35,34,33,32;,
        4;39,38,37,36;,
        4;43,42,41,40;,
        4;47,46,45,44;,
        4;51,50,49,48;,
        4;55,54,53,52;,
        4;59,58,57,56;,
        4;63,62,61,60;,
        4;67,66,65,64;,
        4;71,70,69,68;,
        4;75,74,73,72;,
        4;79,78,77,76;,
        4;83,82,81,80;,
        4;87,86,85,84;,
        4;91,90,89,88;,
        4;95,94,93,92;,
        4;99,98,97,96;,
        4;103,102,101,100;,
        4;107,106,105,104;,
        4;111,110,109,108;,
        4;115,114,113,112;,
        4;119,118,117,116;,
        4;123,122,121,120;,
        4;127,126,125,124;,
        4;131,130,129,128;,
        4;135,134,133,132;,
        4;139,138,137,136;,
        4;143,142,141,140;,
        4;147,146,145,144;,
        4;151,150,149,148;,
        4;155,154,153,152;,
        4;159,158,157,156;,
        4;163,162,161,160;,
        4;167,166,165,164;,
        4;171,170,169,168;,
        4;175,174,173,172;,
        4;179,178,177,176;,
        4;183,182,181,180;,
        4;187,186,185,184;,
        4;191,190,189,188;,
        4;195,194,193,192;,
        4;199,198,197,196;,
        4;203,202,201,200;,
        4;207,206,205,204;,
        4;211,210,209,208;,
        4;215,214,213,212;,
        4;219,218,217,216;,
        4;223,222,221,220;,
        4;227,226,225,224;,
        4;231,230,229,228;,
        4;235,234,233,232;,
        4;239,238,237,236;,
        4;243,242,241,240;,
        4;247,246,245,244;,
        4;251,250,249,248;,
        4;255,254,253,252;,
        4;259,258,257,256;,
        4;263,262,261,260;,
        4;267,266,265,264;,
        4;271,270,269,268;,
        4;275,274,273,272;,
        4;279,278,277,276;,
        4;283,282,281,280;,
        4;287,286,285,284;,
        4;291,290,289,288;,
        4;295,294,293,292;,
        4;299,298,297,296;,
        4;303,302,301,300;,
        4;307,306,305,304;,
        4;311,310,309,308;,
        4;315,314,313,312;,
        4;319,318,317,316;,
        4;323,322,321,320;,
        4;327,326,325,324;,
        4;331,330,329,328;,
        4;335,334,333,332;,
        4;339,338,337,336;,
        4;343,342,341,340;,
        4;347,346,345,344;,
        4;351,350,349,348;,
        4;355,354,353,352;,
        4;359,358,357,356;,
        4;363,362,361,360;,
        4;367,366,365,364;,
        4;371,370,369,368;,
        4;375,374,373,372;,
        4;379,378,377,376;,
        4;383,382,381,380;,
        4;387,386,385,384;,
        4;391,390,389,388;,
        4;395,394,393,392;,
        4;399,398,397,396;,
        4;403,402,401,400;,
        4;407,406,405,404;,
        4;411,410,409,408;,
        4;415,414,413,412;,
        4;419,418,417,416;,
        4;423,422,421,420;,
        4;427,426,425,424;,
        4;431,430,429,428;,
        4;435,434,433,432;,
        4;439,438,437,436;,
        4;443,442,441,440;,
        4;447,446,445,444;,
        4;451,450,449,448;,
        4;455,454,453,452;,
        4;459,458,457,456;,
        4;463,462,461,460;,
        4;467,466,465,464;,
        4;471,470,469,468;,
        4;475,474,473,472;,
        4;479,478,477,476;,
        4;483,482,481,480;,
        4;487,486,485,484;,
        4;491,490,489,488;,
        4;495,494,493,492;,
        4;499,498,497,496;,
        4;503,502,501,500;,
        4;507,506,505,504;,
        4;511,510,509,508;,
        4;515,514,513,512;,
        4;519,518,517,516;,
        4;523,522,521,520;,
        4;527,526,525,524;,
        4;531,530,529,528;,
        4;535,534,533,532;,
        4;539,538,537,536;,
        4;543,542,541,540;,
        4;547,546,545,544;,
        4;551,550,549,548;,
        4;555,554,553,552;,
        4;559,558,557,556;,
        4;563,562,561,560;,
        4;567,566,565,564;,
        4;571,570,569,568;,
        4;575,574,573,572;,
        4;579,578,577,576;,
        4;583,582,581,580;,
        4;587,586,585,584;,
        4;591,590,589,588;,
        4;595,594,593,592;,
        4;599,598,597,596;,
        4;603,602,601,600;,
        4;607,606,605,604;,
        4;611,610,609,608;,
        4;615,614,613,612;,
        4;619,618,617,616;,
        4;623,622,621,620;,
        4;627,626,625,624;,
        4;631,630,629,628;,
        4;635,634,633,632;,
        4;639,638,637,636;,
        4;643,642,641,640;,
        4;647,646,645,644;,
        4;651,650,649,648;,
        4;655,654,653,652;,
        4;659,658,657,656;,
        4;663,662,661,660;,
        4;667,666,665,664;,
        4;671,670,669,668;,
        4;675,674,673,672;,
        4;679,678,677,676;,
        4;683,682,681,680;,
        4;687,686,685,684;,
        4;691,690,689,688;,
        4;695,694,693,692;,
        4;699,698,697,696;,
        4;703,702,701,700;,
        4;707,706,705,704;,
        4;711,710,709,708;,
        4;715,714,713,712;,
        4;719,718,717,716;,
        4;723,722,721,720;,
        4;727,726,725,724;,
        4;731,730,729,728;,
        4;735,734,733,732;;
      } // End of Cube_002 normals
      MeshTextureCoords { // Cube_002 UV coordinates
        736;
         0.423831; 0.385949;,
         0.403423; 0.390579;,
         0.409927; 0.410534;,
         0.427703; 0.410961;,
         0.258540; 0.315181;,
         0.259438; 0.336243;,
         0.268063; 0.336243;,
         0.268961; 0.315181;,
         0.342385; 0.385949;,
         0.321977; 0.381321;,
         0.322071; 0.402771;,
         0.338513; 0.410961;,
         0.220986; 0.312401;,
         0.221884; 0.333359;,
         0.230509; 0.333359;,
         0.231407; 0.312401;,
         0.361082; 0.289958;,
         0.352457; 0.289958;,
         0.352457; 0.310914;,
         0.361082; 0.310914;,
         0.606113; 0.315779;,
         0.614738; 0.315779;,
         0.614738; 0.294329;,
         0.606113; 0.294329;,
         0.606113; 0.335759;,
         0.614738; 0.335759;,
         0.614738; 0.315779;,
         0.606113; 0.315779;,
         0.361082; 0.268802;,
         0.352457; 0.268802;,
         0.352457; 0.289958;,
         0.361082; 0.289958;,
         0.346257; 0.360937;,
         0.328481; 0.361366;,
         0.321977; 0.381321;,
         0.342385; 0.385949;,
         0.419959; 0.360937;,
         0.403517; 0.369129;,
         0.403423; 0.390579;,
         0.423831; 0.385949;,
         0.437736; 0.361373;,
         0.419959; 0.360937;,
         0.423831; 0.385949;,
         0.444147; 0.381349;,
         0.362700; 0.369122;,
         0.346257; 0.360937;,
         0.342385; 0.385949;,
         0.362700; 0.390552;,
         0.221884; 0.291244;,
         0.220986; 0.312401;,
         0.231407; 0.312401;,
         0.230509; 0.291245;,
         0.362700; 0.390552;,
         0.342385; 0.385949;,
         0.338513; 0.410961;,
         0.356290; 0.410528;,
         0.259438; 0.294117;,
         0.258540; 0.315181;,
         0.268961; 0.315181;,
         0.268063; 0.294117;,
         0.444147; 0.381349;,
         0.423831; 0.385949;,
         0.427703; 0.410961;,
         0.444147; 0.402778;,
         0.187283; 0.449468;,
         0.157926; 0.518525;,
         0.198771; 0.543948;,
         0.228129; 0.474891;,
         0.444147; 0.333303;,
         0.444147; 0.410961;,
         0.466000; 0.410961;,
         0.466000; 0.333303;,
         0.701484; 0.936070;,
         0.672127; 0.867012;,
         0.631281; 0.892434;,
         0.660638; 0.961492;,
         0.543949; 0.333329;,
         0.543949; 0.410968;,
         0.565803; 0.410968;,
         0.565803; 0.333329;,
         0.273254; 0.320240;,
         0.295108; 0.320240;,
         0.295108; 0.264679;,
         0.273254; 0.264679;,
         0.198771; 0.543948;,
         0.157926; 0.518525;,
         0.149072; 0.516669;,
         0.201507; 0.560660;,
         0.522095; 0.305532;,
         0.500241; 0.305532;,
         0.500241; 0.383610;,
         0.522095; 0.383610;,
         0.565803; 0.410968;,
         0.587656; 0.410968;,
         0.587656; 0.348313;,
         0.565803; 0.348313;,
         0.674863; 0.850300;,
         0.672127; 0.867012;,
         0.704117; 0.846682;,
         0.700630; 0.838479;,
         0.631281; 0.892434;,
         0.672127; 0.867012;,
         0.674863; 0.850300;,
         0.622427; 0.894290;,
         0.592904; 0.824841;,
         0.650928; 0.788728;,
         0.640583; 0.764394;,
         0.582560; 0.800507;,
         0.543949; 0.315602;,
         0.522095; 0.315602;,
         0.522095; 0.383603;,
         0.543949; 0.383603;,
         0.622427; 0.894290;,
         0.674863; 0.850300;,
         0.650928; 0.788728;,
         0.592904; 0.824841;,
         0.201507; 0.560660;,
         0.149072; 0.516669;,
         0.119548; 0.586117;,
         0.177571; 0.622231;,
         0.582560; 0.800507;,
         0.640583; 0.764394;,
         0.644032; 0.752711;,
         0.572692; 0.797112;,
         0.177571; 0.622231;,
         0.119548; 0.586117;,
         0.109203; 0.610451;,
         0.167226; 0.646565;,
         0.522095; 0.383610;,
         0.500241; 0.383610;,
         0.500241; 0.410968;,
         0.522095; 0.410968;,
         0.543949; 0.383603;,
         0.522095; 0.383603;,
         0.522095; 0.410968;,
         0.543949; 0.410968;,
         0.565803; 0.333785;,
         0.587656; 0.333785;,
         0.587656; 0.274195;,
         0.565803; 0.274195;,
         0.362700; 0.360937;,
         0.384554; 0.360937;,
         0.384554; 0.283951;,
         0.362700; 0.283951;,
         0.631281; 0.892434;,
         0.622427; 0.894290;,
         0.581306; 0.932370;,
         0.581366; 0.942447;,
         0.149072; 0.516669;,
         0.157926; 0.518525;,
         0.108012; 0.468511;,
         0.107952; 0.478588;,
         0.463201; 0.323422;,
         0.444147; 0.323422;,
         0.444147; 0.333303;,
         0.463201; 0.333303;,
         0.581366; 0.942447;,
         0.581306; 0.932370;,
         0.572713; 0.942670;,
         0.576449; 0.951458;,
         0.565803; 0.348313;,
         0.587656; 0.348313;,
         0.586257; 0.333785;,
         0.567202; 0.333785;,
         0.107952; 0.478588;,
         0.108012; 0.468511;,
         0.103098; 0.459501;,
         0.099362; 0.468290;,
         0.587656; 0.266285;,
         0.587656; 0.292728;,
         0.595442; 0.291034;,
         0.595442; 0.267978;,
         0.581366; 0.942447;,
         0.576449; 0.951458;,
         0.597084; 1.000000;,
         0.603892; 0.995438;,
         0.444147; 0.323422;,
         0.463201; 0.323422;,
         0.463201; 0.268849;,
         0.444147; 0.268849;,
         0.103098; 0.459501;,
         0.108012; 0.468511;,
         0.130539; 0.415521;,
         0.123734; 0.410960;,
         0.700630; 0.838479;,
         0.704117; 0.846682;,
         0.707498; 0.844577;,
         0.704011; 0.836375;,
         0.198771; 0.543948;,
         0.201507; 0.560660;,
         0.227280; 0.572485;,
         0.230767; 0.564283;,
         0.522095; 0.269110;,
         0.500241; 0.269110;,
         0.503617; 0.301008;,
         0.518720; 0.301008;,
         0.543949; 0.271895;,
         0.522095; 0.271895;,
         0.525471; 0.315602;,
         0.540573; 0.315602;,
         0.226535; 0.272970;,
         0.226535; 0.291245;,
         0.234158; 0.291245;,
         0.234158; 0.272970;,
         0.518720; 0.301008;,
         0.503617; 0.301008;,
         0.503617; 0.305532;,
         0.518720; 0.305532;,
         0.230767; 0.564283;,
         0.227280; 0.572485;,
         0.230661; 0.574589;,
         0.234148; 0.566387;,
         0.707498; 0.844577;,
         0.704117; 0.846682;,
         0.706655; 0.852652;,
         0.710036; 0.850548;,
         0.440346; 0.342663;,
         0.440346; 0.360937;,
         0.444147; 0.360937;,
         0.444147; 0.342663;,
         0.226535; 0.291245;,
         0.226535; 0.272970;,
         0.220986; 0.272970;,
         0.220986; 0.291245;,
         0.230767; 0.564283;,
         0.234148; 0.566387;,
         0.236686; 0.560417;,
         0.233305; 0.558312;,
         0.425127; 0.284414;,
         0.425127; 0.266139;,
         0.419580; 0.266139;,
         0.419580; 0.284414;,
         0.300123; 0.320240;,
         0.273254; 0.320240;,
         0.273254; 0.374620;,
         0.300123; 0.374620;,
         0.167226; 0.646565;,
         0.109203; 0.610451;,
         0.099330; 0.613842;,
         0.170669; 0.658244;,
         0.466000; 0.337236;,
         0.466000; 0.363679;,
         0.473308; 0.366713;,
         0.473308; 0.334202;,
         0.266202; 0.291083;,
         0.266202; 0.264640;,
         0.258540; 0.261606;,
         0.258540; 0.294117;,
         0.300123; 0.374620;,
         0.273254; 0.374620;,
         0.273254; 0.410961;,
         0.300123; 0.410961;,
         0.172263; 0.410960;,
         0.199132; 0.410960;,
         0.199132; 0.356296;,
         0.172263; 0.356296;,
         0.572692; 0.797112;,
         0.644032; 0.752711;,
         0.632107; 0.698662;,
         0.560767; 0.743063;,
         0.170669; 0.658244;,
         0.099330; 0.613842;,
         0.087405; 0.667891;,
         0.158744; 0.712293;,
         0.542091; 0.713984;,
         0.613431; 0.669583;,
         0.558951; 0.636521;,
         0.503498; 0.708121;,
         0.172263; 0.356296;,
         0.199132; 0.356296;,
         0.199132; 0.320100;,
         0.172263; 0.320100;,
         0.560767; 0.743063;,
         0.632107; 0.698662;,
         0.613431; 0.669583;,
         0.542091; 0.713984;,
         0.158744; 0.712293;,
         0.087405; 0.667891;,
         0.068728; 0.696970;,
         0.140067; 0.741372;,
         0.085586; 0.774433;,
         0.030135; 0.702832;,
         0.015120; 0.703341;,
         0.085867; 0.794692;,
         0.140067; 0.741372;,
         0.068728; 0.696970;,
         0.030135; 0.702832;,
         0.085586; 0.774433;,
         0.241536; 0.410961;,
         0.268405; 0.410961;,
         0.268405; 0.372800;,
         0.241536; 0.372800;,
         0.172263; 0.320100;,
         0.199132; 0.320100;,
         0.199132; 0.260551;,
         0.172263; 0.260551;,
         0.034277; 0.260932;,
         0.000000; 0.261505;,
         0.001411; 0.385072;,
         0.035688; 0.384499;,
         0.035688; 0.384499;,
         0.001411; 0.385072;,
         0.000562; 0.410960;,
         0.037127; 0.410349;,
         0.000000; 0.261505;,
         0.034277; 0.260932;,
         0.037127; 0.000000;,
         0.001567; 0.000594;,
         0.503498; 0.708121;,
         0.558951; 0.636521;,
         0.559239; 0.616258;,
         0.488491; 0.707607;,
         0.587656; 0.292728;,
         0.587656; 0.335759;,
         0.597487; 0.335759;,
         0.597487; 0.292728;,
         0.082962; 0.410836;,
         0.109831; 0.410960;,
         0.109831; 0.145935;,
         0.074268; 0.145770;,
         0.559239; 0.616258;,
         0.558951; 0.636521;,
         0.710035; 0.418485;,
         0.700620; 0.410968;,
         0.085586; 0.774433;,
         0.085867; 0.794692;,
         0.227271; 1.000000;,
         0.236686; 0.992483;,
         0.466000; 0.366713;,
         0.466000; 0.410961;,
         0.472059; 0.410961;,
         0.472059; 0.366713;,
         0.241536; 0.372800;,
         0.268405; 0.372800;,
         0.273254; 0.336243;,
         0.236686; 0.336243;,
         0.503498; 0.708121;,
         0.488491; 0.707607;,
         0.473372; 0.726254;,
         0.479267; 0.730722;,
         0.015120; 0.703341;,
         0.030135; 0.702832;,
         0.005894; 0.680224;,
         0.000000; 0.684693;,
         0.423548; 0.960501;,
         0.464394; 0.935078;,
         0.435457; 0.867012;,
         0.394612; 0.892435;,
         0.406408; 0.284394;,
         0.384554; 0.284394;,
         0.384554; 0.360937;,
         0.406408; 0.360937;,
         0.937726; 0.475891;,
         0.896879; 0.450469;,
         0.867944; 0.518535;,
         0.908790; 0.543957;,
         0.406408; 0.360937;,
         0.428262; 0.360937;,
         0.428262; 0.284414;,
         0.406408; 0.284414;,
         0.495226; 0.320016;,
         0.495226; 0.265356;,
         0.473372; 0.265356;,
         0.473372; 0.320016;,
         0.435457; 0.867012;,
         0.438193; 0.850301;,
         0.385758; 0.894292;,
         0.394612; 0.892435;,
         0.321977; 0.410961;,
         0.321977; 0.332883;,
         0.300123; 0.332883;,
         0.300123; 0.410961;,
         0.587656; 0.335759;,
         0.587656; 0.397122;,
         0.609510; 0.397122;,
         0.609510; 0.335759;,
         0.911527; 0.560669;,
         0.937293; 0.572490;,
         0.940780; 0.564288;,
         0.908790; 0.543957;,
         0.867944; 0.518535;,
         0.859090; 0.516679;,
         0.911527; 0.560669;,
         0.908790; 0.543957;,
         0.829568; 0.586127;,
         0.819223; 0.610462;,
         0.877246; 0.646575;,
         0.887591; 0.622241;,
         0.169755; 0.410960;,
         0.169755; 0.342960;,
         0.147902; 0.342960;,
         0.147902; 0.410960;,
         0.859090; 0.516679;,
         0.829568; 0.586127;,
         0.887591; 0.622241;,
         0.911527; 0.560669;,
         0.438193; 0.850301;,
         0.414257; 0.788730;,
         0.356234; 0.824844;,
         0.385758; 0.894292;,
         0.819223; 0.610462;,
         0.809355; 0.613856;,
         0.880695; 0.658257;,
         0.877246; 0.646575;,
         0.414257; 0.788730;,
         0.403912; 0.764395;,
         0.345889; 0.800509;,
         0.356234; 0.824844;,
         0.321977; 0.332883;,
         0.321977; 0.305525;,
         0.300123; 0.305525;,
         0.300123; 0.332883;,
         0.169755; 0.342960;,
         0.169755; 0.315595;,
         0.147902; 0.315595;,
         0.147902; 0.342960;,
         0.199132; 0.273770;,
         0.199132; 0.333359;,
         0.220986; 0.333359;,
         0.220986; 0.273770;,
         0.258540; 0.336243;,
         0.258540; 0.263974;,
         0.236686; 0.263974;,
         0.236686; 0.336243;,
         0.867944; 0.518535;,
         0.818029; 0.468522;,
         0.817970; 0.478599;,
         0.859090; 0.516679;,
         0.385758; 0.894292;,
         0.344638; 0.932372;,
         0.344698; 0.942450;,
         0.394612; 0.892435;,
         0.563003; 0.278757;,
         0.563003; 0.268876;,
         0.543949; 0.268876;,
         0.543949; 0.278757;,
         0.818029; 0.468522;,
         0.813112; 0.459511;,
         0.809376; 0.468299;,
         0.817970; 0.478599;,
         0.587656; 0.397122;,
         0.589056; 0.410968;,
         0.608111; 0.410968;,
         0.609510; 0.397122;,
         0.344638; 0.932372;,
         0.336048; 0.942670;,
         0.339784; 0.951459;,
         0.344698; 0.942450;,
         0.463201; 0.290271;,
         0.470811; 0.288578;,
         0.470811; 0.265522;,
         0.463201; 0.263829;,
         0.818029; 0.468522;,
         0.840556; 0.415531;,
         0.833748; 0.410969;,
         0.813112; 0.459511;,
         0.543949; 0.278757;,
         0.543949; 0.333329;,
         0.563003; 0.333329;,
         0.563003; 0.278757;,
         0.339784; 0.951459;,
         0.360420; 1.000000;,
         0.367225; 0.995440;,
         0.344698; 0.942450;,
         0.937293; 0.572490;,
         0.940674; 0.574594;,
         0.944161; 0.566392;,
         0.940780; 0.564288;,
         0.435457; 0.867012;,
         0.467453; 0.846677;,
         0.463966; 0.838475;,
         0.438193; 0.850301;,
         0.300123; 0.267718;,
         0.303499; 0.300926;,
         0.318602; 0.300926;,
         0.321977; 0.267718;,
         0.321977; 0.267992;,
         0.325353; 0.310914;,
         0.340455; 0.310914;,
         0.343831; 0.267992;,
         0.414031; 0.266139;,
         0.406408; 0.266139;,
         0.406408; 0.284414;,
         0.414031; 0.284414;,
         0.303499; 0.300926;,
         0.303499; 0.305525;,
         0.318602; 0.305525;,
         0.318602; 0.300926;,
         0.467453; 0.846677;,
         0.470834; 0.844573;,
         0.467347; 0.836371;,
         0.463966; 0.838475;,
         0.944161; 0.566392;,
         0.946699; 0.560422;,
         0.943318; 0.558317;,
         0.940780; 0.564288;,
         0.440346; 0.342663;,
         0.444085; 0.342663;,
         0.444085; 0.324389;,
         0.440346; 0.324389;,
         0.414031; 0.284414;,
         0.419580; 0.284414;,
         0.419580; 0.266139;,
         0.414031; 0.266139;,
         0.467453; 0.846677;,
         0.469991; 0.852648;,
         0.473372; 0.850543;,
         0.470834; 0.844573;,
         0.266202; 0.294117;,
         0.271750; 0.294117;,
         0.271750; 0.275843;,
         0.266202; 0.275843;,
         0.500241; 0.410968;,
         0.500241; 0.356050;,
         0.473372; 0.356050;,
         0.473372; 0.410968;,
         0.403912; 0.764395;,
         0.407355; 0.752716;,
         0.336016; 0.797119;,
         0.345889; 0.800509;,
         0.597487; 0.291295;,
         0.606120; 0.294329;,
         0.606120; 0.261818;,
         0.597487; 0.264852;,
         0.169755; 0.315595;,
         0.172263; 0.307116;,
         0.145394; 0.307116;,
         0.147902; 0.315595;,
         0.500241; 0.356050;,
         0.500241; 0.320016;,
         0.473372; 0.320016;,
         0.473372; 0.356050;,
         0.172263; 0.307116;,
         0.172263; 0.252453;,
         0.145394; 0.252453;,
         0.145394; 0.307116;,
         0.809355; 0.613856;,
         0.797431; 0.667906;,
         0.868771; 0.712307;,
         0.880695; 0.658257;,
         0.407355; 0.752716;,
         0.395430; 0.698667;,
         0.324091; 0.743069;,
         0.336016; 0.797119;,
         0.778754; 0.696985;,
         0.740161; 0.702847;,
         0.795614; 0.774448;,
         0.850094; 0.741386;,
         0.172263; 0.252453;,
         0.172263; 0.216257;,
         0.145394; 0.216257;,
         0.145394; 0.252453;,
         0.797431; 0.667906;,
         0.778754; 0.696985;,
         0.850094; 0.741386;,
         0.868771; 0.712307;,
         0.395430; 0.698667;,
         0.376753; 0.669588;,
         0.305414; 0.713991;,
         0.324091; 0.743069;,
         0.322272; 0.636527;,
         0.322553; 0.616270;,
         0.251807; 0.707620;,
         0.266821; 0.708129;,
         0.376753; 0.669588;,
         0.322272; 0.636527;,
         0.266821; 0.708129;,
         0.305414; 0.713991;,
         0.230851; 0.410960;,
         0.230851; 0.367947;,
         0.203982; 0.367947;,
         0.203982; 0.410960;,
         0.172263; 0.216257;,
         0.172263; 0.156700;,
         0.145394; 0.156700;,
         0.145394; 0.216257;,
         0.071403; 0.167556;,
         0.072826; 0.050760;,
         0.038549; 0.050149;,
         0.037127; 0.166945;,
         0.072826; 0.050760;,
         0.074268; 0.026205;,
         0.037704; 0.025553;,
         0.038549; 0.050149;,
         0.037127; 0.166945;,
         0.038709; 0.410326;,
         0.074268; 0.410960;,
         0.071403; 0.167556;,
         0.740161; 0.702847;,
         0.725154; 0.703361;,
         0.795902; 0.794710;,
         0.795614; 0.774448;,
         0.463201; 0.333303;,
         0.473033; 0.333303;,
         0.473033; 0.290272;,
         0.463201; 0.290272;,
         0.118525; 0.172893;,
         0.109831; 0.410960;,
         0.145394; 0.410776;,
         0.145394; 0.172754;,
         0.795902; 0.794710;,
         0.937283; 1.000000;,
         0.946699; 0.992483;,
         0.795614; 0.774448;,
         0.322272; 0.636527;,
         0.473372; 0.418478;,
         0.463957; 0.410961;,
         0.322553; 0.616270;,
         0.615409; 0.366720;,
         0.609510; 0.366720;,
         0.609510; 0.410968;,
         0.615409; 0.410968;,
         0.230851; 0.367947;,
         0.235700; 0.333359;,
         0.199132; 0.333359;,
         0.203982; 0.367947;,
         0.740161; 0.702847;,
         0.715930; 0.680245;,
         0.710036; 0.684714;,
         0.725154; 0.703361;,
         0.251807; 0.707620;,
         0.236686; 0.726269;,
         0.242581; 0.730737;,
         0.266821; 0.708129;,
         0.342386; 0.335926;,
         0.321977; 0.331304;,
         0.322071; 0.352755;,
         0.338514; 0.360937;,
         0.428262; 0.339875;,
         0.429159; 0.360937;,
         0.437785; 0.360937;,
         0.438682; 0.339875;,
         0.383108; 0.385949;,
         0.362700; 0.381321;,
         0.362794; 0.402771;,
         0.379236; 0.410961;,
         0.428262; 0.297853;,
         0.429159; 0.318811;,
         0.437785; 0.318811;,
         0.438682; 0.297853;,
         0.352457; 0.289958;,
         0.343831; 0.289958;,
         0.343831; 0.310914;,
         0.352457; 0.310914;,
         0.597487; 0.315779;,
         0.606113; 0.315779;,
         0.606113; 0.294329;,
         0.597487; 0.294329;,
         0.597487; 0.335759;,
         0.606113; 0.335759;,
         0.606113; 0.315779;,
         0.597487; 0.315779;,
         0.352457; 0.268802;,
         0.343831; 0.268802;,
         0.343831; 0.289958;,
         0.352457; 0.289958;,
         0.386980; 0.360937;,
         0.369204; 0.361366;,
         0.362700; 0.381321;,
         0.383108; 0.385949;,
         0.346258; 0.310914;,
         0.328481; 0.311349;,
         0.321977; 0.331304;,
         0.342386; 0.335926;,
         0.362700; 0.319106;,
         0.346258; 0.310914;,
         0.342386; 0.335926;,
         0.362700; 0.340535;,
         0.403423; 0.369122;,
         0.386980; 0.360937;,
         0.383108; 0.385949;,
         0.403423; 0.390552;,
         0.429159; 0.276696;,
         0.428262; 0.297853;,
         0.438682; 0.297853;,
         0.437785; 0.276696;,
         0.403423; 0.390552;,
         0.383108; 0.385949;,
         0.379236; 0.410961;,
         0.397013; 0.410528;,
         0.429159; 0.318811;,
         0.428262; 0.339875;,
         0.438682; 0.339875;,
         0.437785; 0.318811;,
         0.362700; 0.340535;,
         0.342386; 0.335926;,
         0.338514; 0.360937;,
         0.356290; 0.360511;,
         0.979303; 1.000000;,
         0.980012; 0.107991;,
         0.973349; 0.107991;,
         0.974052; 1.000000;,
         0.954068; 0.107990;,
         0.953361; 1.000000;,
         0.960024; 1.000000;,
         0.959318; 0.107990;,
         0.965974; 1.000000;,
         0.966687; 0.107991;,
         0.960024; 0.107991;,
         0.960724; 1.000000;,
         0.994044; 0.108199;,
         0.993337; 1.000000;,
         1.000000; 1.000000;,
         0.999294; 0.108199;,
         0.236655; 0.333359;,
         0.236655; 0.327007;,
         0.231407; 0.327007;,
         0.231407; 0.333359;,
         0.397659; 0.284394;,
         0.397659; 0.276332;,
         0.391107; 0.276332;,
         0.391107; 0.284394;,
         0.985965; 1.000000;,
         0.986675; 0.107991;,
         0.980012; 0.107991;,
         0.980715; 1.000000;,
         0.947405; 0.107990;,
         0.946699; 1.000000;,
         0.953361; 1.000000;,
         0.952655; 0.107990;,
         0.972652; 1.000000;,
         0.973349; 0.107991;,
         0.966687; 0.107991;,
         0.967402; 1.000000;,
         0.987381; 0.108199;,
         0.986675; 1.000000;,
         0.993337; 1.000000;,
         0.992631; 0.108199;,
         0.236655; 0.327007;,
         0.236655; 0.320654;,
         0.231407; 0.320654;,
         0.231407; 0.327007;,
         0.391107; 0.284394;,
         0.391107; 0.276332;,
         0.384554; 0.276332;,
         0.384554; 0.284394;;
      } // End of Cube_002 UV coordinates
      MeshMaterialList { // Cube_002 material list
        1;
        184;
        0,
        0,
        0,
        0,
        0,
        0,
        0,
        0,
        0,
        0,
        0,
        0,
        0,
        0,
        0,
        0,
        0,
        0,
        0,
        0,
        0,
        0,
        0,
        0,
        0,
        0,
        0,
        0,
        0,
        0,
        0,
        0,
        0,
        0,
        0,
        0,
        0,
        0,
        0,
        0,
        0,
        0,
        0,
        0,
        0,
        0,
        0,
        0,
        0,
        0,
        0,
        0,
        0,
        0,
        0,
        0,
        0,
        0,
        0,
        0,
        0,
        0,
        0,
        0,
        0,
        0,
        0,
        0,
        0,
        0,
        0,
        0,
        0,
        0,
        0,
        0,
        0,
        0,
        0,
        0,
        0,
        0,
        0,
        0,
        0,
        0,
        0,
        0,
        0,
        0,
        0,
        0,
        0,
        0,
        0,
        0,
        0,
        0,
        0,
        0,
        0,
        0,
        0,
        0,
        0,
        0,
        0,
        0,
        0,
        0,
        0,
        0,
        0,
        0,
        0,
        0,
        0,
        0,
        0,
        0,
        0,
        0,
        0,
        0,
        0,
        0,
        0,
        0,
        0,
        0,
        0,
        0,
        0,
        0,
        0,
        0,
        0,
        0,
        0,
        0,
        0,
        0,
        0,
        0,
        0,
        0,
        0,
        0,
        0,
        0,
        0,
        0,
        0,
        0,
        0,
        0,
        0,
        0,
        0,
        0,
        0,
        0,
        0,
        0,
        0,
        0,
        0,
        0,
        0,
        0,
        0,
        0,
        0,
        0,
        0,
        0,
        0,
        0,
        0,
        0,
        0,
        0,
        0,
        0;
        Material Material_001 {
           0.640000; 0.640000; 0.640000; 1.000000;;
           96.078431;
           0.500000; 0.500000; 0.500000;;
           0.000000; 0.000000; 0.000000;;
        }
      } // End of Cube_002 material list
    } // End of Cube_002 mesh
  } // End of Cube_002
} // End of Root
