xof 0303txt 0032

Frame Root {
  FrameTransformMatrix {
     1.000000, 0.000000, 0.000000, 0.000000,
     0.000000,-0.000000, 1.000000, 0.000000,
     0.000000, 1.000000, 0.000000, 0.000000,
     0.000000, 0.000000, 0.000000, 1.000000;;
  }
  Frame Cube {
    FrameTransformMatrix {
       1.000000, 0.000000, 0.000000, 0.000000,
       0.000000, 1.000000, 0.000000, 0.000000,
       0.000000, 0.000000, 1.000000, 0.000000,
       0.000000, 0.000000, 0.000000, 1.000000;;
    }
    Mesh { // Cube mesh
      456;
      -0.008469; 0.067568;-0.019790;,
      -0.008469; 0.030849;-0.007741;,
      -0.008469; 0.042898; 0.032334;,
      -0.008469; 0.079617; 0.020285;,
       0.002676; 0.079617; 0.020285;,
       0.002676; 0.042898; 0.032334;,
       0.013822; 0.042898; 0.032334;,
       0.013822; 0.079617; 0.020285;,
       0.013822; 0.079617; 0.020285;,
       0.013822; 0.042898; 0.032334;,
       0.013822; 0.030849;-0.007741;,
       0.013822; 0.067568;-0.019790;,
       0.002676; 0.067568;-0.019790;,
       0.002676; 0.030849;-0.007741;,
      -0.008469; 0.030849;-0.007741;,
      -0.008469; 0.067568;-0.019790;,
       0.002676; 0.079617; 0.020285;,
       0.013822; 0.079617; 0.020285;,
       0.013148; 0.081597; 0.016713;,
       0.002675; 0.081597; 0.016713;,
      -0.008469; 0.015158; 0.078176;,
      -0.008469; 0.015066; 0.081338;,
      -0.004048; 0.035743; 0.075328;,
      -0.004048; 0.035798; 0.073420;,
       0.002676;-0.001763; 0.002960;,
       0.013822;-0.001763; 0.002960;,
       0.015869;-0.002055;-0.015418;,
       0.002326;-0.002055;-0.015418;,
       0.013822; 0.011009;-0.001231;,
       0.013822; 0.016197; 0.047673;,
       0.013822;-0.000991; 0.047956;,
       0.013822;-0.001763; 0.002960;,
      -0.008469; 0.016197; 0.047673;,
      -0.008469; 0.011009;-0.001231;,
      -0.008469;-0.001763; 0.002960;,
      -0.008469;-0.000991; 0.047956;,
       0.002676; 0.011009;-0.001231;,
       0.013822; 0.011009;-0.001231;,
       0.013822;-0.001763; 0.002960;,
       0.002676;-0.001763; 0.002960;,
      -0.011217;-0.025461; 0.006718;,
      -0.011217;-0.025753;-0.013942;,
      -0.010334;-0.031147;-0.010101;,
      -0.006126;-0.030874; 0.009211;,
       0.002326;-0.023390; 0.148681;,
      -0.011217;-0.023390; 0.148681;,
      -0.006126;-0.028938; 0.146159;,
       0.002326;-0.028938; 0.146159;,
       0.013822;-0.001763; 0.002960;,
       0.013822;-0.000991; 0.047956;,
       0.015869;-0.024689; 0.048357;,
       0.015869;-0.025461; 0.006718;,
      -0.008469;-0.000991; 0.047956;,
      -0.008469;-0.001763; 0.002960;,
      -0.011217;-0.025461; 0.006718;,
      -0.011217;-0.024689; 0.048357;,
       0.002326;-0.002055;-0.015418;,
       0.015869;-0.002055;-0.015418;,
       0.015869;-0.025753;-0.013942;,
       0.002326;-0.025753;-0.013942;,
       0.013822;-0.001763; 0.002960;,
       0.015869;-0.025461; 0.006718;,
       0.015869;-0.025753;-0.013942;,
       0.015869;-0.002055;-0.015418;,
      -0.011217;-0.025461; 0.006718;,
      -0.008469;-0.001763; 0.002960;,
      -0.011217;-0.002055;-0.015418;,
      -0.011217;-0.025753;-0.013942;,
      -0.011217;-0.024044; 0.102577;,
      -0.011217;-0.024689; 0.048357;,
      -0.006126;-0.030153; 0.048135;,
      -0.006126;-0.029549; 0.096854;,
       0.002326; 0.000308; 0.148279;,
      -0.011217; 0.000308; 0.148279;,
      -0.011217;-0.023390; 0.148681;,
       0.002326;-0.023390; 0.148681;,
      -0.010393;-0.000081; 0.118182;,
      -0.011217;-0.023780; 0.114317;,
      -0.011217;-0.023390; 0.148681;,
      -0.011217; 0.000308; 0.148279;,
       0.002676;-0.000991; 0.047956;,
      -0.008469;-0.000991; 0.047956;,
      -0.009426; 0.002018; 0.086873;,
       0.002326; 0.002018; 0.086873;,
       0.015869;-0.023780; 0.114317;,
       0.015255;-0.000081; 0.118182;,
       0.015869; 0.000308; 0.148279;,
       0.015869;-0.023390; 0.148681;,
       0.002326;-0.030153; 0.048135;,
      -0.006126;-0.030153; 0.048135;,
      -0.006126;-0.030874; 0.009211;,
       0.002326;-0.030874; 0.009211;,
       0.002326;-0.029303; 0.119110;,
       0.011150;-0.029303; 0.119110;,
       0.011150;-0.028938; 0.146159;,
       0.002326;-0.028938; 0.146159;,
       0.002326;-0.030874; 0.009211;,
      -0.006126;-0.030874; 0.009211;,
      -0.010334;-0.031147;-0.010101;,
       0.002326;-0.031147;-0.010101;,
       0.015869;-0.025461; 0.006718;,
       0.015869;-0.024689; 0.048357;,
       0.011150;-0.030153; 0.048135;,
       0.011150;-0.030874; 0.009211;,
      -0.011217;-0.024689; 0.048357;,
      -0.011217;-0.025461; 0.006718;,
      -0.006126;-0.030874; 0.009211;,
      -0.006126;-0.030153; 0.048135;,
       0.015869;-0.023780; 0.114317;,
       0.015869;-0.023390; 0.148681;,
       0.011150;-0.028938; 0.146159;,
       0.011150;-0.029303; 0.119110;,
       0.002326;-0.025753;-0.013942;,
       0.015869;-0.025753;-0.013942;,
       0.014986;-0.031147;-0.010101;,
       0.002326;-0.031147;-0.010101;,
       0.015869;-0.025753;-0.013942;,
       0.015869;-0.025461; 0.006718;,
       0.011150;-0.030874; 0.009211;,
       0.014986;-0.031147;-0.010101;,
       0.002675; 0.081597; 0.016713;,
       0.013148; 0.081597; 0.016713;,
       0.013148; 0.071190;-0.017902;,
       0.002675; 0.071190;-0.017902;,
      -0.008469; 0.067568;-0.019790;,
      -0.008469; 0.079617; 0.020285;,
      -0.007797; 0.081597; 0.016713;,
      -0.007797; 0.071190;-0.017902;,
       0.013822; 0.079617; 0.020285;,
       0.013822; 0.067568;-0.019790;,
       0.013148; 0.071190;-0.017902;,
       0.013148; 0.081597; 0.016713;,
       0.002676; 0.067568;-0.019790;,
      -0.008469; 0.067568;-0.019790;,
      -0.007797; 0.071190;-0.017902;,
       0.002675; 0.071190;-0.017902;,
       0.002326; 0.002807; 0.125188;,
      -0.009426; 0.002807; 0.125188;,
      -0.009426; 0.003146; 0.141609;,
       0.002326; 0.003146; 0.141609;,
      -0.010393;-0.000081; 0.118182;,
      -0.011217; 0.000308; 0.148279;,
      -0.009426; 0.003146; 0.141609;,
      -0.009426; 0.002807; 0.125188;,
       0.002326; 0.000308; 0.148279;,
       0.015869; 0.000308; 0.148279;,
       0.014079; 0.003146; 0.141609;,
       0.002326; 0.003146; 0.141609;,
       0.014840;-0.000345; 0.097817;,
       0.013822;-0.000991; 0.047956;,
       0.014079; 0.002018; 0.086873;,
       0.014079; 0.002579; 0.114078;,
       0.002676; 0.030849;-0.007741;,
       0.013822; 0.030849;-0.007741;,
       0.013822; 0.011009;-0.001231;,
       0.002676; 0.011009;-0.001231;,
      -0.008469; 0.042898; 0.032334;,
      -0.008469; 0.030849;-0.007741;,
      -0.008469; 0.011009;-0.001231;,
      -0.008469; 0.016197; 0.047673;,
       0.013822; 0.030849;-0.007741;,
       0.013822; 0.042898; 0.032334;,
       0.013822; 0.016197; 0.047673;,
       0.013822; 0.011009;-0.001231;,
       0.002676; 0.042898; 0.032334;,
      -0.008469; 0.042898; 0.032334;,
      -0.008469; 0.016197; 0.047673;,
       0.002676; 0.016197; 0.047673;,
       0.002676; 0.015066; 0.081338;,
      -0.008469; 0.015066; 0.081338;,
      -0.008469;-0.002122; 0.081620;,
       0.002676;-0.002122; 0.081620;,
       0.002676;-0.002030; 0.078458;,
       0.013822;-0.002030; 0.078458;,
       0.013822;-0.002122; 0.081620;,
       0.002676;-0.002122; 0.081620;,
       0.013822;-0.002030; 0.078458;,
       0.013822; 0.015158; 0.078176;,
       0.013822; 0.015066; 0.081338;,
       0.013822;-0.002122; 0.081620;,
      -0.008469; 0.015158; 0.078176;,
      -0.008469;-0.002030; 0.078458;,
      -0.008469;-0.002122; 0.081620;,
      -0.008469; 0.015066; 0.081338;,
      -0.008469; 0.016197; 0.047673;,
      -0.008469;-0.000991; 0.047956;,
      -0.008469;-0.002030; 0.078458;,
      -0.008469; 0.015158; 0.078176;,
       0.013822;-0.000991; 0.047956;,
       0.013822; 0.016197; 0.047673;,
       0.013822; 0.015158; 0.078176;,
       0.013822;-0.002030; 0.078458;,
       0.002676;-0.000991; 0.047956;,
       0.013822;-0.000991; 0.047956;,
       0.013822;-0.002030; 0.078458;,
       0.002676;-0.002030; 0.078458;,
       0.002676; 0.016197; 0.047673;,
      -0.008469; 0.016197; 0.047673;,
      -0.008469; 0.015158; 0.078176;,
       0.002676; 0.015158; 0.078176;,
       0.002676; 0.035508; 0.072855;,
      -0.004048; 0.035798; 0.073420;,
      -0.007753; 0.031562; 0.039307;,
       0.002676; 0.031562; 0.039307;,
       0.002676; 0.015158; 0.078176;,
      -0.008469; 0.015158; 0.078176;,
      -0.004048; 0.035798; 0.073420;,
       0.002676; 0.035508; 0.072855;,
       0.013822; 0.015066; 0.081338;,
       0.013822; 0.015158; 0.078176;,
       0.009401; 0.035798; 0.073420;,
       0.009401; 0.035743; 0.075328;,
       0.002676; 0.015066; 0.081338;,
       0.013822; 0.015066; 0.081338;,
       0.009401; 0.035743; 0.075328;,
       0.002676; 0.035416; 0.076017;,
       0.002676; 0.037064; 0.072540;,
      -0.004048; 0.036737; 0.073230;,
      -0.004048; 0.036681; 0.075138;,
       0.002676; 0.036972; 0.075702;,
      -0.004048; 0.035798; 0.073420;,
      -0.004048; 0.035743; 0.075328;,
      -0.004048; 0.036681; 0.075138;,
      -0.004048; 0.036737; 0.073230;,
       0.009401; 0.035743; 0.075328;,
       0.009401; 0.035798; 0.073420;,
       0.009401; 0.036737; 0.073230;,
       0.009401; 0.036681; 0.075138;,
       0.002676; 0.035416; 0.076017;,
       0.009401; 0.035743; 0.075328;,
       0.009401; 0.036681; 0.075138;,
       0.002676; 0.036972; 0.075702;,
       0.002676; 0.031562; 0.039307;,
      -0.007753; 0.031562; 0.039307;,
      -0.007753; 0.033018; 0.039012;,
       0.002676; 0.033018; 0.039012;,
      -0.004048; 0.035798; 0.073420;,
      -0.004048; 0.036737; 0.073230;,
      -0.007753; 0.033018; 0.039012;,
      -0.007753; 0.031562; 0.039307;,
       0.009401; 0.036737; 0.073230;,
       0.009401; 0.035798; 0.073420;,
       0.013106; 0.031562; 0.039307;,
       0.013106; 0.033018; 0.039012;,
       0.002676; 0.037064; 0.072540;,
       0.009401; 0.036737; 0.073230;,
       0.013106; 0.033018; 0.039012;,
       0.002676; 0.033018; 0.039012;,
       0.015869; 0.000308; 0.148279;,
       0.015255;-0.000081; 0.118182;,
       0.014079; 0.002807; 0.125188;,
       0.014079; 0.003146; 0.141609;,
      -0.009835;-0.000345; 0.097817;,
      -0.010393;-0.000081; 0.118182;,
      -0.009426; 0.002807; 0.125188;,
      -0.009426; 0.002579; 0.114078;,
       0.002326; 0.002579; 0.114078;,
      -0.009426; 0.002579; 0.114078;,
      -0.009426; 0.002807; 0.125188;,
       0.002326; 0.002807; 0.125188;,
       0.002326;-0.024044; 0.102577;,
       0.002326;-0.029549; 0.096854;,
       0.011150;-0.029549; 0.096854;,
       0.015869;-0.024044; 0.102577;,
       0.002326;-0.024044; 0.102577;,
       0.002326;-0.023780; 0.114317;,
      -0.011217;-0.023780; 0.114317;,
      -0.011217;-0.024044; 0.102577;,
       0.015869;-0.024044; 0.102577;,
       0.014840;-0.000345; 0.097817;,
       0.015255;-0.000081; 0.118182;,
       0.015869;-0.023780; 0.114317;,
      -0.009835;-0.000345; 0.097817;,
      -0.011217;-0.024044; 0.102577;,
      -0.011217;-0.023780; 0.114317;,
      -0.010393;-0.000081; 0.118182;,
      -0.011217;-0.023390; 0.148681;,
      -0.011217;-0.023780; 0.114317;,
      -0.006126;-0.029303; 0.119110;,
      -0.006126;-0.028938; 0.146159;,
      -0.008469;-0.000991; 0.047956;,
      -0.011217;-0.024689; 0.048357;,
      -0.011217;-0.024044; 0.102577;,
      -0.009835;-0.000345; 0.097817;,
       0.015869;-0.024689; 0.048357;,
       0.013822;-0.000991; 0.047956;,
       0.014840;-0.000345; 0.097817;,
       0.015869;-0.024044; 0.102577;,
       0.002326;-0.030153; 0.048135;,
       0.011150;-0.030153; 0.048135;,
       0.011150;-0.029549; 0.096854;,
       0.002326;-0.029549; 0.096854;,
       0.015869;-0.024689; 0.048357;,
       0.015869;-0.024044; 0.102577;,
       0.011150;-0.029549; 0.096854;,
       0.011150;-0.030153; 0.048135;,
       0.002326; 0.002018; 0.086873;,
      -0.009426; 0.002018; 0.086873;,
      -0.009426; 0.002579; 0.114078;,
       0.002326; 0.002579; 0.114078;,
      -0.008469;-0.000991; 0.047956;,
      -0.009835;-0.000345; 0.097817;,
      -0.009426; 0.002579; 0.114078;,
      -0.009426; 0.002018; 0.086873;,
       0.015255;-0.000081; 0.118182;,
       0.014840;-0.000345; 0.097817;,
       0.014079; 0.002579; 0.114078;,
       0.014079; 0.002807; 0.125188;,
       0.002326;-0.029303; 0.119110;,
      -0.006126;-0.029303; 0.119110;,
      -0.011217;-0.023780; 0.114317;,
       0.002326;-0.023780; 0.114317;,
       0.011150;-0.029303; 0.119110;,
       0.002326;-0.029303; 0.119110;,
       0.002326;-0.023780; 0.114317;,
       0.015869;-0.023780; 0.114317;,
       0.014079; 0.002018; 0.086873;,
       0.002326; 0.002018; 0.086873;,
       0.002326; 0.002579; 0.114078;,
       0.014079; 0.002579; 0.114078;,
      -0.006126;-0.030153; 0.048135;,
       0.002326;-0.030153; 0.048135;,
       0.002326;-0.029549; 0.096854;,
      -0.006126;-0.029549; 0.096854;,
       0.015869;-0.024044; 0.102577;,
       0.015869;-0.023780; 0.114317;,
       0.002326;-0.023780; 0.114317;,
       0.002326;-0.024044; 0.102577;,
      -0.011217;-0.024044; 0.102577;,
      -0.006126;-0.029549; 0.096854;,
       0.002326;-0.029549; 0.096854;,
       0.002326;-0.024044; 0.102577;,
       0.014079; 0.002579; 0.114078;,
       0.002326; 0.002579; 0.114078;,
       0.002326; 0.002807; 0.125188;,
       0.014079; 0.002807; 0.125188;,
      -0.004048; 0.036737; 0.073230;,
       0.002676; 0.037064; 0.072540;,
       0.002676; 0.033018; 0.039012;,
      -0.007753; 0.033018; 0.039012;,
       0.013106; 0.031562; 0.039307;,
       0.002676; 0.031562; 0.039307;,
       0.002676; 0.033018; 0.039012;,
       0.013106; 0.033018; 0.039012;,
      -0.004048; 0.035743; 0.075328;,
       0.002676; 0.035416; 0.076017;,
       0.002676; 0.036972; 0.075702;,
      -0.004048; 0.036681; 0.075138;,
       0.009401; 0.036737; 0.073230;,
       0.002676; 0.037064; 0.072540;,
       0.002676; 0.036972; 0.075702;,
       0.009401; 0.036681; 0.075138;,
      -0.008469; 0.015066; 0.081338;,
       0.002676; 0.015066; 0.081338;,
       0.002676; 0.035416; 0.076017;,
      -0.004048; 0.035743; 0.075328;,
       0.013822; 0.015158; 0.078176;,
       0.002676; 0.015158; 0.078176;,
       0.002676; 0.035508; 0.072855;,
       0.009401; 0.035798; 0.073420;,
       0.009401; 0.035798; 0.073420;,
       0.002676; 0.035508; 0.072855;,
       0.002676; 0.031562; 0.039307;,
       0.013106; 0.031562; 0.039307;,
       0.013822; 0.016197; 0.047673;,
       0.002676; 0.016197; 0.047673;,
       0.002676; 0.015158; 0.078176;,
       0.013822; 0.015158; 0.078176;,
      -0.008469;-0.000991; 0.047956;,
       0.002676;-0.000991; 0.047956;,
       0.002676;-0.002030; 0.078458;,
      -0.008469;-0.002030; 0.078458;,
      -0.008469;-0.002030; 0.078458;,
       0.002676;-0.002030; 0.078458;,
       0.002676;-0.002122; 0.081620;,
      -0.008469;-0.002122; 0.081620;,
       0.013822; 0.015066; 0.081338;,
       0.002676; 0.015066; 0.081338;,
       0.002676;-0.002122; 0.081620;,
       0.013822;-0.002122; 0.081620;,
       0.013822; 0.042898; 0.032334;,
       0.002676; 0.042898; 0.032334;,
       0.002676; 0.016197; 0.047673;,
       0.013822; 0.016197; 0.047673;,
      -0.008469; 0.030849;-0.007741;,
       0.002676; 0.030849;-0.007741;,
       0.002676; 0.011009;-0.001231;,
      -0.008469; 0.011009;-0.001231;,
      -0.011217; 0.000308; 0.148279;,
       0.002326; 0.000308; 0.148279;,
       0.002326; 0.003146; 0.141609;,
      -0.009426; 0.003146; 0.141609;,
       0.014079; 0.002807; 0.125188;,
       0.002326; 0.002807; 0.125188;,
       0.002326; 0.003146; 0.141609;,
       0.014079; 0.003146; 0.141609;,
       0.013822; 0.067568;-0.019790;,
       0.002676; 0.067568;-0.019790;,
       0.002675; 0.071190;-0.017902;,
       0.013148; 0.071190;-0.017902;,
      -0.007797; 0.081597; 0.016713;,
       0.002675; 0.081597; 0.016713;,
       0.002675; 0.071190;-0.017902;,
      -0.007797; 0.071190;-0.017902;,
      -0.011217;-0.025753;-0.013942;,
       0.002326;-0.025753;-0.013942;,
       0.002326;-0.031147;-0.010101;,
      -0.010334;-0.031147;-0.010101;,
       0.011150;-0.030874; 0.009211;,
       0.002326;-0.030874; 0.009211;,
       0.002326;-0.031147;-0.010101;,
       0.014986;-0.031147;-0.010101;,
      -0.006126;-0.029303; 0.119110;,
       0.002326;-0.029303; 0.119110;,
       0.002326;-0.028938; 0.146159;,
      -0.006126;-0.028938; 0.146159;,
       0.011150;-0.030153; 0.048135;,
       0.002326;-0.030153; 0.048135;,
       0.002326;-0.030874; 0.009211;,
       0.011150;-0.030874; 0.009211;,
       0.013822;-0.000991; 0.047956;,
       0.002676;-0.000991; 0.047956;,
       0.002326; 0.002018; 0.086873;,
       0.014079; 0.002018; 0.086873;,
       0.015869; 0.000308; 0.148279;,
       0.002326; 0.000308; 0.148279;,
       0.002326;-0.023390; 0.148681;,
       0.015869;-0.023390; 0.148681;,
      -0.011217;-0.002055;-0.015418;,
       0.002326;-0.002055;-0.015418;,
       0.002326;-0.025753;-0.013942;,
      -0.011217;-0.025753;-0.013942;,
       0.015869;-0.023390; 0.148681;,
       0.002326;-0.023390; 0.148681;,
       0.002326;-0.028938; 0.146159;,
       0.011150;-0.028938; 0.146159;,
      -0.008469; 0.011009;-0.001231;,
       0.002676; 0.011009;-0.001231;,
       0.002676;-0.001763; 0.002960;,
      -0.008469;-0.001763; 0.002960;,
      -0.008469;-0.001763; 0.002960;,
       0.002676;-0.001763; 0.002960;,
       0.002326;-0.002055;-0.015418;,
      -0.011217;-0.002055;-0.015418;,
      -0.008469; 0.079617; 0.020285;,
       0.002676; 0.079617; 0.020285;,
       0.002675; 0.081597; 0.016713;,
      -0.007797; 0.081597; 0.016713;,
       0.013822; 0.067568;-0.019790;,
       0.013822; 0.030849;-0.007741;,
       0.002676; 0.030849;-0.007741;,
       0.002676; 0.067568;-0.019790;,
      -0.008469; 0.079617; 0.020285;,
      -0.008469; 0.042898; 0.032334;,
       0.002676; 0.042898; 0.032334;,
       0.002676; 0.079617; 0.020285;;
      114;
      4;3,2,1,0;,
      4;7,6,5,4;,
      4;11,10,9,8;,
      4;15,14,13,12;,
      4;19,18,17,16;,
      4;23,22,21,20;,
      4;27,26,25,24;,
      4;31,30,29,28;,
      4;35,34,33,32;,
      4;39,38,37,36;,
      4;43,42,41,40;,
      4;47,46,45,44;,
      4;51,50,49,48;,
      4;55,54,53,52;,
      4;59,58,57,56;,
      4;63,62,61,60;,
      4;67,66,65,64;,
      4;71,70,69,68;,
      4;75,74,73,72;,
      4;79,78,77,76;,
      4;83,82,81,80;,
      4;87,86,85,84;,
      4;91,90,89,88;,
      4;95,94,93,92;,
      4;99,98,97,96;,
      4;103,102,101,100;,
      4;107,106,105,104;,
      4;111,110,109,108;,
      4;115,114,113,112;,
      4;119,118,117,116;,
      4;123,122,121,120;,
      4;127,126,125,124;,
      4;131,130,129,128;,
      4;135,134,133,132;,
      4;139,138,137,136;,
      4;143,142,141,140;,
      4;147,146,145,144;,
      4;151,150,149,148;,
      4;155,154,153,152;,
      4;159,158,157,156;,
      4;163,162,161,160;,
      4;167,166,165,164;,
      4;171,170,169,168;,
      4;175,174,173,172;,
      4;179,178,177,176;,
      4;183,182,181,180;,
      4;187,186,185,184;,
      4;191,190,189,188;,
      4;195,194,193,192;,
      4;199,198,197,196;,
      4;203,202,201,200;,
      4;207,206,205,204;,
      4;211,210,209,208;,
      4;215,214,213,212;,
      4;219,218,217,216;,
      4;223,222,221,220;,
      4;227,226,225,224;,
      4;231,230,229,228;,
      4;235,234,233,232;,
      4;239,238,237,236;,
      4;243,242,241,240;,
      4;247,246,245,244;,
      4;251,250,249,248;,
      4;255,254,253,252;,
      4;259,258,257,256;,
      4;263,262,261,260;,
      4;267,266,265,264;,
      4;271,270,269,268;,
      4;275,274,273,272;,
      4;279,278,277,276;,
      4;283,282,281,280;,
      4;287,286,285,284;,
      4;291,290,289,288;,
      4;295,294,293,292;,
      4;299,298,297,296;,
      4;303,302,301,300;,
      4;307,306,305,304;,
      4;311,310,309,308;,
      4;315,314,313,312;,
      4;319,318,317,316;,
      4;323,322,321,320;,
      4;327,326,325,324;,
      4;331,330,329,328;,
      4;335,334,333,332;,
      4;339,338,337,336;,
      4;343,342,341,340;,
      4;347,346,345,344;,
      4;351,350,349,348;,
      4;355,354,353,352;,
      4;359,358,357,356;,
      4;363,362,361,360;,
      4;367,366,365,364;,
      4;371,370,369,368;,
      4;375,374,373,372;,
      4;379,378,377,376;,
      4;383,382,381,380;,
      4;387,386,385,384;,
      4;391,390,389,388;,
      4;395,394,393,392;,
      4;399,398,397,396;,
      4;403,402,401,400;,
      4;407,406,405,404;,
      4;411,410,409,408;,
      4;415,414,413,412;,
      4;419,418,417,416;,
      4;423,422,421,420;,
      4;427,426,425,424;,
      4;431,430,429,428;,
      4;435,434,433,432;,
      4;439,438,437,436;,
      4;443,442,441,440;,
      4;447,446,445,444;,
      4;451,450,449,448;,
      4;455,454,453,452;;
      MeshNormals { // Cube normals
        456;
        -0.638905; 0.091525;-0.763787;,
        -0.707083;-0.220435;-0.671834;,
        -0.730796; 0.277840; 0.623463;,
        -0.642567; 0.510208; 0.571612;,
         0.000000; 0.637135; 0.770745;,
         0.000000; 0.407056; 0.913388;,
         0.730796; 0.277840; 0.623463;,
         0.642598; 0.510269; 0.571520;,
         0.642598; 0.510269; 0.571520;,
         0.730796; 0.277840; 0.623463;,
         0.707083;-0.220435;-0.671834;,
         0.638905; 0.091617;-0.763756;,
         0.000000; 0.081545;-0.996643;,
         0.000000;-0.311747;-0.950133;,
        -0.707083;-0.220435;-0.671834;,
        -0.638905; 0.091525;-0.763787;,
         0.000000; 0.637135; 0.770745;,
         0.642598; 0.510269; 0.571520;,
         0.540941; 0.839106; 0.056703;,
         0.000000; 0.994263; 0.106906;,
        -0.923643; 0.303232;-0.234230;,
        -0.698294; 0.159307; 0.697806;,
        -0.699515; 0.243599; 0.671773;,
        -0.907804;-0.327342;-0.262093;,
         0.000000; 0.580126;-0.814478;,
         0.928159; 0.259774;-0.266457;,
         0.589160; 0.556444;-0.585833;,
         0.000000; 0.678945;-0.734153;,
         0.707083;-0.220435;-0.671834;,
         0.834437; 0.472182; 0.284127;,
         0.998749; 0.039552;-0.030519;,
         0.928159; 0.259774;-0.266457;,
        -0.834437; 0.472182; 0.284127;,
        -0.707083;-0.220435;-0.671834;,
        -0.924039; 0.279275;-0.260964;,
        -0.998047; 0.053224;-0.031770;,
         0.000000;-0.311747;-0.950133;,
         0.707083;-0.220435;-0.671834;,
         0.928159; 0.259774;-0.266457;,
         0.000000; 0.580126;-0.814478;,
        -0.970489;-0.235664; 0.050844;,
        -0.660329;-0.332560;-0.673299;,
        -0.488907;-0.823756;-0.286996;,
        -0.420026;-0.906857; 0.033631;,
         0.000000;-0.203406; 0.979064;,
        -0.687094;-0.317331; 0.653554;,
        -0.307688;-0.832514; 0.460677;,
         0.000000;-0.837123; 0.547014;,
         0.928159; 0.259774;-0.266457;,
         0.998749; 0.039552;-0.030519;,
         0.949705;-0.313120; 0.002106;,
         0.971496;-0.232826; 0.043947;,
        -0.998047; 0.053224;-0.031770;,
        -0.924039; 0.279275;-0.260964;,
        -0.970489;-0.235664; 0.050844;,
        -0.947783;-0.318857; 0.001221;,
         0.000000; 0.678945;-0.734153;,
         0.589160; 0.556444;-0.585833;,
         0.657765;-0.331217;-0.676443;,
         0.000000;-0.333934;-0.942564;,
         0.928159; 0.259774;-0.266457;,
         0.971496;-0.232826; 0.043947;,
         0.657765;-0.331217;-0.676443;,
         0.589160; 0.556444;-0.585833;,
        -0.970489;-0.235664; 0.050844;,
        -0.924039; 0.279275;-0.260964;,
        -0.593677; 0.556993;-0.580737;,
        -0.660329;-0.332560;-0.673299;,
        -0.804254;-0.576159; 0.145482;,
        -0.947783;-0.318857; 0.001221;,
        -0.398785;-0.916929; 0.014161;,
        -0.316874;-0.901151; 0.295785;,
         0.000000; 0.558641; 0.829371;,
        -0.617603; 0.458846; 0.638722;,
        -0.687094;-0.317331; 0.653554;,
         0.000000;-0.203406; 0.979064;,
        -0.983215; 0.181310;-0.018769;,
        -0.804743;-0.573962;-0.151494;,
        -0.687094;-0.317331; 0.653554;,
        -0.617603; 0.458846; 0.638722;,
         0.000000;-0.021546;-0.999756;,
        -0.998047; 0.053224;-0.031770;,
        -0.672292; 0.738823;-0.045991;,
         0.000000; 0.998779;-0.048830;,
         0.804315;-0.573931;-0.153752;,
         0.977355; 0.210974;-0.015076;,
         0.615680; 0.460005; 0.639790;,
         0.686819;-0.309061; 0.657796;,
         0.000000;-0.999878; 0.015442;,
        -0.398785;-0.916929; 0.014161;,
        -0.420026;-0.906857; 0.033631;,
         0.000000;-0.999847; 0.016327;,
         0.000000;-0.912534;-0.408948;,
         0.331828;-0.886929;-0.321268;,
         0.323374;-0.827937; 0.458174;,
         0.000000;-0.837123; 0.547014;,
         0.000000;-0.999847; 0.016327;,
        -0.420026;-0.906857; 0.033631;,
        -0.488907;-0.823756;-0.286996;,
         0.000000;-0.892026;-0.451918;,
         0.971496;-0.232826; 0.043947;,
         0.949705;-0.313120; 0.002106;,
         0.415998;-0.909238; 0.014039;,
         0.436537;-0.899075; 0.032319;,
        -0.947783;-0.318857; 0.001221;,
        -0.970489;-0.235664; 0.050844;,
        -0.420026;-0.906857; 0.033631;,
        -0.398785;-0.916929; 0.014161;,
         0.804315;-0.573931;-0.153752;,
         0.686819;-0.309061; 0.657796;,
         0.323374;-0.827937; 0.458174;,
         0.331828;-0.886929;-0.321268;,
         0.000000;-0.333934;-0.942564;,
         0.657765;-0.331217;-0.676443;,
         0.495407;-0.818232;-0.291543;,
         0.000000;-0.892026;-0.451918;,
         0.657765;-0.331217;-0.676443;,
         0.971496;-0.232826; 0.043947;,
         0.436537;-0.899075; 0.032319;,
         0.495407;-0.818232;-0.291543;,
         0.000000; 0.994263; 0.106906;,
         0.540941; 0.839106; 0.056703;,
         0.540941; 0.668691;-0.510056;,
         0.000000; 0.770440;-0.637471;,
        -0.638905; 0.091525;-0.763787;,
        -0.642567; 0.510208; 0.571612;,
        -0.541215; 0.838954; 0.056764;,
        -0.541215; 0.668538;-0.509995;,
         0.642598; 0.510269; 0.571520;,
         0.638905; 0.091617;-0.763756;,
         0.540941; 0.668691;-0.510056;,
         0.540941; 0.839106; 0.056703;,
         0.000000; 0.081545;-0.996643;,
        -0.638905; 0.091525;-0.763787;,
        -0.541215; 0.668538;-0.509995;,
         0.000000; 0.770440;-0.637471;,
         0.000000; 0.999786;-0.020569;,
        -0.538072; 0.842494;-0.025636;,
        -0.474624; 0.871639; 0.122349;,
         0.000000; 0.981842; 0.189642;,
        -0.983215; 0.181310;-0.018769;,
        -0.617603; 0.458846; 0.638722;,
        -0.474624; 0.871639; 0.122349;,
        -0.538072; 0.842494;-0.025636;,
         0.000000; 0.558641; 0.829371;,
         0.615680; 0.460005; 0.639790;,
         0.463576; 0.877438; 0.123234;,
         0.000000; 0.981842; 0.189642;,
         0.988800; 0.148350;-0.014283;,
         0.998749; 0.039552;-0.030519;,
         0.612842; 0.789087;-0.041688;,
         0.559343; 0.828578;-0.023316;,
         0.000000;-0.311747;-0.950133;,
         0.707083;-0.220435;-0.671834;,
         0.707083;-0.220435;-0.671834;,
         0.000000;-0.311747;-0.950133;,
        -0.730796; 0.277840; 0.623463;,
        -0.707083;-0.220435;-0.671834;,
        -0.707083;-0.220435;-0.671834;,
        -0.834437; 0.472182; 0.284127;,
         0.707083;-0.220435;-0.671834;,
         0.730796; 0.277840; 0.623463;,
         0.834437; 0.472182; 0.284127;,
         0.707083;-0.220435;-0.671834;,
         0.000000; 0.407056; 0.913388;,
        -0.730796; 0.277840; 0.623463;,
        -0.834437; 0.472182; 0.284127;,
         0.000000; 0.856807; 0.515580;,
         0.000000; 0.144078; 0.989563;,
        -0.698294; 0.159307; 0.697806;,
        -0.574969;-0.582141; 0.574847;,
         0.000000;-0.711539; 0.702628;,
         0.000000;-0.999481;-0.031526;,
         0.706534;-0.707297;-0.022309;,
         0.574969;-0.582141; 0.574847;,
         0.000000;-0.711539; 0.702628;,
         0.706534;-0.707297;-0.022309;,
         0.923643; 0.303232;-0.234230;,
         0.698294; 0.159307; 0.697806;,
         0.574969;-0.582141; 0.574847;,
        -0.923643; 0.303232;-0.234230;,
        -0.706534;-0.707297;-0.022309;,
        -0.574969;-0.582141; 0.574847;,
        -0.698294; 0.159307; 0.697806;,
        -0.834437; 0.472182; 0.284127;,
        -0.998047; 0.053224;-0.031770;,
        -0.706534;-0.707297;-0.022309;,
        -0.923643; 0.303232;-0.234230;,
         0.998749; 0.039552;-0.030519;,
         0.834437; 0.472182; 0.284127;,
         0.923643; 0.303232;-0.234230;,
         0.706534;-0.707297;-0.022309;,
         0.000000;-0.021546;-0.999756;,
         0.998749; 0.039552;-0.030519;,
         0.706534;-0.707297;-0.022309;,
         0.000000;-0.999481;-0.031526;,
         0.000000; 0.856807; 0.515580;,
        -0.834437; 0.472182; 0.284127;,
        -0.923643; 0.303232;-0.234230;,
         0.000000; 0.631947;-0.774987;,
         0.000000;-0.832362;-0.554186;,
        -0.907804;-0.327342;-0.262093;,
        -0.619373;-0.646840;-0.444868;,
         0.000000;-0.810968;-0.585070;,
         0.000000; 0.631947;-0.774987;,
        -0.923643; 0.303232;-0.234230;,
        -0.907804;-0.327342;-0.262093;,
         0.000000;-0.832362;-0.554186;,
         0.698294; 0.159307; 0.697806;,
         0.923643; 0.303232;-0.234230;,
         0.907804;-0.327342;-0.262093;,
         0.699515; 0.243599; 0.671773;,
         0.000000; 0.144078; 0.989563;,
         0.698294; 0.159307; 0.697806;,
         0.699515; 0.243599; 0.671773;,
         0.000000; 0.235786; 0.971770;,
         0.000000; 0.998901;-0.046388;,
        -0.687887; 0.725730; 0.010071;,
        -0.622486; 0.606128; 0.495041;,
         0.000000; 0.755974; 0.654561;,
        -0.907804;-0.327342;-0.262093;,
        -0.699515; 0.243599; 0.671773;,
        -0.622486; 0.606128; 0.495041;,
        -0.687887; 0.725730; 0.010071;,
         0.699515; 0.243599; 0.671773;,
         0.907804;-0.327342;-0.262093;,
         0.687887; 0.725730; 0.010071;,
         0.622486; 0.606128; 0.495041;,
         0.000000; 0.235786; 0.971770;,
         0.699515; 0.243599; 0.671773;,
         0.622486; 0.606128; 0.495041;,
         0.000000; 0.755974; 0.654561;,
         0.000000;-0.810968;-0.585070;,
        -0.619373;-0.646840;-0.444868;,
        -0.612476; 0.477432;-0.629963;,
         0.000000; 0.588214;-0.808679;,
        -0.907804;-0.327342;-0.262093;,
        -0.687887; 0.725730; 0.010071;,
        -0.612476; 0.477432;-0.629963;,
        -0.619373;-0.646840;-0.444868;,
         0.687887; 0.725730; 0.010071;,
         0.907804;-0.327342;-0.262093;,
         0.619373;-0.646840;-0.444868;,
         0.612476; 0.477432;-0.629963;,
         0.000000; 0.998901;-0.046388;,
         0.687887; 0.725730; 0.010071;,
         0.612476; 0.477432;-0.629963;,
         0.000000; 0.588214;-0.808679;,
         0.615680; 0.460005; 0.639790;,
         0.977355; 0.210974;-0.015076;,
         0.523698; 0.851558;-0.023133;,
         0.463576; 0.877438; 0.123234;,
        -0.996429; 0.082522;-0.017518;,
        -0.983215; 0.181310;-0.018769;,
        -0.538072; 0.842494;-0.025636;,
        -0.590777; 0.806391;-0.026124;,
         0.000000; 0.999786;-0.020569;,
        -0.590777; 0.806391;-0.026124;,
        -0.538072; 0.842494;-0.025636;,
         0.000000; 0.999786;-0.020569;,
         0.000000;-0.923276; 0.384106;,
         0.000000;-0.925199; 0.379437;,
         0.333659;-0.895596; 0.294137;,
         0.800592;-0.579608; 0.151891;,
         0.000000;-0.923276; 0.384106;,
         0.000000;-0.914365;-0.404828;,
        -0.804743;-0.573962;-0.151494;,
        -0.804254;-0.576159; 0.145482;,
         0.800592;-0.579608; 0.151891;,
         0.988800; 0.148350;-0.014283;,
         0.977355; 0.210974;-0.015076;,
         0.804315;-0.573931;-0.153752;,
        -0.996429; 0.082522;-0.017518;,
        -0.804254;-0.576159; 0.145482;,
        -0.804743;-0.573962;-0.151494;,
        -0.983215; 0.181310;-0.018769;,
        -0.687094;-0.317331; 0.653554;,
        -0.804743;-0.573962;-0.151494;,
        -0.315378;-0.892239;-0.323069;,
        -0.307688;-0.832514; 0.460677;,
        -0.998047; 0.053224;-0.031770;,
        -0.947783;-0.318857; 0.001221;,
        -0.804254;-0.576159; 0.145482;,
        -0.996429; 0.082522;-0.017518;,
         0.949705;-0.313120; 0.002106;,
         0.998749; 0.039552;-0.030519;,
         0.988800; 0.148350;-0.014283;,
         0.800592;-0.579608; 0.151891;,
         0.000000;-0.999878; 0.015442;,
         0.415998;-0.909238; 0.014039;,
         0.333659;-0.895596; 0.294137;,
         0.000000;-0.925199; 0.379437;,
         0.949705;-0.313120; 0.002106;,
         0.800592;-0.579608; 0.151891;,
         0.333659;-0.895596; 0.294137;,
         0.415998;-0.909238; 0.014039;,
         0.000000; 0.998779;-0.048830;,
        -0.672292; 0.738823;-0.045991;,
        -0.590777; 0.806391;-0.026124;,
         0.000000; 0.999786;-0.020569;,
        -0.998047; 0.053224;-0.031770;,
        -0.996429; 0.082522;-0.017518;,
        -0.590777; 0.806391;-0.026124;,
        -0.672292; 0.738823;-0.045991;,
         0.977355; 0.210974;-0.015076;,
         0.988800; 0.148350;-0.014283;,
         0.559343; 0.828578;-0.023316;,
         0.523698; 0.851558;-0.023133;,
         0.000000;-0.912534;-0.408948;,
        -0.315378;-0.892239;-0.323069;,
        -0.804743;-0.573962;-0.151494;,
         0.000000;-0.914365;-0.404828;,
         0.331828;-0.886929;-0.321268;,
         0.000000;-0.912534;-0.408948;,
         0.000000;-0.914365;-0.404828;,
         0.804315;-0.573931;-0.153752;,
         0.612842; 0.789087;-0.041688;,
         0.000000; 0.998779;-0.048830;,
         0.000000; 0.999786;-0.020569;,
         0.559343; 0.828578;-0.023316;,
        -0.398785;-0.916929; 0.014161;,
         0.000000;-0.999878; 0.015442;,
         0.000000;-0.925199; 0.379437;,
        -0.316874;-0.901151; 0.295785;,
         0.800592;-0.579608; 0.151891;,
         0.804315;-0.573931;-0.153752;,
         0.000000;-0.914365;-0.404828;,
         0.000000;-0.923276; 0.384106;,
        -0.804254;-0.576159; 0.145482;,
        -0.316874;-0.901151; 0.295785;,
         0.000000;-0.925199; 0.379437;,
         0.000000;-0.923276; 0.384106;,
         0.559343; 0.828578;-0.023316;,
         0.000000; 0.999786;-0.020569;,
         0.000000; 0.999786;-0.020569;,
         0.523698; 0.851558;-0.023133;,
        -0.687887; 0.725730; 0.010071;,
         0.000000; 0.998901;-0.046388;,
         0.000000; 0.588214;-0.808679;,
        -0.612476; 0.477432;-0.629963;,
         0.619373;-0.646840;-0.444868;,
         0.000000;-0.810968;-0.585070;,
         0.000000; 0.588214;-0.808679;,
         0.612476; 0.477432;-0.629963;,
        -0.699515; 0.243599; 0.671773;,
         0.000000; 0.235786; 0.971770;,
         0.000000; 0.755974; 0.654561;,
        -0.622486; 0.606128; 0.495041;,
         0.687887; 0.725730; 0.010071;,
         0.000000; 0.998901;-0.046388;,
         0.000000; 0.755974; 0.654561;,
         0.622486; 0.606128; 0.495041;,
        -0.698294; 0.159307; 0.697806;,
         0.000000; 0.144078; 0.989563;,
         0.000000; 0.235786; 0.971770;,
        -0.699515; 0.243599; 0.671773;,
         0.923643; 0.303232;-0.234230;,
         0.000000; 0.631947;-0.774987;,
         0.000000;-0.832362;-0.554186;,
         0.907804;-0.327342;-0.262093;,
         0.907804;-0.327342;-0.262093;,
         0.000000;-0.832362;-0.554186;,
         0.000000;-0.810968;-0.585070;,
         0.619373;-0.646840;-0.444868;,
         0.834437; 0.472182; 0.284127;,
         0.000000; 0.856807; 0.515580;,
         0.000000; 0.631947;-0.774987;,
         0.923643; 0.303232;-0.234230;,
        -0.998047; 0.053224;-0.031770;,
         0.000000;-0.021546;-0.999756;,
         0.000000;-0.999481;-0.031526;,
        -0.706534;-0.707297;-0.022309;,
        -0.706534;-0.707297;-0.022309;,
         0.000000;-0.999481;-0.031526;,
         0.000000;-0.711539; 0.702628;,
        -0.574969;-0.582141; 0.574847;,
         0.698294; 0.159307; 0.697806;,
         0.000000; 0.144078; 0.989563;,
         0.000000;-0.711539; 0.702628;,
         0.574969;-0.582141; 0.574847;,
         0.730796; 0.277840; 0.623463;,
         0.000000; 0.407056; 0.913388;,
         0.000000; 0.856807; 0.515580;,
         0.834437; 0.472182; 0.284127;,
        -0.707083;-0.220435;-0.671834;,
         0.000000;-0.311747;-0.950133;,
         0.000000;-0.311747;-0.950133;,
        -0.707083;-0.220435;-0.671834;,
        -0.617603; 0.458846; 0.638722;,
         0.000000; 0.558641; 0.829371;,
         0.000000; 0.981842; 0.189642;,
        -0.474624; 0.871639; 0.122349;,
         0.523698; 0.851558;-0.023133;,
         0.000000; 0.999786;-0.020569;,
         0.000000; 0.981842; 0.189642;,
         0.463576; 0.877438; 0.123234;,
         0.638905; 0.091617;-0.763756;,
         0.000000; 0.081545;-0.996643;,
         0.000000; 0.770440;-0.637471;,
         0.540941; 0.668691;-0.510056;,
        -0.541215; 0.838954; 0.056764;,
         0.000000; 0.994263; 0.106906;,
         0.000000; 0.770440;-0.637471;,
        -0.541215; 0.668538;-0.509995;,
        -0.660329;-0.332560;-0.673299;,
         0.000000;-0.333934;-0.942564;,
         0.000000;-0.892026;-0.451918;,
        -0.488907;-0.823756;-0.286996;,
         0.436537;-0.899075; 0.032319;,
         0.000000;-0.999847; 0.016327;,
         0.000000;-0.892026;-0.451918;,
         0.495407;-0.818232;-0.291543;,
        -0.315378;-0.892239;-0.323069;,
         0.000000;-0.912534;-0.408948;,
         0.000000;-0.837123; 0.547014;,
        -0.307688;-0.832514; 0.460677;,
         0.415998;-0.909238; 0.014039;,
         0.000000;-0.999878; 0.015442;,
         0.000000;-0.999847; 0.016327;,
         0.436537;-0.899075; 0.032319;,
         0.998749; 0.039552;-0.030519;,
         0.000000;-0.021546;-0.999756;,
         0.000000; 0.998779;-0.048830;,
         0.612842; 0.789087;-0.041688;,
         0.615680; 0.460005; 0.639790;,
         0.000000; 0.558641; 0.829371;,
         0.000000;-0.203406; 0.979064;,
         0.686819;-0.309061; 0.657796;,
        -0.593677; 0.556993;-0.580737;,
         0.000000; 0.678945;-0.734153;,
         0.000000;-0.333934;-0.942564;,
        -0.660329;-0.332560;-0.673299;,
         0.686819;-0.309061; 0.657796;,
         0.000000;-0.203406; 0.979064;,
         0.000000;-0.837123; 0.547014;,
         0.323374;-0.827937; 0.458174;,
        -0.707083;-0.220435;-0.671834;,
         0.000000;-0.311747;-0.950133;,
         0.000000; 0.580126;-0.814478;,
        -0.924039; 0.279275;-0.260964;,
        -0.924039; 0.279275;-0.260964;,
         0.000000; 0.580126;-0.814478;,
         0.000000; 0.678945;-0.734153;,
        -0.593677; 0.556993;-0.580737;,
        -0.642567; 0.510208; 0.571612;,
         0.000000; 0.637135; 0.770745;,
         0.000000; 0.994263; 0.106906;,
        -0.541215; 0.838954; 0.056764;,
         0.638905; 0.091617;-0.763756;,
         0.707083;-0.220435;-0.671834;,
         0.000000;-0.311747;-0.950133;,
         0.000000; 0.081545;-0.996643;,
        -0.642567; 0.510208; 0.571612;,
        -0.730796; 0.277840; 0.623463;,
         0.000000; 0.407056; 0.913388;,
         0.000000; 0.637135; 0.770745;;
        114;
        4;3,2,1,0;,
        4;7,6,5,4;,
        4;11,10,9,8;,
        4;15,14,13,12;,
        4;19,18,17,16;,
        4;23,22,21,20;,
        4;27,26,25,24;,
        4;31,30,29,28;,
        4;35,34,33,32;,
        4;39,38,37,36;,
        4;43,42,41,40;,
        4;47,46,45,44;,
        4;51,50,49,48;,
        4;55,54,53,52;,
        4;59,58,57,56;,
        4;63,62,61,60;,
        4;67,66,65,64;,
        4;71,70,69,68;,
        4;75,74,73,72;,
        4;79,78,77,76;,
        4;83,82,81,80;,
        4;87,86,85,84;,
        4;91,90,89,88;,
        4;95,94,93,92;,
        4;99,98,97,96;,
        4;103,102,101,100;,
        4;107,106,105,104;,
        4;111,110,109,108;,
        4;115,114,113,112;,
        4;119,118,117,116;,
        4;123,122,121,120;,
        4;127,126,125,124;,
        4;131,130,129,128;,
        4;135,134,133,132;,
        4;139,138,137,136;,
        4;143,142,141,140;,
        4;147,146,145,144;,
        4;151,150,149,148;,
        4;155,154,153,152;,
        4;159,158,157,156;,
        4;163,162,161,160;,
        4;167,166,165,164;,
        4;171,170,169,168;,
        4;175,174,173,172;,
        4;179,178,177,176;,
        4;183,182,181,180;,
        4;187,186,185,184;,
        4;191,190,189,188;,
        4;195,194,193,192;,
        4;199,198,197,196;,
        4;203,202,201,200;,
        4;207,206,205,204;,
        4;211,210,209,208;,
        4;215,214,213,212;,
        4;219,218,217,216;,
        4;223,222,221,220;,
        4;227,226,225,224;,
        4;231,230,229,228;,
        4;235,234,233,232;,
        4;239,238,237,236;,
        4;243,242,241,240;,
        4;247,246,245,244;,
        4;251,250,249,248;,
        4;255,254,253,252;,
        4;259,258,257,256;,
        4;263,262,261,260;,
        4;267,266,265,264;,
        4;271,270,269,268;,
        4;275,274,273,272;,
        4;279,278,277,276;,
        4;283,282,281,280;,
        4;287,286,285,284;,
        4;291,290,289,288;,
        4;295,294,293,292;,
        4;299,298,297,296;,
        4;303,302,301,300;,
        4;307,306,305,304;,
        4;311,310,309,308;,
        4;315,314,313,312;,
        4;319,318,317,316;,
        4;323,322,321,320;,
        4;327,326,325,324;,
        4;331,330,329,328;,
        4;335,334,333,332;,
        4;339,338,337,336;,
        4;343,342,341,340;,
        4;347,346,345,344;,
        4;351,350,349,348;,
        4;355,354,353,352;,
        4;359,358,357,356;,
        4;363,362,361,360;,
        4;367,366,365,364;,
        4;371,370,369,368;,
        4;375,374,373,372;,
        4;379,378,377,376;,
        4;383,382,381,380;,
        4;387,386,385,384;,
        4;391,390,389,388;,
        4;395,394,393,392;,
        4;399,398,397,396;,
        4;403,402,401,400;,
        4;407,406,405,404;,
        4;411,410,409,408;,
        4;415,414,413,412;,
        4;419,418,417,416;,
        4;423,422,421,420;,
        4;427,426,425,424;,
        4;431,430,429,428;,
        4;435,434,433,432;,
        4;439,438,437,436;,
        4;443,442,441,440;,
        4;447,446,445,444;,
        4;451,450,449,448;,
        4;455,454,453,452;;
      } // End of Cube normals
      MeshTextureCoords { // Cube UV coordinates
        456;
         0.053541; 1.000000;,
         0.200009; 0.955244;,
         0.154729; 0.798296;,
         0.008262; 0.843053;,
         0.132990; 0.089524;,
         0.132990; 0.237668;,
         0.177320; 0.237668;,
         0.177320; 0.089524;,
         0.454648; 0.505754;,
         0.601009; 0.550506;,
         0.646237; 0.393557;,
         0.499876; 0.348806;,
         0.044330; 0.333472;,
         0.044330; 0.203181;,
         0.000000; 0.203181;,
         0.000000; 0.333472;,
         0.310311; 0.348814;,
         0.354641; 0.348814;,
         0.351959; 0.334620;,
         0.310307; 0.334620;,
         0.267703; 0.621264;,
         0.268267; 0.608943;,
         0.184677; 0.631006;,
         0.184336; 0.638440;,
         0.446362; 0.185461;,
         0.446362; 0.228916;,
         0.519369; 0.236898;,
         0.519369; 0.184095;,
         0.725322; 0.417739;,
         0.707858; 0.608690;,
         0.776026; 0.608754;,
         0.776229; 0.433304;,
         0.261653; 0.740109;,
         0.279151; 0.931060;,
         0.330094; 0.915493;,
         0.329873; 0.740043;,
         0.044330; 0.132780;,
         0.088660; 0.132780;,
         0.088660; 0.087463;,
         0.044330; 0.087463;,
         0.425093; 0.902348;,
         0.424947; 0.982903;,
         0.446362; 0.968231;,
         0.445393; 0.892814;,
         0.500228; 0.328678;,
         0.446362; 0.328678;,
         0.466610; 0.348806;,
         0.500228; 0.348806;,
         0.776229; 0.433304;,
         0.776026; 0.608754;,
         0.870643; 0.608834;,
         0.871059; 0.446466;,
         0.329873; 0.740043;,
         0.330094; 0.915493;,
         0.425093; 0.902348;,
         0.424659; 0.739980;,
         0.696620; 0.242153;,
         0.642754; 0.242153;,
         0.642754; 0.331342;,
         0.696620; 0.331342;,
         0.776229; 0.433304;,
         0.871059; 0.446466;,
         0.870905; 0.365910;,
         0.776843; 0.361589;,
         0.425093; 0.902348;,
         0.330094; 0.915493;,
         0.330814; 0.987228;,
         0.424947; 0.982903;,
         0.425523; 0.528579;,
         0.424659; 0.739980;,
         0.444988; 0.741036;,
         0.445671; 0.551081;,
         0.500228; 0.236898;,
         0.446362; 0.236898;,
         0.446362; 0.328678;,
         0.500228; 0.328678;,
         0.331207; 0.466280;,
         0.425218; 0.482797;,
         0.425843; 0.348814;,
         0.331778; 0.348953;,
         0.947527; 0.000000;,
         0.903197; 0.000000;,
         0.899390; 0.151217;,
         0.946134; 0.151217;,
         0.871229; 0.866017;,
         0.777320; 0.882531;,
         0.777874; 0.999864;,
         0.871867; 1.000000;,
         0.946134; 0.617799;,
         0.979752; 0.617799;,
         0.979752; 0.466016;,
         0.946134; 0.466016;,
         0.946134; 0.894532;,
         0.911040; 0.894532;,
         0.911040; 1.000000;,
         0.946134; 1.000000;,
         0.946134; 0.466016;,
         0.979752; 0.466016;,
         0.996487; 0.390713;,
         0.946134; 0.390713;,
         0.871059; 0.446466;,
         0.870643; 0.608834;,
         0.890854; 0.607767;,
         0.891243; 0.455988;,
         0.424659; 0.739980;,
         0.425093; 0.902348;,
         0.445393; 0.892814;,
         0.444988; 0.741036;,
         0.871229; 0.866017;,
         0.871867; 1.000000;,
         0.892268; 0.989961;,
         0.891993; 0.884495;,
         0.696620; 0.331342;,
         0.642754; 0.331342;,
         0.646267; 0.348806;,
         0.696620; 0.348806;,
         0.870905; 0.365910;,
         0.871059; 0.446466;,
         0.891243; 0.455988;,
         0.892268; 0.380582;,
         0.310307; 0.334620;,
         0.351959; 0.334620;,
         0.351959; 0.201198;,
         0.310307; 0.201198;,
         0.053541; 1.000000;,
         0.008262; 0.843053;,
         0.000000; 0.856839;,
         0.039111; 0.992406;,
         0.454648; 0.505754;,
         0.499876; 0.348806;,
         0.485429; 0.356400;,
         0.446362; 0.491968;,
         0.044330; 0.333472;,
         0.000000; 0.333472;,
         0.002674; 0.348814;,
         0.044326; 0.348814;,
         0.946134; 0.300395;,
         0.899390; 0.300395;,
         0.899390; 0.364328;,
         0.946134; 0.364328;,
         0.331207; 0.466280;,
         0.331778; 0.348953;,
         0.319627; 0.374735;,
         0.319932; 0.438768;,
         0.946134; 0.390713;,
         1.000000; 0.390713;,
         0.992878; 0.364328;,
         0.946134; 0.364328;,
         0.776944; 0.803139;,
         0.776026; 0.608754;,
         0.766645; 0.760640;,
         0.766153; 0.866723;,
         0.044330; 0.203181;,
         0.088660; 0.203181;,
         0.088660; 0.132780;,
         0.044330; 0.132780;,
         0.154729; 0.798296;,
         0.200009; 0.955244;,
         0.279151; 0.931060;,
         0.261653; 0.740109;,
         0.646237; 0.393557;,
         0.601009; 0.550506;,
         0.707858; 0.608690;,
         0.725322; 0.417739;,
         0.132990; 0.237668;,
         0.088660; 0.237668;,
         0.088660; 0.348814;,
         0.132990; 0.348814;,
         0.221650; 0.261240;,
         0.265980; 0.261240;,
         0.265980; 0.194681;,
         0.221650; 0.194681;,
         0.598424; 0.229969;,
         0.642754; 0.229969;,
         0.642754; 0.217648;,
         0.598424; 0.217648;,
         0.782084; 0.727599;,
         0.713916; 0.727535;,
         0.714481; 0.739856;,
         0.782649; 0.739920;,
         0.267703; 0.621264;,
         0.335922; 0.621198;,
         0.336487; 0.608877;,
         0.268267; 0.608943;,
         0.261653; 0.740109;,
         0.329873; 0.740043;,
         0.335922; 0.621198;,
         0.267703; 0.621264;,
         0.776026; 0.608754;,
         0.707858; 0.608690;,
         0.713916; 0.727535;,
         0.782084; 0.727599;,
         0.598424; 0.348805;,
         0.642754; 0.348806;,
         0.642754; 0.229969;,
         0.598424; 0.229969;,
         0.687084; 0.123159;,
         0.642754; 0.123159;,
         0.642754; 0.242153;,
         0.687084; 0.242153;,
         0.791968; 0.217761;,
         0.765222; 0.215541;,
         0.750486; 0.348805;,
         0.791968; 0.348806;,
         0.554094; 0.174194;,
         0.554094; 0.217648;,
         0.630473; 0.200411;,
         0.628877; 0.174194;,
         0.714481; 0.739856;,
         0.713916; 0.727535;,
         0.630424; 0.710362;,
         0.630765; 0.717795;,
         0.221650; 0.261240;,
         0.177320; 0.261240;,
         0.194905; 0.344259;,
         0.221650; 0.342638;,
         0.396122; 0.336480;,
         0.369376; 0.339213;,
         0.369376; 0.346654;,
         0.396122; 0.348814;,
         0.184336; 0.638440;,
         0.184677; 0.631006;,
         0.180940; 0.631691;,
         0.180599; 0.639125;,
         0.630765; 0.717795;,
         0.630424; 0.710362;,
         0.626690; 0.709677;,
         0.627031; 0.717111;,
         0.221650; 0.342638;,
         0.194905; 0.344259;,
         0.194905; 0.347985;,
         0.221650; 0.348814;,
         0.443025; 0.308151;,
         0.443025; 0.267489;,
         0.437604; 0.267489;,
         0.437604; 0.308151;,
         0.184336; 0.638440;,
         0.180599; 0.639125;,
         0.194168; 0.772838;,
         0.199964; 0.771775;,
         0.626690; 0.709677;,
         0.630424; 0.710362;,
         0.646182; 0.577026;,
         0.640390; 0.575964;,
         0.396122; 0.336480;,
         0.422868; 0.339213;,
         0.437604; 0.206410;,
         0.396122; 0.206410;,
         0.777874; 0.999864;,
         0.777320; 0.882531;,
         0.765952; 0.910049;,
         0.765654; 0.974082;,
         0.330820; 0.545667;,
         0.331207; 0.466280;,
         0.319932; 0.438768;,
         0.320138; 0.482094;,
         0.946134; 0.257135;,
         0.899390; 0.257135;,
         0.899390; 0.300395;,
         0.946134; 0.300395;,
         0.946134; 0.830438;,
         0.946134; 0.807757;,
         0.911040; 0.807757;,
         0.892268; 0.830438;,
         0.946134; 0.830438;,
         0.946134; 0.876223;,
         1.000000; 0.876223;,
         1.000000; 0.830438;,
         0.871529; 0.820234;,
         0.776944; 0.803139;,
         0.777320; 0.882531;,
         0.871229; 0.866017;,
         0.330820; 0.545667;,
         0.425523; 0.528579;,
         0.425218; 0.482797;,
         0.331207; 0.466280;,
         0.425843; 0.348814;,
         0.425218; 0.482797;,
         0.446099; 0.464308;,
         0.446362; 0.358841;,
         0.329873; 0.740043;,
         0.424659; 0.739980;,
         0.425523; 0.528579;,
         0.330820; 0.545667;,
         0.870643; 0.608834;,
         0.776026; 0.608754;,
         0.776944; 0.803139;,
         0.871529; 0.820234;,
         0.946134; 0.617799;,
         0.911040; 0.617799;,
         0.911040; 0.807757;,
         0.946134; 0.807757;,
         0.870643; 0.608834;,
         0.871529; 0.820234;,
         0.891557; 0.797721;,
         0.890854; 0.607767;,
         0.946134; 0.151217;,
         0.899390; 0.151217;,
         0.899390; 0.257135;,
         0.946134; 0.257135;,
         0.329873; 0.740043;,
         0.330820; 0.545667;,
         0.320138; 0.482094;,
         0.320642; 0.588177;,
         0.777320; 0.882531;,
         0.776944; 0.803139;,
         0.766153; 0.866723;,
         0.765952; 0.910049;,
         0.946134; 0.894532;,
         0.979752; 0.894532;,
         1.000000; 0.876223;,
         0.946134; 0.876223;,
         0.911040; 0.894532;,
         0.946134; 0.894532;,
         0.946134; 0.876223;,
         0.892268; 0.876223;,
         0.992878; 0.151217;,
         0.946134; 0.151217;,
         0.946134; 0.257135;,
         0.992878; 0.257135;,
         0.979752; 0.617799;,
         0.946134; 0.617799;,
         0.946134; 0.807757;,
         0.979752; 0.807757;,
         0.892268; 0.830438;,
         0.892268; 0.876223;,
         0.946134; 0.876223;,
         0.946134; 0.830438;,
         1.000000; 0.830438;,
         0.979752; 0.807757;,
         0.946134; 0.807757;,
         0.946134; 0.830438;,
         0.992878; 0.257135;,
         0.946134; 0.257135;,
         0.946134; 0.300395;,
         0.992878; 0.300395;,
         0.369376; 0.339213;,
         0.396122; 0.336480;,
         0.396122; 0.206410;,
         0.354641; 0.206410;,
         0.443025; 0.348814;,
         0.443025; 0.308151;,
         0.437604; 0.308151;,
         0.437604; 0.348814;,
         0.248396; 0.344259;,
         0.221650; 0.342638;,
         0.221650; 0.348814;,
         0.248396; 0.347985;,
         0.422868; 0.339213;,
         0.396122; 0.336480;,
         0.396122; 0.348814;,
         0.422868; 0.346654;,
         0.265980; 0.261240;,
         0.221650; 0.261240;,
         0.221650; 0.342638;,
         0.248396; 0.344259;,
         0.554094; 0.130739;,
         0.554094; 0.174194;,
         0.628877; 0.174194;,
         0.630473; 0.147976;,
         0.818714; 0.215541;,
         0.791968; 0.217761;,
         0.791968; 0.348806;,
         0.833450; 0.348806;,
         0.731414; 0.123159;,
         0.687084; 0.123159;,
         0.687084; 0.242153;,
         0.731414; 0.242153;,
         0.554094; 0.348806;,
         0.598424; 0.348805;,
         0.598424; 0.229969;,
         0.554094; 0.229969;,
         0.554094; 0.229969;,
         0.598424; 0.229969;,
         0.598424; 0.217648;,
         0.554094; 0.217648;,
         0.177320; 0.261240;,
         0.221650; 0.261240;,
         0.221650; 0.194681;,
         0.177320; 0.194681;,
         0.177320; 0.237668;,
         0.132990; 0.237668;,
         0.132990; 0.348814;,
         0.177320; 0.348814;,
         0.000000; 0.203181;,
         0.044330; 0.203181;,
         0.044330; 0.132780;,
         0.000000; 0.132780;,
         0.892268; 0.390713;,
         0.946134; 0.390713;,
         0.946134; 0.364328;,
         0.899390; 0.364328;,
         0.992878; 0.300395;,
         0.946134; 0.300395;,
         0.946134; 0.364328;,
         0.992878; 0.364328;,
         0.088660; 0.333472;,
         0.044330; 0.333472;,
         0.044326; 0.348814;,
         0.085978; 0.348814;,
         0.268654; 0.334620;,
         0.310307; 0.334620;,
         0.310307; 0.201198;,
         0.268654; 0.201198;,
         0.750486; 0.331342;,
         0.696620; 0.331342;,
         0.696620; 0.348806;,
         0.746973; 0.348806;,
         0.911040; 0.466016;,
         0.946134; 0.466016;,
         0.946134; 0.390713;,
         0.895781; 0.390713;,
         0.979752; 0.894532;,
         0.946134; 0.894532;,
         0.946134; 1.000000;,
         0.979752; 1.000000;,
         0.911040; 0.617799;,
         0.946134; 0.617799;,
         0.946134; 0.466016;,
         0.911040; 0.466016;,
         0.991857; 0.000000;,
         0.947527; 0.000000;,
         0.946134; 0.151217;,
         0.992878; 0.151217;,
         0.554094; 0.236898;,
         0.500228; 0.236898;,
         0.500228; 0.328678;,
         0.554094; 0.328678;,
         0.750486; 0.242153;,
         0.696620; 0.242153;,
         0.696620; 0.331342;,
         0.750486; 0.331342;,
         0.554094; 0.328678;,
         0.500228; 0.328678;,
         0.500228; 0.348806;,
         0.535323; 0.348806;,
         0.000000; 0.132780;,
         0.044330; 0.132780;,
         0.044330; 0.087463;,
         0.000000; 0.087463;,
         0.446362; 0.142006;,
         0.446362; 0.185461;,
         0.519369; 0.184095;,
         0.519369; 0.131293;,
         0.265980; 0.348814;,
         0.310311; 0.348814;,
         0.310307; 0.334620;,
         0.268654; 0.334620;,
         0.088660; 0.333472;,
         0.088660; 0.203181;,
         0.044330; 0.203181;,
         0.044330; 0.333472;,
         0.088660; 0.089524;,
         0.088660; 0.237668;,
         0.132990; 0.237668;,
         0.132990; 0.089524;;
      } // End of Cube UV coordinates
      MeshMaterialList { // Cube material list
        1;
        114;
        0,
        0,
        0,
        0,
        0,
        0,
        0,
        0,
        0,
        0,
        0,
        0,
        0,
        0,
        0,
        0,
        0,
        0,
        0,
        0,
        0,
        0,
        0,
        0,
        0,
        0,
        0,
        0,
        0,
        0,
        0,
        0,
        0,
        0,
        0,
        0,
        0,
        0,
        0,
        0,
        0,
        0,
        0,
        0,
        0,
        0,
        0,
        0,
        0,
        0,
        0,
        0,
        0,
        0,
        0,
        0,
        0,
        0,
        0,
        0,
        0,
        0,
        0,
        0,
        0,
        0,
        0,
        0,
        0,
        0,
        0,
        0,
        0,
        0,
        0,
        0,
        0,
        0,
        0,
        0,
        0,
        0,
        0,
        0,
        0,
        0,
        0,
        0,
        0,
        0,
        0,
        0,
        0,
        0,
        0,
        0,
        0,
        0,
        0,
        0,
        0,
        0,
        0,
        0,
        0,
        0,
        0,
        0,
        0,
        0,
        0,
        0,
        0,
        0;
        Material Material_001 {
           0.640000; 0.640000; 0.640000; 1.000000;;
           96.078431;
           0.500000; 0.500000; 0.500000;;
           0.000000; 0.000000; 0.000000;;
        }
      } // End of Cube material list
    } // End of Cube mesh
  } // End of Cube
} // End of Root
