xof 0303txt 0032

Frame Root {
  FrameTransformMatrix {
     1.000000, 0.000000, 0.000000, 0.000000,
     0.000000,-0.000000, 1.000000, 0.000000,
     0.000000, 1.000000, 0.000000, 0.000000,
     0.000000, 0.000000, 0.000000, 1.000000;;
  }
  Frame Cylinder_001 {
    FrameTransformMatrix {
       1.000000, 0.000000, 0.000000, 0.000000,
       0.000000, 1.000000, 0.000000, 0.000000,
       0.000000, 0.000000, 1.000000, 0.000000,
       0.000000, 0.000000, 0.000000, 1.000000;;
    }
    Mesh { // Cylinder_001 mesh
      532;
       0.005249; 0.034215; 0.426359;,
       0.005249; 0.029081; 0.188723;,
       0.004605; 0.035617; 0.188526;,
       0.004605; 0.040751; 0.426163;,
      -0.016307; 0.035617; 0.188526;,
      -0.012139; 0.040694; 0.188374;,
      -0.012139; 0.040564; 0.184047;,
      -0.016307; 0.035487; 0.184200;,
       0.004605; 0.035617; 0.188526;,
       0.000436; 0.040694; 0.188374;,
       0.000436; 0.045828; 0.426010;,
       0.004605; 0.040751; 0.426163;,
      -0.016951; 0.029081; 0.188723;,
      -0.016307; 0.035617; 0.188526;,
      -0.016307; 0.035487; 0.184200;,
      -0.016951; 0.028951; 0.184397;,
      -0.013854; 0.023289; 0.188897;,
      -0.016951; 0.029081; 0.188723;,
      -0.019619; 0.005792; 0.189667;,
      -0.013538; 0.017164; 0.189073;,
      -0.012139; 0.040694; 0.188374;,
      -0.005851; 0.042600; 0.188316;,
      -0.005851; 0.042470; 0.183990;,
      -0.012139; 0.040564; 0.184047;,
       0.000436; 0.040694; 0.188374;,
      -0.005851; 0.042600; 0.188316;,
      -0.005851; 0.047734; 0.425953;,
       0.000436; 0.045828; 0.426010;,
      -0.005851; 0.042600; 0.188316;,
       0.000436; 0.040694; 0.188374;,
       0.000436; 0.040564; 0.184047;,
      -0.005851; 0.042470; 0.183990;,
      -0.005851; 0.042600; 0.188316;,
      -0.012139; 0.040694; 0.188374;,
      -0.012139; 0.045828; 0.426010;,
      -0.005851; 0.047734; 0.425953;,
      -0.016307; 0.027309; 0.013865;,
      -0.012139; 0.031810; 0.011511;,
      -0.012139; 0.021443;-0.004602;,
      -0.016307; 0.018495;-0.000466;,
      -0.013854; 0.028423; 0.426534;,
      -0.008059; 0.025327; 0.426627;,
      -0.007792; 0.026772; 0.426824;,
      -0.012887; 0.029494; 0.426742;,
      -0.012139; 0.040694; 0.188374;,
      -0.016307; 0.035617; 0.188526;,
      -0.016307; 0.040751; 0.426163;,
      -0.012139; 0.045828; 0.426010;,
       0.002151; 0.028423; 0.426534;,
       0.005249; 0.034215; 0.426359;,
       0.003908; 0.034587; 0.426589;,
       0.001185; 0.029494; 0.426742;,
       0.000436; 0.045828; 0.426010;,
      -0.005851; 0.047734; 0.425953;,
      -0.005851; 0.046473; 0.426231;,
      -0.000323; 0.044797; 0.426282;,
      -0.016307; 0.035617; 0.188526;,
      -0.016951; 0.029081; 0.188723;,
      -0.016951; 0.034215; 0.426359;,
      -0.016307; 0.040751; 0.426163;,
       0.005249; 0.034215; 0.426359;,
       0.004605; 0.040751; 0.426163;,
       0.003342; 0.040334; 0.426416;,
       0.003908; 0.034587; 0.426589;,
      -0.016307; 0.040751; 0.426163;,
      -0.016951; 0.034215; 0.426359;,
      -0.015610; 0.034587; 0.426589;,
      -0.015044; 0.040334; 0.426416;,
      -0.016951; 0.029081; 0.188723;,
      -0.013854; 0.023289; 0.188897;,
      -0.013854; 0.028423; 0.426534;,
      -0.016951; 0.034215; 0.426359;,
      -0.008059; 0.025327; 0.426627;,
      -0.003643; 0.025327; 0.426627;,
      -0.003910; 0.026772; 0.426824;,
      -0.007792; 0.026772; 0.426824;,
      -0.003643; 0.025327; 0.426627;,
       0.002151; 0.028423; 0.426534;,
       0.001185; 0.029494; 0.426742;,
      -0.003910; 0.026772; 0.426824;,
      -0.013854; 0.023289; 0.188897;,
      -0.008059; 0.020193; 0.188990;,
      -0.008059; 0.025327; 0.426627;,
      -0.013854; 0.028423; 0.426534;,
      -0.005851; 0.047734; 0.425953;,
      -0.012139; 0.045828; 0.426010;,
      -0.011379; 0.044797; 0.426282;,
      -0.005851; 0.046473; 0.426231;,
      -0.008059; 0.020193; 0.188990;,
      -0.003643; 0.020193; 0.188990;,
      -0.003643; 0.025327; 0.426627;,
      -0.008059; 0.025327; 0.426627;,
      -0.012887; 0.029494; 0.426742;,
      -0.007792; 0.026772; 0.426824;,
      -0.006229; 0.034484; 0.395957;,
      -0.007222; 0.035014; 0.395941;,
      -0.016951; 0.034215; 0.426359;,
      -0.013854; 0.028423; 0.426534;,
      -0.012887; 0.029494; 0.426742;,
      -0.015610; 0.034587; 0.426589;,
      -0.003643; 0.020193; 0.188990;,
       0.002151; 0.023289; 0.188897;,
       0.002151; 0.028423; 0.426534;,
      -0.003643; 0.025327; 0.426627;,
      -0.005390;-0.005208; 0.062026;,
      -0.008928;-0.005212; 0.061875;,
      -0.008928;-0.020170; 0.057638;,
      -0.005390;-0.020313; 0.057689;,
      -0.012139; 0.045828; 0.426010;,
      -0.016307; 0.040751; 0.426163;,
      -0.015044; 0.040334; 0.426416;,
      -0.011379; 0.044797; 0.426282;,
       0.002151; 0.023289; 0.188897;,
       0.005249; 0.029081; 0.188723;,
       0.005249; 0.034215; 0.426359;,
       0.002151; 0.028423; 0.426534;,
       0.000436; 0.040694; 0.188374;,
       0.004605; 0.035617; 0.188526;,
       0.004605; 0.035487; 0.184200;,
       0.000436; 0.040564; 0.184047;,
       0.004605; 0.035617; 0.188526;,
       0.005249; 0.029081; 0.188723;,
       0.005249; 0.028951; 0.184397;,
       0.004605; 0.035487; 0.184200;,
       0.001677; 0.017170; 0.189073;,
      -0.013538; 0.017164; 0.189073;,
      -0.008059; 0.020193; 0.188990;,
      -0.003643; 0.020193; 0.188990;,
       0.004605; 0.040751; 0.426163;,
       0.000436; 0.045828; 0.426010;,
      -0.000323; 0.044797; 0.426282;,
       0.003342; 0.040334; 0.426416;,
      -0.003185;-0.005856; 0.032433;,
      -0.005390;-0.005208; 0.062026;,
      -0.005390;-0.020313; 0.057689;,
      -0.005242;-0.018707; 0.057296;,
      -0.005093;-0.010388; 0.055244;,
      -0.004912;-0.008907; 0.051348;,
      -0.004349;-0.007814; 0.044896;,
      -0.004001;-0.010386; 0.040558;,
      -0.003636;-0.020065; 0.037688;,
      -0.003185;-0.021265; 0.036768;,
       0.000436; 0.040564; 0.184047;,
       0.004605; 0.035487; 0.184200;,
       0.004605; 0.032287; 0.031697;,
       0.000436; 0.037364; 0.031544;,
      -0.008904;-0.005856; 0.032433;,
      -0.003185;-0.005856; 0.032433;,
      -0.003185;-0.021265; 0.036768;,
      -0.008904;-0.021265; 0.036768;,
      -0.012139; 0.040564; 0.184047;,
      -0.005851; 0.042470; 0.183990;,
      -0.005851; 0.039270; 0.031487;,
      -0.012139; 0.037364; 0.031544;,
       0.003584;-0.002656; 0.148533;,
      -0.015623;-0.002656; 0.148533;,
      -0.015623;-0.005856; 0.032433;,
      -0.008904;-0.005856; 0.032433;,
      -0.008928;-0.005212; 0.061875;,
      -0.005390;-0.005208; 0.062026;,
      -0.003185;-0.005856; 0.032433;,
       0.003584;-0.005856; 0.032433;,
      -0.005851; 0.042470; 0.183990;,
       0.000436; 0.040564; 0.184047;,
       0.000436; 0.037364; 0.031544;,
      -0.005851; 0.039270; 0.031487;,
      -0.016951; 0.028951; 0.184397;,
      -0.016307; 0.035487; 0.184200;,
      -0.016307; 0.032287; 0.031697;,
      -0.015623;-0.005856; 0.032433;,
      -0.015623;-0.002656; 0.148533;,
      -0.016307; 0.035487; 0.184200;,
      -0.012139; 0.040564; 0.184047;,
      -0.012139; 0.037364; 0.031544;,
      -0.016307; 0.032287; 0.031697;,
       0.004605; 0.035487; 0.184200;,
       0.005249; 0.028951; 0.184397;,
       0.003584;-0.002656; 0.148533;,
       0.003584;-0.005856; 0.032433;,
       0.004605; 0.032287; 0.031697;,
       0.003584;-0.005856; 0.032433;,
       0.002151;-0.011108; 0.011981;,
       0.004605; 0.018495;-0.000466;,
       0.004605; 0.027309; 0.013865;,
       0.004605; 0.032287; 0.031697;,
      -0.012139; 0.037364; 0.031544;,
      -0.005851; 0.039270; 0.031487;,
      -0.005851; 0.033500; 0.010627;,
      -0.012139; 0.031810; 0.011511;,
       0.000436; 0.037364; 0.031544;,
       0.004605; 0.032287; 0.031697;,
       0.004605; 0.027309; 0.013865;,
       0.000436; 0.031810; 0.011511;,
      -0.005851; 0.039270; 0.031487;,
       0.000436; 0.037364; 0.031544;,
       0.000436; 0.031810; 0.011511;,
      -0.005851; 0.033500; 0.010627;,
      -0.016307; 0.032287; 0.031697;,
      -0.012139; 0.037364; 0.031544;,
      -0.012139; 0.031810; 0.011511;,
      -0.016307; 0.027309; 0.013865;,
      -0.016307; 0.018495;-0.000466;,
      -0.012139; 0.021443;-0.004602;,
      -0.012139; 0.003663;-0.016947;,
      -0.016307; 0.002051;-0.012130;,
       0.000436; 0.031810; 0.011511;,
       0.004605; 0.027309; 0.013865;,
       0.004605; 0.018495;-0.000466;,
       0.000436; 0.021443;-0.004602;,
      -0.005851; 0.033500; 0.010627;,
       0.000436; 0.031810; 0.011511;,
       0.000436; 0.021443;-0.004602;,
      -0.005851; 0.026203;-0.006155;,
      -0.015623;-0.005856; 0.032433;,
      -0.013854;-0.011108; 0.011981;,
       0.002151;-0.011108; 0.011981;,
       0.003584;-0.005856; 0.032433;,
      -0.003185;-0.005856; 0.032433;,
      -0.008904;-0.005856; 0.032433;,
      -0.008928;-0.020170; 0.057638;,
      -0.008904;-0.021265; 0.036768;,
      -0.003185;-0.021265; 0.036768;,
      -0.005390;-0.020313; 0.057689;,
      -0.012139; 0.031810; 0.011511;,
      -0.005851; 0.033500; 0.010627;,
      -0.005851; 0.026203;-0.006155;,
      -0.012139; 0.021443;-0.004602;,
      -0.016307; 0.032287; 0.031697;,
      -0.016307; 0.027309; 0.013865;,
      -0.016307; 0.018495;-0.000466;,
      -0.013854;-0.011108; 0.011981;,
      -0.015623;-0.005856; 0.032433;,
      -0.005851; 0.001675;-0.018756;,
       0.000436; 0.003663;-0.016947;,
       0.000436;-0.020218;-0.024935;,
      -0.005851;-0.019613;-0.026744;,
       0.000436; 0.021443;-0.004602;,
       0.004605; 0.018495;-0.000466;,
       0.004605; 0.002051;-0.012130;,
       0.000436; 0.003663;-0.016947;,
      -0.016307; 0.018495;-0.000466;,
      -0.016307; 0.002051;-0.012130;,
      -0.018725;-0.021829;-0.020118;,
      -0.016271;-0.023889; 0.001967;,
      -0.013854;-0.011108; 0.011981;,
      -0.016379; 0.018624;-0.138694;,
       0.003694; 0.018624;-0.138694;,
       0.003694;-0.044497;-0.134310;,
      -0.016379;-0.044497;-0.134310;,
      -0.012139; 0.003663;-0.016947;,
      -0.012139; 0.021443;-0.004602;,
      -0.012139; 0.013110;-0.121959;,
      -0.012139;-0.003285;-0.117765;,
      -0.016271;-0.023889; 0.001967;,
      -0.018725;-0.021829;-0.020118;,
      -0.020089;-0.051470;-0.030033;,
      -0.017636;-0.053530;-0.003982;,
      -0.012139; 0.003663;-0.016947;,
      -0.005851; 0.001675;-0.018756;,
      -0.005851;-0.019613;-0.026744;,
      -0.012139;-0.020218;-0.024935;,
      -0.013854;-0.011108; 0.011981;,
      -0.016271;-0.023889; 0.001967;,
       0.004797;-0.023889; 0.001967;,
       0.002151;-0.011108; 0.011981;,
      -0.016307; 0.002051;-0.012130;,
      -0.012139; 0.003663;-0.016947;,
      -0.012139;-0.020218;-0.024935;,
      -0.018725;-0.021829;-0.020118;,
       0.000436; 0.003663;-0.016947;,
       0.004605; 0.002051;-0.012130;,
       0.007250;-0.021829;-0.020118;,
       0.000436;-0.020218;-0.024935;,
       0.009362;-0.051470;-0.030033;,
       0.006909;-0.053530;-0.003982;,
      -0.017636;-0.053530;-0.003982;,
      -0.020089;-0.051470;-0.030033;,
      -0.012139;-0.049859;-0.034850;,
      -0.005851;-0.049254;-0.036659;,
       0.000436;-0.049859;-0.034850;,
       0.007250;-0.021829;-0.020118;,
       0.004797;-0.023889; 0.001967;,
       0.006909;-0.053530;-0.003982;,
       0.009362;-0.051470;-0.030033;,
      -0.005851;-0.019613;-0.026744;,
       0.000436;-0.020218;-0.024935;,
       0.000436;-0.049859;-0.034850;,
      -0.005851;-0.049254;-0.036659;,
      -0.012139;-0.020218;-0.024935;,
      -0.005851;-0.019613;-0.026744;,
      -0.005851;-0.049254;-0.036659;,
      -0.012139;-0.049859;-0.034850;,
       0.004797;-0.023889; 0.001967;,
      -0.016271;-0.023889; 0.001967;,
      -0.017636;-0.053530;-0.003982;,
       0.006909;-0.053530;-0.003982;,
      -0.018725;-0.021829;-0.020118;,
      -0.012139;-0.020218;-0.024935;,
      -0.012139;-0.049859;-0.034850;,
      -0.020089;-0.051470;-0.030033;,
       0.000436;-0.020218;-0.024935;,
       0.007250;-0.021829;-0.020118;,
       0.009362;-0.051470;-0.030033;,
       0.000436;-0.049859;-0.034850;,
       0.002151;-0.011108; 0.011981;,
       0.004797;-0.023889; 0.001967;,
       0.007250;-0.021829;-0.020118;,
       0.004605; 0.002051;-0.012130;,
       0.004605; 0.018495;-0.000466;,
       0.007767; 0.005802; 0.189666;,
       0.001677; 0.017170; 0.189073;,
       0.001677; 0.020785; 0.360904;,
       0.007767; 0.009417; 0.361497;,
       0.001677; 0.017170; 0.189073;,
      -0.013538; 0.017164; 0.189073;,
      -0.013537; 0.020779; 0.360905;,
       0.001677; 0.020785; 0.360904;,
      -0.013538; 0.017164; 0.189073;,
      -0.019619; 0.005792; 0.189667;,
      -0.019619; 0.009407; 0.361498;,
      -0.013537; 0.020779; 0.360905;,
      -0.019619; 0.005792; 0.189667;,
      -0.015605;-0.003876; 0.153767;,
      -0.015605;-0.000261; 0.362002;,
      -0.019619; 0.009407; 0.361498;,
      -0.015605;-0.003876; 0.153767;,
      -0.005921;-0.007877; 0.153976;,
      -0.005921;-0.004262; 0.362211;,
      -0.015605;-0.000261; 0.362002;,
      -0.005921;-0.007877; 0.153976;,
       0.003760;-0.003869; 0.153766;,
       0.003760;-0.000254; 0.362002;,
      -0.005921;-0.004262; 0.362211;,
       0.007767; 0.009417; 0.361497;,
       0.001677; 0.020785; 0.360904;,
      -0.013537; 0.020779; 0.360905;,
      -0.019619; 0.009407; 0.361498;,
      -0.015605;-0.000261; 0.362002;,
      -0.005921;-0.004262; 0.362211;,
       0.003760;-0.000254; 0.362002;,
       0.003760;-0.003869; 0.153766;,
       0.007767; 0.005802; 0.189666;,
       0.007767; 0.009417; 0.361497;,
       0.003760;-0.000254; 0.362002;,
      -0.008928;-0.005212; 0.061875;,
      -0.008904;-0.005856; 0.032433;,
      -0.008904;-0.021265; 0.036768;,
      -0.008910;-0.019546; 0.037654;,
      -0.008913;-0.010386; 0.040127;,
      -0.008916;-0.007824; 0.044541;,
      -0.008923;-0.008829; 0.051157;,
      -0.008925;-0.010401; 0.055267;,
      -0.008926;-0.018714; 0.057296;,
      -0.008928;-0.020170; 0.057638;,
      -0.003643; 0.020193; 0.188990;,
       0.001677; 0.017170; 0.189073;,
       0.002151; 0.023289; 0.188897;,
      -0.013854; 0.023289; 0.188897;,
      -0.013538; 0.017164; 0.189073;,
      -0.008059; 0.020193; 0.188990;,
       0.005249; 0.029081; 0.188723;,
       0.002151; 0.023289; 0.188897;,
       0.001677; 0.017170; 0.189073;,
       0.007767; 0.005802; 0.189666;,
      -0.015623;-0.002656; 0.148533;,
      -0.015605;-0.003876; 0.153767;,
      -0.019619; 0.005792; 0.189667;,
      -0.016951; 0.029081; 0.188723;,
      -0.016951; 0.028951; 0.184397;,
       0.003584;-0.002656; 0.148533;,
       0.005249; 0.028951; 0.184397;,
       0.005249; 0.029081; 0.188723;,
       0.007767; 0.005802; 0.189666;,
       0.003760;-0.003869; 0.153766;,
      -0.008916;-0.007824; 0.044541;,
      -0.004349;-0.007814; 0.044896;,
      -0.004912;-0.008907; 0.051348;,
      -0.008923;-0.008829; 0.051157;,
      -0.015623;-0.002656; 0.148533;,
       0.003584;-0.002656; 0.148533;,
       0.003760;-0.003869; 0.153766;,
      -0.005921;-0.007877; 0.153976;,
      -0.015605;-0.003876; 0.153767;,
      -0.008923;-0.008829; 0.051157;,
      -0.004912;-0.008907; 0.051348;,
      -0.005093;-0.010388; 0.055244;,
      -0.008925;-0.010401; 0.055267;,
      -0.008910;-0.019546; 0.037654;,
      -0.003636;-0.020065; 0.037688;,
      -0.004001;-0.010386; 0.040558;,
      -0.008913;-0.010386; 0.040127;,
      -0.003636;-0.020065; 0.037688;,
      -0.005242;-0.018707; 0.057296;,
      -0.005390;-0.020313; 0.057689;,
      -0.003185;-0.021265; 0.036768;,
      -0.008925;-0.010401; 0.055267;,
      -0.005093;-0.010388; 0.055244;,
      -0.005242;-0.018707; 0.057296;,
      -0.008926;-0.018714; 0.057296;,
      -0.008926;-0.018714; 0.057296;,
      -0.008910;-0.019546; 0.037654;,
      -0.008904;-0.021265; 0.036768;,
      -0.008928;-0.020170; 0.057638;,
      -0.008913;-0.010386; 0.040127;,
      -0.004001;-0.010386; 0.040558;,
      -0.004349;-0.007814; 0.044896;,
      -0.008916;-0.007824; 0.044541;,
      -0.003636;-0.020065; 0.037688;,
      -0.008910;-0.019546; 0.037654;,
      -0.008926;-0.018714; 0.057296;,
      -0.005242;-0.018707; 0.057296;,
       0.000436; 0.021443;-0.004602;,
       0.000436; 0.003663;-0.016947;,
       0.000436;-0.003285;-0.117765;,
       0.000436; 0.013110;-0.121959;,
      -0.005851; 0.026203;-0.006155;,
       0.000436; 0.021443;-0.004602;,
       0.000436; 0.013110;-0.121959;,
      -0.005851; 0.016416;-0.123835;,
       0.000436; 0.003663;-0.016947;,
      -0.005851; 0.001675;-0.018756;,
      -0.005851;-0.006757;-0.119457;,
       0.000436;-0.003285;-0.117765;,
      -0.012139; 0.021443;-0.004602;,
      -0.005851; 0.026203;-0.006155;,
      -0.005851; 0.016416;-0.123835;,
      -0.012139; 0.013110;-0.121959;,
      -0.005851; 0.001675;-0.018756;,
      -0.012139; 0.003663;-0.016947;,
      -0.012139;-0.003285;-0.117765;,
      -0.005851;-0.006757;-0.119457;,
      -0.016379;-0.043957;-0.126530;,
      -0.012139;-0.004501;-0.122300;,
      -0.016379; 0.019165;-0.130915;,
       0.000436; 0.013110;-0.121959;,
       0.003694; 0.019165;-0.130915;,
      -0.005851; 0.016416;-0.123835;,
       0.003694;-0.043957;-0.126530;,
      -0.005851;-0.006757;-0.119457;,
      -0.016379;-0.043957;-0.126530;,
       0.003694;-0.043957;-0.126530;,
      -0.016379;-0.043957;-0.126530;,
      -0.016379;-0.044497;-0.134310;,
       0.003694;-0.044497;-0.134310;,
       0.000436;-0.003285;-0.117765;,
      -0.005851;-0.006757;-0.119457;,
       0.003694;-0.043957;-0.126530;,
       0.000436;-0.004501;-0.122300;,
       0.003694; 0.019165;-0.130915;,
       0.000436;-0.004501;-0.122300;,
       0.003694;-0.043957;-0.126530;,
       0.003694; 0.019165;-0.130915;,
       0.003694;-0.043957;-0.126530;,
       0.003694;-0.044497;-0.134310;,
       0.003694; 0.018624;-0.138694;,
      -0.005851; 0.016416;-0.123835;,
      -0.016379; 0.019165;-0.130915;,
      -0.012139; 0.013110;-0.121959;,
      -0.012139;-0.003285;-0.117765;,
      -0.012139; 0.013110;-0.121959;,
      -0.016379; 0.019165;-0.130915;,
      -0.012139;-0.004501;-0.122300;,
      -0.016379; 0.019165;-0.130915;,
       0.003694; 0.019165;-0.130915;,
       0.003694; 0.018624;-0.138694;,
      -0.016379; 0.018624;-0.138694;,
       0.003694; 0.019165;-0.130915;,
      -0.016379; 0.019165;-0.130915;,
      -0.005851; 0.016416;-0.123835;,
       0.000436;-0.003285;-0.117765;,
       0.000436;-0.004501;-0.122300;,
       0.003694; 0.019165;-0.130915;,
       0.000436; 0.013110;-0.121959;,
      -0.012139;-0.003285;-0.117765;,
      -0.012139;-0.004501;-0.122300;,
      -0.016379;-0.043957;-0.126530;,
      -0.005851;-0.006757;-0.119457;,
      -0.016379;-0.043957;-0.126530;,
      -0.016379; 0.019165;-0.130915;,
      -0.016379; 0.018624;-0.138694;,
      -0.016379;-0.044497;-0.134310;,
      -0.004060; 0.037125; 0.395877;,
      -0.004774; 0.037995; 0.395851;,
      -0.005851; 0.038321; 0.395841;,
      -0.006928; 0.037995; 0.395851;,
      -0.007642; 0.037125; 0.395877;,
      -0.007752; 0.036006; 0.395911;,
      -0.007222; 0.035014; 0.395941;,
      -0.006229; 0.034484; 0.395957;,
      -0.005473; 0.034484; 0.395957;,
      -0.004481; 0.035014; 0.395941;,
      -0.003950; 0.036006; 0.395911;,
      -0.011379; 0.044797; 0.426282;,
      -0.015044; 0.040334; 0.426416;,
      -0.007642; 0.037125; 0.395877;,
      -0.006928; 0.037995; 0.395851;,
      -0.005851; 0.046473; 0.426231;,
      -0.011379; 0.044797; 0.426282;,
      -0.006928; 0.037995; 0.395851;,
      -0.005851; 0.038321; 0.395841;,
       0.003908; 0.034587; 0.426589;,
       0.003342; 0.040334; 0.426416;,
      -0.004060; 0.037125; 0.395877;,
      -0.003950; 0.036006; 0.395911;,
      -0.015610; 0.034587; 0.426589;,
      -0.012887; 0.029494; 0.426742;,
      -0.007222; 0.035014; 0.395941;,
      -0.007752; 0.036006; 0.395911;,
      -0.007792; 0.026772; 0.426824;,
      -0.003910; 0.026772; 0.426824;,
      -0.005473; 0.034484; 0.395957;,
      -0.006229; 0.034484; 0.395957;,
       0.001185; 0.029494; 0.426742;,
       0.003908; 0.034587; 0.426589;,
      -0.003950; 0.036006; 0.395911;,
      -0.004481; 0.035014; 0.395941;,
      -0.003910; 0.026772; 0.426824;,
       0.001185; 0.029494; 0.426742;,
      -0.004481; 0.035014; 0.395941;,
      -0.005473; 0.034484; 0.395957;,
      -0.000323; 0.044797; 0.426282;,
      -0.005851; 0.046473; 0.426231;,
      -0.005851; 0.038321; 0.395841;,
      -0.004774; 0.037995; 0.395851;,
      -0.015044; 0.040334; 0.426416;,
      -0.015610; 0.034587; 0.426589;,
      -0.007752; 0.036006; 0.395911;,
      -0.007642; 0.037125; 0.395877;,
       0.003342; 0.040334; 0.426416;,
      -0.000323; 0.044797; 0.426282;,
      -0.004774; 0.037995; 0.395851;,
      -0.004060; 0.037125; 0.395877;;
      125;
      4;3,2,1,0;,
      4;7,6,5,4;,
      4;11,10,9,8;,
      4;15,14,13,12;,
      4;19,18,17,16;,
      4;23,22,21,20;,
      4;27,26,25,24;,
      4;31,30,29,28;,
      4;35,34,33,32;,
      4;39,38,37,36;,
      4;43,42,41,40;,
      4;47,46,45,44;,
      4;51,50,49,48;,
      4;55,54,53,52;,
      4;59,58,57,56;,
      4;63,62,61,60;,
      4;67,66,65,64;,
      4;71,70,69,68;,
      4;75,74,73,72;,
      4;79,78,77,76;,
      4;83,82,81,80;,
      4;87,86,85,84;,
      4;91,90,89,88;,
      4;95,94,93,92;,
      4;99,98,97,96;,
      4;103,102,101,100;,
      4;107,106,105,104;,
      4;111,110,109,108;,
      4;115,114,113,112;,
      4;119,118,117,116;,
      4;123,122,121,120;,
      4;127,126,125,124;,
      4;131,130,129,128;,
      10;141,140,139,138,137,136,135,134,133,132;,
      4;145,144,143,142;,
      4;149,148,147,146;,
      4;153,152,151,150;,
      8;161,160,159,158,157,156,155,154;,
      4;165,164,163,162;,
      5;170,169,168,167,166;,
      4;174,173,172,171;,
      5;179,178,177,176,175;,
      5;184,183,182,181,180;,
      4;188,187,186,185;,
      4;192,191,190,189;,
      4;196,195,194,193;,
      4;200,199,198,197;,
      4;204,203,202,201;,
      4;208,207,206,205;,
      4;212,211,210,209;,
      6;218,217,216,215,214,213;,
      4;222,221,220,219;,
      4;226,225,224,223;,
      5;231,230,229,228,227;,
      4;235,234,233,232;,
      4;239,238,237,236;,
      5;244,243,242,241,240;,
      4;248,247,246,245;,
      4;252,251,250,249;,
      4;256,255,254,253;,
      4;260,259,258,257;,
      4;264,263,262,261;,
      4;268,267,266,265;,
      4;272,271,270,269;,
      7;279,278,277,276,275,274,273;,
      4;283,282,281,280;,
      4;287,286,285,284;,
      4;291,290,289,288;,
      4;295,294,293,292;,
      4;299,298,297,296;,
      4;303,302,301,300;,
      5;308,307,306,305,304;,
      4;312,311,310,309;,
      4;316,315,314,313;,
      4;320,319,318,317;,
      4;324,323,322,321;,
      4;328,327,326,325;,
      4;332,331,330,329;,
      7;339,338,337,336,335,334,333;,
      4;343,342,341,340;,
      10;353,352,351,350,349,348,347,346,345,344;,
      3;356,355,354;,
      3;359,358,357;,
      4;363,362,361,360;,
      5;368,367,366,365,364;,
      5;373,372,371,370,369;,
      4;377,376,375,374;,
      5;382,381,380,379,378;,
      4;386,385,384,383;,
      4;390,389,388,387;,
      4;394,393,392,391;,
      4;398,397,396,395;,
      4;402,401,400,399;,
      4;406,405,404,403;,
      4;410,409,408,407;,
      4;414,413,412,411;,
      4;418,417,416,415;,
      4;422,421,420,419;,
      4;426,425,424,423;,
      4;430,429,428,427;,
      3;433,432,431;,
      3;436,435,434;,
      3;439,438,437;,
      4;443,442,441,440;,
      4;447,446,445,444;,
      3;450,449,448;,
      4;454,453,452,451;,
      3;457,456,455;,
      4;461,460,459,458;,
      4;465,464,463,462;,
      3;468,467,466;,
      4;472,471,470,469;,
      4;476,475,474,473;,
      4;480,479,478,477;,
      11;491,490,489,488,487,486,485,484,483,482,481;,
      4;495,494,493,492;,
      4;499,498,497,496;,
      4;503,502,501,500;,
      4;507,506,505,504;,
      4;511,510,509,508;,
      4;515,514,513,512;,
      4;519,518,517,516;,
      4;523,522,521,520;,
      4;527,526,525,524;,
      4;531,530,529,528;;
      MeshNormals { // Cylinder_001 normals
        532;
         0.791498;-0.141758; 0.594470;,
         0.996094;-0.049867; 0.072420;,
         0.923582; 0.383221;-0.009888;,
         0.747093; 0.324809; 0.579943;,
        -0.923582; 0.383221;-0.009888;,
        -0.555193; 0.831416;-0.021485;,
        -0.555925; 0.830927;-0.021210;,
        -0.934599; 0.355510;-0.009919;,
         0.923582; 0.383221;-0.009888;,
         0.555193; 0.831416;-0.021485;,
         0.450056; 0.688650; 0.568438;,
         0.747093; 0.324809; 0.579943;,
        -0.995972;-0.049684; 0.074496;,
        -0.923582; 0.383221;-0.009888;,
        -0.934599; 0.355510;-0.009919;,
        -0.998169; 0.044588;-0.040712;,
        -0.435743;-0.421155; 0.795434;,
        -0.995972;-0.049684; 0.074496;,
        -0.998413;-0.043641; 0.035096;,
        -0.311136; 0.576250; 0.755699;,
        -0.555193; 0.831416;-0.021485;,
         0.000000; 0.999664;-0.025819;,
         0.000000; 0.999664;-0.025513;,
        -0.555925; 0.830927;-0.021210;,
         0.555193; 0.831416;-0.021485;,
         0.000000; 0.999664;-0.025819;,
         0.000000; 0.825709; 0.564074;,
         0.450056; 0.688650; 0.568438;,
         0.000000; 0.999664;-0.025819;,
         0.555193; 0.831416;-0.021485;,
         0.555925; 0.830927;-0.021210;,
         0.000000; 0.999664;-0.025513;,
         0.000000; 0.999664;-0.025819;,
        -0.555193; 0.831416;-0.021485;,
        -0.450056; 0.688681; 0.568438;,
         0.000000; 0.825709; 0.564074;,
        -0.935667; 0.316416;-0.156163;,
        -0.582080; 0.750969;-0.311686;,
        -0.744774; 0.585528;-0.320017;,
        -0.931913; 0.270211;-0.241890;,
        -0.569720;-0.553819; 0.607135;,
        -0.193701;-0.759117; 0.621418;,
         0.107059; 0.466323; 0.878079;,
         0.305429; 0.336833; 0.890622;,
        -0.555193; 0.831416;-0.021485;,
        -0.923582; 0.383221;-0.009888;,
        -0.747093; 0.324809; 0.579943;,
        -0.450056; 0.688681; 0.568438;,
         0.569750;-0.553819; 0.607135;,
         0.791498;-0.141758; 0.594470;,
        -0.427534; 0.116733; 0.896390;,
        -0.305429; 0.336833; 0.890622;,
         0.450056; 0.688650; 0.568438;,
         0.000000; 0.825709; 0.564074;,
         0.000000;-0.413251; 0.910611;,
        -0.246803;-0.337046; 0.908536;,
        -0.923582; 0.383221;-0.009888;,
        -0.995972;-0.049684; 0.074496;,
        -0.791498;-0.141758; 0.594470;,
        -0.747093; 0.324809; 0.579943;,
         0.791498;-0.141758; 0.594470;,
         0.747093; 0.324809; 0.579943;,
        -0.406995;-0.136540; 0.903134;,
        -0.427534; 0.116733; 0.896390;,
        -0.747093; 0.324809; 0.579943;,
        -0.791498;-0.141758; 0.594470;,
         0.427564; 0.116733; 0.896390;,
         0.407025;-0.136540; 0.903134;,
        -0.995972;-0.049684; 0.074496;,
        -0.435743;-0.421155; 0.795434;,
        -0.569720;-0.553819; 0.607135;,
        -0.791498;-0.141758; 0.594470;,
        -0.193701;-0.759117; 0.621418;,
         0.193701;-0.759117; 0.621418;,
        -0.107059; 0.466323; 0.878079;,
         0.107059; 0.466323; 0.878079;,
         0.193701;-0.759117; 0.621418;,
         0.569750;-0.553819; 0.607135;,
        -0.305429; 0.336833; 0.890622;,
        -0.107059; 0.466323; 0.878079;,
        -0.435743;-0.421155; 0.795434;,
        -0.214057;-0.864925;-0.453932;,
        -0.193701;-0.759117; 0.621418;,
        -0.569720;-0.553819; 0.607135;,
         0.000000; 0.825709; 0.564074;,
        -0.450056; 0.688681; 0.568438;,
         0.246803;-0.337046; 0.908536;,
         0.000000;-0.413251; 0.910611;,
        -0.214057;-0.864925;-0.453932;,
         0.214728;-0.867519;-0.448592;,
         0.193701;-0.759117; 0.621418;,
        -0.193701;-0.759117; 0.621418;,
         0.305429; 0.336833; 0.890622;,
         0.107059; 0.466323; 0.878079;,
         0.161199; 0.657888; 0.735618;,
         0.473312; 0.492233; 0.730491;,
        -0.791498;-0.141758; 0.594470;,
        -0.569720;-0.553819; 0.607135;,
         0.305429; 0.336833; 0.890622;,
         0.427564; 0.116733; 0.896390;,
         0.214728;-0.867519;-0.448592;,
         0.435774;-0.421064; 0.795465;,
         0.569750;-0.553819; 0.607135;,
         0.193701;-0.759117; 0.621418;,
         0.416456;-0.707511; 0.570910;,
        -0.457320;-0.706168; 0.540483;,
        -0.606830;-0.620594; 0.496567;,
         0.567278;-0.619404; 0.542650;,
        -0.450056; 0.688681; 0.568438;,
        -0.747093; 0.324809; 0.579943;,
         0.407025;-0.136540; 0.903134;,
         0.246803;-0.337046; 0.908536;,
         0.435774;-0.421064; 0.795465;,
         0.996094;-0.049867; 0.072420;,
         0.791498;-0.141758; 0.594470;,
         0.569750;-0.553819; 0.607135;,
         0.555193; 0.831416;-0.021485;,
         0.923582; 0.383221;-0.009888;,
         0.935362; 0.353496;-0.009919;,
         0.555925; 0.830927;-0.021210;,
         0.923582; 0.383221;-0.009888;,
         0.996094;-0.049867; 0.072420;,
         0.998230; 0.041200;-0.042329;,
         0.935362; 0.353496;-0.009919;,
         0.312418; 0.578967; 0.753105;,
        -0.311136; 0.576250; 0.755699;,
        -0.214057;-0.864925;-0.453932;,
         0.214728;-0.867519;-0.448592;,
         0.747093; 0.324809; 0.579943;,
         0.450056; 0.688650; 0.568438;,
        -0.246803;-0.337046; 0.908536;,
        -0.406995;-0.136540; 0.903134;,
         0.245827;-0.963622;-0.104740;,
         0.416456;-0.707511; 0.570910;,
         0.567278;-0.619404; 0.542650;,
         0.938353; 0.259560;-0.228156;,
         0.625446;-0.560778;-0.542497;,
         0.677633;-0.724815;-0.124210;,
         0.612140;-0.764763; 0.200995;,
         0.577746;-0.480789; 0.659536;,
         0.917417; 0.227546; 0.326426;,
         0.626759;-0.640065;-0.444349;,
         0.555925; 0.830927;-0.021210;,
         0.935362; 0.353496;-0.009919;,
         0.937956; 0.341777;-0.058168;,
         0.543718; 0.830439;-0.121220;,
        -0.251015;-0.959044;-0.131046;,
         0.245827;-0.963622;-0.104740;,
         0.626759;-0.640065;-0.444349;,
        -0.594073;-0.652608;-0.470229;,
        -0.555925; 0.830927;-0.021210;,
         0.000000; 0.999664;-0.025513;,
         0.000000; 0.989776;-0.142491;,
        -0.543718; 0.830439;-0.121220;,
         0.740776;-0.642903;-0.194647;,
        -0.747276;-0.636341;-0.191290;,
        -0.730613;-0.677694; 0.083163;,
        -0.251015;-0.959044;-0.131046;,
        -0.457320;-0.706168; 0.540483;,
         0.416456;-0.707511; 0.570910;,
         0.245827;-0.963622;-0.104740;,
         0.726646;-0.681539; 0.086398;,
         0.000000; 0.999664;-0.025513;,
         0.555925; 0.830927;-0.021210;,
         0.543718; 0.830439;-0.121220;,
         0.000000; 0.989776;-0.142491;,
        -0.998169; 0.044588;-0.040712;,
        -0.934599; 0.355510;-0.009919;,
        -0.936888; 0.344462;-0.059755;,
        -0.730613;-0.677694; 0.083163;,
        -0.747276;-0.636341;-0.191290;,
        -0.934599; 0.355510;-0.009919;,
        -0.555925; 0.830927;-0.021210;,
        -0.543718; 0.830439;-0.121220;,
        -0.936888; 0.344462;-0.059755;,
         0.935362; 0.353496;-0.009919;,
         0.998230; 0.041200;-0.042329;,
         0.740776;-0.642903;-0.194647;,
         0.726646;-0.681539; 0.086398;,
         0.937956; 0.341777;-0.058168;,
         0.726646;-0.681539; 0.086398;,
         0.747703;-0.533311; 0.395581;,
         0.932401; 0.270608;-0.239448;,
         0.936674; 0.315104;-0.152715;,
         0.937956; 0.341777;-0.058168;,
        -0.543718; 0.830439;-0.121220;,
         0.000000; 0.989776;-0.142491;,
         0.000000; 0.928831;-0.370464;,
        -0.582080; 0.750969;-0.311686;,
         0.543718; 0.830439;-0.121220;,
         0.937956; 0.341777;-0.058168;,
         0.936674; 0.315104;-0.152715;,
         0.582080; 0.750969;-0.311686;,
         0.000000; 0.989776;-0.142491;,
         0.543718; 0.830439;-0.121220;,
         0.582080; 0.750969;-0.311686;,
         0.000000; 0.928831;-0.370464;,
        -0.936888; 0.344462;-0.059755;,
        -0.543718; 0.830439;-0.121220;,
        -0.582080; 0.750969;-0.311686;,
        -0.935667; 0.316416;-0.156163;,
        -0.931913; 0.270211;-0.241890;,
        -0.744774; 0.585528;-0.320017;,
        -0.877987; 0.020142;-0.478195;,
        -0.930174; 0.203345;-0.305612;,
         0.582080; 0.750969;-0.311686;,
         0.936674; 0.315104;-0.152715;,
         0.932401; 0.270608;-0.239448;,
         0.744774; 0.585528;-0.320017;,
         0.000000; 0.928831;-0.370464;,
         0.582080; 0.750969;-0.311686;,
         0.744774; 0.585528;-0.320017;,
         0.000000; 0.959655;-0.281075;,
        -0.730613;-0.677694; 0.083163;,
        -0.748039;-0.536271; 0.390851;,
         0.747703;-0.533311; 0.395581;,
         0.726646;-0.681539; 0.086398;,
         0.245827;-0.963622;-0.104740;,
        -0.251015;-0.959044;-0.131046;,
        -0.606830;-0.620594; 0.496567;,
        -0.594073;-0.652608;-0.470229;,
         0.626759;-0.640065;-0.444349;,
         0.567278;-0.619404; 0.542650;,
        -0.582080; 0.750969;-0.311686;,
         0.000000; 0.928831;-0.370464;,
         0.000000; 0.959655;-0.281075;,
        -0.744774; 0.585528;-0.320017;,
        -0.936888; 0.344462;-0.059755;,
        -0.935667; 0.316416;-0.156163;,
        -0.931913; 0.270211;-0.241890;,
        -0.748039;-0.536271; 0.390851;,
        -0.730613;-0.677694; 0.083163;,
         0.000000;-0.548967;-0.835810;,
         0.876827; 0.021455;-0.480270;,
         0.444533; 0.301218;-0.843562;,
         0.000000; 0.325388;-0.945555;,
         0.744774; 0.585528;-0.320017;,
         0.932401; 0.270608;-0.239448;,
         0.928526; 0.208472;-0.307108;,
         0.876827; 0.021455;-0.480270;,
        -0.931913; 0.270211;-0.241890;,
        -0.930174; 0.203345;-0.305612;,
        -0.922178; 0.162847;-0.350749;,
        -0.738060;-0.229102; 0.634632;,
        -0.748039;-0.536271; 0.390851;,
        -0.577349; 0.535936;-0.615955;,
         0.577349; 0.535936;-0.615955;,
         0.577349;-0.615955;-0.535936;,
        -0.577349;-0.615955;-0.535936;,
        -0.877987; 0.020142;-0.478195;,
        -0.744774; 0.585528;-0.320017;,
        -0.856227; 0.448500; 0.256264;,
        -0.873348;-0.363170; 0.324564;,
        -0.738060;-0.229102; 0.634632;,
        -0.922178; 0.162847;-0.350749;,
        -0.734428;-0.526414;-0.428327;,
        -0.570086;-0.650868; 0.501328;,
        -0.877987; 0.020142;-0.478195;,
         0.000000;-0.548967;-0.835810;,
         0.000000; 0.325388;-0.945555;,
        -0.455184; 0.297494;-0.839198;,
        -0.748039;-0.536271; 0.390851;,
        -0.738060;-0.229102; 0.634632;,
         0.737449;-0.218116; 0.639180;,
         0.747703;-0.533311; 0.395581;,
        -0.930174; 0.203345;-0.305612;,
        -0.877987; 0.020142;-0.478195;,
        -0.455184; 0.297494;-0.839198;,
        -0.922178; 0.162847;-0.350749;,
         0.876827; 0.021455;-0.480270;,
         0.928526; 0.208472;-0.307108;,
         0.915830; 0.178747;-0.359569;,
         0.444533; 0.301218;-0.843562;,
         0.736717;-0.511093;-0.442671;,
         0.578082;-0.643880; 0.501144;,
        -0.570086;-0.650868; 0.501328;,
        -0.734428;-0.526414;-0.428327;,
        -0.357006;-0.512253;-0.781091;,
         0.000000;-0.449904;-0.893063;,
         0.342021;-0.517167;-0.784539;,
         0.915830; 0.178747;-0.359569;,
         0.737449;-0.218116; 0.639180;,
         0.578082;-0.643880; 0.501144;,
         0.736717;-0.511093;-0.442671;,
         0.000000; 0.325388;-0.945555;,
         0.444533; 0.301218;-0.843562;,
         0.342021;-0.517167;-0.784539;,
         0.000000;-0.449904;-0.893063;,
        -0.455184; 0.297494;-0.839198;,
         0.000000; 0.325388;-0.945555;,
         0.000000;-0.449904;-0.893063;,
        -0.357006;-0.512253;-0.781091;,
         0.737449;-0.218116; 0.639180;,
        -0.738060;-0.229102; 0.634632;,
        -0.570086;-0.650868; 0.501328;,
         0.578082;-0.643880; 0.501144;,
        -0.922178; 0.162847;-0.350749;,
        -0.455184; 0.297494;-0.839198;,
        -0.357006;-0.512253;-0.781091;,
        -0.734428;-0.526414;-0.428327;,
         0.444533; 0.301218;-0.843562;,
         0.915830; 0.178747;-0.359569;,
         0.736717;-0.511093;-0.442671;,
         0.342021;-0.517167;-0.784539;,
         0.747703;-0.533311; 0.395581;,
         0.737449;-0.218116; 0.639180;,
         0.915830; 0.178747;-0.359569;,
         0.928526; 0.208472;-0.307108;,
         0.932401; 0.270608;-0.239448;,
         0.998444;-0.043245; 0.035035;,
         0.312418; 0.578967; 0.753105;,
         0.407636; 0.703818; 0.581713;,
         0.781213; 0.059267; 0.621418;,
         0.312418; 0.578967; 0.753105;,
        -0.311136; 0.576250; 0.755699;,
        -0.408124; 0.703543; 0.581744;,
         0.407636; 0.703818; 0.581713;,
        -0.311136; 0.576250; 0.755699;,
        -0.998413;-0.043641; 0.035096;,
        -0.781213; 0.058687; 0.621448;,
        -0.408124; 0.703543; 0.581744;,
        -0.998413;-0.043641; 0.035096;,
        -0.753410;-0.611835;-0.240791;,
        -0.547685;-0.528733; 0.648396;,
        -0.781213; 0.058687; 0.621448;,
        -0.753410;-0.611835;-0.240791;,
         0.000275;-0.973174;-0.229926;,
         0.000275;-0.753594; 0.657308;,
        -0.547685;-0.528733; 0.648396;,
         0.000275;-0.973174;-0.229926;,
         0.757286;-0.607288;-0.240150;,
         0.548112;-0.528336; 0.648366;,
         0.000275;-0.753594; 0.657308;,
         0.781213; 0.059267; 0.621418;,
         0.407636; 0.703818; 0.581713;,
        -0.408124; 0.703543; 0.581744;,
        -0.781213; 0.058687; 0.621448;,
        -0.547685;-0.528733; 0.648396;,
         0.000275;-0.753594; 0.657308;,
         0.548112;-0.528336; 0.648366;,
         0.757286;-0.607288;-0.240150;,
         0.998444;-0.043245; 0.035035;,
         0.781213; 0.059267; 0.621418;,
         0.548112;-0.528336; 0.648366;,
        -0.457320;-0.706168; 0.540483;,
        -0.251015;-0.959044;-0.131046;,
        -0.594073;-0.652608;-0.470229;,
        -0.937040; 0.206641; 0.281442;,
        -0.660115;-0.453017; 0.599109;,
        -0.651112;-0.743767; 0.151097;,
        -0.683370;-0.705618;-0.187292;,
        -0.616779;-0.519425;-0.591357;,
        -0.922941; 0.228584;-0.309610;,
        -0.606830;-0.620594; 0.496567;,
         0.214728;-0.867519;-0.448592;,
         0.312418; 0.578967; 0.753105;,
         0.435774;-0.421064; 0.795465;,
        -0.435743;-0.421155; 0.795434;,
        -0.311136; 0.576250; 0.755699;,
        -0.214057;-0.864925;-0.453932;,
         0.996094;-0.049867; 0.072420;,
         0.435774;-0.421064; 0.795465;,
         0.312418; 0.578967; 0.753105;,
         0.998444;-0.043245; 0.035035;,
        -0.747276;-0.636341;-0.191290;,
        -0.753410;-0.611835;-0.240791;,
        -0.998413;-0.043641; 0.035096;,
        -0.995972;-0.049684; 0.074496;,
        -0.998169; 0.044588;-0.040712;,
         0.740776;-0.642903;-0.194647;,
         0.998230; 0.041200;-0.042329;,
         0.996094;-0.049867; 0.072420;,
         0.998444;-0.043245; 0.035035;,
         0.757286;-0.607288;-0.240150;,
        -0.651112;-0.743767; 0.151097;,
         0.612140;-0.764763; 0.200995;,
         0.677633;-0.724815;-0.124210;,
        -0.683370;-0.705618;-0.187292;,
        -0.747276;-0.636341;-0.191290;,
         0.740776;-0.642903;-0.194647;,
         0.757286;-0.607288;-0.240150;,
         0.000275;-0.973174;-0.229926;,
        -0.753410;-0.611835;-0.240791;,
        -0.683370;-0.705618;-0.187292;,
         0.677633;-0.724815;-0.124210;,
         0.625446;-0.560778;-0.542497;,
        -0.616779;-0.519425;-0.591357;,
        -0.937040; 0.206641; 0.281442;,
         0.917417; 0.227546; 0.326426;,
         0.577746;-0.480789; 0.659536;,
        -0.660115;-0.453017; 0.599109;,
         0.917417; 0.227546; 0.326426;,
         0.938353; 0.259560;-0.228156;,
         0.567278;-0.619404; 0.542650;,
         0.626759;-0.640065;-0.444349;,
        -0.616779;-0.519425;-0.591357;,
         0.625446;-0.560778;-0.542497;,
         0.938353; 0.259560;-0.228156;,
        -0.922941; 0.228584;-0.309610;,
        -0.922941; 0.228584;-0.309610;,
        -0.937040; 0.206641; 0.281442;,
        -0.594073;-0.652608;-0.470229;,
        -0.606830;-0.620594; 0.496567;,
        -0.660115;-0.453017; 0.599109;,
         0.577746;-0.480789; 0.659536;,
         0.612140;-0.764763; 0.200995;,
        -0.651112;-0.743767; 0.151097;,
         0.917417; 0.227546; 0.326426;,
        -0.937040; 0.206641; 0.281442;,
        -0.922941; 0.228584;-0.309610;,
         0.938353; 0.259560;-0.228156;,
         0.744774; 0.585528;-0.320017;,
         0.876827; 0.021455;-0.480270;,
         0.879757;-0.365337; 0.304178;,
         0.869716; 0.441877; 0.219764;,
         0.000000; 0.959655;-0.281075;,
         0.744774; 0.585528;-0.320017;,
         0.869716; 0.441877; 0.219764;,
         0.003265; 0.950713; 0.310038;,
         0.876827; 0.021455;-0.480270;,
         0.000000;-0.548967;-0.835810;,
         0.003021;-0.611042; 0.791589;,
         0.879757;-0.365337; 0.304178;,
        -0.744774; 0.585528;-0.320017;,
         0.000000; 0.959655;-0.281075;,
         0.003265; 0.950713; 0.310038;,
        -0.856227; 0.448500; 0.256264;,
         0.000000;-0.548967;-0.835810;,
        -0.877987; 0.020142;-0.478195;,
        -0.873348;-0.363170; 0.324564;,
         0.003021;-0.611042; 0.791589;,
        -0.595721;-0.595691; 0.538713;,
        -0.795801;-0.032716; 0.604633;,
        -0.685751; 0.692618; 0.223579;,
         0.869716; 0.441877; 0.219764;,
         0.681570; 0.701865; 0.206946;,
         0.003265; 0.950713; 0.310038;,
         0.595050;-0.597400; 0.537553;,
         0.003021;-0.611042; 0.791589;,
        -0.595721;-0.595691; 0.538713;,
         0.595050;-0.597400; 0.537553;,
        -0.595721;-0.595691; 0.538713;,
        -0.577349;-0.615955;-0.535936;,
         0.577349;-0.615955;-0.535936;,
         0.879757;-0.365337; 0.304178;,
         0.003021;-0.611042; 0.791589;,
         0.595050;-0.597400; 0.537553;,
         0.835017;-0.038789; 0.548814;,
         0.681570; 0.701865; 0.206946;,
         0.835017;-0.038789; 0.548814;,
         0.595050;-0.597400; 0.537553;,
         0.681570; 0.701865; 0.206946;,
         0.595050;-0.597400; 0.537553;,
         0.577349;-0.615955;-0.535936;,
         0.577349; 0.535936;-0.615955;,
         0.003265; 0.950713; 0.310038;,
        -0.685751; 0.692618; 0.223579;,
        -0.856227; 0.448500; 0.256264;,
        -0.873348;-0.363170; 0.324564;,
        -0.856227; 0.448500; 0.256264;,
        -0.685751; 0.692618; 0.223579;,
        -0.795801;-0.032716; 0.604633;,
        -0.685751; 0.692618; 0.223579;,
         0.681570; 0.701865; 0.206946;,
         0.577349; 0.535936;-0.615955;,
        -0.577349; 0.535936;-0.615955;,
         0.681570; 0.701865; 0.206946;,
        -0.685751; 0.692618; 0.223579;,
         0.003265; 0.950713; 0.310038;,
         0.879757;-0.365337; 0.304178;,
         0.835017;-0.038789; 0.548814;,
         0.681570; 0.701865; 0.206946;,
         0.869716; 0.441877; 0.219764;,
        -0.873348;-0.363170; 0.324564;,
        -0.795801;-0.032716; 0.604633;,
        -0.595721;-0.595691; 0.538713;,
         0.003021;-0.611042; 0.791589;,
        -0.595721;-0.595691; 0.538713;,
        -0.685751; 0.692618; 0.223579;,
        -0.577349; 0.535936;-0.615955;,
        -0.577349;-0.615955;-0.535936;,
        -0.624165;-0.239570; 0.743614;,
        -0.376720;-0.544877; 0.749107;,
         0.000000;-0.660085; 0.751152;,
         0.376720;-0.544877; 0.749107;,
         0.624165;-0.239570; 0.743614;,
         0.659413; 0.150090; 0.736625;,
         0.473312; 0.492233; 0.730491;,
         0.161199; 0.657888; 0.735618;,
        -0.161199; 0.657888; 0.735618;,
        -0.473312; 0.492233; 0.730491;,
        -0.659413; 0.150090; 0.736625;,
         0.246803;-0.337046; 0.908536;,
         0.407025;-0.136540; 0.903134;,
         0.624165;-0.239570; 0.743614;,
         0.376720;-0.544877; 0.749107;,
         0.000000;-0.413251; 0.910611;,
         0.246803;-0.337046; 0.908536;,
         0.376720;-0.544877; 0.749107;,
         0.000000;-0.660085; 0.751152;,
        -0.427534; 0.116733; 0.896390;,
        -0.406995;-0.136540; 0.903134;,
        -0.624165;-0.239570; 0.743614;,
        -0.659413; 0.150090; 0.736625;,
         0.427564; 0.116733; 0.896390;,
         0.305429; 0.336833; 0.890622;,
         0.473312; 0.492233; 0.730491;,
         0.659413; 0.150090; 0.736625;,
         0.107059; 0.466323; 0.878079;,
        -0.107059; 0.466323; 0.878079;,
        -0.161199; 0.657888; 0.735618;,
         0.161199; 0.657888; 0.735618;,
        -0.305429; 0.336833; 0.890622;,
        -0.427534; 0.116733; 0.896390;,
        -0.659413; 0.150090; 0.736625;,
        -0.473312; 0.492233; 0.730491;,
        -0.107059; 0.466323; 0.878079;,
        -0.305429; 0.336833; 0.890622;,
        -0.473312; 0.492233; 0.730491;,
        -0.161199; 0.657888; 0.735618;,
        -0.246803;-0.337046; 0.908536;,
         0.000000;-0.413251; 0.910611;,
         0.000000;-0.660085; 0.751152;,
        -0.376720;-0.544877; 0.749107;,
         0.407025;-0.136540; 0.903134;,
         0.427564; 0.116733; 0.896390;,
         0.659413; 0.150090; 0.736625;,
         0.624165;-0.239570; 0.743614;,
        -0.406995;-0.136540; 0.903134;,
        -0.246803;-0.337046; 0.908536;,
        -0.376720;-0.544877; 0.749107;,
        -0.624165;-0.239570; 0.743614;;
        125;
        4;3,2,1,0;,
        4;7,6,5,4;,
        4;11,10,9,8;,
        4;15,14,13,12;,
        4;19,18,17,16;,
        4;23,22,21,20;,
        4;27,26,25,24;,
        4;31,30,29,28;,
        4;35,34,33,32;,
        4;39,38,37,36;,
        4;43,42,41,40;,
        4;47,46,45,44;,
        4;51,50,49,48;,
        4;55,54,53,52;,
        4;59,58,57,56;,
        4;63,62,61,60;,
        4;67,66,65,64;,
        4;71,70,69,68;,
        4;75,74,73,72;,
        4;79,78,77,76;,
        4;83,82,81,80;,
        4;87,86,85,84;,
        4;91,90,89,88;,
        4;95,94,93,92;,
        4;99,98,97,96;,
        4;103,102,101,100;,
        4;107,106,105,104;,
        4;111,110,109,108;,
        4;115,114,113,112;,
        4;119,118,117,116;,
        4;123,122,121,120;,
        4;127,126,125,124;,
        4;131,130,129,128;,
        10;141,140,139,138,137,136,135,134,133,132;,
        4;145,144,143,142;,
        4;149,148,147,146;,
        4;153,152,151,150;,
        8;161,160,159,158,157,156,155,154;,
        4;165,164,163,162;,
        5;170,169,168,167,166;,
        4;174,173,172,171;,
        5;179,178,177,176,175;,
        5;184,183,182,181,180;,
        4;188,187,186,185;,
        4;192,191,190,189;,
        4;196,195,194,193;,
        4;200,199,198,197;,
        4;204,203,202,201;,
        4;208,207,206,205;,
        4;212,211,210,209;,
        6;218,217,216,215,214,213;,
        4;222,221,220,219;,
        4;226,225,224,223;,
        5;231,230,229,228,227;,
        4;235,234,233,232;,
        4;239,238,237,236;,
        5;244,243,242,241,240;,
        4;248,247,246,245;,
        4;252,251,250,249;,
        4;256,255,254,253;,
        4;260,259,258,257;,
        4;264,263,262,261;,
        4;268,267,266,265;,
        4;272,271,270,269;,
        7;279,278,277,276,275,274,273;,
        4;283,282,281,280;,
        4;287,286,285,284;,
        4;291,290,289,288;,
        4;295,294,293,292;,
        4;299,298,297,296;,
        4;303,302,301,300;,
        5;308,307,306,305,304;,
        4;312,311,310,309;,
        4;316,315,314,313;,
        4;320,319,318,317;,
        4;324,323,322,321;,
        4;328,327,326,325;,
        4;332,331,330,329;,
        7;339,338,337,336,335,334,333;,
        4;343,342,341,340;,
        10;353,352,351,350,349,348,347,346,345,344;,
        3;356,355,354;,
        3;359,358,357;,
        4;363,362,361,360;,
        5;368,367,366,365,364;,
        5;373,372,371,370,369;,
        4;377,376,375,374;,
        5;382,381,380,379,378;,
        4;386,385,384,383;,
        4;390,389,388,387;,
        4;394,393,392,391;,
        4;398,397,396,395;,
        4;402,401,400,399;,
        4;406,405,404,403;,
        4;410,409,408,407;,
        4;414,413,412,411;,
        4;418,417,416,415;,
        4;422,421,420,419;,
        4;426,425,424,423;,
        4;430,429,428,427;,
        3;433,432,431;,
        3;436,435,434;,
        3;439,438,437;,
        4;443,442,441,440;,
        4;447,446,445,444;,
        3;450,449,448;,
        4;454,453,452,451;,
        3;457,456,455;,
        4;461,460,459,458;,
        4;465,464,463,462;,
        3;468,467,466;,
        4;472,471,470,469;,
        4;476,475,474,473;,
        4;480,479,478,477;,
        11;491,490,489,488,487,486,485,484,483,482,481;,
        4;495,494,493,492;,
        4;499,498,497,496;,
        4;503,502,501,500;,
        4;507,506,505,504;,
        4;511,510,509,508;,
        4;515,514,513,512;,
        4;519,518,517,516;,
        4;523,522,521,520;,
        4;527,526,525,524;,
        4;531,530,529,528;;
      } // End of Cylinder_001 normals
      MeshTextureCoords { // Cylinder_001 UV coordinates
        532;
         0.099682; 0.044783;,
         0.133892; 0.430227;,
         0.144550; 0.429300;,
         0.110340; 0.043857;,
         0.354477; 0.578790;,
         0.362607; 0.579920;,
         0.363165; 0.572889;,
         0.355035; 0.571758;,
         0.144550; 0.429300;,
         0.152888; 0.428079;,
         0.118678; 0.042635;,
         0.110340; 0.043857;,
         0.343853; 0.577861;,
         0.354477; 0.578790;,
         0.355035; 0.571758;,
         0.344411; 0.570830;,
         0.948575; 0.500214;,
         0.954679; 0.509007;,
         0.954679; 0.470859;,
         0.946923; 0.490364;,
         0.479430; 0.442156;,
         0.469175; 0.442706;,
         0.469176; 0.449670;,
         0.479432; 0.449120;,
         0.458889; 0.442177;,
         0.469175; 0.442706;,
         0.469086; 0.059736;,
         0.458800; 0.059207;,
         0.469175; 0.442706;,
         0.458889; 0.442177;,
         0.458890; 0.449141;,
         0.469176; 0.449670;,
         0.469175; 0.442706;,
         0.479430; 0.442156;,
         0.479342; 0.059186;,
         0.469086; 0.059736;,
         0.372057; 0.294383;,
         0.379644; 0.291844;,
         0.365680; 0.263882;,
         0.360297; 0.269586;,
         0.892865; 0.139345;,
         0.892865; 0.128620;,
         0.890563; 0.129351;,
         0.890563; 0.138781;,
         0.362607; 0.579920;,
         0.354477; 0.578790;,
         0.320542; 0.964631;,
         0.328672; 0.965762;,
         0.880577; 0.116268;,
         0.869876; 0.116238;,
         0.870351; 0.118464;,
         0.879760; 0.118491;,
         0.856883; 0.132069;,
         0.858971; 0.142595;,
         0.860762; 0.141638;,
         0.858927; 0.132384;,
         0.354477; 0.578790;,
         0.343853; 0.577861;,
         0.309918; 0.963703;,
         0.320542; 0.964631;,
         0.869876; 0.116238;,
         0.860978; 0.122171;,
         0.862527; 0.123681;,
         0.870351; 0.118464;,
         0.877033; 0.152323;,
         0.886920; 0.148246;,
         0.885336; 0.146608;,
         0.876644; 0.150192;,
         0.343853; 0.577861;,
         0.334315; 0.577448;,
         0.300380; 0.963290;,
         0.309918; 0.963703;,
         0.892865; 0.128620;,
         0.889475; 0.122253;,
         0.887583; 0.123753;,
         0.890563; 0.129351;,
         0.889475; 0.122253;,
         0.880577; 0.116268;,
         0.879760; 0.118491;,
         0.887583; 0.123753;,
         0.681126; 0.577484;,
         0.671644; 0.577492;,
         0.671644; 0.965762;,
         0.681126; 0.965754;,
         0.858971; 0.142595;,
         0.866538; 0.150200;,
         0.867415; 0.148326;,
         0.860762; 0.141638;,
         0.671644; 0.577492;,
         0.664431; 0.577492;,
         0.664431; 0.965762;,
         0.671644; 0.965762;,
         0.879871; 0.221569;,
         0.871527; 0.220799;,
         0.868999; 0.272507;,
         0.870624; 0.272657;,
         0.886920; 0.148246;,
         0.892865; 0.139345;,
         0.890563; 0.138781;,
         0.885336; 0.146608;,
         0.664431; 0.577492;,
         0.654982; 0.577484;,
         0.654982; 0.965755;,
         0.664431; 0.965762;,
         0.959982; 0.635126;,
         0.965762; 0.635101;,
         0.965762; 0.610320;,
         0.959982; 0.610098;,
         0.866538; 0.150200;,
         0.877033; 0.152323;,
         0.876644; 0.150192;,
         0.867415; 0.148326;,
         0.124508; 0.430548;,
         0.133892; 0.430227;,
         0.099682; 0.044783;,
         0.090298; 0.045104;,
         0.152888; 0.428079;,
         0.144550; 0.429300;,
         0.145113; 0.436324;,
         0.153452; 0.435103;,
         0.144550; 0.429300;,
         0.133892; 0.430227;,
         0.134456; 0.437251;,
         0.145113; 0.436324;,
         0.964905; 0.965762;,
         0.964905; 0.940908;,
         0.959990; 0.949860;,
         0.959992; 0.957073;,
         0.860978; 0.122171;,
         0.856883; 0.132069;,
         0.858927; 0.132384;,
         0.862527; 0.123681;,
         0.891514; 0.965762;,
         0.891514; 0.917277;,
         0.867014; 0.924871;,
         0.869647; 0.925473;,
         0.883303; 0.928539;,
         0.885865; 0.934853;,
         0.887877; 0.945390;,
         0.883832; 0.952588;,
         0.868125; 0.957652;,
         0.866189; 0.959252;,
         0.153452; 0.435103;,
         0.145113; 0.436324;,
         0.167221; 0.683666;,
         0.175560; 0.682445;,
         0.953731; 0.781254;,
         0.944388; 0.781252;,
         0.944388; 0.805725;,
         0.953731; 0.805726;,
         0.479432; 0.449120;,
         0.469176; 0.449670;,
         0.469234; 0.695463;,
         0.479490; 0.694913;,
         0.555131; 0.616928;,
         0.586506; 0.616924;,
         0.586480; 0.427199;,
         0.575505; 0.427200;,
         0.575549; 0.475305;,
         0.569770; 0.475552;,
         0.566162; 0.427202;,
         0.555105; 0.427203;,
         0.469176; 0.449670;,
         0.458890; 0.449141;,
         0.458948; 0.694934;,
         0.469234; 0.695463;,
         0.344411; 0.570830;,
         0.355035; 0.571758;,
         0.376967; 0.324162;,
         0.314888; 0.318574;,
         0.299432; 0.507205;,
         0.355035; 0.571758;,
         0.363165; 0.572889;,
         0.385097; 0.325292;,
         0.376967; 0.324162;,
         0.145113; 0.436324;,
         0.134456; 0.437251;,
         0.089586; 0.500654;,
         0.105176; 0.689088;,
         0.167221; 0.683666;,
         0.105176; 0.689088;,
         0.100335; 0.722917;,
         0.150587; 0.738152;,
         0.162332; 0.713402;,
         0.167221; 0.683666;,
         0.479490; 0.694913;,
         0.469234; 0.695463;,
         0.469200; 0.727833;,
         0.479457; 0.725998;,
         0.175560; 0.682445;,
         0.167221; 0.683666;,
         0.162332; 0.713402;,
         0.170129; 0.715845;,
         0.469234; 0.695463;,
         0.458948; 0.694934;,
         0.458915; 0.726019;,
         0.469200; 0.727833;,
         0.376967; 0.324162;,
         0.385097; 0.325292;,
         0.379644; 0.291844;,
         0.372057; 0.294383;,
         0.360297; 0.269586;,
         0.365680; 0.263882;,
         0.339009; 0.240689;,
         0.335676; 0.247736;,
         0.170129; 0.715845;,
         0.162332; 0.713402;,
         0.150587; 0.738152;,
         0.156183; 0.743753;,
         0.469200; 0.727833;,
         0.458915; 0.726019;,
         0.458843; 0.749638;,
         0.469152; 0.753254;,
         0.586480; 0.427199;,
         0.583561; 0.393559;,
         0.557417; 0.393563;,
         0.555105; 0.427203;,
         0.566162; 0.427202;,
         0.575505; 0.427200;,
         0.564181; 0.104307;,
         0.564181; 0.070177;,
         0.554838; 0.070166;,
         0.558402; 0.104376;,
         0.479457; 0.725998;,
         0.469200; 0.727833;,
         0.469152; 0.753254;,
         0.479385; 0.749617;,
         0.376967; 0.324162;,
         0.372057; 0.294383;,
         0.360297; 0.269586;,
         0.309941; 0.284699;,
         0.314888; 0.318574;,
         0.774458; 0.877690;,
         0.764188; 0.874202;,
         0.764185; 0.914185;,
         0.774455; 0.913453;,
         0.156183; 0.743753;,
         0.150587; 0.738152;,
         0.125977; 0.759938;,
         0.129524; 0.766878;,
         0.360297; 0.269586;,
         0.335676; 0.247736;,
         0.298407; 0.230234;,
         0.291053; 0.265911;,
         0.309941; 0.284699;,
         0.749603; 0.805725;,
         0.782392; 0.805726;,
         0.782392; 0.703604;,
         0.749603; 0.703602;,
         0.339009; 0.240689;,
         0.365680; 0.263882;,
         0.373025; 0.072290;,
         0.345662; 0.076137;,
         0.291053; 0.265911;,
         0.298407; 0.230234;,
         0.252095; 0.208694;,
         0.244036; 0.250793;,
         0.784730; 0.874202;,
         0.774458; 0.877690;,
         0.774455; 0.913453;,
         0.784727; 0.914185;,
         0.754574; 0.202022;,
         0.750568; 0.223774;,
         0.784983; 0.223774;,
         0.780719; 0.202022;,
         0.791542; 0.876152;,
         0.784730; 0.874202;,
         0.784727; 0.914185;,
         0.795488; 0.916135;,
         0.764188; 0.874202;,
         0.757382; 0.876152;,
         0.753057; 0.916135;,
         0.764185; 0.914185;,
         0.797713; 0.624411;,
         0.793720; 0.581969;,
         0.753625; 0.581969;,
         0.749603; 0.624411;,
         0.762581; 0.632201;,
         0.772849; 0.635126;,
         0.783123; 0.632201;,
         0.088591; 0.777454;,
         0.081333; 0.741746;,
         0.034238; 0.756910;,
         0.042206; 0.799034;,
         0.774455; 0.913453;,
         0.764185; 0.914185;,
         0.764181; 0.963812;,
         0.774451; 0.963080;,
         0.784727; 0.914185;,
         0.774455; 0.913453;,
         0.774451; 0.963080;,
         0.784723; 0.963812;,
         0.784983; 0.223774;,
         0.750568; 0.223774;,
         0.748312; 0.272657;,
         0.788407; 0.272657;,
         0.795488; 0.916135;,
         0.784727; 0.914185;,
         0.784723; 0.963812;,
         0.797714; 0.965762;,
         0.764185; 0.914185;,
         0.753057; 0.916135;,
         0.749603; 0.965762;,
         0.764181; 0.963812;,
         0.100335; 0.722917;,
         0.081333; 0.741746;,
         0.088591; 0.777454;,
         0.125977; 0.759938;,
         0.150587; 0.738152;,
         0.095886; 0.433168;,
         0.114549; 0.431282;,
         0.089654; 0.152591;,
         0.070991; 0.154476;,
         0.679835; 0.232043;,
         0.654982; 0.232064;,
         0.654982; 0.509007;,
         0.679835; 0.508986;,
         0.324329; 0.576667;,
         0.305964; 0.574905;,
         0.281269; 0.853885;,
         0.299634; 0.855647;,
         0.305964; 0.574905;,
         0.296520; 0.515466;,
         0.265349; 0.853412;,
         0.281269; 0.853885;,
         0.586471; 0.625415;,
         0.570632; 0.625571;,
         0.570666; 0.965762;,
         0.586506; 0.965606;,
         0.570632; 0.625571;,
         0.554838; 0.625418;,
         0.554873; 0.965609;,
         0.570666; 0.965762;,
         0.679835; 0.134379;,
         0.663545; 0.121130;,
         0.640600; 0.130680;,
         0.638534; 0.151568;,
         0.650631; 0.163567;,
         0.667739; 0.163502;,
         0.679835; 0.151412;,
         0.086677; 0.492423;,
         0.095886; 0.433168;,
         0.070991; 0.154476;,
         0.055265; 0.154824;,
         0.891506; 0.635126;,
         0.891506; 0.587141;,
         0.866189; 0.593628;,
         0.868964; 0.595135;,
         0.883834; 0.599505;,
         0.887860; 0.606791;,
         0.885983; 0.617532;,
         0.883268; 0.624169;,
         0.869621; 0.627164;,
         0.867231; 0.627667;,
         0.938595; 0.377089;,
         0.946703; 0.382926;,
         0.948549; 0.373103;,
         0.948575; 0.500214;,
         0.946923; 0.490364;,
         0.938595; 0.496284;,
         0.954597; 0.364274;,
         0.948549; 0.373103;,
         0.946703; 0.382926;,
         0.954597; 0.402383;,
         0.299432; 0.507205;,
         0.296520; 0.515466;,
         0.305964; 0.574905;,
         0.343853; 0.577861;,
         0.344411; 0.570830;,
         0.089586; 0.500654;,
         0.134456; 0.437251;,
         0.133892; 0.430227;,
         0.095886; 0.433168;,
         0.086677; 0.492423;,
         0.956372; 0.255263;,
         0.948909; 0.255825;,
         0.949797; 0.266310;,
         0.956349; 0.266019;,
         0.586506; 0.616924;,
         0.555131; 0.616928;,
         0.554838; 0.625418;,
         0.570632; 0.625571;,
         0.586471; 0.625415;,
         0.956349; 0.266019;,
         0.949797; 0.266310;,
         0.950069; 0.272604;,
         0.956327; 0.272657;,
         0.638534; 0.051769;,
         0.647145; 0.052654;,
         0.646640; 0.036605;,
         0.638613; 0.036605;,
         0.868125; 0.957652;,
         0.869647; 0.925473;,
         0.867014; 0.924871;,
         0.866189; 0.959252;,
         0.863142; 0.034516;,
         0.856883; 0.034496;,
         0.857123; 0.047748;,
         0.863142; 0.047762;,
         0.869621; 0.627164;,
         0.868964; 0.595135;,
         0.866189; 0.593628;,
         0.867231; 0.627667;,
         0.956372; 0.247936;,
         0.948347; 0.248620;,
         0.948909; 0.255825;,
         0.956372; 0.255263;,
         0.837329; 0.373240;,
         0.845948; 0.373402;,
         0.845948; 0.341841;,
         0.839930; 0.341854;,
         0.156183; 0.743753;,
         0.129524; 0.766878;,
         0.136293; 0.931248;,
         0.163664; 0.935133;,
         0.469152; 0.753254;,
         0.458843; 0.749638;,
         0.458842; 0.937410;,
         0.469139; 0.941207;,
         0.748312; 0.509005;,
         0.758573; 0.505960;,
         0.758565; 0.341134;,
         0.748312; 0.344058;,
         0.479385; 0.749617;,
         0.469152; 0.753254;,
         0.469139; 0.941207;,
         0.479383; 0.937390;,
         0.758573; 0.505960;,
         0.768853; 0.509007;,
         0.768853; 0.344060;,
         0.758565; 0.341134;,
         0.281333; 0.054154;,
         0.344496; 0.068572;,
         0.384590; 0.058400;,
         0.458842; 0.937410;,
         0.453573; 0.953312;,
         0.469139; 0.941207;,
         0.837329; 0.441878;,
         0.852890; 0.503191;,
         0.870119; 0.441878;,
         0.567566; 0.205642;,
         0.567566; 0.172852;,
         0.554838; 0.172853;,
         0.554838; 0.205643;,
         0.842610; 0.509007;,
         0.852890; 0.503191;,
         0.837329; 0.441878;,
         0.842638; 0.506615;,
         0.175044; 0.948997;,
         0.135132; 0.938802;,
         0.071774; 0.953078;,
         0.175044; 0.948997;,
         0.071774; 0.953078;,
         0.072289; 0.965762;,
         0.175560; 0.961680;,
         0.469139; 0.941207;,
         0.486362; 0.953279;,
         0.479383; 0.937390;,
         0.345662; 0.076137;,
         0.373025; 0.072290;,
         0.384590; 0.058400;,
         0.344496; 0.068572;,
         0.486362; 0.953279;,
         0.453573; 0.953312;,
         0.453573; 0.965762;,
         0.486362; 0.965729;,
         0.453573; 0.953312;,
         0.486362; 0.953279;,
         0.469139; 0.941207;,
         0.136293; 0.931248;,
         0.135132; 0.938802;,
         0.175044; 0.948997;,
         0.163664; 0.935133;,
         0.863152; 0.509007;,
         0.863179; 0.506615;,
         0.870119; 0.441878;,
         0.852890; 0.503191;,
         0.281333; 0.054154;,
         0.384590; 0.058400;,
         0.385097; 0.045702;,
         0.281839; 0.041456;,
         0.945090; 0.707612;,
         0.944388; 0.709307;,
         0.944746; 0.711110;,
         0.946042; 0.712413;,
         0.947839; 0.712776;,
         0.949533; 0.712078;,
         0.950551; 0.710554;,
         0.950551; 0.708716;,
         0.949970; 0.707626;,
         0.948446; 0.706601;,
         0.946614; 0.706596;,
         0.579804; 0.274555;,
         0.572606; 0.274119;,
         0.569150; 0.324998;,
         0.570552; 0.325083;,
         0.757333; 0.083543;,
         0.748312; 0.083539;,
         0.755614; 0.133545;,
         0.757371; 0.133546;,
         0.867659; 0.754889;,
         0.858255; 0.754889;,
         0.861516; 0.805655;,
         0.863348; 0.805655;,
         0.563230; 0.274119;,
         0.554838; 0.274555;,
         0.565689; 0.325083;,
         0.567324; 0.324998;,
         0.871527; 0.220799;,
         0.865185; 0.220799;,
         0.867764; 0.272507;,
         0.868999; 0.272507;,
         0.875912; 0.755255;,
         0.867659; 0.754889;,
         0.863348; 0.805655;,
         0.864956; 0.805727;,
         0.865185; 0.220799;,
         0.856883; 0.221569;,
         0.866146; 0.272658;,
         0.867764; 0.272507;,
         0.766373; 0.083539;,
         0.757333; 0.083543;,
         0.757371; 0.133546;,
         0.759132; 0.133545;,
         0.572606; 0.274119;,
         0.563230; 0.274119;,
         0.567324; 0.324998;,
         0.569150; 0.324998;,
         0.858255; 0.754889;,
         0.850869; 0.755255;,
         0.860077; 0.805726;,
         0.861516; 0.805655;;
      } // End of Cylinder_001 UV coordinates
      MeshMaterialList { // Cylinder_001 material list
        1;
        125;
        0,
        0,
        0,
        0,
        0,
        0,
        0,
        0,
        0,
        0,
        0,
        0,
        0,
        0,
        0,
        0,
        0,
        0,
        0,
        0,
        0,
        0,
        0,
        0,
        0,
        0,
        0,
        0,
        0,
        0,
        0,
        0,
        0,
        0,
        0,
        0,
        0,
        0,
        0,
        0,
        0,
        0,
        0,
        0,
        0,
        0,
        0,
        0,
        0,
        0,
        0,
        0,
        0,
        0,
        0,
        0,
        0,
        0,
        0,
        0,
        0,
        0,
        0,
        0,
        0,
        0,
        0,
        0,
        0,
        0,
        0,
        0,
        0,
        0,
        0,
        0,
        0,
        0,
        0,
        0,
        0,
        0,
        0,
        0,
        0,
        0,
        0,
        0,
        0,
        0,
        0,
        0,
        0,
        0,
        0,
        0,
        0,
        0,
        0,
        0,
        0,
        0,
        0,
        0,
        0,
        0,
        0,
        0,
        0,
        0,
        0,
        0,
        0,
        0,
        0,
        0,
        0,
        0,
        0,
        0,
        0,
        0,
        0,
        0,
        0;
        Material Material_015 {
           0.640000; 0.640000; 0.640000; 1.000000;;
           249.019608;
           0.400000; 0.400000; 0.400000;;
           0.000000; 0.000000; 0.000000;;
          TextureFilename {"Shotgun.png";}
        }
      } // End of Cylinder_001 material list
    } // End of Cylinder_001 mesh
  } // End of Cylinder_001
} // End of Root
